<?xml version="1.0" encoding="UTF-8" standalone="no"?>
<!-- Created with Inkscape (http://www.inkscape.org/) -->

<svg
   id="svg2"
   version="1.1"
   inkscape:version="1.3 (0e150ed6c4, 2023-07-21)"
   width="2481"
   height="3503"
   sodipodi:docname="E14P02.svg"
   xmlns:inkscape="http://www.inkscape.org/namespaces/inkscape"
   xmlns:sodipodi="http://sodipodi.sourceforge.net/DTD/sodipodi-0.dtd"
   xmlns:xlink="http://www.w3.org/1999/xlink"
   xmlns="http://www.w3.org/2000/svg"
   xmlns:svg="http://www.w3.org/2000/svg"
   xmlns:rdf="http://www.w3.org/1999/02/22-rdf-syntax-ns#"
   xmlns:cc="http://creativecommons.org/ns#"
   xmlns:dc="http://purl.org/dc/elements/1.1/">
  <sodipodi:namedview
     pagecolor="#ffffff"
     bordercolor="#666666"
     inkscape:pageopacity="0"
     inkscape:pageshadow="2"
     inkscape:window-width="1888"
     inkscape:window-height="1144"
     id="namedview70"
     showgrid="false"
     inkscape:zoom="0.56568542"
     inkscape:cx="1136.6742"
     inkscape:cy="813.1728"
     inkscape:current-layer="layer3"
     inkscape:window-x="32"
     inkscape:window-y="0"
     inkscape:window-maximized="1"
     borderopacity="1"
     inkscape:showpageshadow="0"
     inkscape:pagecheckerboard="0"
     inkscape:deskcolor="#d1d1d1" />
  <metadata
     id="metadata8">
    <rdf:RDF>
      <cc:Work
         rdf:about="">
        <dc:format>image/svg+xml</dc:format>
        <dc:type
           rdf:resource="http://purl.org/dc/dcmitype/StillImage" />
      </cc:Work>
    </rdf:RDF>
  </metadata>
  <defs
     id="defs6" />
  <sodipodi:namedview
     pagecolor="#ffffff"
     bordercolor="#666666"
     borderopacity="1"
     objecttolerance="10"
     gridtolerance="10"
     guidetolerance="10"
     inkscape:pageopacity="0"
     inkscape:pageshadow="2"
     inkscape:window-width="1920"
     inkscape:window-height="1025"
     id="namedview4"
     showgrid="false"
     inkscape:zoom="0.60835003"
     inkscape:cx="1322.9005"
     inkscape:cy="380.35249"
     inkscape:window-x="0"
     inkscape:window-y="26"
     inkscape:window-maximized="1"
     inkscape:current-layer="layer3" />
  <g
     inkscape:groupmode="layer"
     id="layer2"
     inkscape:label="artwork"
     sodipodi:insensitive="true">
    <image
       xlink:href="../gfx_Pepper-and-Carrot_by-David-Revoy_E14P02.png"
       width="2481"
       height="3503"
       id="image10"
       x="0"
       y="0" />
  </g>
  <g
     inkscape:groupmode="layer"
     id="layer3"
     inkscape:label="speechbubbles">
    <path
       style="fill:#d3d3d3;fill-opacity:1;fill-rule:evenodd;stroke:none;stroke-width:0.880098px;stroke-linecap:butt;stroke-linejoin:miter;stroke-opacity:1"
       d="m 124.02039,132.61673 c 27.16213,11.66977 67.89309,20.36171 2.80246,52.27723 24.69857,2.06021 55.14364,2.75921 30.82704,16.42999 9.37074,13.9406 -22.21394,27.88119 -44.83933,41.82179 23.66608,-4.87977 47.99983,-12.89713 16.47305,17.52267 16.93392,-0.8645 14.55572,7.09341 -8.06567,24.29911 53.40435,-32.09765 72.01368,-40.13158 74.26513,-14.93634 6.73942,-13.46311 19.8449,-16.97524 11.20983,26.88543 34.91382,-77.0031 5.03922,77.77691 -4.20369,228.52621 17.15008,-69.27325 47.76899,-352.65747 51.84548,-209.10895 27.33888,-103.2665 66.16141,-17.14442 74.26512,-5.97455 -6.80104,-80.39407 43.02302,-47.04189 56.04916,-16.42998 -3.35808,-19.61489 12.61645,-59.12178 60.29556,-10.89521 -11.36835,-17.72387 -3.6314,-36.03884 39.19169,7.90794 -12.98674,-29.30988 11.07059,-37.56563 86.02326,-9.65357 -0.57817,-14.54616 -7.88829,-29.85676 70.91437,-3.78915 -1.47837,-13.35742 -17.54553,-31.76888 89.67865,-7.46817 0.69947,-23.31109 17.97146,-24.70915 48.06336,-13.84124 -5.14075,-20.03222 27.72307,-10.86007 69.37653,2.70077 -26.5293,-27.41147 9.64315,-24.33366 61.91739,-15.74497 -5.07602,-13.27939 -12.33307,-26.91646 18.21599,-34.35362 -31.20348,-31.72859 1.41548,-33.69349 11.20982,-46.30269 -21.97499,2.20741 -38.93092,-9.15604 -13.60168,-25.75604 -44.36187,6.13681 -28.07179,-13.04165 -25.6327,-23.53393 L 828.83851,96.769474 758.77707,89.301298 674.70334,81.83312 596.23452,80.339486 h -79.87005 l -70.06144,2.98727 -60.25284,-7.468177 -61.65406,7.468177 -86.87619,-1.493636 -42.03687,25.3918 z"
       id="path4323"
       inkscape:connector-curvature="0"
       sodipodi:nodetypes="ccccccccccccccccccccccccccccccccccc" />
    <path
       style="fill:#b6b6b6;stroke:none;stroke-width:0.965644;fill-opacity:1"
       d="m 780.17969,374.74252 c -1.73947,-27.39189 29.44774,-95.96483 181.57757,-90.80698 152.12994,5.1578 199.74414,35.28798 204.20224,83.9771 7.0524,77.02485 -72.983,97.60852 -187.90653,103.31368 -118.47373,5.88151 -199.71206,-46.991 -197.87328,-96.4838 z"
       id="path3280"
       inkscape:connector-curvature="0"
       sodipodi:nodetypes="csssc" />
    <path
       style="color:#000000;display:inline;overflow:visible;visibility:visible;fill:#b6b6b6;fill-opacity:1;fill-rule:nonzero;stroke:none;stroke-width:1px;marker:none;enable-background:accumulate"
       d="m 816.05405,568.35967 c 39.18491,-37.68963 73.342,-77.76882 65.62626,-117.15486 -10.90688,-55.67559 -9.43261,-29.77014 -9.43261,-29.77014 l 41.81204,36.16737 c 4.42223,-1.37242 6.88006,49.17295 -98.00569,110.75763 z"
       id="path3072"
       inkscape:connector-curvature="0"
       sodipodi:nodetypes="csccc" />
    <path
       style="fill:#d3d3d3;fill-rule:evenodd;stroke:none;stroke-width:0.920446px;stroke-linecap:butt;stroke-linejoin:miter;stroke-opacity:1;fill-opacity:1"
       d="m 1346.7313,373.02704 c 7.1737,-30.55229 26.4916,-53.73323 47.5164,-69.20795 10.0054,-7.47095 21.4419,-12.94586 33.1448,-11.50576 11.6261,0.86044 22.9821,5.99789 34.7369,4.21344 14.2935,-0.58935 28.8379,-3.1608 42.9672,0.51355 12.5605,4.00918 25.5013,6.08557 38.4629,6.20599 9.144,-2.54485 17.5113,4.23787 25.6774,8.29473 7.3311,4.38207 14.8191,8.97958 20.9769,15.75792 5.6731,9.5154 12.4658,17.79366 18.2051,27.22437 3.7555,5.15569 3.3946,12.27706 3.2216,18.86777 -0.4878,13.49636 -1.3137,27.2058 -4.3794,40.20841 -1.8345,8.25494 -8.6155,10.9868 -13.8258,14.78008 -12.3284,8.00761 -25.4196,14.08004 -37.1855,23.50329 -11.6566,4.82518 -24.0445,2.56821 -35.9989,1.83903 -10.0171,-1.43631 -20.0937,-3.43918 -30.1967,-1.7689 -12.859,1.22232 -25.6788,4.38722 -38.5837,3.98184 -16.1662,-2.78183 -31.6491,-9.63137 -47.3156,-15.12588 -14.0557,-4.84289 -26.8661,-13.94951 -39.1583,-23.69126 -6.566,-5.53198 -13.5167,-11.96214 -15.834,-22.15692 -1.8995,-7.01999 -2.3471,-14.53671 -2.4313,-21.93375 z"
       id="path4365"
       inkscape:connector-curvature="0" />
    <path
       style="fill:#d3d3d3;stroke:none;fill-opacity:1"
       d="m 1600.5998,539.46175 c -28.0754,-14.3263 -28.0705,-24.10879 -27.1393,-35.26758 0.931,-11.15875 3.0258,-21.20884 -1.8373,-26.59493 -4.8629,-5.38607 -13.8837,-9.08681 -20.965,-10.93985 -7.0813,-1.85304 -2.5775,-10.15393 -3.484,-17.79341 -0.9066,-7.63954 -20.1711,-44.64576 -20.1711,-44.64576 0,0 -10.2917,29.72026 -10.4833,39.70135 -0.1918,9.98106 -0.313,13.62987 0.7147,17.62055 1.0279,3.99076 5.0156,13.43659 11.7527,17.22018 6.7371,3.78364 14.9313,4.06179 20.6767,5.77151 5.7455,1.70964 6.255,10.50318 7.37,19.09418 1.1149,8.59099 3.3294,14.64819 14.8496,23.66417 9.8749,7.72832 28.7163,12.16959 28.7163,12.16959 z"
       id="path3023"
       inkscape:connector-curvature="0"
       sodipodi:nodetypes="csssscssssssc" />
    <path
       style="fill:#ffe4a0;fill-rule:evenodd;stroke:none;stroke-width:1px;stroke-linecap:butt;stroke-linejoin:miter;stroke-opacity:1;fill-opacity:1"
       d="m 568.8634,1318.3227 c 104.31326,44.7459 702.5032,155.1743 811.2553,71.8972 58.8149,31.0736 60.5988,42.1012 121.6331,4.8129 89.8869,43.503 111.1049,28.7465 133.2993,20.0459 48.5521,7.5979 70.9469,10.8128 141.1257,39.7648 -74.8014,-20.5225 -93.9086,-23.7561 -138.3472,-25.7747 -64.3635,22.373 -112.0813,-6.2147 -133.1658,-17.4012 -62.5836,39.1667 -64.7247,30.9426 -125.6546,-6.0558 -65.191,62.6405 -404.44384,23.8741 -807.88989,-63.3003 4.43886,-12.4294 -2.25591,-23.9888 -2.25591,-23.9888 z"
       id="path4385"
       inkscape:connector-curvature="0"
       sodipodi:nodetypes="cccccccccc" />
    <path
       style="color:#000000;display:inline;overflow:visible;visibility:visible;fill:#ffe4a0;fill-opacity:1;fill-rule:nonzero;stroke:none;stroke-width:0.908524px;marker:none;enable-background:accumulate"
       d="m 253.72849,1294.2563 c 14.33272,-25.0866 44.48085,-46.182 84.01939,-54.7344 39.53852,-8.5523 112.68481,-6.2717 125.53489,-3.4209 12.84997,2.8508 83.52511,13.1134 98.84623,27.3671 15.32123,14.2539 36.07896,31.9285 40.52702,50.1732 4.4482,18.2448 0.49429,62.1464 -13.83844,71.8389 -14.33274,9.6927 -79.5713,30.788 -117.6272,31.9283 -38.05585,1.1404 -126.52324,-7.982 -151.7291,-14.2536 -25.20582,-6.2716 -51.8943,-14.2537 -59.80199,-34.209 -7.90775,-19.9553 -22.73469,-46.1822 -5.9308,-74.6896 z"
       id="path3533"
       inkscape:connector-curvature="0" />
    <path
       style="color:#000000;display:inline;overflow:visible;visibility:visible;fill:#ffe4a0;fill-opacity:1;fill-rule:nonzero;stroke:none;stroke-width:0.978145px;marker:none;enable-background:accumulate"
       d="m 966.07813,1419.7186 c 0.83317,-33.5988 11.61073,-48.879 53.23907,-54.035 42.5625,-5.2715 203.8461,-0.8543 234.8435,13.4829 23.296,10.7749 28.9401,29.3632 26.2675,51.2876 -2.4508,20.1057 -33.9185,42.0863 -86.302,46.1473 -52.7614,4.0905 -145.1757,0.1265 -173.499,-8.464 -28.32332,-8.5902 -52.83648,-21.5849 -54.54907,-48.4188 z"
       id="path3986"
       inkscape:connector-curvature="0"
       sodipodi:nodetypes="csssssc" />
    <path
       style="fill:#ffe4a0;fill-rule:evenodd;stroke:none;stroke-width:0.980878px;stroke-linecap:butt;stroke-linejoin:miter;stroke-opacity:1;fill-opacity:1"
       d="m 149.31105,2140.9069 c -64.079081,143.3288 405.75307,84.8962 445.3511,78.4896 32.33492,-3.9095 54.85188,-56.4084 12.55756,-95.9393 -22.3141,-23.0368 -395.69612,-58.7088 -457.90866,17.4497 z"
       id="path4430"
       inkscape:connector-curvature="0"
       sodipodi:nodetypes="cccc" />
    <path
       style="color:#000000;display:inline;overflow:visible;visibility:visible;fill:#ffe4a0;fill-opacity:1;fill-rule:nonzero;stroke:none;stroke-width:0.818074px;marker:none;enable-background:accumulate"
       d="m 653.77602,2312.6954 c -22.18529,16.6921 -211.70949,36.1509 -279.06915,2.6681 -67.35966,-33.4826 -27.64353,-74.6384 10.40179,-87.9393 38.04525,-13.301 150.45273,-28.4418 202.07271,-17.7234 51.62008,10.7182 91.97684,27.0384 95.22407,61.0984 1.32532,13.9011 -6.44405,25.2042 -28.62942,41.8962 z"
       id="path4040"
       inkscape:connector-curvature="0"
       sodipodi:nodetypes="zssssz" />
    <path
       style="fill:#ffe4a0;stroke:none;fill-opacity:1"
       d="m 841.66543,2570.7124 c -168.20546,-56.9231 -212.36128,-102.467 -272.87963,-227.2396 -31.03877,-63.9937 16.40761,-58.7269 16.40761,-58.7269 l -66.84596,-12.0365 c 0,0 -19.9862,-53.8679 0.8035,1.8299 20.7897,55.6978 51.93247,244.4932 322.51448,296.1731 z"
       id="path3063"
       inkscape:connector-curvature="0"
       sodipodi:nodetypes="cscczc" />
    <path
       style="color:#000000;display:inline;overflow:visible;visibility:visible;fill:#ffe4a0;fill-opacity:1;fill-rule:nonzero;stroke:none;stroke-width:0.911062px;marker:none;enable-background:accumulate"
       d="m 1728.335,3168.6148 c 22.7187,-33.782 52.4055,-57.7438 115.9988,-69.8353 63.5934,-12.0914 181.516,-10.2555 202.2693,-6.6566 20.7533,3.5985 134.8142,16.1484 159.7232,34.9535 24.9094,18.8049 34.3327,39.721 41.7786,64.0428 7.4458,24.3219 7.0803,72.7583 -21.2126,96.2875 -34.4021,28.6098 -103.4762,44.8606 -164.7925,47.0166 -61.3163,2.1561 -204.0351,-8.5741 -244.7541,-16.5419 -40.7186,-7.9678 -65.2709,-22.9439 -78.3184,-49.4954 -13.0476,-26.5515 -37.3419,-61.3743 -10.6923,-99.7712 z"
       id="path3533-6"
       inkscape:connector-curvature="0"
       sodipodi:nodetypes="cscssssssc" />
    <path
       style="color:#000000;display:inline;overflow:visible;visibility:visible;fill:#ffe4a0;fill-opacity:1;fill-rule:nonzero;stroke:none;stroke-width:1px;marker:none;enable-background:accumulate"
       d="m 1785.6357,3186.0855 c -20.1616,13.8181 16.9174,30.9609 -6.7481,39.3015 -23.6655,8.3406 -108.0753,7.8791 -138.1193,-16.3542 -60.0878,-48.4667 -44.2285,-81.6926 -44.2285,-81.6926 -2.0578,20.4814 35.0801,106.8869 189.0959,58.7453 z"
       id="path5002"
       inkscape:connector-curvature="0"
       sodipodi:nodetypes="csscc" />
    <path
       style="color:#000000;display:inline;overflow:visible;visibility:visible;fill:#d3d3d3;fill-opacity:1;fill-rule:nonzero;stroke:none;stroke-width:1.0439px;marker:none;enable-background:accumulate"
       d="m 599.47288,1414.4099 c -7.03505,23.6321 -46.71376,25.6137 -61.32059,20.8101 29.44398,26.4369 28.4175,42.8625 -11.55915,45.4129 67.04152,47.6461 12.2561,40.4362 1.45005,52.5179 52.64,16.4199 29.08833,36.8549 19.71657,57.1975 60.50449,0.6988 31.36938,13.6504 15.4206,41.8892 17.09702,-12.5392 62.17232,-48.66 58.79718,9.4108 32.59089,-32.2469 69.55174,-46.8625 92.05099,4.101 16.1248,-34.6974 32.75164,-53.9354 61.78707,-3.4047 -7.93439,-54.3966 45.03126,-39.0239 81.14665,-23.811 -8.57582,-14.5402 5.93861,-52.2882 41.27863,-35.3548 -24.00606,-23.7764 6.05871,-27.171 29.45844,-33.7441 -31.09453,-9.727 -36.82515,-19.7601 20.91043,-30.5573 -43.93338,-1.0444 -84.90158,-3.1841 -33.35814,-40.0057 -16.17061,-0.891 -54.53707,29.834 -36.64911,-60.0833 -27.80628,28.7857 -57.47306,44.6733 -94.67788,-15.6253 -17.60721,30.124 -48.14652,45.0305 -61.43261,7.4033 -4.77531,16.0411 -24.57624,22.074 -41.38576,22.8056 -6.50027,-6.3719 -13.20454,-15.0265 -20.20074,-26.3654 -11.43474,23.8087 -28.53986,39.8881 -61.43263,7.4033 z"
       id="path3549-3-7"
       inkscape:connector-curvature="0"
       sodipodi:nodetypes="cccccccccccccccccccc" />
    <path
       style="color:#000000;display:inline;overflow:visible;visibility:visible;fill:#d3d3d3;fill-opacity:1;fill-rule:nonzero;stroke:none;stroke-width:1px;marker:none;enable-background:accumulate"
       d="m 548.30505,1489.5343 c -32.71667,-14.168 -100.80088,-25.7605 -117.75539,-27.2872 -20.27048,14.0102 -50.61242,35.3064 -73.20544,50.1722 -5.31176,-1.4012 -91.51271,-47.8708 -99.56707,-45.7537 -8.05422,2.1172 -79.0692,29.9973 -84.37818,37.4927 18.70636,-20.5749 83.14331,-49.601 95.87634,-50.1894 8.58229,-0.7407 80.53436,35.2542 83.66571,38.0832 15.04972,-15.8838 71.20105,-48.2854 79.8175,-52.493 13.26097,0.788 64.22973,3.8642 121.88704,24.3755 57.65735,20.5113 -6.34051,25.5997 -6.34051,25.5997 z"
       id="path5901"
       inkscape:connector-curvature="0"
       sodipodi:nodetypes="ccccccccsc" />
  </g>
  <g
     inkscape:groupmode="layer"
     id="layer1"
     inkscape:label="txt">
    <text
       xml:space="preserve"
       style="font-style:normal;font-variant:normal;font-weight:normal;font-stretch:normal;line-height:0%;font-family:Lavi;-inkscape-font-specification:Lavi;text-align:center;letter-spacing:0px;word-spacing:0px;text-anchor:middle;fill:#000000;fill-opacity:1;stroke:none"
       x="537.54504"
       y="152.78963"
       id="text4246"><tspan
         sodipodi:role="line"
         style="font-style:normal;font-variant:normal;font-weight:normal;font-stretch:normal;font-size:45px;line-height:1.25;font-family:Lavi;-inkscape-font-specification:Lavi"
         x="537.54504"
         y="152.78963"
         id="tspan384">Kajenka! Timijana! Bi lahko</tspan><tspan
         sodipodi:role="line"
         style="font-style:normal;font-variant:normal;font-weight:normal;font-stretch:normal;font-size:45px;line-height:1.25;font-family:Lavi;-inkscape-font-specification:Lavi"
         x="537.54504"
         y="209.03963"
         id="tspan388">katera od vaju šla po zmajev zob?</tspan></text>
    <text
       xml:space="preserve"
       style="font-style:normal;font-variant:normal;font-weight:normal;font-stretch:normal;line-height:0%;font-family:Lavi;-inkscape-font-specification:Lavi;text-align:center;letter-spacing:0px;word-spacing:0px;text-anchor:middle;fill:#000000;fill-opacity:1;stroke:none"
       x="974.7323"
       y="372.49969"
       id="text4246-7"><tspan
         sodipodi:role="line"
         style="font-size:45px;line-height:1.25"
         x="974.7323"
         y="372.49969"
         id="tspan4144-1">V <tspan
   style="font-style:italic;-inkscape-font-specification:'Lavi Italic'"
   id="tspan3439">tem</tspan> mrazu?!</tspan><tspan
         sodipodi:role="line"
         style="font-size:45px;line-height:1.25"
         x="974.7323"
         y="428.74969"
         id="tspan4169">Ne, hvala!</tspan></text>
    <text
       xml:space="preserve"
       style="font-style:normal;font-variant:normal;font-weight:normal;font-stretch:normal;line-height:0%;font-family:Lavi;-inkscape-font-specification:Lavi;text-align:center;letter-spacing:0px;word-spacing:0px;text-anchor:middle;fill:#000000;fill-opacity:1;stroke:none"
       x="1489.6686"
       y="354.16821"
       id="text4246-7-6"><tspan
         sodipodi:role="line"
         style="font-size:45px;line-height:1.25"
         x="1489.6686"
         y="354.16821"
         id="tspan4169-5">Brrr…</tspan><tspan
         sodipodi:role="line"
         style="font-size:45px;line-height:1.25"
         x="1489.6686"
         y="410.41821"
         id="tspan4196">Enako …</tspan></text>
    <text
       xml:space="preserve"
       style="font-style:normal;font-variant:normal;font-weight:normal;font-stretch:normal;line-height:0%;font-family:Lavi;-inkscape-font-specification:Lavi;text-align:center;letter-spacing:0px;word-spacing:0px;text-anchor:middle;fill:#000000;fill-opacity:1;stroke:none"
       x="429.70432"
       y="1317.9353"
       id="text4246-7-6-4"><tspan
         sodipodi:role="line"
         style="font-size:45px;line-height:1.25"
         x="429.70432"
         y="1317.9353"
         id="tspan60">Nič ne skrbite,</tspan><tspan
         sodipodi:role="line"
         style="font-size:45px;line-height:1.25"
         x="429.70432"
         y="1374.1853"
         id="tspan446">grem jaz!</tspan></text>
    <text
       xml:space="preserve"
       style="font-style:normal;font-variant:normal;font-weight:normal;font-stretch:normal;line-height:0%;font-family:Lavi;-inkscape-font-specification:Lavi;text-align:center;letter-spacing:0px;word-spacing:0px;text-anchor:middle;fill:#000000;fill-opacity:1;stroke:none"
       x="1124.3949"
       y="1429.8875"
       id="text4246-7-6-4-6"><tspan
         sodipodi:role="line"
         style="font-size:37.0037px;line-height:1.25"
         x="1124.3949"
         y="1429.8875"
         id="tspan4221-0">Takoj se vrnem!</tspan></text>
    <text
       xml:space="preserve"
       style="font-style:normal;font-variant:normal;font-weight:normal;font-stretch:normal;line-height:0%;font-family:Lavi;-inkscape-font-specification:Lavi;text-align:center;letter-spacing:0px;word-spacing:0px;text-anchor:middle;fill:#000000;fill-opacity:1;stroke:none"
       x="389.19107"
       y="2180.6245"
       id="text4246-7-6-4-6-4"><tspan
         sodipodi:role="line"
         style="font-size:45px;line-height:1.25"
         x="389.19107"
         y="2180.6245"
         id="tspan4221-0-2">„Zima je“, „Mraz je“!</tspan></text>
    <text
       xml:space="preserve"
       style="font-style:normal;font-variant:normal;font-weight:normal;font-stretch:normal;line-height:0%;font-family:Lavi;-inkscape-font-specification:Lavi;text-align:center;letter-spacing:0px;word-spacing:0px;text-anchor:middle;fill:#000000;fill-opacity:1;stroke:none"
       x="512.15558"
       y="2286.6919"
       id="text4246-7-6-4-6-4-5"><tspan
         sodipodi:role="line"
         style="font-size:45px;line-height:1.25"
         x="512.15558"
         y="2286.6919"
         id="tspan3450">Zapečkarice!</tspan></text>
    <text
       xml:space="preserve"
       style="font-style:normal;font-variant:normal;font-weight:normal;font-stretch:normal;line-height:0%;font-family:Lavi;-inkscape-font-specification:Lavi;text-align:center;letter-spacing:0px;word-spacing:0px;text-anchor:middle;fill:#000000;fill-opacity:1;stroke:none"
       x="1986.2374"
       y="3169.0715"
       id="text4246-7-6-4-6-4-5-2"><tspan
         sodipodi:role="line"
         style="font-size:45px;line-height:1.25"
         x="1986.2374"
         y="3169.0715"
         id="tspan3461">Dober par klešč</tspan><tspan
         sodipodi:role="line"
         style="font-size:45px;line-height:1.25"
         x="1986.2374"
         y="3225.3215"
         id="tspan457">in nekaj zaščite, pa bo</tspan><tspan
         sodipodi:role="line"
         style="font-size:45px;line-height:1.25"
         x="1986.2374"
         y="3281.5715"
         id="tspan461">zmajev zob najin!</tspan></text>
    <text
       xml:space="preserve"
       style="font-style:normal;font-variant:normal;font-weight:normal;font-stretch:normal;line-height:0%;font-family:Lavi;-inkscape-font-specification:Lavi;text-align:center;letter-spacing:0px;word-spacing:0px;text-anchor:middle;fill:#000000;fill-opacity:1;stroke:#000000;stroke-width:1.3;stroke-miterlimit:4;stroke-dasharray:none;stroke-opacity:1"
       x="722.81995"
       y="1496.5334"
       id="text4246-7-6-4-0"><tspan
         sodipodi:role="line"
         style="font-size:60.7811px;line-height:1.25;stroke:#000000;stroke-width:1.3;stroke-miterlimit:4;stroke-dasharray:none;stroke-opacity:1"
         x="722.81995"
         y="1496.5334"
         id="tspan4208">Paprika,</tspan><tspan
         sodipodi:role="line"
         style="font-size:60.7811px;line-height:1.25;stroke:#000000;stroke-width:1.3;stroke-miterlimit:4;stroke-dasharray:none;stroke-opacity:1"
         x="722.81995"
         y="1572.5098"
         id="tspan4212">počakaj!</tspan></text>
  </g>
</svg>
