<?xml version="1.0" encoding="UTF-8" standalone="no"?>
<!-- Created With Inkscape (http://www.inkscape.org/) -->

<svg
   xmlns:dc="http://purl.org/dc/elements/1.1/"
   xmlns:cc="http://creativecommons.org/ns#"
   xmlns:rdf="http://www.w3.org/1999/02/22-rdf-syntax-ns#"
   xmlns:svg="http://www.w3.org/2000/svg"
   xmlns="http://www.w3.org/2000/svg"
   xmlns:xlink="http://www.w3.org/1999/xlink"
   xmlns:sodipodi="http://sodipodi.sourceforge.net/DTD/sodipodi-0.dtd"
   xmlns:inkscape="http://www.inkscape.org/namespaces/inkscape"
   id="svg2"
   version="1.1"
   inkscape:version="0.92.5 (2060ec1f9f, 2020-04-08)"
   width="2481"
   height="3503"
   sodipodi:docname="E16P02.svg"
   viewBox="0 0 2481 3503">
  <metadata
     id="metadata8">
    <rdf:RDF>
      <cc:Work
         rdf:about="">
        <dc:format>image/svg+xml</dc:format>
        <dc:type
           rdf:resource="http://purl.org/dc/dcmitype/StillImage" />
        <dc:title />
      </cc:Work>
    </rdf:RDF>
  </metadata>
  <defs
     id="defs6" />
  <sodipodi:namedview
     pagecolor="#ffffff"
     bordercolor="#666666"
     borderopacity="1"
     objecttolerance="10"
     gridtolerance="10"
     guidetolerance="10"
     inkscape:pageopacity="0"
     inkscape:pageshadow="2"
     inkscape:window-width="1866"
     inkscape:window-height="1016"
     id="namedview4"
     showgrid="false"
     inkscape:zoom="0.32526912"
     inkscape:cx="1130.7067"
     inkscape:cy="1141.2451"
     inkscape:window-x="54"
     inkscape:window-y="27"
     inkscape:window-maximized="1"
     inkscape:current-layer="layer1" />
  <g
     inkscape:groupmode="layer"
     id="layer2"
     inkscape:label="artwork"
     sodipodi:insensitive="true">
    <image
       sodipodi:absref="/home/user/lojban/webcomics/ep16_The-Sage-of-the-Mountain/lang/jb/../gfx_Pepper-and-Carrot_by-David-Revoy_E16P02.png"
       xlink:href="../gfx_Pepper-and-Carrot_by-David-Revoy_E16P02.png"
       width="2481"
       height="3503"
       id="image10"
       x="0"
       y="0" />
  </g>
  <g
     inkscape:groupmode="layer"
     id="layer3"
     inkscape:label="speechbubbles">
    <path
       style="fill:#ffffff;fill-rule:evenodd;stroke:none;stroke-width:1.04945636px;stroke-linecap:butt;stroke-linejoin:miter;stroke-opacity:1"
       d="m 159.47183,1204.4941 c 9.32553,-30.5523 34.43827,-53.7332 61.76959,-69.2079 13.00682,-7.471 27.87384,-12.9459 43.08724,-11.5058 15.11361,0.8605 29.87589,5.9979 45.1567,4.2135 18.58102,-0.5894 37.48826,-3.1608 55.85595,0.5135 16.32819,4.0092 33.15089,6.0856 50.00047,6.206 11.88685,-2.5448 22.76409,4.2379 33.37976,8.2947 9.53016,4.3821 19.26441,8.9796 27.26919,15.758 7.37481,9.5154 16.20517,17.7936 23.66611,27.2243 4.88188,5.1557 4.41281,12.2771 4.18791,18.8678 -0.63405,13.4964 -1.70776,27.2058 -5.69303,40.2084 -2.38488,8.2549 -11.19982,10.9868 -17.97307,14.7801 -16.02653,8.0076 -33.04461,14.08 -48.33995,23.5033 -15.15326,4.8251 -31.257,2.5682 -46.79739,1.839 -13.0218,-1.4363 -26.12103,-3.4392 -39.25473,-1.7689 -16.71609,1.2223 -33.38141,4.3872 -50.15731,3.9818 -21.01557,-2.7818 -41.14279,-9.6313 -61.50867,-15.1258 -18.27187,-4.8429 -34.92519,-13.9495 -50.90447,-23.6913 -8.53553,-5.532 -17.57141,-11.9621 -20.58373,-22.1569 -2.46936,-7.02 -3.05121,-14.5367 -3.16057,-21.9338 z"
       id="path4365"
       inkscape:connector-curvature="0" />
    <path
       style="fill:#ffffff;stroke:none"
       d="m 526.05317,1332.6787 c -30.94804,-5.9742 -33.65755,-15.3739 -35.85896,-26.3529 -2.20164,-10.979 -2.97755,-21.2157 -9.14413,-25.0411 -6.16635,-3.8252 -15.85979,-4.8779 -23.17719,-4.6934 -7.31743,0.1844 -5.29357,-9.0401 -8.28411,-16.1281 -2.99067,-7.0881 -31.76642,-37.2963 -31.76642,-37.2963 0,0 -1.64154,31.4089 0.94371,41.0513 2.58502,9.6423 3.48097,13.1815 5.57556,16.7304 2.09482,3.5489 8.54676,11.5174 16.06913,13.2832 7.52237,1.7658 15.47204,-0.2404 21.46624,-0.192 5.99426,0.048 8.9236,8.3554 12.37845,16.2997 3.45476,7.9444 7.26292,13.1493 20.83234,18.6149 11.63149,4.6851 30.96538,3.7243 30.96538,3.7243 z"
       id="path3023-2"
       inkscape:connector-curvature="0"
       sodipodi:nodetypes="csssscssssssc" />
    <path
       style="color:#000000;display:inline;overflow:visible;visibility:visible;fill:#ffffff;fill-opacity:1;fill-rule:nonzero;stroke:none;stroke-width:1.05248749px;marker:none;enable-background:accumulate"
       d="m 1380.8229,1387.89 c -60.0935,-50.124 -108.4113,-173.1129 -91.2415,-195.6687 17.1695,-22.5557 49.2016,-31.142 130.7573,-31.142 81.5555,0 820.8446,-28.0167 904.5464,24.6134 83.7016,52.6301 49.9654,148.3139 -23.0053,209.7157 -72.9708,61.4018 -558.3494,48.8709 -558.3494,48.8709 0,0 -270.4209,7.5185 -362.7075,-56.3893 z"
       id="path3992"
       inkscape:connector-curvature="0"
       sodipodi:nodetypes="csssscc" />
    <path
       style="fill:#ffffff;stroke:none;stroke-width:1.06561291"
       d="m 1658.4079,1527.5439 c -3.2202,-33.6247 54.5134,-117.8009 336.1342,-111.4694 281.621,6.3315 369.7638,43.3174 378.0166,103.0854 13.0554,94.5512 -135.1053,119.8186 -347.8503,126.8218 -219.3171,7.2198 -369.7043,-57.6833 -366.3005,-118.4378 z"
       id="path3280-8"
       inkscape:connector-curvature="0"
       sodipodi:nodetypes="csssc" />
    <path
       style="color:#000000;display:inline;overflow:visible;visibility:visible;fill:#ffffff;fill-opacity:1;fill-rule:nonzero;stroke:none;stroke-width:1px;marker:none;enable-background:accumulate"
       d="m 1219.1793,1379.025 c 11.1145,-52.0341 49.4885,-48.0105 61.0024,-50.7043 11.5139,-2.6938 53.2465,-12.1003 59.6337,-55.0276 6.3873,-42.9274 50.5704,-62.6224 50.5704,-62.6224 l -8.1471,64.4127 c 0,0 -26.1867,43.4877 -51.8954,55.4317 -25.7088,11.9439 -66.72,11.6091 -78.3208,20.0382 -11.601,8.429 -26.2997,13.0823 -32.8432,28.4717 z"
       id="path4018"
       inkscape:connector-curvature="0" />
    <path
       style="color:#000000;display:inline;overflow:visible;visibility:visible;fill:#ffffff;fill-opacity:1;fill-rule:nonzero;stroke:none;stroke-width:0.90531534px;marker:none;enable-background:accumulate"
       d="M 203.90125,183.38454 C 208.54979,117.86438 253.15881,79.035834 469.04863,81.735916 647.50444,83.967812 734.76191,101.04395 726.50218,185.28318 715.03671,302.21698 564.09297,282.72581 458.35277,289.60864 388.896,288.05215 206.14043,302.83749 203.90125,183.38454 Z"
       id="path4546"
       inkscape:connector-curvature="0"
       sodipodi:nodetypes="csscc" />
    <path
       style="color:#000000;display:inline;overflow:visible;visibility:visible;fill:#ffffff;fill-opacity:1;fill-rule:nonzero;stroke:none;stroke-width:1.05311px;marker:none;enable-background:accumulate"
       d="m 1143.8843,418.22097 c -4.4918,99.82061 -71.1902,178.66345 -366.0245,173.51778 -243.71173,-4.25341 -365.95819,-47.52294 -366.84334,-176.42124 -1.10438,-160.8241 256.40772,-139.84438 388.17539,-139.88419 94.8745,2.70361 343.76715,-9.4207 344.69245,142.78765 z"
       id="path4546-3"
       inkscape:connector-curvature="0"
       sodipodi:nodetypes="csscc" />
    <path
       style="color:#000000;display:inline;overflow:visible;visibility:visible;fill:#ffffff;fill-opacity:1;fill-rule:nonzero;stroke:none;stroke-width:1px;marker:none;enable-background:accumulate"
       d="m 1212.2695,581.74978 c -67.2618,20.68446 -152.2854,0.78987 -192.165,-42.94991 -39.87945,-43.73978 14.3178,-40.84093 14.3178,-40.84093 0,0 77.3502,101.9849 177.8472,83.79084 z"
       id="path5002"
       inkscape:connector-curvature="0"
       sodipodi:nodetypes="cscc" />
    <path
       style="fill:#ffffff;fill-rule:evenodd;stroke:none;stroke-width:1.00003326px;stroke-linecap:butt;stroke-linejoin:miter;stroke-opacity:1"
       d="m 36.775357,2111.5715 25.221499,15.467 6.187521,-20.0477 14.956677,6.0568 -8.974006,-70.0659 32.904702,64.5329 2.99133,-16.7806 13.46102,22.7512 39.01742,-11.5789 7.34828,-56.145 16.45234,47.4905 11.96535,-20.0666 8.45377,25.7651 c 0,0 2.0159,5.4627 16.97257,3.2155 14.95669,-2.2471 151.87983,7.5727 179.48015,25.6258 l 24.61662,10.1116 24.17245,-14.6582 -6.91037,24.2738 50.72894,-41.687 -29.22162,54.0556 19.20192,-9.8724 -9.33954,21.0617 c 0,0 4.52633,11.7384 9.01334,17.0154 43.37436,45.9367 64.42681,150.3975 72.11869,172.5648 l 32.9047,-3.7773 -22.43502,13.5036 c 9.7905,6.4251 44.98199,16.7491 119.24285,-10.33 0,0 -68.7167,43.7658 -116.33364,39.5221 -10.24674,5.0073 42.1446,15.0562 42.1446,15.0562 l -57.06983,6.5565 -6.25864,46.9121 41.8787,16.9591 -47.86137,-8.3097 40.38303,40.5732 -50.13443,-9.7903 -5.17149,25.609 -8.2304,9.3858 c -17.26786,11.2576 -42.13451,36.1016 -65.25547,41.5915 0,4.152 25.04853,45.8584 25.04853,45.8584 l -55.71363,-27.5343 25.80027,33.4126 -60.27414,-28.2518 -15.39492,-0.3799 -8.974,3.2858 c -46.36572,24.8199 -153.63926,10.5952 -171.58727,7.479 -1.49568,0.087 -19.44368,39.8742 -19.44368,39.8742 l -8.23884,-35.016 -12.70052,14.0805 -7.453,-9.4859 -54.709097,64.6561 19.101047,-76.5634 -38.556888,31.7462 5.751042,-43.3781 -29.950114,31.283 5.289724,-39.9487 -17.255069,4.6552 z"
       id="path4603"
       inkscape:connector-curvature="0"
       sodipodi:nodetypes="cccccccccccccsscccccccccccccccccccccccccccccccccccccccccc" />
    <path
       style="color:#000000;display:inline;overflow:visible;visibility:visible;fill:#ffffff;fill-opacity:1;fill-rule:nonzero;stroke:none;stroke-width:0.90598184px;marker:none;enable-background:accumulate"
       d="m 944.99524,2910.35 c 23.92121,-31.6443 75.13126,-58.8536 142.83106,-70.7888 67.6997,-11.9352 193.455,-11.5234 215.6163,-8.4068 22.161,3.1166 143.8949,13.5278 170.624,30.7308 26.729,17.2027 62.8965,38.4761 71.0543,60.9977 8.158,22.5216 2.6017,77.1997 -21.7536,89.7173 -24.3554,12.5172 -135.863,40.8883 -201.2241,43.5651 -65.3611,2.6769 -217.6361,-5.7285 -261.1254,-12.6864 -43.4891,-6.9579 -89.57439,-15.9919 -103.72522,-40.5243 -14.15096,-24.5323 -40.36839,-56.628 -12.29734,-92.6046 z"
       id="path3533"
       inkscape:connector-curvature="0" />
    <path
       style="fill:#ffffff;stroke:none"
       d="m 1665.3162,3027.9651 c -45.7195,6.3375 -53.9298,-5.1776 -62.1848,-19.0773 -8.2551,-13.8997 -14.1828,-27.4561 -24.5416,-29.7762 -10.3587,-2.3201 -24.2907,0.778 -34.3436,4.4479 -10.0531,3.6701 -16.0502,-4.3086 -23.5544,-12.549 -7.5042,-8.2404 -57.2715,-41.3793 -57.2715,-41.3793 0,0 12.6136,43.4743 20.7667,55.3773 8.1531,11.903 11.0722,16.2967 15.6572,20.1434 4.5852,3.8466 17.3035,11.6669 28.565,10.553 11.2614,-1.1138 21.3268,-7.5562 29.6567,-10.2912 8.3298,-2.7351 21.007,2.5425 29.5605,11.7303 8.5534,9.1878 31.1188,27.0998 49.1012,23.41 17.9825,-3.6897 28.5886,-12.5889 28.5886,-12.5889 z"
       id="path3023"
       inkscape:connector-curvature="0"
       sodipodi:nodetypes="csssscssssssc" />
  </g>
  <g
     inkscape:groupmode="layer"
     id="layer1"
     inkscape:label="txt"
     style="display:inline">
    <text
       xml:space="preserve"
       style="font-style:normal;font-variant:normal;font-weight:normal;font-stretch:normal;line-height:0%;font-family:Lavi;-inkscape-font-specification:Lavi;text-align:center;letter-spacing:0px;word-spacing:0px;text-anchor:middle;fill:#000000;fill-opacity:1;stroke:none"
       x="782.651"
       y="288.03253"
       id="text4246-4"><tspan
         sodipodi:role="line"
         style="font-size:45px;line-height:1.25"
         x="789.68225"
         y="288.03253"
         id="tspan4253"> </tspan><tspan
         sodipodi:role="line"
         style="font-size:45px;line-height:1.25"
         x="782.651"
         y="344.28253"
         id="tspan4326">.i sei mi stace mi djica</tspan><tspan
         sodipodi:role="line"
         style="font-size:45px;line-height:1.25"
         x="782.651"
         y="400.53253"
         id="tspan3611">le nu mi na krati do .i ju do mi</tspan><tspan
         sodipodi:role="line"
         style="font-size:45px;line-height:1.25"
         x="782.651"
         y="456.78253"
         id="tspan58">pendo .i ta'e ku lo simsa nu krati</tspan><tspan
         sodipodi:role="line"
         style="font-size:45px;line-height:1.25"
         x="782.651"
         y="513.03253"
         id="tspan3465">cu ro roi rinka lo xlali</tspan></text>
    <text
       xml:space="preserve"
       style="font-style:normal;font-variant:normal;font-weight:normal;font-stretch:normal;line-height:0%;font-family:Lavi;-inkscape-font-specification:Lavi;text-align:center;letter-spacing:0px;word-spacing:0px;text-anchor:middle;fill:#000000;fill-opacity:1;stroke:none"
       x="461.47992"
       y="162.98648"
       id="text4246-42"><tspan
         sodipodi:role="line"
         style="font-size:45px;line-height:1.25"
         x="461.47992"
         y="162.98648"
         id="tspan3442">.i do .ei zukte</tspan><tspan
         sodipodi:role="line"
         style="font-size:45px;line-height:1.25"
         x="461.47992"
         y="219.23648"
         id="tspan3594">fi le danfu be le tcini</tspan></text>
    <text
       xml:space="preserve"
       style="font-style:normal;font-variant:normal;font-weight:normal;font-stretch:normal;line-height:0%;font-family:Lavi;-inkscape-font-specification:Lavi;text-align:center;letter-spacing:0px;word-spacing:0px;text-anchor:middle;fill:#000000;fill-opacity:1;stroke:none"
       x="320.24631"
       y="1143.5759"
       id="text4246-4-3"><tspan
         sodipodi:role="line"
         style="font-size:45px;line-height:1.25"
         x="327.27756"
         y="1143.5759"
         id="tspan4253-3"> </tspan><tspan
         sodipodi:role="line"
         style="font-size:45px;line-height:1.25"
         x="320.24631"
         y="1199.8259"
         id="tspan4261-5">.i .e'o sai doi</tspan><tspan
         sodipodi:role="line"
         style="font-size:45px;line-height:1.25"
         x="320.24631"
         y="1256.0759"
         id="tspan4324">la .safran.</tspan></text>
    <text
       xml:space="preserve"
       style="font-style:normal;font-variant:normal;font-weight:normal;font-stretch:normal;line-height:0%;font-family:Lavi;-inkscape-font-specification:Lavi;text-align:center;letter-spacing:0px;word-spacing:0px;text-anchor:middle;fill:#000000;fill-opacity:1;stroke:none"
       x="1826.1943"
       y="1220.7384"
       id="text4246-4-3-5"><tspan
         sodipodi:role="line"
         style="font-size:45px;line-height:1.25"
         x="1826.1943"
         y="1220.7384"
         id="tspan4322">.i no da poi lei kurji rirni mi ctuca cu ka'e rinka</tspan><tspan
         sodipodi:role="line"
         style="font-size:45px;line-height:1.25"
         x="1826.1943"
         y="1276.9884"
         id="tspan3486">lo prali .i ro se zukte be le kurji cu ka zvati</tspan><tspan
         sodipodi:role="line"
         style="font-size:45px;line-height:1.25"
         x="1826.1943"
         y="1333.2384"
         id="tspan76">le zdani gi'a casnu le bongu voi ca'o se cortu</tspan><tspan
         sodipodi:role="line"
         style="font-size:45px;line-height:1.25"
         x="1826.1943"
         y="1389.4884"
         id="tspan88">ku'o gi'a pante ro nu mi zukte</tspan></text>
    <text
       xml:space="preserve"
       style="font-style:normal;font-variant:normal;font-weight:normal;font-stretch:normal;line-height:0%;font-family:Lavi;-inkscape-font-specification:Lavi;text-align:center;letter-spacing:0px;word-spacing:0px;text-anchor:middle;fill:#000000;fill-opacity:1;stroke:none"
       x="312.95486"
       y="2130.9766"
       id="text4246-4-3-4"><tspan
         sodipodi:role="line"
         style="font-size:45px;line-height:1.25"
         x="319.98611"
         y="2130.9766"
         id="tspan4253-3-4"> </tspan><tspan
         sodipodi:role="line"
         style="font-size:45px;line-height:1.25"
         x="312.95486"
         y="2187.2266"
         id="tspan3516">.i ko jimpe</tspan><tspan
         sodipodi:role="line"
         style="font-size:45px;line-height:1.25"
         x="312.95486"
         y="2243.4766"
         id="tspan3667">.i do te makfa</tspan><tspan
         sodipodi:role="line"
         style="font-size:45px;line-height:1.25"
         x="312.95486"
         y="2299.7266"
         id="tspan3669">.i do .ei jarco le ka</tspan><tspan
         sodipodi:role="line"
         style="font-size:45px;line-height:1.25"
         x="312.95486"
         y="2355.9766"
         id="tspan3514">te makfa</tspan></text>
    <text
       xml:space="preserve"
       style="font-style:normal;font-variant:normal;font-weight:normal;font-stretch:normal;line-height:0%;font-family:Lavi;-inkscape-font-specification:Lavi;text-align:center;letter-spacing:0px;word-spacing:0px;text-anchor:middle;fill:#000000;fill-opacity:1;stroke:none"
       x="301.6976"
       y="2553.5493"
       id="text4246-4-3-4-7"><tspan
         sodipodi:role="line"
         style="font-size:45px;line-height:1.25"
         x="301.6976"
         y="2553.5493"
         id="tspan4438">.i do makcu</tspan></text>
    <text
       xml:space="preserve"
       style="font-style:normal;font-variant:normal;font-weight:normal;font-stretch:normal;line-height:0%;font-family:Lavi;-inkscape-font-specification:Lavi;text-align:center;letter-spacing:0px;word-spacing:0px;text-anchor:middle;fill:#000000;fill-opacity:1;stroke:none"
       x="306.21371"
       y="2420.6238"
       id="text4246-4-3-4-7-0"><tspan
         sodipodi:role="line"
         style="font-size:45px;line-height:1.25"
         x="306.21371"
         y="2420.6238"
         id="tspan3675">.i ko skicu tu'a le se jinvi</tspan><tspan
         sodipodi:role="line"
         style="font-size:45px;line-height:1.25"
         x="306.21371"
         y="2476.8738"
         id="tspan3677">be do le kurji</tspan></text>
    <text
       xml:space="preserve"
       style="font-style:normal;font-variant:normal;font-weight:normal;font-stretch:normal;line-height:0%;font-family:Lavi;-inkscape-font-specification:Lavi;text-align:center;letter-spacing:0px;word-spacing:0px;text-anchor:middle;fill:#000000;fill-opacity:1;stroke:none"
       x="2014.6814"
       y="1486.9595"
       id="text4246-4-3-5-1"><tspan
         sodipodi:role="line"
         style="font-size:45px;line-height:1.25"
         x="2014.6814"
         y="1486.9595"
         id="tspan3651">.i xu do je'a na'e .aidji</tspan><tspan
         sodipodi:role="line"
         style="font-size:45px;line-height:1.25"
         x="2014.6814"
         y="1543.2095"
         id="tspan3499">le ka sidju mi ca le nu mi tavla</tspan><tspan
         sodipodi:role="line"
         style="font-size:45px;line-height:1.25"
         x="2014.6814"
         y="1599.4595"
         id="tspan3663">le kurji le nabmi</tspan></text>
    <text
       xml:space="preserve"
       style="font-style:normal;font-variant:normal;font-weight:normal;font-stretch:normal;line-height:0%;font-family:Lavi;-inkscape-font-specification:Lavi;text-align:center;letter-spacing:0px;word-spacing:0px;text-anchor:middle;fill:#000000;fill-opacity:1;stroke:none"
       x="1241.7258"
       y="2895.5386"
       id="text4246-4-3-5-1-7"><tspan
         sodipodi:role="line"
         style="font-size:45px;line-height:1.25"
         x="1241.7258"
         y="2895.5386"
         id="tspan4515">.i .i'a bu'o</tspan><tspan
         sodipodi:role="line"
         style="font-size:45px;line-height:1.25"
         x="1241.7258"
         y="2951.7886"
         id="tspan3533">.ai mi kansa do le ka klama</tspan><tspan
         sodipodi:role="line"
         style="font-size:45px;line-height:1.25"
         x="1241.7258"
         y="3008.0386"
         id="tspan3691">.e le ka tavla le kurji</tspan></text>
  </g>
</svg>
