<?xml version="1.0" encoding="UTF-8" standalone="no"?>
<svg
   xmlns:dc="http://purl.org/dc/elements/1.1/"
   xmlns:cc="http://creativecommons.org/ns#"
   xmlns:rdf="http://www.w3.org/1999/02/22-rdf-syntax-ns#"
   xmlns:svg="http://www.w3.org/2000/svg"
   xmlns="http://www.w3.org/2000/svg"
   xmlns:xlink="http://www.w3.org/1999/xlink"
   xmlns:sodipodi="http://sodipodi.sourceforge.net/DTD/sodipodi-0.dtd"
   xmlns:inkscape="http://www.inkscape.org/namespaces/inkscape"
   sodipodi:docname="E37P01.svg"
   height="3503"
   width="2481"
   inkscape:version="1.0 (4035a4fb49, 2020-05-01)"
   version="1.1"
   id="svg2">
  <metadata
     id="metadata8">
    <rdf:RDF>
      <cc:Work
         rdf:about="">
        <dc:format>image/svg+xml</dc:format>
        <dc:type
           rdf:resource="http://purl.org/dc/dcmitype/StillImage" />
        <dc:title />
      </cc:Work>
    </rdf:RDF>
  </metadata>
  <defs
     id="defs6" />
  <sodipodi:namedview
     inkscape:document-rotation="0"
     inkscape:deskcolor="#d1d1d1"
     inkscape:showpageshadow="0"
     inkscape:pagecheckerboard="0"
     inkscape:current-layer="layer3"
     inkscape:window-maximized="1"
     inkscape:window-y="-8"
     inkscape:window-x="-8"
     inkscape:cy="2599.4084"
     inkscape:cx="1374.5097"
     inkscape:zoom="0.45014485"
     showgrid="false"
     id="namedview4"
     inkscape:window-height="715"
     inkscape:window-width="1366"
     inkscape:pageshadow="2"
     inkscape:pageopacity="0"
     guidetolerance="10"
     gridtolerance="10"
     objecttolerance="10"
     borderopacity="1"
     bordercolor="#666666"
     pagecolor="#ffffff" />
  <g
     sodipodi:insensitive="true"
     inkscape:label="artwork"
     id="layer2"
     inkscape:groupmode="layer">
    <image
       sodipodi:absref="D:\Pepper&amp;Carrot translation\ep37_The-Tears-of-the-Phoenix\lang\gfx_Pepper-and-Carrot_by-David-Revoy_E37P01.png"
       xlink:href="../gfx_Pepper-and-Carrot_by-David-Revoy_E37P01.png"
       y="0"
       x="0"
       id="image10"
       height="3503"
       width="2481" />
  </g>
  <g
     inkscape:label="speechbubbles"
     id="layer3"
     inkscape:groupmode="layer">
    <path
       sodipodi:nodetypes="ccccc"
       inkscape:connector-curvature="0"
       id="path3072-56-6"
       d="m 2204.2661,3178.1973 c 40.1818,21.7108 51.3729,52.9878 26.9991,94.6594 -11.5297,45.9559 8.6989,37.3235 8.6989,37.3235 l 29.1103,-26.5249 c 0,0 28.8655,-83.545 -64.8083,-105.458 z"
       style="color:#000000;display:inline;overflow:visible;visibility:visible;fill:#ffffff;fill-opacity:1;fill-rule:nonzero;stroke:none;stroke-width:1px;marker:none;enable-background:accumulate" />
    <path
       sodipodi:nodetypes="cssssc"
       inkscape:connector-curvature="0"
       id="path4546-6-21-1"
       d="m 849.65697,2224.4451 c -28.32832,0.6594 -57.2014,0.5613 -84.02305,10.0014 -15.74509,5.5106 -30.61223,16.0288 -39.27852,32.9369 -10.13387,19.3742 -9.81916,45.6775 -2.25385,68.1898 3.54761,10.4459 8.4571,20.4248 14.64869,29.0892 6.72464,9.2255 15.55183,16.2908 25.14208,19.3872 27.79854,11.4308 56.71591,14.16 85.08587,15.3076 29.6679,0.887 59.20878,-0.3023 88.51254,-3.0538 24.70663,-2.7485 49.52503,-7.708 71.48067,-20.4404 13.2568,-8.0085 25.4772,-20.1232 30.8022,-37.4652 7.4314,-23.976 2.6051,-54.7613 -13.4195,-74.9449 -12.8078,-15.484 -30.16394,-22.9844 -46.88494,-27.5421 -27.6138,-7.3921 -55.5152,-8.7056 -83.22699,-10.4493 -15.55285,-0.8238 -31.12316,-1.5617 -46.5852,-1.0164 z"
       style="color:#000000;display:inline;overflow:visible;visibility:visible;fill:#ffffff;fill-opacity:1;fill-rule:nonzero;stroke:none;stroke-width:1.10418px;marker:none;enable-background:accumulate" />
    <path
       sodipodi:nodetypes="cssssc"
       inkscape:connector-curvature="0"
       id="path4546-6-21-1-7"
       d="m 853.64913,2155.2639 c -16.33888,0.3855 -32.95749,0.3282 -48.82069,5.8465 -9.31077,3.2213 -18.33952,9.3697 -24.0834,19.2536 -6.69884,11.3254 -7.69134,26.7013 -4.3403,39.861 1.57636,6.1063 3.95761,11.9396 7.13568,17.0045 3.45991,5.3928 8.2267,9.5229 13.60991,11.3329 15.49432,6.682 32.02108,8.2774 48.30325,8.9483 17.04104,0.5184 34.1016,-0.1767 51.09538,-1.7852 14.34696,-1.6067 28.85687,-4.5058 42.06546,-11.9486 7.98976,-4.6815 15.56594,-11.7632 19.40544,-21.9007 5.3483,-14.0154 3.9433,-32.0113 -4.3818,-43.8099 -6.68298,-9.0513 -16.34074,-13.4357 -25.76395,-16.0999 -15.56834,-4.3212 -31.57332,-5.089 -47.44998,-6.1083 -8.91745,-0.4816 -17.84878,-0.9129 -26.775,-0.5942 z"
       style="color:#000000;display:inline;overflow:visible;visibility:visible;fill:#ffffff;fill-opacity:1;fill-rule:nonzero;stroke:none;stroke-width:1.24776px;marker:none;enable-background:accumulate" />
    <path
       sodipodi:nodetypes="ccccc"
       inkscape:connector-curvature="0"
       id="path3072-56"
       d="m 1112.8567,2252.1365 c -36.4729,-14.2248 -66.2411,-6.7142 -86.7414,26.8513 -30.09487,27.8109 -33.25181,11.7546 -33.25181,11.7546 l 6.41738,-29.5186 c 0,0 50.85483,-55.2993 113.57583,-9.0873 z"
       style="color:#000000;display:inline;overflow:visible;visibility:visible;fill:#ffffff;fill-opacity:1;fill-rule:nonzero;stroke:none;stroke-width:0.999999px;marker:none;enable-background:accumulate" />
    <path
       sodipodi:nodetypes="csssc"
       inkscape:connector-curvature="0"
       id="path3280-10"
       d="M 2094.4375 2118.1641 C 2055.3697 2118.9938 2016.0977 2126.9322 1980.8159 2144.0346 C 1966.8132 2151.2581 1953.0931 2160.3211 1944.0438 2173.5024 C 1933.2952 2189.6937 1929.9529 2209.6234 1930.1607 2228.749 C 1930.5341 2242.2432 1934.5774 2256.0215 1943.5909 2266.319 C 1953.9786 2278.8262 1969.2955 2286.081 1984.8243 2289.9072 C 2004.244 2294.833 2024.3478 2295.912 2044.2618 2297.1864 C 2079.5702 2298.9236 2114.9336 2298.5097 2150.2714 2298.7968 C 2188.0313 2298.7263 2225.9192 2298.0806 2263.4016 2293.125 C 2282.5839 2289.4617 2301.7226 2281.8701 2315.7228 2267.8545 C 2330.3924 2252.3112 2336.3931 2229.9705 2334.2783 2208.971 C 2333.1543 2188.6771 2325.9672 2168.0351 2311.3106 2153.5339 C 2298.5134 2141.2569 2281.313 2135.156 2264.4346 2130.9028 C 2222.825 2120.3592 2179.6583 2118.9103 2136.9496 2118.2425 C 2122.7792 2118.1308 2108.6083 2118.1171 2094.4375 2118.1641 z "
       style="fill:#ffffff;stroke:none;stroke-width:1.0606" />
    <path
       sodipodi:nodetypes="ccccccc"
       inkscape:connector-curvature="0"
       id="path4538-0"
       d="m 1955.8929,2335.3487 c 7.3095,-11.6899 11.4879,-10.9744 20.8583,-10.8887 9.3705,0.085 20.4858,-1.4767 31.5776,-11.7728 11.8207,-15.5362 46.6253,-47.4088 4.9039,-39.2982 -15.2177,1.3778 -15.6011,25.3088 -21.9093,33.4823 -6.3081,8.1734 -22.5135,5.7762 -29.0893,11.2399 -6.5758,5.4636 -6.6119,9.437 -6.3412,17.2375 z"
       style="color:#000000;display:inline;overflow:visible;visibility:visible;fill:#ffffff;fill-opacity:1;fill-rule:nonzero;stroke:none;stroke-width:0.999998px;marker:none;enable-background:accumulate" />
    <path
       sodipodi:nodetypes="cssssccccccccc"
       inkscape:connector-curvature="0"
       id="path4546-6-21-1-2"
       d="m 2146.0123,2528.721 c -55.2016,1.0702 -111.1601,6.1573 -163.2569,23.4356 -44.7394,16.9205 -73.6132,61.1626 -69.7829,104.2834 2.0394,40.2017 27.2564,79.9995 67.5448,98.9316 29.9955,13.6356 63.9202,17.0503 96.808,20.9979 39.1924,4.0895 78.5021,7.5686 117.9272,9.1578 48.227,0.6343 96.3277,-4.6188 144.5634,-3.0542 32.7876,0.079 66.0578,0.5464 98.1501,-6.3193 13.5038,-5.0482 20.518,-18.4015 21.3634,-30.891 2.4598,-20.9706 -2.2412,-41.9125 -7.057,-62.343 -6.0628,-23.1728 -13.5011,-46.2403 -24.9342,-67.7876 -10.5702,-17.8833 -27.0261,-32.7602 -46.4922,-42.9596 -29.2106,-18.2975 -63.6656,-29.1473 -98.8279,-33.6275 -44.8606,-6.9855 -90.4837,-10.1529 -136.0058,-9.8241 z"
       style="color:#000000;display:inline;overflow:visible;visibility:visible;fill:#ffffff;fill-opacity:1;fill-rule:nonzero;stroke:none;stroke-width:1.10009px;marker:none;enable-background:accumulate" />
    <path
       sodipodi:nodetypes="ccccc"
       inkscape:connector-curvature="0"
       id="path3072-56-7"
       d="m 2057.0527,2480.6714 c 33.458,8.0855 47.1499,30.3061 36.3606,68.8057 -0.5547,38.9823 12.8981,27.5701 12.8981,27.5701 l 16.9151,-27.5841 c 0,0 6.8505,-72.6572 -66.1738,-68.7917 z"
       style="color:#000000;display:inline;overflow:visible;visibility:visible;fill:#ffffff;fill-opacity:1;fill-rule:nonzero;stroke:none;stroke-width:0.999997px;marker:none;enable-background:accumulate" />
    <path
       sodipodi:nodetypes="zssssz"
       inkscape:connector-curvature="0"
       id="path4040-40"
       d="m 2175.4727,3271.3104 c -35.1224,0.6812 -70.8697,4.483 -102.1966,14.9102 -23.0857,7.3366 -40.0437,21.2624 -46.8492,36.8304 -8.6791,17.4836 -10.1921,36.9669 0.7554,54.2023 9.1084,14.2101 28.3309,25.1736 50.3108,31.4158 29.5592,8.8151 61.8047,13.415 94.0355,16.3899 47.6096,4.0998 96.1444,4.0477 143.7219,-0.1945 26.9262,-2.801 54.0887,-8.3334 75.2058,-19.5634 22.8587,-12.2258 35.0972,-31.563 32.6014,-50.2959 -1.8143,-21.4947 -16.7848,-42.8299 -42.9446,-57.0012 -21.0912,-11.7484 -48.2956,-18.3027 -75.8161,-21.2704 -42.4076,-5.0938 -85.8019,-5.3515 -128.8243,-5.4232 z"
       style="color:#000000;display:inline;overflow:visible;visibility:visible;fill:#ffffff;fill-opacity:1;fill-rule:nonzero;stroke:none;stroke-width:0.721839px;marker:none;enable-background:accumulate" />
  </g>
  <g
     style="display:inline"
     inkscape:label="txt"
     id="layer1"
     inkscape:groupmode="layer">
    <text
       id="text4246-70-2-2-2-7-4-9-9-6-1-2-3-9"
       y="2216.4595"
       x="874.30219"
       style="font-style:normal;font-variant:normal;font-weight:normal;font-stretch:normal;font-size:45.3333px;line-height:125%;font-family:'Xiaolai SC';-inkscape-font-specification:'Xiaolai SC';text-align:center;letter-spacing:0px;word-spacing:0px;text-anchor:middle;fill:#000000;fill-opacity:1;stroke:none"
       xml:space="preserve"><tspan
         id="tspan2979"
         y="2216.4595"
         x="874.30219"
         style="font-style:normal;font-variant:normal;font-weight:normal;font-stretch:normal;font-size:45.3333px;font-family:'Xiaolai SC';-inkscape-font-specification:'Xiaolai SC'"
         sodipodi:role="line">啊…</tspan></text>
    <text
       id="text4246-70-2-2-2-7-4-9-9-6-1-2-3-9-3"
       y="2295.4443"
       x="875.07031"
       style="font-style:normal;font-variant:normal;font-weight:normal;font-stretch:normal;font-size:45.3333px;line-height:125%;font-family:'Xiaolai SC';-inkscape-font-specification:'Xiaolai SC';text-align:center;letter-spacing:0px;word-spacing:0px;text-anchor:middle;fill:#000000;fill-opacity:1;stroke:none"
       xml:space="preserve"><tspan
         id="tspan20992"
         y="2295.4443"
         x="875.07031"
         style="font-style:normal;font-variant:normal;font-weight:normal;font-stretch:normal;font-size:45.3333px;font-family:'Xiaolai SC';-inkscape-font-specification:'Xiaolai SC'"
         sodipodi:role="line">终于到达</tspan><tspan
         id="tspan41"
         y="2352.1111"
         x="875.07031"
         style="font-style:normal;font-variant:normal;font-weight:normal;font-stretch:normal;font-size:45.3333px;font-family:'Xiaolai SC';-inkscape-font-specification:'Xiaolai SC'"
         sodipodi:role="line">目的地了！</tspan></text>
    <text
       id="text4246-70-2-2-2-7-4-9-9-6-1-2-3-9-3-5"
       y="2200.5024"
       x="2133.604"
       style="font-style:normal;font-variant:normal;font-weight:normal;font-stretch:normal;font-size:45.3333px;line-height:125%;font-family:'Xiaolai SC';-inkscape-font-specification:'Xiaolai SC';text-align:center;letter-spacing:0px;word-spacing:0px;text-anchor:middle;fill:#000000;fill-opacity:1;stroke:none"
       xml:space="preserve"><tspan
         id="tspan426"
         y="2200.5024"
         x="2133.604"
         style="font-style:normal;font-variant:normal;font-weight:normal;font-stretch:normal;font-size:45.3333px;font-family:'Xiaolai SC';-inkscape-font-specification:'Xiaolai SC'"
         sodipodi:role="line">哎，</tspan><tspan
         id="tspan45"
         y="2257.1692"
         x="2133.604"
         style="font-style:normal;font-variant:normal;font-weight:normal;font-stretch:normal;font-size:45.3333px;font-family:'Xiaolai SC';-inkscape-font-specification:'Xiaolai SC'"
         sodipodi:role="line">今天有集市啊。</tspan></text>
    <text
       id="text4246-70-2-2-2-7-4-9-9-6-1-2-3-9-3-5-2"
       y="2617.605"
       x="2161.3389"
       style="font-style:normal;font-variant:normal;font-weight:normal;font-stretch:normal;font-size:45.3333px;line-height:125%;font-family:'Xiaolai SC';-inkscape-font-specification:'Xiaolai SC';text-align:center;letter-spacing:0px;word-spacing:0px;text-anchor:middle;fill:#000000;fill-opacity:1;stroke:none"
       xml:space="preserve"><tspan
         id="tspan29675"
         y="2617.605"
         x="2161.3389"
         style="font-style:normal;font-variant:normal;font-weight:normal;font-stretch:normal;font-size:45.3333px;font-family:'Xiaolai SC';-inkscape-font-specification:'Xiaolai SC'"
         sodipodi:role="line">看来在攀登火山之前</tspan><tspan
         id="tspan53"
         y="2674.2717"
         x="2161.3389"
         style="font-style:normal;font-variant:normal;font-weight:normal;font-stretch:normal;font-size:45.3333px;font-family:'Xiaolai SC';-inkscape-font-specification:'Xiaolai SC'"
         sodipodi:role="line">我们可以吃些</tspan><tspan
         id="tspan55"
         y="2730.9382"
         x="2161.3389"
         style="font-style:normal;font-variant:normal;font-weight:normal;font-stretch:normal;font-size:45.3333px;font-family:'Xiaolai SC';-inkscape-font-specification:'Xiaolai SC'"
         sodipodi:role="line">好东西了。</tspan></text>
    <text
       id="text4246-70-2-2-2-7-4-9-9-6-1-2-3-9-3-5-2-0"
       y="3363.1655"
       x="2224.2051"
       style="font-style:normal;font-variant:normal;font-weight:normal;font-stretch:normal;font-size:45.3333px;line-height:125%;font-family:'Xiaolai SC';-inkscape-font-specification:'Xiaolai SC';text-align:center;letter-spacing:0px;word-spacing:0px;text-anchor:middle;fill:#000000;fill-opacity:1;stroke:none"
       xml:space="preserve"><tspan
         id="tspan38660"
         y="3363.1655"
         x="2224.2051"
         style="font-style:normal;font-variant:normal;font-weight:normal;font-stretch:normal;font-size:45.3333px;font-family:'Xiaolai SC';-inkscape-font-specification:'Xiaolai SC'"
         sodipodi:role="line">这主意不错吧？</tspan></text>
  </g>
</svg>
