<?xml version="1.0" encoding="UTF-8" standalone="no"?>
<!-- Created with Inkscape (http://www.inkscape.org/) -->

<svg
   id="svg2"
   version="1.1"
   inkscape:version="1.3.2 (091e20ef0f, 2023-11-25, custom)"
   width="2481"
   height="3503"
   sodipodi:docname="E24P03.svg"
   xmlns:inkscape="http://www.inkscape.org/namespaces/inkscape"
   xmlns:sodipodi="http://sodipodi.sourceforge.net/DTD/sodipodi-0.dtd"
   xmlns:xlink="http://www.w3.org/1999/xlink"
   xmlns="http://www.w3.org/2000/svg"
   xmlns:svg="http://www.w3.org/2000/svg"
   xmlns:rdf="http://www.w3.org/1999/02/22-rdf-syntax-ns#"
   xmlns:cc="http://creativecommons.org/ns#"
   xmlns:dc="http://purl.org/dc/elements/1.1/">
  <metadata
     id="metadata8">
    <rdf:RDF>
      <cc:Work
         rdf:about="">
        <dc:format>image/svg+xml</dc:format>
        <dc:type
           rdf:resource="http://purl.org/dc/dcmitype/StillImage" />
        <dc:title />
      </cc:Work>
    </rdf:RDF>
  </metadata>
  <defs
     id="defs6">
    <linearGradient
       inkscape:collect="always"
       id="linearGradient2523">
      <stop
         style="stop-color:#fc5959;stop-opacity:1;"
         offset="0"
         id="stop2519" />
      <stop
         style="stop-color:#fc5959;stop-opacity:0;"
         offset="1"
         id="stop2521" />
    </linearGradient>
    <filter
       style="color-interpolation-filters:sRGB"
       id="filter4375-4-1-1-1-9-5-8"
       inkscape:label="Drop Shadow"
       x="-0.018081322"
       y="-0.098102714"
       width="1.0523641"
       height="1.2841087">
      <feFlood
         id="feFlood4377-7-9-0-8-1-7-3"
         flood-opacity="1"
         flood-color="rgb(200,55,55)"
         result="flood" />
      <feComposite
         id="feComposite4379-3-8-8-2-77-4-1"
         in2="SourceGraphic"
         in="flood"
         operator="in"
         result="composite1" />
      <feMorphology
         id="feMorphology4393-1-0-49-8-9-3-0"
         operator="dilate"
         radius="6.2000000000000002"
         result="result3" />
      <feComposite
         id="feComposite4385-9-5-7-0-8-8-7"
         in2="result3"
         in="SourceGraphic"
         operator="over"
         result="fbSourceGraphic" />
      <feColorMatrix
         result="fbSourceGraphicAlpha"
         in="fbSourceGraphic"
         values="0 0 0 -1 0 0 0 0 -1 0 0 0 0 -1 0 0 0 0 1 0"
         id="feColorMatrix4544" />
      <feTurbulence
         id="feTurbulence4546"
         type="fractalNoise"
         numOctaves="3"
         seed="37"
         baseFrequency="0.129 0.0050000000000000001"
         result="turbulence" />
      <feDisplacementMap
         id="feDisplacementMap4548"
         in2="turbulence"
         in="fbSourceGraphic"
         scale="6.6"
         yChannelSelector="G"
         xChannelSelector="R"
         result="fbSourceGraphic" />
      <feColorMatrix
         result="fbSourceGraphicAlpha"
         in="fbSourceGraphic"
         values="0 0 0 -1 0 0 0 0 -1 0 0 0 0 -1 0 0 0 0 1 0"
         id="feColorMatrix4670" />
      <feFlood
         id="feFlood4672"
         flood-opacity="1"
         flood-color="rgb(80,22,22)"
         result="flood"
         in="fbSourceGraphic" />
      <feComposite
         id="feComposite4674"
         in2="fbSourceGraphic"
         in="flood"
         operator="in"
         result="composite1" />
      <feGaussianBlur
         id="feGaussianBlur4676"
         in="composite1"
         stdDeviation="0"
         result="blur" />
      <feOffset
         id="feOffset4678"
         dx="6"
         dy="6"
         result="offset" />
      <feComposite
         id="feComposite4680"
         in2="offset"
         in="fbSourceGraphic"
         operator="over"
         result="composite2" />
    </filter>
    <filter
       inkscape:collect="always"
       style="color-interpolation-filters:sRGB"
       id="filter4210"
       x="-0.0014895792"
       width="1.0029792"
       y="-0.01124082"
       height="1.0224816">
      <feGaussianBlur
         inkscape:collect="always"
         stdDeviation="0.2079876"
         id="feGaussianBlur4212" />
    </filter>
    <linearGradient
       inkscape:collect="always"
       xlink:href="#linearGradient2523"
       id="linearGradient2525"
       x1="2099.0522"
       y1="1080.254"
       x2="2280.3984"
       y2="1080.254"
       gradientUnits="userSpaceOnUse"
       gradientTransform="translate(-1.9614506,9.2421611)" />
  </defs>
  <sodipodi:namedview
     pagecolor="#ffffff"
     bordercolor="#666666"
     borderopacity="1"
     objecttolerance="10"
     gridtolerance="10"
     guidetolerance="10"
     inkscape:pageopacity="0"
     inkscape:pageshadow="2"
     inkscape:window-width="1920"
     inkscape:window-height="1008"
     id="namedview4"
     showgrid="false"
     inkscape:zoom="0.38293226"
     inkscape:cx="1077.214"
     inkscape:cy="2854.2907"
     inkscape:window-x="0"
     inkscape:window-y="0"
     inkscape:window-maximized="1"
     inkscape:current-layer="layer1"
     inkscape:snap-global="false"
     showguides="false"
     inkscape:showpageshadow="2"
     inkscape:pagecheckerboard="0"
     inkscape:deskcolor="#d1d1d1" />
  <g
     inkscape:groupmode="layer"
     id="layer2"
     inkscape:label="artwork"
     sodipodi:insensitive="true">
    <image
       xlink:href="../gfx_Pepper-and-Carrot_by-David-Revoy_E24P03.png"
       y="0"
       x="0"
       id="image10"
       height="3503"
       width="2481" />
  </g>
  <g
     inkscape:groupmode="layer"
     id="layer3"
     inkscape:label="speechbubbles"
     style="display:inline">
    <path
       style="color:#000000;display:inline;overflow:visible;visibility:visible;fill:#ffffff;fill-opacity:1;fill-rule:nonzero;stroke:none;stroke-width:1.08105659px;marker:none;enable-background:accumulate"
       d="m 829.39745,1312.65 c 0.31992,25.4051 -20.93934,47.0646 -121.52895,49.3479 -100.58957,2.2833 -121.39062,-31.9985 -122.03793,-46.7679 10.84678,-48.625 74.29567,-62.1939 112.80644,-62.0466 24.84802,0.5705 94.97032,5.4703 111.02258,17.2711 16.05219,11.8006 20.82834,21.7083 19.73786,42.1955 z"
       id="path3365-0"
       inkscape:connector-curvature="0"
       sodipodi:nodetypes="cccccc" />
    <path
       style="color:#000000;display:inline;overflow:visible;visibility:visible;fill:#ffffff;fill-opacity:1;fill-rule:nonzero;stroke:none;stroke-width:0.99999994px;marker:none;enable-background:accumulate"
       d="m 571.41075,1383.9315 c -1.47861,-10.1237 25.13633,-63.4419 115.33152,-56.6927 90.19519,6.7491 107.93853,45.2192 107.19918,58.7175 -0.73932,13.4982 -22.91838,34.4205 -36.22593,37.7952 -13.30745,3.3744 -48.05479,11.4734 -70.23398,8.7738 -22.17907,-2.6998 -90.19514,-16.198 -103.50266,-28.3465 -13.30747,-12.1484 -11.08954,-17.5477 -12.56813,-20.2473 z"
       id="path3365"
       inkscape:connector-curvature="0" />
    <path
       style="fill:#ffffff;fill-opacity:1;fill-rule:evenodd;stroke:#fff6d5;stroke-width:1px;stroke-linecap:butt;stroke-linejoin:miter;stroke-opacity:1"
       d="m 1768.7976,858.98151 83.464,-57.29006 159.1639,-2.66465 106.7563,5.32931 170.81,10.65861 64.0538,29.3112 19.4102,65.28401 -31.0563,69.28094 -91.2282,39.96983 -147.5177,2.6646 -182.0128,2.0131 -129.9972,-26.02408 -59.728,-56.10599 1.0026,-58.44493 z"
       id="path5098"
       inkscape:connector-curvature="0"
       sodipodi:nodetypes="ccccccccccccccc" />
    <path
       style="color:#000000;display:inline;overflow:visible;visibility:visible;fill:#ffffff;fill-opacity:1;fill-rule:nonzero;stroke:none;stroke-width:1px;marker:none;enable-background:accumulate"
       d="m 165.39445,204.57055 c -25.1607,-12.39782 -33.96692,-23.91004 -31.45075,-30.99455 2.51605,-7.08441 25.16058,-43.39235 52.8372,-47.82016 27.67674,-4.4278 99.38445,-9.74112 115.73893,-5.31331 16.35448,4.42772 62.90162,33.65124 62.90162,48.70567 0,15.05452 -8.80622,44.27795 -33.96691,53.13348 -25.16058,8.8556 -135.86743,14.169 -166.06009,-17.71113 z"
       id="path3349"
       inkscape:connector-curvature="0" />
    <path
       style="fill:#ffffff;fill-rule:evenodd;stroke:none;stroke-width:1px;stroke-linecap:butt;stroke-linejoin:miter;stroke-opacity:1"
       d="m 118.80883,294.64242 c 9.12095,-29.55397 33.68275,-51.97741 60.41446,-66.94645 12.72146,-7.22687 27.26234,-12.52288 42.14196,-11.12984 14.78205,0.83238 29.22047,5.80192 44.16604,4.07581 18.17338,-0.57014 36.66583,-3.05751 54.63055,0.49673 15.96997,3.87819 32.42362,5.88675 48.90354,6.00321 11.62607,-2.46164 22.26468,4.09942 32.64745,8.02367 9.3211,4.2389 18.84179,8.68618 26.67096,15.24309 7.21302,9.20446 15.84965,17.21217 23.1469,26.33472 4.77478,4.98722 4.31601,11.87591 4.09604,18.25126 -0.62013,13.0554 -1.67029,26.31683 -5.56813,38.89455 -2.33256,7.98516 -10.95412,10.6278 -17.57877,14.29714 -15.67493,7.74595 -32.31967,13.61993 -47.27945,22.73531 -14.82083,4.66743 -30.57127,2.48428 -45.77073,1.77891 -12.73612,-1.38937 -25.54797,-3.32683 -38.39353,-1.71111 -16.34937,1.18236 -32.64909,4.24385 -49.05693,3.8517 -20.55453,-2.6909 -40.24019,-9.31658 -60.15928,-14.63155 -17.871,-4.68465 -34.15897,-13.49369 -49.78769,-22.91716 -8.34827,-5.35124 -17.18592,-11.57123 -20.13215,-21.4329 -2.41519,-6.79062 -2.98428,-14.0617 -3.09124,-21.21709 z"
       id="path4365"
       inkscape:connector-curvature="0" />
    <path
       style="fill:#ffffff;stroke:none;stroke-width:1"
       d="m 255.74611,486.59733 c -23.27266,-23.83534 -20.48879,-35.75842 -16.41183,-49.14873 4.07679,-13.39047 8.97204,-25.16536 5.766,-32.83447 -3.20588,-7.66895 -10.93987,-14.22751 -17.30992,-18.09351 -6.37002,-3.86612 0.37438,-12.96194 1.66184,-22.47971 1.28739,-9.51792 -6.96124,-58.99857 -6.96124,-58.99857 0,0 -18.46628,33.89095 -21.4884,46.01372 -3.02229,12.1226 -4.17691,16.54274 -4.30975,21.64038 -0.13267,5.09782 1.0675,17.51673 6.55388,23.65787 5.48637,6.14113 13.38767,8.34016 18.4974,11.72826 5.10986,3.388 3.10789,14.22244 1.75318,24.94735 -1.3548,10.72489 -0.91888,18.61083 7.73931,32.21546 7.42161,11.66179 24.50953,21.35195 24.50953,21.35195 z"
       id="path3023-2"
       inkscape:connector-curvature="0"
       sodipodi:nodetypes="csssscssssssc" />
    <text
       xml:space="preserve"
       style="font-style:normal;font-variant:normal;font-weight:normal;font-stretch:normal;font-size:10.658px;line-height:0.01%;font-family:Arial;-inkscape-font-specification:Arial;letter-spacing:0px;word-spacing:0px;fill:#b8764f;fill-opacity:1;stroke:none;stroke-width:1"
       x="156.09364"
       y="849.47113"
       id="text969"
       transform="matrix(0.93043638,-0.40475701,0,1.0747645,0,0)"><tspan
         sodipodi:role="line"
         x="156.09364"
         y="849.47113"
         id="tspan967"
         style="font-style:normal;font-variant:normal;font-weight:bold;font-stretch:normal;font-size:37.3333px;font-family:'XP Vosta';-inkscape-font-specification:'XP Vosta Bold';fill:#b8764f;fill-opacity:1;stroke-width:1">شرر</tspan></text>
    <path
       style="fill:#ffffff;fill-rule:evenodd;stroke:none;stroke-width:1px;stroke-linecap:butt;stroke-linejoin:miter;stroke-opacity:1"
       d="m 370.97128,1548.8957 c 34.54669,1.1959 83.59442,-18.7033 52.12277,-69.4699 56.47337,33.678 100.13838,24.2103 183.52271,-40.2063 -1.47311,82.0628 37.11457,71.8179 71.27691,53.7914 -31.90286,29.7205 29.98768,41.3762 62.7871,40.7264 -64.92897,64.01 -27.27335,80.4581 1.56546,100.994 -69.13686,-11.9888 -50.31605,20.4329 -57.08491,39.934 -61.35447,-39.0429 -103.02682,-26.0066 -133.68078,16.1838 -19.06347,-20.5486 -27.75576,-65.0776 -87.42715,8.2687 19.50997,-61.1734 -11.17322,-52.8327 -59.48106,-20.0832 6.45489,-20.8238 51.20296,-54.8312 -27.6371,-46.2897 48.01675,-22.6039 56.51496,-49.4327 -5.96395,-83.8492 z"
       id="path4584"
       inkscape:connector-curvature="0"
       sodipodi:nodetypes="cccccccccccc" />
    <path
       style="color:#000000;display:inline;overflow:visible;visibility:visible;fill:#ffffff;fill-opacity:1;fill-rule:nonzero;stroke:none;stroke-width:1px;marker:none;enable-background:accumulate"
       d="m 811.85574,1691.333 c -13.81416,11.4352 -28.07371,23.5268 -45.37048,28.6126 -4.94334,1.3415 -10.13724,2.383 -15.17734,1.997 -5.10914,-1.5938 -7.95117,-6.8567 -8.29553,-12.0924 -1.01963,-7.5052 0.9934,-15.9414 -3.08945,-22.6298 -3.09088,-4.7908 -9.22063,-4.9463 -14.32973,-5.5392 -13.06169,-1.2494 -26.43419,-0.6991 -39.15272,-4.0712 -14.5982,-2.8393 -29.71536,-6.9131 -40.9249,-17.0755 -4.36621,-4.0993 -8.34623,-9.031 -9.60144,-15.1479 -3.92579,-15.5158 0.93662,-33.8932 13.48534,-44.6997 8.61929,-6.1452 22.04985,-4.5663 27.3382,4.6491 2.86475,4.8194 1.99218,10.9537 -0.28824,15.9992 -2.51679,10.0054 0.79504,20.6754 7.64932,27.7427 5.55929,5.9304 12.9599,9.9511 20.86509,11.8157 9.98256,5.4504 21.83723,2.9201 32.79926,2.915 5.00527,0.073 10.31159,0.497 14.65191,3.0035 5.29618,5.1051 4.90278,13.2996 3.78431,20.2236 -0.97364,7.164 -2.89521,15.3934 1.47098,21.6216 2.44167,4.7598 8.43508,2.4997 12.74015,2.4695 13.91862,-1.9388 27.23033,-8.2543 38.53704,-16.9232 1.01948,-0.9054 1.96415,-1.8854 2.90823,-2.8706 z"
       id="path4496"
       inkscape:connector-curvature="0"
       inkscape:transform-center-x="15.738959"
       inkscape:transform-center-y="-33.216744" />
    <text
       xml:space="preserve"
       style="font-style:normal;font-variant:normal;font-weight:normal;font-stretch:normal;font-size:66.3306px;line-height:0.01%;font-family:Arial;-inkscape-font-specification:Arial;letter-spacing:0.0113298px;word-spacing:0px;display:inline;fill:#ffffff;fill-opacity:1;stroke:url(#linearGradient2525);stroke-width:3.026;stroke-miterlimit:4;stroke-dasharray:none;stroke-opacity:1"
       x="2098.6038"
       y="1108.6537"
       id="text1105"
       transform="matrix(1.0092628,0.17044443,-0.63347356,0.88384113,0,0)"><tspan
         sodipodi:role="line"
         x="2098.6038"
         y="1108.6537"
         id="tspan1103"
         style="font-style:normal;font-variant:normal;font-weight:bold;font-stretch:normal;font-family:'XP Vosta';-inkscape-font-specification:'XP Vosta Bold';fill:#ffffff;fill-opacity:1;stroke:url(#linearGradient2525);stroke-width:3.026;stroke-miterlimit:4;stroke-dasharray:none;stroke-opacity:1">شیلینگ</tspan></text>
    <path
       style="color:#000000;display:inline;overflow:visible;visibility:visible;fill:#ffffff;fill-opacity:1;fill-rule:nonzero;stroke:none;stroke-width:1px;marker:none;enable-background:accumulate"
       d="m 840.39099,2415.3952 c -69.73645,-6.1112 -169.34955,-17.0892 -190.02994,-62.9999 -20.68034,-45.9109 12.19681,-120.7647 52.25191,-147.1359 40.05497,-26.3711 106.78152,-34.6866 167.26051,-27.4365 60.47903,7.2501 142.00623,3.8059 161.46763,46.905 19.4617,43.0989 47.4562,119.3664 -8.2671,157.6266 -63.50017,43.6 -182.55349,33.2659 -182.68301,33.0407 z"
       id="path3970-1"
       inkscape:connector-curvature="0"
       sodipodi:nodetypes="ccccssc" />
    <path
       style="opacity:1;fill:#ffffff;fill-rule:evenodd;stroke:none;stroke-width:1px;stroke-linecap:butt;stroke-linejoin:miter;stroke-opacity:1"
       d="m 740.99257,2678.9224 c 81.33155,-3.7713 135.73985,-70.9891 126.35903,-170.042 -0.7356,-13.0761 -2.22429,-73.8821 -3.69549,-94.3134 -1.4712,-20.4314 -28.77037,-38.6153 -26.56347,-14.9149 2.2069,23.7004 2.37118,102.019 6.25838,120.7638 11.59073,90.9486 -48.83803,137.4097 -102.35845,158.5065 z"
       id="path4272"
       inkscape:connector-curvature="0"
       sodipodi:nodetypes="ccsscc" />
    <path
       style="fill:#ffffff;fill-opacity:1;stroke:none;stroke-width:0.99999982"
       d="m 1593.4233,2377.398 c 25.098,-90.6375 30.9041,-125.5153 312.3599,-121.5449 246.2087,3.4731 304.5049,48.3761 320.7901,108.3246 16.719,41.2377 52.9928,124.4889 -95.3931,168.667 -148.3863,44.1782 -444.9775,21.0512 -492.2134,-18.5534 -51.731,-45.7684 -44.1765,-106.3673 -45.5435,-136.8933 z"
       id="path3238"
       inkscape:connector-curvature="0"
       sodipodi:nodetypes="cscccc" />
    <path
       style="fill:#ffffff;stroke:none;stroke-width:1"
       d="m 1667.7291,2850.623 c -28.0273,-50.6036 -13.2215,-93.7285 1.8965,-108.2057 15.1178,-14.4771 50.6778,-42.8284 50.9445,-56.9806 0.2668,-14.1522 -15.4826,-50.9134 -21.5889,-63.5846 -7.7887,-16.1627 79.2563,-67.9419 87.5629,-79.9355 8.3067,-11.9938 19.7346,-62.3727 19.7346,-62.3727 0,0 -50.6027,28.0238 -63.2766,41.8377 -12.6739,13.8139 -6.0044,5.2923 -9.6101,12.305 -3.6058,7.0127 -71.1709,62.8269 -66.9634,77.2471 4.2073,14.4202 23.4056,61.9081 28.8814,72.067 5.4761,10.1588 -29.6375,37.3716 -38.8524,50.9878 -9.2149,13.6163 -19.5808,32.142 -19.0015,56.4166 0.5543,23.2298 30.273,60.2179 30.273,60.2179 z"
       id="path3023"
       inkscape:connector-curvature="0"
       sodipodi:nodetypes="csssscssssssc" />
    <path
       style="fill:#ffffff;fill-rule:evenodd;stroke:none;stroke-width:1px;stroke-linecap:butt;stroke-linejoin:miter;stroke-opacity:1"
       d="m 1627.9933,177.23146 -52.4846,76.91879 11.7799,111.37678 149.0449,30.77218 303.4128,-15.38609 79.8456,-82.05914 21.2921,-97.44521 -55.8919,-94.88087 -379.463,6.23269 z"
       id="path5054"
       inkscape:connector-curvature="0"
       sodipodi:nodetypes="cccccccccc" />
    <path
       style="color:#000000;display:inline;overflow:visible;visibility:visible;fill:#ffffff;fill-opacity:1;fill-rule:nonzero;stroke:none;stroke-width:1.23743427px;marker:none;enable-background:accumulate"
       d="m 2194.9249,390.7352 c -72.7552,-1.15715 -103.4818,-14.80085 -121.4255,-35.17732 -17.9436,-20.37652 -3.0399,-53.27342 28.485,-64.92189 31.5249,-11.64849 74.177,-12.829 123.5478,-11.28681 89.2103,2.78663 151.0004,11.56823 157.9856,43.16595 6.9357,31.37276 1.3684,48.0176 -64.2081,62.95799 -61.7324,8.59876 -124.3848,5.26208 -124.3848,5.26208 z"
       id="path3970"
       inkscape:connector-curvature="0"
       sodipodi:nodetypes="cccsscc" />
    <path
       style="fill:#ffffff;fill-opacity:1;fill-rule:evenodd;stroke:#fff6d5;stroke-width:1px;stroke-linecap:butt;stroke-linejoin:miter;stroke-opacity:1"
       d="m 1953.4724,434.10372 -27.8644,88.23056 42.074,79.17869 204.4572,-4.38223 151.9189,-1.97462 79.8913,-33.95291 -2.1833,-136.10658 -65.021,-43.68042 -154.2005,-9.39154 -143.5945,9.87307 z"
       id="path5075"
       inkscape:connector-curvature="0"
       sodipodi:nodetypes="ccccccccccc" />
    <path
       style="color:#000000;display:inline;overflow:visible;visibility:visible;fill:#ffffff;fill-opacity:1;fill-rule:nonzero;stroke:none;stroke-width:1.23743439px;marker:none;enable-background:accumulate"
       d="m 2172.822,725.14275 c -84.0355,-1.42561 -119.526,-18.2346 -140.2518,-43.33833 -20.7256,-25.10381 -3.5112,-65.63267 32.9014,-79.98355 36.4127,-14.35089 85.6777,-15.80527 142.7031,-13.90531 103.0418,3.43313 174.4121,14.25203 182.4803,53.18031 8.011,38.65111 1.5805,59.15751 -74.1632,77.56401 -71.3036,10.59365 -143.6698,6.48287 -143.6698,6.48287 z"
       id="path3970-36"
       inkscape:connector-curvature="0"
       sodipodi:nodetypes="cccsscc" />
    <path
       style="fill:#ffffff;fill-rule:evenodd;stroke:none;stroke-width:1px;stroke-linecap:butt;stroke-linejoin:miter;stroke-opacity:1"
       d="m 1968.3057,729.12617 c 29.3,2.37711 72.2049,-8.86576 48.5171,-44.65472 45.9784,25.3572 83.676,20.93055 158.4669,-18.88537 -6.2152,55.47661 27.2126,50.29343 57.3483,39.64259 -28.9219,18.66829 22.9941,29.36578 50.9203,30.41443 -59.0751,40.37812 -28.0541,53.21963 -4.7766,68.4278 -58.0567,-11.25186 -44.0155,11.54652 -50.9499,24.43851 -49.804,-29.21 -86.0232,-22.27747 -114.6373,4.88772 -14.9656,-14.7732 -19.6631,-45.30676 -74.8327,1.62921 20.2873,-40.51926 -6.3047,-36.26621 -49.3578,-16.29228 6.7475,-13.8014 46.8499,-34.78842 -20.6983,-32.58474 42.1919,-13.12034 51.0396,-30.8935 0,-57.02315 z"
       id="path4584-1"
       inkscape:connector-curvature="0"
       sodipodi:nodetypes="cccccccccccc" />
    <path
       style="fill:#ffffff;fill-opacity:1;fill-rule:evenodd;stroke:none;stroke-width:1px;stroke-linecap:butt;stroke-linejoin:miter;stroke-opacity:1"
       d="m 2192.1793,975.56231 103.155,24.0207 17.1925,79.56829 -54.0902,46.5596 -176.0909,7.6239 -229.4538,0.02 -61.4301,-31.6838 1.3225,-64.5554 71.415,-49.54259 167.9575,-24.0205 z"
       id="path5161"
       inkscape:connector-curvature="0"
       sodipodi:nodetypes="ccccccccccc" />
    <path
       style="color:#000000;display:inline;overflow:visible;visibility:visible;fill:#ffffff;fill-opacity:1;fill-rule:nonzero;stroke:none;stroke-width:1.23743439px;marker:none;enable-background:accumulate"
       d="m 548.12602,1531.336 c -91.4605,-1.394 -130.08678,-17.8307 -152.64382,-42.3783 -22.55683,-24.5477 -3.82143,-64.1787 35.80842,-78.2117 39.62996,-14.033 93.2478,-15.4551 155.3117,-13.5974 112.14612,3.3572 189.82238,13.9364 198.60345,52.0024 8.71882,37.7949 1.72015,57.847 -80.71593,75.8458 -77.60367,10.3589 -156.36382,6.3392 -156.36382,6.3392 z"
       id="path3970-36-4"
       inkscape:connector-curvature="0"
       sodipodi:nodetypes="cccsscc" />
    <path
       style="color:#000000;display:inline;overflow:visible;visibility:visible;fill:#ffffff;fill-opacity:1;fill-rule:nonzero;stroke:none;stroke-width:1px;marker:none;enable-background:accumulate"
       d="m 1982.4045,2270.677 c -3.5165,-25.3235 8.9906,-44.1378 16.0961,-53.122 7.1056,-8.9843 55.3942,-32.6555 73.7381,-34.6185 18.3439,-1.9629 96.0697,8.2236 111.5859,25.0671 29.6665,41.0213 18.474,80.0335 -42.9956,103.2882 -11.6372,4.3293 -45.7148,10.0318 -56.9894,10.2104 -11.2746,0.1784 -99.3687,-8.8986 -101.4351,-50.8252 z"
       id="path3357"
       inkscape:connector-curvature="0"
       sodipodi:nodetypes="ccccccc" />
    <text
       xml:space="preserve"
       style="font-style:normal;font-variant:normal;font-weight:normal;font-stretch:normal;line-height:112.5%;font-family:Mikhak;-inkscape-font-specification:Mikhak;text-align:center;letter-spacing:0px;word-spacing:0px;text-anchor:middle;display:inline;opacity:0.358;fill:#000000;fill-opacity:1;stroke:none;stroke-width:1.45996;filter:url(#filter4210)"
       x="1174.0292"
       y="1085.962"
       id="text4246-5"
       transform="matrix(0.59859266,-0.06157078,0.00633293,0.63548918,541.82445,2352.5786)"><tspan
         sodipodi:role="line"
         style="font-style:normal;font-variant:normal;font-weight:900;font-stretch:normal;font-size:60.4999px;line-height:90%;font-family:midan;-inkscape-font-specification:'midan Heavy';direction:rtl;stroke:none;stroke-width:4.95442;stroke-miterlimit:4;stroke-dasharray:none;stroke-opacity:1"
         x="1174.0292"
         y="1085.962"
         id="tspan4217">کــــومــــــونــــــان</tspan><tspan
         sodipodi:role="line"
         x="1174.0292"
         y="1109.8571"
         id="tspan4209" /></text>
    <path
       style="color:#000000;display:inline;overflow:visible;visibility:visible;fill:#ffffff;fill-opacity:1;fill-rule:nonzero;stroke:none;stroke-width:1px;marker:none;enable-background:accumulate"
       d="m 1589.7943,157.61754 c -8.8614,-24.36709 -33.8637,-38.6263 -43.4322,-37.17458 -9.5684,1.45169 37.9222,-18.88289 66.1459,18.41098 28.2236,37.29379 -9.2438,35.86676 -9.2438,35.86676 z"
       id="path4035-5"
       inkscape:connector-curvature="0" />
    <path
       style="color:#000000;display:inline;overflow:visible;visibility:visible;fill:#ffffff;fill-opacity:1;fill-rule:nonzero;stroke:none;stroke-width:1px;marker:none;enable-background:accumulate"
       d="m 1316.9724,411.08671 c 59.7698,37.7282 26.9131,115.63535 -8.523,127.33445 38.815,-5.69719 107.6543,-77.73022 42.1661,-140.88089 -140.721,-135.6979 -91.9073,-21.1982 -91.9073,-21.1982 z"
       id="path4035"
       inkscape:connector-curvature="0"
       sodipodi:nodetypes="ccscc" />
    <path
       style="color:#000000;display:inline;overflow:visible;visibility:visible;fill:#ffffff;fill-opacity:1;fill-rule:nonzero;stroke:none;stroke-width:0.99999982px;marker:none;enable-background:accumulate"
       d="m 1112.6921,89.58375 c 83.3367,4.792092 338.767,-8.461992 325.2971,159.67372 -15.2624,190.51029 -49.4678,180.14179 -349.7095,182.83157 C 969.43963,433.1537 730.71584,429.72671 722.98019,330.93521 665.94776,20.507733 995.21183,93.312657 1112.6921,89.58375 Z"
       id="path4546-6"
       inkscape:connector-curvature="0"
       sodipodi:nodetypes="csscc" />
    <path
       style="color:#000000;display:inline;overflow:visible;visibility:visible;fill:#ffffff;fill-opacity:1;fill-rule:nonzero;stroke:none;stroke-width:1.23743439px;marker:none;enable-background:accumulate"
       d="m 1603.1577,218.81569 c -72.2705,4.52699 -82.9245,-16.41582 -77.0834,-44.57794 7.3914,-35.63688 40.8892,-42.89308 85.1879,-41.5388 49.1997,0.26824 73.5251,7.0858 79.0271,22.20114 8.6871,23.86573 9.3102,47.69261 -16.5628,58.46055 -32.9494,8.01405 -70.5688,5.45505 -70.5688,5.45505 z"
       id="path3970-6"
       inkscape:connector-curvature="0"
       sodipodi:nodetypes="cscscc" />
    <text
       xml:space="preserve"
       style="font-style:normal;font-variant:normal;font-weight:500;font-stretch:normal;line-height:1.4em;font-family:Mikhak;-inkscape-font-specification:'Mikhak Medium';text-align:center;letter-spacing:0px;word-spacing:0px;text-anchor:middle;display:inline;fill:#000000;fill-opacity:1;stroke:none"
       x="1079.8967"
       y="153.414"
       id="text4246-3-7-7"><tspan
         sodipodi:role="line"
         style="font-style:normal;font-variant:normal;font-weight:500;font-stretch:normal;font-size:40.8889px;font-family:Mikhak;-inkscape-font-specification:'Mikhak Medium';direction:rtl;line-height:1.4em"
         x="1079.8967"
         y="153.414"
         id="tspan782-5">خودشه! تو فصل مربوط به</tspan><tspan
         sodipodi:role="line"
         style="font-style:normal;font-variant:normal;font-weight:500;font-stretch:normal;font-size:40.8889px;font-family:Mikhak;-inkscape-font-specification:'Mikhak Medium';direction:rtl;line-height:1.4em"
         x="1079.8967"
         y="174.46237"
         id="tspan987">جادوی نابودی، آویشن پیشنهاد</tspan><tspan
         sodipodi:role="line"
         style="font-style:normal;font-variant:normal;font-weight:500;font-stretch:normal;font-size:40.8889px;font-family:Mikhak;-inkscape-font-specification:'Mikhak Medium';direction:rtl;line-height:1.4em"
         x="1079.8967"
         y="195.51074"
         id="tspan989">می‌کنه همه این جادوها رو تو یه</tspan><tspan
         sodipodi:role="line"
         style="font-style:normal;font-variant:normal;font-weight:500;font-stretch:normal;font-size:40.8889px;font-family:Mikhak;-inkscape-font-specification:'Mikhak Medium';direction:rtl;line-height:1.4em"
         x="1079.8967"
         y="216.5591"
         id="tspan991">بعد کوچیک دیگه امتحان کنیم. ولی</tspan><tspan
         sodipodi:role="line"
         style="font-style:normal;font-variant:normal;font-weight:500;font-stretch:normal;font-size:40.8889px;font-family:Mikhak;-inkscape-font-specification:'Mikhak Medium';direction:rtl;line-height:1.4em"
         x="1079.8967"
         y="237.60747"
         id="tspan993">نگاہ کن ببین چقدر هشدار و اخطار:</tspan></text>
  </g>
  <g
     inkscape:groupmode="layer"
     id="layer1"
     inkscape:label="txt"
     style="display:inline">
    <text
       xml:space="preserve"
       style="font-style:normal;font-variant:normal;font-weight:500;font-stretch:normal;line-height:1.4em;font-family:Mikhak;-inkscape-font-specification:'Mikhak Medium';text-align:center;letter-spacing:0px;word-spacing:0px;text-anchor:middle;fill:#000000;fill-opacity:1;stroke:none"
       x="250.49622"
       y="180.50803"
       id="text4246"><tspan
         sodipodi:role="line"
         style="font-style:normal;font-variant:normal;font-weight:500;font-stretch:normal;font-size:35.5555px;font-family:Mikhak;-inkscape-font-specification:'Mikhak Medium';direction:rtl;line-height:1.4em"
         x="250.49622"
         y="180.50803"
         id="tspan4252">مگر این‌که...</tspan></text>
    <text
       xml:space="preserve"
       style="font-style:normal;font-variant:normal;font-weight:500;font-stretch:normal;line-height:1.4em;font-family:Mikhak;-inkscape-font-specification:'Mikhak Medium';text-align:center;letter-spacing:0px;word-spacing:0px;text-anchor:middle;fill:#000000;fill-opacity:1;stroke:none"
       x="288.21741"
       y="307.57629"
       id="text4246-3"><tspan
         sodipodi:role="line"
         style="font-style:normal;font-variant:normal;font-weight:500;font-stretch:normal;font-size:42.6667px;font-family:Mikhak;-inkscape-font-specification:'Mikhak Medium';direction:rtl;line-height:1.4em"
         x="288.21741"
         y="307.57629"
         id="tspan137">فکر کنم یادمه...</tspan></text>
    <text
       xml:space="preserve"
       style="font-style:normal;font-variant:normal;font-weight:500;font-stretch:normal;line-height:1.4em;font-family:Mikhak;-inkscape-font-specification:'Mikhak Medium';text-align:center;letter-spacing:0px;word-spacing:0px;text-anchor:middle;fill:#000000;fill-opacity:1;stroke:none"
       x="557.37494"
       y="1566.9316"
       id="text4246-3-7-6"><tspan
         sodipodi:role="line"
         style="font-style:normal;font-variant:normal;font-weight:500;font-stretch:normal;font-size:39.1111px;font-family:Mikhak;-inkscape-font-specification:'Mikhak Medium';direction:rtl;line-height:1.4em"
         x="557.37494"
         y="1566.9316"
         id="tspan4386">حالا بیا کارمون</tspan><tspan
         sodipodi:role="line"
         style="font-style:normal;font-variant:normal;font-weight:500;font-stretch:normal;font-size:39.1111px;font-family:Mikhak;-inkscape-font-specification:'Mikhak Medium';direction:rtl;line-height:1.4em"
         x="557.37494"
         y="1587.7185"
         id="tspan1043">رو شروع کنیم!</tspan></text>
    <text
       xml:space="preserve"
       style="font-style:normal;font-variant:normal;font-weight:500;font-stretch:normal;line-height:1.4em;font-family:Mikhak;-inkscape-font-specification:'Mikhak Medium';text-align:center;letter-spacing:0px;word-spacing:0px;text-anchor:middle;fill:#000000;fill-opacity:1;stroke:none"
       x="852.55774"
       y="2277.4397"
       id="text4246-3-7-6-1"><tspan
         sodipodi:role="line"
         style="font-style:normal;font-variant:normal;font-weight:500;font-stretch:normal;font-size:42.6667px;font-family:Mikhak;-inkscape-font-specification:'Mikhak Medium';direction:rtl;line-height:1.4em"
         x="852.55774"
         y="2277.4397"
         id="tspan2534">فلفل همین الان یه </tspan><tspan
         sodipodi:role="line"
         style="font-style:normal;font-variant:normal;font-weight:500;font-stretch:normal;font-size:42.6667px;font-family:Mikhak;-inkscape-font-specification:'Mikhak Medium';direction:rtl;line-height:1.4em"
         x="852.55774"
         y="2298.7495"
         id="tspan2538">بعد کوچیک درست کرد؟</tspan></text>
    <text
       xml:space="preserve"
       style="font-style:normal;font-variant:normal;font-weight:normal;font-stretch:normal;line-height:112.5%;font-family:Mikhak;-inkscape-font-specification:Mikhak;letter-spacing:0px;word-spacing:0px;fill:#ffffff;fill-opacity:1;stroke:#c83737;stroke-width:0.992362;stroke-miterlimit:4;stroke-dasharray:none;stroke-opacity:1;filter:url(#filter4375-4-1-1-1-9-5-8)"
       x="787.65729"
       y="1584.5073"
       id="text4580-6-0"
       transform="matrix(0.83434398,-0.14790328,-0.40858731,0.88612324,1093.3834,858.49634)"><tspan
         sodipodi:role="line"
         id="tspan4582-1-1"
         x="787.65729"
         y="1584.5073"
         style="font-style:normal;font-variant:normal;font-weight:bold;font-stretch:normal;font-size:70px;line-height:90%;font-family:'XP Vosta';-inkscape-font-specification:'XP Vosta Bold';fill:#ffffff;fill-opacity:1;stroke:#c83737;stroke-opacity:1">!!شووووومپ</tspan></text>
    <text
       xml:space="preserve"
       style="font-style:normal;font-variant:normal;font-weight:500;font-stretch:normal;line-height:1.4em;font-family:Mikhak;-inkscape-font-specification:'Mikhak Medium';text-align:center;letter-spacing:0px;word-spacing:0px;text-anchor:middle;fill:#000000;fill-opacity:1;stroke:none"
       x="2090.491"
       y="2248.4512"
       id="text4246-3-7-6-1-7"><tspan
         sodipodi:role="line"
         style="font-style:normal;font-variant:normal;font-weight:500;font-stretch:normal;font-size:42.6667px;font-family:Mikhak;-inkscape-font-specification:'Mikhak Medium';direction:rtl;line-height:1.4em"
         x="2090.491"
         y="2248.4512"
         id="tspan1274">خوبه!</tspan></text>
    <text
       xml:space="preserve"
       style="font-style:normal;font-variant:normal;font-weight:normal;font-stretch:normal;line-height:112.5%;font-family:Mikhak;-inkscape-font-specification:Mikhak;text-align:center;letter-spacing:0px;word-spacing:0px;text-anchor:middle;fill:#483200;fill-opacity:1;stroke:none;stroke-width:1.3;stroke-miterlimit:4;stroke-dasharray:none"
       x="2375.4595"
       y="889.24969"
       id="text4246-3-7-3-7"
       transform="skewX(-20)" />
    <text
       xml:space="preserve"
       style="font-style:normal;font-variant:normal;font-weight:500;font-stretch:normal;line-height:1.4em;font-family:Mikhak;-inkscape-font-specification:'Mikhak Medium';text-align:center;letter-spacing:0px;word-spacing:0px;text-anchor:middle;fill:#000000;fill-opacity:1;stroke:none"
       x="2228.116"
       y="340.39136"
       id="text4246-3-7-61"><tspan
         sodipodi:role="line"
         style="font-style:normal;font-variant:normal;font-weight:500;font-stretch:normal;font-size:35.5555px;font-family:Mikhak;-inkscape-font-specification:'Mikhak Medium';line-height:1.4em"
         x="2228.116"
         y="340.39136"
         id="tspan887-1">.طبیعتا همین‌طورہ</tspan></text>
    <text
       xml:space="preserve"
       style="font-style:normal;font-variant:normal;font-weight:900;font-stretch:normal;line-height:1.4em;font-family:Mikhak;-inkscape-font-specification:'Mikhak Heavy';text-align:center;letter-spacing:0px;word-spacing:0px;text-anchor:middle;fill:#000000;fill-opacity:1;stroke:#000000;stroke-width:0.6;stroke-miterlimit:4;stroke-dasharray:none;stroke-opacity:1;font-size:42.66666667px"
       x="2121.9714"
       y="773.88751"
       id="text4246-3-7-61-9"><tspan
         sodipodi:role="line"
         style="font-style:normal;font-variant:normal;font-weight:900;font-stretch:normal;font-family:Mikhak;-inkscape-font-specification:'Mikhak Heavy';direction:rtl;stroke:none;stroke-width:0.6;stroke-miterlimit:4;stroke-dasharray:none;stroke-opacity:1;line-height:1.4em;font-size:42.66666667px"
         x="2121.9714"
         y="773.88751"
         id="tspan887-1-4">خودشه!</tspan></text>
    <text
       xml:space="preserve"
       style="font-style:normal;font-variant:normal;font-weight:500;font-stretch:normal;line-height:1.4em;font-family:Mikhak;-inkscape-font-specification:'Mikhak Medium';text-align:center;letter-spacing:0px;word-spacing:0px;text-anchor:middle;fill:#000000;fill-opacity:1;stroke:none"
       x="2207.0144"
       y="661.17279"
       id="text4246-3-7-61-7"><tspan
         sodipodi:role="line"
         style="font-style:normal;font-variant:normal;font-weight:500;font-stretch:normal;font-size:35.5555px;font-family:Mikhak;-inkscape-font-specification:'Mikhak Medium';direction:rtl;line-height:1.4em"
         x="2207.0144"
         y="661.17279"
         id="tspan887-1-8">هه... اینم که معلومه.</tspan></text>
    <text
       xml:space="preserve"
       style="font-style:normal;font-variant:normal;font-weight:normal;font-stretch:normal;line-height:1.4em;font-family:Mikhak;-inkscape-font-specification:Mikhak;text-align:center;letter-spacing:0px;word-spacing:0px;text-anchor:middle;fill:#000000;fill-opacity:1;stroke:none"
       x="1599.5801"
       y="180.80257"
       id="text4246-3-7-61-4"><tspan
         sodipodi:role="line"
         style="font-style:normal;font-variant:normal;font-weight:normal;font-stretch:normal;font-size:42.6667px;font-family:Mikhak;-inkscape-font-specification:Mikhak;direction:rtl;line-height:1.4em"
         x="1599.5801"
         y="180.80257"
         id="tspan887-1-5">هم...</tspan></text>
    <text
       xml:space="preserve"
       style="font-style:normal;font-variant:normal;font-weight:500;font-stretch:normal;line-height:1.4em;font-family:Mikhak;-inkscape-font-specification:'Mikhak Medium';text-align:center;letter-spacing:0px;word-spacing:0px;text-anchor:middle;fill:#000000;fill-opacity:1;stroke:none"
       x="1911.6078"
       y="2329.4629"
       id="text4246-3-7-6-1-7-6"><tspan
         sodipodi:role="line"
         style="font-style:normal;font-variant:normal;font-weight:500;font-stretch:normal;font-size:42.6667px;font-family:Mikhak;-inkscape-font-specification:'Mikhak Medium';direction:rtl;line-height:1.4em"
         x="1911.6078"
         y="2329.4629"
         id="tspan1274-5">فقط امیدوارم که همه اون</tspan><tspan
         sodipodi:role="line"
         style="font-style:normal;font-variant:normal;font-weight:500;font-stretch:normal;font-size:42.6667px;font-family:Mikhak;-inkscape-font-specification:'Mikhak Medium';direction:rtl;line-height:1.4em"
         x="1911.6078"
         y="2350.7727"
         id="tspan2549">تذکرات و اخطارهایی که توی بخش</tspan><tspan
         sodipodi:role="line"
         style="font-style:normal;font-variant:normal;font-weight:500;font-stretch:normal;font-size:42.6667px;font-family:Mikhak;-inkscape-font-specification:'Mikhak Medium';direction:rtl;line-height:1.4em"
         x="1911.6078"
         y="2372.0825"
         id="tspan2551">مربوط به جادوی نابودی نوشته</tspan><tspan
         sodipodi:role="line"
         style="font-style:normal;font-variant:normal;font-weight:500;font-stretch:normal;font-size:42.6667px;font-family:Mikhak;-inkscape-font-specification:'Mikhak Medium';direction:rtl;line-height:1.4em"
         x="1911.6078"
         y="2393.3923"
         id="tspan2553">بودم رو دقیق خوندہ باشه.</tspan></text>
    <text
       xml:space="preserve"
       style="font-style:normal;font-variant:normal;font-weight:500;font-stretch:normal;line-height:1.4em;font-family:Mikhak;-inkscape-font-specification:'Mikhak Medium';text-align:center;letter-spacing:0px;word-spacing:0px;text-anchor:middle;fill:#000000;fill-opacity:1;stroke:none"
       x="586.9115"
       y="1471.8369"
       id="text4246-3-7-61-7-7"><tspan
         sodipodi:role="line"
         style="font-style:normal;font-variant:normal;font-weight:500;font-stretch:normal;font-size:42.6667px;font-family:Mikhak;-inkscape-font-specification:'Mikhak Medium';direction:rtl;line-height:1.4em"
         x="586.9115"
         y="1471.8369"
         id="tspan5199">بهتر از این نمی‌شه!</tspan></text>
    <text
       xml:space="preserve"
       style="font-style:normal;font-variant:normal;font-weight:500;font-stretch:normal;line-height:1.4em;font-family:Mikhak;-inkscape-font-specification:'Mikhak Medium';text-align:center;letter-spacing:0px;word-spacing:0px;text-anchor:middle;fill:#000000;fill-opacity:1;stroke:#000000;stroke-width:0.9;stroke-miterlimit:4;stroke-dasharray:none;stroke-opacity:1"
       x="711.77795"
       y="1315.0024"
       id="text4246-3-7-61-7-7-2"><tspan
         sodipodi:role="line"
         style="font-style:normal;font-variant:normal;font-weight:500;font-stretch:normal;font-size:42.6667px;font-family:Mikhak;-inkscape-font-specification:'Mikhak Medium';direction:rtl;stroke:none;stroke-width:0.9;stroke-miterlimit:4;stroke-dasharray:none;stroke-opacity:1;line-height:1.4em"
         x="711.77795"
         y="1315.0024"
         id="tspan5199-4">هیچ‌کسی؟</tspan></text>
    <text
       xml:space="preserve"
       style="font-style:normal;font-variant:normal;font-weight:500;font-stretch:normal;line-height:1.4em;font-family:Mikhak;-inkscape-font-specification:'Mikhak Medium';text-align:center;letter-spacing:0px;word-spacing:0px;text-anchor:middle;fill:#000000;fill-opacity:1;stroke:none"
       x="677.27667"
       y="1386.9736"
       id="text4246-3-7-61-7-7-7"><tspan
         sodipodi:role="line"
         style="font-style:normal;font-variant:normal;font-weight:500;font-stretch:normal;font-size:42.6667px;font-family:Mikhak;-inkscape-font-specification:'Mikhak Medium';direction:rtl;line-height:1.4em"
         x="677.27667"
         y="1386.9736"
         id="tspan5199-43">واقعا؟!</tspan></text>
    <text
       xml:space="preserve"
       style="font-style:normal;font-variant:normal;font-weight:500;font-stretch:normal;font-size:43.2425px;line-height:1.5em;font-family:Mikhak;-inkscape-font-specification:'Mikhak Medium';text-align:center;letter-spacing:0px;word-spacing:0px;text-anchor:middle;display:inline;fill:#000000;fill-opacity:1;stroke:none;stroke-width:1.02018"
       x="1852.3835"
       y="220.746"
       id="text4246-3-7-61-4-6"><tspan
         sodipodi:role="line"
         style="font-style:normal;font-variant:normal;font-weight:500;font-stretch:normal;font-size:43.2425px;line-height:1.5em;font-family:Mikhak;-inkscape-font-specification:'Mikhak Medium';direction:rtl;stroke-width:1.02018"
         x="1852.3835"
         y="220.746"
         id="tspan887-1-5-5">«همه ریئا رو برای ایجاد</tspan><tspan
         sodipodi:role="line"
         style="font-style:normal;font-variant:normal;font-weight:500;font-stretch:normal;font-size:43.2425px;line-height:1.5em;font-family:Mikhak;-inkscape-font-specification:'Mikhak Medium';direction:rtl;stroke-width:1.02018"
         x="1852.3835"
         y="285.60974"
         id="tspan939">این بعد کوچیک استفادہ <tspan
   style="font-style:normal;font-variant:normal;font-weight:900;font-stretch:normal;font-size:43.2425px;line-height:1.5em;font-family:Mikhak;-inkscape-font-specification:'Mikhak Heavy';stroke-width:1.02018"
   id="tspan941">نکن</tspan>».</tspan></text>
    <text
       xml:space="preserve"
       style="font-style:normal;font-variant:normal;font-weight:500;font-stretch:normal;font-size:40px;line-height:1.4em;font-family:Mikhak;-inkscape-font-specification:'Mikhak Medium';text-align:center;letter-spacing:0px;word-spacing:0px;text-anchor:middle;display:inline;fill:#000000;fill-opacity:1;stroke:none;stroke-width:0.913481"
       x="2173.1785"
       y="433.36526"
       id="text4246-3-7-61-4-6-9"><tspan
         sodipodi:role="line"
         style="font-style:normal;font-variant:normal;font-weight:500;font-stretch:normal;line-height:1.4em;font-family:Mikhak;-inkscape-font-specification:'Mikhak Medium';direction:rtl;stroke-width:0.913481;font-size:40px"
         x="2173.1785"
         y="433.36526"
         id="tspan939-3">محض احتیاط نتایج</tspan><tspan
         sodipodi:role="line"
         style="font-style:normal;font-variant:normal;font-weight:500;font-stretch:normal;line-height:1.4em;font-family:Mikhak;-inkscape-font-specification:'Mikhak Medium';direction:rtl;stroke-width:0.913481;font-size:40px"
         x="2173.1785"
         y="487.93054"
         id="tspan971">رو از بعد کوچیک به دنیای</tspan><tspan
         sodipodi:role="line"
         style="font-style:normal;font-variant:normal;font-weight:500;font-stretch:normal;line-height:1.4em;font-family:Mikhak;-inkscape-font-specification:'Mikhak Medium';direction:rtl;stroke-width:0.913481;font-size:40px"
         x="2173.1785"
         y="550.74939"
         id="tspan973">واقعی <tspan
   style="font-style:normal;font-variant:normal;font-weight:900;font-stretch:normal;line-height:1.4em;font-family:Mikhak;-inkscape-font-specification:'Mikhak Heavy';stroke-width:0.913481;font-size:40px"
   id="tspan975">برنگردون</tspan>».</tspan></text>
    <text
       xml:space="preserve"
       style="font-style:normal;font-variant:normal;font-weight:500;font-stretch:normal;line-height:1.4em;font-family:Mikhak;-inkscape-font-specification:'Mikhak Medium';text-align:center;letter-spacing:0px;word-spacing:0px;text-anchor:middle;display:inline;fill:#000000;fill-opacity:1;stroke:none"
       x="2053.0623"
       y="881.25488"
       id="text4246-3-7-61-4-6-9-6"><tspan
         sodipodi:role="line"
         style="font-style:normal;font-variant:normal;font-weight:500;font-stretch:normal;font-size:42.6667px;font-family:Mikhak;-inkscape-font-specification:'Mikhak Medium';direction:rtl;line-height:1.4em"
         x="2053.0623"
         y="881.25488"
         id="tspan973-8">«انتظار هیچ کمکی بیرون</tspan><tspan
         sodipodi:role="line"
         style="font-style:normal;font-variant:normal;font-weight:500;font-stretch:normal;font-size:42.6667px;font-family:Mikhak;-inkscape-font-specification:'Mikhak Medium';direction:rtl;line-height:1.4em"
         x="2053.0623"
         y="902.5647"
         id="tspan1013">از بعد کوچیک رو نداشته باش...</tspan></text>
    <text
       xml:space="preserve"
       style="font-style:normal;font-variant:normal;font-weight:900;font-stretch:normal;font-size:42.6667px;line-height:1.4em;font-family:Mikhak;-inkscape-font-specification:'Mikhak Heavy';text-align:center;letter-spacing:0px;word-spacing:0px;text-anchor:middle;display:inline;fill:#000000;fill-opacity:1;stroke:none"
       x="2053.9653"
       y="1040.0989"
       id="text4246-3-7-61-4-6-9-6-6"><tspan
         style="font-style:normal;font-variant:normal;font-weight:900;font-stretch:normal;font-size:42.6667px;font-family:Mikhak;-inkscape-font-specification:'Mikhak Heavy';direction:rtl;line-height:1.4em"
         sodipodi:role="line"
         id="tspan2"
         x="2053.9653"
         y="1040.0989">...چون هیچ‌کس نمی‌تونه</tspan><tspan
         sodipodi:role="line"
         style="font-style:normal;font-variant:normal;font-weight:900;font-stretch:normal;font-size:42.6667px;font-family:Mikhak;-inkscape-font-specification:'Mikhak Heavy';direction:rtl;line-height:1.4em"
         x="2053.9653"
         y="1099.8323"
         id="tspan1038">ببینه که چی کار می‌کنی».</tspan></text>
  </g>
</svg>
