<?xml version="1.0" encoding="UTF-8" standalone="no"?>
<!-- Created with Inkscape (http://www.inkscape.org/) -->

<svg
   id="svg2"
   version="1.1"
   inkscape:version="1.3.2 (091e20ef0f, 2023-11-25, custom)"
   width="2481"
   height="3503"
   sodipodi:docname="E24P05.svg"
   xmlns:inkscape="http://www.inkscape.org/namespaces/inkscape"
   xmlns:sodipodi="http://sodipodi.sourceforge.net/DTD/sodipodi-0.dtd"
   xmlns:xlink="http://www.w3.org/1999/xlink"
   xmlns="http://www.w3.org/2000/svg"
   xmlns:svg="http://www.w3.org/2000/svg"
   xmlns:rdf="http://www.w3.org/1999/02/22-rdf-syntax-ns#"
   xmlns:cc="http://creativecommons.org/ns#"
   xmlns:dc="http://purl.org/dc/elements/1.1/">
  <metadata
     id="metadata8">
    <rdf:RDF>
      <cc:Work
         rdf:about="">
        <dc:format>image/svg+xml</dc:format>
        <dc:type
           rdf:resource="http://purl.org/dc/dcmitype/StillImage" />
        <dc:title />
      </cc:Work>
    </rdf:RDF>
  </metadata>
  <defs
     id="defs6">
    <filter
       style="color-interpolation-filters:sRGB"
       id="filter4375-4-1-1-1-9-5-8-0-9"
       inkscape:label="Drop Shadow"
       x="-0.019130472"
       y="-0.11420124"
       width="1.0554025"
       height="1.3307306">
      <feFlood
         id="feFlood4377-7-9-0-8-1-7-3-9-2"
         flood-opacity="1"
         flood-color="rgb(200,55,55)"
         result="flood" />
      <feComposite
         id="feComposite4379-3-8-8-2-77-4-1-3-2"
         in2="SourceGraphic"
         in="flood"
         operator="in"
         result="composite1" />
      <feMorphology
         id="feMorphology4393-1-0-49-8-9-3-0-6-8"
         operator="dilate"
         radius="6.2000000000000002"
         result="result3" />
      <feComposite
         id="feComposite4385-9-5-7-0-8-8-7-0-9"
         in2="result3"
         in="SourceGraphic"
         operator="over"
         result="fbSourceGraphic" />
      <feColorMatrix
         result="fbSourceGraphicAlpha"
         in="fbSourceGraphic"
         values="0 0 0 -1 0 0 0 0 -1 0 0 0 0 -1 0 0 0 0 1 0"
         id="feColorMatrix4544-6-7" />
      <feTurbulence
         id="feTurbulence4546-2-3"
         type="fractalNoise"
         numOctaves="3"
         seed="37"
         baseFrequency="0.129 0.0050000000000000001"
         result="turbulence" />
      <feDisplacementMap
         id="feDisplacementMap4548-6-6"
         in2="turbulence"
         in="fbSourceGraphic"
         scale="6.6"
         yChannelSelector="G"
         xChannelSelector="R"
         result="fbSourceGraphic" />
      <feColorMatrix
         result="fbSourceGraphicAlpha"
         in="fbSourceGraphic"
         values="0 0 0 -1 0 0 0 0 -1 0 0 0 0 -1 0 0 0 0 1 0"
         id="feColorMatrix4670-1-1" />
      <feFlood
         id="feFlood4672-8-2"
         flood-opacity="1"
         flood-color="rgb(80,22,22)"
         result="flood"
         in="fbSourceGraphic" />
      <feComposite
         id="feComposite4674-7-9"
         in2="fbSourceGraphic"
         in="flood"
         operator="in"
         result="composite1" />
      <feGaussianBlur
         id="feGaussianBlur4676-9-3"
         in="composite1"
         stdDeviation="0"
         result="blur" />
      <feOffset
         id="feOffset4678-2-1"
         dx="6"
         dy="6"
         result="offset" />
      <feComposite
         id="feComposite4680-0-9"
         in2="offset"
         in="fbSourceGraphic"
         operator="over"
         result="composite2" />
    </filter>
    <filter
       style="color-interpolation-filters:sRGB"
       id="filter4375-4-1-1-1-9-5-8"
       inkscape:label="Drop Shadow"
       x="-0.017018728"
       y="-0.12709427"
       width="1.0492868"
       height="1.3680692">
      <feFlood
         id="feFlood4377-7-9-0-8-1-7-3"
         flood-opacity="1"
         flood-color="rgb(200,55,55)"
         result="flood" />
      <feComposite
         id="feComposite4379-3-8-8-2-77-4-1"
         in2="SourceGraphic"
         in="flood"
         operator="in"
         result="composite1" />
      <feMorphology
         id="feMorphology4393-1-0-49-8-9-3-0"
         operator="dilate"
         radius="6.2000000000000002"
         result="result3" />
      <feComposite
         id="feComposite4385-9-5-7-0-8-8-7"
         in2="result3"
         in="SourceGraphic"
         operator="over"
         result="fbSourceGraphic" />
      <feColorMatrix
         result="fbSourceGraphicAlpha"
         in="fbSourceGraphic"
         values="0 0 0 -1 0 0 0 0 -1 0 0 0 0 -1 0 0 0 0 1 0"
         id="feColorMatrix4544" />
      <feTurbulence
         id="feTurbulence4546"
         type="fractalNoise"
         numOctaves="3"
         seed="37"
         baseFrequency="0.129 0.0050000000000000001"
         result="turbulence" />
      <feDisplacementMap
         id="feDisplacementMap4548"
         in2="turbulence"
         in="fbSourceGraphic"
         scale="6.6"
         yChannelSelector="G"
         xChannelSelector="R"
         result="fbSourceGraphic" />
      <feColorMatrix
         result="fbSourceGraphicAlpha"
         in="fbSourceGraphic"
         values="0 0 0 -1 0 0 0 0 -1 0 0 0 0 -1 0 0 0 0 1 0"
         id="feColorMatrix4670" />
      <feFlood
         id="feFlood4672"
         flood-opacity="1"
         flood-color="rgb(80,22,22)"
         result="flood"
         in="fbSourceGraphic" />
      <feComposite
         id="feComposite4674"
         in2="fbSourceGraphic"
         in="flood"
         operator="in"
         result="composite1" />
      <feGaussianBlur
         id="feGaussianBlur4676"
         in="composite1"
         stdDeviation="0"
         result="blur" />
      <feOffset
         id="feOffset4678"
         dx="6"
         dy="6"
         result="offset" />
      <feComposite
         id="feComposite4680"
         in2="offset"
         in="fbSourceGraphic"
         operator="over"
         result="composite2" />
    </filter>
    <filter
       inkscape:collect="always"
       style="color-interpolation-filters:sRGB"
       id="filter4210"
       x="-0.0014895792"
       width="1.0029792"
       y="-0.01124082"
       height="1.0224816">
      <feGaussianBlur
         inkscape:collect="always"
         stdDeviation="0.2079876"
         id="feGaussianBlur4212" />
    </filter>
  </defs>
  <sodipodi:namedview
     pagecolor="#ffffff"
     bordercolor="#666666"
     borderopacity="1"
     objecttolerance="10"
     gridtolerance="10"
     guidetolerance="10"
     inkscape:pageopacity="0"
     inkscape:pageshadow="2"
     inkscape:window-width="1920"
     inkscape:window-height="1008"
     id="namedview4"
     showgrid="false"
     inkscape:zoom="0.37194736"
     inkscape:cx="1544.5734"
     inkscape:cy="526.95629"
     inkscape:window-x="0"
     inkscape:window-y="0"
     inkscape:window-maximized="1"
     inkscape:current-layer="layer1"
     inkscape:snap-global="false"
     inkscape:showpageshadow="2"
     inkscape:pagecheckerboard="0"
     inkscape:deskcolor="#d1d1d1" />
  <g
     inkscape:groupmode="layer"
     id="layer2"
     inkscape:label="artwork"
     sodipodi:insensitive="true">
    <image
       xlink:href="../gfx_Pepper-and-Carrot_by-David-Revoy_E24P05.png"
       y="0"
       x="0"
       id="image10"
       height="3503"
       width="2481" />
  </g>
  <g
     inkscape:groupmode="layer"
     id="layer3"
     inkscape:label="speechbubbles"
     style="display:inline">
    <path
       style="color:#000000;display:inline;overflow:visible;visibility:visible;fill:#ffffff;fill-opacity:1;fill-rule:nonzero;stroke:none;stroke-width:0.99999994px;marker:none;enable-background:accumulate"
       d="m 978.20827,203.32288 c 9.6337,-59.75433 90.43723,-101.42305 293.83003,-84.4803 108.9481,9.07539 232.816,16.48394 219.9711,104.05507 -12.8451,87.57103 -191.0698,80.35935 -227.9992,81.38959 -36.9295,1.03035 -228.1926,-13.50397 -260.1118,-44.30074 -19.98065,-19.27795 -27.29574,-38.11909 -25.69013,-56.66362 z"
       id="path4546-6"
       inkscape:connector-curvature="0"
       sodipodi:nodetypes="cssssc" />
    <path
       style="color:#000000;display:inline;overflow:visible;visibility:visible;fill:#ffffff;fill-opacity:1;fill-rule:nonzero;stroke:none;stroke-width:1.34306943px;marker:none;enable-background:accumulate"
       d="m 976.97199,409.36711 c 9.65084,-92.54247 90.59921,-157.07549 294.35671,-130.836 109.1435,14.05521 233.2334,25.52896 220.3655,161.15178 -12.8681,135.62267 -191.4122,124.45383 -228.4078,126.04938 -36.996,1.59573 -228.6019,-20.9138 -260.5783,-68.60926 -20.01643,-29.85609 -27.3446,-59.03566 -25.73611,-87.7559 z"
       id="path4546-6-5"
       inkscape:connector-curvature="0"
       sodipodi:nodetypes="cssssc" />
    <path
       style="fill:#ffffff;stroke:none;stroke-width:1"
       d="m 196.68871,2316.7158 c -0.80271,-18.6867 25.10278,-70.3849 136.13432,-64.4369 111.03155,5.948 145.29554,27.2341 147.72023,60.4716 3.83579,52.5808 -54.97587,65.3212 -139.01641,67.3683 -86.6367,2.1104 -140.10007,-16.1383 -144.83814,-63.403 z"
       id="path3280"
       inkscape:connector-curvature="0"
       sodipodi:nodetypes="csssc" />
    <path
       style="fill:#ffffff;stroke:none;stroke-width:1"
       d="m 84.088914,2571.7171 c -1.202027,-67.0641 37.590496,-252.6023 203.856186,-231.2557 166.26569,21.3466 218.922,97.7063 221.20565,217.0248 3.57005,186.5318 4.63216,267.038 -264.69374,259.1674 C 114.55627,2812.8575 91.184001,2741.344 84.088914,2571.7171 Z"
       id="path3280-5"
       inkscape:connector-curvature="0"
       sodipodi:nodetypes="csssc" />
    <path
       style="fill:#ffffff;stroke:none;stroke-width:1"
       d="m 100.15271,2914.1242 c -0.870659,-43.9041 27.22745,-165.368 147.65656,-151.3933 120.42912,13.9747 158.569,63.9642 160.22308,142.0769 2.58585,122.1145 3.35516,174.8185 -191.72225,169.6658 -94.08935,-2.4851 -111.0183,-49.3019 -116.15739,-160.3494 z"
       id="path3280-5-9"
       inkscape:connector-curvature="0"
       sodipodi:nodetypes="csssc" />
    <path
       style="color:#000000;display:inline;overflow:visible;visibility:visible;fill:#ffffff;fill-opacity:1;fill-rule:nonzero;stroke:none;stroke-width:1px;marker:none;enable-background:accumulate"
       d="m 482.48623,2854.2335 c -14.75738,52.3452 -33.97784,59.8163 -47.29721,66.911 -2.99609,-4.2927 -9.494,-10.7643 -9.494,-10.7643 0,0 -25.03044,16.8093 -36.39159,19.4555 -11.36113,2.6461 -15.10988,-13.4489 -15.10988,-13.4489 0,0 47.94685,-34.1242 56.37661,-45.0707 7.82099,12.1521 12.93111,16.9506 14.25419,22.6311 8.74137,-1.0378 31.94301,-21.4136 37.66188,-39.7137 z"
       id="path4456"
       inkscape:connector-curvature="0" />
    <path
       style="fill:#ffffff;stroke:none;stroke-width:1"
       d="m 1711.1213,2418.4721 c -1.7687,-28.1089 29.945,-98.4765 184.6433,-93.1836 154.6984,5.2928 203.1165,36.2115 207.6499,86.175 7.1714,79.0407 -74.2152,100.1631 -191.0791,106.0176 -120.4739,6.0354 -203.0838,-48.2208 -201.2141,-99.009 z"
       id="path3280-8"
       inkscape:connector-curvature="0"
       sodipodi:nodetypes="csssc" />
    <path
       style="fill:#ffffff;stroke:none;stroke-width:1"
       d="m 1477.1402,2595.7438 c -2.5861,-39.3366 43.7831,-137.8113 269.9709,-130.4042 226.1878,7.4069 305.0829,22.6971 314.3635,120.596 12.1995,128.6899 -119.2658,128.073 -290.135,136.266 -211.1471,10.1243 -297.243,-47.3295 -294.1994,-126.4578 z"
       id="path3280-8-2"
       inkscape:connector-curvature="0"
       sodipodi:nodetypes="csssc" />
    <path
       style="color:#000000;display:inline;overflow:visible;visibility:visible;fill:#ffffff;fill-opacity:1;fill-rule:nonzero;stroke:none;stroke-width:1px;marker:none;enable-background:accumulate"
       d="m 1737.0918,2693.1341 c 14.3116,13.119 20.5898,27.3224 21.7824,31.4966 1.1926,4.1742 -2.1039,30.5204 2.0703,35.291 4.1742,4.7705 19.6785,5.3668 21.4675,8.9448 1.7889,3.5779 -3.5779,22.0637 0,25.6416 3.5779,3.5779 28.6232,13.119 29.8159,16.1006 1.1926,2.9816 7.7521,19.0822 19.6784,31.6048 -11.33,-31.6048 -7.7521,-38.1643 -11.9263,-42.9348 -4.1742,-4.7706 -15.9274,-10.1807 -18.3127,-15.5476 -2.3853,-5.3668 6.711,-25.7283 0.086,-28.0269 -4.7705,-4.7705 -19.8083,-10.2673 -19.8083,-10.2673 4.1743,-4.7706 18.356,-27.8538 -1.3225,-55.8807 -19.6785,-28.027 -43.5312,3.5779 -43.5312,3.5779 z"
       id="path5050"
       inkscape:connector-curvature="0"
       sodipodi:nodetypes="csccscccccccc" />
    <path
       style="color:#000000;display:inline;overflow:visible;visibility:visible;fill:#ffffff;fill-opacity:1;fill-rule:nonzero;stroke:none;stroke-width:1px;marker:none;enable-background:accumulate"
       d="m 1402.3046,3191.257 c -6.8898,-34.7238 11.4831,-126.9586 152.726,-119.3627 141.2428,7.5957 164.2092,51.0004 167.654,64.0217 3.445,13.0214 33.3013,86.8093 -76.9371,106.3413 -110.2383,19.5321 -208.9934,-1.0851 -243.4429,-51.0003 z"
       id="path3525"
       inkscape:connector-curvature="0" />
    <path
       style="color:#000000;display:inline;overflow:visible;visibility:visible;fill:#ffffff;fill-opacity:1;fill-rule:nonzero;stroke:none;stroke-width:1px;marker:none;enable-background:accumulate"
       d="m 1518.4603,3003.92 c 24.221,32.6718 31.0089,45.6583 8.1243,87.1458 -22.8847,41.4875 -7.3195,49.5776 -7.3195,49.5776 l 28.2503,-15.3766 c 0,0 42.659,-91.8473 -29.0551,-121.3468 z"
       id="path3072"
       inkscape:connector-curvature="0" />
    <path
       style="color:#000000;display:inline;overflow:visible;visibility:visible;fill:#ffffff;fill-opacity:1;fill-rule:nonzero;stroke:none;stroke-width:1.34306931px;marker:none;enable-background:accumulate"
       d="m 1753.6989,373.49021 c 10.1322,-82.11681 93.4747,-154.17374 307.3962,-130.89035 114.588,12.47177 254.7306,32.51564 241.2208,152.85942 -13.51,120.34364 -209.1794,102.2141 -248.0204,103.62989 -38.8415,1.41597 -240.0052,-5.40735 -273.5767,-47.72952 -21.0148,-26.49255 -28.7086,-52.38479 -27.0199,-77.86944 z"
       id="path4546-6-5-3"
       inkscape:connector-curvature="0"
       sodipodi:nodetypes="cssssc" />
    <path
       style="display:inline;fill:#ffffff;stroke:none;stroke-width:0.99999994"
       d="m 1920.8273,663.55898 c 51.4934,-25.05742 101.3335,-84.50569 87.939,-140.05224 -8.1157,-33.6558 -17.2505,-51.47851 -17.2505,-51.47851 l 37.7708,-2.39424 11.5884,36.59761 c 0,0 3.2849,108.24957 -120.0477,157.32738 z"
       id="path3063-1-6"
       inkscape:connector-curvature="0"
       sodipodi:nodetypes="cscccc" />
    <path
       style="display:inline;fill:#ffffff;stroke:none;stroke-width:0.99999994"
       d="m 1251.2541,685.09232 c -48.6175,-23.27518 -83.2149,-109.49172 -49.7683,-157.70546 19.7334,-28.44595 29.6777,-45.4626 29.6777,-45.4626 l -35.9455,-11.84422 c -83.024,107.75331 -0.6527,193.21215 56.0361,215.01228 z"
       id="path3063-1"
       inkscape:connector-curvature="0"
       sodipodi:nodetypes="csccc" />
  </g>
  <g
     inkscape:groupmode="layer"
     id="layer1"
     inkscape:label="txt"
     style="display:inline">
    <text
       xml:space="preserve"
       style="font-style:normal;font-variant:normal;font-weight:normal;font-stretch:normal;line-height:112.5%;font-family:Mikhak;-inkscape-font-specification:Mikhak;letter-spacing:0px;word-spacing:0px;fill:#ffffff;fill-opacity:1;stroke:#c83737;stroke-width:0.992362;stroke-miterlimit:4;stroke-dasharray:none;stroke-opacity:1;filter:url(#filter4375-4-1-1-1-9-5-8-0-9)"
       x="787.65729"
       y="1584.5073"
       id="text4580-6-0-2-4"
       transform="matrix(0.83434398,-0.14790328,-0.40858731,0.88612324,769.80748,-1167.0258)"><tspan
         sodipodi:role="line"
         id="tspan4582-1-1-3-7"
         x="787.65729"
         y="1584.5073"
         style="font-style:normal;font-variant:normal;font-weight:normal;font-stretch:normal;font-size:77.6742px;line-height:90%;font-family:'XP Vosta';-inkscape-font-specification:'XP Vosta';direction:rtl;fill:#ffffff;fill-opacity:1;stroke:#c83737;stroke-opacity:1">فــــــــــــوو!!</tspan></text>
    <text
       xml:space="preserve"
       style="font-style:normal;font-variant:normal;font-weight:500;font-stretch:normal;line-height:1.4em;font-family:Mikhak;-inkscape-font-specification:'Mikhak Medium';text-align:center;letter-spacing:0px;word-spacing:0px;text-anchor:middle;fill:#000000;fill-opacity:1;stroke:none"
       x="1237.4594"
       y="379.78235"
       id="text4246"><tspan
         sodipodi:role="line"
         style="font-style:normal;font-variant:normal;font-weight:500;font-stretch:normal;font-size:37.3333px;font-family:Mikhak;-inkscape-font-specification:'Mikhak Medium';direction:rtl;line-height:1.4em"
         x="1237.4594"
         y="379.78235"
         id="tspan922">فکر نمی‌کنم بیرون آوردن این </tspan><tspan
         sodipodi:role="line"
         style="font-style:normal;font-variant:normal;font-weight:500;font-stretch:normal;font-size:37.3333px;font-family:Mikhak;-inkscape-font-specification:'Mikhak Medium';direction:rtl;line-height:1.4em"
         x="1237.4594"
         y="400.30783"
         id="tspan924">درخت از این بعد کوچیک به دنیای</tspan><tspan
         sodipodi:role="line"
         style="font-style:normal;font-variant:normal;font-weight:500;font-stretch:normal;font-size:37.3333px;font-family:Mikhak;-inkscape-font-specification:'Mikhak Medium';direction:rtl;line-height:1.4em"
         x="1237.4594"
         y="420.83331"
         id="tspan905">خودمون خطری داشته باشه.</tspan></text>
    <text
       xml:space="preserve"
       style="font-style:normal;font-variant:normal;font-weight:500;font-stretch:normal;line-height:1.4em;font-family:Mikhak;-inkscape-font-specification:'Mikhak Medium';text-align:center;letter-spacing:0px;word-spacing:0px;text-anchor:middle;fill:#000000;fill-opacity:1;stroke:none"
       x="1228.6875"
       y="188.79892"
       id="text4246-7"><tspan
         sodipodi:role="line"
         style="font-style:normal;font-variant:normal;font-weight:500;font-stretch:normal;font-size:39.1111px;font-family:Mikhak;-inkscape-font-specification:'Mikhak Medium';direction:rtl;line-height:1.4em"
         x="1228.6875"
         y="188.79892"
         id="tspan906">خودشه! اندازش رو تغییر</tspan><tspan
         sodipodi:role="line"
         style="font-style:normal;font-variant:normal;font-weight:500;font-stretch:normal;font-size:39.1111px;font-family:Mikhak;-inkscape-font-specification:'Mikhak Medium';direction:rtl;line-height:1.4em"
         x="1228.6875"
         y="209.58585"
         id="tspan911">می‌دم. حالا عالی شد.</tspan></text>
    <text
       xml:space="preserve"
       style="font-style:normal;font-variant:normal;font-weight:500;font-stretch:normal;line-height:1.4em;font-family:Mikhak;-inkscape-font-specification:'Mikhak Medium';text-align:center;letter-spacing:0px;word-spacing:0px;text-anchor:middle;fill:#000000;fill-opacity:1;stroke:none"
       x="335.36133"
       y="2324.7969"
       id="text4246-7-6"><tspan
         sodipodi:role="line"
         style="font-style:normal;font-variant:normal;font-weight:500;font-stretch:normal;font-size:49.7778px;font-family:Mikhak;-inkscape-font-specification:'Mikhak Medium';direction:rtl;line-height:1.4em"
         x="335.36133"
         y="2324.7969"
         id="tspan906-9">خوبه،</tspan></text>
    <text
       xml:space="preserve"
       style="font-style:normal;font-variant:normal;font-weight:500;font-stretch:normal;line-height:1.4em;font-family:Mikhak;-inkscape-font-specification:'Mikhak Medium';text-align:center;letter-spacing:0px;word-spacing:0px;text-anchor:middle;fill:#000000;fill-opacity:1;stroke:none"
       x="298.66428"
       y="2495.4619"
       id="text4246-7-6-1"><tspan
         sodipodi:role="line"
         style="font-style:normal;font-variant:normal;font-weight:500;font-stretch:normal;font-size:37.3333px;font-family:Mikhak;-inkscape-font-specification:'Mikhak Medium';direction:rtl;line-height:1.4em"
         x="298.66428"
         y="2495.4619"
         id="tspan960">وقتشه که این درخت </tspan><tspan
         sodipodi:role="line"
         style="font-style:normal;font-variant:normal;font-weight:500;font-stretch:normal;font-size:37.3333px;font-family:Mikhak;-inkscape-font-specification:'Mikhak Medium';direction:rtl;line-height:1.4em"
         x="298.66428"
         y="2515.9873"
         id="tspan964">رو از این بعد کوچیک ببرم </tspan><tspan
         sodipodi:role="line"
         style="font-style:normal;font-variant:normal;font-weight:500;font-stretch:normal;font-size:37.3333px;font-family:Mikhak;-inkscape-font-specification:'Mikhak Medium';direction:rtl;line-height:1.4em"
         x="298.66428"
         y="2536.5129"
         id="tspan968">به دنیای خودمون و بهشون </tspan><tspan
         sodipodi:role="line"
         style="font-style:normal;font-variant:normal;font-weight:500;font-stretch:normal;font-size:37.3333px;font-family:Mikhak;-inkscape-font-specification:'Mikhak Medium';direction:rtl;line-height:1.4em"
         x="298.66428"
         y="2557.0383"
         id="tspan970">نشون بدم که کاوسا چقدر </tspan><tspan
         sodipodi:role="line"
         style="font-style:normal;font-variant:normal;font-weight:500;font-stretch:normal;font-size:37.3333px;font-family:Mikhak;-inkscape-font-specification:'Mikhak Medium';direction:rtl;line-height:1.4em"
         x="298.66428"
         y="2577.564"
         id="tspan972">می‌تونه خلاق و زیبا باشه!</tspan></text>
    <text
       xml:space="preserve"
       style="font-style:normal;font-variant:normal;font-weight:normal;font-stretch:normal;line-height:112.5%;font-family:Mikhak;-inkscape-font-specification:Mikhak;letter-spacing:0px;word-spacing:0px;fill:#ffffff;fill-opacity:1;stroke:#c83737;stroke-width:0.992362;stroke-miterlimit:4;stroke-dasharray:none;stroke-opacity:1;filter:url(#filter4375-4-1-1-1-9-5-8)"
       x="787.65729"
       y="1584.5073"
       id="text4580-6-0"
       transform="matrix(0.84200562,-0.09503576,-0.46361166,0.85861645,1781.4683,992.52351)"><tspan
         sodipodi:role="line"
         id="tspan4582-1-1"
         x="787.65729"
         y="1584.5073"
         style="font-style:normal;font-variant:normal;font-weight:normal;font-stretch:normal;font-size:64.7285px;line-height:90%;font-family:'XP Vosta';-inkscape-font-specification:'XP Vosta';direction:rtl;fill:#ffffff;fill-opacity:1;stroke:#c83737;stroke-opacity:1">فـــــــــــــــووش!!</tspan></text>
    <text
       xml:space="preserve"
       style="font-style:normal;font-variant:normal;font-weight:500;font-stretch:normal;line-height:1.4em;font-family:Mikhak;-inkscape-font-specification:'Mikhak Medium';text-align:center;letter-spacing:0px;word-spacing:0px;text-anchor:middle;fill:#000000;fill-opacity:1;stroke:none"
       x="1902.5612"
       y="2385.6011"
       id="text4246-7-6-1-7"><tspan
         sodipodi:role="line"
         style="font-style:normal;font-variant:normal;font-weight:500;font-stretch:normal;font-size:42.6667px;font-family:Mikhak;-inkscape-font-specification:'Mikhak Medium';line-height:1.4em"
         x="1902.5612"
         y="2385.6011"
         id="tspan1080">...همم</tspan><tspan
         sodipodi:role="line"
         style="font-style:normal;font-variant:normal;font-weight:500;font-stretch:normal;font-size:42.6667px;font-family:Mikhak;-inkscape-font-specification:'Mikhak Medium';line-height:1.4em"
         x="1902.5612"
         y="2406.9109"
         id="tspan1007">.فلفل برگشت</tspan></text>
    <text
       xml:space="preserve"
       style="font-style:normal;font-variant:normal;font-weight:500;font-stretch:normal;line-height:1.4em;font-family:Mikhak;-inkscape-font-specification:'Mikhak Medium';text-align:center;letter-spacing:0px;word-spacing:0px;text-anchor:middle;fill:#000000;fill-opacity:1;stroke:none"
       x="1766.4851"
       y="2548.6619"
       id="text4246-7-6-1-7-6"><tspan
         sodipodi:role="line"
         style="font-style:normal;font-variant:normal;font-weight:500;font-stretch:normal;font-size:42.6667px;font-family:Mikhak;-inkscape-font-specification:'Mikhak Medium';direction:rtl;line-height:1.4em"
         x="1766.4851"
         y="2548.6619"
         id="tspan1111">آفرین فلفل قرمز.</tspan><tspan
         sodipodi:role="line"
         style="font-style:normal;font-variant:normal;font-weight:500;font-stretch:normal;font-size:42.6667px;font-family:Mikhak;-inkscape-font-specification:'Mikhak Medium';direction:rtl;line-height:1.4em"
         x="1766.4851"
         y="2569.9717"
         id="tspan1016">روش‌های آموزشی تو بالاخرہ</tspan><tspan
         sodipodi:role="line"
         style="font-style:normal;font-variant:normal;font-weight:500;font-stretch:normal;font-size:42.6667px;font-family:Mikhak;-inkscape-font-specification:'Mikhak Medium';direction:rtl;line-height:1.4em"
         x="1766.4851"
         y="2591.2815"
         id="tspan929">دارن نتیجه می‌دن.</tspan></text>
    <text
       xml:space="preserve"
       style="font-style:normal;font-variant:normal;font-weight:500;font-stretch:normal;line-height:1.4em;font-family:Mikhak;-inkscape-font-specification:'Mikhak Medium';text-align:center;letter-spacing:0px;word-spacing:0px;text-anchor:middle;fill:#000000;fill-opacity:1;stroke:none"
       x="1563.1593"
       y="3145.72"
       id="text4246-7-6-1-7-1"><tspan
         sodipodi:role="line"
         style="font-style:normal;font-variant:normal;font-weight:500;font-stretch:normal;font-size:42.6667px;font-family:Mikhak;-inkscape-font-specification:'Mikhak Medium';direction:rtl;line-height:1.4em"
         x="1563.1593"
         y="3145.72"
         id="tspan1136">لطف دارین،</tspan><tspan
         sodipodi:role="line"
         style="font-style:normal;font-variant:normal;font-weight:500;font-stretch:normal;font-size:42.6667px;font-family:Mikhak;-inkscape-font-specification:'Mikhak Medium';direction:rtl;line-height:1.4em"
         x="1563.1593"
         y="3167.0298"
         id="tspan1023">خانم مدیر.</tspan></text>
    <text
       xml:space="preserve"
       style="font-style:normal;font-variant:normal;font-weight:500;font-stretch:normal;line-height:1.4em;font-family:Mikhak;-inkscape-font-specification:'Mikhak Medium';text-align:center;letter-spacing:0px;word-spacing:0px;text-anchor:middle;fill:#000000;fill-opacity:1;stroke:none"
       x="259.40216"
       y="2901.084"
       id="text4246-7-6-1-9"><tspan
         sodipodi:role="line"
         style="font-style:normal;font-variant:normal;font-weight:500;font-stretch:normal;font-size:39.1111px;font-family:Mikhak;-inkscape-font-specification:'Mikhak Medium';direction:rtl;line-height:1.4em"
         x="259.40216"
         y="2901.084"
         id="tspan983">فقط منتظر اینم</tspan><tspan
         sodipodi:role="line"
         style="font-style:normal;font-variant:normal;font-weight:500;font-stretch:normal;font-size:39.1111px;font-family:Mikhak;-inkscape-font-specification:'Mikhak Medium';direction:rtl;line-height:1.4em"
         x="259.40216"
         y="2921.8708"
         id="tspan989"> که قیافه‌هاشون</tspan><tspan
         sodipodi:role="line"
         style="font-style:normal;font-variant:normal;font-weight:500;font-stretch:normal;font-size:39.1111px;font-family:Mikhak;-inkscape-font-specification:'Mikhak Medium';direction:rtl;line-height:1.4em"
         x="259.40216"
         y="2942.6577"
         id="tspan985">رو ببینم.</tspan></text>
    <text
       xml:space="preserve"
       style="font-style:normal;font-variant:normal;font-weight:500;font-stretch:normal;line-height:1.4em;font-family:Mikhak;-inkscape-font-specification:'Mikhak Medium';text-align:center;letter-spacing:0px;word-spacing:0px;text-anchor:middle;fill:#000000;fill-opacity:1;stroke:none"
       x="2032.0862"
       y="356.35773"
       id="text4246-75"><tspan
         sodipodi:role="line"
         style="font-style:normal;font-variant:normal;font-weight:500;font-stretch:normal;font-size:42.6667px;font-family:Mikhak;-inkscape-font-specification:'Mikhak Medium';direction:rtl;line-height:1.4em"
         x="2032.0862"
         y="356.35773"
         id="tspan158">این فقط یه درخت وحدته.</tspan><tspan
         sodipodi:role="line"
         style="font-style:normal;font-variant:normal;font-weight:500;font-stretch:normal;font-size:42.6667px;font-family:Mikhak;-inkscape-font-specification:'Mikhak Medium';direction:rtl;line-height:1.4em"
         x="2032.0862"
         y="377.66754"
         id="tspan931">جادوی نابودی نیست که.</tspan></text>
    <text
       xml:space="preserve"
       style="font-style:normal;font-variant:normal;font-weight:normal;font-stretch:normal;line-height:112.5%;font-family:Mikhak;-inkscape-font-specification:Mikhak;text-align:center;letter-spacing:0px;word-spacing:0px;text-anchor:middle;display:inline;opacity:0.358;fill:#000000;fill-opacity:1;stroke:none;stroke-width:1.45996;filter:url(#filter4210)"
       x="1174.0292"
       y="1085.962"
       id="text4246-5"
       transform="matrix(0.59859266,-0.06157078,0.00633293,0.63548918,509.75895,2436.9081)"><tspan
         sodipodi:role="line"
         style="font-style:normal;font-variant:normal;font-weight:900;font-stretch:normal;font-size:60.4999px;line-height:90%;font-family:midan;-inkscape-font-specification:'midan Heavy';direction:rtl;stroke:none;stroke-width:4.95442;stroke-miterlimit:4;stroke-dasharray:none;stroke-opacity:1"
         x="1174.0292"
         y="1085.962"
         id="tspan4217">کــــومــــــونــــــان</tspan><tspan
         sodipodi:role="line"
         x="1174.0292"
         y="1109.8571"
         id="tspan4209" /></text>
  </g>
</svg>
