<?xml version="1.0" encoding="UTF-8" standalone="no"?>
<svg
   sodipodi:docname="E34P01.svg"
   height="3503"
   width="2481"
   inkscape:version="1.3 (0e150ed6c4, 2023-07-21)"
   version="1.1"
   id="svg2"
   xmlns:inkscape="http://www.inkscape.org/namespaces/inkscape"
   xmlns:sodipodi="http://sodipodi.sourceforge.net/DTD/sodipodi-0.dtd"
   xmlns:xlink="http://www.w3.org/1999/xlink"
   xmlns="http://www.w3.org/2000/svg"
   xmlns:svg="http://www.w3.org/2000/svg"
   xmlns:rdf="http://www.w3.org/1999/02/22-rdf-syntax-ns#"
   xmlns:cc="http://creativecommons.org/ns#"
   xmlns:dc="http://purl.org/dc/elements/1.1/">
  <metadata
     id="metadata8">
    <rdf:RDF>
      <cc:Work
         rdf:about="">
        <dc:format>image/svg+xml</dc:format>
        <dc:type
           rdf:resource="http://purl.org/dc/dcmitype/StillImage" />
        <dc:title />
      </cc:Work>
    </rdf:RDF>
  </metadata>
  <defs
     id="defs6">
    <filter
       inkscape:label="blur-layer-whisper"
       height="1.0263046"
       y="-0.013152302"
       width="1.0075036"
       x="-0.0037518157"
       id="filter7961"
       style="color-interpolation-filters:sRGB"
       inkscape:collect="always">
      <feGaussianBlur
         id="feGaussianBlur7963"
         stdDeviation="2.6222679"
         inkscape:collect="always" />
    </filter>
    <filter
       height="1.3504795"
       width="1.079756"
       id="filter8274"
       inkscape:label="narrator-drop-shadow"
       style="color-interpolation-filters:sRGB;"
       x="-0.052728084"
       y="-0.16361136">
      <feFlood
         id="feFlood8264"
         result="flood"
         flood-color="rgb(0,21,64)"
         flood-opacity="0.603922" />
      <feComposite
         id="feComposite8266"
         result="composite1"
         operator="in"
         in2="SourceGraphic"
         in="flood" />
      <feGaussianBlur
         id="feGaussianBlur8268"
         result="blur"
         stdDeviation="2.0230825044646368"
         in="composite1" />
      <feOffset
         id="feOffset8270"
         result="offset"
         dy="4.8380533854166714"
         dx="-7.4077921838061513" />
      <feComposite
         id="feComposite8272"
         result="fbSourceGraphic"
         operator="over"
         in2="offset"
         in="SourceGraphic" />
      <feColorMatrix
         id="feColorMatrix8420"
         values="0 0 0 -1 0 0 0 0 -1 0 0 0 0 -1 0 0 0 0 1 0"
         in="fbSourceGraphic"
         result="fbSourceGraphicAlpha" />
      <feFlood
         in="fbSourceGraphic"
         result="flood"
         flood-color="rgb(0,12,37)"
         flood-opacity="0.061934527228860295"
         id="feFlood8422" />
      <feComposite
         result="composite1"
         operator="in"
         in="flood"
         id="feComposite8424"
         in2="fbSourceGraphic" />
      <feGaussianBlur
         result="blur"
         stdDeviation="1"
         in="composite1"
         id="feGaussianBlur8426" />
      <feOffset
         result="offset"
         dy="-2.8318869588504754"
         dx="-3.3194756113327486"
         id="feOffset8428" />
      <feComposite
         result="composite2"
         operator="over"
         in="fbSourceGraphic"
         id="feComposite8430"
         in2="offset" />
    </filter>
  </defs>
  <sodipodi:namedview
     inkscape:snap-global="false"
     borderlayer="true"
     inkscape:document-rotation="0"
     inkscape:current-layer="layer1"
     inkscape:window-maximized="1"
     inkscape:window-y="24"
     inkscape:window-x="0"
     inkscape:cy="2413.3352"
     inkscape:cx="1146.5489"
     inkscape:zoom="0.58218187"
     showgrid="false"
     id="namedview4"
     inkscape:window-height="1390"
     inkscape:window-width="2560"
     inkscape:pageshadow="2"
     inkscape:pageopacity="0"
     guidetolerance="10"
     gridtolerance="10"
     objecttolerance="10"
     borderopacity="1"
     bordercolor="#666666"
     pagecolor="#ffffff"
     inkscape:showpageshadow="0"
     inkscape:pagecheckerboard="0"
     inkscape:deskcolor="#d1d1d1" />
  <g
     sodipodi:insensitive="true"
     inkscape:label="artwork"
     id="layer2"
     inkscape:groupmode="layer">
    <image
       xlink:href="../gfx_Pepper-and-Carrot_by-David-Revoy_E34P01.png"
       width="2481"
       height="3503.7233"
       id="image10"
       x="0"
       y="0" />
  </g>
  <g
     style="display:inline;opacity:0.65;filter:url(#filter7961)"
     inkscape:label="speechbubbles-whisper"
     id="layer3"
     inkscape:groupmode="layer">
    <path
       d="m 1464.2096,2618.997 c -44.7451,0.388 -88.5537,10.4664 -132.4498,17.982 -22.8983,3.4099 -46.564,5.7666 -67.6219,16.1238 -30.8415,15.6028 -51.7937,47.63 -56.4625,81.5708 -3.1959,22.9668 2.0395,47.3091 15.8058,66.1429 15.2734,21.8957 38.7983,37.0691 64.0474,45.0003 30.1013,10.1477 61.7742,13.9911 92.9724,19.2058 53.7075,7.4441 108.0773,4.4605 162.0293,2.0407 36.1302,-1.9558 72.3264,-3.4788 108.286,-7.6647 21.9604,-2.7429 44.014,-6.5865 64.7188,-14.6409 23.3544,-9.4681 43.99,-25.9336 57.783,-47.0812 8.115,-13.242 11.7795,-29.0338 10.7497,-44.502 -0.2496,-20.8519 -4.6704,-41.8953 -14.3993,-60.4324 -12.4948,-21.9017 -34.0117,-37.6451 -57.5619,-45.928 -33.0346,-12.3483 -68.3574,-16.6765 -103.3424,-19.0713 -37.6151,-2.8501 -75.1775,-6.5956 -112.8777,-8.1702 -10.5532,-0.4179 -21.1154,-0.6222 -31.6769,-0.5756 z"
       style="fill:#e0ffff;fill-rule:evenodd;stroke:none;stroke-width:1.32607px;stroke-linecap:butt;stroke-linejoin:miter;stroke-opacity:1"
       id="path1299" />
    <path
       inkscape:connector-curvature="0"
       id="path1285"
       d="m 1276.7968,2510.7423 c -20.6915,0.7253 -41.73,3.9645 -60.6242,13.4124 -22.3365,11.8463 -37.822,37.557 -37.7682,64.2691 0.5025,13.927 6.7685,27.0907 15.5687,37.1742 6.3224,7.2054 14.2595,12.5131 22.5374,16.7901 16.6664,8.8992 35.3437,13.0303 53.9211,13.2584 29.6008,1.7503 59.5433,-0.4378 88.3519,-8.1165 13.5577,-3.7706 27.0559,-9.787 37.1029,-20.5101 10.2844,-10.5912 17.8224,-24.9033 18.7119,-40.3148 0.273,-13.8166 -5.3471,-26.9355 -12.665,-38.0359 -9.3254,-14.7414 -23.5761,-26.2584 -39.9667,-30.2538 -19.9408,-5.8187 -40.7451,-6.4817 -61.2768,-7.4228 -7.962,-0.2469 -15.9281,-0.2786 -23.893,-0.2503 z"
       style="fill:#e0ffff;fill-rule:evenodd;stroke:none;stroke-width:1.60083px;stroke-linecap:butt;stroke-linejoin:miter;stroke-opacity:1" />
    <path
       sodipodi:nodetypes="csssc"
       inkscape:connector-curvature="0"
       id="path3280-8-90"
       d="M 246.66211 2518.8184 C 216.88462 2519.8622 186.63882 2525.7853 160.49243 2540.6002 C 132.51095 2556.8601 112.37667 2586.2847 108.25561 2618.4833 C 103.99978 2646.3822 108.94256 2676.2193 124.6968 2699.9296 C 138.25384 2719.3422 159.38177 2732.353 181.7069 2739.3733 C 209.41173 2748.7257 238.57759 2752.6057 267.57011 2755.4056 C 303.94888 2758.1364 341.14783 2756.0539 376.12597 2745.1011 C 401.92563 2736.195 425.60369 2719.3139 439.78307 2695.6864 C 452.62155 2674.3889 456.15826 2648.3238 451.95973 2624.0136 C 448.97156 2600.7965 440.10832 2577.6572 423.56187 2560.6993 C 405.78613 2542.0152 381.14716 2531 355.9565 2526.7726 C 320.04287 2519.3953 283.19126 2518.6846 246.66211 2518.8184 z "
       style="font-variation-settings:normal;vector-effect:none;fill:#e0ffff;fill-opacity:1;stroke:none;stroke-width:1.33846px;stroke-linecap:butt;stroke-linejoin:miter;stroke-miterlimit:4;stroke-dasharray:none;stroke-dashoffset:0;stroke-opacity:1;stop-color:#000000" />
    <path
       sodipodi:nodetypes="csccccc"
       inkscape:connector-curvature="0"
       id="path1291"
       d="m 405.61348,2631.9631 c 42.85265,-5.0607 58.06957,-2.3086 68.49973,0.7202 10.42915,3.0295 34.5561,33.0962 43.85358,53.3011 -34.06156,-36.1486 -48.52756,-39.3772 -65.05064,-34.4498 -16.52311,4.9273 -63.29994,23.4366 -63.29994,23.4366 l 11.09296,-45.4041 z"
       style="fill:#e0ffff;fill-opacity:1;fill-rule:evenodd;stroke:none;stroke-width:1.28082px;stroke-linecap:butt;stroke-linejoin:miter;stroke-opacity:1" />
    <path
       sodipodi:nodetypes="cccc"
       inkscape:connector-curvature="0"
       id="path1291-6"
       d="m 1434.2038,2989.2388 c 48.3667,-37.0134 81.9085,-79.2404 77.928,-171.8638 l 30.8393,-3.1198 c -4.7727,67.6875 -17.9327,144.5385 -108.7673,174.9836 z"
       style="fill:#e0ffff;fill-rule:evenodd;stroke:none;stroke-width:0.964753px;stroke-linecap:butt;stroke-linejoin:miter;stroke-opacity:1" />
  </g>
  <g
     style="display:inline"
     inkscape:label="speechbubbles"
     id="layer4"
     inkscape:groupmode="layer">
    <path
       d="m 460.08195,1878.5547 c -62.08817,0.8832 -124.25785,-0.4356 -186.26235,3.5226 -38.90264,4.1706 -77.50787,16.3644 -109.63555,38.901 -15.76896,11.0482 -29.50167,26.4234 -34.43216,45.3017 -6.16773,22.2758 -3.69817,45.6133 -1.78384,68.2909 2.15871,23.2847 5.86087,47.0997 17.18741,67.9393 12.08287,22.2678 33.02099,39.5069 57.17087,47.5616 25.5831,9.4117 53.00978,11.9567 80.02377,13.9552 53.17043,3.2344 106.48159,3.182 159.72346,2.2484 26.94033,-0.5551 53.88412,-1.2008 80.80335,-2.4002 34.72454,-1.9347 69.74185,-7.3378 101.8884,-21.0099 17.43519,-7.1646 34.99805,-15.8995 47.53781,-30.2852 12.53909,-14.7905 19.00141,-33.5915 22.49343,-52.3492 6.87442,-31.7546 9.85276,-64.9669 3.20252,-97.0197 -5.86255,-27.8731 -26.65834,-52.2977 -53.69403,-62.1522 -25.16891,-9.9317 -52.34356,-12.7412 -78.98765,-16.2205 -34.90474,-4.211 -70.06703,-6.4655 -105.23544,-6.2838 z"
       style="color:#000000;display:inline;overflow:visible;visibility:visible;fill:#ffffff;fill-opacity:1;fill-rule:nonzero;stroke:none;stroke-width:0.899894px;marker:none;enable-background:accumulate"
       id="path4040-4-1" />
    <path
       sodipodi:nodetypes="ccscc"
       inkscape:connector-curvature="0"
       id="path4440-1"
       d="m 539.19946,1927.3519 c 7.55014,-44.8382 62.74837,-99.1824 137.61984,-61.3131 -80.77928,-16.5552 -107.19343,39.0539 -106.74645,81.3775 0.39562,37.4602 -16.36437,17.1598 -16.36437,17.1598 z"
       style="color:#000000;display:inline;overflow:visible;visibility:visible;fill:#ffffff;fill-opacity:1;fill-rule:nonzero;stroke:none;stroke-width:1.80075px;marker:none;enable-background:accumulate" />
    <path
       sodipodi:nodetypes="zssssz"
       inkscape:connector-curvature="0"
       id="path4040-2"
       d="M 1820.8262 2838.6191 C 1792.0885 2839.5433 1763.4847 2847.4425 1738.6094 2861.9277 C 1720.0781 2875.1933 1712.6983 2901.4762 1721.0624 2922.5801 C 1725.5383 2934.3483 1734.6722 2944.2163 1746.1269 2949.4719 C 1759.279 2956.0329 1773.7407 2959.2487 1787.9538 2962.6123 C 1820.4162 2969.3146 1853.8996 2970.3439 1886.8525 2967.3229 C 1898.3278 2965.8234 1909.1359 2960.4592 1917.5405 2952.5433 C 1929.65 2941.7367 1938.8332 2927.2186 1941.9562 2911.1872 C 1944.4142 2895.8033 1938.789 2879.089 1926.5923 2869.1525 C 1913.7928 2857.8363 1897.0702 2852.7409 1880.958 2848.1729 C 1861.419 2842.591 1841.2438 2838.3276 1820.8262 2838.6191 z "
       style="color:#000000;display:inline;overflow:visible;visibility:visible;fill:#ffffff;fill-opacity:1;fill-rule:nonzero;stroke:none;stroke-width:0.774122px;marker:none;enable-background:accumulate" />
    <path
       sodipodi:nodetypes="ccsc"
       inkscape:connector-curvature="0"
       id="path5010-4"
       d="m 1970.7532,2998.2521 c 42.5246,54.5422 86.7334,47.5024 118.7066,15.8691 -23.32,34.399 -69.359,69.3478 -144.2603,0.1036 -14.3413,-13.258 25.5537,-15.9727 25.5537,-15.9727 z"
       style="color:#000000;display:inline;overflow:visible;visibility:visible;fill:#ffffff;fill-opacity:1;fill-rule:nonzero;stroke:none;stroke-width:0.811733px;marker:none;enable-background:accumulate" />
    <path
       sodipodi:nodetypes="zssssz"
       inkscape:connector-curvature="0"
       id="path4040-2-5"
       d="M 1873.9727 2930.5352 C 1849.4685 2931.5213 1824.6881 2937.4276 1803.7251 2950.4952 C 1784.171 2962.7661 1770.3358 2983.1556 1764.4863 3005.3379 C 1760.4984 3020.908 1760.1781 3037.7525 1765.3809 3053.08 C 1772.6485 3073.5898 1789.2689 3090.0714 1808.8812 3099.0502 C 1825.3916 3106.4337 1843.4424 3109.2349 1861.2064 3111.8067 C 1886.7946 3114.9699 1912.7122 3115.0224 1938.3907 3112.9813 C 1960.0634 3110.7509 1981.7861 3103.1426 1998.075 3088.2865 C 2010.519 3077.0911 2020.6618 3062.2968 2023.1558 3045.4652 C 2025.0734 3031.8171 2023.2172 3017.8826 2019.714 3004.6425 C 2014.4372 2985.9253 2003.2867 2968.5475 1987.1214 2957.4564 C 1965.7602 2942.155 1939.6415 2935.2142 1913.8553 2932.1957 C 1900.6228 2930.7228 1887.2803 2930.2161 1873.9727 2930.5352 z "
       style="color:#000000;display:inline;overflow:visible;visibility:visible;fill:#ffffff;fill-opacity:1;fill-rule:nonzero;stroke:none;stroke-width:0.866707px;marker:none;enable-background:accumulate" />
    <rect
       y="127.99652"
       x="128.97966"
       height="86.261734"
       width="417.40149"
       id="rect8238"
       style="color:#000000;overflow:visible;fill:#eeffdb;fill-opacity:0.89322001;stroke:#807e00;stroke-width:8.05223;paint-order:stroke fill markers;stop-color:#000000;filter:url(#filter8274);stroke-opacity:1" />
  </g>
  <g
     inkscape:label="txt"
     id="layer1"
     inkscape:groupmode="layer">
    <text
       id="text4246-3-2-2-35"
       y="186.49605"
       x="327.29865"
       style="font-style:normal;font-variant:normal;font-weight:normal;font-stretch:normal;font-size:45px;line-height:1.25;font-family:Lavi;-inkscape-font-specification:Lavi;text-align:center;letter-spacing:0px;word-spacing:0px;text-anchor:middle;fill:#000000;fill-opacity:1;stroke:none"
       xml:space="preserve"><tspan
         id="tspan905-2"
         y="186.49605"
         x="327.29865"
         sodipodi:role="line"
         style="font-size:45px">La même nuit...</tspan></text>
    <text
       id="text4246-3-2-2"
       y="1958.8977"
       x="411.95737"
       style="font-style:normal;font-variant:normal;font-weight:normal;font-stretch:normal;font-size:45px;line-height:1.25;font-family:Lavi;-inkscape-font-specification:Lavi;text-align:center;letter-spacing:0px;word-spacing:0px;text-anchor:middle;fill:#000000;fill-opacity:1;stroke:none"
       xml:space="preserve"><tspan
         id="tspan905"
         y="1958.8977"
         x="411.95737"
         sodipodi:role="line"
         style="font-size:45px"> ... et ainsi, ce soir, nous </tspan><tspan
         id="tspan76"
         y="2015.1477"
         x="411.95737"
         sodipodi:role="line"
         style="font-size:45px">t'accueillons, Shichimi, </tspan><tspan
         id="tspan78"
         y="2071.3977"
         x="411.95737"
         sodipodi:role="line"
         style="font-size:45px">en tant que plus jeune </tspan><tspan
         id="tspan80"
         y="2127.6477"
         x="411.95737"
         sodipodi:role="line"
         style="font-size:45px">chevalier de Ah.</tspan></text>
    <text
       id="text4246-3-2-2-3"
       y="2592.4832"
       x="281.69833"
       style="font-style:normal;font-variant:normal;font-weight:normal;font-stretch:normal;font-size:45px;line-height:1.25;font-family:Lavi;-inkscape-font-specification:Lavi;text-align:center;letter-spacing:0px;word-spacing:0px;text-anchor:middle;fill:#000000;fill-opacity:1;stroke:none"
       xml:space="preserve"><tspan
         id="tspan97"
         y="2592.4832"
         x="281.69833"
         sodipodi:role="line"
         style="font-size:45px;fill:#000000;fill-opacity:1">Toujours </tspan><tspan
         id="tspan95"
         y="2648.7332"
         x="281.69833"
         sodipodi:role="line"
         style="font-size:45px;fill:#000000;fill-opacity:1">aucun signe de </tspan><tspan
         id="tspan101"
         y="2704.9832"
         x="281.69833"
         sodipodi:role="line"
         style="font-size:45px;fill:#000000;fill-opacity:1">Pepper ?</tspan></text>
    <text
       transform="translate(-24.353761,-24.886053)"
       id="text4246-3-2-2-3-5"
       y="2594.489"
       x="1320.327"
       style="font-style:normal;font-variant:normal;font-weight:normal;font-stretch:normal;font-size:45px;line-height:1.25;font-family:Lavi;-inkscape-font-specification:Lavi;text-align:center;letter-spacing:0px;word-spacing:0px;text-anchor:middle;white-space:pre;inline-size:253.323;display:inline;fill:#000000;fill-opacity:1;stroke:none"
       xml:space="preserve"><tspan
         x="1320.327"
         y="2594.489"
         id="tspan7">Toujours<tspan
   y="2594.489"
   id="tspan8"> </tspan></tspan><tspan
         x="1320.327"
         y="2650.7389"
         id="tspan9">pas.</tspan></text>
    <text
       id="text4246-3-2-2-3-5-1"
       y="2703.3201"
       x="1508.0704"
       style="font-style:normal;font-variant:normal;font-weight:normal;font-stretch:normal;font-size:45px;line-height:1.25;font-family:Lavi;-inkscape-font-specification:Lavi;text-align:center;letter-spacing:0px;word-spacing:0px;text-anchor:middle;fill:#000000;fill-opacity:1;stroke:none"
       xml:space="preserve"><tspan
         id="tspan7590"
         y="2703.3201"
         x="1508.0704"
         sodipodi:role="line"
         style="font-size:45px;fill:#000000;fill-opacity:1"> Elle ferait mieux de se </tspan><tspan
         id="tspan112"
         y="2759.5701"
         x="1508.0704"
         sodipodi:role="line"
         style="font-size:45px;fill:#000000;fill-opacity:1">dépêcher, ou elle va louper </tspan><tspan
         id="tspan114"
         y="2815.8201"
         x="1508.0704"
         sodipodi:role="line"
         style="font-size:45px;fill:#000000;fill-opacity:1">le discours de Shichimi.</tspan></text>
    <text
       id="text4246-3-2-2-3-5-1-7"
       y="2918.1755"
       x="1831.7936"
       style="font-style:normal;font-variant:normal;font-weight:normal;font-stretch:normal;font-size:45px;line-height:1.25;font-family:Lavi;-inkscape-font-specification:Lavi;text-align:center;letter-spacing:0px;word-spacing:0px;text-anchor:middle;fill:#000000;fill-opacity:1;stroke:none"
       xml:space="preserve"><tspan
         id="tspan7676"
         y="2918.1755"
         x="1831.7936"
         sodipodi:role="line"
         style="font-size:45px">Merci.</tspan></text>
    <text
       id="text4246-3-2-2-3-5-1-7-3"
       y="2997.3691"
       x="1900.54"
       style="font-style:normal;font-variant:normal;font-weight:normal;font-stretch:normal;font-size:45px;line-height:1.25;font-family:Lavi;-inkscape-font-specification:Lavi;text-align:center;letter-spacing:0px;word-spacing:0px;text-anchor:middle;fill:#000000;fill-opacity:1;stroke:none"
       xml:space="preserve"><tspan
         id="tspan7730"
         y="2997.3691"
         x="1900.54"
         sodipodi:role="line"
         style="font-size:45px">Je </tspan><tspan
         id="tspan118"
         y="3053.6191"
         x="1900.54"
         sodipodi:role="line"
         style="font-size:45px">voudrais...</tspan></text>
  </g>
</svg>
