<?xml version="1.0" encoding="UTF-8" standalone="no"?>
<!-- Created with Inkscape (http://www.inkscape.org/) -->

<svg
   id="svg2"
   version="1.1"
   inkscape:version="1.3 (1:1.3+202307231459+0e150ed6c4)"
   width="2481"
   height="3503"
   sodipodi:docname="E36P15.svg"
   xmlns:inkscape="http://www.inkscape.org/namespaces/inkscape"
   xmlns:sodipodi="http://sodipodi.sourceforge.net/DTD/sodipodi-0.dtd"
   xmlns:xlink="http://www.w3.org/1999/xlink"
   xmlns="http://www.w3.org/2000/svg"
   xmlns:svg="http://www.w3.org/2000/svg"
   xmlns:rdf="http://www.w3.org/1999/02/22-rdf-syntax-ns#"
   xmlns:cc="http://creativecommons.org/ns#"
   xmlns:dc="http://purl.org/dc/elements/1.1/">
  <metadata
     id="metadata8">
    <rdf:RDF>
      <cc:Work
         rdf:about="">
        <dc:format>image/svg+xml</dc:format>
        <dc:type
           rdf:resource="http://purl.org/dc/dcmitype/StillImage" />
      </cc:Work>
    </rdf:RDF>
  </metadata>
  <defs
     id="defs6" />
  <sodipodi:namedview
     pagecolor="#1e1e1e"
     bordercolor="#111111"
     borderopacity="1"
     objecttolerance="10"
     gridtolerance="10"
     guidetolerance="10"
     inkscape:pageopacity="0"
     inkscape:pageshadow="2"
     inkscape:window-width="1920"
     inkscape:window-height="997"
     id="namedview4"
     showgrid="false"
     inkscape:zoom="0.33647452"
     inkscape:cx="1179.8813"
     inkscape:cy="1750.504"
     inkscape:window-x="0"
     inkscape:window-y="0"
     inkscape:window-maximized="1"
     inkscape:current-layer="layer3"
     inkscape:pagecheckerboard="0"
     inkscape:snap-global="false"
     inkscape:showpageshadow="0"
     inkscape:deskcolor="#1e1e1e" />
  <g
     inkscape:groupmode="layer"
     id="layer2"
     inkscape:label="artwork"
     sodipodi:insensitive="true">
    <image
       xlink:href="../gfx_Pepper-and-Carrot_by-David-Revoy_E36P15.png"
       y="0"
       x="0"
       id="image10"
       height="3503"
       width="2481" />
  </g>
  <g
     inkscape:groupmode="layer"
     id="layer3"
     inkscape:label="speechbubbles"
     style="display:inline">
    <path
       sodipodi:nodetypes="zssssz"
       inkscape:connector-curvature="0"
       id="path4040-4-9-3"
       d="m 232.337,1098.8047 c -27.85418,0.4769 -55.97943,7.1554 -80.76947,22.3709 -12.49489,8.4363 -23.37793,21.1351 -28.56607,37.1048 -4.79473,18.468 -5.28257,38.8815 0.52404,57.1189 6.637,19.3675 21.74472,34.1448 38.98848,39.1375 15.86259,4.979 32.409,2.6959 48.58255,2.0661 13.28102,-0.6941 26.60519,-0.9719 39.86904,0.2696 26.97322,1.1594 53.98408,-0.6794 80.8075,-3.9732 12.18541,-1.9107 24.56177,-6.5079 33.842,-16.3061 10.67955,-11.2039 16.03674,-28.0069 16.79712,-44.5032 0.9189,-14.9469 -1.09023,-30.7224 -8.31012,-43.3926 -6.57064,-11.3456 -16.6691,-18.809 -26.27948,-26.2006 -14.14862,-10.566 -30.1491,-18.2299 -46.9507,-20.1589 -21.61386,-3.2392 -43.44647,-3.3174 -65.20052,-3.539 -1.11145,0 -2.22291,0 -3.33437,0.01 z"
       style="color:#000000;display:inline;overflow:visible;visibility:visible;fill:#d5faff;fill-opacity:1;fill-rule:nonzero;stroke:none;stroke-width:0.821765px;marker:none;enable-background:accumulate" />
    <path
       sodipodi:nodetypes="zssssz"
       inkscape:connector-curvature="0"
       id="path4040-4-9-3-0"
       d="m 1081.107,1090.0688 c -51.9413,0.5892 -104.85212,5.2263 -153.74178,24.8749 -16.18544,6.4912 -31.38854,19.2373 -36.25188,37.2878 -5.91697,21.506 3.22765,45.0126 18.90235,59.3517 13.90972,12.9879 32.17264,19.0586 49.87648,23.8629 32.38773,7.9684 65.81553,9.2152 98.92633,10.6138 71.2272,2.3559 142.443,-2.3211 213.4405,-7.8774 29.5917,-2.5932 60.1575,-8.3445 85.3655,-25.7673 22.715,-17.5745 30.8526,-53.9476 15.6291,-79.3987 -10.3707,-17.419 -28.8793,-27.7873 -47.7668,-31.483 -30.1892,-6.4444 -61.1285,-7.1313 -91.8113,-8.4938 -37.0103,-1.3972 -74.0451,-1.944 -111.0712,-2.7117 -13.8313,-0.209 -27.6644,-0.3598 -41.4973,-0.2592 z"
       style="color:#000000;display:inline;overflow:visible;visibility:visible;fill:#ffbebe;fill-opacity:1;fill-rule:nonzero;stroke:none;stroke-width:1.15303px;marker:none;enable-background:accumulate" />
    <path
       sodipodi:nodetypes="zssssz"
       inkscape:connector-curvature="0"
       id="path4040-4-9-3-0-9"
       d="m 1506.7015,1131.2738 c -43.8418,0.906 -88.5288,7.6078 -126.832,25.0706 -22.7144,11.0788 -35.0051,32.4039 -34.9005,53.0364 -1.1291,25.0185 10.9462,51.1319 35.7853,67.3774 22.2129,14.1571 50.6347,20.1782 78.3368,23.7986 37.8431,4.6733 76.2337,5.7211 114.4819,6.0001 49.5338,-0.041 99.263,-2.6589 147.8842,-10.3626 28.2717,-5.612 55.8841,-17.0821 73.2923,-35.9584 18.9228,-20.9651 24.5129,-49.9364 10.6471,-73.6148 -11.9271,-20.9757 -37.7313,-36.3168 -66.3286,-40.5148 -41.708,-8.5157 -84.9938,-9.3675 -127.7427,-11.7287 -34.8162,-1.9079 -69.7143,-3.2564 -104.6238,-3.1038 z"
       style="color:#000000;display:inline;overflow:visible;visibility:visible;fill:#ffbebe;fill-opacity:1;fill-rule:nonzero;stroke:none;stroke-width:1.19075px;marker:none;enable-background:accumulate" />
    <path
       style="fill:#d5faff;fill-rule:evenodd;stroke:none;stroke-width:0.878737px;stroke-linecap:butt;stroke-linejoin:miter;stroke-opacity:1;fill-opacity:1"
       d="m 305.92654,1230.0714 c -31.88755,0.8784 -63.95386,-0.2682 -95.63644,4.2836 -10.09039,1.6342 -19.79221,5.7546 -27.9626,12.1291 -15.95005,12.0615 -26.55026,31.2571 -28.77538,51.5708 -2.49706,17.1735 -2.25477,34.9901 2.24924,51.7912 4.24248,13.996 13.72496,26.3832 26.43232,33.0376 14.1993,7.9949 30.27429,11.1675 46.00208,14.1763 30.37556,5.3329 61.30974,5.8753 92.03938,5.1205 21.89526,-0.7154 43.6782,-3.3031 65.54652,-4.5014 20.13727,-1.3479 40.50309,-3.6042 59.56449,-10.8702 9.17661,-3.2988 18.87367,-7.1546 25.15197,-15.2347 7.08598,-9.4543 9.05878,-21.7177 9.99341,-33.3419 1.43268,-20.0022 -0.43483,-40.3548 -6.16896,-59.5404 -2.38174,-7.5667 -5.29609,-15.1191 -9.87948,-21.5589 -6.36477,-7.8136 -15.84259,-11.842 -25.15732,-14.389 -22.82766,-7.8205 -47.08367,-8.5722 -70.88272,-9.7567 -20.82919,-1.1469 -41.63786,-3.1814 -62.51651,-2.9159 z"
       id="path4430-0"
       inkscape:connector-curvature="0"
       sodipodi:nodetypes="cccc" />
    <path
       style="fill:#d5faff;fill-rule:evenodd;stroke:none;stroke-width:0.914223px;stroke-linecap:butt;stroke-linejoin:miter;stroke-opacity:1;fill-opacity:1"
       d="m 486.57288,1567.3848 c 28.81918,-66.6247 20.74358,-99.1008 19.77331,-112.4088 -16.52174,10.815 -24.86604,14.1576 -24.65914,13.2895 3.00972,-12.6265 -35.44872,-115.6984 -44.45394,-112.059 l 18.96701,-39.5995 c 16.57291,47.9099 30.322,74.2909 38.66556,123.6461 0,0 15.80065,-9.8432 23.58886,-12.9706 2.56416,11.9254 27.41455,66.0411 -31.88166,140.1023 z"
       id="path891"
       inkscape:connector-curvature="0"
       sodipodi:nodetypes="ccsccccc" />
    <path
       id="path889"
       style="fill:#ffe4a0;fill-rule:evenodd;stroke:none;stroke-width:0.97878px;stroke-linecap:butt;stroke-linejoin:miter;stroke-opacity:1;fill-opacity:1"
       d="m 2283.9781,1086.6983 c -49.1087,0.191 -98.2206,0.2192 -147.3306,0.3415 -42.4463,0.078 -84.8926,0.1542 -127.339,0.2312 -7.3011,5.0831 -12.5927,12.2326 -18.0167,19.0181 -17.2657,23.4034 -26.6704,51.1909 -32.362,79.0702 -5.9926,30.3282 -7.2641,61.8654 -0.5503,92.1868 3.7798,15.9255 11.3506,31.6004 24.4263,42.4814 11.5885,9.9648 26.4582,15.8841 41.6917,18.4683 21.2617,4.5432 42.9688,6.74 64.6081,8.8836 35.2993,2.6405 70.7215,3.07 106.0908,4.299 27.8629,-0.085 55.234,-6.0122 82.0929,-12.5734 15.0334,-3.9737 30.0132,-8.9806 43.1747,-17.128 14.0367,-10.2197 22.193,-26.297 25.3558,-42.6174 8.3337,-34.0834 10.3529,-69.7818 3.9393,-104.3281 -3.5449,-20.1472 -9.3351,-40.1837 -19.5681,-58.218 -6.8392,-11.461 -16.4041,-22.2887 -29.5317,-27.2593 -5.2999,-1.9657 -10.997,-2.9434 -16.6812,-2.8559 z" />
    <path
       style="display:inline;fill:#ffe4a0;stroke:none;stroke-width:0.912419;fill-opacity:1"
       d="m 2022.9691,1509.2828 c -33.153,-32.8759 -38.8858,-123.5948 0.3904,-163.0573 23.1728,-23.2827 35.5381,-37.608 35.5381,-37.608 l -25.8875,-19.1211 c -94.4367,86.4289 -50.0669,186.6132 -10.041,219.7864 z"
       id="path3063-1-0"
       inkscape:connector-curvature="0"
       sodipodi:nodetypes="csccc" />
    <path
       style="fill:#d5faff;fill-rule:evenodd;stroke:none;stroke-width:0.837038px;stroke-linecap:butt;stroke-linejoin:miter;stroke-opacity:1;fill-opacity:1"
       d="m 1443.9833,2276.9601 c -28.453,0.7209 -57.2865,4.937 -84.1672,19.2532 -12.7875,7.0214 -25.0184,18.3438 -32.5287,35.3158 -7.2463,22.3935 -6.7059,50.2724 2.4842,71.3356 5.0617,11.7074 12.6846,20.6304 21.0891,26.8936 11.4914,8.7274 24.1484,13.6364 36.8072,17.2869 21.0859,5.6417 42.5998,6.802 63.9957,6.7593 28.0748,-0.385 56.1586,-3.784 83.8216,-10.8037 17.6303,-5.4436 35.5042,-12.741 50.444,-27.9402 7.4258,-10.8078 10.4709,-26.0628 12.3426,-40.6829 3.0686,-23.8316 -3.2785,-50.3014 -16.9416,-64.7079 -9.6684,-9.7548 -21.2561,-14.134 -32.5037,-18.3647 -18.6541,-6.2869 -37.7705,-8.7888 -56.7786,-11.6675 -15.9814,-1.983 -32.027,-2.7925 -48.0646,-2.6775 z"
       id="path4430-0-7"
       inkscape:connector-curvature="0"
       sodipodi:nodetypes="cccc" />
    <path
       style="display:inline;fill:#ffe4a0;fill-rule:evenodd;stroke:none;stroke-width:0.86137px;stroke-linecap:butt;stroke-linejoin:miter;stroke-opacity:1;fill-opacity:1"
       d="m 1113.5821,2911.097 c -37.7543,1.3946 -76.5598,8.1038 -108.5817,24.8569 -24.08833,13.6091 -35.80909,37.5782 -33.46507,59.7582 0.93105,22.2704 14.76069,44.5358 39.44347,56.3873 23.3884,11.4398 51.0278,16.6276 78.4005,19.7193 40.2679,4.2026 81.744,5.9098 122.1298,-0.7233 24.7712,-4.2368 49.6527,-11.1201 69.6884,-23.6991 12.6478,-7.8526 22.35,-18.5318 26.8665,-30.5061 8.7761,-20.9579 8.6606,-44.391 -2.9493,-64.2618 -9.7127,-15.2862 -29.0646,-26.109 -50.5822,-29.84 -31.3289,-7.075 -64.1977,-9.2587 -96.7568,-11.3972 -14.694,-0.6482 -29.448,-0.7613 -44.1936,-0.2942 z"
       id="path4430-0-7-3"
       inkscape:connector-curvature="0"
       sodipodi:nodetypes="cccc" />
    <path
       style="color:#000000;display:inline;overflow:visible;visibility:visible;fill:#d5faff;fill-opacity:1;fill-rule:nonzero;stroke:none;stroke-width:0.933879px;marker:none;enable-background:accumulate"
       d="m 1510.6073,2424.7097 c 95.8683,30.7313 27.8183,159.8015 -2.9543,189.2123 50.4373,-43.5579 100.0481,-123.5802 33.0541,-217.2104 -31.2156,-43.6267 -19.8493,18.5629 -19.8493,18.5629 z"
       id="path4035-4"
       inkscape:connector-curvature="0"
       sodipodi:nodetypes="ccscc" />
    <path
       style="color:#000000;display:inline;overflow:visible;visibility:visible;fill:#ffbebe;fill-opacity:1;fill-rule:nonzero;stroke:none;stroke-width:1.10602px;marker:none;enable-background:accumulate"
       d="m 1071.256,2126.7978 c -43.8405,1.1386 -87.78735,1.5049 -131.28515,5.6148 -25.69052,2.8715 -51.63466,8.5107 -73.6344,27.2658 -15.56079,13.7513 -29.14117,35.1237 -34.23587,64.5081 -3.16275,18.8453 -1.10473,41.0494 5.53551,60.0686 7.83338,23.3748 21.89099,42.0236 36.99307,47.9176 19.78104,9.7642 39.75307,11.8924 59.61842,17.6247 63.07608,13.7529 125.12952,9.8 186.68412,5.1756 23.9279,-2.0289 48.1074,-4.5011 70.2824,-16.0431 15.3554,-8.5577 29.8485,-23.552 36.8789,-48.1782 9.5866,-35.1006 1.6753,-85.8121 -19.3379,-114.2118 -15.9878,-21.4432 -35.4815,-30.3328 -54.0538,-37.1903 -27.9433,-9.7175 -55.9276,-12.8158 -83.4453,-12.5518 z"
       id="path4546-6-5-5"
       inkscape:connector-curvature="0"
       sodipodi:nodetypes="cssssc" />
    <path
       style="color:#000000;display:inline;overflow:visible;visibility:visible;fill:#ffbebe;fill-opacity:1;fill-rule:nonzero;stroke:none;stroke-width:0.511885px;marker:none;enable-background:accumulate"
       d="m 1198.7358,2292.3553 c -58.4517,90.8359 85.6046,288.3485 132.7428,310.3129 -51.7175,-3.6213 -215.024,-222.6528 -167.3541,-289.5926 16.3894,-23.014 93.063,-111.5562 34.6113,-20.7203 z"
       id="path4480-6"
       inkscape:connector-curvature="0"
       sodipodi:nodetypes="zcsz" />
    <path
       style="fill:#ffe4a0;stroke:none;stroke-width:1.22863;fill-opacity:1"
       d="m 1132.3337,2836.1319 c 6.9881,13.1882 16.9513,18.3851 13.6567,35.0595 -18.6808,32.3624 -3.398,71.476 20.2436,84.4218 3.4934,10.3144 -10.2432,41.0229 -10.2432,41.0229 -31.6711,-50.3948 -47.4892,-83.1315 -25.5958,-126.3842 3.8504,-6.927 -8.3872,-14.7062 -12.2361,-26.3855 -3.8491,-11.6793 -4.7084,-20.1125 -0.097,-40.9935 3.9527,-17.898 39.9891,-41.3608 39.9891,-41.3608 -27.433,31.2471 -35.5926,52.7621 -25.7173,74.6198 z"
       id="path3023-4"
       inkscape:connector-curvature="0"
       sodipodi:nodetypes="cccccsscc" />
    <path
       style="color:#000000;display:inline;overflow:visible;visibility:visible;fill:#ffbebe;fill-opacity:1;fill-rule:nonzero;stroke:none;stroke-width:1.24837px;marker:none;enable-background:accumulate"
       d="m 1365.7353,1446.9468 c 65.8497,-28.0462 78.4621,-86.1375 90.2102,-126.6975 16.6063,-57.3342 1.8435,-63.2522 1.8435,-63.2522 l 29.8886,-4.9473 c 11.5377,-2.8141 4.798,161.6465 -121.9423,194.897 z"
       id="path3072-1-3"
       inkscape:connector-curvature="0"
       sodipodi:nodetypes="csccc" />
  </g>
  <g
     inkscape:groupmode="layer"
     id="layer1"
     inkscape:label="txt"
     style="display:inline">
    <text
       id="text4246-4-2-7"
       y="1160.3774"
       x="252.10437"
       style="font-style:normal;font-variant:normal;font-weight:normal;font-stretch:normal;line-height:0%;font-family:Lavi;-inkscape-font-specification:Lavi;text-align:center;letter-spacing:0px;word-spacing:0px;text-anchor:middle;fill:#000000;fill-opacity:1;stroke:none"
       xml:space="preserve"><tspan
         y="1160.3774"
         x="252.10437"
         style="font-size:45px;line-height:1.25"
         sodipodi:role="line"
         id="tspan895">Uh, kaj</tspan><tspan
         y="1216.6274"
         x="252.10437"
         style="font-size:45px;line-height:1.25"
         sodipodi:role="line"
         id="tspan25842">je pa to?</tspan></text>
    <text
       id="text4246-4-2-7-3"
       y="1299.2476"
       x="324.53345"
       style="font-style:normal;font-variant:normal;font-weight:normal;font-stretch:normal;line-height:0%;font-family:Lavi;-inkscape-font-specification:Lavi;text-align:center;letter-spacing:0px;word-spacing:0px;text-anchor:middle;fill:#000000;fill-opacity:1;stroke:none"
       xml:space="preserve"><tspan
         y="1299.2476"
         x="324.53345"
         style="font-size:45px;line-height:1.25"
         sodipodi:role="line"
         id="tspan899">Nekateri se </tspan><tspan
         y="1355.4976"
         x="324.53345"
         style="font-size:45px;line-height:1.25"
         sodipodi:role="line"
         id="tspan904"><tspan
           style="font-weight:bold"
           id="tspan906">poljubljajo …</tspan></tspan></text>
    <text
       id="text4246-4-2-7-3-6"
       y="1156.89"
       x="1141.4875"
       style="font-style:normal;font-variant:normal;font-weight:normal;font-stretch:normal;line-height:0%;font-family:Lavi;-inkscape-font-specification:Lavi;text-align:center;letter-spacing:0px;word-spacing:0px;text-anchor:middle;fill:#000000;fill-opacity:1;stroke:none"
       xml:space="preserve"><tspan
         y="1156.89"
         x="1141.4875"
         style="font-size:45px;line-height:1.25"
         sodipodi:role="line"
         id="tspan17166">Khm. To je pa veliko</tspan><tspan
         y="1213.14"
         x="1141.4875"
         style="font-size:45px;line-height:1.25"
         sodipodi:role="line"
         id="tspan3226">novih parčkov.</tspan></text>
    <text
       id="text4246-4-2-7-3-6-3"
       y="1208.4537"
       x="1589.0795"
       style="font-style:normal;font-variant:normal;font-weight:normal;font-stretch:normal;line-height:0%;font-family:Lavi;-inkscape-font-specification:Lavi;text-align:center;letter-spacing:0px;word-spacing:0px;text-anchor:middle;fill:#000000;fill-opacity:1;stroke:none"
       xml:space="preserve"><tspan
         y="1208.4537"
         x="1589.0795"
         style="font-size:45px;line-height:1.25"
         sodipodi:role="line"
         id="tspan44730">Je bilo to namerno, </tspan><tspan
         y="1264.7037"
         x="1589.0795"
         style="font-size:45px;line-height:1.25"
         sodipodi:role="line"
         id="tspan1516">Paprika?</tspan></text>
    <text
       id="text4246-4-2-7-3-6-3-6"
       y="1141.386"
       x="2154.5344"
       style="font-style:normal;font-variant:normal;font-weight:normal;font-stretch:normal;line-height:0%;font-family:Lavi;-inkscape-font-specification:Lavi;text-align:center;letter-spacing:0px;word-spacing:0px;text-anchor:middle;fill:#000000;fill-opacity:1;stroke:none"
       xml:space="preserve"><tspan
         y="1141.386"
         x="2154.5344"
         style="font-size:45px;line-height:1.25"
         sodipodi:role="line"
         id="tspan4047">O, ne! Mislim,</tspan><tspan
         y="1197.636"
         x="2154.5344"
         style="font-size:45px;line-height:1.25"
         sodipodi:role="line"
         id="tspan35485">da je zmajev rês</tspan><tspan
         y="1253.886"
         x="2154.5344"
         style="font-size:45px;line-height:1.25"
         sodipodi:role="line"
         id="tspan35487">ojačal ljubezen v</tspan><tspan
         y="1310.136"
         x="2154.5344"
         style="font-size:45px;line-height:1.25"
         sodipodi:role="line"
         id="tspan37885">mojem uroku.</tspan></text>
    <text
       id="text4246-4-2-7-3-6-3-6-1"
       y="2204.7722"
       x="1032.8523"
       style="font-style:normal;font-variant:normal;font-weight:normal;font-stretch:normal;line-height:0%;font-family:Lavi;-inkscape-font-specification:Lavi;text-align:center;letter-spacing:0px;word-spacing:0px;text-anchor:middle;fill:#000000;fill-opacity:1;stroke:none"
       xml:space="preserve"><tspan
         y="2204.7722"
         x="1032.8523"
         style="font-size:45px;line-height:1.25"
         sodipodi:role="line"
         id="tspan65093">Ha ha, ta bitka</tspan><tspan
         y="2261.0222"
         x="1032.8523"
         style="font-size:45px;line-height:1.25"
         sodipodi:role="line"
         id="tspan3233">se bo zapisala v</tspan><tspan
         y="2317.2722"
         x="1032.8523"
         style="font-size:45px;line-height:1.25"
         sodipodi:role="line"
         id="tspan3235">zgodovino.</tspan></text>
    <text
       id="text4246-4-2-7-3-6-3-6-1-3"
       y="2346.5227"
       x="1457.3495"
       style="font-style:normal;font-variant:normal;font-weight:normal;font-stretch:normal;line-height:0%;font-family:Lavi;-inkscape-font-specification:Lavi;text-align:center;letter-spacing:0px;word-spacing:0px;text-anchor:middle;fill:#000000;fill-opacity:1;stroke:none"
       xml:space="preserve"><tspan
         y="2346.5227"
         x="1457.3495"
         style="font-size:45px;line-height:1.25"
         sodipodi:role="line"
         id="tspan83228-9">Hi hi,</tspan></text>
    <text
       id="text4246-4-2-7-3-6-3-6-1-3-2"
       y="2401.8772"
       x="1461.7375"
       style="font-style:normal;font-variant:normal;font-weight:normal;font-stretch:normal;line-height:0%;font-family:Lavi;-inkscape-font-specification:Lavi;text-align:center;letter-spacing:0px;word-spacing:0px;text-anchor:middle;fill:#000000;fill-opacity:1;stroke:none"
       xml:space="preserve"><tspan
         y="2401.8772"
         x="1461.7375"
         style="font-size:45px;line-height:1.25"
         sodipodi:role="line"
         id="tspan83228-9-2">zagotovo!</tspan></text>
    <text
       id="text4246-4-2-7-3-6-3-6-1-3-2-8"
       y="2984.354"
       x="1141.8977"
       style="font-style:normal;font-variant:normal;font-weight:normal;font-stretch:normal;font-size:42px;line-height:0%;font-family:Lavi;-inkscape-font-specification:Lavi;text-align:center;letter-spacing:0px;word-spacing:0px;text-anchor:middle;fill:#000000;fill-opacity:1;stroke:none"
       xml:space="preserve"><tspan
         y="2984.354"
         x="1141.8977"
         style="font-size:42px;line-height:1.25"
         sodipodi:role="line"
         id="tspan4500">Uuuhh, kakšna</tspan><tspan
         y="3036.854"
         x="1141.8977"
         style="font-size:42px;line-height:1.25"
         sodipodi:role="line"
         id="tspan50763">sramota!</tspan></text>
    <text
       transform="matrix(0.85852879,0,-0.29243083,1.1647833,0,0)"
       id="text4213-7"
       y="2982.4719"
       x="2454.0139"
       style="font-style:normal;font-variant:normal;font-weight:normal;font-stretch:normal;font-size:10.7631px;line-height:0%;font-family:Lavi;-inkscape-font-specification:Lavi;text-align:center;letter-spacing:0px;word-spacing:0px;text-anchor:middle;display:inline;fill:#d97041;fill-opacity:1;stroke:#000000;stroke-width:0;stroke-miterlimit:4;stroke-dasharray:none;stroke-opacity:1"
       xml:space="preserve"><tspan
         style="font-style:normal;font-variant:normal;font-weight:bold;font-stretch:normal;font-size:64.7408px;line-height:1.25;font-family:Lavi;-inkscape-font-specification:'Lavi Bold';fill:#d97041;fill-opacity:1;stroke:none;stroke-width:0;stroke-miterlimit:4;stroke-dasharray:none"
         y="2982.4719"
         x="2454.0139"
         id="tspan3562-5"
         sodipodi:role="line">- KONEC -</tspan></text>
  </g>
</svg>
