<?xml version="1.0" encoding="UTF-8" standalone="no"?>
<!-- Created with Inkscape (http://www.inkscape.org/) -->

<svg
   xmlns:dc="http://purl.org/dc/elements/1.1/"
   xmlns:cc="http://creativecommons.org/ns#"
   xmlns:rdf="http://www.w3.org/1999/02/22-rdf-syntax-ns#"
   xmlns:svg="http://www.w3.org/2000/svg"
   xmlns="http://www.w3.org/2000/svg"
   xmlns:xlink="http://www.w3.org/1999/xlink"
   xmlns:sodipodi="http://sodipodi.sourceforge.net/DTD/sodipodi-0.dtd"
   xmlns:inkscape="http://www.inkscape.org/namespaces/inkscape"
   id="svg2"
   version="1.1"
   inkscape:version="0.92.4 (5da689c313, 2019-01-14)"
   width="2481"
   height="3503"
   sodipodi:docname="E32P04.svg">
  <metadata
     id="metadata8">
    <rdf:RDF>
      <cc:Work
         rdf:about="">
        <dc:format>image/svg+xml</dc:format>
        <dc:type
           rdf:resource="http://purl.org/dc/dcmitype/StillImage" />
        <dc:title />
      </cc:Work>
    </rdf:RDF>
  </metadata>
  <defs
     id="defs6">
    <filter
       style="color-interpolation-filters:sRGB"
       id="filter4375-4-1-1-1-9-5-8-4"
       inkscape:label="Drop Shadow">
      <feFlood
         id="feFlood4377-7-9-0-8-1-7-3-3"
         flood-opacity="1"
         flood-color="rgb(108,125,133)"
         result="flood" />
      <feComposite
         id="feComposite4379-3-8-8-2-77-4-1-07"
         in2="SourceGraphic"
         in="flood"
         operator="in"
         result="composite1" />
      <feMorphology
         id="feMorphology4393-1-0-49-8-9-3-0-8"
         operator="dilate"
         radius="6.2000000000000002"
         result="result3" />
      <feComposite
         id="feComposite4385-9-5-7-0-8-8-7-6"
         in2="result3"
         in="SourceGraphic"
         operator="over"
         result="fbSourceGraphic" />
      <feColorMatrix
         result="fbSourceGraphicAlpha"
         in="fbSourceGraphic"
         values="0 0 0 -1 0 0 0 0 -1 0 0 0 0 -1 0 0 0 0 1 0"
         id="feColorMatrix4544-8" />
      <feTurbulence
         id="feTurbulence4546-8"
         type="fractalNoise"
         numOctaves="3"
         seed="37"
         baseFrequency="0.129 0.0050000000000000001"
         result="turbulence" />
      <feDisplacementMap
         id="feDisplacementMap4548-4"
         in2="turbulence"
         in="fbSourceGraphic"
         scale="6.6"
         yChannelSelector="G"
         xChannelSelector="R"
         result="fbSourceGraphic" />
      <feColorMatrix
         result="fbSourceGraphicAlpha"
         in="fbSourceGraphic"
         values="0 0 0 -1 0 0 0 0 -1 0 0 0 0 -1 0 0 0 0 1 0"
         id="feColorMatrix4670-3" />
      <feFlood
         id="feFlood4672-1"
         flood-opacity="1"
         flood-color="rgb(17,52,65)"
         result="flood"
         in="fbSourceGraphic" />
      <feComposite
         id="feComposite4674-4"
         in2="fbSourceGraphic"
         in="flood"
         operator="in"
         result="composite1" />
      <feGaussianBlur
         id="feGaussianBlur4676-92"
         in="composite1"
         stdDeviation="0"
         result="blur" />
      <feOffset
         id="feOffset4678-0"
         dx="6"
         dy="6"
         result="offset" />
      <feComposite
         id="feComposite4680-68"
         in2="offset"
         in="fbSourceGraphic"
         operator="over"
         result="composite2" />
    </filter>
    <filter
       style="color-interpolation-filters:sRGB"
       id="filter4375-4-1-1-1-9-5-8-4-3"
       inkscape:label="Drop Shadow">
      <feFlood
         id="feFlood4377-7-9-0-8-1-7-3-3-6"
         flood-opacity="1"
         flood-color="rgb(108,125,133)"
         result="flood" />
      <feComposite
         id="feComposite4379-3-8-8-2-77-4-1-07-7"
         in2="SourceGraphic"
         in="flood"
         operator="in"
         result="composite1" />
      <feMorphology
         id="feMorphology4393-1-0-49-8-9-3-0-8-5"
         operator="dilate"
         radius="6.2000000000000002"
         result="result3" />
      <feComposite
         id="feComposite4385-9-5-7-0-8-8-7-6-3"
         in2="result3"
         in="SourceGraphic"
         operator="over"
         result="fbSourceGraphic" />
      <feColorMatrix
         result="fbSourceGraphicAlpha"
         in="fbSourceGraphic"
         values="0 0 0 -1 0 0 0 0 -1 0 0 0 0 -1 0 0 0 0 1 0"
         id="feColorMatrix4544-8-5" />
      <feTurbulence
         id="feTurbulence4546-8-6"
         type="fractalNoise"
         numOctaves="3"
         seed="37"
         baseFrequency="0.129 0.0050000000000000001"
         result="turbulence" />
      <feDisplacementMap
         id="feDisplacementMap4548-4-2"
         in2="turbulence"
         in="fbSourceGraphic"
         scale="6.6"
         yChannelSelector="G"
         xChannelSelector="R"
         result="fbSourceGraphic" />
      <feColorMatrix
         result="fbSourceGraphicAlpha"
         in="fbSourceGraphic"
         values="0 0 0 -1 0 0 0 0 -1 0 0 0 0 -1 0 0 0 0 1 0"
         id="feColorMatrix4670-3-9" />
      <feFlood
         id="feFlood4672-1-1"
         flood-opacity="1"
         flood-color="rgb(17,52,65)"
         result="flood"
         in="fbSourceGraphic" />
      <feComposite
         id="feComposite4674-4-2"
         in2="fbSourceGraphic"
         in="flood"
         operator="in"
         result="composite1" />
      <feGaussianBlur
         id="feGaussianBlur4676-92-7"
         in="composite1"
         stdDeviation="0"
         result="blur" />
      <feOffset
         id="feOffset4678-0-0"
         dx="6"
         dy="6"
         result="offset" />
      <feComposite
         id="feComposite4680-68-9"
         in2="offset"
         in="fbSourceGraphic"
         operator="over"
         result="composite2" />
    </filter>
  </defs>
  <sodipodi:namedview
     pagecolor="#ffffff"
     bordercolor="#666666"
     borderopacity="1"
     objecttolerance="10"
     gridtolerance="10"
     guidetolerance="10"
     inkscape:pageopacity="0"
     inkscape:pageshadow="2"
     inkscape:window-width="1920"
     inkscape:window-height="1057"
     id="namedview4"
     showgrid="false"
     inkscape:zoom="0.46000001"
     inkscape:cx="1510.2862"
     inkscape:cy="1052.6427"
     inkscape:window-x="1912"
     inkscape:window-y="-8"
     inkscape:window-maximized="1"
     inkscape:current-layer="layer1"
     inkscape:snap-global="false" />
  <g
     inkscape:groupmode="layer"
     id="layer2"
     inkscape:label="artwork"
     sodipodi:insensitive="true">
    <image
       sodipodi:absref="C:\Users\nicol\Documents\Git\Pepper_et_Carrot\webcomics\new-ep32_The-Battlefield\lang\en\../gfx_Pepper-and-Carrot_by-David-Revoy_E32P04.png"
       xlink:href="../gfx_Pepper-and-Carrot_by-David-Revoy_E32P04.png"
       y="0"
       x="0"
       id="image10"
       height="3503"
       width="2481" />
  </g>
  <g
     inkscape:groupmode="layer"
     id="layer3"
     inkscape:label="speechbubbles"
     style="display:inline">
    <path
       style="display:inline;fill:#ffffff;fill-rule:evenodd;stroke:none;stroke-width:1px;stroke-linecap:butt;stroke-linejoin:miter;stroke-opacity:1"
       d="m 728.53516,1005.5762 c -1.92058,9.9596 -3.84115,19.9192 -5.76172,29.8789 -10.80737,8.0485 -26.19912,8.9685 -38.09571,2.7969 2.95248,10.774 5.90495,21.5481 8.85743,32.3222 -2.6147,2.3963 -6.53775,3.2792 -9.91211,2.1563 1.85416,6.1146 3.70833,12.2291 5.5625,18.3437 -4.60855,3.9098 -10.8439,5.8756 -16.85938,5.166 3.32366,10.876 6.94789,21.7483 8.42969,33.0684 -2.69535,8.8182 -6.9408,17.0399 -10.98633,25.291 13.53684,2.5798 27.2168,4.6738 40.41602,8.7363 9.70337,7.7913 15.693,20.1419 15.39062,32.625 11.19531,-5.0175 22.39063,-10.0351 33.58594,-15.0527 5.38253,1.0402 8.31471,8.1481 5.29883,12.7051 12.74289,-6.3253 25.41724,-12.787 38.10351,-19.2246 4.10695,2.1699 7.25533,6.098 8.41211,10.6035 7.45058,-1.4847 14.79433,-3.4424 22.14063,-5.3652 1.38991,2.271 2.04524,4.8978 2.42187,7.5097 10.60391,0.9457 21.58735,0.9276 31.58008,5.0703 4.01547,2.9934 6.77262,7.2703 9.39648,11.4551 10.30576,-11.2732 20.59177,-23.2941 34.52245,-30.19 8.04197,-3.8577 16.69346,-7.888 25.84363,-7.0031 5.1118,1.3632 10.22306,2.7506 15.41908,3.7615 7.7336,-4.2749 16.99388,-6.9352 25.76758,-4.6172 0.94432,1.3929 3.06508,-0.7749 1.73346,-1.7646 -1.69221,-5.6282 -4.40669,-10.9116 -5.7862,-16.6397 3.84166,-7.5915 8.33112,-15.2491 9.01368,-23.918 -2.11143,-6.4451 -5.95768,-12.127 -8.47371,-18.402 -0.54086,-1.0714 -1.57845,-2.4403 -0.36473,-3.4386 2.25665,-3.1945 5.47795,-5.6678 9.08844,-7.1496 -5.34212,-6.6253 -14.70363,-8.9827 -18.87891,-16.6973 -3.82635,-6.2451 -6.10995,-14.08 -3.77344,-21.2734 7.67771,-11.6944 17.57826,-21.6898 25.76758,-33.002 -11.26896,6.5431 -22.48484,13.1768 -33.71094,19.793 -2.96548,-1.4359 -5.15193,-4.2916 -5.89843,-7.4863 -4.01375,0.6991 -7.95756,1.7351 -11.90625,2.7265 -0.55665,-3.0406 -0.11976,-6.1505 -0.52735,-9.2051 -2.19664,-0.4083 -4.4545,-0.4031 -6.63281,-0.9218 -0.61341,-8.7815 0.7975,-17.5194 1.90625,-26.2032 -8.68034,8.0521 -17.36068,16.1042 -26.04102,24.1563 -4.02357,-1.1135 -7.5707,-3.8491 -9.65429,-7.4687 -14.58906,1.1103 -29.45648,0.5653 -43.71094,4.3574 -8.11108,-0.5667 -14.38532,-6.3136 -21.45313,-9.6465 -2.40563,-1.457 -5.33844,-3.6981 -8.22923,-2.1161 -9.24456,3.4798 -16.80936,11.0234 -26.87428,12.3387 -5.8653,0.9271 -11.90452,0.6148 -17.67188,-0.7734 -6.42457,2.458 -10.73119,8.6276 -17.45898,10.4727 -8.80823,-0.9361 -15.87924,-7.76 -19.55078,-15.4805 -3.16586,-5.5209 -6.32099,-11.0481 -9.55859,-16.5273 -0.29558,1.4108 -0.59115,2.8216 -0.88672,4.2324 z"
       id="path4508-2"
       inkscape:connector-curvature="0"
       sodipodi:nodetypes="cccccccccccccccccccccccccccc" />
    <path
       style="display:inline;opacity:1;fill:#ffffff;fill-rule:evenodd;stroke:none;stroke-width:1px;stroke-linecap:butt;stroke-linejoin:miter;stroke-opacity:1"
       d="m 1232.4018,1041.2127 c -50.2716,5.6942 -99.4961,17.7102 -149.0566,27.4906 -16.2443,3.0274 -32.4856,6.4771 -49.0334,7.3138 -27.8674,1.7997 -55.81752,0.5765 -83.70319,1.8779 -31.70373,1.116 -63.45592,2.4021 -94.96073,6.3059 -12.00129,1.5369 -23.8923,4.0749 -35.32968,8.0574 -14.69956,4.8219 -28.95873,11.1539 -44.13898,14.3919 -8.25968,1.6756 -16.87794,1.7222 -25.07509,-0.3374 -10.7596,-2.4958 -20.93572,-6.8981 -31.28412,-10.666 -13.71759,-5.23 -27.87124,-9.9766 -42.63207,-10.8825 -17.52114,-1.6165 -35.20254,-2.0954 -52.74398,-0.5311 -14.1515,1.5758 -28.28924,6.1786 -39.51262,15.1684 -12.84906,9.8693 -22.82322,24.1414 -25.65265,40.2688 -1.27746,9.6884 1.31912,19.7672 6.8849,27.7728 0.67219,-10.5849 -2.17144,-21.4525 1.0625,-31.8106 4.3372,-15.0701 16.29647,-27.1362 30.36748,-33.5682 11.89389,-5.571 25.40408,-6.3815 38.3065,-5.114 19.64653,0.787 39.52891,0.029 58.88579,4.0577 18.62559,4.5312 35.23728,14.582 53.3582,20.5503 10.41976,3.2102 21.70042,4.3166 32.36695,1.64 19.04553,-4.0346 36.58663,-12.9001 55.30192,-18.0596 12.43504,-3.5706 25.3649,-5.5175 38.31511,-5.3097 37.76726,-1.0812 75.53995,-2.1833 113.32462,-2.3508 32.59244,0.08 65.21724,1.5823 97.78584,-0.2844 34.3956,-1.6839 68.688,-6.4713 103.1848,-5.2917 8.1876,0.3248 16.7783,0.3919 24.2138,4.3017 5.7439,2.8127 10.051,8.1503 11.8047,14.2786 1.4492,4.1969 1.4605,8.6884 2.352,12.9932 0.6018,2.1839 3.7128,2.0534 5.1858,0.8257 1.3359,-0.8313 1.5858,-2.4429 1.5437,-3.865 4.0897,-23.3572 8.874,-46.6096 11.8375,-70.1495 -0.345,-4.8848 -5.0077,-8.1954 -9.5346,-8.8976 -1.1287,-0.2017 -2.2808,-0.247 -3.4244,-0.1766 z"
       id="path4316-3"
       inkscape:connector-curvature="0"
       sodipodi:nodetypes="ccsccscccccccccccccccccccccccc" />
    <path
       style="display:inline;fill:#ffffff;stroke:none;stroke-width:1.01856339"
       d="m 1219.473,960.41405 c -48.9319,0.62848 -98.453,7.0902 -144.1132,25.41425 -26.365,11.15414 -50.7158,29.0871 -65.5734,53.935 -13.22214,24.5625 -15.49174,54.0021 -9.5399,80.9774 9.403,37.2202 41.1066,67.361 78.3821,75.9431 31.6514,8.9079 64.6231,10.9249 97.0971,15.0662 69.6934,6.828 139.685,0.7139 209.4444,-1.4817 27.3003,-1.0525 54.6984,-2.1621 81.7138,-6.4711 32.9451,-6.3733 64.7579,-21.8873 87.68,-46.7417 12.7495,-14.1037 21.4791,-32.2128 22.6727,-51.3336 2.4767,-23.4992 -0.8181,-48.317 -13.0488,-68.8587 -12.4421,-19.9423 -32.4337,-34.0121 -53.7854,-43.11056 -32.3199,-14.66632 -67.3739,-22.16347 -102.4077,-26.79451 -51.7686,-6.17383 -103.9968,-4.6887 -156.0062,-6.34326 -10.8375,-0.1762 -21.6767,-0.22036 -32.5155,-0.20082 z"
       id="path3280-8-2-3"
       inkscape:connector-curvature="0"
       sodipodi:nodetypes="csssc" />
    <path
       style="display:inline;fill:#ffffff;fill-rule:evenodd;stroke:none;stroke-width:1px;stroke-linecap:butt;stroke-linejoin:miter;stroke-opacity:1"
       d="m 1893.6582,2207.5293 c 4.4844,9.7034 -4.8524,22.199 -15.4191,20.761 -9.4251,0.1495 -17.5276,-5.5472 -24.6504,-11.085 -2.2154,-1.4556 -4.4793,-2.837 -6.7918,-4.133 -2.8892,7.4007 -3.1894,16.2749 -9.2051,22.1015 -8.3677,8.4241 -21.3005,11.5245 -32.7344,8.7735 -2.783,1.4957 -1.6922,5.8433 0.836,7.0273 2.1972,3.9092 -1.4754,8.6017 -5.4641,9.2457 -9.2149,4.1681 -19.7703,2.7482 -29.1707,6.266 9.4899,4.5102 19.8105,6.863 29.4473,11.0078 1.2478,6.32 -3.5481,12.2449 -9.086,14.6602 2.241,2.8626 5.4604,4.732 8.0252,7.2771 0.7015,0.7656 2.4297,1.493 2.1862,2.5756 -5.3037,9.3853 -15.597,15.3269 -26.184,16.4578 10.5905,5.4628 23.6723,4.6995 33.3203,12.2129 4.616,4.3891 4.3862,11.3683 3.6079,17.1955 -0.4206,4.1564 -0.9296,8.3069 -1.1528,12.4803 3.0344,-0.7709 4.5762,-3.9702 7.4858,-5.0288 7.3704,-4.8687 16.6416,-8.3394 25.4883,-5.9523 4.8286,1.8296 8.5085,5.6907 12.6692,8.5073 12.6147,0.9628 25.7815,-0.068 37.7219,4.8859 4.9167,3.3619 8.5681,8.3792 10.7012,13.9063 10.6947,-3.7874 20.9225,-10.2761 32.6287,-10.0543 10.3921,1.1633 21.3956,3.5294 31.4653,-0.5424 11.7045,-4.2294 24.1788,-8.6601 36.795,-6.3872 10.5223,1.795 20.7478,4.933 31.1715,7.1831 8.5904,-3.499 15.172,-11.5049 24.7852,-12.4785 9.7835,-1.1197 19.7872,1.4068 28.2324,6.3652 -4.5131,-9.9039 0.7531,-23.4105 11.4355,-26.5868 5.1991,-1.9874 10.7152,-2.9228 16.0059,-4.6163 -3.9596,-4.3204 -10.3018,-6.2968 -12.8965,-11.8613 -0.4539,-6.3288 5.6758,-11.0727 4.9141,-17.4434 -2.2475,-4.0033 -7.7448,-5.5539 -8.7246,-10.3691 1.6223,-8.844 8.9323,-15.1112 16.113,-19.7566 1.4192,-0.9285 3.0212,-1.5881 4.2893,-2.7376 -3.3366,-2.9536 -8.0959,-2.7414 -12.119,-4.1065 -5.3199,-1.1528 -11.3762,-2.292 -14.8998,-6.8512 -2.3896,-4.6891 -1.9747,-10.5032 0.5422,-15.054 -4.7335,-3.3547 -10.6833,-1.0714 -15.9865,-1.5069 -9.1425,0.2878 -19.1124,0.5666 -27.072,-4.6559 -6.3519,-5.9255 -7.9711,-14.9001 -9.8658,-22.977 0.092,-1.1529 -1.3503,-2.4391 -2.2046,-1.1919 -10.0976,6.3366 -20.328,13.7338 -32.5273,15.0544 -11.5243,0.173 -22.1311,-7.4183 -27.4082,-17.3829 -2.4374,-2.2142 -5.7778,0.052 -7.5028,2.0777 -8.7436,6.6815 -18.0396,13.9851 -29.3714,15.1545 -12.6211,0.356 -24.1059,-5.7717 -35.0978,-11.2076 -4.8502,-2.5401 -9.6824,-5.1144 -14.528,-7.6632 0.065,0.151 0.1302,0.3021 0.1953,0.4531 z"
       id="path4582"
       inkscape:connector-curvature="0"
       sodipodi:nodetypes="ccccccccccccccccccccccccccccccccccccccccccccccc" />
    <path
       style="display:inline;fill:#ffffff;fill-rule:evenodd;stroke:none;stroke-width:1px;stroke-linecap:butt;stroke-linejoin:miter;stroke-opacity:1"
       d="m 1982.1328,2325.6113 c -12.8691,7.4955 -25.7383,14.9909 -38.6074,22.4864 0.7954,19.5281 2.2328,39.6275 -3.7131,58.5597 -1.442,4.7665 -2.884,9.5331 -4.326,14.2996 -1.6554,-3.8605 -5.4614,-7.4211 -9.9258,-6.9336 -6.7867,4.7357 -9.0295,13.3509 -9.9231,21.1392 -2.0838,11.9256 -2.8847,24.0205 -3.8503,36.0737 3.8713,-15.6614 7.4521,-31.5035 13.7676,-46.4082 3.8906,4.0568 6.8647,9.3231 12.1582,11.7598 6.004,-2.9668 8.1205,-9.8641 10.0033,-15.7846 11.8101,-31.5596 23.2778,-63.2456 34.8385,-94.8971 0,-0.1943 -0.2322,-0.3937 -0.4219,-0.2949 z"
       id="path891"
       inkscape:connector-curvature="0"
       inkscape:transform-center-x="1.787008"
       inkscape:transform-center-y="33.226638"
       sodipodi:nodetypes="ccccccccc" />
  </g>
  <g
     inkscape:groupmode="layer"
     id="layer1"
     inkscape:label="txt"
     style="display:inline">
    <path
       style="fill:#ffffff;fill-opacity:1;fill-rule:evenodd;stroke:none;stroke-width:1px;stroke-linecap:butt;stroke-linejoin:miter;stroke-opacity:1"
       d="m 177.42383,2245.5098 c -3.28054,-4.412 -6.54497,-8.8363 -9.89844,-13.1934 1.8724,4.9701 3.74479,9.9401 5.61719,14.9102 -2.85287,-2.3366 -5.70573,-4.6732 -8.5586,-7.0098 0.9873,14.5749 -5.63616,28.266 -13.04492,40.375 -3.39388,10.4616 -6.78776,20.9232 -10.18164,31.3848 -3.04714,1.4837 -6.54754,2.0287 -9.89844,1.5039 2.47526,3.4505 4.95053,6.901 7.42579,10.3515 -2.50019,1.7264 -5.61815,2.5405 -8.64258,2.2285 2.22591,3.75 4.45182,7.5 6.67773,11.25 -6.64258,-0.6464 -13.28515,-1.2929 -19.92773,-1.9394 8.58413,8.2032 18.47439,16.3063 22.04883,28.1074 3.55432,24.9963 8.72921,49.7219 13.97851,74.4063 -5.82052,13.6373 -13.23322,26.5046 -20.38086,39.4707 10.41602,-6.849 20.83203,-13.6979 31.24805,-20.5469 -0.46062,4.0289 -1.87399,7.9431 -4.0918,11.3379 4.39714,-1.4688 8.79427,-2.9375 13.19141,-4.4063 -0.82341,9.5473 -4.30109,18.7343 -9.33399,26.8418 7.69039,-5.534 12.87978,-13.7196 20.1875,-19.6816 32.596,18.3268 68.51751,31.5785 105.91205,35.1479 32.71885,4.0253 66.53886,3.6244 98.32955,-5.8467 17.1345,-6.6006 32.20149,-17.7281 45.05528,-30.7055 8.37714,0.3926 14.74263,6.7009 22.49945,9.0886 1.83905,0.8039 4.38347,2.4596 5.91316,2.4657 -6.17464,-7.2388 -12.34929,-14.4776 -18.52394,-21.7164 3.90629,-3.4577 7.84461,-6.9256 12.2832,-9.6953 3.2194,1.8216 6.43881,3.6432 9.65821,5.4648 -8.04322,-15.757 -6.7017,-34.7203 -0.61524,-50.8926 1.9362,-8.4231 3.8724,-16.8463 5.8086,-25.2695 5.2137,-3.0724 10.65897,-5.722 16.08203,-8.3984 -5.26758,-0.944 -10.53516,-1.8881 -15.80274,-2.8321 3.95357,-4.3484 9.52988,-7.0772 15.32617,-7.8711 -4.42252,-1.4505 -8.84505,-2.901 -13.26757,-4.3515 -0.54347,-26.92 -10.55432,-52.4138 -21.1977,-76.7546 -3.34334,-7.642 -8.42416,-15.6345 -6.52909,-24.3372 3.72608,-10.546 14.59424,-16.1747 19.61155,-25.9434 -12.48852,4.3733 -24.30274,10.3837 -36.36914,15.7617 -1.47496,-3.7625 -1.27,-8.1342 0.52539,-11.7519 -19.72701,2.4352 -39.00249,-3.8087 -57.93991,-8.3768 -53.49187,-9.6011 -109.07226,-7.0798 -161.52642,7.0934 -7.40274,1.6914 -16.30005,2.2611 -22.28313,-3.3051 -2.83622,-2.4318 -5.04299,-5.5636 -6.49858,-8.9974 -1.45158,3.2489 -0.58288,6.8724 0.1289,10.1894 -6.9391,-8.276 -11.43568,-18.211 -17.67773,-26.9726 4.89388,14.472 9.78776,28.944 14.68164,43.416 z"
       id="path4212-3"
       inkscape:connector-curvature="0"
       sodipodi:nodetypes="ccccccccccccccccccccccscccccccccccccccccccccccccccc" />
    <path
       style="display:inline;fill:#ffffff;fill-rule:evenodd;stroke:none;stroke-width:1px;stroke-linecap:butt;stroke-linejoin:miter;stroke-opacity:1"
       d="m 310.70312,2463.291 c -8.21398,3.1565 -12.9353,11.3236 -16.15302,19.0514 -5.6045,14.1172 -7.86723,29.361 -8.43367,44.4712 -0.18011,11.5779 2.49004,23.9731 10.804,32.5225 8.55381,9.0353 21.00841,13.3258 33.20607,14.111 26.62301,3.0258 53.74718,6.7941 78.25045,18.258 2.11816,1.0078 4.24122,2.0052 6.36914,2.9922 -25.92997,-17.4348 -55.94738,-27.1336 -85.46519,-36.5491 -9.15309,-1.9188 -16.58306,-10.2666 -16.96924,-19.6885 -0.54779,-8.5768 2.64096,-16.755 4.47368,-25.0023 3.19319,-12.494 6.66713,-25.528 4.31784,-38.4807 -1.16255,-5.1466 -4.54264,-11.2602 -10.40006,-11.6857 z"
       id="path4186-80"
       inkscape:connector-curvature="0"
       sodipodi:nodetypes="cscssc" />
    <text
       xml:space="preserve"
       style="font-style:normal;font-variant:normal;font-weight:normal;font-stretch:normal;line-height:0%;font-family:Lavi;-inkscape-font-specification:Lavi;text-align:center;letter-spacing:0px;word-spacing:0px;text-anchor:middle;display:inline;fill:#000000;fill-opacity:1;stroke:none"
       x="823.83612"
       y="1086.9447"
       id="text4246-7-6-1-7-6-6"><tspan
         sodipodi:role="line"
         style="font-size:45px;line-height:1.25"
         x="831.74628"
         y="1086.9447"
         id="tspan1027">I don't </tspan><tspan
         sodipodi:role="line"
         style="font-size:45px;line-height:1.25"
         x="823.83612"
         y="1143.1947"
         id="tspan846">believe this!</tspan></text>
    <text
       xml:space="preserve"
       style="font-style:normal;font-variant:normal;font-weight:normal;font-stretch:normal;line-height:0%;font-family:Lavi;-inkscape-font-specification:Lavi;text-align:center;letter-spacing:0px;word-spacing:0px;text-anchor:middle;display:inline;fill:#000000;fill-opacity:1;stroke:none"
       x="1289.5938"
       y="1055.46"
       id="text4246-7-6-1-7-6-6-6"><tspan
         sodipodi:role="line"
         style="font-size:45px;line-height:1.25"
         x="1289.5938"
         y="1055.46"
         id="tspan1027-7">I've studied for years,</tspan><tspan
         sodipodi:role="line"
         style="font-size:45px;line-height:1.25"
         x="1289.5938"
         y="1111.71"
         id="tspan869"> but nobody will take me</tspan><tspan
         sodipodi:role="line"
         style="font-size:45px;line-height:1.25"
         x="1289.5938"
         y="1167.96"
         id="tspan873"> seriously because...</tspan></text>
    <text
       xml:space="preserve"
       style="font-style:normal;font-variant:normal;font-weight:normal;font-stretch:normal;font-size:13.49506664px;line-height:0%;font-family:Lavi;-inkscape-font-specification:Lavi;text-align:center;letter-spacing:0px;word-spacing:0px;text-anchor:middle;fill:#000000;fill-opacity:1;stroke:none;stroke-width:0.99999994"
       x="301.43457"
       y="2321.4346"
       id="text4246-1-3-1"
       transform="scale(0.99789912,1.0021053)"><tspan
         sodipodi:role="line"
         style="font-style:normal;font-variant:normal;font-weight:normal;font-stretch:normal;font-size:45px;line-height:1.25;font-family:Lavi;-inkscape-font-specification:Lavi;stroke-width:0.99999994"
         x="301.43457"
         y="2321.4346"
         id="tspan94">...I don't look</tspan><tspan
         sodipodi:role="line"
         style="font-style:normal;font-variant:normal;font-weight:normal;font-stretch:normal;font-size:45px;line-height:1.25;font-family:Lavi;-inkscape-font-specification:Lavi;stroke-width:0.99999994"
         x="301.43457"
         y="2377.6846"
         id="tspan900"> experienced</tspan><tspan
         sodipodi:role="line"
         style="font-style:normal;font-variant:normal;font-weight:normal;font-stretch:normal;font-size:45px;line-height:1.25;font-family:Lavi;-inkscape-font-specification:Lavi;stroke-width:0.99999994"
         x="301.43457"
         y="2433.9346"
         id="tspan902"> enough!</tspan></text>
    <text
       xml:space="preserve"
       style="font-style:normal;font-variant:normal;font-weight:normal;font-stretch:normal;line-height:0%;font-family:Lavi;-inkscape-font-specification:Lavi;letter-spacing:0px;word-spacing:0px;opacity:0.85700001;fill:#ffffff;fill-opacity:1;stroke:#98b9ca;stroke-width:0.95450699;stroke-miterlimit:4;stroke-dasharray:none;stroke-opacity:1;filter:url(#filter4375-4-1-1-1-9-5-8-4)"
       x="787.65729"
       y="1584.5073"
       id="text4580-6-0-9"
       transform="matrix(0.45385441,-0.55441241,0.42180805,1.1015917,506.31624,1607.76)"><tspan
         sodipodi:role="line"
         id="tspan4582-1-1-26"
         x="787.65729"
         y="1584.5073"
         style="font-size:70px;line-height:1.25;fill:#ffffff;fill-opacity:1;stroke:#98b9ca;stroke-width:0.95450699;stroke-opacity:1"><tspan
           style="font-size:93.14950562px;fill:#ffffff;fill-opacity:1;stroke:#98b9ca;stroke-width:0.95450699;stroke-opacity:1"
           id="tspan4315-8-64">POOF<tspan
   style="font-size:82.64876556px;stroke-width:0.95450699"
   id="tspan1133">!</tspan></tspan><tspan
           style="font-size:114.73223114px;fill:#ffffff;fill-opacity:1;stroke:#98b9ca;stroke-width:0.95450699;stroke-opacity:1"
           id="tspan4313-2-9">!</tspan></tspan></text>
    <text
       xml:space="preserve"
       style="font-style:normal;font-variant:normal;font-weight:normal;font-stretch:normal;font-size:15.67466736px;line-height:0%;font-family:Lavi;-inkscape-font-specification:Lavi;text-align:center;letter-spacing:0px;word-spacing:0px;text-anchor:middle;display:inline;fill:#000000;fill-opacity:1;stroke:#000000;stroke-width:1.79999995;stroke-miterlimit:4;stroke-dasharray:none;stroke-opacity:1"
       x="2779.0186"
       y="2023.4807"
       id="text4246-3-7-9-5-1-6-2"
       transform="matrix(0.87277154,0,-0.23842397,1.1457752,0,0)"><tspan
         sodipodi:role="line"
         style="font-size:58.77999878px;line-height:1.25;stroke:#000000;stroke-width:1.79999995;stroke-miterlimit:4;stroke-dasharray:none;stroke-opacity:1"
         x="2779.0186"
         y="2023.4807"
         id="tspan1222">CARROT !</tspan></text>
    <text
       xml:space="preserve"
       style="font-style:normal;font-variant:normal;font-weight:normal;font-stretch:normal;line-height:0%;font-family:Lavi;-inkscape-font-specification:Lavi;letter-spacing:0px;word-spacing:0px;display:inline;opacity:0.85700001;fill:#ffffff;fill-opacity:1;stroke:#98b9ca;stroke-width:1.4887538;stroke-miterlimit:4;stroke-dasharray:none;stroke-opacity:1;filter:url(#filter4375-4-1-1-1-9-5-8-4-3)"
       x="787.65729"
       y="1584.5073"
       id="text4580-6-0-9-3"
       transform="matrix(0.33769447,-0.30629363,0.31385009,0.60859124,1407.0816,1753.5904)"><tspan
         sodipodi:role="line"
         id="tspan4582-1-1-26-6"
         x="787.65729"
         y="1584.5073"
         style="font-size:70px;line-height:1.25;fill:#ffffff;fill-opacity:1;stroke:#98b9ca;stroke-width:1.4887538;stroke-opacity:1"><tspan
           style="font-size:93.14950562px;fill:#ffffff;fill-opacity:1;stroke:#98b9ca;stroke-width:1.4887538;stroke-opacity:1"
           id="tspan4315-8-64-0">PAF<tspan
   style="font-size:82.64876556px;stroke-width:1.4887538"
   id="tspan1133-2">!</tspan></tspan><tspan
           style="font-size:114.73223114px;fill:#ffffff;fill-opacity:1;stroke:#98b9ca;stroke-width:1.4887538;stroke-opacity:1"
           id="tspan4313-2-9-6">!</tspan></tspan></text>
  </g>
</svg>
