<?xml version="1.0" encoding="UTF-8" standalone="no"?>
<!-- Created with Inkscape (http://www.inkscape.org/) -->

<svg
   id="svg2"
   version="1.1"
   inkscape:version="1.2.2 (b0a8486541, 2022-12-01)"
   width="2481"
   height="3503"
   sodipodi:docname="E28P08.svg"
   xmlns:inkscape="http://www.inkscape.org/namespaces/inkscape"
   xmlns:sodipodi="http://sodipodi.sourceforge.net/DTD/sodipodi-0.dtd"
   xmlns:xlink="http://www.w3.org/1999/xlink"
   xmlns="http://www.w3.org/2000/svg"
   xmlns:svg="http://www.w3.org/2000/svg"
   xmlns:rdf="http://www.w3.org/1999/02/22-rdf-syntax-ns#"
   xmlns:cc="http://creativecommons.org/ns#"
   xmlns:dc="http://purl.org/dc/elements/1.1/">
  <metadata
     id="metadata8">
    <rdf:RDF>
      <cc:Work
         rdf:about="">
        <dc:format>image/svg+xml</dc:format>
        <dc:type
           rdf:resource="http://purl.org/dc/dcmitype/StillImage" />
        <dc:title />
      </cc:Work>
    </rdf:RDF>
  </metadata>
  <defs
     id="defs6" />
  <sodipodi:namedview
     pagecolor="#ffffff"
     bordercolor="#666666"
     borderopacity="1"
     objecttolerance="10"
     gridtolerance="10"
     guidetolerance="10"
     inkscape:pageopacity="0"
     inkscape:pageshadow="2"
     inkscape:window-width="1888"
     inkscape:window-height="1144"
     id="namedview4"
     showgrid="false"
     inkscape:zoom="0.51498715"
     inkscape:cx="1194.2046"
     inkscape:cy="2064.1292"
     inkscape:window-x="32"
     inkscape:window-y="0"
     inkscape:window-maximized="1"
     inkscape:current-layer="layer1"
     inkscape:showpageshadow="0"
     inkscape:pagecheckerboard="0"
     inkscape:deskcolor="#d1d1d1" />
  <g
     inkscape:groupmode="layer"
     id="layer2"
     inkscape:label="artwork"
     sodipodi:insensitive="true">
    <image
       xlink:href="../gfx_Pepper-and-Carrot_by-David-Revoy_E28P08.png"
       width="2481"
       height="3503"
       id="image10"
       x="0"
       y="0" />
  </g>
  <g
     inkscape:groupmode="layer"
     id="layer3"
     inkscape:label="speechbubbles">
    <path
       style="fill:#ffffff;fill-rule:evenodd;stroke:none;stroke-width:1.04717791px;stroke-linecap:butt;stroke-linejoin:miter;stroke-opacity:1"
       d="m 156.3554,1287.7319 c 17.07092,-46.6914 46.39152,-62.3332 57.43739,-67.4269 11.04587,-5.0936 76.85535,-14.4318 92.9221,-14.4318 16.06674,0 157.65485,-4.2447 185.77167,1.6979 28.11677,5.9425 80.33368,23.7702 96.4004,48.3891 16.06674,24.6192 36.15018,70.4616 28.1168,99.3253 -8.03337,28.8639 -12.05006,67.9149 -56.23359,92.5339 -44.18351,24.619 -194.8092,31.4106 -234.97604,29.7127 -40.16684,-1.6978 -92.38373,-4.2445 -125.52138,-24.6189 -33.13765,-20.3745 -54.22525,-65.3682 -53.22107,-94.2319 1.00416,-28.8637 9.30372,-70.9494 9.30372,-70.9494 z"
       id="path1079"
       inkscape:connector-curvature="0" />
    <path
       style="fill:#ffffff;fill-rule:evenodd;stroke:none;stroke-width:1px;stroke-linecap:butt;stroke-linejoin:miter;stroke-opacity:1"
       d="m 227.53576,1416.2623 c -20.60902,44.7713 -22.74099,55.4311 -24.1623,72.4869 -1.42132,17.0557 14.92377,43.35 35.5328,50.4565 20.60902,7.1066 33.40083,29.8476 24.1623,45.482 -9.23853,15.6345 -46.19264,77.4615 23.45165,96.6493 -66.80167,-29.1369 -24.16231,-76.7509 -17.05575,-87.4107 7.10656,-10.6599 19.89837,-34.8222 -8.52787,-60.4058 -28.42624,-25.5836 -38.37542,-39.7967 0,-89.5427 38.37542,-49.7459 -33.40083,-27.7155 -33.40083,-27.7155 z"
       id="path1081"
       inkscape:connector-curvature="0"
       sodipodi:nodetypes="ccccccssc" />
    <path
       style="fill:#ffffff;fill-rule:evenodd;stroke:none;stroke-width:0.97945327px;stroke-linecap:butt;stroke-linejoin:miter;stroke-opacity:1"
       d="m 362.46579,2090.3614 c 18.73437,-33.5164 50.28697,-45.5479 79.86755,-44.6885 29.58058,0.8594 99.58794,7.7345 116.35027,7.7345 16.76232,0 91.69978,-4.297 126.21045,-2.5782 34.51067,1.7188 57.1891,13.7503 67.04931,29.2195 9.86019,15.469 16.76232,34.3757 12.81825,59.2981 -3.94409,24.9224 -27.60855,55.8607 -63.10524,63.5951 -35.49667,7.7346 -134.09859,7.7346 -185.37161,8.594 -51.27299,0.8594 -114.37821,-12.0315 -137.05665,-30.0788 -22.67844,-18.0472 -40.42679,-45.5479 -16.76233,-91.0957 z"
       id="path1083"
       inkscape:connector-curvature="0" />
    <path
       style="fill:#ffffff;fill-rule:evenodd;stroke:none;stroke-width:1px;stroke-linecap:butt;stroke-linejoin:miter;stroke-opacity:1"
       d="m 521.52769,2076.2416 c -21.62867,-11.7413 -40.78548,-28.4263 -40.78548,-37.6957 0,-9.2694 14.83108,-37.0777 -11.74127,-37.6957 -26.57236,-0.6179 -37.69567,6.1796 -37.07771,-3.7077 0.61796,-9.8874 8.03351,-25.9544 21.62866,-30.2802 -31.51605,12.3593 -34.60585,34.6059 -27.19031,40.7855 7.41554,6.1796 10.67283,9.5522 36.18391,8.6549 20.28805,2.4824 -29.05118,18.071 7.69137,66.7364 32.13401,21.6287 51.29083,-6.7975 51.29083,-6.7975 z"
       id="path1085"
       inkscape:connector-curvature="0"
       sodipodi:nodetypes="cscscsccc" />
    <path
       style="fill:#ffffff;fill-rule:evenodd;stroke:none;stroke-width:0.99999994px;stroke-linecap:butt;stroke-linejoin:miter;stroke-opacity:1"
       d="m 1196.7567,1374.4067 c -2.0612,-17.5917 -18.7863,-50.2645 -51.4246,-16.1368 13.4861,-40.6864 -2.0483,-45.8436 -20.2475,-47.7381 14.3275,-14.6662 26.8461,-29.914 8.3492,-55.134 24.1301,-8.2443 29.8524,-28.7456 21.6847,-58.496 24.2775,23.2401 46.106,36.0759 52.4648,-16.8093 7.8988,41.4017 36.9104,48.8809 51.4071,4.7067 -2.1364,34.4681 6.0078,43.2805 21.8243,32.946 -9.212,21.6913 -6.6421,38.149 8.3629,49.0828 -25.8737,22.9443 -22.3046,36.8913 4.6106,43.7038 -43.282,5.9825 -37.4678,34.4558 -39.319,55.8065 -20.9277,-33.2159 -62.9528,-0.075 -57.7125,8.0684 z"
       id="path1087"
       inkscape:connector-curvature="0"
       sodipodi:nodetypes="cccccccccccc" />
    <path
       style="fill:#ffffff;fill-rule:evenodd;stroke:none;stroke-width:1px;stroke-linecap:butt;stroke-linejoin:miter;stroke-opacity:1"
       d="m 1191.0392,1352.1713 c -8.4109,39.2505 -9.8127,49.5304 -9.8127,58.8758 0,9.3453 7.2361,5.602 12.611,1.6262 3.5164,-2.5819 16.3596,-20.7842 5.6125,8.1864 -10.7472,28.9706 -24.2979,69.1557 -28.0361,81.7719 10.2799,-22.4289 27.5688,-57.474 32.7088,-68.6884 5.1399,-11.2144 13.3039,-31.7117 15.4198,-37.8487 2.574,-7.4657 2.2967,-14.9288 -5.6521,-13.2604 -12.5951,3.9915 -24.253,31.4839 -4.6278,-16.1775 19.6253,-47.6613 11.2144,-117.2842 11.2144,-117.2842 z"
       id="path1089"
       inkscape:connector-curvature="0"
       sodipodi:nodetypes="csccccscccc" />
    <path
       style="fill:#ffffff;fill-rule:evenodd;stroke:none;stroke-width:0.96909076px;stroke-linecap:butt;stroke-linejoin:miter;stroke-opacity:1"
       d="m 1333.8656,1200.1939 c 1.2616,-32.2368 -10.0929,-33.2137 11.3545,-34.1905 21.4472,-0.9769 249.7988,-0.9769 291.432,-0.9769 41.6332,0 74.4351,18.5606 89.5744,44.9362 15.1394,26.3755 39.8268,77.0157 -10.6377,106.3218 -50.4644,29.3063 -198.7897,16.7643 -255.5622,14.8106 -56.7724,-1.9539 -118.5914,-7.8258 -133.7307,-35.1783 -15.1393,-27.3524 7.5697,-95.7229 7.5697,-95.7229 z"
       id="path1109"
       inkscape:connector-curvature="0"
       sodipodi:nodetypes="ccsccccc" />
    <path
       style="fill:#ffffff;fill-rule:evenodd;stroke:none;stroke-width:1px;stroke-linecap:butt;stroke-linejoin:miter;stroke-opacity:1"
       d="m 1639.998,1307.0864 c 41.353,7.5187 60.1499,15.9773 68.6085,23.4961 8.4586,7.5187 44.1726,33.8343 14.0976,68.6085 46.9921,-37.5937 7.5188,-93.0445 -46.0522,-115.6007 -15.0375,-3.7593 -36.6539,23.4961 -36.6539,23.4961 z"
       id="path1111"
       inkscape:connector-curvature="0"
       sodipodi:nodetypes="ccccc" />
    <path
       style="fill:#ffffff;fill-rule:evenodd;stroke:none;stroke-width:0.9139623px;stroke-linecap:butt;stroke-linejoin:miter;stroke-opacity:1"
       d="m 1996.6592,2065.524 c -4.0866,-16.417 2.2035,-34.698 18.9017,-46.7886 23.3136,-17.1303 57.0834,-23.5272 88.5246,-23.7001 14.9504,-0.094 29.7514,1.7653 43.8643,5.0074 46.8835,5.5408 95.5908,-5.0732 141.9829,3.3587 19.5062,3.6584 38.0598,12.2762 47.8772,25.4509 17.2119,29.5811 16.1508,62.9456 14.3849,94.9215 -0.7778,9.0672 -0.5076,18.1883 -1.7867,27.2201 -4.908,21.9808 -24.8992,41.6109 -51.3605,52.2412 -26.4817,10.96 -57.5198,14.6703 -86.9671,12.2957 -46.5567,2.0232 -94.7106,4.3967 -139.1709,-6.5474 -28.5612,-7.2072 -55.5764,-21.1792 -68.0212,-42.0998 -15.2183,-24.4927 -12.9664,-52.6048 -10.3008,-79.2 0.7431,-7.3849 1.5487,-14.7689 2.0716,-22.1596 z"
       id="path1113"
       inkscape:connector-curvature="0" />
    <path
       style="fill:#ffffff;fill-rule:evenodd;stroke:none;stroke-width:1px;stroke-linecap:butt;stroke-linejoin:miter;stroke-opacity:1"
       d="m 1888.6765,2156.0399 c 42.1519,38.9095 103.7586,57.2834 162.1228,3.2424 58.3643,-54.0409 82.1423,-58.3642 82.1423,-58.3642 0,0 -3.2425,50.7985 -58.3642,83.2231 -55.1218,32.4245 -125.375,41.0711 -185.9009,-28.1013 z"
       id="path1128"
       inkscape:connector-curvature="0" />
  </g>
  <g
     inkscape:groupmode="layer"
     id="layer1"
     inkscape:label="txt">
    <text
       xml:space="preserve"
       style="font-style:normal;font-variant:normal;font-weight:normal;font-stretch:normal;line-height:0%;font-family:Lavi;-inkscape-font-specification:Lavi;text-align:center;letter-spacing:0px;word-spacing:0px;text-anchor:middle;fill:#000000;fill-opacity:1;stroke:none"
       x="380.51514"
       y="1276.4037"
       id="text4246"><tspan
         sodipodi:role="line"
         style="font-size:45px;line-height:1.2"
         x="380.51514"
         y="1276.4037"
         id="tspan827">Übrigens Pepper,</tspan><tspan
         sodipodi:role="line"
         style="font-size:45px;line-height:1.2"
         x="380.51514"
         y="1330.4037"
         id="tspan62">ich habe endlich</tspan><tspan
         sodipodi:role="line"
         style="font-size:45px;line-height:1.2"
         x="380.51514"
         y="1384.4037"
         id="tspan64">deine Patentanten</tspan><tspan
         sodipodi:role="line"
         style="font-size:45px;line-height:1.2"
         x="380.51514"
         y="1438.4037"
         id="tspan53">kennengelernt.</tspan></text>
    <text
       xml:space="preserve"
       style="font-style:normal;font-variant:normal;font-weight:normal;font-stretch:normal;line-height:0%;font-family:Lavi;-inkscape-font-specification:Lavi;text-align:center;letter-spacing:0px;word-spacing:0px;text-anchor:middle;fill:#000000;fill-opacity:1;stroke:none"
       x="559.51831"
       y="2111.2344"
       id="text4246-3"><tspan
         sodipodi:role="line"
         style="font-size:45px;line-height:1.2"
         x="559.51831"
         y="2111.2344"
         id="tspan872">Sie sind wirklich</tspan><tspan
         sodipodi:role="line"
         style="font-size:45px;line-height:1.2"
         x="559.51831"
         y="2165.2344"
         id="tspan68">außergewöhnlich.</tspan></text>
    <text
       xml:space="preserve"
       style="font-style:normal;font-variant:normal;font-weight:normal;font-stretch:normal;font-size:24.343px;line-height:0%;font-family:Lavi;-inkscape-font-specification:Lavi;text-align:center;letter-spacing:0px;word-spacing:0px;text-anchor:middle;fill:#000000;fill-opacity:1;stroke:none;stroke-width:1"
       x="1522.0032"
       y="1199.5613"
       id="text4246-3-5"
       transform="matrix(0.91106211,0,-0.15422983,1.09762,0,0)"><tspan
         sodipodi:role="line"
         style="font-size:91.2863px;line-height:1.2;stroke-width:1"
         x="1522.0032"
         y="1199.5613"
         id="tspan872-2">!!!</tspan></text>
    <text
       xml:space="preserve"
       style="font-style:normal;font-variant:normal;font-weight:normal;font-stretch:normal;line-height:0%;font-family:Lavi;-inkscape-font-specification:Lavi;text-align:center;letter-spacing:0px;word-spacing:0px;text-anchor:middle;fill:#000000;fill-opacity:1;stroke:none"
       x="1538.0366"
       y="1231.6084"
       id="text4246-3-9"><tspan
         sodipodi:role="line"
         style="font-size:45px;line-height:1.2"
         x="1538.0366"
         y="1231.6084"
         id="tspan72">Ich meine, du</tspan><tspan
         sodipodi:role="line"
         style="font-size:45px;line-height:1.2"
         x="1538.0366"
         y="1285.6084"
         id="tspan76">hast solches Glück!</tspan></text>
    <text
       xml:space="preserve"
       style="font-style:normal;font-variant:normal;font-weight:normal;font-stretch:normal;line-height:0%;font-family:Lavi;-inkscape-font-specification:Lavi;text-align:center;letter-spacing:0px;word-spacing:0px;text-anchor:middle;fill:#000000;fill-opacity:1;stroke:none"
       x="2173.0884"
       y="2064.3828"
       id="text4246-3-9-0"><tspan
         sodipodi:role="line"
         style="font-size:45px;line-height:1.2"
         x="2173.0884"
         y="2064.3828"
         id="tspan89">Sie lassen dich</tspan><tspan
         sodipodi:role="line"
         style="font-size:45px;line-height:1.2"
         x="2173.0884"
         y="2118.3828"
         id="tspan95">sicher machen,</tspan><tspan
         sodipodi:role="line"
         style="font-size:45px;line-height:1.2"
         x="2173.0884"
         y="2172.3828"
         id="tspan97">was du willst.</tspan></text>
    <text
       xml:space="preserve"
       style="font-style:normal;font-variant:normal;font-weight:normal;font-stretch:normal;line-height:0%;font-family:Lavi;-inkscape-font-specification:Lavi;text-align:center;letter-spacing:0px;word-spacing:0px;text-anchor:middle;fill:#000000;fill-opacity:1;stroke:none"
       x="607.23407"
       y="2372.322"
       id="text4246-3-9-0-6"><tspan
         sodipodi:role="line"
         style="font-size:45px;line-height:1.2"
         x="607.23407"
         y="2372.322"
         id="tspan139">Zum Beispiel,</tspan><tspan
         sodipodi:role="line"
         style="font-size:45px;line-height:1.2"
         x="607.23407"
         y="2426.322"
         id="tspan74">ganz un-</tspan><tspan
         sodipodi:role="line"
         style="font-size:45px;line-height:1.2"
         x="607.23407"
         y="2480.322"
         id="tspan77">diplomatisch</tspan><tspan
         sodipodi:role="line"
         style="font-size:45px;line-height:1.2"
         x="607.23407"
         y="2534.322"
         id="tspan79">auf langweilige</tspan><tspan
         sodipodi:role="line"
         style="font-size:45px;line-height:1.2"
         x="607.23407"
         y="2588.322"
         id="tspan81">Diskussionen</tspan><tspan
         sodipodi:role="line"
         style="font-size:45px;line-height:1.2"
         x="607.23407"
         y="2642.322"
         id="tspan83">zu verzichten.</tspan></text>
    <text
       xml:space="preserve"
       style="font-style:normal;font-variant:normal;font-weight:normal;font-stretch:normal;line-height:0%;font-family:Lavi;-inkscape-font-specification:Lavi;text-align:center;letter-spacing:0px;word-spacing:0px;text-anchor:middle;fill:#000000;fill-opacity:1;stroke:none"
       x="1375.7036"
       y="2360.7512"
       id="text4246-3-9-0-6-1"><tspan
         sodipodi:role="line"
         style="font-size:45px;line-height:1.2"
         x="1375.7036"
         y="2360.7512"
         id="tspan869">Oder Tanzen und</tspan><tspan
         sodipodi:role="line"
         style="font-size:45px;line-height:1.2"
         x="1375.7036"
         y="2414.7512"
         id="tspan161">Spaß zu haben, ohne</tspan><tspan
         sodipodi:role="line"
         style="font-size:45px;line-height:1.2"
         x="1375.7036"
         y="2468.7512"
         id="tspan163">sich darum zu kümmern,</tspan><tspan
         sodipodi:role="line"
         style="font-size:45px;line-height:1.2"
         x="1375.7036"
         y="2522.7512"
         id="tspan165">was andere denken.</tspan></text>
    <text
       xml:space="preserve"
       style="font-style:normal;font-variant:normal;font-weight:normal;font-stretch:normal;line-height:0%;font-family:Lavi;-inkscape-font-specification:Lavi;text-align:center;letter-spacing:0px;word-spacing:0px;text-anchor:middle;fill:#000000;fill-opacity:1;stroke:none"
       x="1879.3203"
       y="2360.502"
       id="text4246-3-9-0-6-1-0"><tspan
         sodipodi:role="line"
         style="font-size:45px;line-height:1.2"
         x="1879.3203"
         y="2360.502"
         id="tspan881">Oder das leckere</tspan><tspan
         sodipodi:role="line"
         style="font-size:45px;line-height:1.2"
         x="1879.3203"
         y="2414.502"
         id="tspan181">Essen am Buffet zu</tspan><tspan
         sodipodi:role="line"
         style="font-size:45px;line-height:1.2"
         x="1879.3203"
         y="2468.502"
         id="tspan183">kosten, ohne Angst,</tspan><tspan
         sodipodi:role="line"
         style="font-size:45px;line-height:1.2"
         x="1879.3203"
         y="2522.502"
         id="tspan185">gesehen zu werden.</tspan></text>
  </g>
</svg>
