{
   "id": 3,
   "original-language": "en",
   "supporters": 93,
   "published": "2014-10-03",
   "pluxmlID": 241,
   "background-color": "#FFFFFF",
   "public": 1,
   "related-urls": [
        "https://www.davidrevoy.com/article258/making-of-episode-3",
        "https://peertube.touhoppai.moe/w/6gFJDjiBhA3s3VGDKffd7U"
   ],
   "credits": {
      "art":[
         "David Revoy <https://framagit.org/Deevad>"
      ],
      "scenario":[
         "David Revoy <https://framagit.org/Deevad>"
      ]
   },
   "software":[
      {
         "name": "Krita",
         "version": "2.8.6"
      },
      {
         "name": "Inkscape",
         "version": "0.91"
      },
      {
         "name": "G'MIC",
         "version": "1.6.1"
      },
      {
         "name": "Xubuntu",
         "version": "14.04 LTS"
      }
   ]
}
