<?xml version="1.0" encoding="UTF-8" standalone="no"?>
<svg
   xmlns:dc="http://purl.org/dc/elements/1.1/"
   xmlns:cc="http://creativecommons.org/ns#"
   xmlns:rdf="http://www.w3.org/1999/02/22-rdf-syntax-ns#"
   xmlns:svg="http://www.w3.org/2000/svg"
   xmlns="http://www.w3.org/2000/svg"
   xmlns:xlink="http://www.w3.org/1999/xlink"
   xmlns:sodipodi="http://sodipodi.sourceforge.net/DTD/sodipodi-0.dtd"
   xmlns:inkscape="http://www.inkscape.org/namespaces/inkscape"
   id="svg2"
   version="1.1"
   inkscape:version="1.0.2-2 (e86c870879, 2021-01-15)"
   width="2481"
   height="3503"
   sodipodi:docname="E34P04.svg">
  <metadata
     id="metadata8">
    <rdf:RDF>
      <cc:Work
         rdf:about="">
        <dc:format>image/svg+xml</dc:format>
        <dc:type
           rdf:resource="http://purl.org/dc/dcmitype/StillImage" />
        <dc:title />
      </cc:Work>
    </rdf:RDF>
  </metadata>
  <defs
     id="defs6">
    <filter
       style="color-interpolation-filters:sRGB"
       id="filter4375-4-1-1-1-9-5-8-8-5-5-3-8"
       inkscape:label="soundFX1">
      <feFlood
         id="feFlood4377-7-9-0-8-1-7-3-1-2-7-6-7"
         flood-opacity="1"
         flood-color="rgb(255,255,255)"
         result="flood" />
      <feComposite
         id="feComposite4379-3-8-8-2-77-4-1-0-6-4-7-9"
         in2="SourceGraphic"
         in="flood"
         operator="in"
         result="composite1"
         baseFrequency="0.053999999999999999 0.053999999999999999" />
      <feMorphology
         id="feMorphology4393-1-0-49-8-9-3-0-1-9-9-5-2"
         operator="dilate"
         radius="2.9756367599225957"
         result="result3" />
      <feComposite
         id="feComposite4385-9-5-7-0-8-8-7-5-4-9-3-0"
         in2="result3"
         in="SourceGraphic"
         operator="over"
         result="fbSourceGraphic" />
      <feColorMatrix
         result="fbSourceGraphicAlpha"
         in="fbSourceGraphic"
         values="0 0 0 -1 0 0 0 0 -1 0 0 0 0 -1 0 0 0 0 1 0"
         id="feColorMatrix4544-9-4-4-5-2" />
      <feTurbulence
         id="feTurbulence4546-3-6-5-6-3"
         type="fractalNoise"
         numOctaves="5"
         seed="174"
         baseFrequency="0.053999999999999999 0.054054054054054057"
         result="turbulence" />
      <feDisplacementMap
         id="feDisplacementMap4548-8-0-9-2-7"
         in2="turbulence"
         in="fbSourceGraphic"
         scale="6.6"
         yChannelSelector="G"
         xChannelSelector="R"
         result="fbSourceGraphic" />
      <feColorMatrix
         result="fbSourceGraphicAlpha"
         in="fbSourceGraphic"
         values="0 0 0 -1 0 0 0 0 -1 0 0 0 0 -1 0 0 0 0 1 0"
         id="feColorMatrix4670-7-7-3-9-5" />
      <feFlood
         id="feFlood4672-4-4-5-1-9"
         flood-opacity="1"
         flood-color="rgb(255,255,255)"
         result="flood"
         in="fbSourceGraphic" />
      <feComposite
         id="feComposite4674-8-3-7-2-22"
         in2="fbSourceGraphic"
         in="flood"
         operator="in"
         result="composite1" />
      <feGaussianBlur
         id="feGaussianBlur4676-3-7-08-7-8"
         in="composite1"
         stdDeviation="0"
         result="blur" />
      <feOffset
         id="feOffset4678-6-9-1-0-9"
         dx="-6.3258232761971414"
         dy="6"
         result="offset" />
      <feComposite
         id="feComposite4680-4-0-9-9-7"
         in2="offset"
         in="fbSourceGraphic"
         operator="over"
         result="composite2" />
    </filter>
  </defs>
  <sodipodi:namedview
     pagecolor="#ffffff"
     bordercolor="#666666"
     borderopacity="1"
     objecttolerance="10"
     gridtolerance="10"
     guidetolerance="10"
     inkscape:pageopacity="0"
     inkscape:pageshadow="2"
     inkscape:window-width="1366"
     inkscape:window-height="745"
     id="namedview4"
     showgrid="false"
     inkscape:zoom="0.37405949"
     inkscape:cx="1303.5999"
     inkscape:cy="2842.1667"
     inkscape:window-x="-8"
     inkscape:window-y="-8"
     inkscape:window-maximized="1"
     inkscape:current-layer="layer1"
     inkscape:document-rotation="0"
     borderlayer="true"
     inkscape:snap-global="false" />
  <g
     inkscape:groupmode="layer"
     id="layer2"
     inkscape:label="artwork"
     sodipodi:insensitive="true">
    <image
       sodipodi:absref="C:\Users\quentinlipeck\Downloads\webcomics-master-ec7d62e6553c2c63bb1cf2e799ee31f9cb9ce5e2\webcomics-master-ec7d62e6553c2c63bb1cf2e799ee31f9cb9ce5e2\ep34_The-Knighting-of-Shichimi\lang\gfx_Pepper-and-Carrot_by-David-Revoy_E34P04.png"
       xlink:href="../gfx_Pepper-and-Carrot_by-David-Revoy_E34P04.png"
       width="2481"
       height="3503"
       id="image10"
       x="0"
       y="0" />
  </g>
  <g
     inkscape:groupmode="layer"
     id="layer3"
     inkscape:label="speechbubbles"
     style="display:inline">
    <path
       style="color:#000000;display:inline;overflow:visible;visibility:visible;fill:#ffffff;fill-opacity:1;fill-rule:nonzero;stroke:none;stroke-width:0.865993px;marker:none;enable-background:accumulate"
       d="m 942.60024,140.18951 c -31.91919,0.211 -64.48071,4.95609 -93.3829,19.12925 -21.5604,10.86216 -37.65135,31.38351 -44.08438,54.55007 -6.35327,20.15773 -6.97011,42.87106 1.87995,62.39202 9.00782,18.72527 27.00418,31.94083 46.55449,38.04613 40.78419,14.89576 84.4479,20.28572 127.68419,20.64969 34.39011,-0.54015 69.30881,-9.23071 98.03251,-28.62612 14.0693,-9.8231 25.0342,-24.39462 29.279,-41.1365 7.5949,-26.96895 1.7202,-57.18896 -14.7554,-79.74789 -10.7189,-14.33495 -26.2154,-24.94169 -43.4158,-29.86718 -18.618,-6.06677 -38.0268,-9.15884 -57.32486,-12.16095 -16.72361,-2.21837 -33.59579,-3.32292 -50.4668,-3.22852 z"
       id="path4040-4-5-3-5"
       inkscape:connector-curvature="0"
       sodipodi:nodetypes="zssssz" />
    <path
       style="color:#000000;display:inline;overflow:visible;visibility:visible;fill:#ffffff;fill-opacity:1;fill-rule:nonzero;stroke:none;stroke-width:1.08552px;marker:none;enable-background:accumulate"
       d="m 989.56642,313.60938 c -35.20532,1.49582 -69.89834,9.69036 -104.03863,19.37631 -19.57741,6.53437 -37.68987,18.99028 -51.93106,36.01585 -16.57709,18.86752 -29.44792,43.31635 -32.61165,70.44224 -3.64898,30.65466 5.05253,63.6221 24.60031,84.92666 16.39434,18.19081 38.73521,27.85687 61.09009,29.62775 42.92332,5.02557 86.00796,8.47176 129.15612,8.94174 25.7189,0.29244 51.4695,-0.10575 77.1306,-2.24208 23.5472,-2.98331 47.0138,-9.93626 67.9569,-23.11393 17.511,-12.67723 28.0155,-36.58676 28.011,-60.46983 0.5102,-27.44001 -5.6295,-55.15096 -18.3104,-78.34135 -10.4515,-19.20758 -23.1603,-37.30672 -39.5844,-49.90024 -13.5345,-10.50906 -29.3734,-15.85617 -45.0107,-20.29146 -16.7002,-4.45675 -33.4514,-8.79948 -50.454,-11.37926 -15.2413,-2.41024 -30.6199,-3.72547 -46.00418,-3.5924 z"
       id="path4040-4-5-3"
       inkscape:connector-curvature="0"
       sodipodi:nodetypes="zssssz" />
    <path
       style="color:#000000;display:inline;overflow:visible;visibility:visible;fill:#ffffff;fill-opacity:1;fill-rule:nonzero;stroke:none;stroke-width:1px;marker:none;enable-background:accumulate"
       d="m 907.21667,619.60054 c 72.99905,-2.53565 65.7638,-63.19299 71.48587,-78.47444 l 37.78086,7.15422 c 0,0 -26.16471,95.6219 -109.26673,71.32022 z"
       id="path3072-5-5"
       inkscape:connector-curvature="0"
       sodipodi:nodetypes="cccc" />
    <path
       style="display:inline;fill:#ffffff;fill-rule:evenodd;stroke:none;stroke-width:1.408px;stroke-linecap:butt;stroke-linejoin:miter;stroke-opacity:1"
       d="m 1729.4941,1533.8343 c -263.4619,-188.6648 -719.6026,-198.4778 -988.12534,-169.638 l -8.73311,23.8296 c 289.95695,-44.5653 772.14605,6.8513 996.85845,145.8084 z"
       id="path1094"
       inkscape:connector-curvature="0"
       sodipodi:nodetypes="cccc" />
    <path
       style="color:#000000;display:inline;overflow:visible;visibility:visible;fill:#ffffff;fill-opacity:1;fill-rule:nonzero;stroke:none;stroke-width:1.42851px;marker:none;enable-background:accumulate"
       d="m 1197.4342,1266.2938 c -38.3326,-0.413 -77.1278,5.2155 -112.4912,21.147 -22.4551,10.1932 -43.0549,26.1924 -56.9983,47.9041 -16.6028,25.6578 -21.1714,60.5634 -10.1087,90.1247 10.8055,28.8684 31.9223,52.5226 56.7967,67.9418 20.6814,12.594 44.3275,17.9267 67.6741,19.9819 30.6055,2.9905 61.3767,2.1231 91.8712,-0.8479 16.0477,-1.5675 32.0783,-3.4286 48.0047,-5.9783 24.63,-4.6104 48.7487,-15.1117 67.3282,-33.2953 17.2796,-16.4958 31.3499,-37.7197 37.2508,-62.0981 4.9828,-22.1678 -0.4236,-46.8517 -14.1669,-64.5203 -21.1513,-30.2111 -51.0995,-52.9811 -84.1906,-65.1389 -29.2455,-10.91 -60.2769,-14.9138 -90.97,-15.2207 z"
       id="path3365-3"
       inkscape:connector-curvature="0"
       sodipodi:nodetypes="cssccc" />
    <path
       style="fill:#ffffff;fill-rule:evenodd;stroke:none;stroke-width:1.04747px;stroke-linecap:butt;stroke-linejoin:miter;stroke-opacity:1"
       d="m 527.02346,1252.2614 c -44.38405,0.5879 -88.83177,-0.1725 -133.14345,2.9118 -24.6149,2.5986 -49.43691,5.241 -73.22984,12.4482 -24.48816,9.2683 -48.07841,22.5702 -65.97045,42.1622 -14.24808,16.3654 -24.34034,36.9928 -26.2033,58.8871 -0.75111,15.8656 5.03638,31.1506 12.27689,44.9403 10.90684,21.1267 27.26546,39.8236 48.19821,51.1417 18.0088,9.8984 38.34245,14.1975 58.4054,17.417 23.17564,3.516 46.60903,4.7715 69.99125,5.9616 69.39996,2.7583 138.87175,-1.5191 207.93289,-8.3305 27.37572,-3.1038 54.90749,-6.8391 81.20634,-15.4375 19.71137,-7.2421 38.151,-19.7156 49.80742,-37.6377 9.4956,-14.9974 14.74086,-32.2012 19.49999,-49.2021 2.49314,-13.0313 -1.59735,-26.2074 -6.80025,-38.0259 -6.74887,-15.4504 -15.82317,-29.9264 -27.10266,-42.3989 -7.85571,-8.2659 -17.67224,-14.3985 -28.14167,-18.6765 -15.89518,-6.9679 -32.55082,-11.9598 -49.2388,-16.5611 -25.71255,-6.6142 -52.28903,-9.5885 -78.80473,-9.2947 -19.55873,-0.3744 -39.12203,-0.3038 -58.68324,-0.305 z"
       id="path1079"
       inkscape:connector-curvature="0" />
    <path
       id="path5050-5"
       style="color:#000000;display:inline;overflow:visible;visibility:visible;fill:#ffffff;fill-opacity:1;fill-rule:nonzero;stroke:none;stroke-width:1.10542px;marker:none;enable-background:accumulate"
       d="m 1055.3066,2327.9473 c -6.7695,3.1849 -13.5391,6.3698 -20.3086,9.5547 -5.4515,8.7234 -8.4665,18.631 -12.08,28.1855 0.2877,8.9888 4.778,17.1081 7.4112,25.5492 4.8043,13.3509 10.142,27.6669 6.8338,42.0256 -3.4158,16.5674 -11.898,31.5008 -16.4345,47.7397 -0.956,12.8214 5.6959,25.4955 16.2957,32.604 7.6345,5.5383 17.8577,10.6572 22.2668,17.4448 4.4091,6.7876 3.9198,12.9565 3.0275,20.0069 -0.8923,7.0504 -6.8233,13.4216 -10.106,20.1773 -2.5543,5.2297 -6.5724,10.2065 -4.8898,16.3644 0.5485,8.6419 3.5528,16.9498 8.2569,24.18 1.9155,5.167 7.5375,11.5732 1.5157,15.9953 -3.2977,3.3341 -6.6403,6.6236 -10.0035,9.8933 6.6199,-4.2691 13.2848,-8.7213 18.4668,-14.7364 2.2175,-7.1316 -0.2102,-14.5787 -3.3587,-21.0008 -3.3881,-9.4513 -0.8017,-19.8562 4.2602,-28.1901 5.6073,-9.9289 13.8919,-19.3951 13.8982,-31.4245 0.5595,-12.2965 -5.2038,-24.6049 -15.0512,-32.0084 -6.3523,-5.6552 -13.9693,-10.3956 -18.4457,-17.7889 -5.2096,-11.3685 -1.3783,-24.1347 3.0069,-35.0894 5.3982,-14.2627 13.5704,-28.4586 12.1858,-44.2358 -1.3898,-17.7099 -13.4465,-33.5966 -10.8255,-51.7808 1.5634,-10.2967 5.5548,-20.0386 7.2382,-30.3113 -0.044,-1.6098 -1.4268,-3.3809 -3.1602,-3.1543 z"
       sodipodi:nodetypes="ccccccczzcccccccccccccccc" />
    <path
       id="path1086-2"
       style="display:inline;fill:#ffffff;fill-rule:evenodd;stroke:none;stroke-width:1.78741px;stroke-linecap:butt;stroke-linejoin:miter;stroke-opacity:1"
       d="m 967.88043,2362.244 c -23.76889,2.072 -46.45087,11.2864 -70.61643,10.1905 -17.44181,-0.046 -35.96152,-3.2616 -52.2892,4.1788 -12.69822,5.7666 -26.05225,12.7516 -33.31205,24.4734 -7.968,14.5227 -10.69123,33.1117 -0.8244,47.4824 13.37147,19.6335 37.8457,32.5447 62.98146,32.4581 21.33531,0.1222 42.68899,2.0994 63.37577,7.0853 16.50118,3.5903 33.88465,5.4007 50.46969,1.128 16.07933,-3.5641 32.64923,-7.7909 49.27293,-4.9333 20.9477,2.8709 41.8706,8.7921 63.2485,5.9357 26.3395,-2.8639 52.048,-12.2598 78.9127,-9.4962 15.8525,1.1364 33.2976,2.2363 46.954,-6.8501 22.3598,-13.656 31.0153,-43.783 18.7906,-65.8698 -9.3828,-13.4201 -26.3834,-19.8261 -42.1336,-24.6114 -23.8471,-6.8718 -49.5988,-1.9296 -73.3463,-9.3646 -14.7659,-4.261 -30.0092,-8.1533 -45.6372,-6.9259 -27.8892,1.1429 -56.2534,6.2281 -83.81633,-0.3296 -10.55729,-2.1008 -21.16843,-4.5119 -32.03016,-4.5513 z" />
    <path
       id="path1086"
       style="display:inline;fill:#ffffff;fill-rule:evenodd;stroke:none;stroke-width:1.00719px;stroke-linecap:butt;stroke-linejoin:miter;stroke-opacity:1"
       d="m 947.43359,2287.7817 c 8.82004,-13.0131 23.57274,-20.4085 38.14551,-25.1206 15.0538,-4.8304 30.8852,-6.7484 46.6522,-6.9132 14.578,-0.3452 29.6546,-1.505 43.7023,3.2629 6.7924,2.5751 13.0533,6.3476 19.4048,9.8373 8.4831,5.0191 17.3386,11.2049 20.7323,20.9226 2.2132,6.2472 0.5455,12.8861 0.5676,19.3176 -0.4021,9.8612 -0.9237,20.7155 -7.6676,28.5913 -6.5316,8.1476 -16.9354,11.2975 -26.5148,14.2544 -15.8254,4.4306 -32.0655,7.4298 -48.4168,9.0531 -10.5283,1.0974 -21.2935,2.1776 -31.7308,-0.2271 -12.51679,-2.6873 -23.76377,-9.3127 -34.18732,-16.513 -8.39648,-6.1764 -16.72503,-13.394 -20.85941,-23.2141 -2.47795,-7.1043 -1.99245,-14.833 -1.463,-22.2214 0.3553,-3.7008 0.87341,-7.3899 1.63502,-11.0298 z" />
    <path
       style="color:#000000;display:inline;overflow:visible;visibility:visible;fill:#ffffff;fill-opacity:1;fill-rule:nonzero;stroke:none;stroke-width:1.00142px;marker:none;enable-background:accumulate"
       d="m 1551.4802,2844.6354 c -29.2718,23.6335 -49.9774,61.4772 -38.0228,102.9845 11.9549,41.5072 -6.8025,41.4052 -6.8025,41.4052 l -37.425,-15.5296 c 0,0 -6.4717,-90.5725 82.2503,-128.8601 z"
       id="path3072-6"
       inkscape:connector-curvature="0"
       sodipodi:nodetypes="csccc" />
    <path
       style="display:inline;fill:#ffffff;stroke:none;stroke-width:0.761618"
       d="m 1476.1015,3073.9932 c -42.8544,0.8465 -86.0116,10.7042 -122.3704,31.2547 -28.5388,16.7488 -50.306,43.2844 -56.9892,73.3156 -3.9631,19.6687 0.1787,39.6523 4.6976,58.9434 5.8664,24.5628 21.2003,47.3104 43.1979,63.1191 15.0654,10.8716 32.743,18.6069 51.0454,24.143 23.0562,6.8736 47.4219,9.5931 71.6602,10.0138 40.0231,1.4504 80.0955,0.6618 120.1182,-0.3562 34.094,-1.4397 68.6545,-5.3895 100.3447,-17.2386 32.8096,-12.4491 61.2873,-35.0047 76.5369,-63.9052 13.9878,-26.6043 16.1582,-58.417 3.734,-85.8203 -10.9189,-22.9661 -31.7174,-41.1685 -55.0719,-54.4182 -22.7143,-12.8756 -48.6761,-20.5678 -75.0428,-24.9178 -29.0934,-5.1345 -58.593,-8.1093 -88.025,-11.2172 -24.5267,-2.178 -49.1885,-3.1422 -73.8356,-2.9161 z"
       id="path3280-5"
       inkscape:connector-curvature="0"
       sodipodi:nodetypes="csssc" />
    <path
       style="fill:#ffffff;stroke:none;stroke-width:0.474903"
       d="m 1461.4846,2953.7552 c -25.9687,0.633 -52.3735,3.7032 -76.7027,13.9642 -13.6803,5.798 -27.1481,13.0877 -37.815,23.9528 -6.6476,6.773 -11.6982,15.2426 -14.2784,24.549 -3.6597,12.6449 -3.8962,26.2476 -1.277,39.0708 2.1286,9.4931 7.3905,18.4033 15.3984,23.6259 10.7389,7.6321 23.364,11.6508 35.8122,15.1757 25.1016,6.2355 51.1315,5.9742 76.8211,6.4885 29.4733,0.4309 59.0293,0.7796 88.4281,-2.3138 17.0422,-1.8784 34.4614,-3.6385 50.4618,-10.6108 10.0949,-4.4913 19.1189,-12.0982 24.4397,-22.2255 10.1028,-18.5058 9.09,-43.3427 -3.7441,-59.9401 -10.4112,-13.69 -25.4102,-22.4891 -40.6278,-29.2278 -27.1512,-12.2593 -56.3454,-19.5362 -85.9231,-21.7936 -10.3051,-0.8261 -20.6537,-0.9812 -30.9932,-0.7153 z"
       id="path3280-8-0"
       inkscape:connector-curvature="0"
       sodipodi:nodetypes="csssc" />
  </g>
  <g
     inkscape:groupmode="layer"
     id="layer1"
     inkscape:label="txt">
    <text
       xml:space="preserve"
       style="font-style:normal;font-variant:normal;font-weight:normal;font-stretch:normal;font-size:45px;line-height:1.25;font-family:Lavi;-inkscape-font-specification:Lavi;text-align:center;letter-spacing:0px;word-spacing:0px;text-anchor:middle;fill:#000000;fill-opacity:1;stroke:none"
       x="961.93353"
       y="214.39328"
       id="text4246-3-2-2-6-3-7-9-3"><tspan
         style="font-size:45px"
         sodipodi:role="line"
         x="961.93353"
         y="214.39328"
         id="tspan850">sona, </tspan><tspan
         style="font-size:45px"
         sodipodi:role="line"
         x="961.93353"
         y="270.64328"
         id="tspan94">jan sewi o.</tspan></text>
    <text
       xml:space="preserve"
       style="font-style:normal;font-variant:normal;font-weight:normal;font-stretch:normal;font-size:45px;line-height:1.25;font-family:Lavi;-inkscape-font-specification:Lavi;text-align:center;letter-spacing:0px;word-spacing:0px;text-anchor:middle;fill:#000000;fill-opacity:1;stroke:none"
       x="1003.352"
       y="412.5528"
       id="text4246-3-2-2-6-3-7-9-3-3"><tspan
         style="font-size:45px"
         sodipodi:role="line"
         x="1003.352"
         y="412.5528"
         id="tspan896">ona li jan Pepa, </tspan><tspan
         style="font-size:45px"
         sodipodi:role="line"
         x="1003.352"
         y="468.8028"
         id="tspan101">li tan kulupu </tspan><tspan
         style="font-size:45px"
         sodipodi:role="line"
         x="1003.352"
         y="525.0528"
         id="tspan103">Pakalaa.</tspan></text>
    <text
       xml:space="preserve"
       style="font-style:normal;font-variant:normal;font-weight:normal;font-stretch:normal;font-size:45px;line-height:1.25;font-family:Lavi;-inkscape-font-specification:Lavi;text-align:center;letter-spacing:0px;word-spacing:0px;text-anchor:middle;fill:#000000;fill-opacity:1;stroke:none"
       x="509.4118"
       y="1326.5137"
       id="text4246-3-2-2-6-3-7-9-3-3-3"><tspan
         style="font-size:45px"
         sodipodi:role="line"
         x="509.4118"
         y="1326.5137"
         id="tspan909">ona li lon ni la, ona li </tspan><tspan
         style="font-size:45px"
         sodipodi:role="line"
         x="509.4118"
         y="1382.7637"
         id="tspan75">jaki e kon sewi pi </tspan><tspan
         style="font-size:45px"
         sodipodi:role="line"
         x="509.4118"
         y="1439.0137"
         id="tspan77">kulupu nasin mi.</tspan></text>
    <text
       xml:space="preserve"
       style="font-style:normal;font-variant:normal;font-weight:normal;font-stretch:normal;font-size:45px;line-height:1.25;font-family:Lavi;-inkscape-font-specification:Lavi;text-align:center;letter-spacing:0px;word-spacing:0px;text-anchor:middle;fill:#000000;fill-opacity:1;stroke:none"
       x="1195.9652"
       y="1348.095"
       id="text4246-3-2-2-6-3-7-9-3-3-3-9"><tspan
         style="font-size:45px"
         sodipodi:role="line"
         x="1195.9652"
         y="1348.095"
         id="tspan916">o weka e ona </tspan><tspan
         style="font-size:45px"
         sodipodi:role="line"
         x="1195.9652"
         y="1404.345"
         id="tspan68">tan lukin mi,</tspan><tspan
         style="font-size:45px"
         sodipodi:role="line"
         x="1195.9652"
         y="1460.595"
         id="tspan918">lon tenpo ni.</tspan></text>
    <text
       xml:space="preserve"
       style="font-style:normal;font-variant:normal;font-weight:normal;font-stretch:normal;font-size:45px;line-height:1.25;font-family:Lavi;-inkscape-font-specification:Lavi;text-align:center;letter-spacing:0px;word-spacing:0px;text-anchor:middle;fill:#000000;fill-opacity:1;stroke:none"
       x="1041.905"
       y="2320.762"
       id="text4246-3-2-2-6-3-7-9-3-3-3-9-0-0"><tspan
         style="font-size:45px"
         sodipodi:role="line"
         x="1041.905"
         y="2320.762"
         id="tspan1031-6-6">taso...</tspan></text>
    <text
       xml:space="preserve"
       style="font-style:normal;font-variant:normal;font-weight:normal;font-stretch:normal;font-size:45px;line-height:1.25;font-family:Lavi;-inkscape-font-specification:Lavi;text-align:center;letter-spacing:0px;word-spacing:0px;text-anchor:middle;fill:#000000;fill-opacity:1;stroke:none"
       x="1028.5508"
       y="2444.2068"
       id="text4246-3-2-2-6-3-7-9-3-3-3-9-0"><tspan
         style="font-size:45px"
         sodipodi:role="line"
         x="1028.5508"
         y="2444.2068"
         id="tspan1031-6">jan sewi Wasapi o...</tspan></text>
    <text
       xml:space="preserve"
       style="font-style:normal;font-variant:normal;font-weight:normal;font-stretch:normal;font-size:45px;line-height:1.25;font-family:Lavi;-inkscape-font-specification:Lavi;text-align:center;letter-spacing:0px;word-spacing:0px;text-anchor:middle;fill:#000000;fill-opacity:1;stroke:none"
       x="1478.4738"
       y="3045.5544"
       id="text4246-3-2-2-6-3-7-9-3-3-3-9-0-6"><tspan
         style="font-size:45px"
         sodipodi:role="line"
         x="1478.4738"
         y="3045.5544"
         id="tspan1199">taso <tspan
   style="font-style:italic;font-variant:normal;font-weight:normal;font-stretch:normal;font-family:Lavi;-inkscape-font-specification:'Lavi Italic'"
   id="tspan922">seme</tspan>?</tspan></text>
    <text
       xml:space="preserve"
       style="font-style:normal;font-variant:normal;font-weight:normal;font-stretch:normal;font-size:45px;line-height:1.25;font-family:Lavi;-inkscape-font-specification:Lavi;text-align:center;letter-spacing:0px;word-spacing:0px;text-anchor:middle;fill:#000000;fill-opacity:1;stroke:none"
       x="1527.076"
       y="3155.2551"
       id="text4246-3-2-2-6-3-7-9-3-3-3-9-0-6-8"><tspan
         style="font-size:45px"
         sodipodi:role="line"
         x="1527.076"
         y="3155.2551"
         id="tspan84">ante la, sina </tspan><tspan
         style="font-size:45px"
         sodipodi:role="line"
         x="1527.076"
         y="3211.5051"
         id="tspan88">wile ala wile kama </tspan><tspan
         style="font-size:45px"
         sodipodi:role="line"
         x="1527.076"
         y="3267.7551"
         id="tspan90">weka tan kulupu mi?</tspan></text>
    <text
       xml:space="preserve"
       style="font-style:normal;font-variant:normal;font-weight:normal;font-stretch:normal;font-size:105.817px;line-height:1.25;font-family:Lavi;-inkscape-font-specification:Lavi;letter-spacing:0px;word-spacing:0px;fill:#000000;fill-opacity:1;stroke:#030303;stroke-width:0.716208;stroke-miterlimit:4;stroke-dasharray:none;stroke-opacity:1;filter:url(#filter4375-4-1-1-1-9-5-8-8-5-5-3-8)"
       x="787.65729"
       y="1584.5073"
       id="text4580-6-0-0-0-9-3-36"
       transform="matrix(0.78722097,-0.19942868,-0.30990333,0.91892591,1994.5561,1995.3356)"><tspan
         style="font-size:195.17px;fill:#000000;fill-opacity:1;stroke:#030303;stroke-width:0.716208;stroke-miterlimit:4;stroke-dasharray:none;stroke-opacity:1"
         sodipodi:role="line"
         id="tspan876-6-1"
         x="787.65729"
         y="1584.5073">!<tspan
   style="font-size:173.821px;fill:#000000;stroke:#030303;stroke-opacity:1"
   id="tspan1317">!</tspan><tspan
   id="tspan1322"
   style="font-size:152.472px;fill:#000000;stroke:#030303;stroke-opacity:1">!</tspan></tspan></text>
  </g>
</svg>
