<?xml version="1.0" encoding="UTF-8" standalone="no"?>
<svg
   xmlns:dc="http://purl.org/dc/elements/1.1/"
   xmlns:cc="http://creativecommons.org/ns#"
   xmlns:rdf="http://www.w3.org/1999/02/22-rdf-syntax-ns#"
   xmlns:svg="http://www.w3.org/2000/svg"
   xmlns="http://www.w3.org/2000/svg"
   xmlns:xlink="http://www.w3.org/1999/xlink"
   xmlns:sodipodi="http://sodipodi.sourceforge.net/DTD/sodipodi-0.dtd"
   xmlns:inkscape="http://www.inkscape.org/namespaces/inkscape"
   id="svg2"
   version="1.1"
   inkscape:version="1.0.2-2 (e86c870879, 2021-01-15)"
   width="2481"
   height="3503"
   sodipodi:docname="E34P01.svg">
  <metadata
     id="metadata8">
    <rdf:RDF>
      <cc:Work
         rdf:about="">
        <dc:format>image/svg+xml</dc:format>
        <dc:type
           rdf:resource="http://purl.org/dc/dcmitype/StillImage" />
        <dc:title />
      </cc:Work>
    </rdf:RDF>
  </metadata>
  <defs
     id="defs6">
    <filter
       inkscape:collect="always"
       style="color-interpolation-filters:sRGB"
       id="filter7961"
       x="-0.0038362744"
       width="1.0076725"
       y="-0.012583922"
       height="1.0251678"
       inkscape:label="blur-layer-whisper">
      <feGaussianBlur
         inkscape:collect="always"
         stdDeviation="2.6222679"
         id="feGaussianBlur7963" />
    </filter>
    <filter
       style="color-interpolation-filters:sRGB;"
       inkscape:label="narrator-drop-shadow"
       id="filter8274"
       width="1.3"
       height="1.5">
      <feFlood
         flood-opacity="0.603922"
         flood-color="rgb(0,21,64)"
         result="flood"
         id="feFlood8264" />
      <feComposite
         in="flood"
         in2="SourceGraphic"
         operator="in"
         result="composite1"
         id="feComposite8266" />
      <feGaussianBlur
         in="composite1"
         stdDeviation="2.0230825044646368"
         result="blur"
         id="feGaussianBlur8268" />
      <feOffset
         dx="-7.4077921838061513"
         dy="4.8380533854166714"
         result="offset"
         id="feOffset8270" />
      <feComposite
         in="SourceGraphic"
         in2="offset"
         operator="over"
         result="fbSourceGraphic"
         id="feComposite8272" />
      <feColorMatrix
         result="fbSourceGraphicAlpha"
         in="fbSourceGraphic"
         values="0 0 0 -1 0 0 0 0 -1 0 0 0 0 -1 0 0 0 0 1 0"
         id="feColorMatrix8420" />
      <feFlood
         id="feFlood8422"
         flood-opacity="0.061934527228860295"
         flood-color="rgb(0,12,37)"
         result="flood"
         in="fbSourceGraphic" />
      <feComposite
         in2="fbSourceGraphic"
         id="feComposite8424"
         in="flood"
         operator="in"
         result="composite1" />
      <feGaussianBlur
         id="feGaussianBlur8426"
         in="composite1"
         stdDeviation="1"
         result="blur" />
      <feOffset
         id="feOffset8428"
         dx="-3.3194756113327486"
         dy="-2.8318869588504754"
         result="offset" />
      <feComposite
         in2="offset"
         id="feComposite8430"
         in="fbSourceGraphic"
         operator="over"
         result="composite2" />
    </filter>
  </defs>
  <sodipodi:namedview
     pagecolor="#ffffff"
     bordercolor="#666666"
     borderopacity="1"
     objecttolerance="10"
     gridtolerance="10"
     guidetolerance="10"
     inkscape:pageopacity="0"
     inkscape:pageshadow="2"
     inkscape:window-width="1366"
     inkscape:window-height="745"
     id="namedview4"
     showgrid="false"
     inkscape:zoom="0.15476003"
     inkscape:cx="335.27066"
     inkscape:cy="1691.3967"
     inkscape:window-x="-8"
     inkscape:window-y="-8"
     inkscape:window-maximized="1"
     inkscape:current-layer="layer1"
     inkscape:document-rotation="0"
     borderlayer="true"
     inkscape:snap-global="false" />
  <g
     inkscape:groupmode="layer"
     id="layer2"
     inkscape:label="artwork"
     sodipodi:insensitive="true">
    <image
       sodipodi:absref="C:\Users\quentinlipeck\Downloads\webcomics-master-ec7d62e6553c2c63bb1cf2e799ee31f9cb9ce5e2\webcomics-master-ec7d62e6553c2c63bb1cf2e799ee31f9cb9ce5e2\ep34_The-Knighting-of-Shichimi\lang\gfx_Pepper-and-Carrot_by-David-Revoy_E34P01.png"
       xlink:href="../gfx_Pepper-and-Carrot_by-David-Revoy_E34P01.png"
       y="0"
       x="0"
       id="image10"
       height="3503.7233"
       width="2481" />
  </g>
  <g
     inkscape:groupmode="layer"
     id="layer3"
     inkscape:label="speechbubbles-whisper"
     style="display:inline;opacity:0.65;filter:url(#filter7961)">
    <path
       id="path1299"
       style="fill:#e0ffff;fill-rule:evenodd;stroke:none;stroke-width:1.254px;stroke-linecap:butt;stroke-linejoin:miter;stroke-opacity:1"
       d="m 1493.8738,2593.9831 c -39.2719,2.5162 -78.8828,4.2884 -117.4283,13.7911 -31.845,9.4174 -62.5408,24.2883 -88.9374,45.4706 -21.2254,18.6953 -35.874,46.2146 -37.3054,75.1448 -1.2631,32.5142 16.6242,64.1698 43.6129,79.6764 19.9691,12.1023 41.829,20.3148 63.4018,28.8193 31.3959,11.2866 64.8685,15.5286 98.1536,15.592 40.6006,0.5577 81.1943,-2.4683 121.7525,-4.8903 32.2428,-2.1395 64.8525,-4.9366 95.9605,-15.123 18.5959,-6.3365 36.0037,-17.1139 49.5181,-32.0521 10.8815,-11.4412 21.1498,-24.5457 25.2288,-40.3218 4.3467,-17.4793 1.8359,-35.8231 -3.008,-52.7156 -6.2462,-20.9843 -18.6778,-39.475 -34.2161,-54.0521 -17.1123,-16.186 -36.4368,-30.1537 -58.0332,-39.1518 -10.9433,-4.6851 -22.4784,-7.7518 -34.1719,-9.7804 -29.6254,-5.6806 -59.7716,-8.0375 -89.8568,-10.0475 -11.5414,-0.5431 -23.1079,-0.6169 -34.6711,-0.3596 z" />
    <path
       style="fill:#e0ffff;fill-rule:evenodd;stroke:none;stroke-width:1.42105px;stroke-linecap:butt;stroke-linejoin:miter;stroke-opacity:1"
       d="m 1288.637,2520.4406 c -20.6915,0.5715 -41.73,3.124 -60.6242,10.569 -22.3365,9.335 -37.822,29.5951 -37.7682,50.6444 0.5025,10.9745 6.7685,21.3476 15.5687,29.2934 6.3224,5.6779 14.2595,9.8604 22.5374,13.2307 16.6664,7.0126 35.3437,10.2679 53.9211,10.4477 29.6008,1.3792 59.5433,-0.345 88.3519,-6.3959 13.5577,-2.9712 27.0559,-7.7122 37.1029,-16.162 10.2844,-8.3459 17.8224,-19.6239 18.7119,-31.7683 0.273,-10.8875 -5.3471,-21.2253 -12.665,-29.9724 -9.3254,-11.6163 -23.5761,-20.6918 -39.9667,-23.8402 -19.9408,-4.5851 -40.7451,-5.1076 -61.2768,-5.8492 -7.962,-0.1945 -15.9281,-0.2195 -23.893,-0.1972 z"
       id="path1285"
       inkscape:connector-curvature="0" />
    <path
       style="font-variation-settings:normal;vector-effect:none;fill:#e0ffff;fill-opacity:1;stroke:none;stroke-width:1.31283px;stroke-linecap:butt;stroke-linejoin:miter;stroke-miterlimit:4;stroke-dasharray:none;stroke-dashoffset:0;stroke-opacity:1;stop-color:#000000"
       d="m 237.54727,2520.078 c -29.82099,1.2291 -59.76129,10.5086 -82.99711,28.6668 -19.57469,14.7836 -35.96107,34.2765 -43.55111,57.1712 -12.597389,41.1822 2.78985,88.8641 37.90826,115.8559 19.04046,14.8981 42.64782,23.2898 66.36779,28.7186 40.09466,8.8386 82.04527,9.8436 122.6011,3.2781 24.57113,-4.6715 48.66582,-14.492 66.93386,-31.142 19.80943,-18.074 32.74962,-43.3618 33.6534,-69.6182 0.6315,-14.7078 -1.21423,-29.4332 -4.23183,-43.8387 -5.14827,-22.4903 -17.66494,-43.7064 -36.51101,-58.3422 -12.56679,-9.8917 -27.65712,-16.6035 -43.41557,-20.4038 -26.89885,-7.1055 -54.91394,-9.146 -82.70426,-10.0843 -11.34856,-0.2861 -22.70196,-0.2664 -34.05352,-0.2614 z"
       id="path3280-8-90"
       inkscape:connector-curvature="0"
       sodipodi:nodetypes="csssc" />
    <path
       style="fill:#e0ffff;fill-opacity:1;fill-rule:evenodd;stroke:none;stroke-width:1.28082px;stroke-linecap:butt;stroke-linejoin:miter;stroke-opacity:1"
       d="m 405.61348,2631.9631 c 42.85265,-5.0607 58.06957,-2.3086 68.49973,0.7202 10.42915,3.0295 34.5561,33.0962 43.85358,53.3011 -34.06156,-36.1486 -48.52756,-39.3772 -65.05064,-34.4498 -16.52311,4.9273 -63.29994,23.4366 -63.29994,23.4366 l 11.09296,-45.4041 z"
       id="path1291"
       inkscape:connector-curvature="0"
       sodipodi:nodetypes="csccccc" />
    <path
       style="fill:#e0ffff;fill-rule:evenodd;stroke:none;stroke-width:0.964753px;stroke-linecap:butt;stroke-linejoin:miter;stroke-opacity:1"
       d="m 1434.2038,2989.2388 c 48.3667,-37.0134 81.9085,-79.2404 77.928,-171.8638 l 30.8393,-3.1198 c -4.7727,67.6875 -17.9327,144.5385 -108.7673,174.9836 z"
       id="path1291-6"
       inkscape:connector-curvature="0"
       sodipodi:nodetypes="cccc" />
  </g>
  <g
     inkscape:groupmode="layer"
     id="layer4"
     inkscape:label="speechbubbles"
     style="display:inline">
    <path
       id="path4040-4-1"
       style="color:#000000;display:inline;overflow:visible;visibility:visible;fill:#ffffff;fill-opacity:1;fill-rule:nonzero;stroke:none;stroke-width:0.859761px;marker:none;enable-background:accumulate"
       d="m 399.68904,1883.1559 c -53.28926,0.572 -106.9472,0.3559 -159.62137,10.2996 -31.16514,6.4965 -60.94019,23.3483 -81.91717,49.4291 -9.5602,12.0157 -16.30272,26.6472 -19.10778,42.2419 -4.9454,24.9363 -2.90705,50.9635 2.70303,75.5535 5.94857,24.8082 17.62632,48.6238 35.92315,65.276 16.54065,15.4198 37.26563,24.8739 58.61131,29.0997 21.21531,4.5949 42.74881,7.2616 64.28912,9.2759 60.13962,5.1338 120.49747,2.1687 180.72498,1.2497 35.11545,-1.004 70.68732,-4.6449 103.96431,-17.5703 18.51324,-6.8128 37.19404,-15.2546 51.62858,-29.9635 12.9504,-14.4558 19.19239,-34.0966 23.54846,-53.2713 5.22897,-24.3263 6.88042,-49.7394 3.52244,-74.5053 -3.97211,-24.2516 -16.38932,-46.6381 -34.11421,-62.0201 -15.03397,-13.4463 -33.33637,-21.8125 -52.02368,-27.2608 -53.18376,-17.1058 -109.19312,-17.7951 -164.21208,-17.8666 -4.63976,-0.016 -9.27938,0.01 -13.91909,0.033 z" />
    <path
       style="color:#000000;display:inline;overflow:visible;visibility:visible;fill:#ffffff;fill-opacity:1;fill-rule:nonzero;stroke:none;stroke-width:1.80075px;marker:none;enable-background:accumulate"
       d="m 539.19946,1927.3519 c 7.55014,-44.8382 62.74837,-99.1824 137.61984,-61.3131 -80.77928,-16.5552 -107.19343,39.0539 -106.74645,81.3775 0.39562,37.4602 -16.36437,17.1598 -16.36437,17.1598 z"
       id="path4440-1"
       inkscape:connector-curvature="0"
       sodipodi:nodetypes="ccscc" />
    <path
       style="color:#000000;display:inline;overflow:visible;visibility:visible;fill:#ffffff;fill-opacity:1;fill-rule:nonzero;stroke:none;stroke-width:0.746014px;marker:none;enable-background:accumulate"
       d="m 1809.1683,2838.742 c -21.2201,2.5941 -42.5794,6.1471 -62.6266,15.0673 -10.5549,5.0192 -19.1195,15.2749 -24.2663,27.5302 -4.0194,9.6259 -5.9839,20.8902 -4.2293,31.7544 2.6765,17.7548 13.0346,33.6763 26.6641,40.7039 12.9906,7.3046 27.2111,9.9763 41.2131,11.8771 32.2697,4.1258 64.6535,2.1775 96.9746,3.6831 14.2013,0.5793 28.7004,-1.5255 41.6158,-8.7592 10.8933,-5.9879 20.6646,-15.7271 26.2988,-28.7969 4.0849,-9.1181 5.6488,-20.0225 3.9723,-30.4029 -1.3461,-9.349 -5.0944,-18.1027 -10.3138,-25.1567 -7.9753,-11.1973 -18.9284,-18.6282 -30.3359,-22.9969 -15.4124,-6.3166 -31.4109,-9.99 -47.428,-12.6239 -19.115,-2.8848 -38.3978,-3.1672 -57.5388,-1.8795 z"
       id="path4040-2"
       inkscape:connector-curvature="0"
       sodipodi:nodetypes="zssssz" />
    <path
       style="color:#000000;display:inline;overflow:visible;visibility:visible;fill:#ffffff;fill-opacity:1;fill-rule:nonzero;stroke:none;stroke-width:0.811733px;marker:none;enable-background:accumulate"
       d="m 1970.7532,2998.2521 c 42.5246,54.5422 86.7334,47.5024 118.7066,15.8691 -23.32,34.399 -69.359,69.3478 -144.2603,0.1036 -14.3413,-13.258 25.5537,-15.9727 25.5537,-15.9727 z"
       id="path5010-4"
       inkscape:connector-curvature="0"
       sodipodi:nodetypes="ccsc" />
    <path
       style="color:#000000;display:inline;overflow:visible;visibility:visible;fill:#ffffff;fill-opacity:1;fill-rule:nonzero;stroke:none;stroke-width:0.758335px;marker:none;enable-background:accumulate"
       d="m 1882.7598,2929.8517 c -25.5175,0.7133 -51.8015,4.753 -73.1888,15.9573 -13.2107,7.2028 -20.5516,18.813 -26.0268,30.1525 -6.4831,13.0994 -9.342,28.0593 -2.8257,41.4908 6.7393,13.8913 22.054,24.2755 38.7641,31.1362 36.4689,15.0624 79.7794,18.5065 120.2688,13.1748 13.1201,-1.71 26.3564,-4.2975 37.6244,-9.9341 14.7645,-7.0411 26.2969,-17.9029 32.1992,-30.4363 9.3617,-18.9503 7.0116,-41.6394 -8.6883,-58.2515 -12.7402,-13.6598 -32.8023,-22.3437 -53.6972,-26.5956 -20.8795,-4.6814 -42.6813,-6.8935 -64.4297,-6.6941 z"
       id="path4040-2-5"
       inkscape:connector-curvature="0"
       sodipodi:nodetypes="zssssz" />
    <rect
       style="color:#000000;overflow:visible;fill:#eeffdb;fill-opacity:0.89322;stroke:#807e00;stroke-width:8.05223;stroke-opacity:1;paint-order:stroke fill markers;filter:url(#filter8274);stop-color:#000000"
       id="rect8238"
       width="417.40149"
       height="86.261734"
       x="128.97966"
       y="127.99652"
       transform="matrix(1.1417932,0,0,0.94735903,-16.108836,9.6894471)" />
  </g>
  <g
     inkscape:groupmode="layer"
     id="layer1"
     inkscape:label="txt">
    <text
       xml:space="preserve"
       style="font-style:normal;font-variant:normal;font-weight:normal;font-stretch:normal;font-size:45px;line-height:1.25;font-family:Lavi;-inkscape-font-specification:Lavi;text-align:center;letter-spacing:0px;word-spacing:0px;text-anchor:middle;fill:#000000;fill-opacity:1;stroke:none"
       x="367.29865"
       y="186.49605"
       id="text4246-3-2-2-35"><tspan
         style="font-size:45px"
         sodipodi:role="line"
         x="367.29865"
         y="186.49605"
         id="tspan905-2">tenpo pimeja sama...</tspan></text>
    <text
       xml:space="preserve"
       style="font-style:normal;font-variant:normal;font-weight:normal;font-stretch:normal;font-size:45px;line-height:1.25;font-family:Lavi;-inkscape-font-specification:Lavi;text-align:center;letter-spacing:0px;word-spacing:0px;text-anchor:middle;fill:#000000;fill-opacity:1;stroke:none"
       x="407.95737"
       y="1958.8977"
       id="text4246-3-2-2"><tspan
         style="font-size:45px"
         sodipodi:role="line"
         x="407.95737"
         y="1958.8977"
         id="tspan915">...ni la, sina kama e </tspan><tspan
         style="font-size:45px"
         sodipodi:role="line"
         x="407.95737"
         y="2015.1477"
         id="tspan71">jan utala sewi pona </tspan><tspan
         style="font-size:45px"
         sodipodi:role="line"
         x="407.95737"
         y="2071.3977"
         id="tspan73">tawa kulupu Aa, </tspan><tspan
         style="font-size:45px"
         sodipodi:role="line"
         x="407.95737"
         y="2127.6477"
         id="tspan75">jan Sisimi o.</tspan><tspan
         style="font-size:45px"
         sodipodi:role="line"
         x="407.95737"
         y="2183.8977"
         id="tspan905" /></text>
    <text
       xml:space="preserve"
       style="font-style:normal;font-variant:normal;font-weight:normal;font-stretch:normal;font-size:45px;line-height:1.25;font-family:Lavi;-inkscape-font-specification:Lavi;text-align:center;letter-spacing:0px;word-spacing:0px;text-anchor:middle;fill:#000000;fill-opacity:1;stroke:none"
       x="281.69833"
       y="2592.4832"
       id="text4246-3-2-2-3"><tspan
         style="font-size:45px;fill:#000000;fill-opacity:1"
         sodipodi:role="line"
         x="281.69833"
         y="2592.4832"
         id="tspan82">sina sona ala </tspan><tspan
         style="font-size:45px;fill:#000000;fill-opacity:1"
         sodipodi:role="line"
         x="281.69833"
         y="2648.7332"
         id="tspan86">sona e kama </tspan><tspan
         style="font-size:45px;fill:#000000;fill-opacity:1"
         sodipodi:role="line"
         x="281.69833"
         y="2704.9832"
         id="tspan88">pi jan Pepa?</tspan></text>
    <text
       xml:space="preserve"
       style="font-style:normal;font-variant:normal;font-weight:normal;font-stretch:normal;font-size:45px;line-height:1.25;font-family:Lavi;-inkscape-font-specification:Lavi;text-align:center;letter-spacing:0px;word-spacing:0px;text-anchor:middle;white-space:pre;inline-size:253.323;fill:#000000;fill-opacity:1;stroke:none"
       x="1320.327"
       y="2594.489"
       id="text4246-3-2-2-3-5"
       transform="translate(-10.795882,-6.9036151)"><tspan
         x="1320.327"
         y="2594.489"><tspan
           style="font-size:45px;fill:#000000;fill-opacity:1">sona ala.</tspan></tspan></text>
    <text
       xml:space="preserve"
       style="font-style:normal;font-variant:normal;font-weight:normal;font-stretch:normal;font-size:45px;line-height:1.25;font-family:Lavi;-inkscape-font-specification:Lavi;text-align:center;letter-spacing:0px;word-spacing:0px;text-anchor:middle;fill:#000000;fill-opacity:1;stroke:none"
       x="1506.9663"
       y="2655.9597"
       id="text4246-3-2-2-3-5-1"><tspan
         style="font-size:45px;fill:#000000;fill-opacity:1"
         sodipodi:role="line"
         x="1506.9663"
         y="2655.9597"
         id="tspan7590">ona o kepeken </tspan><tspan
         style="font-size:45px;fill:#000000;fill-opacity:1"
         sodipodi:role="line"
         x="1506.9663"
         y="2712.2097"
         id="tspan97">tenpo lili. ante la, ona </tspan><tspan
         style="font-size:45px;fill:#000000;fill-opacity:1"
         sodipodi:role="line"
         x="1506.9663"
         y="2768.4597"
         id="tspan101">li lon ala tenpo toki </tspan><tspan
         style="font-size:45px;fill:#000000;fill-opacity:1"
         sodipodi:role="line"
         x="1506.9663"
         y="2824.7097"
         id="tspan103">pi jan Sisimi.</tspan></text>
    <text
       xml:space="preserve"
       style="font-style:normal;font-variant:normal;font-weight:normal;font-stretch:normal;font-size:45px;line-height:1.25;font-family:Lavi;-inkscape-font-specification:Lavi;text-align:center;letter-spacing:0px;word-spacing:0px;text-anchor:middle;fill:#000000;fill-opacity:1;stroke:none"
       x="1839.7936"
       y="2918.1755"
       id="text4246-3-2-2-3-5-1-7"><tspan
         style="font-size:45px"
         sodipodi:role="line"
         x="1839.7936"
         y="2918.1755"
         id="tspan7676">pona a.</tspan></text>
    <text
       xml:space="preserve"
       style="font-style:normal;font-variant:normal;font-weight:normal;font-stretch:normal;font-size:45px;line-height:1.25;font-family:Lavi;-inkscape-font-specification:Lavi;text-align:center;letter-spacing:0px;word-spacing:0px;text-anchor:middle;fill:#000000;fill-opacity:1;stroke:none"
       x="1902.54"
       y="3013.3691"
       id="text4246-3-2-2-3-5-1-7-3"><tspan
         style="font-size:45px"
         sodipodi:role="line"
         x="1902.54"
         y="3013.3691"
         id="tspan7730">mi wile...</tspan></text>
  </g>
</svg>
