<?xml version="1.0" encoding="UTF-8" standalone="no"?>
<!-- Created with Inkscape (http://www.inkscape.org/) -->

<svg
   xmlns:dc="http://purl.org/dc/elements/1.1/"
   xmlns:cc="http://creativecommons.org/ns#"
   xmlns:rdf="http://www.w3.org/1999/02/22-rdf-syntax-ns#"
   xmlns:svg="http://www.w3.org/2000/svg"
   xmlns="http://www.w3.org/2000/svg"
   xmlns:xlink="http://www.w3.org/1999/xlink"
   xmlns:sodipodi="http://sodipodi.sourceforge.net/DTD/sodipodi-0.dtd"
   xmlns:inkscape="http://www.inkscape.org/namespaces/inkscape"
   id="svg2"
   version="1.1"
   inkscape:version="0.92.2 5c3e80d, 2017-08-06"
   width="2481"
   height="3503"
   sodipodi:docname="E27P03.svg">
  <metadata
     id="metadata8">
    <rdf:RDF>
      <cc:Work
         rdf:about="">
        <dc:format>image/svg+xml</dc:format>
        <dc:type
           rdf:resource="http://purl.org/dc/dcmitype/StillImage" />
        <dc:title />
      </cc:Work>
    </rdf:RDF>
  </metadata>
  <defs
     id="defs6">
    <filter
       style="color-interpolation-filters:sRGB"
       id="filter4375-4-1-1-1-9"
       inkscape:label="deevad outline effect">
      <feFlood
         id="feFlood4377-7-9-0-8-1"
         flood-opacity="1"
         flood-color="rgb(0,0,0)"
         result="flood" />
      <feComposite
         id="feComposite4379-3-8-8-2-77"
         in2="SourceGraphic"
         in="flood"
         operator="in"
         result="composite1" />
      <feMorphology
         id="feMorphology4393-1-0-49-8-9"
         operator="dilate"
         radius="4"
         result="result3" />
      <feComposite
         id="feComposite4385-9-5-7-0-8"
         in2="result3"
         in="SourceGraphic"
         operator="over"
         result="composite2" />
    </filter>
    <filter
       style="color-interpolation-filters:sRGB"
       id="filter4375-4-1-1-1-9-5"
       inkscape:label="deevad outline effect">
      <feFlood
         id="feFlood4377-7-9-0-8-1-8"
         flood-opacity="1"
         flood-color="rgb(0,0,0)"
         result="flood" />
      <feComposite
         id="feComposite4379-3-8-8-2-77-0"
         in2="SourceGraphic"
         in="flood"
         operator="in"
         result="composite1" />
      <feMorphology
         id="feMorphology4393-1-0-49-8-9-0"
         operator="dilate"
         radius="4"
         result="result3" />
      <feComposite
         id="feComposite4385-9-5-7-0-8-0"
         in2="result3"
         in="SourceGraphic"
         operator="over"
         result="composite2" />
    </filter>
  </defs>
  <sodipodi:namedview
     pagecolor="#ffffff"
     bordercolor="#666666"
     borderopacity="1"
     objecttolerance="10"
     gridtolerance="10"
     guidetolerance="10"
     inkscape:pageopacity="0"
     inkscape:pageshadow="2"
     inkscape:window-width="1680"
     inkscape:window-height="980"
     id="namedview4"
     showgrid="false"
     inkscape:zoom="0.21895518"
     inkscape:cx="1240.5"
     inkscape:cy="1751.5"
     inkscape:window-x="0"
     inkscape:window-y="1"
     inkscape:window-maximized="1"
     inkscape:current-layer="layer1"
     inkscape:snap-global="false" />
  <g
     inkscape:groupmode="layer"
     id="layer2"
     inkscape:label="artwork"
     sodipodi:insensitive="true">
    <image
       sodipodi:absref="/Users/gand/Documents/Pepper&amp;Carrot/ep27_Coriander-s-Invention/it/../gfx_Pepper-and-Carrot_by-David-Revoy_E27P03.png"
       xlink:href="../gfx_Pepper-and-Carrot_by-David-Revoy_E27P03.png"
       y="0"
       x="0"
       id="image10"
       height="3503"
       width="2481" />
  </g>
  <g
     inkscape:groupmode="layer"
     id="layer3"
     inkscape:label="speechbubbles">
    <path
       style="fill:#ffffff;fill-rule:evenodd;stroke:none;stroke-width:0.92175788px;stroke-linecap:butt;stroke-linejoin:miter;stroke-opacity:1"
       d="m 1144.9324,1545.838 c 3.0342,-42.1996 1.1371,-71.0445 25.4223,-81.2662 24.2855,-10.2216 208.7992,-10.5253 223.684,-9.7499 14.8848,0.7755 46.4498,5.5309 59.5393,3.1017 13.0892,-2.4291 51.0032,-3.206 70.9312,-0.373 19.9281,2.833 106.0025,3.2106 116.2852,11.6435 10.2825,8.4329 35.9709,31.6373 35.4986,57.5777 -0.4724,25.9404 -12.2748,39.5442 -24.825,53.8472 -12.5504,14.303 -57.6472,34.8682 -84.071,34.3292 -26.4237,-0.539 -114.5992,1.7978 -129.435,2.1018 -14.8359,0.3041 -107.0004,5.434 -138.3207,6.0758 -31.3199,0.6418 -79.0744,-9.4822 -111.0806,-23.9526 -32.0061,-14.4704 -43.6283,-53.3352 -43.6283,-53.3352 z"
       id="path263"
       inkscape:connector-curvature="0"
       sodipodi:nodetypes="ccccccccssccc" />
    <path
       style="fill:#ffffff;fill-rule:evenodd;stroke:none;stroke-width:1px;stroke-linecap:butt;stroke-linejoin:miter;stroke-opacity:1"
       d="m 1252.6692,1467.8179 c 0,0 -14.7372,-14.1832 -28.1318,-24.3459 -13.1591,-9.9839 -23.1743,-37.0399 -19.4243,-57.7963 -18.1089,29.447 -5.815,53.6299 11.889,81.0614 15.1315,24.8588 35.6671,1.0808 35.6671,1.0808 z"
       id="path265"
       inkscape:connector-curvature="0"
       sodipodi:nodetypes="csccc" />
    <path
       style="fill:#ffffff;fill-rule:evenodd;stroke:none;stroke-width:1.02259326px;stroke-linecap:butt;stroke-linejoin:miter;stroke-opacity:1"
       d="m 1909.783,1849.4773 c 28.8655,-33.5165 92.4773,-51.0494 142.336,-51.9804 49.8587,-0.931 181.0657,9.3101 224.3639,25.1374 43.2983,15.8271 83.3399,34.2911 79.4037,79.9105 -3.9362,45.6197 -15.7449,93.1011 -23.6174,109.8595 -7.8723,16.7581 -32.8016,42.8265 -57.731,57.7226 -24.9293,14.8962 -110.2138,18.6203 -140.3914,18.6203 -30.1777,0 -135.1432,-11.1722 -157.4483,-25.1374 -22.3052,-13.9651 -68.2276,-37.2404 -76.1001,-79.1359 -7.8723,-41.8955 -3.9362,-109.8593 9.1846,-134.9966 z"
       id="path267"
       inkscape:connector-curvature="0"
       sodipodi:nodetypes="csccccscsc" />
    <path
       style="fill:#ffffff;fill-rule:evenodd;stroke:none;stroke-width:1px;stroke-linecap:butt;stroke-linejoin:miter;stroke-opacity:1"
       d="m 1825.1743,1897.7489 c 53.571,-19.7367 111.3904,-9.3727 131.1271,16.0031 19.7367,25.3757 16.4282,45.0866 16.4282,45.0866 l -21.6164,9.3985 c 0,14.3171 5.8835,-17.1392 -7.2743,-30.7446 -12.9359,-13.376 -35.6882,-34.1046 -57.3046,-37.8639 -21.6164,-3.7594 -50.0819,-2.8196 -61.36,-1.8797 z"
       id="path269"
       inkscape:connector-curvature="0"
       sodipodi:nodetypes="ccccscc" />
    <path
       style="fill:#ffffff;fill-rule:evenodd;stroke:none;stroke-width:1.06269979px;stroke-linecap:butt;stroke-linejoin:miter;stroke-opacity:1"
       d="m 261.9112,2428.7616 c 23.67838,-18.9432 78.13862,-24.5147 101.81699,-31.2006 23.67838,-6.6858 55.64418,-1.1143 71.03512,-2.2286 15.39094,-1.1143 58.01199,-6.6858 69.85118,-5.5715 11.83919,1.1143 87.60998,6.6858 103.00091,7.8001 15.39095,1.1143 81.69038,6.6859 88.7939,27.8578 7.1035,21.1717 28.41404,62.4011 17.75877,82.4587 -10.65527,20.0575 -10.45337,59.5605 -41.23525,71.8179 -30.78188,12.2574 -91.36362,27.3556 -147.00778,29.5842 -55.64418,2.2285 -132.59888,-6.6859 -144.43807,-6.6859 -11.83919,0 -74.58687,1.1143 -99.44916,-26.7434 -24.86229,-27.8576 -42.62105,-59.0583 -39.06931,-86.916 3.55176,-27.8577 18.9427,-60.1727 18.9427,-60.1727 z"
       id="path271"
       inkscape:connector-curvature="0"
       sodipodi:nodetypes="ccsssccscscsc" />
    <path
       style="fill:#ffffff;fill-rule:evenodd;stroke:none;stroke-width:1px;stroke-linecap:butt;stroke-linejoin:miter;stroke-opacity:1"
       d="m 549.40558,2567.868 c 0,0 -6.17962,40.1675 -4.9437,48.819 1.23593,8.6515 12.35924,48.201 19.77478,58.0884 -19.15682,-22.2466 -31.51605,-51.2908 -33.9879,-61.1782 -2.47184,-9.8874 -1.23592,-50.0549 -1.23592,-50.0549 z"
       id="path273"
       inkscape:connector-curvature="0" />
    <path
       style="fill:#ffffff;fill-rule:evenodd;stroke:none;stroke-width:1px;stroke-linecap:butt;stroke-linejoin:miter;stroke-opacity:1"
       d="m 874.10689,2397.2192 c 36.95412,-5.6852 28.42624,7.8173 60.40576,7.1066 31.97953,-0.7106 97.35985,-7.8172 112.99435,-14.2131 8.5278,-3.5533 9.2385,2.132 9.2385,2.132 0,0 26.2943,1.4213 31.2689,2.8426 4.9745,1.4213 24.1623,10.6598 31.2688,8.5279 7.1066,-2.132 19.1877,-5.6853 19.1877,-5.6853 0,0 -0.7106,47.614 -1.4213,51.1672 -0.7106,3.5533 -5.6852,30.5582 -5.6852,39.7968 0,9.2385 4.2639,23.4516 3.5532,27.7156 -0.7106,4.2639 9.2386,14.9237 9.2386,14.9237 l -27.005,0.7107 -18.477,2.132 -7.8172,-2.132 -33.4009,2.8426 -19.1877,0.7107 1.4213,-4.264 -82.43605,4.264 3.55328,-6.3959 -28.42624,1.4213 -10.65984,6.3959 -3.55328,-5.6853 -24.16231,0.7107 -12.79181,6.3959 7.10656,-13.5025 -10.65984,-7.8172 -2.13196,-104.4664 6.3959,-4.264 z"
       id="path275"
       inkscape:connector-curvature="0" />
    <path
       style="fill:#ffffff;fill-rule:evenodd;stroke:none;stroke-width:1px;stroke-linecap:butt;stroke-linejoin:miter;stroke-opacity:1"
       d="m 1118.5743,2437.016 c 32.7805,-4.9746 54.6342,9.2385 62.6473,7.8172 8.0131,-1.4213 34.2376,-10.6598 42.979,-9.9492 8.7415,0.7107 64.1044,8.5279 80.8588,5.6853 16.7545,-2.8427 53.9059,0 59.7336,-0.7107 5.8275,-0.7106 29.1382,-14.2131 35.6944,-14.2131 6.5561,0 17.4829,6.3959 41.5221,-9.2385 -10.1985,18.477 -16.0261,31.2688 -16.0261,31.2688 0,0 25.496,-7.1065 35.6943,-7.1065 10.1985,0 18.2116,3.5532 23.3107,1.4213 5.0992,-2.132 32.7806,-2.8426 37.1514,-2.8426 4.3708,0 15.2975,-3.5533 20.3968,-3.5533 5.0992,0 51.7205,4.2639 58.2766,4.2639 6.5561,0 67.7465,-7.1066 74.3026,-7.1066 6.5561,0 36.4229,2.132 48.8068,-2.8426 1.4568,14.2131 -2.9139,48.3246 -2.9139,56.1418 0,7.8173 0.7284,17.7664 0.7284,24.1624 -10.9268,7.1065 -18.94,21.3196 -18.94,21.3196 0,0 18.2116,3.5533 23.3107,0.7107 5.0992,-2.8426 2.1854,52.5885 2.9139,63.2484 0.7285,10.6598 -8.7415,0.7106 -8.7415,0.7106 0,0 -1.4569,7.8172 -7.2846,9.2386 -5.8276,1.4213 -108.5401,-0.7107 -120.1954,-0.7107 -11.6554,0 -15.2977,3.5533 -15.2977,3.5533 h -50.2636 l -1.4569,-6.3959 -22.5821,4.2639 -30.5953,4.9746 -18.2114,3.5533 -10.1983,-2.8426 -50.2637,0.7106 -43.7074,1.4213 10.9268,-10.6598 -113.6393,7.8172 -52.449,1.4213 -48.0782,6.3959 -9.4699,-22.741 -5.0993,-49.0352 c 0,0 -2.9138,-13.5026 5.0993,-15.6345 8.013,-2.1319 -5.8277,-4.2639 -7.2846,-17.0557 -1.457,-12.7918 -5.8276,-45.482 -5.8276,-45.482 l 9.4699,-2.8426 -11.6553,-7.1066 z"
       id="path277"
       inkscape:connector-curvature="0" />
    <path
       style="fill:#ffffff;fill-rule:evenodd;stroke:none;stroke-width:0.99999994px;stroke-linecap:butt;stroke-linejoin:miter;stroke-opacity:1"
       d="m 1327.3521,2751.2587 c 32.6788,-36.3054 55.3539,-80.3905 55.3539,-94.0051 8.6697,12.9662 8.0028,10.373 8.0028,10.373 0,0 14.6721,-38.8987 14.0051,-62.8862 -0.6667,-23.9875 26.6766,-24.6358 30.0111,-19.4493 3.3345,5.1864 9.47,23.9875 9.47,23.9875 l -4.1347,13.6145 -4.0015,-3.2415 c 0,0 -15.3389,40.1952 -17.3397,44.7334 -2.0008,4.5382 -10.6705,23.9876 -10.6705,23.9876 l -2.6677,-11.6696 -14.6721,10.373 0.6669,16.2077 -8.003,-7.1314 c 0,0 -0.6667,9.7247 -4.0014,14.9112 -3.3346,5.1864 -24.0089,27.8774 -26.6765,31.1189 -2.6676,3.2415 -25.3427,9.0763 -25.3427,9.0763 z"
       id="path279"
       inkscape:connector-curvature="0" />
    <path
       style="fill:#ffffff;fill-rule:evenodd;stroke:none;stroke-width:1.03378546px;stroke-linecap:butt;stroke-linejoin:miter;stroke-opacity:1"
       d="m 1829.4997,2412.5674 7.7372,7.358 39.3075,-4.3215 7.8607,-8.3665 c 0,0 17.4682,8.3665 22.7086,5.5777 5.2405,-2.7889 26.2023,-4.6481 26.2023,-4.6481 l 7.8606,7.4369 19.215,-2.7888 c 0,0 44.544,7.4369 55.0249,6.5072 10.4809,-0.9295 28.8225,-10.2256 28.8225,-10.2256 0,0 35.8098,10.2256 41.0503,8.3664 5.2404,-1.8592 14.8479,-2.7887 14.8479,-2.7887 l 11.3543,20.4515 c 0,0 22.7087,-19.522 22.7087,-28.8181 14.848,-0.9297 34.9364,0 38.4301,-1.8593 3.4937,-1.8592 5.2404,11.1554 5.2404,11.1554 l 10.4809,6.5073 c 0,0 26.2023,-20.4515 28.8225,-24.1699 2.6203,-3.7185 20.0885,-2.789 20.0885,-2.789 0,0 24.4555,0.9297 27.9491,0 3.4936,-0.9295 18.3416,0.9297 31.4428,1.8592 13.1011,0.9298 26.2023,0.9298 35.8098,-2.7887 2.6202,15.8034 0,72.51 -0.8736,79.0173 -9.6074,15.8034 -19.2149,45.5512 -27.0755,51.1289 20.9618,-11.1555 20.9618,-14.8739 28.8224,-22.3108 -0.8733,23.2405 -7.8606,72.51 -8.734,78.0878 13.9745,-12.085 12.2277,-9.2962 10.4809,-4.6481 -1.7469,4.6481 -6.9873,18.5923 -8.7341,29.7476 -1.7468,11.1554 0,25.0997 -1.7468,32.5366 -1.7468,7.437 -3.4937,17.6628 -3.4937,17.6628 0,0 -34.9364,11.1553 -41.0503,13.0146 -6.1138,1.8592 -60.2652,1.8592 -74.2398,1.8592 -13.9745,0 -34.9364,2.7888 -44.5439,1.8592 5.2405,-10.2257 8.7341,-17.6627 8.7341,-17.6627 0,0 -43.6704,4.6481 -54.1514,6.5074 -10.4809,1.8592 -54.1515,-8.3666 -63.7589,-7.4369 -9.6075,0.9295 -62.8855,2.7887 -76.8601,3.7184 -13.9745,0.9295 -48.9109,2.7888 -62.012,5.5777 -13.1012,2.7888 -52.4047,4.648 -61.1386,4.648 -8.7342,0 -25.329,0.9297 -25.329,0.9297 0,0 -1.7468,-33.4661 -1.7468,-45.5512 0,-12.085 -4.3671,-71.5804 -0.8734,-78.0877 3.4936,-6.5074 6.1138,-52.0586 6.1138,-56.7066 0,-4.6481 -8.2406,-40.4078 -8.2406,-40.4078 z"
       id="path283"
       inkscape:connector-curvature="0"
       sodipodi:nodetypes="ccccscccccsccccccccccccccccccccscccccsscssscc" />
    <path
       style="fill:#ffffff;fill-rule:evenodd;stroke:none;stroke-width:0.99999994px;stroke-linecap:butt;stroke-linejoin:miter;stroke-opacity:1"
       d="m 1928.0456,2832.7023 c -13.1433,-30.6118 9.2927,-109.1953 20.1114,-126.6745 0,-10.6243 -4.641,-22.8831 -4.641,-22.8831 0,0 -11.6028,4.9035 -14.6968,10.6243 -3.0941,5.7208 13.1497,-34.3247 22.4319,-40.8627 9.2823,-6.538 -6.9616,-37.5937 -6.9616,-37.5937 0,0 -31.7143,26.1521 -33.2613,37.5937 -1.547,11.4416 -10.0557,70.2839 -6.1881,80.9082 3.8676,10.6243 6.1881,4.9035 9.2821,0.8172 3.0942,-4.0862 11.6029,-12.2588 16.244,-15.5278 -7.7353,19.6141 -20.1115,84.1772 -2.3206,113.5984 z"
       id="path285"
       inkscape:connector-curvature="0"
       sodipodi:nodetypes="ccccccssccc" />
  </g>
  <g
     inkscape:groupmode="layer"
     id="layer1"
     inkscape:label="txt">
    <text
       xml:space="preserve"
       style="font-style:normal;font-variant:normal;font-weight:normal;font-stretch:normal;line-height:0%;font-family:Lavi;-inkscape-font-specification:Lavi;text-align:center;letter-spacing:0px;word-spacing:0px;text-anchor:middle;fill:#000000;fill-opacity:1;stroke:none"
       x="1407.3555"
       y="1527.9933"
       id="text4246"><tspan
         sodipodi:role="line"
         style="font-size:45px;line-height:1.20000005"
         x="1407.3555"
         y="1527.9933"
         id="tspan20">Capirete subito perché</tspan><tspan
         sodipodi:role="line"
         style="font-size:45px;line-height:1.20000005"
         x="1407.3555"
         y="1581.9933"
         id="tspan887">l'ho voluta costruire.</tspan></text>
    <text
       xml:space="preserve"
       style="font-style:normal;font-variant:normal;font-weight:normal;font-stretch:normal;line-height:0%;font-family:Lavi;-inkscape-font-specification:Lavi;text-align:center;letter-spacing:0px;word-spacing:0px;text-anchor:middle;fill:#000000;fill-opacity:1;stroke:none"
       x="2123.2803"
       y="1878.3798"
       id="text4246-3"><tspan
         sodipodi:role="line"
         style="font-size:45px;line-height:1.20000005"
         x="2123.2803"
         y="1878.3798"
         id="tspan53">Ha a che fare con</tspan><tspan
         sodipodi:role="line"
         style="font-size:45px;line-height:1.20000005"
         x="2123.2803"
         y="1932.3798"
         id="tspan871">le mie preoccupazioni</tspan><tspan
         sodipodi:role="line"
         style="font-size:45px;line-height:1.20000005"
         x="2123.2803"
         y="1949.7883"
         id="tspan59" /><tspan
         sodipodi:role="line"
         style="font-size:45px;line-height:1.20000005"
         x="2123.2803"
         y="1986.3798"
         id="tspan66">sulla mia</tspan><tspan
         sodipodi:role="line"
         style="font-size:45px;line-height:1.20000005"
         x="2123.2803"
         y="2040.3798"
         id="tspan873">incoronazione.</tspan></text>
    <text
       xml:space="preserve"
       style="font-style:normal;font-variant:normal;font-weight:normal;font-stretch:normal;line-height:0%;font-family:Lavi;-inkscape-font-specification:Lavi;text-align:center;letter-spacing:0px;word-spacing:0px;text-anchor:middle;fill:#000000;fill-opacity:1;stroke:none"
       x="474.53574"
       y="2461.4622"
       id="text4246-3-3"><tspan
         sodipodi:role="line"
         style="font-size:45px;line-height:1.20000005"
         x="474.53574"
         y="2461.4622"
         id="tspan65-1">Permettetemi di</tspan><tspan
         sodipodi:role="line"
         style="font-size:45px;line-height:1.20000005"
         x="474.53574"
         y="2515.4622"
         id="tspan111">presentarvi la mia</tspan><tspan
         sodipodi:role="line"
         style="font-size:45px;line-height:1.20000005"
         x="474.53574"
         y="2569.4622"
         id="tspan113">nuova invenzione…</tspan></text>
    <text
       xml:space="preserve"
       style="font-style:normal;font-variant:normal;font-weight:normal;font-stretch:normal;line-height:0%;font-family:Lavi;-inkscape-font-specification:Lavi;text-align:center;letter-spacing:0px;word-spacing:0px;text-anchor:middle;fill:#000000;fill-opacity:1;stroke:none"
       x="1013.3394"
       y="2462.7529"
       id="text4246-3-3-2"><tspan
         sodipodi:role="line"
         style="font-style:normal;font-variant:normal;font-weight:normal;font-stretch:normal;font-size:32px;line-height:1.39999998;font-family:'Press Start 2P';-inkscape-font-specification:'Press Start 2P'"
         x="1013.3394"
         y="2462.7529"
         id="tspan113-9">Hello</tspan><tspan
         sodipodi:role="line"
         style="font-style:normal;font-variant:normal;font-weight:normal;font-stretch:normal;font-size:32px;line-height:1.39999998;font-family:'Press Start 2P';-inkscape-font-specification:'Press Start 2P'"
         x="1013.3394"
         y="2507.553"
         id="tspan144">world.</tspan></text>
    <text
       xml:space="preserve"
       style="font-style:normal;font-variant:normal;font-weight:normal;font-stretch:normal;line-height:0%;font-family:Lavi;-inkscape-font-specification:Lavi;text-align:center;letter-spacing:0px;word-spacing:0px;text-anchor:middle;fill:#000000;fill-opacity:1;stroke:none"
       x="1425.948"
       y="2493.7439"
       id="text4246-3-3-2-2"><tspan
         sodipodi:role="line"
         style="font-style:normal;font-variant:normal;font-weight:normal;font-stretch:normal;font-size:32px;line-height:1.39999998;font-family:'Press Start 2P';-inkscape-font-specification:'Press Start 2P'"
         x="1425.948"
         y="2493.7439"
         id="tspan144-3">Io sono il vostro</tspan><tspan
         sodipodi:role="line"
         style="font-style:normal;font-variant:normal;font-weight:normal;font-stretch:normal;font-size:32px;line-height:1.39999998;font-family:'Press Start 2P';-inkscape-font-specification:'Press Start 2P'"
         x="1425.948"
         y="2538.5439"
         id="tspan169">PSYCO-ROBOT</tspan><tspan
         sodipodi:role="line"
         style="font-style:normal;font-variant:normal;font-weight:normal;font-stretch:normal;font-size:32px;line-height:1.39999998;font-family:'Press Start 2P';-inkscape-font-specification:'Press Start 2P'"
         x="1425.948"
         y="2583.344"
         id="tspan171">bleep, bloop!</tspan></text>
    <text
       xml:space="preserve"
       style="font-style:normal;font-variant:normal;font-weight:normal;font-stretch:normal;line-height:0%;font-family:Lavi;-inkscape-font-specification:Lavi;text-align:center;letter-spacing:0px;word-spacing:0px;text-anchor:middle;fill:#000000;fill-opacity:1;stroke:none"
       x="2077.0667"
       y="2471.8889"
       id="text4246-3-3-2-2-7"><tspan
         sodipodi:role="line"
         style="font-style:normal;font-variant:normal;font-weight:normal;font-stretch:normal;font-size:32px;line-height:1.29999995;font-family:'Press Start 2P';-inkscape-font-specification:'Press Start 2P'"
         x="2077.0667"
         y="2471.8889"
         id="tspan171-0">Prego</tspan><tspan
         sodipodi:role="line"
         style="font-style:normal;font-variant:normal;font-weight:normal;font-stretch:normal;font-size:32px;line-height:1.29999995;font-family:'Press Start 2P';-inkscape-font-specification:'Press Start 2P'"
         x="2077.0667"
         y="2513.489"
         id="tspan875">accomodatevi</tspan><tspan
         sodipodi:role="line"
         style="font-style:normal;font-variant:normal;font-weight:normal;font-stretch:normal;font-size:32px;line-height:1.29999995;font-family:'Press Start 2P';-inkscape-font-specification:'Press Start 2P'"
         x="2077.0667"
         y="2555.0889"
         id="tspan202">sul mio lettino</tspan><tspan
         sodipodi:role="line"
         style="font-style:normal;font-variant:normal;font-weight:normal;font-stretch:normal;font-size:32px;line-height:1.29999995;font-family:'Press Start 2P';-inkscape-font-specification:'Press Start 2P'"
         x="2077.0667"
         y="2563.3767"
         id="tspan204" /><tspan
         sodipodi:role="line"
         style="font-style:normal;font-variant:normal;font-weight:normal;font-stretch:normal;font-size:32px;line-height:1.29999995;font-family:'Press Start 2P';-inkscape-font-specification:'Press Start 2P'"
         x="2077.0667"
         y="2596.689"
         id="tspan208">per un consulto</tspan><tspan
         sodipodi:role="line"
         style="font-style:normal;font-variant:normal;font-weight:normal;font-stretch:normal;font-size:32px;line-height:1.29999995;font-family:'Press Start 2P';-inkscape-font-specification:'Press Start 2P'"
         x="2077.0667"
         y="2638.2888"
         id="tspan879">gratuito.</tspan></text>
    <text
       xml:space="preserve"
       style="font-style:normal;font-variant:normal;font-weight:normal;font-stretch:normal;line-height:0%;font-family:Lavi;-inkscape-font-specification:Lavi;letter-spacing:0px;word-spacing:0px;fill:#000000;fill-opacity:1;stroke:#000000;stroke-width:2.15795588;stroke-miterlimit:4;stroke-dasharray:none;stroke-opacity:1;filter:url(#filter4375-4-1-1-1-9)"
       x="787.65729"
       y="1584.5073"
       id="text4580"
       transform="matrix(0.46879428,-0.12606586,-0.08654633,0.61214652,623.13411,2085.4411)"><tspan
         sodipodi:role="line"
         id="tspan4582"
         x="787.65729"
         y="1584.5073"
         style="font-style:normal;font-variant:normal;font-weight:bold;font-stretch:normal;font-size:80.40014648px;line-height:1.25;font-family:Lavi;-inkscape-font-specification:'Lavi Bold';fill:#ffffff;stroke-width:2.15795588">Click!</tspan></text>
    <text
       xml:space="preserve"
       style="font-style:normal;font-variant:normal;font-weight:normal;font-stretch:normal;line-height:0%;font-family:Lavi;-inkscape-font-specification:Lavi;letter-spacing:0px;word-spacing:0px;fill:#000000;fill-opacity:1;stroke:#000000;stroke-width:2.15795588;stroke-miterlimit:4;stroke-dasharray:none;stroke-opacity:1;filter:url(#filter4375-4-1-1-1-9-5)"
       x="787.65729"
       y="1584.5073"
       id="text4580-4"
       transform="matrix(0.46879428,-0.12606586,-0.08654633,0.61214652,2027.5227,1975.6976)"><tspan
         sodipodi:role="line"
         id="tspan4582-7"
         x="787.65729"
         y="1584.5073"
         style="font-style:normal;font-variant:normal;font-weight:bold;font-stretch:normal;font-size:80.40014648px;line-height:1.25;font-family:Lavi;-inkscape-font-specification:'Lavi Bold';fill:#ffffff;stroke-width:2.15795588">Tap!</tspan></text>
  </g>
</svg>
