<?xml version="1.0" encoding="UTF-8" standalone="no"?>
<svg
   xmlns:dc="http://purl.org/dc/elements/1.1/"
   xmlns:cc="http://creativecommons.org/ns#"
   xmlns:rdf="http://www.w3.org/1999/02/22-rdf-syntax-ns#"
   xmlns:svg="http://www.w3.org/2000/svg"
   xmlns="http://www.w3.org/2000/svg"
   xmlns:xlink="http://www.w3.org/1999/xlink"
   xmlns:sodipodi="http://sodipodi.sourceforge.net/DTD/sodipodi-0.dtd"
   xmlns:inkscape="http://www.inkscape.org/namespaces/inkscape"
   id="svg2"
   version="1.1"
   inkscape:version="1.0.2-2 (e86c870879, 2021-01-15)"
   width="2481"
   height="3503"
   sodipodi:docname="E34P05.svg">
  <metadata
     id="metadata8">
    <rdf:RDF>
      <cc:Work
         rdf:about="">
        <dc:format>image/svg+xml</dc:format>
        <dc:type
           rdf:resource="http://purl.org/dc/dcmitype/StillImage" />
        <dc:title />
      </cc:Work>
    </rdf:RDF>
  </metadata>
  <defs
     id="defs6">
    <filter
       style="color-interpolation-filters:sRGB"
       id="filter4375-4-1-1-1-9-5-8-8-5-5-3-3"
       inkscape:label="soundFX1">
      <feFlood
         id="feFlood4377-7-9-0-8-1-7-3-1-2-7-6-6"
         flood-opacity="1"
         flood-color="rgb(52,52,52)"
         result="flood" />
      <feComposite
         id="feComposite4379-3-8-8-2-77-4-1-0-6-4-7-7"
         in2="SourceGraphic"
         in="flood"
         operator="in"
         result="composite1"
         baseFrequency="0.053999999999999999 0.053999999999999999" />
      <feMorphology
         id="feMorphology4393-1-0-49-8-9-3-0-1-9-9-5-5"
         operator="dilate"
         radius="4.0330969769021738"
         result="result3" />
      <feComposite
         id="feComposite4385-9-5-7-0-8-8-7-5-4-9-3-3"
         in2="result3"
         in="SourceGraphic"
         operator="over"
         result="fbSourceGraphic" />
      <feColorMatrix
         result="fbSourceGraphicAlpha"
         in="fbSourceGraphic"
         values="0 0 0 -1 0 0 0 0 -1 0 0 0 0 -1 0 0 0 0 1 0"
         id="feColorMatrix4544-9-4-4-5-5" />
      <feTurbulence
         id="feTurbulence4546-3-6-5-6-6"
         type="fractalNoise"
         numOctaves="4"
         seed="147"
         baseFrequency="0.053999999999999999 0.054054054054054057"
         result="turbulence" />
      <feDisplacementMap
         id="feDisplacementMap4548-8-0-9-2-2"
         in2="turbulence"
         in="fbSourceGraphic"
         scale="10.561763"
         yChannelSelector="G"
         xChannelSelector="R"
         result="fbSourceGraphic" />
      <feColorMatrix
         result="fbSourceGraphicAlpha"
         in="fbSourceGraphic"
         values="0 0 0 -1 0 0 0 0 -1 0 0 0 0 -1 0 0 0 0 1 0"
         id="feColorMatrix4670-7-7-3-9-9" />
      <feFlood
         id="feFlood4672-4-4-5-1-1"
         flood-opacity="1"
         flood-color="rgb(28,28,28)"
         result="flood"
         in="fbSourceGraphic" />
      <feComposite
         id="feComposite4674-8-3-7-2-2"
         in2="fbSourceGraphic"
         in="flood"
         operator="in"
         result="composite1" />
      <feGaussianBlur
         id="feGaussianBlur4676-3-7-08-7-7"
         in="composite1"
         stdDeviation="0"
         result="blur" />
      <feOffset
         id="feOffset4678-6-9-1-0-0"
         dx="-10.48377497279229"
         dy="0.39217365321829334"
         result="offset" />
      <feComposite
         id="feComposite4680-4-0-9-9-9"
         in2="offset"
         in="fbSourceGraphic"
         operator="over"
         result="composite2" />
    </filter>
    <filter
       inkscape:collect="always"
       style="color-interpolation-filters:sRGB"
       id="filter1624"
       x="-0.066465521"
       width="1.132931"
       y="-0.12921093"
       height="1.2584219">
      <feGaussianBlur
         inkscape:collect="always"
         stdDeviation="4.7367523"
         id="feGaussianBlur1626" />
    </filter>
    <filter
       inkscape:collect="always"
       style="color-interpolation-filters:sRGB"
       id="filter1624-1"
       x="-0.066465519"
       width="1.132931"
       y="-0.12921093"
       height="1.2584219">
      <feGaussianBlur
         inkscape:collect="always"
         stdDeviation="4.7367523"
         id="feGaussianBlur1626-9" />
    </filter>
    <filter
       inkscape:collect="always"
       style="color-interpolation-filters:sRGB"
       id="filter1624-1-7"
       x="-0.066465519"
       width="1.132931"
       y="-0.12921093"
       height="1.2584219">
      <feGaussianBlur
         inkscape:collect="always"
         stdDeviation="4.7367523"
         id="feGaussianBlur1626-9-8" />
    </filter>
  </defs>
  <sodipodi:namedview
     pagecolor="#ffffff"
     bordercolor="#666666"
     borderopacity="1"
     objecttolerance="10"
     gridtolerance="10"
     guidetolerance="10"
     inkscape:pageopacity="0"
     inkscape:pageshadow="2"
     inkscape:window-width="2560"
     inkscape:window-height="1390"
     id="namedview4"
     showgrid="false"
     inkscape:zoom="0.26450001"
     inkscape:cx="1796.8886"
     inkscape:cy="1926.511"
     inkscape:window-x="0"
     inkscape:window-y="24"
     inkscape:window-maximized="1"
     inkscape:current-layer="layer1"
     inkscape:document-rotation="0"
     inkscape:snap-global="false"
     borderlayer="true" />
  <g
     inkscape:groupmode="layer"
     id="layer2"
     inkscape:label="artwork"
     sodipodi:insensitive="true">
    <image
       sodipodi:absref="C:\Users\stero\Documents\Kernewek\Pepper and Carrot\webcomics\new-ep34_The-Knighting-of-Shichimi\lang\gfx_Pepper-and-Carrot_by-David-Revoy_E34P05.png"
       xlink:href="../gfx_Pepper-and-Carrot_by-David-Revoy_E34P05.png"
       y="0"
       x="0"
       id="image10"
       height="3503"
       width="2481" />
  </g>
  <g
     inkscape:groupmode="layer"
     id="layer3"
     inkscape:label="speechbubbles"
     style="display:inline">
    <path
       style="display:inline;fill:#ffffff;fill-rule:evenodd;stroke:none;stroke-width:1.15361px;stroke-linecap:butt;stroke-linejoin:miter;stroke-opacity:1"
       d="m 2151.0717,845.63173 c -28.3337,0.0437 -56.6365,1.71396 -84.823,4.37725 -15.0032,1.12217 -29.4755,5.41603 -43.7344,9.73518 -13.3358,4.27526 -26.6512,8.88101 -39.0476,15.25976 -16.0523,8.51113 -30.4331,21.03894 -37.6825,37.32747 -6.0888,13.05538 -9.6692,27.02366 -12.4608,41.00167 -4.1793,27.08009 2.7926,56.11584 21.2414,77.48714 21.0653,24.9308 54.3711,39.6244 87.9324,40.2364 70.7979,6.2304 142.4983,8.6769 213.1066,-0.8354 23.6549,-3.2627 47.4905,-10.1908 66.4668,-24.4259 20.7839,-15.8171 31.9255,-41.301 31.7617,-66.29475 0.1017,-23.70521 -10.1202,-46.73696 -25.8984,-64.87963 -18.7816,-22.12941 -44.7428,-37.88058 -72.3128,-48.45815 -26.7721,-10.67283 -55.1388,-18.38972 -84.2451,-20.01511 -6.7572,-0.43467 -13.5325,-0.58715 -20.3043,-0.51593 z"
       id="path1076"
       inkscape:connector-curvature="0" />
    <path
       style="color:#000000;display:inline;overflow:visible;visibility:visible;fill:#ffffff;fill-opacity:1;fill-rule:nonzero;stroke:none;stroke-width:1.3148px;marker:none;enable-background:accumulate"
       d="m 1428.3359,65.11936 c -17.4739,0.764624 -33.9438,8.342366 -51.7052,6.190908 -13.5923,-1.151128 -28.6989,-1.131898 -40.1845,5.730322 -10.1979,6.457485 -15.4914,16.688047 -18.2438,26.66518 -2.7629,11.20767 -2.7947,22.69386 -3.7368,34.05916 -2.3167,44.95795 3.6249,89.80052 5.8333,134.67899 1.1212,18.62863 2.1958,37.52125 8.6503,55.534 2.6591,5.28244 8.461,9.03211 14.002,12.31451 9.986,5.36551 21.2245,8.91887 32.1014,12.89356 33.6218,11.07671 70.0113,14.67069 105.8597,17.58844 47.6939,3.06156 95.1741,-3.30515 142.5674,-6.65163 27.2304,-2.28199 55.2912,-5.0419 79.8449,-15.53963 23.5389,-10.82706 39.6102,-29.61086 50.6191,-49.18853 15.8279,-27.68217 22.4633,-59.56307 13.7868,-89.54657 -7.1937,-26.9673 -19.2131,-53.99955 -41.8965,-75.07499 -14.93,-13.68514 -34.9453,-23.36957 -56.4439,-28.6562 -22.5258,-6.254067 -45.4883,-11.497364 -67.6178,-18.664986 -25.47,-7.566987 -51.8893,-13.384237 -78.9735,-15.409558 -22.8567,-2.041986 -45.7862,-3.543911 -68.6015,-5.882804 -8.5944,-0.668373 -17.2238,-1.110667 -25.8614,-1.040172 z"
       id="path4546-6-5-5"
       inkscape:connector-curvature="0"
       sodipodi:nodetypes="cssssccccccccccccc" />
    <path
       style="color:#000000;display:inline;overflow:visible;visibility:visible;fill:#ffffff;fill-opacity:1;fill-rule:nonzero;stroke:none;stroke-width:0.633143px;marker:none;enable-background:accumulate"
       d="m 659.92943,769.71094 c -13.64826,0.9647 -27.61376,3.61674 -39.19627,10.49777 -9.17783,6.01073 -17.40233,13.16759 -24.77667,20.92215 -7.35443,7.92618 -13.82257,16.68654 -17.90735,26.37998 -3.49107,10.49958 -1.50032,21.73717 1.98149,32.01289 3.13845,8.96948 8.52443,17.87175 17.51694,23.07197 7.70718,4.14841 17.01324,4.36127 25.72902,3.9754 10.50392,-0.29273 21.34739,0.27025 31.08688,4.15103 10.04021,3.43181 20.219,7.73729 31.20567,7.43852 15.28583,-0.35998 29.69774,-6.06737 42.58961,-13.09874 16.36124,-9.08988 29.74332,-23.24144 35.00037,-40.07628 3.15318,-10.03042 2.7456,-20.87049 -0.93317,-30.74109 -3.34403,-9.29937 -8.85944,-18.10356 -16.65112,-24.96219 -6.37393,-5.42623 -14.6407,-8.71524 -23.1609,-10.30244 -11.94194,-2.41067 -24.32294,-2.58388 -36.1523,-5.52158 -8.66662,-1.66324 -17.35246,-4.45051 -26.3322,-3.74739 z"
       id="path4040-41"
       inkscape:connector-curvature="0"
       sodipodi:nodetypes="zssssz" />
    <path
       style="color:#000000;display:inline;overflow:visible;visibility:visible;fill:#ffffff;fill-opacity:1;fill-rule:nonzero;stroke:none;stroke-width:0.888689px;marker:none;enable-background:accumulate"
       d="m 563.61538,294.92188 c -27.31436,0.52894 -54.90921,1.20542 -81.64412,10.07138 -7.86181,2.5029 -15.53982,7.05158 -21.67109,14.64504 -5.84324,6.92199 -10.58373,16.57887 -11.26182,27.62133 -0.7526,10.00446 0.42848,20.03515 1.57281,29.88295 1.5433,10.72435 4.9668,21.50126 11.32494,28.10742 7.87302,8.67822 17.51976,12.92409 26.73475,17.75407 18.79817,8.97683 38.80848,10.74304 58.49527,10.72165 30.78314,0.24417 61.61502,-2.07645 92.11649,-8.12962 13.9537,-3.52183 27.08239,-15.03886 34.78122,-32.15893 4.66723,-10.8684 6.43025,-24.51234 3.81384,-36.83872 -4.58463,-25.29193 -19.81993,-45.27497 -37.36992,-51.78308 -11.53288,-4.49459 -23.50695,-5.75471 -35.34221,-7.66458 -13.812,-1.76751 -27.68722,-2.30343 -41.55016,-2.22891 z"
       id="path4040-4-5-3-6"
       inkscape:connector-curvature="0"
       sodipodi:nodetypes="zssssz" />
    <path
       style="fill:#ffffff;fill-rule:evenodd;stroke:none;stroke-width:1.18912px;stroke-linecap:butt;stroke-linejoin:miter;stroke-opacity:1"
       d="m 559.96582,115.87537 c -34.75413,0.06 -69.40241,2.8147 -104.13958,3.42681 -32.71314,0.84502 -65.59264,1.35134 -97.96022,5.90823 -23.59543,3.13687 -46.63169,10.8338 -65.5593,23.47331 -9.38468,6.22774 -17.13362,14.01096 -24.89204,21.65588 -7.69319,7.95388 -14.96571,16.45959 -19.42515,26.13538 -6.89594,15.90957 -6.93736,33.60907 -2.25245,49.97304 4.1765,13.49569 13.83451,25.61939 26.90124,33.91414 14.81188,9.66713 32.59349,15.32538 50.49287,19.16744 27.14252,5.43648 55.16833,5.41581 82.85569,6.60693 85.64299,2.79181 171.3634,0.29158 256.94673,-2.76757 39.23596,-2.1954 78.83983,-4.74322 116.81724,-14.0351 17.79299,-6.93639 31.83451,-19.50206 42.29551,-33.44455 9.14564,-14.08632 10.66302,-30.81679 8.76695,-46.59384 -2.02429,-20.68371 -13.46628,-40.82827 -32.29561,-54.019 -24.54369,-18.88432 -56.51607,-29.66935 -88.9986,-33.0504 -23.34978,-2.8886 -46.85826,-5.09385 -70.45072,-5.66153 -22.99381,-0.0157 -45.98142,-0.50445 -68.97297,-0.68357 -3.37649,-0.0229 -6.75305,-0.007 -10.12959,-0.006 z"
       id="path1299"
       inkscape:connector-curvature="0" />
    <path
       style="color:#000000;display:inline;overflow:visible;visibility:visible;fill:#ffffff;fill-opacity:1;fill-rule:nonzero;stroke:none;stroke-width:1px;marker:none;enable-background:accumulate"
       d="m 601.64274,401.13421 c -14.17455,40.88456 44.77094,72.82978 100.67006,54.05497 -23.16137,8.79652 -79.7912,49.66875 -144.52484,-46.85819 -30.03766,-44.79037 28.99451,-4.6799 28.99451,-4.6799 z"
       id="path4035-4"
       inkscape:connector-curvature="0"
       sodipodi:nodetypes="ccscc" />
    <path
       style="color:#000000;display:inline;overflow:visible;visibility:visible;fill:#ffffff;fill-opacity:1;fill-rule:nonzero;stroke:none;stroke-width:0.65663px;marker:none;enable-background:accumulate"
       d="m 611.41244,701.29174 c 17.11413,0.19349 18.72502,1.92575 19.18724,12.28702 0.46185,10.36191 -1.67076,26.02679 10.09463,35.89667 11.76506,9.87056 19.1963,13.36617 25.49665,11.79439 -5.19491,13.1306 -2.83584,31.62853 -10.75775,36.51466 -7.9219,4.88611 26.05967,-2.07377 26.05967,-2.07377 0,0 9.21399,-27.86213 6.82755,-44.34007 -2.3864,-16.4779 -28.23087,-11.38908 -37.42309,-16.46871 -9.19219,-5.07958 -7.20814,-26.722 -13.49221,-32.72081 -6.28377,-5.99953 -17.59228,-2.98484 -25.99269,-0.88938 z"
       id="path4538-7"
       inkscape:connector-curvature="0"
       sodipodi:nodetypes="ccscccsscc" />
    <path
       style="color:#000000;display:inline;overflow:visible;visibility:visible;fill:#ffffff;fill-opacity:1;fill-rule:nonzero;stroke:none;stroke-width:1.19537px;marker:none;enable-background:accumulate"
       d="m 1598.5835,596.86203 c 14.1467,-15.85924 29.0076,-32.117 38.4486,-55.58388 2.5984,-6.75002 4.9981,-13.98657 6.0756,-21.5546 0.016,-8.14174 -3.8969,-14.3815 -8.4908,-16.93512 -6.4361,-4.43445 -14.5628,-4.76971 -19.4026,-13.393 -3.4195,-6.42147 -1.8272,-15.50276 -0.9156,-23.25338 2.5699,-19.71015 6.8395,-39.17469 7.4104,-59.2099 1.5793,-22.59311 2.1988,-46.43257 -3.7408,-66.90177 -2.4394,-8.02785 -5.7341,-15.81305 -10.8601,-20.05141 -12.7918,-11.84237 -30.6307,-11.87103 -43.8564,2.37188 -7.9407,10.28188 -10.3193,30.66403 -3.5557,42.04919 3.5085,6.09962 9.2515,7.21384 14.4155,5.83003 9.6748,0.20735 18.2991,9.25231 22.6959,22.10221 3.7428,10.4994 5.2552,22.96229 4.6927,35.32458 2.0644,16.82151 -3.5504,33.27821 -6.6517,49.40796 -1.3509,7.39329 -2.467,15.36927 -1.4466,22.73647 3.0779,9.78985 10.5313,12.41441 17.0498,13.47466 6.6944,1.3682 14.6099,1.75719 18.9566,10.61716 3.5752,5.45402 -0.1424,13.39074 -1.3852,19.71446 -5.6681,19.72501 -15.0865,36.84601 -26.0468,50.09653 -1.0987,1.14644 -2.2436,2.15358 -3.3927,3.15787 z"
       id="path4496-9"
       inkscape:connector-curvature="0"
       inkscape:transform-center-x="21.004464"
       inkscape:transform-center-y="-36.021859" />
    <path
       style="color:#000000;display:inline;overflow:visible;visibility:visible;fill:#ffffff;fill-opacity:1;fill-rule:nonzero;stroke:none;stroke-width:1.03729px;marker:none;enable-background:accumulate"
       d="m 2109.2559,751.99134 c -20.4103,6.10083 -40.0468,16.85113 -53.8,33.41265 -10.7709,14.46078 -16.5835,31.98514 -19.9326,49.53175 -1.4068,8.93082 -2.2092,18.35818 0.5,27.10829 3.2554,6.18918 11.8987,8.09797 17.7559,4.53442 7.5966,-3.5917 11.8306,-12.98928 9.3278,-21.03888 -1.6093,-16.53808 1.3652,-33.26989 6.7533,-48.89003 5.7833,-15.14652 16.5635,-28.06938 29.7192,-37.41611 3.7487,-2.79439 7.6932,-5.31046 11.6413,-7.81045 -0.655,0.18946 -1.3099,0.37891 -1.9649,0.56836 z"
       id="path5010-4"
       inkscape:connector-curvature="0"
       sodipodi:nodetypes="ccsc" />
    <path
       style="fill:#ffffff;stroke:none;stroke-width:1.00962"
       d="m 1694.6966,1472.3525 c -45.2399,1.9207 -89.88,23.5759 -116.9189,59.5519 -10.3545,14.1662 -14.9862,31.5853 -16.061,48.8011 -2.6607,26.1893 -2.2577,52.5488 -2.6945,78.8283 0.848,18.42 7.3076,37.3301 21.215,50.2307 17.3346,17.5119 41.5517,26.7038 65.7103,30.6406 38.0695,7.059 77.0071,5.6894 115.5163,4.3047 30.2772,-1.6408 61.4003,-8.243 86.5428,-25.6654 20.7623,-14.2178 35.9747,-36.832 38.7768,-61.7555 3.0873,-23.3392 -0.8243,-46.7948 -3.8998,-69.9242 -3.7,-23.9268 -10.133,-48.3988 -25.3614,-67.9404 -18.9343,-24.1142 -48.5635,-38.5823 -78.9201,-42.8707 -27.7199,-4.3314 -55.9144,-4.3212 -83.9055,-4.2011 z"
       id="path3280-10"
       inkscape:connector-curvature="0"
       sodipodi:nodetypes="csssc" />
    <path
       style="color:#000000;display:inline;overflow:visible;visibility:visible;fill:#ffffff;fill-opacity:1;fill-rule:nonzero;stroke:none;stroke-width:0.730994px;marker:none;enable-background:accumulate"
       d="m 1701.3359,1182.3633 c -23.6044,0.4972 -47.5014,8.2194 -65.537,23.7485 -16.8972,15.2472 -21.3862,42.7399 -9.3936,62.2553 7.3737,12.546 20.5403,20.6735 34.317,24.5048 22.0738,8.2236 45.7993,10.6274 69.1919,11.348 21.8322,0.47 44.2156,-1.001 64.7362,-9.0519 13.7438,-5.6802 26.0669,-16.1754 31.5122,-30.2834 6.1857,-15.1026 4.6669,-33.4624 -5.1548,-46.703 -9.4277,-13.4338 -24.3106,-21.9676 -39.6896,-26.8896 -23.7701,-7.8332 -49.0614,-8.7336 -73.8752,-8.9512 -2.0358,-7e-4 -4.0715,-0.013 -6.1071,0.023 z"
       id="path4546-6-89"
       inkscape:connector-curvature="0"
       sodipodi:nodetypes="cssssc" />
    <path
       style="fill:#ffffff;fill-rule:evenodd;stroke:none;stroke-width:0.479277px;stroke-linecap:butt;stroke-linejoin:miter;stroke-opacity:1"
       d="m 893.13501,1534.7305 c 27.51836,-11.7764 54.23289,-20.9661 71.61477,-23.4902 -3.55561,10.1642 -5.56972,16.3128 -14.89804,25.0191 24.30441,1.9047 70.63976,-18.9809 95.44776,-31.1705 -33.9587,5.7956 -60.1404,12.1497 -70.78238,13.5607 4.97656,-8.3585 6.96879,-14.5328 9.86224,-23.8449 -15.1281,3.6171 -70.65358,12.0504 -83.85269,9.4593 -13.19922,-2.5913 -7.39166,30.4665 -7.39166,30.4665 z"
       id="path1305"
       inkscape:connector-curvature="0"
       sodipodi:nodetypes="ccccccsc" />
    <path
       style="fill:#ffffff;fill-opacity:1;fill-rule:evenodd;stroke:none;stroke-width:1.1227px;stroke-linecap:butt;stroke-linejoin:miter;stroke-opacity:1"
       d="m 465.74707,1604.142 c 28.87183,-11.4902 24.32313,31.7645 7.08566,95.7682 19.83535,-46.6609 58.62076,-59.5973 24.69692,29.134 53.33209,-66.2804 91.37058,-93.6413 83.00707,-2.9164 70.72385,-86.8752 74.65488,-46.3996 69.66817,11.079 28.08575,-82.5868 54.57913,-91.6345 79.14209,-11.5312 -6.93201,-85.2682 30.95517,-82.97 111.70601,3.0739 -36.07719,-90.0153 8.61948,-57.943 53.75735,-25.2037 -37.94547,-77.05 14.27698,-34.3138 34.75897,-33.744 -76.36992,-118.9668 -11.22818,-73.9763 29.89142,-56.8182 -39.46749,-33.5786 -58.64539,-64.4987 9.88191,-75.0782 -60.75668,-13.1607 -35.2302,-41.6012 24.24399,-74.4947 -32.45545,5.5676 -94.63626,-16.7577 12.21427,-49.5814 -41.56582,5.8999 -82.33845,-14.0405 -34.95925,-37.4486 -15.60965,5.1587 -101.52369,-3.8978 -31.53248,-33.3314 -43.29633,6.072 -58.96456,3.2927 38.1249,-35.6114 -150.7151,33.8298 -41.25336,-18.1851 -14.86102,-42.7915 -62.25583,19.8725 -167.4658,83.7547 -78.41792,-51.3949 -124.10967,134.7927 -109.53608,54.0337 -102.58613,-14.8761 -42.77091,108.1018 -57.68546,93.415 -61.35602,29.1659 -19.97379,41.4143 -22.58532,11.5726 -24.77223,-20.0118 -19.92787,59.5307 -39.28645,91.6614 -55.98572,-4.1986 -9.18339,110.7904 -41.61144,89.2446 -79.15518,38.5745 6.77104,39.1688 -14.43617,20.9051 -45.11533,-16.8021 25.30032,99.9962 -23.64469,76.3595 -40.67727,49.3284 13.49987,38.3114 19.42837,62.5717 -2.44747,35.2325 13.27872,52.9328 14.69227,85.4753 -8.1228,76.3809 26.82013,42.9684 18.18516,38.5741 7.96165,32.0575 10.06784,20.5332 7.71873,43.1289 -10.5109,54.7576 9.5137,18.8771 27.87758,34.8049 3.88482,64.8478 20.75982,-3.8373 22.61196,2.89 1.12563,22.6577 29.51571,-23.0682 16.91582,7.2084 -0.65111,43.7763 z"
       id="path1798"
       sodipodi:nodetypes="cccccccccccccccccccccccccccccccc" />
    <path
       style="fill:#ffffff;fill-rule:evenodd;stroke:none;stroke-width:0.960637px;stroke-linecap:butt;stroke-linejoin:miter;stroke-opacity:1"
       d="m 1778.0933,1289.0282 c 0,0 -3.9407,28.9212 8.0996,38.6226 12.0408,9.7023 15.4867,13.5023 36.0798,21.9048 -30.1647,-5.7228 -44.5902,-13.4046 -52.5226,-23.226 -7.9325,-9.8214 -20.0355,-30.3233 -22.8091,-36.2438 -2.7736,-5.9205 31.1523,-1.0576 31.1523,-1.0576 z"
       id="path1359"
       inkscape:connector-curvature="0" />
    <path
       style="fill:#ffffff;fill-rule:evenodd;stroke:none;stroke-width:1.51642px;stroke-linecap:butt;stroke-linejoin:miter;stroke-opacity:1"
       d="m 1879.5739,1605.0433 c 0,0 29.1528,33.6868 52.9454,28.1474 23.7942,-5.5388 31.7815,-6.1077 63.0487,-23.7148 -38.2213,32.3304 -62.191,42.8809 -81.8135,43.1241 -19.6227,0.2433 -55.9116,-4.864 -65.6341,-7.2483 -9.7228,-2.3842 31.4535,-40.3084 31.4535,-40.3084 z"
       id="path1359-6"
       inkscape:connector-curvature="0" />
    <path
       style="fill:#ffffff;fill-rule:evenodd;stroke:none;stroke-width:1.04628px;stroke-linecap:butt;stroke-linejoin:miter;stroke-opacity:1;filter:url(#filter1624-1-7)"
       d="m 304.54727,1936.8855 c 5.39109,-32.111 32.34599,-42.814 51.75368,-46.025 19.40768,-3.211 83.0216,-3.211 100.27283,9.633 17.25112,12.844 22.6421,36.392 16.17294,43.884 -6.46926,7.493 -15.09476,29.97 -38.81515,31.04 -23.7206,1.071 -74.39599,5.352 -94.88185,-6.422 -20.48586,-11.774 -36.6588,-14.985 -34.50245,-32.11 z"
       id="path1285-4-4"
       inkscape:connector-curvature="0"
       transform="matrix(1.2257744,0,0,1.060297,78.802093,-33.662704)" />
    <path
       style="fill:#ffffff;fill-rule:evenodd;stroke:none;stroke-width:1.04628px;stroke-linecap:butt;stroke-linejoin:miter;stroke-opacity:1;filter:url(#filter1624-1)"
       d="m 304.54727,1936.8855 c 5.39109,-32.111 32.34599,-42.814 51.75368,-46.025 19.40768,-3.211 83.0216,-3.211 100.27283,9.633 17.25112,12.844 22.6421,36.392 16.17294,43.884 -6.46926,7.493 -15.09476,29.97 -38.81515,31.04 -23.7206,1.071 -74.39599,5.352 -94.88185,-6.422 -20.48586,-11.774 -36.6588,-14.985 -34.50245,-32.11 z"
       id="path1285-4"
       inkscape:connector-curvature="0"
       transform="matrix(1.1958956,0,0,0.97870713,-64.882445,39.800192)" />
    <path
       style="fill:#ffffff;fill-rule:evenodd;stroke:none;stroke-width:1.04628px;stroke-linecap:butt;stroke-linejoin:miter;stroke-opacity:1;filter:url(#filter1624)"
       d="m 115.7959,1883.6103 c 5.39109,-32.111 32.34599,-42.814 51.75368,-46.025 19.40768,-3.211 83.0216,-3.211 100.27283,9.633 17.25112,12.844 22.6421,36.392 16.17294,43.884 -6.46926,7.493 -15.09476,29.97 -38.81515,31.04 -23.7206,1.071 -74.39599,5.352 -94.88185,-6.422 -20.48586,-11.774 -36.6588,-14.985 -34.50245,-32.11 z"
       id="path1285"
       inkscape:connector-curvature="0"
       transform="matrix(1.0933918,0,0,0.98960959,-10.339256,19.531819)" />
    <path
       style="color:#000000;display:inline;overflow:visible;visibility:visible;fill:#ffffff;fill-opacity:1;fill-rule:nonzero;stroke:none;stroke-width:0.921112px;marker:none;enable-background:accumulate"
       d="m 1254.4333,2397.7706 c -36.2286,-32.2998 -77.602,-59.113 -107.8532,-97.7871 l 6.9677,43.9112 c -17.7743,-7.7018 -29.1706,-25.5756 -42.7328,-39.995 l -0.057,27.888 c -41.735,-18.7232 -69.4761,-51.7603 -103.9811,-77.8792 l 3.6604,48.6148 c 37.8851,22.0665 78.7581,37.3542 113.2821,67.0437 l 2.7503,-27.2332 c 13.303,8.4793 26.3021,17.5344 37.9439,29.1641 l 0.5073,-34.5085 z"
       id="path4032-8"
       inkscape:connector-curvature="0"
       sodipodi:nodetypes="cccccccccccc" />
    <path
       style="opacity:1;fill:#ffffff;fill-rule:evenodd;stroke:none;stroke-width:1.16739px;stroke-linecap:butt;stroke-linejoin:miter;stroke-opacity:1"
       d="m 630.29658,2153.9416 c 73.54873,-3.71 73.77945,-22.4352 22.51712,-51.7058 37.1499,0.1363 24.51855,-18.1251 -1.78898,-41.4407 98.13959,28.7105 115.29078,-20.5013 87.57305,-77.5544 79.01841,67.1697 79.95114,28.4005 108.74018,-53.0521 16.42727,29.9734 38.16461,122.8095 130.28916,42.4068 -15.88419,66.9216 33.90559,20.6134 73.69359,-2.719 7.1358,9.6409 -64.52513,65.2732 39.7968,-3.6887 -75.2882,91.4191 41.0091,16.1788 77.0633,-9.148 -37.4687,43.2369 -119.7376,108.039 -9.4074,83.1286 -80.2329,50.0208 -9.295,31.1958 26.436,28.9061 -45.3163,20.7975 -47.1049,41.3996 -0.9072,33.0705 -67.3524,38.9217 -14.9284,42.1844 17.5239,43.3438 -25.2395,2.9798 -87.3955,20.0724 -7.209,23.576 -55.4161,12.4278 -39.1436,45.5628 -31.2141,59.1169 -61.2993,-4.7181 -17.79,40.6656 5.0483,69.9104 -42.3276,-12.5236 -108.3244,-44.8665 -61.669,12.2481 -103.7908,-34.1395 -62.873,0.6718 -39.7413,42.03 -76.18146,-34.6571 -87.86558,-51.5284 -111.22986,-22.8562 -25.76184,-24.1043 -30.34039,-2.9812 -38.26637,22.5971 -15.87571,-51.6999 -42.87021,-20.2628 -71.55388,11.0334 -14.86278,-53.8683 -44.14893,-31.2483 -71.58559,-16.6774 0.10966,-61.8923 -36.89344,-46.8638 -111.6806,-0.897 58.72891,-43.2544 90.8842,-86.0991 -6.52522,-60.8009 31.28856,-12.5883 60.48102,-50.4679 18.79393,-36.7051 18.61106,-9.5615 36.11779,-31.2999 -19.13125,-25.1166 51.43912,-13.261 45.26997,-23.9727 -10.60752,-32.4844 96.19963,-11.8787 53.18621,-24.677 -14.95806,-36.5214 z"
       id="path523"
       sodipodi:nodetypes="cccccccccccccccccccccccccccc" />
  </g>
  <g
     inkscape:groupmode="layer"
     id="layer1"
     inkscape:label="txt">
    <text
       xml:space="preserve"
       style="font-style:normal;font-variant:normal;font-weight:normal;font-stretch:normal;font-size:45px;line-height:1.25;font-family:Lavi;-inkscape-font-specification:Lavi;text-align:center;letter-spacing:0px;word-spacing:0px;text-anchor:middle;fill:#000000;fill-opacity:1;stroke:none"
       x="548.5365"
       y="197.91747"
       id="text4246-3-2-2-6-3-7-9-3"><tspan
         style="font-size:45px"
         sodipodi:role="line"
         x="548.5365"
         y="197.91747"
         id="tspan919">Drog yw genev Pepper,</tspan><tspan
         style="font-size:45px"
         sodipodi:role="line"
         x="548.5365"
         y="254.16747"
         id="tspan94">mes res yw dhis mos.</tspan></text>
    <text
       xml:space="preserve"
       style="font-style:normal;font-variant:normal;font-weight:normal;font-stretch:normal;font-size:45px;line-height:1.25;font-family:Lavi;-inkscape-font-specification:Lavi;text-align:center;letter-spacing:0px;word-spacing:0px;text-anchor:middle;fill:#000000;fill-opacity:1;stroke:none"
       x="568.95776"
       y="378.66003"
       id="text4246-3-2-2-6-3-7-9-3-3"><tspan
         style="font-size:45px"
         sodipodi:role="line"
         x="568.95776"
         y="378.66003"
         id="tspan27-7">Lemmyn.</tspan></text>
    <text
       xml:space="preserve"
       style="font-style:normal;font-variant:normal;font-weight:normal;font-stretch:normal;font-size:45px;line-height:1.25;font-family:Lavi;-inkscape-font-specification:Lavi;text-align:center;letter-spacing:0px;word-spacing:0px;text-anchor:middle;fill:#000000;fill-opacity:1;stroke:none"
       x="676.57495"
       y="846.57025"
       id="text4246-3-2-2-6-3-7-9-3-3-5"><tspan
         style="font-size:45px"
         sodipodi:role="line"
         x="676.57495"
         y="846.57025"
         id="tspan27-7-3">Pyth?</tspan></text>
    <text
       xml:space="preserve"
       style="font-style:normal;font-variant:normal;font-weight:normal;font-stretch:normal;font-size:45px;line-height:1.25;font-family:Lavi;-inkscape-font-specification:Lavi;text-align:center;letter-spacing:0px;word-spacing:0px;text-anchor:middle;fill:#000000;fill-opacity:1;stroke:none"
       x="1536.1816"
       y="191.02321"
       id="text4246-3-2-2-6-3-7-9-3-3-56"><tspan
         style="font-size:45px"
         sodipodi:role="line"
         x="1536.1816"
         y="191.02321"
         id="tspan942">Ay dar, gorta</tspan><tspan
         style="font-size:45px"
         sodipodi:role="line"
         x="1536.1816"
         y="247.27321"
         id="tspan105">pols! Sur ov yma </tspan><tspan
         style="font-size:45px"
         sodipodi:role="line"
         x="1536.1816"
         y="303.52319"
         id="tspan107">kammgonvedhes.</tspan></text>
    <text
       xml:space="preserve"
       style="font-style:normal;font-variant:normal;font-weight:normal;font-stretch:normal;font-size:45px;line-height:1.25;font-family:Lavi;-inkscape-font-specification:Lavi;text-align:center;letter-spacing:0px;word-spacing:0px;text-anchor:middle;fill:#000000;fill-opacity:1;stroke:none"
       x="2146.061"
       y="923.79041"
       id="text4246-3-2-2-6-3-7-9-3-3-56-9"><tspan
         style="font-size:45px"
         sodipodi:role="line"
         x="2146.061"
         y="923.79041"
         id="tspan946">Pepper, my</tspan><tspan
         style="font-size:45px"
         sodipodi:role="line"
         x="2146.061"
         y="980.04041"
         id="tspan114">a'th pys, na wra</tspan><tspan
         style="font-size:45px"
         sodipodi:role="line"
         x="2146.061"
         y="1036.2904"
         id="tspan116">hemma kales.</tspan></text>
    <text
       xml:space="preserve"
       style="font-style:normal;font-variant:normal;font-weight:normal;font-stretch:normal;font-size:45px;line-height:1.25;font-family:Lavi;-inkscape-font-specification:Lavi;text-align:center;letter-spacing:0px;word-spacing:0px;text-anchor:middle;fill:#000000;fill-opacity:1;stroke:none"
       x="697.56104"
       y="1353.6949"
       id="text4246-3-2-2-6-3-7-9-3-3-56-9-3"><tspan
         style="font-size:45px"
         sodipodi:role="line"
         x="697.56104"
         y="1353.6949"
         id="tspan980">Hou! Ty, ena, war</tspan><tspan
         style="font-size:45px"
         sodipodi:role="line"
         x="697.56104"
         y="1409.9449"
         id="tspan136">an tron. Mara'th eus</tspan><tspan
         style="font-size:45px"
         sodipodi:role="line"
         x="697.56104"
         y="1466.1949"
         id="tspan138">kaletter genev vy,</tspan><tspan
         style="font-size:45px"
         sodipodi:role="line"
         x="697.56104"
         y="1522.4449"
         id="tspan140">deus war-nans ha'y</tspan><tspan
         style="font-size:45px"
         sodipodi:role="line"
         x="697.56104"
         y="1578.6949"
         id="tspan142">dherivas orthiv</tspan><tspan
         style="font-size:45px"
         sodipodi:role="line"
         x="697.56104"
         y="1634.9449"
         id="tspan144">dha honan!</tspan></text>
    <text
       xml:space="preserve"
       style="font-style:normal;font-variant:normal;font-weight:normal;font-stretch:normal;font-size:52.7307px;line-height:1.25;font-family:Lavi;-inkscape-font-specification:Lavi;text-align:center;letter-spacing:0px;word-spacing:0px;text-anchor:middle;fill:#000000;fill-opacity:1;stroke:none;stroke-width:1.17179"
       x="1726.7211"
       y="1258.5393"
       id="text4246-3-2-2-6-3-7-9-3-3-56-9-3-2"><tspan
         style="font-size:52.7307px;stroke-width:1.17179"
         sodipodi:role="line"
         x="1726.7211"
         y="1258.5393"
         id="tspan222-9">Tsss...</tspan></text>
    <text
       xml:space="preserve"
       style="font-style:normal;font-variant:normal;font-weight:normal;font-stretch:normal;font-size:45px;line-height:1.25;font-family:Lavi;-inkscape-font-specification:Lavi;text-align:center;letter-spacing:0px;word-spacing:0px;text-anchor:middle;fill:#000000;fill-opacity:1;stroke:none"
       x="1732.0173"
       y="1569.9558"
       id="text4246-3-2-2-6-3-7-9-3-3-56-9-3-20"><tspan
         style="font-size:45px"
         sodipodi:role="line"
         x="1732.0173"
         y="1569.9558"
         id="tspan334">Shichimi,</tspan><tspan
         style="font-size:45px"
         sodipodi:role="line"
         x="1732.0173"
         y="1626.2058"
         id="tspan151">ty a'th eus</tspan><tspan
         style="font-size:45px"
         sodipodi:role="line"
         x="1732.0173"
         y="1682.4558"
         id="tspan153">deg eylen...</tspan></text>
    <text
       xml:space="preserve"
       style="font-style:normal;font-variant:normal;font-weight:normal;font-stretch:normal;font-size:45px;line-height:1.25;font-family:Lavi;-inkscape-font-specification:Lavi;text-align:center;letter-spacing:0px;word-spacing:0px;text-anchor:middle;fill:#000000;fill-opacity:1;stroke:none"
       x="210.39514"
       y="1889.5347"
       id="text4246-3-2-2-6-3-7-9-3-3-56-9-3-20-2"><tspan
         style="font-size:45px"
         sodipodi:role="line"
         x="210.39514"
         y="1889.5347"
         id="tspan334-7">naw...</tspan></text>
    <text
       xml:space="preserve"
       style="font-style:normal;font-variant:normal;font-weight:normal;font-stretch:normal;font-size:45px;line-height:1.25;font-family:Lavi;-inkscape-font-specification:Lavi;text-align:center;letter-spacing:0px;word-spacing:0px;text-anchor:middle;fill:#000000;fill-opacity:1;stroke:none"
       x="399.80328"
       y="1942.1443"
       id="text4246-3-2-2-6-3-7-9-3-3-56-9-3-20-2-3"><tspan
         style="font-size:45px"
         sodipodi:role="line"
         x="399.80328"
         y="1942.1443"
         id="tspan334-7-6">eth...</tspan></text>
    <text
       xml:space="preserve"
       style="font-style:normal;font-variant:normal;font-weight:normal;font-stretch:normal;font-size:45px;line-height:1.25;font-family:Lavi;-inkscape-font-specification:Lavi;text-align:center;letter-spacing:0px;word-spacing:0px;text-anchor:middle;fill:#000000;fill-opacity:1;stroke:none"
       x="564.68182"
       y="2025.6428"
       id="text4246-3-2-2-6-3-7-9-3-3-56-9-3-20-2-3-1"><tspan
         style="font-size:45px"
         sodipodi:role="line"
         x="564.68182"
         y="2025.6428"
         id="tspan334-7-6-2">seyth...</tspan></text>
    <text
       xml:space="preserve"
       style="font-style:normal;font-variant:normal;font-weight:normal;font-stretch:normal;font-size:55.953px;line-height:1.25;font-family:Lavi;-inkscape-font-specification:Lavi;text-align:center;letter-spacing:0px;word-spacing:0px;text-anchor:middle;fill:#000000;fill-opacity:1;stroke:none;stroke-width:0.902468"
       x="1105"
       y="2098.5002"
       id="text4246-3-2-2-6-3-7-9-3-3-56-9-3-20-2-3-1-9"
       transform="skewX(-4.8400228)"><tspan
         style="font-style:normal;font-variant:normal;font-weight:bold;font-stretch:normal;font-size:55.953px;font-family:Lavi;-inkscape-font-specification:'Lavi Bold';stroke-width:0.902468"
         sodipodi:role="line"
         x="1105"
         y="2098.5002"
         id="tspan451">TAW,</tspan><tspan
         style="font-style:normal;font-variant:normal;font-weight:bold;font-stretch:normal;font-size:55.953px;font-family:Lavi;-inkscape-font-specification:'Lavi Bold';stroke-width:0.902468"
         sodipodi:role="line"
         x="1105"
         y="2168.4414"
         id="tspan457">PEPPER!</tspan><tspan
         style="font-style:normal;font-variant:normal;font-weight:bold;font-stretch:normal;font-size:55.953px;font-family:Lavi;-inkscape-font-specification:'Lavi Bold';stroke-width:0.902468"
         sodipodi:role="line"
         x="1105"
         y="2238.3828"
         id="tspan918">KE DHE-VES!!!</tspan></text>
    <text
       xml:space="preserve"
       style="font-style:normal;font-variant:normal;font-weight:normal;font-stretch:normal;font-size:180px;line-height:1.25;font-family:Lavi;-inkscape-font-specification:Lavi;letter-spacing:0px;word-spacing:0px;fill:#ffffff;fill-opacity:1;stroke:#ffffff;stroke-width:0.74524;stroke-miterlimit:4;stroke-dasharray:none;stroke-opacity:1;filter:url(#filter4375-4-1-1-1-9-5-8-8-5-5-3-3)"
       id="text4580-6-0-0-0-9-3-3"
       transform="matrix(0.88341196,-0.53750677,0,1.1213027,-74.551071,722.92786)"
       x="418.61386"
       y="279.76691"><textPath
         xlink:href="#path974"
         id="textPath2837"
         style="font-size:180px;stroke-width:0.74524"><tspan
           style="font-size:180px;fill:#ffffff;fill-opacity:1;stroke:#ffffff;stroke-width:0.74524;stroke-miterlimit:4;stroke-dasharray:none;stroke-opacity:1"
           id="tspan876-6-6"
           rotate="325 325 325 325 325 325 325 325 325 0">SHRRIiii!</tspan></textPath></text>
    <path
       style="fill:none;fill-rule:evenodd;stroke:none;stroke-width:1.13654px;stroke-linecap:butt;stroke-linejoin:miter;stroke-opacity:1"
       d="m 2062.1793,2191.5476 c 235.3161,220.1206 417.0174,422.7368 620.7004,632.5297"
       id="path974"
       sodipodi:nodetypes="cc" />
  </g>
</svg>
