<?xml version="1.0" encoding="UTF-8" standalone="no"?>
<!-- Created with Inkscape (http://www.inkscape.org/) -->

<svg
   id="svg2"
   version="1.1"
   inkscape:version="1.2.2 (732a01da63, 2022-12-09)"
   width="2481"
   height="663"
   sodipodi:docname="E08P00.svg"
   xml:space="preserve"
   xmlns:inkscape="http://www.inkscape.org/namespaces/inkscape"
   xmlns:sodipodi="http://sodipodi.sourceforge.net/DTD/sodipodi-0.dtd"
   xmlns:xlink="http://www.w3.org/1999/xlink"
   xmlns="http://www.w3.org/2000/svg"
   xmlns:svg="http://www.w3.org/2000/svg"
   xmlns:rdf="http://www.w3.org/1999/02/22-rdf-syntax-ns#"
   xmlns:cc="http://creativecommons.org/ns#"
   xmlns:dc="http://purl.org/dc/elements/1.1/"><sodipodi:namedview
     pagecolor="#ffffff"
     bordercolor="#666666"
     inkscape:pageopacity="0"
     inkscape:pageshadow="2"
     inkscape:window-width="1920"
     inkscape:window-height="1017"
     id="namedview70"
     showgrid="false"
     inkscape:zoom="0.4"
     inkscape:cx="892.5"
     inkscape:cy="447.5"
     inkscape:current-layer="layer1"
     borderopacity="0.25"
     inkscape:showpageshadow="2"
     inkscape:pagecheckerboard="0"
     inkscape:deskcolor="#d1d1d1"
     inkscape:window-x="-8"
     inkscape:window-y="-8"
     inkscape:window-maximized="1" /><metadata
     id="metadata8"><rdf:RDF><cc:Work
         rdf:about=""><dc:format>image/svg+xml</dc:format><dc:type
           rdf:resource="http://purl.org/dc/dcmitype/StillImage" /><dc:title /></cc:Work></rdf:RDF></metadata><defs
     id="defs6" /><sodipodi:namedview
     pagecolor="#ffffff"
     bordercolor="#666666"
     borderopacity="1"
     objecttolerance="10"
     gridtolerance="10"
     guidetolerance="10"
     inkscape:pageopacity="0"
     inkscape:pageshadow="2"
     inkscape:window-width="508"
     inkscape:window-height="420"
     id="namedview4"
     showgrid="false"
     inkscape:zoom="0.52995012"
     inkscape:cx="1160.9009"
     inkscape:cy="254.85792"
     inkscape:window-x="26"
     inkscape:window-y="27"
     inkscape:window-maximized="0"
     inkscape:current-layer="layer1" /><g
     inkscape:groupmode="layer"
     id="layer2"
     inkscape:label="artwork"
     sodipodi:insensitive="true"><image
       xlink:href="../gfx_Pepper-and-Carrot_by-David-Revoy_E08P00.png"
       width="2481"
       height="663"
       id="image10"
       x="0"
       y="0" /></g><g
     inkscape:groupmode="layer"
     id="layer1"
     inkscape:label="txt"
     style="display:inline"><flowRoot
       xml:space="preserve"
       id="episode-title"
       style="font-style:normal;font-variant:normal;font-weight:normal;font-stretch:normal;line-height:0.01%;font-family:Arial;-inkscape-font-specification:Arial;letter-spacing:0px;word-spacing:0px;display:inline;fill:#301b0b;fill-opacity:1;stroke:none"
       transform="translate(-748.44912,-120.8471)"><flowRegion
         id="flowRegion2989"><rect
           id="rect2991"
           width="2405.8"
           height="107.55731"
           x="739.22333"
           y="644.36664"
           style="fill:#301b0b;fill-opacity:1" /></flowRegion><flowPara
         id="flowPara2993"
         style="font-style:normal;font-variant:normal;font-weight:normal;font-stretch:normal;font-size:72px;line-height:1.25;font-family:Lavi;-inkscape-font-specification:Lavi;text-align:center;text-anchor:middle;fill:#301b0b;fill-opacity:1">Epizodas 8: Pipirės gimtadienio šventė</flowPara></flowRoot><path
       style="fill:#301b0b;fill-opacity:1;stroke-width:1.00142"
       d="m 557.84055,514.37446 c -6.16972,-2.80572 -7.18974,-5.89832 -6.17082,-18.70914 0.44527,-5.59822 0.9174,-21.38612 1.0492,-35.08424 l 0.23963,-24.90566 -6.91925,-0.55273 c -11.29467,-0.90226 -24.42687,-9.17984 -24.42687,-15.39691 0,-2.19317 0.24039,-2.24952 7.75337,-1.81756 10.21263,0.58716 14.95606,-0.81181 20.4849,-6.04159 l 4.50212,-4.25859 0.64873,-46.61192 c 0.35681,-25.63655 0.93511,-53.41077 1.28511,-61.7205 l 0.63637,-15.1086 -9.40171,-2.43352 c -9.13433,-2.36432 -9.41021,-2.52057 -9.70053,-5.49412 -0.19251,-1.97173 0.46881,-4.0384 1.85884,-5.80902 1.94379,-2.47598 2.5844,-2.6843 6.46276,-2.10155 3.86594,0.58087 4.47605,0.38546 5.98076,-1.91556 0.92161,-1.40933 1.37936,-3.04279 1.01721,-3.62991 -0.83992,-1.36171 4.19432,-3.47929 12.22027,-5.1403 5.47837,-1.13376 6.64966,-1.08882 9.7081,0.37253 3.91401,1.87014 6.20084,5.58823 7.16925,11.65632 0.71811,4.49965 1.4831,4.81602 6.53304,2.70186 9.41525,-3.94171 28.34065,-2.55944 39.36409,2.87505 11.99017,5.91109 22.30714,18.82814 27.54152,34.48252 5.50147,16.45316 5.27529,43.25488 -0.50886,60.29447 -4.68907,13.81362 -15.00053,31.0666 -18.56733,31.0666 -2.22733,0 -4.94017,3.65779 -4.94017,6.66096 0,2.7773 -8.31628,10.21041 -15.9452,14.25182 -3.06029,1.6212 -11.1916,4.61071 -18.06959,6.64338 -18.96884,5.60591 -17.00739,1.61367 -17.00739,34.61616 V 491.309 h 7.96851 c 5.0842,0 13.13724,-1.10425 22.24819,-3.05074 15.06093,-3.21763 19.12408,-3.41697 19.54551,-0.95889 0.30108,1.75616 -12.50134,10.69675 -20.7496,14.49055 -5.16005,2.37336 -5.57808,2.42229 -6.71881,0.78638 -2.407,-3.4518 -3.39429,-4.25046 -5.2544,-4.25046 -2.66326,0 -5.03419,2.69255 -5.03419,5.71708 0,3.65814 -5.97979,8.93689 -12.23078,10.79689 -7.23101,2.15161 -17.27258,1.94458 -22.57198,-0.46535 z m 35.22483,-116.30497 c 4.90916,-1.08741 10.85907,-2.91484 13.22201,-4.06098 9.02758,-4.37879 19.01746,-18.50449 24.69663,-34.92108 6.33739,-18.31929 2.93293,-41.92343 -7.48799,-51.9164 -7.06403,-6.77391 -21.42173,-10.94653 -29.02029,-8.43384 -1.90174,0.62887 -5.06776,2.82792 -7.03561,4.88679 l -3.57791,3.74339 -1.125,33.58062 c -1.49953,44.76015 -1.46258,59.14831 0.15185,59.1203 0.6878,-0.0119 5.26713,-0.91138 10.17631,-1.9988 z m 524.05592,90.61878 c -2.8888,-2.51714 -5.2523,-5.05639 -5.2523,-5.64275 0,-0.58638 1.848,-2.77555 4.1066,-4.86481 l 4.1066,-3.79867 0.4146,-10.33165 c 0.2279,-5.6824 0.8426,-22.78928 1.366,-38.01528 0.8001,-23.27847 1.2283,-28.16679 2.6906,-30.71988 2.442,-4.2632 0.6595,-6.25172 -5.6037,-6.25172 -2.5738,0 -5.2199,-0.5413 -5.8802,-1.20289 -2.0997,-2.10387 -1.3163,-5.53808 1.8776,-8.23087 2.4733,-2.08527 4.1312,-2.59512 8.4385,-2.59512 6.7425,0 9.2409,0.95632 13.8311,5.29396 2.9295,2.76825 3.6649,4.20346 3.6649,7.15204 v 3.68882 l 4.5362,-3.12713 c 3.1449,-2.16795 6.558,-3.4425 11.1275,-4.15532 6.0312,-0.94081 6.8327,-0.84951 9.4294,1.07414 1.561,1.15631 4.2056,2.10237 5.877,2.10237 3.8625,0 10.0183,5.40372 12.5408,11.0086 1.6035,3.56292 1.6578,4.38143 0.4414,6.65858 -1.2636,2.36588 -1.189,2.75669 0.8407,4.40351 5.2471,4.25714 0.6233,14.60679 -8.8902,19.89939 l -4.6148,2.56736 -2.3882,-2.77022 c -2.4888,-2.88681 -4.8628,-3.51982 -8.5938,-2.29141 -1.8655,0.61415 -2.5185,0.10776 -4.2519,-3.29666 -5.0708,-9.95906 0.096,-17.47414 6.9559,-10.11657 2.3103,2.4781 3.5944,3.00722 7.2974,3.00722 2.6743,0 4.6864,-0.50733 4.9696,-1.25301 1.4886,-3.92039 -5.8779,-11.00448 -13.2979,-12.78802 -6.5334,-1.57041 -11.6662,-0.0144 -17.4432,5.28779 l -4.6224,4.24241 -0.2068,30.76271 c -0.1436,21.35027 0.131,31.10463 0.8972,31.88019 0.6074,0.61461 6.2348,2.03167 12.5054,3.14902 6.2708,1.11734 11.6961,2.33362 12.0563,2.70284 0.3601,0.36921 -1.546,2.619 -4.236,4.99952 -4.6627,4.12636 -4.9952,4.25493 -7.1302,2.75662 -2.9954,-2.1022 -3.885,-2.00085 -8.2018,0.93441 -3.3436,2.27351 -4.6328,2.50375 -13.8956,2.48157 l -10.21,-0.0245 -5.2523,-4.57664 z m -36.9075,0.18163 c -5.1848,-2.28033 -5.7639,-5.82174 -4.9968,-30.55465 0.6107,-19.68497 0.8366,-21.67528 2.6528,-23.3707 2.5195,-2.35195 2.493,-3.2279 -0.173,-5.71664 -2.1078,-1.9676 -2.1441,-2.45545 -1.5479,-20.83898 0.3358,-10.35332 1.1308,-20.30394 1.7667,-22.11249 2.2371,-6.36352 11.9941,-8.14454 15.4731,-2.82446 2.2879,3.4986 2.6799,14.82172 1.7469,50.45512 -0.6025,23.01229 -1.1957,32.6638 -2.0606,33.5305 -1.5213,1.52423 -1.5837,5.48121 -0.1011,6.39937 1.821,1.12762 0.5365,11.26402 -1.701,13.42402 -2.6615,2.56919 -7.3311,3.24853 -11.0591,1.60891 z m 768.4755,-42.54809 c -7.6401,-3.51231 -16.7789,-15.28723 -32.7435,-42.18884 -4.2522,-7.16499 -6.5737,-12.0732 -6.1637,-13.03128 1.6508,-3.85816 -1.0605,-9.05502 -4.7242,-9.05502 -2.0095,0 -4.3442,-2.79385 -12.1048,-14.48602 -2.9097,-4.38371 -5.7706,-8.11522 -6.3578,-8.29224 -0.587,-0.17703 -4.3012,3.68648 -8.2536,8.58557 -6.7117,8.31936 -7.1868,9.23082 -7.1971,13.80548 -0.02,9.00528 -1.043,12.5414 -4.1371,14.30471 -3.5884,2.04495 -3.7023,5.23669 -0.38,10.64146 4.6596,7.58004 2.9307,18.5284 -3.9786,25.19641 -6.172,5.95646 -12.3863,7.82041 -26.1882,7.85499 -11.0265,0.0276 -11.2281,-0.0136 -14.2562,-2.91614 -1.6893,-1.61929 -3.0715,-3.67345 -3.0715,-4.56479 0,-1.89732 4.2413,-6.06248 12.1666,-11.94807 7.9199,-5.88169 8.8406,-8.3458 9.8943,-26.48151 0.4859,-8.36456 0.8983,-17.06243 0.9163,-19.32862 0.022,-2.70043 0.8947,-5.39294 2.5339,-7.81317 3.1116,-4.59432 3.1072,-5.14148 -0.065,-8.08772 l -2.5667,-2.38338 1.5669,-61.97338 c 0.8618,-34.08536 1.5666,-62.9442 1.5662,-64.13074 -4e-4,-1.48055 0.9114,-2.47589 2.9064,-3.17271 5.265,-1.83905 4.8881,-8.46429 -0.5596,-9.83427 -4.7276,-1.18888 -18.9625,0.44791 -26.7887,3.08027 -4.1882,1.40866 -7.9531,2.5612 -8.3666,2.5612 -0.4135,0 -1.6152,-1.60621 -2.6703,-3.56935 l -1.9185,-3.56934 2.9415,-2.36577 c 6.2436,-5.02158 27.6657,-17.86953 34.6405,-20.77563 13.5854,-5.66052 24.162,-3.91283 26.0769,4.30898 0.4377,1.87933 0.5044,33.30121 0.1484,69.8264 -0.3562,36.5252 -0.3899,66.40945 -0.075,66.40945 1.0756,0 38.4852,-53.82297 45.0239,-64.77813 4.1868,-7.01473 22.3562,-25.06692 26.2034,-26.03441 4.2269,-1.063 5.4826,0.99799 5.476,8.98852 0,4.72434 -0.9754,10.71032 -2.868,17.66999 -3.3626,12.36649 -5.137,16.81846 -9.2839,23.29364 -2.7735,4.33055 -3.4125,4.77374 -6.8833,4.77374 -3.8926,0 -6.9702,2.00252 -6.9702,4.53527 0,0.76166 0.5332,2.55752 1.185,3.99081 1.3893,3.05528 0.8835,4.07857 -8.8732,17.94755 l -6.2832,8.9315 1.8697,3.09738 c 6.7595,11.19821 27.3889,47.29167 30.0112,52.50776 2.5946,5.1611 3.0213,6.89116 2.3487,9.52287 -0.452,1.76877 -0.6638,4.2155 -0.4706,5.43716 0.4581,2.89626 5.7273,7.30166 8.7334,7.30166 1.8017,0 3.7615,1.94628 8.3278,8.26986 7.2437,10.03161 9.4754,12.17916 17.4689,16.81011 5.6992,3.30176 6.2086,3.87788 6.2086,7.02158 0,5.08233 -2.5863,5.96175 -17.5076,5.95312 -9.9997,-0.006 -13.3073,-0.37587 -16.5072,-1.84691 z m -541.0325,-3.57172 c -15.0488,-5.37864 -31.7165,-27.58921 -31.7165,-42.26405 0,-4.23368 0.1523,-4.49673 2.251,-3.88942 3.8078,1.10184 7.1259,4.00458 9.8421,8.60987 l 2.5989,4.40636 6.5909,-0.26715 c 3.6884,-0.1495 6.8676,0.18156 7.2193,0.7518 0.8794,1.42567 3.4896,1.2727 3.994,-0.23405 0.2307,-0.68915 0.9042,-3.15141 1.4966,-5.4717 0.772,-3.02321 1.8491,-4.5875 3.8011,-5.5202 3.4242,-1.63619 4.286,-6.97074 1.6056,-9.93837 -1.6837,-1.86411 -1.6246,-2.60154 1.3768,-17.19775 7.1656,-34.84704 21.2395,-102.62189 21.7448,-104.71493 0.3178,-1.3163 1.3051,-2.25542 2.3712,-2.25542 1.0047,0 2.6822,-0.94709 3.7277,-2.10465 2.0006,-2.21501 2.1215,-4.68751 0.8773,-17.94348 -0.4414,-4.70343 -0.028,-9.3814 1.4863,-16.81915 4.4891,-22.04871 10.9968,-32.27874 17.0447,-26.79462 4.3827,3.97415 7.3338,14.61562 24.0484,86.71725 5.0484,21.77729 9.3287,39.75337 9.5119,39.94685 0.5112,0.54007 1.5962,-3.93407 12.9689,-53.47934 12.0517,-52.50319 15.5717,-65.57449 19.1145,-70.97978 2.1521,-3.28331 2.9511,-3.77508 5.7008,-3.50843 2.8601,0.27736 3.5678,1.04997 6.6994,7.31376 3.1045,6.20943 3.5015,7.88971 3.5015,14.8173 0,5.32114 0.4142,8.07169 1.2985,8.62253 2.2209,1.38339 2.3078,1.79211 25.0947,117.98587 0.7465,3.8067 0.6085,4.19328 -2.0416,5.71721 -2.1244,1.22167 -2.8422,2.39075 -2.8422,4.62913 0,3.29919 0.8803,4.13898 5.2849,5.0416 l 2.9585,0.60627 4.2117,21.03611 c 2.3165,11.56987 4.7545,22.05106 5.4177,23.29153 1.1247,2.10357 1.8667,2.25542 11.02,2.25542 8.6048,0 10.0414,0.25173 11.6594,2.04313 1.7999,1.99276 1.7817,2.17312 -0.7366,7.318 -3.5504,7.25347 -11.8276,16.0347 -18.0366,19.13486 -4.0944,2.04435 -6.6266,2.57556 -12.2211,2.56384 -8.1211,-0.017 -11.1347,-1.23544 -14.1521,-5.72186 -2.8179,-4.18967 -4.8641,-17.22756 -3.2581,-20.75937 0.9218,-2.02708 0.7492,-3.38102 -0.9297,-7.29293 -2.3665,-5.51372 -5.3004,-22.78504 -15.2047,-89.50709 -3.8874,-26.18787 -7.2204,-48.0654 -7.4065,-48.61672 -0.5978,-1.76951 -2.436,6.16743 -11.2592,48.61672 -8.7593,42.1416 -8.9327,42.71184 -13.8786,45.63972 -2.2167,1.31225 -2.2924,6.42877 -0.1186,8.02138 0.8942,0.65509 1.6257,2.1889 1.6257,3.40846 0,3.73228 -6.1195,30.46184 -7.656,33.4411 -1.884,3.65283 -5.3968,5.29972 -8.1525,3.82202 -2.7869,-1.49446 -4.3655,-7.11753 -24.2199,-86.27486 -6.6657,-26.57523 -12.4964,-49.29651 -12.9571,-50.49175 -1.2223,-3.17121 -1.485,-2.04783 -5.5859,23.88941 -2.005,12.68044 -4.5312,27.1151 -5.614,32.07701 -1.0828,4.96192 -2.5885,14.43466 -3.3461,21.05054 -1.7262,15.07554 -7.9762,56.70389 -10.6102,70.66968 -2.8394,15.05499 -3.456,16.60422 -7.344,18.45284 -4.0885,1.94391 -13.6249,2.01952 -18.857,0.1495 z m 731.6153,0.0907 c -6.1699,-1.67166 -12.9118,-5.59843 -15.4012,-8.97049 -1.5433,-2.0905 -2.1687,-4.71447 -2.4489,-10.27467 -0.207,-4.10696 -0.6145,-7.4672 -0.9055,-7.4672 -0.2909,0 -2.5262,1.84453 -4.9672,4.09895 -7.1224,6.57813 -12.1419,8.35571 -23.2976,8.25039 -12.8346,-0.12116 -19.1095,-2.51757 -27.0965,-10.34828 -6.3915,-6.2664 -10.6662,-14.08158 -13.431,-24.55521 -3.0427,-11.52614 -4.3429,-54.95915 -2.6409,-88.22049 0.5977,-11.67999 0.9011,-13.27432 2.9096,-15.2867 2.6945,-2.6998 2.804,-4.49306 0.5117,-8.38112 -2.0476,-3.47321 -1.2918,-5.22923 3.7231,-8.65109 5.084,-3.4689 12.9584,-3.17262 17.2261,0.64815 l 3.2433,2.90356 0.6825,13.38555 c 0.3754,7.36205 0.7527,26.69249 0.8383,42.95654 0.2117,40.164 1.0199,51.28753 4.1902,57.66657 4.8249,9.7081 12.8958,12.03369 22.5363,6.49374 11.3243,-6.50758 15.9044,-17.22694 16.9868,-39.75671 l 0.6336,-13.18664 2.7968,-0.56049 c 5.7293,-1.14809 6.1818,-7.96111 0.657,-9.89086 l -3.0604,-1.06896 0.6253,-24.65789 c 0.344,-13.56184 1.1015,-26.32047 1.6835,-28.35249 2.8895,-10.08974 18.2089,-12.90582 24.4142,-4.48794 2.0303,2.75438 2.0883,3.7646 1.8405,32.07701 -0.4142,47.30675 -1.9336,81.73484 -3.7284,84.47929 -1.9125,2.9247 -1.9283,5.47526 -0.049,7.96442 0.9347,1.2383 1.4805,4.33471 1.5007,8.5158 0.034,7.01351 1.8893,10.99978 9.5355,20.48749 6.6118,8.20415 7.0126,12.46707 1.3578,14.44222 -4.1005,1.43226 -15.1407,1.29869 -20.8659,-0.25245 z M 754.02114,434.42242 c -9.71574,-10.37374 -10.12638,-13.33358 -2.62721,-18.93672 4.99662,-3.73331 5.14752,-3.99201 5.75927,-9.87385 0.41897,-4.02822 3.62882,-106.63901 3.57709,-114.35031 -0.0117,-1.74723 -1.17314,-2.34596 -7.40718,-3.81853 -4.0663,-0.96053 -8.23061,-2.39656 -9.25402,-3.19117 -1.79054,-1.39026 -1.76638,-1.52614 0.64033,-3.60117 3.84075,-3.31142 16.37331,-8.819 22.77314,-10.00792 7.20503,-1.33849 15.85976,-0.67766 17.90017,1.36677 0.91772,0.91953 2.02417,5.05642 2.70041,10.09644 l 1.14564,8.53862 3.0013,-2.50674 c 1.65074,-1.3787 5.4774,-3.69069 8.50372,-5.13774 4.67783,-2.23674 6.87979,-2.63601 14.69438,-2.66437 8.2662,-0.03 9.40379,0.19384 11.29391,2.22207 1.15601,1.24048 3.2242,2.25541 4.596,2.25541 6.00531,0 13.87153,5.4783 18.60519,12.95723 3.57435,5.64738 3.94381,13.91105 0.83226,18.61859 -1.09328,1.65397 -1.99067,4.04456 -1.99427,5.31241 -0.016,5.4144 -6.6768,14.72656 -12.39588,17.32883 -6.18739,2.81533 -15.19361,2.57497 -19.74969,-0.52709 -3.97993,-2.70978 -7.23574,-8.48609 -6.24341,-11.07699 0.71391,-1.86427 1.51676,-1.72648 8.9858,1.5423 7.17782,3.14128 9.57927,2.30851 12.8889,-4.46958 2.5174,-5.1554 2.56972,-5.57129 1.06817,-8.48079 -2.47628,-4.79806 -9.48082,-8.33902 -17.65488,-8.92502 -6.29783,-0.4515 -7.52407,-0.20566 -13.37831,2.68206 -3.82286,1.88567 -8.03019,4.98351 -10.34122,7.61412 l -3.89616,4.43501 -0.65511,15.82689 c -0.36032,8.70479 -0.65663,29.2144 -0.65846,45.57689 -0.004,32.34691 0.0906,32.90042 5.60266,32.90042 1.35395,0 4.09284,0.68287 6.08651,1.5175 2.47438,1.03589 5.13573,1.31664 8.38615,0.8846 4.56178,-0.60634 14.08002,0.55973 22.3154,2.73383 l 3.87728,1.0236 -3.67039,2.49904 c -3.95622,2.69364 -5.42856,2.96925 -10.1242,1.8952 -3.93371,-0.89977 -7.36811,1.763 -8.32592,6.45522 -0.55404,2.71424 -1.31868,3.58314 -3.6715,4.17189 -3.92721,0.9827 -30.31213,2.87688 -40.07345,2.87688 h -7.71417 z m 862.69766,-0.50121 c -8.2115,-12.91409 -8.2835,-15.0261 -0.6547,-19.18641 l 5.0263,-2.74105 v -6.50287 c 0,-3.87708 0.6181,-7.7007 1.531,-9.46935 1.223,-2.36967 1.293,-3.41208 0.348,-5.18125 -1.2827,-2.40155 -1.2929,-17.32631 -0.047,-68.43681 0.3897,-15.98839 0.5483,-31.61482 0.3522,-34.72541 l -0.3564,-5.65561 -6.8983,-0.39055 c -8.8523,-0.50119 -9.7608,-1.38235 -7.5111,-7.28476 2.9022,-7.6141 9.1004,-10.58447 22.0866,-10.58447 6.8575,0 8.7564,0.37133 11.5518,2.25883 5.2579,3.55029 7.7011,8.96721 9.4879,21.03616 l 0.5549,3.74806 5.0056,-3.96445 c 6.3581,-5.03573 10.0402,-6.02518 22.448,-6.03209 9.3848,-0.005 10.4976,0.21767 17.2331,3.45194 13.669,6.5636 20.3082,15.7712 21.0437,29.18408 0.5413,9.87514 -0.9738,13.42215 -9.7094,22.73042 l -5.8898,6.27598 h -7.3512 c -6.0423,0 -8.3763,-0.5044 -13.1093,-2.83312 -6.4131,-3.15538 -8.3817,-5.63455 -6.8103,-8.57662 1.2916,-2.41808 2.3152,-2.77785 10.3586,-3.64094 6.6269,-0.71106 6.6476,-0.72308 8.7541,-5.08323 2.2781,-4.71518 2.079,-6.70414 -1.2172,-12.16087 -1.5852,-2.62417 -2.5489,-3.20236 -5.1726,-3.10353 -1.7736,0.0668 -5.0513,-0.93192 -7.2839,-2.21939 l -4.0594,-2.34086 -4.6823,2.93837 c -10.1998,6.40085 -15.0875,10.11175 -17.844,13.54806 l -2.8821,3.59283 -0.9614,45.36749 c -0.5288,24.95211 -0.7456,45.71746 -0.4816,46.14522 0.2638,0.42775 2.1797,1.05014 4.2577,1.38306 2.0779,0.33293 4.5951,1.56153 5.5938,2.73022 1.671,1.95541 1.9563,1.99758 3.5761,0.52875 3.4581,-3.13575 17.8944,-1.40295 24.0769,2.88999 5.0769,3.5252 4.8509,3.83759 -8.4196,11.63794 l -10.0529,5.90908 -24.2729,0.01 -24.273,0.01 -3.3463,-5.26264 z m 489.5825,0.56477 c -5.2343,-0.86897 -15.7376,-4.6171 -21.4315,-7.6479 -4.3217,-2.30036 -7.1343,-4.78614 -10.395,-9.18704 -7.5394,-10.17596 -9.1904,-14.85056 -10.3565,-29.32589 -1.2297,-15.26444 -0.1549,-20.60137 4.2521,-21.11467 3.2929,-0.38354 4.4236,1.07273 5.7565,7.41437 1.4892,7.08509 4.7873,15.60953 7.7075,19.92119 1.3515,1.99549 2.4573,4.70362 2.4573,6.01806 0,3.70006 2.7433,5.85054 6.4141,5.02801 3.3209,-0.74415 4.5555,-0.75955 23.599,-0.29436 13.9002,0.33954 16.4903,-0.41645 21.3816,-6.24083 3.7667,-4.48533 6.0866,-13.08812 4.6806,-17.35677 -2.2854,-6.93857 -8.7504,-10.8237 -26.0622,-15.66206 -10.079,-2.81689 -11.8847,-3.65748 -14.5681,-6.7817 -2.762,-3.21587 -3.4123,-3.5006 -6.6184,-2.89794 -3.2563,0.6121 -3.8692,0.32007 -7.2886,-3.47216 -5.555,-6.16084 -6.7501,-9.92517 -7.3066,-23.0151 -0.3864,-9.08898 -0.1227,-12.86016 1.2263,-17.54212 2.7335,-9.4867 7.5027,-17.44004 15.1326,-25.23604 9.6072,-9.81623 17.4134,-13.54708 29.563,-14.12909 7.6627,-0.3671 9.3157,-0.12122 14.1771,2.1088 3.0266,1.38839 6.6988,3.86911 8.1605,5.5127 1.7515,1.96972 4.006,3.20445 6.614,3.6223 2.7812,0.4456 5.0668,1.78131 7.6934,4.49596 6.5543,6.77407 17.1988,27.25005 15.9123,30.60927 -0.5747,1.50062 -0.968,1.47293 -4.4025,-0.30998 -2.0742,-1.07678 -6.4725,-4.28458 -9.774,-7.12842 -6.8105,-5.86666 -16.9807,-11.38662 -24.1534,-13.10953 -2.6725,-0.64197 -6.348,-2.01388 -8.1678,-3.04869 -4.1339,-2.35083 -4.3606,-2.34392 -7.293,0.22268 -1.3221,1.15728 -4.5466,3.19689 -7.1655,4.53247 -5.6208,2.86663 -10.1664,8.71272 -12.2558,15.7623 -2.5031,8.44547 -2.0781,10.48241 3.2613,15.63333 4.1307,3.98486 6.1499,5.01066 15.4426,7.84529 8.1092,2.47363 10.843,3.74262 11.3223,5.25552 0.3866,1.22036 1.5144,1.99449 2.9057,1.99449 4.1941,0 14.809,6.24872 21.7339,12.79426 8.264,7.8112 9.8721,12.01352 9.8721,25.7984 0,15.64681 -4.0465,24.90778 -15.3693,35.17454 -12.6032,11.42774 -29.9237,16.53444 -46.6576,13.75635 z M 494.7906,432.14131 c -4.38819,-2.68069 -6.28666,-7.60742 -6.50942,-16.89262 -0.29305,-12.21476 1.43925,-98.58248 2.26635,-112.99457 0.66118,-11.52087 1.01752,-13.39687 2.90364,-15.2867 2.43694,-2.44175 2.53695,-3.00865 1.16747,-6.61775 -0.79009,-2.08219 -0.60451,-2.96799 0.94767,-4.52322 2.66006,-2.66531 8.94415,-4.2282 12.59543,-3.13256 9.63432,2.89099 9.6628,2.989 10.22234,35.17468 l 0.46179,26.56378 -2.61846,2.43014 c -3.13374,2.90839 -3.32267,5.38471 -0.61758,8.09513 1.8944,1.89813 1.99769,3.29827 1.94113,26.31317 -0.0884,35.9966 -1.20387,53.40201 -3.63529,56.72673 -4.33428,5.92669 -13.09814,7.82554 -19.12507,4.14379 z m 202.73975,0.50277 c -4.42867,-2.41016 -7.15534,-7.8421 -6.41997,-12.78955 0.34558,-2.32498 0.54385,-5.35495 0.44062,-6.73326 -0.10324,-1.37831 -0.0996,-21.67704 0.008,-45.1083 0.23444,-50.96983 1.42589,-83.98844 3.15141,-87.33485 3.78582,-7.34208 10.46224,-10.13302 17.65545,-7.38049 7.24227,2.7713 7.77807,4.64486 8.16633,28.5565 0.32101,19.76966 0.24786,20.70737 -1.92807,24.71437 -2.15296,3.96469 -2.18104,4.28845 -0.58379,6.73098 1.47179,2.25065 1.67209,5.98826 1.6301,30.418 -0.0697,40.56949 -1.23544,60.98077 -3.67309,64.31484 -4.03261,5.51557 -12.77192,7.70037 -18.44724,4.61176 z m 840.81005,0.1275 c -12.6055,-4.1088 -26.6926,-18.20671 -34.2883,-34.31459 -5.8613,-12.42997 -7.4427,-21.03365 -7.4385,-40.46809 0,-20.61584 1.3614,-26.978 9.3089,-43.64818 6.3575,-13.33504 11.4175,-20.68171 19.3931,-28.15726 8.6144,-8.07422 14.0437,-10.62506 23.822,-11.19223 26.2219,-1.52095 45.7002,14.01918 52.8932,42.19923 4.6396,18.17621 5.1186,45.5901 1.1303,64.6768 -2.0566,9.8421 -3.2289,12.20829 -6.0487,12.20829 -2.1331,0 -5.0346,3.08628 -5.0346,5.35516 0,0.92889 0.5361,2.54913 1.1915,3.60056 0.9997,1.60402 0.718,2.60262 -1.7508,6.20522 -7.892,11.51661 -19.3007,20.02525 -30.4542,22.71303 -8.031,1.93531 -18.1819,2.30253 -22.7239,0.82206 z m 22.3519,-29.48227 c 9.3476,-4.78264 17.2102,-18.47012 19.2982,-33.59466 0.5954,-4.31266 1.0668,-13.33432 1.0476,-20.04814 -0.085,-29.87435 -7.861,-45.89628 -23.0297,-47.45375 -11.7502,-1.20648 -19.902,4.01631 -25.6466,16.43147 -1.8444,3.98599 -3.6346,8.65594 -3.9782,10.37768 -0.4561,2.28505 -1.4153,3.40654 -3.5521,4.15285 -4.1465,1.44835 -5.3307,5.14089 -2.9351,9.15299 1.5314,2.56488 2.0746,6.60085 2.9197,21.69559 1.1767,21.01785 2.6704,26.70967 8.9331,34.04057 5.9016,6.90825 8.7303,8.25637 16.3103,7.7731 3.9177,-0.24978 8.1446,-1.25463 10.6328,-2.5277 z m 323.8776,28.95881 c -2.0323,-1.24168 -3.7587,-3.54932 -4.9045,-6.55547 -1.6132,-4.23237 -1.7192,-7.81202 -1.2075,-40.81276 0.5375,-34.66675 0.648,-36.29163 2.6536,-39.0097 2.6426,-3.58137 2.6473,-6.2567 0.017,-9.82118 -2.0364,-2.7597 -2.0564,-3.27789 -1.0593,-27.35819 1.1425,-27.58858 2.0483,-31.7615 7.5108,-34.60328 4.0685,-2.1166 10.2762,-2.07149 14.4611,0.10509 6.4114,3.33463 6.4907,4.03292 5.9324,52.22046 -0.4552,39.29494 -0.6632,43.44264 -2.3529,46.94176 -1.7638,3.65276 -1.77,3.98369 -0.1297,6.84748 1.3432,2.34507 1.7162,5.36956 1.6899,13.70385 -0.051,16.13593 -1.606,30.82324 -3.6267,34.25069 -3.2641,5.5367 -13.1364,7.66421 -18.9844,4.09125 z m -960.37744,-1.22188 c -2.49238,-2.80275 -7.8211,-5.02324 -10.10349,-4.21016 -0.99373,0.35399 -2.59353,1.32065 -3.55515,2.14814 -1.55967,1.34206 -2.16294,1.31727 -5.58632,-0.22952 -5.02239,-2.26926 -17.64057,-13.29585 -25.32311,-22.12907 -3.70411,-4.25902 -7.85362,-10.61134 -10.55759,-16.16243 l -4.45494,-9.14558 0.036,-19.92421 c 0.033,-18.63056 0.2248,-20.67269 2.94828,-31.45189 5.00217,-19.79813 11.02129,-30.71191 24.95795,-45.25304 10.3586,-10.80789 15.33577,-13.33762 26.24121,-13.33767 6.55094,-3e-5 8.48178,0.46084 15.07525,3.59823 10.05747,4.78571 19.82882,13.9115 24.01224,22.42599 4.59269,9.34751 6.27202,22.06213 5.54511,41.98474 -0.31974,8.76365 -0.79645,16.14943 -1.05936,16.41287 -0.4527,0.45364 -13.26737,3.60359 -53.83761,13.23372 l -17.75772,4.21514 v 3.74281 c 0,10.38127 9.27404,23.01504 19.43655,26.47778 5.75491,1.9609 17.7145,2.18065 28.08411,0.51603 3.85168,-0.61831 9.31515,-1.06828 12.14118,-0.99995 4.92344,0.11907 5.18735,-0.011 6.31754,-3.11617 0.64869,-1.78224 1.72906,-4.36814 2.40085,-5.74645 1.51096,-3.1 16.41823,-15.30214 17.7141,-14.49966 0.51892,0.32135 0.94351,3.86873 0.94351,7.88306 0,10.36132 -3.6792,17.42381 -14.9563,28.70954 -9.77645,9.78393 -16.0921,13.32982 -27.70845,15.55677 -9.39598,1.80129 -8.69007,1.84634 -10.95356,-0.69902 z m -3.40648,-90.67209 c 11.2799,-1.43283 20.9443,-3.02082 21.47654,-3.52888 1.1649,-1.11214 -1.94145,-20.71107 -4.11289,-25.94948 -1.93494,-4.66779 -7.62312,-10.38915 -12.53545,-12.60867 -3.52583,-1.59308 -4.45704,-1.64501 -8.15585,-0.45486 -2.29659,0.73896 -6.48391,1.29018 -9.30524,1.22494 -6.57006,-0.15194 -9.38268,2.31233 -7.70915,6.75458 0.89509,2.37602 0.60436,3.92347 -1.79608,9.56147 -3.6707,8.62145 -5.87406,17.17979 -5.87406,22.81575 0,5.38244 0.47911,5.95566 4.43043,5.3001 1.69003,-0.2804 12.30185,-1.68213 23.58175,-3.11495 z m -579.023,84.0442 c -10.07916,-12.88433 -8.45999,-21.96852 4.41033,-24.74364 l 3.13849,-0.67672 0.72701,-17.95719 c 0.66252,-16.36429 0.89449,-18.01045 2.61507,-18.55761 4.22814,-1.34461 4.74938,-7.41435 0.81775,-9.52266 -1.77302,-0.95075 -1.93133,-2.21668 -1.91147,-15.28563 l 0.0216,-14.24903 3.16401,-1.50361 c 5.38133,-2.55734 5.53973,-3.91191 1.46324,-12.51277 l -3.67007,-7.74344 v -31.27513 -31.27514 l -3.33627,-3.24001 c -2.19981,-2.13634 -4.6705,-3.42054 -7.25316,-3.76999 -2.15428,-0.2915 -4.92982,-0.7349 -6.16786,-0.98536 -3.71472,-0.75147 -2.7573,-4.30637 2.53687,-9.41932 8.43315,-8.14451 28.0583,-13.05618 52.11788,-13.04377 33.29378,0.0171 57.61348,12.33197 67.62516,34.24349 5.43181,11.88799 6.8628,19.92854 6.92761,38.92517 0.0509,14.93588 -0.26977,18.84886 -2.15873,26.33756 -5.51421,21.86085 -16.96065,40.33456 -30.97968,49.99891 -9.86507,6.80072 -28.63074,12.95535 -44.2966,14.52806 -3.57656,0.35906 -6.83358,1.14955 -7.23784,1.75667 -1.18236,1.77568 -0.87433,18.57086 0.38456,20.96726 1.55223,2.95482 2.79188,3.65967 6.46825,3.67778 1.71407,0.008 4.32296,0.96622 5.79752,2.1284 2.03545,1.60424 3.33265,1.92462 5.3872,1.33052 3.34705,-0.96785 17.65291,-0.70969 21.70139,0.39162 2.93158,0.79747 2.82701,0.90096 -5.51149,5.45525 -12.46919,6.81036 -17.84695,8.99113 -22.02934,8.9333 -2.71169,-0.0375 -4.36224,0.62078 -6.03805,2.40811 -3.02168,3.22276 -9.71598,5.13052 -24.39028,6.95081 -16.93532,2.10077 -16.89931,2.1048 -20.32311,-2.27189 z m 67.57815,-79.99877 c 1.22291,-0.85825 2.22347,-2.16153 2.22347,-2.89618 0,-2.85357 3.60945,-5.81549 7.45991,-6.12161 4.71214,-0.37462 5.76637,-1.79559 5.15104,-6.94299 -0.35267,-2.9501 0.26619,-5.69082 2.37661,-10.52527 5.29843,-12.13742 6.44157,-18.2387 6.48338,-34.60393 0.0436,-17.06759 -1.87425,-25.68872 -7.42162,-33.36175 -3.35691,-4.64321 -11.68964,-9.92087 -17.05062,-10.79926 -5.32417,-0.87236 -7.76522,-2.12438 -8.4681,-4.34333 -1.35427,-4.27535 -8.76194,-3.29506 -10.54159,1.39501 -0.62301,1.64183 -1.98407,2.74976 -3.83326,3.12032 l -2.86727,0.57459 -0.65076,13.59585 c -0.35792,7.47772 -0.65076,30.85157 -0.65076,51.9419 v 38.34606 l 4.09476,0.69317 c 2.25212,0.38125 6.43419,0.4003 9.29352,0.0423 2.85931,-0.35795 6.30647,-0.20774 7.66035,0.33381 3.441,1.3764 4.2136,1.32497 6.74094,-0.44873 z m 671.55657,9.73491 c -4.4292,-4.22165 -5.0087,-6.92765 -2.6797,-12.5126 1.8159,-4.35466 5.6179,-6.69175 10.8559,-6.67299 5.6094,0.02 7.1628,1.13192 7.2317,5.17561 0.046,2.66851 0.5036,3.39309 2.3077,3.64982 1.8489,0.26311 2.2509,0.95242 2.2509,3.85926 0,2.68815 -0.8177,4.35832 -3.4014,6.94713 -2.8734,2.87897 -4.1095,3.40818 -7.9614,3.40818 -3.9212,0 -5.1263,-0.53988 -8.6037,-3.85441 z M 912.23967,249.86639 c -10.36941,-6.33588 -12.33857,-19.81794 -4.1242,-28.23632 3.96363,-4.06208 6.4391,-4.98051 13.42404,-4.98051 7.05707,0 11.15925,2.59003 14.84635,9.37372 6.52674,12.00833 -2.05599,25.71136 -16.1001,25.70521 -3.10835,-0.001 -6.15467,-0.70638 -8.04609,-1.8621 z M 500.72364,238.9927 c -4.15293,-2.04989 -8.67659,-8.11027 -9.55476,-12.80056 -1.57108,-8.39104 5.29939,-19.08586 13.18606,-20.52591 7.95205,-1.45199 17.62057,1.99885 14.46342,5.16221 -1.54936,1.55242 -1.55316,5.07397 -0.007,6.62304 0.66029,0.66159 2.68617,1.20289 4.50196,1.20289 3.17561,0 3.30143,0.15032 3.30143,3.94437 0,5.08646 -1.46368,8.87604 -4.81571,12.4682 -5.22472,5.599 -14.27142,7.28416 -21.07526,3.92576 z m 202.17614,0.0428 c -4.90762,-2.42347 -7.21166,-5.91687 -7.21166,-10.9343 0,-2.37407 -0.4502,-4.59527 -1.00044,-4.93601 -3.17255,-1.96461 1.593,-12.2505 7.46048,-16.1026 3.19866,-2.09997 13.2174,-2.181 17.15886,-0.13877 8.54344,4.42669 11.97076,16.38927 7.15522,24.97424 -4.38457,7.81667 -15.41868,11.15909 -23.56246,7.13748 z m 1186.23502,-1.12712 c -2.6458,-1.70357 -5.2817,-4.43941 -6.2527,-6.48967 -3.4036,-7.1868 -1.3975,-16.98576 4.6316,-22.62298 4.8671,-4.55069 14.944,-4.86717 21.3369,-0.67011 2.1211,1.39251 2.5077,2.28194 2.1145,4.86343 -0.6364,4.17696 -0.026,5.60912 2.8574,6.70764 4.9007,1.86694 1.8553,13.39279 -4.7918,18.13528 -2.2921,1.63529 -4.9889,2.40964 -9.2767,2.66356 -5.317,0.31489 -6.5961,0.003 -10.6192,-2.58715 z"
       id="path916" /></g></svg>
