<?xml version="1.0" encoding="UTF-8" standalone="no"?>
<svg
   id="svg2"
   version="1.1"
   inkscape:version="1.1 (c68e22c387, 2021-05-23)"
   width="2481"
   height="3503"
   sodipodi:docname="E05P04.svg"
   xmlns:inkscape="http://www.inkscape.org/namespaces/inkscape"
   xmlns:sodipodi="http://sodipodi.sourceforge.net/DTD/sodipodi-0.dtd"
   xmlns:xlink="http://www.w3.org/1999/xlink"
   xmlns="http://www.w3.org/2000/svg"
   xmlns:svg="http://www.w3.org/2000/svg"
   xmlns:rdf="http://www.w3.org/1999/02/22-rdf-syntax-ns#"
   xmlns:cc="http://creativecommons.org/ns#"
   xmlns:dc="http://purl.org/dc/elements/1.1/">
  <sodipodi:namedview
     pagecolor="#ffffff"
     bordercolor="#666666"
     inkscape:pageopacity="0"
     inkscape:pageshadow="2"
     inkscape:window-width="1366"
     inkscape:window-height="745"
     id="namedview70"
     showgrid="false"
     inkscape:zoom="0.39999998"
     inkscape:cx="1830.0001"
     inkscape:cy="726.25003"
     inkscape:current-layer="svg2"
     inkscape:document-rotation="0"
     inkscape:snap-midpoints="false"
     inkscape:window-x="-8"
     inkscape:window-y="-8"
     inkscape:window-maximized="1"
     borderopacity="1.0"
     inkscape:pagecheckerboard="0" />
  <metadata
     id="metadata8">
    <rdf:RDF>
      <cc:Work
         rdf:about="">
        <dc:format>image/svg+xml</dc:format>
        <dc:type
           rdf:resource="http://purl.org/dc/dcmitype/StillImage" />
        <dc:title />
      </cc:Work>
    </rdf:RDF>
  </metadata>
  <defs
     id="defs6">
    <filter
       id="filter3980"
       style="color-interpolation-filters:sRGB;"
       inkscape:label="Drop Shadow"
       x="-0.021227487"
       y="-0.085853888"
       width="1.0642415"
       height="1.1083145">
      <feFlood
         id="feFlood3982"
         flood-opacity="0.228"
         flood-color="rgb(255,255,255)"
         result="flood" />
      <feComposite
         id="feComposite3984"
         in2="SourceGraphic"
         in="flood"
         operator="in"
         result="composite1" />
      <feGaussianBlur
         id="feGaussianBlur3986"
         in="composite"
         stdDeviation="0.2"
         result="blur" />
      <feOffset
         id="feOffset3988"
         dx="1.2"
         dy="-3.3"
         result="offset" />
      <feComposite
         id="feComposite3990"
         in2="offset"
         in="SourceGraphic"
         operator="over"
         result="composite2" />
    </filter>
    <filter
       id="filter3980-9"
       style="color-interpolation-filters:sRGB"
       inkscape:label="Drop Shadow"
       x="-0.02145182"
       y="-0.1352339"
       width="1.0649204"
       height="1.170613">
      <feFlood
         id="feFlood3982-3"
         flood-opacity="0.228"
         flood-color="rgb(255,255,255)"
         result="flood" />
      <feComposite
         id="feComposite3984-0"
         in2="SourceGraphic"
         in="flood"
         operator="in"
         result="composite1" />
      <feGaussianBlur
         id="feGaussianBlur3986-5"
         stdDeviation="0.2"
         result="blur" />
      <feOffset
         id="feOffset3988-4"
         dx="1.2"
         dy="-3.3"
         result="offset" />
      <feComposite
         id="feComposite3990-1"
         in2="offset"
         in="SourceGraphic"
         operator="over"
         result="composite2" />
    </filter>
  </defs>
  <sodipodi:namedview
     pagecolor="#ffffff"
     bordercolor="#666666"
     borderopacity="1"
     objecttolerance="10"
     gridtolerance="10"
     guidetolerance="10"
     inkscape:pageopacity="0"
     inkscape:pageshadow="2"
     inkscape:window-width="1920"
     inkscape:window-height="1025"
     id="namedview4"
     showgrid="false"
     inkscape:zoom="0.25606623"
     inkscape:cx="1240.5"
     inkscape:cy="1751.5"
     inkscape:window-x="0"
     inkscape:window-y="26"
     inkscape:window-maximized="1"
     inkscape:current-layer="svg2" />
  <image
     xlink:href="../gfx_Pepper-and-Carrot_by-David-Revoy_E05P04.png"
     width="2481"
     height="3503"
     id="image10"
     x="0"
     y="0" />
  <flowRoot
     transform="matrix(0.96922202,0.13630581,-0.53846719,0.65462211,1023.1804,1850.0518)"
     style="font-style:normal;font-variant:normal;font-weight:normal;font-stretch:normal;font-size:87.1615px;line-height:0.01%;font-family:Arial;-inkscape-font-specification:Arial;letter-spacing:0px;word-spacing:0px;fill:#413727;fill-opacity:1;stroke:#483c2b;stroke-width:1.22156;stroke-miterlimit:4;stroke-dasharray:none;stroke-opacity:1;filter:url(#filter3980)"
     id="flowRoot2995"
     xml:space="preserve"><flowRegion
       id="flowRegion2997"
       style="font-size:87.1615px"><rect
         y="1627.8433"
         x="916.97449"
         height="182.76164"
         width="606.09369"
         id="rect2999"
         style="font-size:87.1615px;fill:#413727;fill-opacity:1;stroke:#483c2b;stroke-width:1.22156;stroke-miterlimit:4;stroke-dasharray:none;stroke-opacity:1" /></flowRegion><flowPara
       style="font-style:normal;font-variant:normal;font-weight:bold;font-stretch:normal;font-size:87.1615px;line-height:1.25;font-family:'linja sike';-inkscape-font-specification:'linja sike Bold';fill:#413727;fill-opacity:1;stroke:#483c2b;stroke-width:1.22156;stroke-miterlimit:4;stroke-dasharray:none;stroke-opacity:1"
       id="flowPara3001">  tenpo</flowPara></flowRoot>
  <flowRoot
     xml:space="preserve"
     id="flowRoot2987"
     style="font-style:normal;font-variant:normal;font-weight:normal;font-stretch:normal;font-size:87.681px;line-height:0.01%;font-family:Arial;-inkscape-font-specification:Arial;letter-spacing:0px;word-spacing:0px;fill:#483c2b;fill-opacity:1;stroke:#413727;stroke-width:1.37842;stroke-miterlimit:4;stroke-dasharray:none;stroke-opacity:1;filter:url(#filter3980)"
     transform="matrix(0.95994408,0.01756323,-0.34001876,0.72247349,821.41648,1862.8883)"><flowRegion
       id="flowRegion2989"
       style="font-size:87.681px"><rect
         id="rect2991"
         width="588.62231"
         height="151.98804"
         x="916.97449"
         y="1627.8433"
         style="font-size:87.681px;fill:#483c2b;fill-opacity:1;stroke:#413727;stroke-width:1.37842;stroke-miterlimit:4;stroke-dasharray:none;stroke-opacity:1" /></flowRegion><flowPara
       id="flowPara2993"
       style="font-style:normal;font-variant:normal;font-weight:bold;font-stretch:normal;font-size:87.681px;line-height:1.25;font-family:'linja sike';-inkscape-font-specification:'linja sike Bold';fill:#483c2b;fill-opacity:1;stroke:#413727;stroke-width:1.37842;stroke-miterlimit:4;stroke-dasharray:none;stroke-opacity:1">lete</flowPara></flowRoot>
  <flowRoot
     xml:space="preserve"
     id="flowRoot2987-9"
     style="font-style:normal;font-variant:normal;font-weight:normal;font-stretch:normal;font-size:87.681px;line-height:0.01%;font-family:Arial;-inkscape-font-specification:Arial;letter-spacing:0px;word-spacing:0px;fill:#483c2b;fill-opacity:1;stroke:#413727;stroke-width:1.37842;stroke-miterlimit:4;stroke-dasharray:none;stroke-opacity:1;filter:url(#filter3980-9)"
     transform="matrix(0.91926174,-0.10489424,-0.12967708,0.77574028,586.33896,1887.5854)"><flowRegion
       id="flowRegion2989-1"
       style="font-size:87.681px"><rect
         id="rect2991-5"
         width="579.58398"
         height="151.36462"
         x="916.97449"
         y="1627.8433"
         style="font-size:87.681px;fill:#483c2b;fill-opacity:1;stroke:#413727;stroke-width:1.37842;stroke-miterlimit:4;stroke-dasharray:none;stroke-opacity:1" /></flowRegion><flowPara
       id="flowPara2993-0"
       style="font-style:normal;font-variant:normal;font-weight:bold;font-stretch:normal;font-size:87.681px;line-height:1.25;font-family:'linja sike';-inkscape-font-specification:'linja sike Bold';fill:#483c2b;fill-opacity:1;stroke:#413727;stroke-width:1.37842;stroke-miterlimit:4;stroke-dasharray:none;stroke-opacity:1">pona</flowPara></flowRoot>
</svg>
