<?xml version="1.0" encoding="UTF-8" standalone="no"?>
<svg
   xmlns:dc="http://purl.org/dc/elements/1.1/"
   xmlns:cc="http://creativecommons.org/ns#"
   xmlns:rdf="http://www.w3.org/1999/02/22-rdf-syntax-ns#"
   xmlns:svg="http://www.w3.org/2000/svg"
   xmlns="http://www.w3.org/2000/svg"
   xmlns:xlink="http://www.w3.org/1999/xlink"
   xmlns:sodipodi="http://sodipodi.sourceforge.net/DTD/sodipodi-0.dtd"
   xmlns:inkscape="http://www.inkscape.org/namespaces/inkscape"
   id="svg2"
   version="1.1"
   inkscape:version="0.92.4 (5da689c313, 2019-01-14)"
   width="2481"
   height="3503"
   sodipodi:docname="E34P08.svg">
  <metadata
     id="metadata8">
    <rdf:RDF>
      <cc:Work
         rdf:about="">
        <dc:format>image/svg+xml</dc:format>
        <dc:type
           rdf:resource="http://purl.org/dc/dcmitype/StillImage" />
        <dc:title />
      </cc:Work>
    </rdf:RDF>
  </metadata>
  <defs
     id="defs6" />
  <sodipodi:namedview
     pagecolor="#ffffff"
     bordercolor="#666666"
     borderopacity="1"
     objecttolerance="10"
     gridtolerance="10"
     guidetolerance="10"
     inkscape:pageopacity="0"
     inkscape:pageshadow="2"
     inkscape:window-width="1856"
     inkscape:window-height="1016"
     id="namedview4"
     showgrid="false"
     inkscape:zoom="0.34782609"
     inkscape:cx="829.2658"
     inkscape:cy="977.27218"
     inkscape:window-x="64"
     inkscape:window-y="27"
     inkscape:window-maximized="1"
     inkscape:current-layer="layer1"
     inkscape:document-rotation="0"
     inkscape:snap-global="false"
     borderlayer="true" />
  <g
     inkscape:groupmode="layer"
     id="layer2"
     inkscape:label="artwork"
     sodipodi:insensitive="true">
    <image
       sodipodi:absref="/home/thomas/Dropbox (Intersign)/Egne filer (udelt)/PepperGulrot/webcomics-master-ep34_The-Knighting-of-Shichimi/ep34_The-Knighting-of-Shichimi/lang/no/../gfx_Pepper-and-Carrot_by-David-Revoy_E34P08.png"
       xlink:href="../gfx_Pepper-and-Carrot_by-David-Revoy_E34P08.png"
       y="0"
       x="0"
       id="image10"
       height="3503"
       width="2481" />
  </g>
  <g
     inkscape:groupmode="layer"
     id="layer3"
     inkscape:label="speechbubbles"
     style="display:inline">
    <path
       style="color:#000000;display:inline;overflow:visible;visibility:visible;fill:#ffffff;fill-opacity:1;fill-rule:nonzero;stroke:none;stroke-width:0.770224px;marker:none;enable-background:accumulate"
       d="m 1858.8745,2602.7661 c 24.645,-31.5484 88.5186,-58.8546 134.0691,-29.1667 47.5832,1.2392 31.3766,-27.3129 31.3766,-27.3129 -2.2798,-13.3723 -128.0086,-31.4485 -165.4457,56.4796 z"
       id="path3984-7"
       inkscape:connector-curvature="0"
       sodipodi:nodetypes="cccc" />
    <path
       style="display:inline;fill:#ffffff;stroke:none;stroke-width:1.39675033"
       d="m 2138.2287,2621.5134 c -43.5761,1.3936 -87.797,12.4549 -123.4268,36.8284 -57.0605,40.5512 -85.1705,114.0988 -68.1602,179.6353 8.226,35.6596 32.1901,68.4078 66.3334,86.1028 33.203,17.5884 71.221,24.7287 108.6821,28.723 55.3644,5.3823 111.8885,-0.9608 164.6365,-17.5893 29.7426,-9.9889 54.141,-32.6833 65.5981,-60.3993 11.3704,-26.5503 13.4595,-55.6117 13.4994,-83.9544 -0.9402,-43.4538 -16.9594,-86.551 -45.0509,-120.9958 -13.2341,-16.2281 -32.3051,-28.059 -53.3986,-32.9218 -24.7674,-5.6806 -50.1208,-8.551 -75.3033,-12.0453 -17.7072,-2.1394 -35.5421,-3.63 -53.4097,-3.3836 z"
       id="path3280-8-3"
       inkscape:connector-curvature="0"
       sodipodi:nodetypes="csssc" />
    <path
       style="color:#000000;display:inline;overflow:visible;visibility:visible;fill:#ffffff;fill-opacity:1;fill-rule:nonzero;stroke:none;stroke-width:0.728515px;marker:none;enable-background:accumulate"
       d="m 2152.1088,2472.571 c -41.7584,-0.9701 -84.0784,3.662 -123.2497,17.4105 -14.7151,5.29 -29.2257,12.7608 -38.8403,24.7234 -12.0315,15.1252 -17.9022,34.0355 -18.41,52.7878 -0.1046,18.5638 7.1715,37.6624 21.8731,50.5903 11.7363,10.1785 26.957,15.6751 41.7542,20.7364 27.1244,9.1294 55.5564,14.2904 84.0868,17.5432 18.9775,2.1752 38.0323,3.74 57.1042,4.8757 16.8858,0.6093 33.7178,-1.6169 50.1146,-5.1354 23.7549,-4.5131 47.7514,-10.3879 68.4689,-22.4672 14.7362,-8.7345 27.1907,-21.7633 32.0384,-37.6643 6.5761,-20.4107 1.5862,-43.6413 -12.6138,-60.4231 -11.8436,-15.4162 -25.9168,-29.9854 -43.9326,-39.2111 -15.1977,-7.5829 -32.0986,-11.3046 -48.7019,-15.0934 -22.8853,-4.9277 -46.2523,-7.7894 -69.6919,-8.6728 z"
       id="path3970-3"
       inkscape:connector-curvature="0"
       sodipodi:nodetypes="cccscsc" />
    <path
       style="display:inline;fill:#ffffff;fill-rule:evenodd;stroke:none;stroke-width:1.19769px;stroke-linecap:butt;stroke-linejoin:miter;stroke-opacity:1"
       d="m 149.97784,2639.0252 c 39.86193,27.8955 32.52231,40.0735 -23.67073,35.9837 89.58912,42.8351 52.60569,49.2464 -4.1167,49.9774 38.07751,15.6456 80.20982,30.956 -7.20414,56.9743 50.65722,4.2183 94.79578,10.1746 8.23329,50.977 44.91072,-1.6758 74.04332,-18.7567 19.8773,36.7827 73.51489,-24.9458 140.64956,-17.0906 102.59359,45.1802 36.95129,-18.3388 97.70046,-64.815 76.15825,-13.9936 16.9296,-16.2306 38.47559,-22.3733 77.18751,8.9959 -7.54878,-22.6233 -30.29283,-58.4779 38.07913,-14.9932 -20.6692,-34.0251 -0.84903,-68.3859 68.1897,-17.9249 -10.28467,-25.6552 -78.5565,-35.3843 5.91036,-61.0395 -58.18262,-2.5587 -40.13526,-19.9247 -3.08744,-40.9814 -69.28068,-11.6374 -35.0024,-25.7279 6.17499,-39.982 -42.91247,-5.4331 -76.01888,-14.5828 -8.2334,-61.972 -74.61274,19.6735 -53.02033,-13.6004 -49.40008,-36.9833 -34.43236,18.5673 -73.37075,47.7106 -76.15836,-7.9964 -46.18982,69.1143 -63.67863,16.2752 -89.5375,-0.9995 -26.8957,82.2398 -87.8655,6.4455 -104.97483,0.9995 34.89138,33.6606 40.98338,48.9014 -36.02094,10.9951 z"
       id="path1096"
       inkscape:connector-curvature="0"
       sodipodi:nodetypes="cccccccccccccccccccc" />
    <path
       style="fill:#ffffff;fill-rule:evenodd;stroke:none;stroke-width:1px;stroke-linecap:butt;stroke-linejoin:miter;stroke-opacity:1"
       d="m 276.69249,2637.35 c 22.24357,147.5922 76.16994,294.7462 66.72409,442.7767 39.32721,-7.5351 57.02691,-43.538 110.60404,61.3044 36.13567,-50.5432 43.46402,-9.9468 54.08883,20.3938 25.92501,-21.2619 53.62712,-17.4156 81.20022,-15.3921 -24.07084,-2.6294 -42.56765,-23.176 -74.42406,-0.7793 -0.99204,-50.5675 -24.7242,-64.2967 -53.19608,-40.6932 -22.25284,-65.4923 -46.37098,-77.5206 -92.38131,-54.9383 1.82968,-175.1557 -47.49605,-279.4592 -67.44658,-422.2765 z"
       id="path1313"
       sodipodi:nodetypes="cccccccccc" />
    <path
       style="color:#000000;display:inline;overflow:visible;visibility:visible;fill:#ffffff;fill-opacity:1;fill-rule:nonzero;stroke:none;stroke-width:1.31433px;marker:none;enable-background:accumulate"
       d="m 137.94543,2952.2227 c 2.57481,-42.4765 8.37968,-76.1738 40.31649,-94.8593 31.93682,-18.6853 90.00534,-22.3584 163.67617,-15.008 39.46208,3.9372 95.53388,9.6703 126.98199,27.4197 31.4482,17.7488 38.27248,47.5133 34.95875,109.7344 -3.31371,62.2209 -14.9026,95.3659 -51.27921,110.7925 -36.37663,15.4267 -97.54109,13.1348 -110.85534,14.7045 -34.81312,-4.9421 -101.93998,2.0672 -144.61363,-11.013 -42.67375,-13.0801 -60.89408,-46.2498 -59.18522,-141.7708 z"
       id="path4546-6-0"
       inkscape:connector-curvature="0"
       sodipodi:nodetypes="cssssscsc" />
    <path
       style="fill:#ffffff;fill-rule:evenodd;stroke:none;stroke-width:1.68226147px;stroke-linecap:butt;stroke-linejoin:miter;stroke-opacity:1"
       d="m 244.75857,2656.9896 c 43.10136,-54.1041 45.88199,-5.5358 68.10667,39.0948 21.60409,-32.9739 6.27145,-39.9434 55.79439,2.4871 10.27782,-65.2959 33.51857,-46.3366 61.63113,-11.7958 -9.73349,-45.9156 -10.29111,-67.4093 32.87907,-27.9246 10.94926,-52.1625 32.80181,-14.1952 63.40968,11.1704 -7.43352,-58.9271 -11.02117,-58.7551 51.66719,-48.4019 -43.57022,-51.9203 14.41753,-28.5366 58.71253,-22.3409 -66.48406,-40.2783 -42.49248,-33.1604 23.48526,-29.7861 -81.85916,-33.3414 -86.71185,-28.7259 -9.39414,-68.881 -115.27207,12.0383 -104.40695,10.5962 -28.18209,-59.5724 -45.75682,5.9435 -164.64472,89.3479 -91.59176,14.8939 -62.45742,19.6607 -90.40179,42.2879 -57.66142,-22.5961 l -22.96868,-1.1024 c -23.7996,23.5906 -51.52042,60.8382 -55.58339,12.5279 -34.76226,36.1074 -32.78812,42.1397 -49.31853,-3.7233 -22.96775,62.3328 -26.52186,14.074 -39.92491,-26.0628 -30.17039,37.4479 -30.45192,80.299 -49.31853,20.4777 -13.13471,60.8774 -39.71069,17.6769 -77.5008,-11.1691 11.78642,66.258 15.14976,65.5818 -42.27323,24.2011 21.53477,60.4942 -0.14705,47.7938 -61.060996,44.6785 72.932976,53.4343 49.703796,51.8198 -23.485277,89.3601 40.890338,5.9471 113.683623,-31.0164 75.152293,18.6158 90.31995,-30.3617 17.61922,48.5948 -4.69698,89.3586 80.69966,-62.2274 114.16036,-112.5862 122.12252,-33.5095 z"
       id="path1309"
       inkscape:connector-curvature="0"
       sodipodi:nodetypes="ccccccccccccccccccccccccc" />
    <path
       style="display:inline;fill:#ffffff;stroke:none;stroke-width:0.92122823"
       d="m 2005.3142,1883.9921 c -35.2643,2.5175 -70.0803,10.4582 -100.9462,23.3507 -20.7561,8.7041 -39.7509,19.7466 -54.8376,33.1415 -39.3207,33.9262 -59.7513,77.8595 -58.3543,120.8344 -0.2214,35.7311 13.1146,71.7674 42.4284,100.5332 28.0819,28.1845 67.7718,51.3204 115.017,61.7495 27.6276,6.2346 56.1571,10.5365 84.875,13.8464 39.8159,3.026 80.062,-3.0282 118.544,-11.0498 34.3331,-7.1379 68.6229,-17.4364 95.1871,-35.1431 29.3604,-19.5626 48.1348,-45.4541 62.4034,-71.5858 14.4748,-26.1806 22.2724,-54.6572 16.8009,-82.2912 -4.7815,-28.2353 -14.3089,-56.6824 -35.829,-80.7011 -21.0344,-23.2997 -52.5045,-41.3318 -88.2115,-52.5799 -46.818,-15.2565 -99.166,-20.8125 -150.9915,-21.3715 -15.356,-0.037 -30.7428,0.2579 -46.0857,1.2667 z"
       id="path3280-5"
       inkscape:connector-curvature="0"
       sodipodi:nodetypes="csssc" />
    <path
       style="color:#000000;display:inline;overflow:visible;visibility:visible;fill:#ffffff;fill-opacity:1;fill-rule:nonzero;stroke:none;stroke-width:0.869755px;marker:none;enable-background:accumulate"
       d="m 631.52816,1840.5303 c 47.24511,-27.3875 115.83444,-55.1086 154.24551,3.9472 23.5574,-4.8627 69.71482,-40.1263 115.42935,17.7336 -47.53609,-35.9834 -78.50267,-15.4767 -118.07887,4.9225 -18.59072,-41.5285 -83.01307,-49.4207 -140.96132,7.1368 -57.94866,56.5566 -38.62415,45.003 -38.62415,45.003 l 10.52452,-62.5977 z"
       id="path5074-8"
       inkscape:connector-curvature="0"
       sodipodi:nodetypes="ccccsccc" />
    <path
       style="display:inline;fill:#ffffff;stroke:none;stroke-width:1.21356976"
       d="m 455.30929,1786.6201 c -37.6608,0.7096 -76.1427,3.3034 -111.48813,16.143 -46.54404,17.5955 -81.87753,57.3521 -91.86399,102.3978 -7.16487,29.7634 -6.4996,61.4972 4.47794,90.4227 10.52269,26.7586 33.18283,48.9198 60.95542,61.485 13.96884,6.5625 29.21287,10.387 44.57082,13.095 25.44022,4.8583 51.14335,8.6801 77.00412,11.0729 57.79163,4.8796 117.84884,0.3554 171.3357,-21.4479 18.10996,-7.447 35.79871,-16.8901 49.13408,-30.5595 18.34406,-20.128 26.4495,-46.0672 31.32823,-71.4118 5.94153,-33.1136 2.06478,-68.6586 -16.35705,-98.1454 -18.97212,-29.7623 -52.17417,-50.581 -88.19852,-59.5782 -36.18211,-9.738 -74.08565,-12.1094 -111.58246,-13.5299 -6.43852,-0.096 -12.87842,-0.074 -19.31616,0.056 z"
       id="path3280-5-9"
       inkscape:connector-curvature="0"
       sodipodi:nodetypes="csssc" />
    <path
       style="color:#000000;display:inline;overflow:visible;visibility:visible;fill:#ffffff;fill-opacity:1;fill-rule:nonzero;stroke:none;stroke-width:1.29564202px;marker:none;enable-background:accumulate"
       d="m 1526.8635,284.94746 c 6.7091,-105.76337 78.614,-182.47388 326.1612,-163.46234 132.5998,10.18345 283.1171,16.63628 274.8258,171.56664 -8.2914,154.93009 -224.5743,151.7186 -269.181,155.49977 -44.6062,3.78143 -254.8436,-12.62073 -296.0225,-65.16602 -25.7773,-32.89174 -36.1907,-65.68853 -35.7835,-98.43805 z"
       id="path4546-7"
       inkscape:connector-curvature="0"
       sodipodi:nodetypes="cssssc" />
    <path
       style="fill:#ffffff;fill-rule:evenodd;stroke:none;stroke-width:1px;stroke-linecap:butt;stroke-linejoin:miter;stroke-opacity:1"
       d="m 1583.1971,228.38894 -0.065,25.78758 C 1064.4433,130.64867 897.1794,416.85146 793.5913,670.33743 810.89342,604.71047 848.83107,539.01086 867.11504,495.25305 921.33848,365.48369 1120.9039,126.81475 1583.1971,228.38894 Z"
       id="path1237"
       sodipodi:nodetypes="cccsc" />
    <path
       style="fill:#ffffff;fill-rule:evenodd;stroke:none;stroke-width:1.07745px;stroke-linecap:butt;stroke-linejoin:miter;stroke-opacity:1"
       d="m 792.00008,200.22561 c 33.7121,12.97476 64.18552,21.04152 53.82517,-32.7734 59.67262,73.06177 51.11263,23.02436 60.55332,5.4622 35.47754,51.61057 66.00304,44.25569 92.51203,-10.9244 14.9859,79.59467 46.3453,41.03052 74.0097,29.1319 -0.067,22.38327 -36.304,58.75533 63.962,16.82898 -23.3402,20.21595 -61.89,54.06155 8.0172,33.79483 -11.3289,5.35959 9.1441,9.60416 0.9908,12.75937 -36.4893,14.12075 -43.292,45.94822 12.0303,57.21953 -39.0932,12.56052 -47.9639,43.98583 -1.9312,80.13352 -58.4566,-24.94281 -49.6253,8.03409 -38.8085,23.94457 -57.4032,-32.71188 -65.4347,-19.61526 -60.5532,5.4622 -18.3198,-22.87975 -39.2236,-32.45983 -79.58358,6.55438 9.02795,-23.43417 -34.88368,-22.77173 -75.40616,14.31454 21.33941,-35.68177 -8.79121,-40.48012 -42.33642,-17.95604 -8.84776,-37.9175 -42.07125,-18.66554 -77.37369,5.46231 28.81487,-37.0083 30.90291,-67.92573 -25.23053,-85.57523 54.398,-21.17144 44.4926,-38.24845 23.54851,-54.62242 20.69208,-15.39734 34.18357,-32.16999 -20.18444,-61.90552 31.78763,4.6228 65.63406,10.58278 31.95869,-27.31132 z"
       id="path4582"
       inkscape:connector-curvature="0"
       sodipodi:nodetypes="cccccccscccccccccccc" />
    <path
       style="fill:#ffffff;fill-rule:evenodd;stroke:none;stroke-width:1.14149px;stroke-linecap:butt;stroke-linejoin:miter;stroke-opacity:1"
       d="m 186.64099,269.10219 c 14.16793,-17.9695 21.6656,-57.67395 -26.96962,-49.84375 39.28832,-24.22773 26.02054,-46.39487 -3.9116,-60.30611 73.97307,21.84758 73.30597,-3.1264 61.65626,-34.98976 47.54155,45.23929 40.41961,-2.73478 35.84699,-20.87523 10.75548,16.73933 13.0223,42.92164 49.60085,2.10678 -0.32028,30.13252 -6.17118,65.92523 62.1714,25.78584 -22.50387,36.76194 -23.29348,63.59943 42.00483,60.23151 -28.38205,11.84018 -67.58994,23.8538 -13.96314,34.38016 -34.61657,-0.92979 -57.61576,1.55757 -42.76886,15.17701 -14.37392,-2.5435 -33.83306,-9.95842 -3.30801,30.50934 -20.80242,-14.97453 -46.52652,-38.26005 -39.11492,-5.59088 -18.23798,-14.68676 -19.40407,6.8976 -15.2404,39.80566 -12.94537,-38.21825 -26.75878,-42.54053 -41.59034,-7.10557 6.55708,-27.98121 3.27152,-63.65454 -44.38626,-25.35425 -12.90735,-2.90399 -11.03497,-2.74842 -20.02718,-3.93075 z"
       id="path1213"
       sodipodi:nodetypes="cccccccccccccccc" />
    <path
       style="fill:#ffffff;fill-rule:evenodd;stroke:none;stroke-width:1.28731px;stroke-linecap:butt;stroke-linejoin:miter;stroke-opacity:1"
       d="M 223.92681,451.40352 C 191.03014,380.78428 162.95416,309.9462 234.75229,234.57441 l -10.34265,-15.32374 c -90.31546,91.35161 -49.21656,162.34365 -0.48283,232.15285 z"
       id="path1217"
       sodipodi:nodetypes="cccc" />
    <path
       style="fill:#ffffff;fill-rule:evenodd;stroke:none;stroke-width:1.08499px;stroke-linecap:butt;stroke-linejoin:miter;stroke-opacity:1"
       d="m 1643.7985,1929.1739 c 96.8015,-46.6867 120.9988,-40.2821 80.5755,28.3512 65.4725,-1.176 123.2483,3.9962 149.8904,34.8462 l 15.5883,-26.0596 c -31.2138,-18.9598 -72.3678,-35.221 -134.1445,-30.1606 20.9177,-34.9284 13.3859,-99.1339 -111.9097,-6.9772 z"
       id="path1284"
       sodipodi:nodetypes="cccccc" />
  </g>
  <g
     inkscape:groupmode="layer"
     id="layer1"
     inkscape:label="txt">
    <text
       xml:space="preserve"
       style="font-style:normal;font-variant:normal;font-weight:normal;font-stretch:normal;font-size:81.3623px;line-height:1.25;font-family:Lavi;-inkscape-font-specification:Lavi;text-align:center;letter-spacing:0px;word-spacing:0px;text-anchor:middle;fill:#000000;fill-opacity:1;stroke:none;stroke-width:1.408;stroke-miterlimit:4;stroke-dasharray:none"
       x="316.34204"
       y="221.56798"
       id="text4246-3-2-2-6-3-7-9-3-3-56-9-3-20"
       transform="matrix(0.93887237,0,-0.13753791,1.0651075,0,0)"><tspan
         style="font-style:normal;font-variant:normal;font-weight:normal;font-stretch:normal;font-size:81.3623px;font-family:Lavi;-inkscape-font-specification:Lavi;stroke:#000000;stroke-width:1.408;stroke-miterlimit:4;stroke-dasharray:none;stroke-opacity:1"
         sodipodi:role="line"
         x="316.34204"
         y="221.56798"
         id="tspan334">?!!</tspan></text>
    <text
       xml:space="preserve"
       style="font-style:normal;font-variant:normal;font-weight:normal;font-stretch:normal;font-size:55.08750153px;line-height:1.25;font-family:Lavi;-inkscape-font-specification:Lavi;text-align:center;letter-spacing:0px;word-spacing:0px;text-anchor:middle;fill:#000000;fill-opacity:1;stroke:none;stroke-width:1.22416997"
       x="977.57172"
       y="280.76764"
       id="text4246-3-2-2-6-3-7-9-3-3-56-9-3-20-3"
       transform="scale(0.97385246,1.0268496)"><tspan
         style="font-size:55.08750153px;stroke-width:1.22416997"
         sodipodi:role="line"
         x="977.57172"
         y="280.76764"
         id="tspan888"><tspan
   style="font-weight:bold"
   id="tspan870">Hun</tspan> var</tspan><tspan
         style="font-size:55.08750153px;stroke-width:1.22416997"
         sodipodi:role="line"
         x="977.57172"
         y="349.62701"
         id="tspan876">målet!</tspan></text>
    <text
       xml:space="preserve"
       style="font-style:normal;font-variant:normal;font-weight:normal;font-stretch:normal;font-size:48.80149841px;line-height:1.25;font-family:Lavi;-inkscape-font-specification:Lavi;text-align:center;letter-spacing:0px;word-spacing:0px;text-anchor:middle;fill:#000000;fill-opacity:1;stroke:none;stroke-width:1.08448005"
       x="1823.4506"
       y="195.56276"
       id="text4246-3-2-2-6-3-7-9-3-3-56-9-3-20-3-7"><tspan
         style="font-size:48.80149841px;stroke-width:1.08448005"
         sodipodi:role="line"
         x="1823.4506"
         y="195.56276"
         id="tspan914">Jeg har nettopp</tspan><tspan
         style="font-size:48.80149841px;stroke-width:1.08448005"
         sodipodi:role="line"
         x="1823.4506"
         y="256.56464"
         id="tspan910">avbrutt <tspan
   style="font-style:italic"
   id="tspan903">Glamour-</tspan></tspan><tspan
         style="font-size:48.80149841px;stroke-width:1.08448005"
         sodipodi:role="line"
         x="1823.4506"
         y="317.5665"
         id="tspan918">formelen som fikk henne</tspan><tspan
         style="font-size:48.80149841px;stroke-width:1.08448005"
         sodipodi:role="line"
         x="1823.4506"
         y="378.56839"
         id="tspan922">til å se så ung ut.</tspan></text>
    <text
       xml:space="preserve"
       style="font-style:normal;font-variant:normal;font-weight:normal;font-stretch:normal;font-size:45px;line-height:1.25;font-family:Lavi;-inkscape-font-specification:Lavi;text-align:center;letter-spacing:0px;word-spacing:0px;text-anchor:middle;fill:#000000;fill-opacity:1;stroke:none"
       x="469.60629"
       y="1875.8445"
       id="text4246-3-2-2-6-3-7-9-3-3-56-9-3-20-5"><tspan
         style="font-size:45px"
         sodipodi:role="line"
         x="469.60629"
         y="1875.8445"
         id="tspan938">Jeg la merke til</tspan><tspan
         style="font-size:45px"
         sodipodi:role="line"
         x="469.60629"
         y="1932.0945"
         id="tspan943">lureriet hennes med</tspan><tspan
         style="font-size:45px"
         sodipodi:role="line"
         x="476.63754"
         y="1988.3445"
         id="tspan945">det samme jeg </tspan><tspan
         style="font-size:45px"
         sodipodi:role="line"
         x="469.60629"
         y="2044.5945"
         id="tspan947">ankom...</tspan></text>
    <text
       xml:space="preserve"
       style="font-style:normal;font-variant:normal;font-weight:normal;font-stretch:normal;font-size:45px;line-height:1.25;font-family:Lavi;-inkscape-font-specification:Lavi;text-align:center;letter-spacing:0px;word-spacing:0px;text-anchor:middle;fill:#000000;fill-opacity:1;stroke:none"
       x="2056.2812"
       y="1965.4021"
       id="text4246-3-2-2-6-3-7-9-3-3-56-9-3-20-5-9"><tspan
         style="font-size:45px"
         sodipodi:role="line"
         x="2056.2812"
         y="1965.4021"
         id="tspan946">..så jeg ga deg en</tspan><tspan
         style="font-size:45px"
         sodipodi:role="line"
         x="2056.2812"
         y="2021.6521"
         id="tspan965">velfortjent liten lære-</tspan><tspan
         style="font-size:45px"
         sodipodi:role="line"
         x="2063.3125"
         y="2077.9021"
         id="tspan967">penge for at du tvang </tspan><tspan
         style="font-size:45px"
         sodipodi:role="line"
         x="2056.2812"
         y="2134.1521"
         id="tspan948">Shichimi til å slåss</tspan><tspan
         style="font-size:45px"
         sodipodi:role="line"
         x="2056.2812"
         y="2190.4021"
         id="tspan969">mot meg!</tspan></text>
    <text
       xml:space="preserve"
       style="font-style:normal;font-variant:normal;font-weight:normal;font-stretch:normal;font-size:60px;line-height:1.25;font-family:Lavi;-inkscape-font-specification:Lavi;text-align:center;letter-spacing:2px;word-spacing:0px;text-anchor:middle;fill:#000000;fill-opacity:1;stroke:none;stroke-width:1.32287002"
       x="411.37729"
       y="2211.761"
       id="text4246-3-2-2-6-3-7-9-3-3-56-9-3-20-5-9-0"
       transform="scale(0.860916,1.1615535)"><tspan
         style="font-style:normal;font-variant:normal;font-weight:bold;font-stretch:normal;font-size:60px;font-family:Lavi;-inkscape-font-specification:'Lavi Bold';stroke-width:1.32287002"
         sodipodi:role="line"
         x="412.37729"
         y="2211.761"
         id="tspan992-6">UFORSKAMMET!</tspan></text>
    <text
       xml:space="preserve"
       style="font-style:normal;font-variant:normal;font-weight:normal;font-stretch:normal;font-size:58px;line-height:1.25;font-family:Lavi;-inkscape-font-specification:Lavi;text-align:center;letter-spacing:0px;word-spacing:0px;text-anchor:middle;fill:#000000;fill-opacity:1;stroke:none;stroke-width:1.30552995"
       x="318.78159"
       y="2733.5771"
       id="text4246-3-2-2-6-3-7-9-3-3-56-9-3-20-5-2"><tspan
         style="font-size:58px;stroke-width:1.30552995"
         sodipodi:role="line"
         x="318.78159"
         y="2733.5771"
         id="tspan943-8">Hvordan</tspan><tspan
         style="font-size:58px;stroke-width:1.30552995"
         sodipodi:role="line"
         x="318.78159"
         y="2806.0771"
         id="tspan1085"><tspan
   style="font-weight:bold"
   id="tspan991">våger</tspan> du,</tspan></text>
    <text
       xml:space="preserve"
       style="font-style:normal;font-variant:normal;font-weight:normal;font-stretch:normal;font-size:50px;line-height:1.25;font-family:Lavi;-inkscape-font-specification:Lavi;text-align:center;letter-spacing:0px;word-spacing:0px;text-anchor:middle;fill:#000000;fill-opacity:1;stroke:none;stroke-width:1.30552995"
       x="316.50259"
       y="2928.0212"
       id="text4246-3-2-2-6-3-7-9-3-3-56-9-3-20-5-2-7"><tspan
         style="font-size:50px;stroke-width:1.30552995"
         sodipodi:role="line"
         x="316.50259"
         y="2928.0212"
         id="tspan959">og så foran</tspan><tspan
         style="font-size:50px;stroke-width:1.30552995"
         sodipodi:role="line"
         x="316.50259"
         y="2990.5212"
         id="tspan998">hele skolen</tspan><tspan
         style="font-size:50px;stroke-width:1.30552995"
         sodipodi:role="line"
         x="316.50259"
         y="3053.0212"
         id="tspan1000">til og med!</tspan></text>
    <text
       xml:space="preserve"
       style="font-style:normal;font-variant:normal;font-weight:normal;font-stretch:normal;font-size:45px;line-height:1.25;font-family:Lavi;-inkscape-font-specification:Lavi;text-align:center;letter-spacing:0px;word-spacing:0px;text-anchor:middle;fill:#000000;fill-opacity:1;stroke:none"
       x="2143.5481"
       y="2544.0259"
       id="text4246-3-2-2-6-3-7-9-3-3-56-9-3-20-5-9-02"><tspan
         style="font-size:45px"
         sodipodi:role="line"
         x="2143.5481"
         y="2544.0259"
         id="tspan1175">Anse deg selv</tspan><tspan
         style="font-size:45px"
         sodipodi:role="line"
         x="2143.5481"
         y="2600.2759"
         id="tspan1004">som heldig!</tspan></text>
    <text
       xml:space="preserve"
       style="font-style:normal;font-variant:normal;font-weight:normal;font-stretch:normal;font-size:45px;line-height:1.25;font-family:Lavi;-inkscape-font-specification:Lavi;text-align:center;letter-spacing:0px;word-spacing:0px;text-anchor:middle;fill:#000000;fill-opacity:1;stroke:none"
       x="2159.0271"
       y="2719.3577"
       id="text4246-3-2-2-6-3-7-9-3-3-56-9-3-20-5-9-02-2"><tspan
         style="font-size:45px"
         sodipodi:role="line"
         x="2159.0271"
         y="2719.3577"
         id="tspan976">Hadde jeg hatt</tspan><tspan
         style="font-size:45px"
         sodipodi:role="line"
         x="2159.0271"
         y="2775.6077"
         id="tspan982">all min rea,</tspan><tspan
         style="font-size:45px"
         sodipodi:role="line"
         x="2159.0271"
         y="2831.8577"
         id="tspan1015">ville jeg ikke</tspan><tspan
         style="font-size:45px"
         sodipodi:role="line"
         x="2159.0271"
         y="2888.1077"
         id="tspan1017">ha stoppet der.</tspan></text>
  </g>
</svg>
