<?xml version="1.0" encoding="UTF-8" standalone="no"?>
<svg
   xmlns:dc="http://purl.org/dc/elements/1.1/"
   xmlns:cc="http://creativecommons.org/ns#"
   xmlns:rdf="http://www.w3.org/1999/02/22-rdf-syntax-ns#"
   xmlns:svg="http://www.w3.org/2000/svg"
   xmlns="http://www.w3.org/2000/svg"
   xmlns:xlink="http://www.w3.org/1999/xlink"
   xmlns:sodipodi="http://sodipodi.sourceforge.net/DTD/sodipodi-0.dtd"
   xmlns:inkscape="http://www.inkscape.org/namespaces/inkscape"
   id="svg2"
   version="1.1"
   inkscape:version="0.92.4 (5da689c313, 2019-01-14)"
   width="2481"
   height="3503"
   sodipodi:docname="E34P01.svg">
  <metadata
     id="metadata8">
    <rdf:RDF>
      <cc:Work
         rdf:about="">
        <dc:format>image/svg+xml</dc:format>
        <dc:type
           rdf:resource="http://purl.org/dc/dcmitype/StillImage" />
        <dc:title />
      </cc:Work>
    </rdf:RDF>
  </metadata>
  <defs
     id="defs6">
    <filter
       inkscape:collect="always"
       style="color-interpolation-filters:sRGB"
       id="filter7961"
       x="-0.0038362744"
       width="1.0076725"
       y="-0.012583922"
       height="1.0251678"
       inkscape:label="blur-layer-whisper">
      <feGaussianBlur
         inkscape:collect="always"
         stdDeviation="2.6222679"
         id="feGaussianBlur7963" />
    </filter>
    <filter
       style="color-interpolation-filters:sRGB;"
       inkscape:label="narrator-drop-shadow"
       id="filter8274"
       width="1.3"
       height="1.5">
      <feFlood
         flood-opacity="0.603922"
         flood-color="rgb(0,21,64)"
         result="flood"
         id="feFlood8264" />
      <feComposite
         in="flood"
         in2="SourceGraphic"
         operator="in"
         result="composite1"
         id="feComposite8266" />
      <feGaussianBlur
         in="composite1"
         stdDeviation="2.0230825044646368"
         result="blur"
         id="feGaussianBlur8268" />
      <feOffset
         dx="-7.4077921838061513"
         dy="4.8380533854166714"
         result="offset"
         id="feOffset8270" />
      <feComposite
         in="SourceGraphic"
         in2="offset"
         operator="over"
         result="fbSourceGraphic"
         id="feComposite8272" />
      <feColorMatrix
         result="fbSourceGraphicAlpha"
         in="fbSourceGraphic"
         values="0 0 0 -1 0 0 0 0 -1 0 0 0 0 -1 0 0 0 0 1 0"
         id="feColorMatrix8420" />
      <feFlood
         id="feFlood8422"
         flood-opacity="0.061934527228860295"
         flood-color="rgb(0,12,37)"
         result="flood"
         in="fbSourceGraphic" />
      <feComposite
         in2="fbSourceGraphic"
         id="feComposite8424"
         in="flood"
         operator="in"
         result="composite1" />
      <feGaussianBlur
         id="feGaussianBlur8426"
         in="composite1"
         stdDeviation="1"
         result="blur" />
      <feOffset
         id="feOffset8428"
         dx="-3.3194756113327486"
         dy="-2.8318869588504754"
         result="offset" />
      <feComposite
         in2="offset"
         id="feComposite8430"
         in="fbSourceGraphic"
         operator="over"
         result="composite2" />
    </filter>
  </defs>
  <sodipodi:namedview
     pagecolor="#ffffff"
     bordercolor="#666666"
     borderopacity="1"
     objecttolerance="10"
     gridtolerance="10"
     guidetolerance="10"
     inkscape:pageopacity="0"
     inkscape:pageshadow="2"
     inkscape:window-width="1856"
     inkscape:window-height="1016"
     id="namedview4"
     showgrid="false"
     inkscape:zoom="0.30952006"
     inkscape:cx="569.75486"
     inkscape:cy="2286.8879"
     inkscape:window-x="64"
     inkscape:window-y="27"
     inkscape:window-maximized="1"
     inkscape:current-layer="layer1"
     inkscape:document-rotation="0"
     borderlayer="true"
     inkscape:snap-global="false" />
  <g
     inkscape:groupmode="layer"
     id="layer2"
     inkscape:label="artwork"
     sodipodi:insensitive="true">
    <image
       sodipodi:absref="/home/thomas/Dropbox (Intersign)/Egne filer (udelt)/PepperGulrot/webcomics-master-ep34_The-Knighting-of-Shichimi/ep34_The-Knighting-of-Shichimi/lang/no/../gfx_Pepper-and-Carrot_by-David-Revoy_E34P01.png"
       xlink:href="../gfx_Pepper-and-Carrot_by-David-Revoy_E34P01.png"
       y="0"
       x="0"
       id="image10"
       height="3503.7233"
       width="2481" />
  </g>
  <g
     inkscape:groupmode="layer"
     id="layer3"
     inkscape:label="speechbubbles-whisper"
     style="display:inline;opacity:0.65;filter:url(#filter7961)">
    <path
       id="path1299"
       style="fill:#e0ffff;fill-rule:evenodd;stroke:none;stroke-width:1.36527px;stroke-linecap:butt;stroke-linejoin:miter;stroke-opacity:1"
       d="m 1493.1489,2593.9919 c -43.8402,2.6718 -88.0588,4.5535 -131.0881,14.6436 -35.5494,9.9995 -69.8159,25.7897 -99.2831,48.2814 -23.6945,19.8509 -40.0471,49.0713 -41.645,79.7898 -1.41,34.5241 5.6349,68.1364 35.763,84.6016 22.292,12.8504 46.6948,21.5705 70.7771,30.6007 35.048,11.9843 85.3375,16.4885 122.4945,16.5558 45.3235,0.5922 90.6393,-2.6208 135.9154,-5.1926 35.9934,-2.2717 84.9614,-5.2417 119.688,-16.0578 20.7591,-6.7282 40.1919,-18.1718 55.2783,-34.0334 12.1473,-12.1484 23.6101,-26.063 28.1636,-42.8142 4.8523,-18.5598 2.0494,-38.0375 -3.3579,-55.9742 -6.9728,-22.2815 -20.8505,-41.9152 -38.1963,-57.3933 -19.1029,-17.1866 -53.2402,-32.0177 -77.3488,-41.572 -12.2163,-4.9747 -25.0933,-8.231 -38.147,-10.385 -33.0716,-6.0317 -66.7246,-8.5343 -100.3094,-10.6686 -12.884,-0.5766 -25.796,-0.655 -38.7043,-0.3818 z"
       inkscape:connector-curvature="0"
       sodipodi:nodetypes="ccccccccccccccccc" />
    <path
       style="fill:#e0ffff;fill-rule:evenodd;stroke:none;stroke-width:1.42105px;stroke-linecap:butt;stroke-linejoin:miter;stroke-opacity:1"
       d="m 1288.637,2520.4406 c -20.6915,0.5715 -41.73,3.124 -60.6242,10.569 -22.3365,9.335 -37.822,29.5951 -37.7682,50.6444 0.5025,10.9745 6.7685,21.3476 15.5687,29.2934 6.3224,5.6779 14.2595,9.8604 22.5374,13.2307 16.6664,7.0126 35.3437,10.2679 53.9211,10.4477 29.6008,1.3792 59.5433,-0.345 88.3519,-6.3959 13.5577,-2.9712 27.0559,-7.7122 37.1029,-16.162 10.2844,-8.3459 17.8224,-19.6239 18.7119,-31.7683 0.273,-10.8875 -5.3471,-21.2253 -12.665,-29.9724 -9.3254,-11.6163 -23.5761,-20.6918 -39.9667,-23.8402 -19.9408,-4.5851 -40.7451,-5.1076 -61.2768,-5.8492 -7.962,-0.1945 -15.9281,-0.2195 -23.893,-0.1972 z"
       id="path1285"
       inkscape:connector-curvature="0" />
    <path
       style="vector-effect:none;fill:#e0ffff;fill-opacity:1;stroke:none;stroke-width:1.34471309px;stroke-linecap:butt;stroke-linejoin:miter;stroke-miterlimit:4;stroke-dasharray:none;stroke-dashoffset:0;stroke-opacity:1"
       d="m 243.81927,2520.078 c -31.28683,1.2291 -62.69883,10.5086 -87.07679,28.6668 -20.53688,14.7836 -37.72873,34.2765 -45.69186,57.1712 -13.216604,41.1822 2.92699,88.8641 39.77164,115.8559 19.97638,14.8981 44.74415,23.2898 69.63007,28.7186 42.0655,8.8386 86.07817,9.8436 128.62751,3.2781 25.77891,-4.6715 51.05796,-14.492 70.22397,-31.142 20.78315,-18.074 34.3594,-43.3618 35.30762,-69.6182 0.66254,-14.7078 -1.27392,-29.4332 -4.43985,-43.8387 -5.40133,-22.4903 -18.53325,-43.7064 -38.30569,-58.3422 -13.18451,-9.8917 -29.01659,-16.6035 -45.54966,-20.4038 -28.22104,-7.1055 -57.6132,-9.146 -86.76954,-10.0843 -11.9064,-0.2861 -23.81787,-0.2664 -35.72742,-0.2614 z"
       id="path3280-8-90"
       inkscape:connector-curvature="0"
       sodipodi:nodetypes="csssc" />
    <path
       style="fill:#e0ffff;fill-opacity:1;fill-rule:evenodd;stroke:none;stroke-width:1.28082px;stroke-linecap:butt;stroke-linejoin:miter;stroke-opacity:1"
       d="m 405.61348,2631.9631 c 42.85265,-5.0607 58.06957,-2.3086 68.49973,0.7202 10.42915,3.0295 34.5561,33.0962 43.85358,53.3011 -34.06156,-36.1486 -48.52756,-39.3772 -65.05064,-34.4498 -16.52311,4.9273 -63.29994,23.4366 -63.29994,23.4366 l 11.09296,-45.4041 z"
       id="path1291"
       inkscape:connector-curvature="0"
       sodipodi:nodetypes="csccccc" />
    <path
       style="fill:#e0ffff;fill-rule:evenodd;stroke:none;stroke-width:0.964753px;stroke-linecap:butt;stroke-linejoin:miter;stroke-opacity:1"
       d="m 1434.2038,2989.2388 c 48.3667,-37.0134 81.9085,-79.2404 77.928,-171.8638 l 30.8393,-3.1198 c -4.7727,67.6875 -17.9327,144.5385 -108.7673,174.9836 z"
       id="path1291-6"
       inkscape:connector-curvature="0"
       sodipodi:nodetypes="cccc" />
  </g>
  <g
     inkscape:groupmode="layer"
     id="layer4"
     inkscape:label="speechbubbles"
     style="display:inline">
    <path
       id="path4040-4-1"
       style="color:#000000;display:inline;overflow:visible;visibility:visible;fill:#ffffff;fill-opacity:1;fill-rule:nonzero;stroke:none;stroke-width:0.87447399px;marker:none;enable-background:accumulate"
       d="m 408.78284,1883.1559 c -55.12872,0.572 -110.63884,0.3559 -165.13124,10.2996 -32.24091,6.4965 -63.04374,23.3483 -84.74481,49.4291 -9.89021,12.0157 -16.68905,26.6811 -19.76735,42.2419 -4.94001,24.9718 -10.53255,50.8571 -5.19951,75.5535 4.87129,22.5581 11.47631,48.5163 30.30958,65.276 17.20738,15.3128 38.55198,24.8739 60.63447,29.0997 21.94763,4.5949 59.07385,7.2616 81.3577,9.2759 62.21554,5.1338 139.50626,2.1687 201.81273,1.2497 36.32757,-1.004 78.83865,-4.6449 113.2643,-17.5703 19.15229,-6.8128 32.7666,-15.2546 47.6994,-29.9635 13.39742,-14.4558 19.85487,-34.0966 24.36131,-53.2713 5.40947,-24.3263 0.26434,-49.7394 -3.20955,-74.5053 -4.10922,-24.2516 -16.95505,-46.6381 -35.29178,-62.0201 -15.55292,-13.4463 -34.48708,-21.8125 -53.81945,-27.2608 -55.01958,-17.1058 -120.95813,-17.7951 -177.87625,-17.8666 -4.79992,-0.016 -9.59969,0.01 -14.39955,0.033 z"
       inkscape:connector-curvature="0"
       sodipodi:nodetypes="cccssscccccccccccc" />
    <path
       style="color:#000000;display:inline;overflow:visible;visibility:visible;fill:#ffffff;fill-opacity:1;fill-rule:nonzero;stroke:none;stroke-width:1.80075px;marker:none;enable-background:accumulate"
       d="m 539.19946,1927.3519 c 7.55014,-44.8382 62.74837,-99.1824 137.61984,-61.3131 -80.77928,-16.5552 -107.19343,39.0539 -106.74645,81.3775 0.39562,37.4602 -16.36437,17.1598 -16.36437,17.1598 z"
       id="path4440-1"
       inkscape:connector-curvature="0"
       sodipodi:nodetypes="ccscc" />
    <path
       style="color:#000000;display:inline;overflow:visible;visibility:visible;fill:#ffffff;fill-opacity:1;fill-rule:nonzero;stroke:none;stroke-width:0.774122px;marker:none;enable-background:accumulate"
       d="m 1797.9375,2838.742 c -22.8492,2.5941 -45.8484,6.1471 -67.4347,15.0673 -11.3653,5.0192 -20.5875,15.2749 -26.1294,27.5302 -4.328,9.6259 -6.4433,20.8902 -4.554,31.7544 2.882,17.7548 14.0353,33.6763 28.7112,40.7039 13.988,7.3046 29.3003,9.9763 44.3773,11.8771 34.7472,4.1258 69.6173,2.1775 104.4199,3.6831 15.2916,0.5793 30.9039,-1.5255 44.8109,-8.7592 11.7296,-5.9879 22.2511,-15.7271 28.3179,-28.7969 4.3985,-9.1181 6.0825,-20.0225 4.2773,-30.4029 -1.4495,-9.349 -5.4856,-18.1027 -11.1057,-25.1567 -8.5876,-11.1973 -20.3816,-18.6282 -32.665,-22.9969 -16.5956,-6.3166 -33.8225,-9.99 -51.0693,-12.6239 -20.5825,-2.8848 -41.3458,-3.1672 -61.9564,-1.8795 z"
       id="path4040-2"
       inkscape:connector-curvature="0"
       sodipodi:nodetypes="zssssz" />
    <path
       style="color:#000000;display:inline;overflow:visible;visibility:visible;fill:#ffffff;fill-opacity:1;fill-rule:nonzero;stroke:none;stroke-width:0.811733px;marker:none;enable-background:accumulate"
       d="m 1970.7532,2998.2521 c 42.5246,54.5422 86.7334,47.5024 118.7066,15.8691 -23.32,34.399 -69.359,69.3478 -144.2603,0.1036 -14.3413,-13.258 25.5537,-15.9727 25.5537,-15.9727 z"
       id="path5010-4"
       inkscape:connector-curvature="0"
       sodipodi:nodetypes="ccsc" />
    <path
       style="color:#000000;display:inline;overflow:visible;visibility:visible;fill:#ffffff;fill-opacity:1;fill-rule:nonzero;stroke:none;stroke-width:0.866707px;marker:none;enable-background:accumulate"
       d="M 1882.7598 2929.8555 C 1857.2423 2930.7872 1830.9583 2936.0641 1809.571 2950.6995 C 1796.3603 2960.1081 1789.0194 2975.2738 1783.5442 2990.0859 C 1777.0611 3007.1968 1774.2022 3026.7381 1780.7185 3044.2828 C 1787.4578 3062.4282 1802.7725 3075.9924 1819.4826 3084.9541 C 1855.9515 3104.6292 1899.262 3109.128 1939.7514 3102.1636 C 1952.8715 3099.9299 1966.1078 3096.55 1977.3758 3089.1873 C 1992.1403 3079.9899 2003.6727 3065.8018 2009.575 3049.4301 C 2018.9367 3024.6765 2016.5866 2995.0392 2000.8867 2973.3398 C 1988.1465 2955.4968 1968.0844 2944.1536 1947.1895 2938.5996 C 1926.31 2932.4846 1904.5082 2929.595 1882.7598 2929.8555 z "
       id="path4040-2-5"
       inkscape:connector-curvature="0"
       sodipodi:nodetypes="zssssz" />
    <rect
       style="color:#000000;overflow:visible;fill:#eeffdb;fill-opacity:0.89322001;stroke:#807e00;stroke-width:8.05223;paint-order:stroke fill markers;stop-color:#000000;filter:url(#filter8274);stroke-opacity:1"
       id="rect8238"
       width="417.40149"
       height="86.261734"
       x="128.97966"
       y="127.99652" />
  </g>
  <g
     inkscape:groupmode="layer"
     id="layer1"
     inkscape:label="txt">
    <text
       xml:space="preserve"
       style="font-style:normal;font-variant:normal;font-weight:normal;font-stretch:normal;font-size:45px;line-height:1.25;font-family:Lavi;-inkscape-font-specification:Lavi;text-align:center;letter-spacing:0px;word-spacing:0px;text-anchor:middle;fill:#000000;fill-opacity:1;stroke:none"
       x="327.29865"
       y="186.49605"
       id="text4246-3-2-2-35"><tspan
         style="font-size:45px"
         sodipodi:role="line"
         x="327.29865"
         y="186.49605"
         id="tspan905-2">Samme natt...</tspan></text>
    <text
       xml:space="preserve"
       style="font-style:normal;font-variant:normal;font-weight:normal;font-stretch:normal;font-size:45px;line-height:1.25;font-family:Lavi;-inkscape-font-specification:Lavi;text-align:center;letter-spacing:0px;word-spacing:0px;text-anchor:middle;fill:#000000;fill-opacity:1;stroke:none"
       x="407.95737"
       y="1958.8977"
       id="text4246-3-2-2"><tspan
         style="font-size:45px"
         sodipodi:role="line"
         x="407.95737"
         y="1958.8977"
         id="tspan885">...og så på denne natt</tspan><tspan
         style="font-size:45px"
         sodipodi:role="line"
         x="407.95737"
         y="2015.1477"
         id="tspan889">ønsker vi deg, Shichimi,</tspan><tspan
         style="font-size:45px"
         sodipodi:role="line"
         x="407.95737"
         y="2071.3977"
         id="tspan891">velkommen som tidenes</tspan><tspan
         style="font-size:45px"
         sodipodi:role="line"
         x="407.95737"
         y="2127.6477"
         id="tspan893">yngste ridder av Sia.</tspan><tspan
         sodipodi:role="line"
         x="407.95737"
         y="2183.8977"
         id="tspan905" /></text>
    <text
       xml:space="preserve"
       style="font-style:normal;font-variant:normal;font-weight:normal;font-stretch:normal;font-size:45px;line-height:1.25;font-family:Lavi;-inkscape-font-specification:Lavi;text-align:center;letter-spacing:0px;word-spacing:0px;text-anchor:middle;fill:#000000;fill-opacity:1;stroke:none"
       x="281.69833"
       y="2592.4832"
       id="text4246-3-2-2-3"><tspan
         style="font-size:45px;fill:#000000;fill-opacity:1"
         sodipodi:role="line"
         x="281.69833"
         y="2592.4832"
         id="tspan1165">Ingen som</tspan><tspan
         style="font-size:45px;fill:#000000;fill-opacity:1"
         sodipodi:role="line"
         x="281.69833"
         y="2648.7332"
         id="tspan900">har sett Pepper</tspan><tspan
         style="font-size:45px;fill:#000000;fill-opacity:1"
         sodipodi:role="line"
         x="281.69833"
         y="2704.9832"
         id="tspan902">enda?</tspan></text>
    <text
       xml:space="preserve"
       style="font-style:normal;font-variant:normal;font-weight:normal;font-stretch:normal;font-size:45px;line-height:1.25;font-family:Lavi;-inkscape-font-specification:Lavi;text-align:center;letter-spacing:0px;word-spacing:0px;text-anchor:middle;white-space:pre;fill:#000000;fill-opacity:1;stroke:none"
       x="1320.327"
       y="2594.489"
       id="text4246-3-2-2-3-5"
       transform="translate(-10.795882,-6.9036151)"><tspan
         x="1320.327"
         y="2594.489"
         id="tspan48"><tspan
           style="font-size:45px;fill:#000000;fill-opacity:1"
           id="tspan46">Niks.</tspan></tspan></text>
    <text
       xml:space="preserve"
       style="font-style:normal;font-variant:normal;font-weight:normal;font-stretch:normal;font-size:45px;line-height:1.25;font-family:Lavi;-inkscape-font-specification:Lavi;text-align:center;letter-spacing:0px;word-spacing:0px;text-anchor:middle;fill:#000000;fill-opacity:1;stroke:none"
       x="1505.351"
       y="2661.2366"
       id="text4246-3-2-2-3-5-1"><tspan
         style="font-size:45px;fill:#000000;fill-opacity:1"
         sodipodi:role="line"
         x="1505.351"
         y="2661.2366"
         id="tspan7590">Hun må jammen</tspan><tspan
         style="font-size:45px;fill:#000000;fill-opacity:1"
         sodipodi:role="line"
         x="1505.351"
         y="2717.4866"
         id="tspan919">skyndte seg nå om hun</tspan><tspan
         style="font-size:45px;fill:#000000;fill-opacity:1"
         sodipodi:role="line"
         x="1505.351"
         y="2773.7366"
         id="tspan923">skal rekke å få med seg</tspan><tspan
         style="font-size:45px;fill:#000000;fill-opacity:1"
         sodipodi:role="line"
         x="1505.351"
         y="2829.9866"
         id="tspan883">Shichimis tale.</tspan></text>
    <text
       xml:space="preserve"
       style="font-style:normal;font-variant:normal;font-weight:normal;font-stretch:normal;font-size:45px;line-height:1.25;font-family:Lavi;-inkscape-font-specification:Lavi;text-align:center;letter-spacing:0px;word-spacing:0px;text-anchor:middle;fill:#000000;fill-opacity:1;stroke:none"
       x="1831.7936"
       y="2918.1755"
       id="text4246-3-2-2-3-5-1-7"><tspan
         style="font-size:45px"
         sodipodi:role="line"
         x="1831.7936"
         y="2918.1755"
         id="tspan7676">Tusen takk.</tspan></text>
    <text
       xml:space="preserve"
       style="font-style:normal;font-variant:normal;font-weight:normal;font-stretch:normal;font-size:45px;line-height:1.25;font-family:Lavi;-inkscape-font-specification:Lavi;text-align:center;letter-spacing:0px;word-spacing:0px;text-anchor:middle;fill:#000000;fill-opacity:1;stroke:none"
       x="1904.54"
       y="3013.3691"
       id="text4246-3-2-2-3-5-1-7-3"><tspan
         style="font-size:45px"
         sodipodi:role="line"
         x="1904.54"
         y="3013.3691"
         id="tspan7730">Da vil jeg</tspan><tspan
         style="font-size:45px"
         sodipodi:role="line"
         x="1904.54"
         y="3069.6191"
         id="tspan927">gjerne...</tspan></text>
  </g>
</svg>
