<?xml version="1.0" encoding="UTF-8" standalone="no"?>
<!-- Created with Inkscape (http://www.inkscape.org/) -->

<svg
   width="2481"
   height="3503"
   version="1.1"
   id="svg1"
   xml:space="preserve"
   inkscape:version="1.3.2 (091e20e, 2023-11-25, custom)"
   sodipodi:docname="Rysunek3.svg"
   xmlns:inkscape="http://www.inkscape.org/namespaces/inkscape"
   xmlns:sodipodi="http://sodipodi.sourceforge.net/DTD/sodipodi-0.dtd"
   xmlns:xlink="http://www.w3.org/1999/xlink"
   xmlns="http://www.w3.org/2000/svg"
   xmlns:svg="http://www.w3.org/2000/svg"><sodipodi:namedview
     id="namedview1"
     pagecolor="#ffffff"
     bordercolor="#000000"
     borderopacity="0.25"
     inkscape:showpageshadow="2"
     inkscape:pageopacity="0.0"
     inkscape:pagecheckerboard="0"
     inkscape:deskcolor="#d1d1d1"
     inkscape:document-units="mm"
     inkscape:zoom="1.0520974"
     inkscape:cx="477.14214"
     inkscape:cy="1550.2367"
     inkscape:window-width="2839"
     inkscape:window-height="1212"
     inkscape:window-x="2907"
     inkscape:window-y="290"
     inkscape:window-maximized="0"
     inkscape:current-layer="g1" /><g
     inkscape:groupmode="layer"
         id="layer2"
         inkscape:label="artwork"><image
           xlink:href="../gfx_Pepper-and-Carrot_by-David-Revoy_E38P03.png"
           y="0"
           x="0"
           id="image10"
           height="3503"
           width="2481" /></g><g
     inkscape:groupmode="layer"
         id="layer3"
         inkscape:label="speechbubbles"><path
           style="color:#000000;display:inline;overflow:visible;visibility:visible;fill:#ffffff;fill-opacity:1;fill-rule:nonzero;stroke:none;stroke-width:1px;marker:none;enable-background:accumulate"
           d="m 1982.7326,2510.0564 c -33.6371,0.8018 -67.6629,3.7749 -99.9247,15.4244 -13.6887,5.4226 -24.6693,16.7397 -35.2587,27.6458 -7.9932,8.4796 -15.5576,18.6022 -17.9022,31.1289 -3.2949,17.2957 -2.6532,35.2224 -0.7875,52.6825 1.5921,12.4624 5.7321,24.579 12.587,34.4867 9.279,13.9184 22.6798,23.6563 37.044,29.2347 24.5576,10.6706 50.7248,16.8653 77.0377,16.7512 17.0205,0.084 34.0413,-1.0985 51.0589,-0.2596 21.1874,0.5077 42.5788,1.2561 63.5173,-3.215 18.3719,-3.7455 36.3737,-10.0774 53.3195,-19.0492 12.0282,-6.7676 22.8446,-17.0427 29.4388,-30.5765 12.5759,-24.6712 12.9819,-57.015 0.4955,-81.8408 -10.2197,-21.2409 -27.2399,-37.3528 -46.1605,-47.7138 -19.6605,-10.9999 -41.3412,-16.173 -62.9511,-18.9956 -20.3983,-3.0816 -40.9002,-5.9834 -61.514,-5.7037 z"
           id="path4040-4-5-3"
           inkscape:connector-curvature="0"
           sodipodi:nodetypes="zssssz" /><path
           style="color:#000000;display:inline;overflow:visible;visibility:visible;fill:#ffffff;fill-opacity:1;fill-rule:nonzero;stroke:none;stroke-width:1px;marker:none;enable-background:accumulate"
           d="m 2099.5698,2706.9714 c -44.6207,0.7487 -89.6593,1.0104 -133.5023,10.3456 -20.0354,4.5451 -38.8192,16.3489 -49.829,33.9383 -16.4377,25.5022 -18.0161,59.552 -4.7273,86.7337 7.7462,16.5516 20.7575,30.4361 36.4575,39.717 11.7806,7.4634 25.17,12.476 39.0727,13.9401 34.9885,5.0662 70.3271,8.3014 105.7104,7.6084 26.7691,-0.5027 53.5616,-2.8985 79.842,-8.1008 19.3193,-4.1463 38.5962,-11.795 52.8738,-25.8706 11.0422,-10.7924 18.3528,-25.3156 20.2807,-40.6496 2.017,-13.2405 2.7237,-26.6919 2.2021,-40.0716 -0.7071,-13.9966 -4.3101,-28.1698 -12.505,-39.7241 -7.5618,-11.0508 -18.8971,-18.9758 -31.1183,-24.1327 -17.566,-7.5149 -36.7064,-10.1685 -55.5732,-12.0913 -16.3475,-1.4944 -32.7782,-1.7435 -49.1841,-1.6424 z"
           id="path3365-33"
           inkscape:connector-curvature="0"
           sodipodi:nodetypes="csssssc" /><path
           style="color:#000000;display:inline;overflow:visible;visibility:visible;fill:#ffffff;fill-opacity:1;fill-rule:nonzero;stroke:none;stroke-width:0.999999px;marker:none;enable-background:accumulate"
           d="m 1263.1642,1831.4688 c -42.5257,-42.2705 -19.5395,-108.0364 17.6028,-114.3414 51.4374,-8.7316 -11.3103,20.5827 -11.3103,20.5827 0,0 -37.0509,43.6527 -6.2925,93.7587 z"
           id="path5002-7"
           inkscape:connector-curvature="0"
           sodipodi:nodetypes="cscc" /><path
           style="color:#000000;display:inline;overflow:visible;visibility:visible;fill:#ffffff;fill-opacity:1;fill-rule:nonzero;stroke:none;stroke-width:1px;marker:none;enable-background:accumulate"
           d="m 1916.9709,2636.425 c -77.3885,-61.1144 -158.5933,-65.3254 -208.3967,7.4705 60.8364,-52.278 143.8743,-25.5157 174.2291,8.7518 16.5264,23.0336 34.1676,-16.2223 34.1676,-16.2223 z"
           id="path3978-4"
           inkscape:connector-curvature="0"
           sodipodi:nodetypes="cccc" /><path
           style="fill:#ffffff;fill-rule:evenodd;stroke:none;stroke-width:0.999997px;stroke-linecap:butt;stroke-linejoin:miter;stroke-opacity:1"
           d="m 1571.1,1438.6662 c 1.0295,-18.6517 13.3828,-52.846 31.913,-59.0632 18.53,-6.2173 70.0024,-6.2173 80.2969,-3.1082 10.2946,3.1082 26.7657,25.9044 30.8835,35.2307 4.1179,9.3254 15.4418,42.4833 -3.0882,55.9542 -18.5302,13.4708 -37.0602,23.8325 -56.6198,22.7962 -19.5596,-1.0364 -58.6787,-8.29 -67.9436,-20.7235 -9.2651,-12.4345 -15.4418,-31.0862 -15.4418,-31.0862 z"
           id="path1355"
           inkscape:connector-curvature="0" /><path
           style="fill:#ffffff;fill-rule:evenodd;stroke:none;stroke-width:1px;stroke-linecap:butt;stroke-linejoin:miter;stroke-opacity:1"
           d="m 1005.9554,1564.5354 c 18.5259,2.0314 45.654,-7.5765 30.6765,-38.1612 29.0714,21.6699 52.9068,17.8869 100.1958,-16.1391 -3.9297,47.4093 17.206,42.9799 36.2603,33.8779 -18.2868,15.9536 14.5387,25.0955 32.196,25.9916 -37.3521,34.5064 -17.7382,45.4806 -3.0201,58.4772 -36.7083,-9.6156 -27.8302,9.8675 -32.2148,20.8848 -31.4901,-24.9624 -54.3909,-19.038 -72.4831,4.1769 -9.4625,-12.6249 -12.4326,-38.7184 -47.3154,1.3923 12.8273,-34.6271 -3.9864,-30.9924 -31.2079,-13.9231 4.2662,-11.7944 29.6222,-29.7296 -13.0873,-27.8464 26.6772,-11.2123 32.2716,-26.401 0,-48.7309 z"
           id="path4584"
           inkscape:connector-curvature="0"
           sodipodi:nodetypes="cccccccccccc" /><path
           style="color:#000000;display:inline;overflow:visible;visibility:visible;fill:#ffffff;fill-opacity:1;fill-rule:nonzero;stroke:none;stroke-width:1px;marker:none;enable-background:accumulate"
           d="m 1092.7675,1600.0887 c 32.5118,17.1362 69.5241,50.078 26.9344,88.4809 5.5785,26.0417 6.6264,46.3987 -29.7935,75.4959 22.4386,-26.2104 31.5308,-42.9396 20.1333,-80.7335 19.0733,-22.4288 9.883,-53.2464 -33.7163,-67.4214 -43.5993,-14.1751 -33.1079,-7.2586 -33.1079,-7.2586 l 36.9086,-13.1055 z"
           id="path5074"
           inkscape:connector-curvature="0"
           sodipodi:nodetypes="ccccsccc" /><path
           style="fill:#ffffff;stroke:none;stroke-width:0.999998"
           d="m 1641.2389,1626.3692 c -23.6692,-22.5115 -16.2357,-35.8105 -6.3972,-46.3314 9.8357,-10.5203 11.5626,-22.6355 9.6907,-30.0237 -1.8719,-7.3881 -10.8731,-18.1272 -18.2553,-23.021 -7.3832,-4.8937 2.0396,-17.023 7.4292,-24.7215 7.1196,-10.1717 17.3403,-10.9015 17.3403,-10.9015 0,0 -8.6513,-43.4434 -16.6505,-33.7546 -7.9983,9.6888 -25.6203,43.7517 -27.4427,48.1059 -1.8214,4.3541 -5.0288,17.8771 0.4234,24.5114 5.4533,6.6341 17.5984,9.8769 21.8896,18.2273 4.4207,8.6023 3.0414,15.2934 -2.2485,24.1895 -5.2898,8.8961 -13.1942,29.5079 -2.6908,39.3668 10.5043,9.8587 16.9118,14.3528 16.9118,14.3528 z"
           id="path3023-9"
           inkscape:connector-curvature="0"
           sodipodi:nodetypes="csssscssssssc" /></g><g
     inkscape:groupmode="layer"
         id="layer1-0"
         inkscape:label="txt"
         transform="translate(-3.8019298,-4.7524117)"><path
           style="color:#000000;display:inline;overflow:visible;visibility:visible;fill:#ffffff;fill-opacity:1;fill-rule:nonzero;stroke:none;stroke-width:0.999997px;marker:none;enable-background:accumulate"
           d="m 1274.9239,1778.3845 c 10.0479,-16.4768 29.6384,-30.1033 38.2868,-0.9712 24.2862,-27.2334 35.9765,-18.2417 54.9577,1.1531 0.1699,-6.2082 6.5001,-31.014 33.8131,-15.5544 -8.6583,-22.2467 17.7583,-24.2355 30.6596,-21.7469 -4.9027,-10.8797 2.4996,-19.0493 20.8803,-24.7994 -26.0488,-5.0899 -20.477,-18.2293 13.5825,-30.8539 -35.6876,1.5668 -44.1686,-13.7125 -16.7227,-33.8204 -13.1802,0.2274 -58.8557,28.9905 -53.6625,-27.5232 -15.7708,19.1239 -44.696,41.2105 -72.6511,5.6123 -5.6553,15.277 -24.4611,26.0304 -47.7317,7.4525 -2.8562,14.9621 -28.082,18.0286 -37.7485,15.7371 20.6475,14.993 21.1403,25.2087 -4.2268,28.6568 46.1423,26.3695 10.6377,24.4818 4.571,32.468 34.7742,7.707 29.673,22.2208 14.434,29.06 30.6029,-18.8202 23.6715,14.3004 21.5583,35.1296 z"
           id="path3549-3-8"
           inkscape:connector-curvature="0"
           sodipodi:nodetypes="cccccccccccccccc" /><text
           id="text4178-0"
           y="1600.2191"
           x="1106.0676"
           style="font-style:normal;font-variant:normal;font-weight:normal;font-stretch:normal;font-size:37.3333px;line-height:0%;font-family:Lavi;-inkscape-font-specification:Lavi;text-align:center;letter-spacing:0px;word-spacing:0px;text-anchor:middle;fill:#000000;fill-opacity:1;stroke:none"
           xml:space="preserve"><tspan
             y="1600.2191"
             x="1106.0676"
             style="font-size:37.3333px;line-height:1.25"
             sodipodi:role="line"
             id="tspan4245-6-6">Forsa!</tspan></text><text
           id="text4178-0-1"
           y="1710.4082"
           x="1331.897"
           style="font-style:normal;font-variant:normal;font-weight:normal;font-stretch:normal;font-size:32.7584px;line-height:0%;font-family:Lavi;-inkscape-font-specification:Lavi;text-align:center;letter-spacing:0px;word-spacing:0px;text-anchor:middle;fill:#000000;fill-opacity:1;stroke:none;stroke-width:0.999996"
           xml:space="preserve"
           transform="scale(1.0080992,0.99196588)"><tspan
             y="1710.4082"
             x="1331.897"
             style="font-size:32.7584px;line-height:1.25;stroke-width:0.999996"
             sodipodi:role="line"
             id="tspan8148">Nie, ja!</tspan><tspan
             y="1751.3562"
             x="1331.897"
             style="font-size:32.7584px;line-height:1.25;stroke-width:0.999996"
             sodipodi:role="line"
             id="tspan451">Ja!</tspan></text><text
           id="text4178-0-7"
           y="1453.9064"
           x="1646.5745"
           style="font-style:normal;font-variant:normal;font-weight:normal;font-stretch:normal;font-size:18.9857px;line-height:0%;font-family:Lavi;-inkscape-font-specification:Lavi;text-align:center;letter-spacing:0px;word-spacing:0px;text-anchor:middle;fill:#000000;fill-opacity:1;stroke:none;stroke-width:0.999996"
           xml:space="preserve"><tspan
             y="1453.9064"
             x="1646.5745"
             style="font-size:64.3559px;line-height:1.25;stroke-width:0.999996"
             sodipodi:role="line"
             id="tspan4245-6-6-9">?</tspan></text><text
           id="text4178-0-2"
           y="2603.2385"
           x="1996.218"
           style="font-style:normal;font-variant:normal;font-weight:normal;font-stretch:normal;line-height:0%;font-family:Lavi;-inkscape-font-specification:Lavi;text-align:center;letter-spacing:0px;word-spacing:0px;text-anchor:middle;fill:#000000;fill-opacity:1;stroke:none"
           xml:space="preserve"><tspan
             y="2603.2385"
             x="1996.218"
             style="font-size:40.6767px;line-height:1.25"
             sodipodi:role="line"
             id="tspan492">Co ty myślisz,</tspan><tspan
             y="2654.0845"
             x="1996.218"
             style="font-size:40.6767px;line-height:1.25"
             sodipodi:role="line"
             id="tspan424">że robisz?</tspan></text><text
           id="text4178-0-2-2"
           y="2790.8496"
           x="2075.1533"
           style="font-style:normal;font-variant:normal;font-weight:normal;font-stretch:normal;line-height:0%;font-family:Lavi;-inkscape-font-specification:Lavi;text-align:center;letter-spacing:0px;word-spacing:0px;text-anchor:middle;fill:#000000;fill-opacity:1;stroke:none"
           xml:space="preserve"><tspan
             y="2790.8496"
             x="2075.1533"
             style="font-size:40.6767px;line-height:1.25"
             sodipodi:role="line"
             id="tspan8373">    Szukałyśmy Cię </tspan><tspan
             y="2841.6956"
             x="2075.1533"
             style="font-size:40.6767px;line-height:1.25"
             sodipodi:role="line"
             id="tspan501">miesiącami.</tspan></text></g></svg>
