<?xml version="1.0" encoding="UTF-8" standalone="no"?>
<!-- Created with Inkscape (http://www.inkscape.org/) -->

<svg
   id="svg2"
   version="1.1"
   inkscape:version="1.1.2 (0a00cf5339, 2022-02-04)"
   width="2481"
   height="3503"
   sodipodi:docname="E38P08.svg"
   xmlns:inkscape="http://www.inkscape.org/namespaces/inkscape"
   xmlns:sodipodi="http://sodipodi.sourceforge.net/DTD/sodipodi-0.dtd"
   xmlns:xlink="http://www.w3.org/1999/xlink"
   xmlns="http://www.w3.org/2000/svg"
   xmlns:svg="http://www.w3.org/2000/svg"
   xmlns:rdf="http://www.w3.org/1999/02/22-rdf-syntax-ns#"
   xmlns:cc="http://creativecommons.org/ns#"
   xmlns:dc="http://purl.org/dc/elements/1.1/">
  <metadata
     id="metadata8">
    <rdf:RDF>
      <cc:Work
         rdf:about="">
        <dc:format>image/svg+xml</dc:format>
        <dc:type
           rdf:resource="http://purl.org/dc/dcmitype/StillImage" />
        <dc:title />
      </cc:Work>
    </rdf:RDF>
  </metadata>
  <defs
     id="defs6">
    <rect
       x="237.01799"
       y="427.98691"
       width="294.3504"
       height="241.99722"
       id="rect613" />
    <filter
       style="color-interpolation-filters:sRGB"
       inkscape:label="Drop Shadow"
       id="filter5534"
       x="-0.018119852"
       y="-0.089860873"
       width="1.0467476"
       height="1.2318331">
      <feFlood
         flood-opacity="1"
         flood-color="rgb(0,0,0)"
         result="flood"
         id="feFlood5536" />
      <feComposite
         in="flood"
         in2="SourceGraphic"
         operator="in"
         result="composite1"
         id="feComposite5538" />
      <feGaussianBlur
         in="composite1"
         stdDeviation="1"
         result="blur"
         id="feGaussianBlur5540" />
      <feOffset
         dx="2.5"
         dy="2.5"
         result="offset"
         id="feOffset5542" />
      <feComposite
         in="SourceGraphic"
         in2="offset"
         operator="over"
         result="composite2"
         id="feComposite5544" />
    </filter>
  </defs>
  <sodipodi:namedview
     pagecolor="#ffffff"
     bordercolor="#666666"
     borderopacity="1"
     objecttolerance="10"
     gridtolerance="10"
     guidetolerance="10"
     inkscape:pageopacity="0"
     inkscape:pageshadow="2"
     inkscape:window-width="1846"
     inkscape:window-height="1016"
     id="namedview4"
     showgrid="false"
     inkscape:zoom="0.54258291"
     inkscape:cx="1117.8015"
     inkscape:cy="2358.1649"
     inkscape:window-x="0"
     inkscape:window-y="0"
     inkscape:window-maximized="1"
     inkscape:current-layer="layer3"
     inkscape:showpageshadow="0"
     inkscape:pagecheckerboard="0"
     inkscape:deskcolor="#d1d1d1" />
  <g
     inkscape:groupmode="layer"
     id="layer2"
     inkscape:label="artwork"
     sodipodi:insensitive="true">
    <image
       xlink:href="../gfx_Pepper-and-Carrot_by-David-Revoy_E38P08.png"
       y="0"
       x="0"
       id="image10"
       height="3503"
       width="2481" />
  </g>
  <g
     inkscape:groupmode="layer"
     id="layer3"
     inkscape:label="speechbubbles">
    <path
       style="color:#000000;display:inline;overflow:visible;visibility:visible;fill:#ffffff;fill-opacity:1;fill-rule:nonzero;stroke:none;stroke-width:0.999994px;marker:none;enable-background:accumulate"
       d="m 1567.4037,126.02054 c -6.0944,16.10211 -40.4673,17.45228 -53.1208,14.17992 25.5066,18.0136 24.6174,29.20583 -10.0136,30.9433 54.6977,26.86926 9.5701,25.81881 1.2562,35.78535 68.0301,1.18702 31.2396,22.41868 17.0799,38.97383 91.9152,-38.00874 83.7462,-5.79467 64.7707,15.59556 26.4598,-19.97243 37.8819,-16.08149 25.0617,7.69105 26.7428,-30.50092 50.0067,-29.61535 42.7547,4.98284 13.9685,-23.64273 44.6275,-22.69518 43.5553,5.50315 17.8775,-27.92433 38.4113,-39.51872 80.2652,-13.10818 -18.2024,-20.55091 2.1295,-39.74491 47.2074,-25.54931 -3.7274,-10.97182 5.2485,-18.51422 25.5193,-22.99308 -26.9366,-6.62771 -31.901,-13.46423 18.1143,-20.82102 -38.0588,-0.71212 -73.5486,-2.17027 -28.8976,-27.25955 -14.0083,-0.60771 -47.2443,20.32843 -31.7485,-40.94064 -24.0879,19.61453 -49.7877,30.44 -82.0176,-10.64699 -15.2527,20.52654 -41.7081,30.68362 -53.2177,5.04463 -4.1366,10.92988 -21.2898,15.04107 -35.8517,15.53902 -5.631,-4.34143 -11.4389,-10.23828 -17.4995,-17.96451 -9.9057,16.22258 -24.7235,27.17923 -53.2177,5.04463 z"
       id="path3549-3-7-3"
       inkscape:connector-curvature="0"
       sodipodi:nodetypes="cccccccccccccccccccc" />
    <path
       style="fill:#ffffff;stroke:none;stroke-width:0.999995"
       d="m 1758.2978,284.24047 c 1.4992,-70.5866 47.7544,-122.52845 256.7226,-111.36326 208.9679,11.16518 315.6865,7.21321 311.6874,104.31016 -3.7818,91.81213 -140.6336,94.91504 -298.8494,97.88165 -163.1035,3.05797 -263.6296,-25.68396 -269.5606,-90.82855 z"
       id="path3280-81"
       inkscape:connector-curvature="0"
       sodipodi:nodetypes="csssc" />
    <path
       style="fill:#ffffff;fill-rule:evenodd;stroke:none;stroke-width:0.999994px;stroke-linecap:butt;stroke-linejoin:miter;stroke-opacity:1"
       d="m 1494.7724,1761.5817 c -2.0098,19.7995 -7.7849,40.8599 -13.676,46.0561 -5.8913,5.1962 -27.304,11.7217 -20.9981,28.3069 3.1992,10.3066 9.5667,17.9873 6.2224,22.7116 -5.2605,7.4313 -37.3613,4.8901 -43.538,-0.9931 15.8001,12.3315 53.6391,21.8007 57.4553,4.2689 4.0515,-18.6121 -3.5146,-16.7814 -3.8648,-30.6214 4.7772,-16.6998 29.3635,-2.0213 46.0423,-62.5645 5.6455,-31.7624 -27.6431,-7.1645 -27.6431,-7.1645 z"
       id="path1085"
       inkscape:connector-curvature="0"
       sodipodi:nodetypes="cscscsccc" />
    <path
       style="fill:#ffffff;fill-rule:evenodd;stroke:none;stroke-width:0.999994px;stroke-linecap:butt;stroke-linejoin:miter;stroke-opacity:1"
       d="m 1495.3786,1734.9498 c -18.0459,0.2801 -36.706,1.3221 -53.3444,9.0006 -9.7719,4.5627 -15.6855,14.5599 -18.5456,24.5925 -3.5281,11.4528 -2.5055,24.999 5.2721,34.5297 7.2356,8.6642 18.4843,12.4439 29.2477,14.4028 21.537,4.2152 43.8942,7.1311 65.6759,2.9636 16.6466,-3.8013 32.3534,-13.1982 42.2615,-27.2742 3.8407,-7.6158 1.9494,-16.6482 -1.329,-24.1026 -8.3355,-19.7687 -29.0743,-33.1073 -50.369,-33.6622 -6.275,-0.5213 -12.5779,-0.4846 -18.8692,-0.4502 z"
       id="path1365"
       inkscape:connector-curvature="0" />
    <path
       style="display:inline;fill:#ffffff;fill-rule:evenodd;stroke:none;stroke-width:0.999999px;stroke-linecap:butt;stroke-linejoin:miter;stroke-opacity:1"
       d="m 1619.9228,212.68687 c -69.4628,4.13332 -55.0837,53.10639 -63.4888,67.67509 -5.8022,10.05679 -43.9552,-12.31757 -64.3802,34.17132 29.3302,-30.16987 62.9693,-8.16846 71.2923,-13.87627 28.5796,-19.59928 4.7199,-51.48808 42.3477,-51.57698 9.3659,-0.0222 14.229,-36.39316 14.229,-36.39316 z"
       id="path4186-80"
       inkscape:connector-curvature="0"
       sodipodi:nodetypes="cscssc" />
    <path
       style="display:inline;fill:#ffffff;stroke:none;stroke-width:0.999999"
       d="m 1896.329,3010.9186 c -27.5417,0.6697 -55.1408,0.6352 -82.6198,2.2746 -26.0881,1.8342 -52.5044,5.9334 -75.3575,15.5983 -22.972,10.1333 -40.7635,27.1666 -45.2311,46.5924 -3.3144,16.8464 9.0334,34.317 28.9237,43.0803 18.1883,8.7073 39.9268,12.0776 61.1401,14.5026 40.1449,5.0704 81.0038,9.0603 121.8179,6.6728 28.113,-1.4401 56.2195,-3.5567 83.9078,-7.4389 20.379,-3.0989 40.6459,-8.7337 56.3946,-18.8656 22.6047,-14.8933 28.0664,-41.1277 13.8331,-60.5467 -7.2247,-10.0279 -19.6599,-17.5829 -33.4497,-22.607 -27.2644,-9.7703 -57.1351,-15.2534 -87.2139,-17.9978 -13.9911,-1.0968 -28.0812,-1.3646 -42.1452,-1.265 z"
       id="path3280-8-3"
       inkscape:connector-curvature="0"
       sodipodi:nodetypes="csssc" />
    <path
       style="color:#000000;display:inline;overflow:visible;visibility:visible;fill:#ffffff;fill-opacity:1;fill-rule:nonzero;stroke:none;stroke-width:0.999996px;marker:none;enable-background:accumulate"
       d="m 1987.2378,2924.0675 c 0.7412,22.4835 -1.1706,25.1374 -13.1235,28.9922 -11.9535,3.8545 -30.1843,5.9728 -40.9317,24.483 -10.7482,18.5098 -6.5114,24.1246 -7.239,30.7667 -32.209,25.2837 -36.1693,46.3274 -47.2797,51.4024 -11.1103,5.0752 31.07,7.4638 31.07,7.4638 0,0 5.0271,-18.3455 23.9431,-26.6396 18.9158,-8.2941 11.5753,-40.5593 16.9296,-54.1957 5.3544,-13.6364 30.4875,-17.8239 37.0686,-27.9385 6.5818,-10.1143 2.4588,-23.9852 -0.4374,-34.3343 z"
       id="path4538-7"
       inkscape:connector-curvature="0"
       sodipodi:nodetypes="ccscccsscc" />
    <path
       style="display:inline;fill:#ffffff;fill-rule:evenodd;stroke:none;stroke-width:1px;stroke-linecap:butt;stroke-linejoin:miter;stroke-opacity:1"
       d="m 612.40766,2384.8964 c -20.62092,-1.78 -50.52425,10.9133 -33.1802,47.5442 -37.86839,-24.0046 -91.01309,-32.6228 -103.51706,7.3647 -2.10436,-48.9082 -37.73204,-37.3945 -58.68083,-25.6171 19.93718,-20.0798 1.33436,-34.6025 -18.29542,-35.0345 27.88674,-24.1613 10.82415,-49.566 -5.8229,-64.8211 40.98937,10.3254 30.67706,-13.0346 35.28998,-26.5938 35.55127,29.1792 60.84561,21.1225 80.39788,-7.7797 10.80192,14.9989 14.70712,46.6159 52.513,-3.455 -13.44007,42.5824 5.14755,37.5364 34.98129,15.7674 -4.4636,14.4998 -32.20539,37.2528 15.18131,33.3715 -29.36541,14.6273 -35.22496,33.3043 1.13295,59.2534 z"
       id="path4584-8"
       inkscape:connector-curvature="0"
       sodipodi:nodetypes="cccccccccccc" />
    <path
       style="color:#000000;display:inline;overflow:visible;visibility:visible;fill:#ffffff;fill-opacity:1;fill-rule:nonzero;stroke:none;stroke-width:0.999992px;marker:none;enable-background:accumulate"
       d="m 560.77958,2435.6859 c -5.14973,20.59 -34.19507,22.3172 -44.88745,18.1319 21.55334,23.0339 20.80193,37.3456 -8.46144,39.5667 49.07526,41.5138 8.97159,35.2319 1.06148,45.7577 38.53312,14.3069 25.76125,35.9902 1.02791,45.9575 44.29007,0.6088 33.56809,15.2208 16.79993,36.2474 19.60982,-13.7663 78.2538,-28.0973 60.39786,8.7011 28.41305,-31.4426 33.60818,-27.2039 43.88284,8.3507 8.58257,-30.6588 37.80665,-36.5595 48.98133,-3.495 9.62626,-44.7481 43.97389,-38.4481 64.41979,-16.7612 -11.47737,-15.3057 -3.65087,-40.5081 35.47959,-35.4113 -3.14965,-14.0305 1.80348,-31.7392 21.56395,-29.4008 -22.76161,-8.4744 -26.95644,-17.217 15.30666,-26.6244 -32.15976,-0.909 -62.14899,-2.7739 -24.41856,-34.8564 -11.83706,-0.7762 -39.92174,25.9943 -26.82763,-52.3483 -34.66813,23.1007 -71.09763,34.9101 -69.30532,-13.6142 -12.88867,26.2465 -35.24381,39.234 -44.96945,6.4505 -8.02852,30.6245 -32.41418,17.8009 -45.0821,-3.1014 -8.37033,20.7431 -20.89147,34.7533 -44.96939,6.4495 z"
       id="path3549-3-7-8"
       inkscape:connector-curvature="0"
       sodipodi:nodetypes="ccccccccccccccccccc" />
    <path
       style="color:#000000;display:inline;overflow:visible;visibility:visible;fill:#ffffff;fill-opacity:1;fill-rule:nonzero;stroke:none;stroke-width:0.999998px;marker:none;enable-background:accumulate"
       d="m 775.04911,2747.1955 c 3.72761,-11.2313 24.7519,-12.1731 32.49152,-9.8901 -15.60128,-12.5643 -15.05738,-20.3707 6.12473,-21.5828 -35.52279,-22.6441 -6.49403,-19.2176 -0.76831,-24.9594 -27.89199,-7.8037 -15.41281,-17.5156 -10.44707,-27.1836 -32.05909,-0.332 -21.56762,-15.8295 -22.91885,-28.1722 -2.71783,5.7918 -15.62952,23.4244 -16.40641,3.7916 -21.2052,18.7307 -46.74633,30.8298 -48.77437,-1.949 -8.54394,16.4901 -17.06223,23.4596 -16.40641,3.7916 -21.16919,25.5806 -40.19264,17.4777 -67.34323,-2.6427 11.00277,17.6649 2.11651,32.1044 -24.44807,20.1173 20.31229,13.1772 7.38017,21.384 -5.01851,24.5079 16.47587,4.6228 19.51231,9.3911 -11.07965,14.5226 23.27866,0.4963 44.98621,1.5132 17.67524,19.0129 8.56823,0.4235 34.82654,-0.3697 12.18188,28.0005 14.7335,-13.6805 49.97328,-16.0489 34.48142,13.5791 29.46265,-30.6998 48.43304,-26.9996 55.47285,-9.117 2.53025,-7.6238 13.02202,-10.4908 21.92876,-10.8386 3.44425,3.0284 6.9966,7.1415 10.70363,12.5304 6.05883,-11.3152 15.1222,-18.9571 32.55085,-3.5185 z"
       id="path3549-3-7"
       inkscape:connector-curvature="0"
       sodipodi:nodetypes="cccccccccccccccccccc" />
    <path
       style="color:#000000;display:inline;overflow:visible;visibility:visible;fill:#ffffff;fill-opacity:1;fill-rule:nonzero;stroke:none;stroke-width:1px;marker:none;enable-background:accumulate"
       d="m 1425.2177,1085.1328 c 80.0918,-82.1121 18.6409,-154.68778 -67.2831,-207.14725 -67.0115,-40.91276 -1.5003,-29.7247 -1.5003,-29.7247 l 14.7972,-9.58081 c 0,0 204.6945,151.5581 53.9862,246.45276 z"
       id="path3072-06-3"
       inkscape:connector-curvature="0"
       sodipodi:nodetypes="csccc" />
    <path
       style="color:#000000;display:inline;overflow:visible;visibility:visible;fill:#ffffff;fill-opacity:1;fill-rule:nonzero;stroke:none;stroke-width:0.999997px;marker:none;enable-background:accumulate"
       d="m 1106.5796,887.55968 c -7.2565,-28.63573 12.0941,-104.69914 160.8523,-98.43498 148.758,6.26381 172.9464,42.05845 176.5746,52.7969 3.6283,10.73837 35.0731,71.58902 -81.0308,87.6967 -116.1039,16.10759 -220.1136,-0.89493 -256.3961,-42.05862 z"
       id="path3525-9-36"
       inkscape:connector-curvature="0" />
    <path
       style="color:#000000;display:inline;overflow:visible;visibility:visible;fill:#ffffff;fill-opacity:1;fill-rule:nonzero;stroke:none;stroke-width:0.999999px;marker:none;enable-background:accumulate"
       d="m 1465.936,890.13421 c -8.9246,-26.999 14.8742,-98.71475 197.8273,-92.80874 182.953,5.90582 212.7018,39.65459 217.164,49.77924 4.4621,10.12456 43.1352,67.49731 -99.6574,82.68433 -142.793,15.18675 -270.7111,-0.84394 -315.3339,-39.65483 z"
       id="path3525-9-3-6-2-1"
       inkscape:connector-curvature="0" />
    <path
       style="color:#000000;display:inline;overflow:visible;visibility:visible;fill:#ffffff;fill-opacity:1;fill-rule:nonzero;stroke:none;stroke-width:1px;marker:none;enable-background:accumulate"
       d="m 1516.3747,949.3567 c -6.7064,-21.3834 11.1772,-78.18278 148.6581,-73.50516 137.4808,4.67744 159.8356,31.4067 163.1887,39.4255 3.3532,8.01872 32.4142,53.45835 -74.8879,65.48646 -107.3023,12.02806 -203.427,-0.66838 -236.9589,-31.4068 z"
       id="path3525-9-3-6-2-1-0"
       inkscape:connector-curvature="0" />
    <path
       style="color:#000000;display:inline;overflow:visible;visibility:visible;fill:#ffffff;fill-opacity:1;fill-rule:nonzero;stroke:none;stroke-width:1px;marker:none;enable-background:accumulate"
       d="m 1578.949,1099.4279 c -53.0613,-49.7817 -29.4916,-102.39863 19.7088,-140.05585 65.1289,-49.84897 36.059,-50.96714 36.059,-50.96714 l -49.0441,25.01022 c 0,0 -125.6001,91.47357 -6.7237,166.01277 z"
       id="path3072-6-2-7"
       inkscape:connector-curvature="0"
       sodipodi:nodetypes="csccc" />
    <path
       style="color:#000000;display:inline;overflow:visible;visibility:visible;fill:#ffffff;fill-opacity:1;fill-rule:nonzero;stroke:none;stroke-width:0.999997px;marker:none;enable-background:accumulate"
       d="m 2251.962,1084.6446 c 33.9016,-49.7817 18.8426,-102.39865 -12.5922,-140.05585 -41.6116,-49.84901 -23.0385,-50.96718 -23.0385,-50.96718 l 31.3349,25.01018 c 0,0 80.2475,91.47365 4.2958,166.01285 z"
       id="path3072-6-2-7-2"
       inkscape:connector-curvature="0"
       sodipodi:nodetypes="csccc" />
    <path
       style="color:#000000;display:inline;overflow:visible;visibility:visible;fill:#ffffff;fill-opacity:1;fill-rule:nonzero;stroke:none;stroke-width:1px;marker:none;enable-background:accumulate"
       d="m 1922.3816,936.72518 c -8.2549,-29.38379 13.7579,-107.4339 182.9805,-101.00618 169.2227,6.42741 196.7388,43.15714 200.8662,54.17591 4.1272,11.01897 39.8978,73.45916 -92.1784,89.98762 -132.0763,16.52805 -250.3945,-0.91844 -291.6683,-43.15735 z"
       id="path3525-9-3-6-2"
       inkscape:connector-curvature="0" />
    <path
       style="color:#000000;display:inline;overflow:visible;visibility:visible;fill:#ffffff;fill-opacity:1;fill-rule:nonzero;stroke:none;stroke-width:1px;marker:none;enable-background:accumulate"
       d="m 1531.4569,1700.5719 c -23.8415,-32.5361 -17.0118,-112.1846 147.4558,-108.0653 142.6407,3.5726 168.1199,33.1471 172.2851,43.7947 4.1654,10.6475 38.1779,70.397 -71.8144,92.9197 -109.9923,22.5228 -210.5624,10.9605 -247.9265,-28.6491 z"
       id="path3525"
       inkscape:connector-curvature="0"
       sodipodi:nodetypes="cscsc" />
    <path
       style="color:#000000;display:inline;overflow:visible;visibility:visible;fill:#ffffff;fill-opacity:1;fill-rule:nonzero;stroke:none;stroke-width:1px;marker:none;enable-background:accumulate"
       d="m 1608.4632,1651.2723 c 20.1241,-71.6069 -3.7079,-270.868 -119.0026,-400.0031 125.0458,85.3367 158.4871,339.0967 162.3667,382.4641 3.8796,43.3676 -43.3641,17.539 -43.3641,17.539 z"
       id="path4008-2"
       inkscape:connector-curvature="0"
       sodipodi:nodetypes="ccsc" />
    <path
       style="color:#000000;display:inline;overflow:visible;visibility:visible;fill:#ffffff;fill-opacity:1;fill-rule:nonzero;stroke:none;stroke-width:1px;marker:none;enable-background:accumulate"
       d="m 1653.3284,1553.762 c -15.1993,-15.1771 13.0288,-90.0591 170.3837,-84.2591 157.3549,5.7998 182.8632,36.6675 186.6774,45.9177 3.8142,9.2503 35.6783,52.8472 -87.1823,66.3877 -122.8608,13.5404 -248.6588,-5.8024 -269.8788,-28.0463 z"
       id="path3525-9-3-6"
       inkscape:connector-curvature="0"
       sodipodi:nodetypes="csssc" />
    <path
       style="color:#000000;display:inline;overflow:visible;visibility:visible;fill:#ffffff;fill-opacity:1;fill-rule:nonzero;stroke:none;stroke-width:1px;marker:none;enable-background:accumulate"
       d="m 1676.0256,1480.6912 c -5.3771,-17.9761 9.2031,-65.6473 120.3535,-61.4195 111.1503,4.2277 129.1685,26.7283 131.8627,33.4711 2.6942,6.7428 26.0952,44.9742 -60.6895,54.8444 -86.7848,9.87 -164.4796,-1.0036 -191.5267,-26.896 z"
       id="path3525-9-3-6-6"
       inkscape:connector-curvature="0" />
    <path
       style="color:#000000;display:inline;overflow:visible;visibility:visible;fill:#ffffff;fill-opacity:1;fill-rule:nonzero;stroke:none;stroke-width:0.999997px;marker:none;enable-background:accumulate"
       d="m 1778.1481,1508.2253 c -0.5272,-15.2702 94.1578,-85.7703 13.3509,-218.1116 49.7072,116.6017 -25.1629,190.162 -37.214,205.5192 33.8772,28.7674 1.3368,6.4849 23.8631,12.5924 z"
       id="path4024-3"
       inkscape:connector-curvature="0"
       sodipodi:nodetypes="cccc" />
    <path
       style="fill:#ffffff;fill-rule:evenodd;stroke:none;stroke-width:0.999996px;stroke-linecap:butt;stroke-linejoin:miter;stroke-opacity:1"
       d="m 133.0537,370.21305 c 9.61569,14.15607 21.20529,19.82096 38.53223,0.8073 1.32562,10.89504 14.03847,18.84282 60.34288,1.61409 -26.57619,21.74712 -15.42863,23.50786 0,23.00078 -22.41432,28.17388 -3.29985,23.80659 5.08918,27.84355 -27.46998,17.01741 -23.87059,25.00247 -10.90534,30.26446 -9.26198,10.3092 -15.73268,20.30831 3.63505,27.43967 -15.1468,2.81294 -36.59389,1.54646 -29.8079,18.56237 -24.05128,-10.76542 -40.83681,-7.81966 -55.25371,-0.4039 -12.43881,-9.86529 -13.83008,-24.84634 -48.725211,-9.78324 19.325391,-16.69004 2.969772,-22.54315 -12.344725,-28.5517 28.771176,-16.15679 6.311211,-21.78267 -15.994497,-27.43967 40.325993,-1.94294 28.865192,-19.85404 18.175597,-37.52814 18.881496,3.55012 37.829896,7.35948 47.256446,-25.82557 z"
       id="path4489"
       inkscape:connector-curvature="0"
       sodipodi:nodetypes="cccccccccccccc" />
    <path
       style="color:#000000;display:inline;overflow:visible;visibility:visible;fill:#ffffff;fill-opacity:1;fill-rule:nonzero;stroke:none;stroke-width:1px;marker:none;enable-background:accumulate"
       d="m 677.4423,2687.0412 c -9.52719,38.1772 -125.32681,100.137 -236.77661,73.3634 146.69734,41.456 230.8448,-34.6586 244.57651,-44.3624 13.73188,-9.7041 -7.7999,-29.001 -7.7999,-29.001 z"
       id="path4008"
       inkscape:connector-curvature="0"
       sodipodi:nodetypes="ccsc" />
    <path
       style="color:#000000;display:inline;overflow:visible;visibility:visible;fill:#ffffff;fill-opacity:1;fill-rule:nonzero;stroke:none;stroke-width:1.06903px;marker:none;enable-background:accumulate"
       d="M 145.49805 462.33398 C 129.24373 462.49599 112.40529 464.64299 98.085938 472.85938 C 82.396836 482.24952 73.334437 500.78923 73.950567 518.86873 C 73.906515 531.08749 73.479067 543.88068 78.662088 555.25921 C 83.514806 565.79513 92.482965 573.68624 101.65157 580.44708 C 116.47345 591.04863 134.74893 596.26011 152.88718 596.32773 C 167.81898 596.61294 182.84379 595.26825 197.36914 591.73047 C 209.28037 588.67675 221.15155 583.21672 229.03801 573.46234 C 237.38286 563.38586 242.28144 550.9084 245.34961 538.31055 C 248.6161 523.58902 247.78157 507.35582 240.08294 494.09057 C 231.00883 478.2201 214.04064 467.59528 196.06627 465.08121 C 179.39318 462.06951 162.37311 462.29574 145.49805 462.33398 z "
       id="path3565-4"
       inkscape:connector-curvature="0"
       sodipodi:nodetypes="cscsc" />
    <path
       style="color:#000000;display:inline;overflow:visible;visibility:visible;fill:#ffffff;fill-opacity:1;fill-rule:nonzero;stroke:none;stroke-width:0.999998px;marker:none;enable-background:accumulate"
       d="m 265.0009,600.67547 c -5.46768,2.83014 -11.06784,1.9649 -16.76611,-1.10172 -6.35682,-5.3756 -6.05248,-12.01158 -11.87217,-18.04123 -4.58151,-6.01767 -11.97484,-8.97812 -18.55999,-6.24228 -13.43615,3.52688 -27.11021,6.01164 -40.90801,5.4401 -13.12712,-0.31107 -28.21416,-3.718 -36.46697,-17.07489 -8.28721,-15.08736 -8.38533,-36.69372 0.77056,-51.27141 6.43335,-9.67814 21.93051,-9.47867 26.15659,2.78054 1.97734,8.0063 -0.77049,17.0243 3.28011,24.51384 5.311,12.54346 17.25695,18.96727 28.66235,19.21269 6.74453,1.1864 13.62024,2.15057 20.34467,0.11017 6.6518,-1.04265 13.25685,-5.1738 20.01803,-3.35968 8.5505,2.24193 9.04482,13.18402 10.2824,21.50234 1.32089,7.5416 9.28421,16.86911 16.46152,12.76586 8.35724,-5.1656 21.16696,-12.81517 28.9439,-24.66668 -7.31344,14.9393 -17.82945,26.56695 -30.34688,35.43235 z"
       id="path4496-9"
       inkscape:connector-curvature="0"
       inkscape:transform-center-x="20.385683"
       inkscape:transform-center-y="-25.185021"
       sodipodi:nodetypes="cccccccccccccccc" />
    <path
       style="color:#000000;display:inline;overflow:visible;visibility:visible;fill:#ffffff;fill-opacity:1;fill-rule:nonzero;stroke:none;stroke-width:1px;marker:none;enable-background:accumulate"
       d="m 1862.1576,1375.0118 c -6.4737,-25.9457 10.7896,-94.8637 143.501,-89.1881 132.7116,5.6755 154.2909,38.1076 157.5276,47.8372 3.2369,9.7296 31.2898,64.8642 -72.29,79.4585 -103.5798,14.5944 -196.3699,-0.811 -228.7386,-38.1076 z"
       id="path3525-9-3-6-2-1-0-3"
       inkscape:connector-curvature="0" />
    <path
       style="color:#000000;display:inline;overflow:visible;visibility:visible;fill:#ffffff;fill-opacity:1;fill-rule:nonzero;stroke:none;stroke-width:1px;marker:none;enable-background:accumulate"
       d="m 585.89248,2504.6733 c 23.9892,60.3273 -13.67244,120.8938 -108.14839,209.2922 95.37883,-59.1546 151.749,-145.9316 144.69278,-178.8893 -6.16139,-28.7781 -36.54439,-30.4029 -36.54439,-30.4029 z"
       id="path4008-7"
       inkscape:connector-curvature="0"
       sodipodi:nodetypes="ccsc" />
    <path
       style="color:#000000;display:inline;overflow:visible;visibility:visible;fill:#ffffff;fill-opacity:1;fill-rule:nonzero;stroke:none;stroke-width:0.999998px;marker:none;enable-background:accumulate"
       d="m 468.5436,2394.2004 c -40.31312,54.8854 -75.72847,183.1138 -37.91807,292.6003 -61.60457,-144.6628 4.22365,-294.0375 29.7506,-309.3827 26.46987,-15.9121 8.16747,16.7824 8.16747,16.7824 z"
       id="path4008-9"
       inkscape:connector-curvature="0"
       sodipodi:nodetypes="ccsc" />
    <path
       style="color:#000000;display:inline;overflow:visible;visibility:visible;fill:#ffffff;fill-opacity:1;fill-rule:nonzero;stroke:none;stroke-width:1px;marker:none;enable-background:accumulate"
       d="m 2047.3699,1369.6591 c -26.5396,-37.1566 -31.1925,-95.0702 55.8017,-139.0438 -67.3517,47.4021 -55.1996,91.8111 -25.7778,124.8849 25.3992,28.5524 35.2261,42.7019 35.2261,42.7019 z"
       id="path4440-3"
       inkscape:connector-curvature="0"
       sodipodi:nodetypes="ccscc" />
  </g>
  <g
     inkscape:groupmode="layer"
     id="layer1"
     inkscape:label="txt">
    <text
       id="text4178-0-2-1-1"
       y="442.06793"
       x="156.98526"
       style="font-style:normal;font-variant:normal;font-weight:normal;font-stretch:normal;font-size:9.2552px;line-height:0%;font-family:Lavi;-inkscape-font-specification:Lavi;text-align:center;letter-spacing:0px;word-spacing:0px;text-anchor:middle;fill:#000000;fill-opacity:1;stroke:none;stroke-width:1"
       xml:space="preserve"><tspan
         y="442.06793"
         x="161.88722"
         style="font-weight:bold;font-size:31.3726px;line-height:1.25;stroke-width:1"
         sodipodi:role="line"
         id="tspan10508-3">UPS! </tspan></text>
    <text
       id="text4178-0-2-1-19"
       y="527.66827"
       x="159.58171"
       style="font-style:normal;font-variant:normal;font-weight:normal;font-stretch:normal;font-size:9.2552px;line-height:0%;font-family:Lavi;-inkscape-font-specification:Lavi;text-align:center;letter-spacing:0px;word-spacing:0px;text-anchor:middle;fill:#000000;fill-opacity:1;stroke:none;stroke-width:1"
       xml:space="preserve"><tspan
         y="527.66827"
         x="159.58171"
         style="font-weight:normal;font-size:31.3726px;line-height:1.25;stroke-width:1"
         sodipodi:role="line"
         id="tspan12091">Nej, nej</tspan><tspan
         y="566.88403"
         x="159.58171"
         style="font-weight:normal;font-size:31.3726px;line-height:1.25;stroke-width:1"
         sodipodi:role="line"
         id="tspan2091">nej!</tspan></text>
    <text
       id="text4178-0"
       y="205.2328"
       x="1675.7623"
       style="font-style:normal;font-variant:normal;font-weight:normal;font-stretch:normal;font-size:13.8279px;line-height:0%;font-family:Lavi;-inkscape-font-specification:Lavi;text-align:center;letter-spacing:0px;word-spacing:0px;text-anchor:middle;fill:#000000;fill-opacity:1;stroke:none;stroke-width:1"
       xml:space="preserve"><tspan
         y="205.2328"
         x="1683.0862"
         style="font-style:normal;font-variant:normal;font-weight:bold;font-stretch:normal;font-size:46.8727px;line-height:1.25;font-family:Lavi;-inkscape-font-specification:'Lavi Bold';stroke-width:1"
         sodipodi:role="line"
         id="tspan4245-6-6">Ha ha ha! </tspan></text>
    <text
       id="text4178-0-2"
       y="234.59265"
       x="2041.3823"
       style="font-style:normal;font-variant:normal;font-weight:normal;font-stretch:normal;line-height:0%;font-family:Lavi;-inkscape-font-specification:Lavi;text-align:center;letter-spacing:0px;word-spacing:0px;text-anchor:middle;fill:#000000;fill-opacity:1;stroke:none"
       xml:space="preserve"><tspan
         y="234.59265"
         x="2041.3823"
         style="font-size:40.6767px;line-height:1.25"
         sodipodi:role="line"
         id="tspan446">Se lige dér! Jeg tror, at</tspan><tspan
         y="285.43854"
         x="2041.3823"
         style="font-size:40.6767px;line-height:1.25"
         sodipodi:role="line"
         id="tspan12574">dens skrig var lidt for meget</tspan><tspan
         y="336.28439"
         x="2041.3823"
         style="font-size:40.6767px;line-height:1.25"
         sodipodi:role="line"
         id="tspan16638">for vores healer!</tspan></text>
    <text
       xml:space="preserve"
       style="font-style:normal;font-variant:normal;font-weight:normal;font-stretch:normal;font-size:10.42px;line-height:0%;font-family:Lavi;-inkscape-font-specification:Lavi;text-align:center;letter-spacing:0px;word-spacing:0px;text-anchor:middle;fill:#000000;fill-opacity:1;stroke:#000000;stroke-width:3.824;stroke-miterlimit:4;stroke-dasharray:none;stroke-opacity:1"
       x="1657.3848"
       y="845.25244"
       id="text4246-6-5-6-8-2"
       transform="matrix(0.96003343,0,-0.38131292,1.0416304,0,0)"><tspan
         sodipodi:role="line"
         style="font-size:55.1766px;line-height:1.25;fill:#000000;fill-opacity:1;stroke:#000000;stroke-width:3.824;stroke-miterlimit:4;stroke-dasharray:none;stroke-opacity:1"
         x="1657.3848"
         y="845.25244"
         id="tspan4252-7-3-1-7-6">Ho Ho Ho!</tspan></text>
    <text
       xml:space="preserve"
       style="font-style:normal;font-variant:normal;font-weight:normal;font-stretch:normal;font-size:9.34107px;line-height:0%;font-family:Lavi;-inkscape-font-specification:Lavi;text-align:center;letter-spacing:0px;word-spacing:0px;text-anchor:middle;fill:#000000;fill-opacity:1;stroke:#000000;stroke-width:3.399;stroke-miterlimit:4;stroke-dasharray:none;stroke-opacity:1"
       x="1861.427"
       y="856.27032"
       id="text4246-6-5-6-0-0-7"
       transform="matrix(0.96879238,0,-0.13947748,1.0322129,0,0)"><tspan
         sodipodi:role="line"
         style="font-size:51.342px;line-height:1.25;fill:#000000;fill-opacity:1;stroke:#000000;stroke-width:3.399;stroke-miterlimit:4;stroke-dasharray:none;stroke-opacity:1"
         x="1861.427"
         y="856.27032"
         id="tspan4252-7-3-1-2-9-9">HAHA HA HA!</tspan></text>
    <text
       id="text4178-0-2-1"
       y="946.56854"
       x="1683.7474"
       style="font-style:normal;font-variant:normal;font-weight:normal;font-stretch:normal;font-size:9.2552px;line-height:0%;font-family:Lavi;-inkscape-font-specification:Lavi;text-align:center;letter-spacing:0px;word-spacing:0px;text-anchor:middle;fill:#000000;fill-opacity:1;stroke:none;stroke-width:1"
       xml:space="preserve"><tspan
         y="946.56854"
         x="1683.7474"
         style="font-weight:bold;font-size:31.3726px;line-height:1.25;stroke-width:1"
         sodipodi:role="line"
         id="tspan10508"><tspan
   id="tspan25118"
   style="font-weight:normal;font-size:31.3726px;line-height:1.25;stroke-width:1">Og det </tspan>er helt blåt!</tspan></text>
    <text
       xml:space="preserve"
       style="font-style:normal;font-variant:normal;font-weight:normal;font-stretch:normal;font-size:8.91093px;line-height:0%;font-family:Lavi;-inkscape-font-specification:Lavi;text-align:center;letter-spacing:0px;word-spacing:0px;text-anchor:middle;fill:#000000;fill-opacity:1;stroke:#000000;stroke-width:3.399;stroke-miterlimit:4;stroke-dasharray:none;stroke-opacity:1"
       x="2345.4421"
       y="885.18958"
       id="text4246-6-5-6-0-0"
       transform="matrix(0.95442151,0,-0.13740852,1.0477551,0,0)"><tspan
         sodipodi:role="line"
         style="font-size:48.9779px;line-height:1.25;fill:#000000;fill-opacity:1;stroke:#000000;stroke-width:3.399;stroke-miterlimit:4;stroke-dasharray:none;stroke-opacity:1"
         x="2345.4421"
         y="885.18958"
         id="tspan4252-7-3-1-2-9">HIHI HI HI!</tspan></text>
    <text
       id="text4178-0-2-1-7"
       y="1343.0605"
       x="2013.8489"
       style="font-style:normal;font-variant:normal;font-weight:normal;font-stretch:normal;font-size:9.2552px;line-height:0%;font-family:Lavi;-inkscape-font-specification:Lavi;text-align:center;letter-spacing:0px;word-spacing:0px;text-anchor:middle;fill:#000000;fill-opacity:1;stroke:none;stroke-width:1"
       xml:space="preserve"><tspan
         y="1343.0605"
         x="2013.8489"
         style="font-weight:normal;font-size:31.3726px;line-height:1.25;stroke-width:1"
         sodipodi:role="line"
         id="tspan11379">Tror I at det også</tspan><tspan
         y="1382.2762"
         x="2013.8489"
         style="font-weight:normal;font-size:31.3726px;line-height:1.25;stroke-width:1"
         sodipodi:role="line"
         id="tspan29482">kan helbrede?</tspan></text>
    <text
       id="text4178-0-2-1-7-8"
       y="1471.0532"
       x="1807.2041"
       style="font-style:normal;font-variant:normal;font-weight:normal;font-stretch:normal;font-size:9.2552px;line-height:0%;font-family:Lavi;-inkscape-font-specification:Lavi;text-align:center;letter-spacing:0px;word-spacing:0px;text-anchor:middle;fill:#000000;fill-opacity:1;stroke:none;stroke-width:1"
       xml:space="preserve"><tspan
         y="1471.0532"
         x="1807.2041"
         style="font-weight:normal;font-size:31.3726px;line-height:1.25;stroke-width:1"
         sodipodi:role="line"
         id="tspan11379-3">Adr, ulækkert!</tspan></text>
    <text
       xml:space="preserve"
       style="font-style:normal;font-variant:normal;font-weight:normal;font-stretch:normal;line-height:0%;font-family:Lavi;-inkscape-font-specification:Lavi;text-align:center;letter-spacing:0px;word-spacing:0px;text-anchor:middle;fill:#000000;fill-opacity:1;stroke:#000000;stroke-width:3.71961;stroke-miterlimit:4;stroke-dasharray:none;stroke-opacity:1"
       x="2084.0078"
       y="1513.5232"
       id="text4246-6-5-6-0"
       transform="matrix(0.98303641,0.00256037,-0.14417769,1.0168808,0,0)"><tspan
         sodipodi:role="line"
         style="font-size:42.3038px;line-height:1.25;fill:#000000;fill-opacity:1;stroke:#000000;stroke-width:3.71961;stroke-miterlimit:4;stroke-dasharray:none;stroke-opacity:1"
         x="2084.0078"
         y="1513.5232"
         id="tspan4252-7-3-1-2">HAHA HA HA!</tspan></text>
    <text
       xml:space="preserve"
       style="font-style:normal;font-variant:normal;font-weight:normal;font-stretch:normal;line-height:0%;font-family:Lavi;-inkscape-font-specification:Lavi;text-align:center;letter-spacing:0px;word-spacing:0px;text-anchor:middle;fill:#000000;fill-opacity:1;stroke:#000000;stroke-width:4.396;stroke-miterlimit:4;stroke-dasharray:none;stroke-opacity:1"
       x="2017.9332"
       y="1586.5625"
       id="text4246-6-5-6"
       transform="matrix(0.96222298,0.01896228,-0.15900417,1.0361267,0,0)"><tspan
         sodipodi:role="line"
         style="font-size:49.9966px;line-height:1.25;fill:#000000;fill-opacity:1;stroke:#000000;stroke-width:4.396;stroke-miterlimit:4;stroke-dasharray:none;stroke-opacity:1"
         x="2017.9332"
         y="1586.5625"
         id="tspan4252-7-3-1">HOHO HO!</tspan></text>
    <text
       xml:space="preserve"
       style="font-style:normal;font-variant:normal;font-weight:normal;font-stretch:normal;font-size:12.1417px;line-height:0%;font-family:Lavi;-inkscape-font-specification:Lavi;text-align:center;letter-spacing:0px;word-spacing:0px;text-anchor:middle;fill:#000000;fill-opacity:1;stroke:none;stroke-width:1"
       x="1466.2289"
       y="1818.7811"
       id="text4246-3-7-7-6-7-2-9-6-1-4-3-1"
       transform="scale(1.0184904,0.98184529)"><tspan
         sodipodi:role="line"
         style="font-style:normal;font-variant:normal;font-weight:bold;font-stretch:normal;font-size:45.5315px;line-height:1.2;font-family:Lavi;-inkscape-font-specification:'Lavi Bold';stroke-width:1"
         x="1466.2289"
         y="1818.7811"
         id="tspan1249-3">...</tspan></text>
    <text
       xml:space="preserve"
       style="font-style:normal;font-variant:normal;font-weight:normal;font-stretch:normal;font-size:11.1611px;line-height:0%;font-family:Lavi;-inkscape-font-specification:Lavi;text-align:center;letter-spacing:0px;word-spacing:0px;text-anchor:middle;fill:#000000;fill-opacity:1;stroke:none;stroke-width:1.95098;stroke-miterlimit:4;stroke-dasharray:none"
       x="563.37299"
       y="2089.1392"
       id="text4246-6"
       transform="scale(0.88023427,1.1360612)"><tspan
         sodipodi:role="line"
         style="font-style:normal;font-variant:normal;font-weight:normal;font-stretch:normal;font-size:41.8542px;line-height:1.2;font-family:Lavi;-inkscape-font-specification:Lavi;stroke:#000000;stroke-width:1.95098;stroke-miterlimit:4;stroke-dasharray:none;stroke-opacity:1"
         x="563.37299"
         y="2089.1392"
         id="tspan4252-1">HEEEY !</tspan></text>
    <text
       id="text4178-0-1"
       y="2493.2842"
       x="645.75696"
       style="font-style:normal;font-variant:normal;font-weight:normal;font-stretch:normal;font-size:10.2299px;line-height:0%;font-family:Lavi;-inkscape-font-specification:Lavi;text-align:center;letter-spacing:0px;word-spacing:0px;text-anchor:middle;fill:#000000;fill-opacity:1;stroke:none;stroke-width:1"
       xml:space="preserve"><tspan
         y="2493.2842"
         x="645.75696"
         style="font-weight:bold;font-size:34.6764px;line-height:1.25;stroke-width:1"
         sodipodi:role="line"
         id="tspan4245-6-6-5">Vent!</tspan><tspan
         y="2536.6296"
         x="645.75696"
         style="font-size:34.6764px;line-height:1.25;stroke-width:1"
         sodipodi:role="line"
         id="tspan14393">Det var bare</tspan><tspan
         y="2579.9751"
         x="645.75696"
         style="font-size:34.6764px;line-height:1.25;stroke-width:1"
         sodipodi:role="line"
         id="tspan42826">for sjov!</tspan></text>
    <text
       id="text4178-0-1-91"
       y="2703.7402"
       x="715.89496"
       style="font-style:normal;font-variant:normal;font-weight:normal;font-stretch:normal;font-size:10.2299px;line-height:0%;font-family:Lavi;-inkscape-font-specification:Lavi;text-align:center;letter-spacing:0px;word-spacing:0px;text-anchor:middle;fill:#000000;fill-opacity:1;stroke:none;stroke-width:1"
       xml:space="preserve"><tspan
         y="2703.7402"
         x="715.89496"
         style="font-size:34.6764px;line-height:1.25;stroke-width:1"
         sodipodi:role="line"
         id="tspan14393-1">Healer!</tspan></text>
    <text
       id="text4178-0-0"
       y="3071.1521"
       x="1884.3115"
       style="font-style:normal;font-variant:normal;font-weight:normal;font-stretch:normal;line-height:0%;font-family:Lavi;-inkscape-font-specification:Lavi;text-align:center;letter-spacing:0px;word-spacing:0px;text-anchor:middle;fill:#000000;fill-opacity:1;stroke:none"
       xml:space="preserve"><tspan
         y="3071.1521"
         x="1884.3115"
         style="font-size:40.6767px;line-height:1.25"
         sodipodi:role="line"
         id="tspan14513">Velkommen tilbage</tspan><tspan
         y="3121.998"
         x="1884.3115"
         style="font-size:40.6767px;line-height:1.25"
         sodipodi:role="line"
         id="tspan47263">blandt os.</tspan></text>
    <text
       xml:space="preserve"
       style="font-style:normal;font-variant:normal;font-weight:normal;font-stretch:normal;line-height:0%;font-family:Lavi;-inkscape-font-specification:Lavi;text-align:center;letter-spacing:0px;word-spacing:0px;text-anchor:middle;fill:#ffffff;fill-opacity:1;stroke:#ffffff;stroke-width:3.822;stroke-miterlimit:4;stroke-dasharray:none;stroke-opacity:1;filter:url(#filter5534)"
       x="2028.7821"
       y="2443.6147"
       id="text4213-0"
       transform="matrix(0.75304346,0,-0.11971288,1.3279446,1.5361129,119.83759)"><tspan
         sodipodi:role="line"
         id="tspan4215"
         x="2028.7821"
         y="2443.6147"
         style="font-size:63.5518px;line-height:1.25;fill:#ffffff;stroke:#ffffff;stroke-width:3.822;stroke-miterlimit:4;stroke-dasharray:none">- SLUT -</tspan></text>
    <text
       xml:space="preserve"
       id="text611"
       style="font-family:Ubuntu;font-size:12px;line-height:1.25;letter-spacing:0px;word-spacing:0px;-inkscape-font-specification:Ubuntu;white-space:pre;shape-inside:url(#rect613)" />
  </g>
</svg>
