<?xml version="1.0" encoding="UTF-8" standalone="no"?>
<svg
   xmlns:dc="http://purl.org/dc/elements/1.1/"
   xmlns:cc="http://creativecommons.org/ns#"
   xmlns:rdf="http://www.w3.org/1999/02/22-rdf-syntax-ns#"
   xmlns:svg="http://www.w3.org/2000/svg"
   xmlns="http://www.w3.org/2000/svg"
   xmlns:xlink="http://www.w3.org/1999/xlink"
   xmlns:sodipodi="http://sodipodi.sourceforge.net/DTD/sodipodi-0.dtd"
   xmlns:inkscape="http://www.inkscape.org/namespaces/inkscape"
   sodipodi:docname="E35P05.svg"
   height="3503"
   width="2481"
   inkscape:version="1.0.1 (3bc2e813f5, 2020-09-07)"
   version="1.1"
   id="svg2">
  <metadata
     id="metadata8">
    <rdf:RDF>
      <cc:Work
         rdf:about="">
        <dc:format>image/svg+xml</dc:format>
        <dc:type
           rdf:resource="http://purl.org/dc/dcmitype/StillImage" />
        <dc:title />
      </cc:Work>
    </rdf:RDF>
  </metadata>
  <defs
     id="defs6" />
  <sodipodi:namedview
     inkscape:pagecheckerboard="0"
     inkscape:snap-global="false"
     inkscape:document-rotation="0"
     inkscape:current-layer="layer3"
     inkscape:window-maximized="1"
     inkscape:window-y="27"
     inkscape:window-x="72"
     inkscape:cy="2675.9721"
     inkscape:cx="1080.9223"
     inkscape:zoom="0.40000002"
     showgrid="false"
     id="namedview4"
     inkscape:window-height="1016"
     inkscape:window-width="1848"
     inkscape:pageshadow="2"
     inkscape:pageopacity="0"
     guidetolerance="10"
     gridtolerance="10"
     objecttolerance="10"
     borderopacity="1"
     bordercolor="#666666"
     pagecolor="#ffffff" />
  <g
     sodipodi:insensitive="true"
     inkscape:label="artwork"
     id="layer2"
     inkscape:groupmode="layer">
    <image
       sodipodi:absref="/home/emmiline/Documents/git/webcomics/ep35_The-Reflection/lang/gfx_Pepper-and-Carrot_by-David-Revoy_E35P05.png"
       xlink:href="../gfx_Pepper-and-Carrot_by-David-Revoy_E35P05.png"
       width="2481"
       height="3503"
       id="image10"
       x="0"
       y="0" />
  </g>
  <g
     inkscape:label="speechbubbles"
     id="layer3"
     inkscape:groupmode="layer">
    <path
       sodipodi:nodetypes="ccccccccccccccc"
       inkscape:connector-curvature="0"
       id="path3549-3-1"
       d="m 1294.0915,3036.6191 c 3.0591,-35.2866 16.7708,-34.9849 63.9812,-3.067 -12.4578,-62.9304 50.9268,-65.9059 110.0006,-72.2891 -6.7752,-17.6816 -32.931,-37.9887 9.4704,-49.0096 -22.7749,-10.5394 -22.8485,-24.5601 -2.6666,-41.6866 -47.149,8.1611 -64.8836,3.1364 -9.1185,-34.8365 -52.6322,21.5729 -103.0346,40.777 -83.1846,-14.6168 -19.9303,7.5397 -31.0497,51.3953 -109.109,-28.8246 -0.8838,36.9373 -79.2095,67.3285 -117.675,19.6447 19.4733,39.7309 -44.3589,85.3245 -74.2903,53.4256 17.7811,22.2732 3.0848,44.0543 -19.3217,47.7038 63.6166,5.8931 50.8544,19.3944 6.8179,41.7916 131.0303,3.496 58.9211,25.7471 59.5634,40.8097 79.7663,-13.8535 74.64,14.2909 86.0601,35.1552 75.9631,-63.6402 52.8849,-52.2733 79.4721,5.7996 z"
       style="color:#000000;display:inline;overflow:visible;visibility:visible;fill:#ffffff;fill-opacity:1;fill-rule:nonzero;stroke:none;stroke-width:1.3028px;marker:none;enable-background:accumulate" />
    <path
       sodipodi:nodetypes="cccccccccccccccccccc"
       inkscape:connector-curvature="0"
       id="path3549-3-7"
       d="m 1214.1501,2923.8383 c -7.4911,32.3263 -49.7418,35.037 -65.2952,28.4662 31.3525,36.163 30.2595,58.6315 -12.3083,62.1201 71.3869,65.1753 22.8112,76.3221 1.544,71.8393 56.0518,22.4607 59.0377,75.6848 20.9944,78.2405 64.4262,0.9559 43.3424,45.5611 46.058,81.0864 5.4617,-16.67 31.4089,-67.421 32.9703,-10.9131 35.2563,-41.9229 77.843,-62.5051 98.0172,5.6096 17.1699,-47.4626 34.2885,-67.5222 32.9707,-10.9131 42.5417,-73.6273 80.7714,-47.1248 119.2276,-26.3151 -8.7546,-22.5794 -31.8805,-57.1798 43.954,-48.362 -26.6856,-21.3283 -27.8011,-36.0856 31.3679,-46.1584 -33.1101,-13.3054 -39.212,-27.0298 22.2657,-41.7993 -46.781,-1.4286 -90.4046,-4.3556 -35.5201,-54.7239 -17.2189,-1.2187 -58.0722,40.8099 -39.0248,-82.1879 -29.6084,39.3758 -61.1979,61.1087 -100.8144,-21.3738 -18.7485,41.2066 -51.2672,61.5973 -65.4142,10.1269 -5.0851,21.9428 -26.1693,30.1951 -44.0684,31.1957 -6.9214,-8.7159 -14.0606,-20.5546 -21.5102,-36.0651 -12.1758,32.568 -30.3896,54.563 -65.4142,10.127 z"
       style="color:#000000;display:inline;overflow:visible;visibility:visible;fill:#ffffff;fill-opacity:1;fill-rule:nonzero;stroke:none;stroke-width:1.22227px;marker:none;enable-background:accumulate" />
    <path
       sodipodi:nodetypes="ccsccscsc"
       inkscape:transform-center-y="220.66697"
       inkscape:transform-center-x="-51.96084"
       inkscape:connector-curvature="0"
       id="path891"
       d="m 1204.7404,2519.8617 c 50.5917,78.9459 60.9555,113.3414 65.2028,134.3512 -41.2056,-22.133 -58.2095,-26.0517 -64.1574,-16.5377 -5.9478,9.5142 78.8131,323.8736 78.8131,323.8736 l 27.3427,-77.0906 c 0,0 -45.9792,-134.5245 -55.8759,-162.7161 -9.897,-28.1916 -17.6794,-59.5815 -17.6794,-59.5815 0,0 32.7448,22.5895 42.5581,23.1114 9.813,0.5218 45.9229,-15.5328 -76.204,-165.4103 z"
       style="fill:#ffffff;fill-rule:evenodd;stroke:none;stroke-width:1.65188px;stroke-linecap:butt;stroke-linejoin:miter;stroke-opacity:1" />
    <path
       inkscape:connector-curvature="0"
       id="path1355"
       d="m 2185.1028,3280.612 c 1.1322,-19.455 14.7184,-55.122 35.0979,-61.607 20.3793,-6.485 76.9887,-6.485 88.3106,-3.242 11.3219,3.242 29.4369,27.02 33.9657,36.748 4.5288,9.727 16.9828,44.313 -3.3965,58.364 -20.3795,14.051 -40.7588,24.859 -62.2705,23.778 -21.5116,-1.081 -64.5347,-8.647 -74.7244,-21.616 -10.1897,-12.97 -16.9828,-32.425 -16.9828,-32.425 z"
       style="fill:#ffffff;fill-rule:evenodd;stroke:none;stroke-width:1.02349px;stroke-linecap:butt;stroke-linejoin:miter;stroke-opacity:1" />
    <path
       inkscape:connector-curvature="0"
       id="path1367"
       d="m 2210.3858,3260.9854 c 0,0 -9.9729,30.1184 -20.5324,37.3461 -10.5597,7.2275 -37.179,18.9359 -56.6531,11.8546 35.6758,21.6634 55.6021,14.7863 64.3759,10.0326 8.7751,-4.7533 39.4153,-35.3687 39.4153,-35.3687 z"
       style="fill:#ffffff;fill-rule:evenodd;stroke:none;stroke-width:1.40704px;stroke-linecap:butt;stroke-linejoin:miter;stroke-opacity:1" />
  </g>
  <g
     inkscape:label="txt"
     id="layer1"
     inkscape:groupmode="layer">
    <text
       transform="skewX(-9.8231434)"
       id="text4246-3-2-2"
       y="2937.1594"
       x="1781.5028"
       style="font-style:normal;font-variant:normal;font-weight:normal;font-stretch:normal;font-size:64px;line-height:1.25;font-family:Lavi;-inkscape-font-specification:Lavi;text-align:center;letter-spacing:0px;word-spacing:0px;text-anchor:middle;fill:#000000;fill-opacity:1;stroke:none"
       xml:space="preserve"><tspan
         id="tspan905"
         y="2937.1594"
         x="1781.5028"
         sodipodi:role="line"
         style="font-style:normal;font-variant:normal;font-weight:bold;font-stretch:normal;font-size:64px;font-family:Lavi;-inkscape-font-specification:'Lavi Bold'">POKKERS!</tspan></text>
    <text
       id="text4246-3-2-2-7"
       y="3061.1643"
       x="1354.6593"
       style="font-style:normal;font-variant:normal;font-weight:normal;font-stretch:normal;font-size:56px;line-height:1.25;font-family:Lavi;-inkscape-font-specification:Lavi;text-align:center;letter-spacing:0px;word-spacing:0px;text-anchor:middle;fill:#000000;fill-opacity:1;stroke:none"
       xml:space="preserve"><tspan
         id="tspan847"
         y="3061.1643"
         x="1354.6593"
         sodipodi:role="line"
         style="font-style:normal;font-variant:normal;font-weight:bold;font-stretch:normal;font-size:56px;font-family:Lavi;-inkscape-font-specification:'Lavi Bold'">HVAD SKAL</tspan><tspan
         y="3131.1643"
         x="1354.6593"
         sodipodi:role="line"
         style="font-style:normal;font-variant:normal;font-weight:bold;font-stretch:normal;font-size:56px;font-family:Lavi;-inkscape-font-specification:'Lavi Bold'"
         id="tspan28">JEG GØRE?!</tspan></text>
    <text
       id="text4246-3-2-2-7-3"
       y="3294.04"
       x="2267.2617"
       style="font-style:normal;font-variant:normal;font-weight:normal;font-stretch:normal;font-size:56px;line-height:1.25;font-family:Lavi;-inkscape-font-specification:Lavi;text-align:center;letter-spacing:0px;word-spacing:0px;text-anchor:middle;fill:#000000;fill-opacity:1;stroke:none"
       xml:space="preserve"><tspan
         id="tspan935-6"
         y="3294.04"
         x="2267.2617"
         sodipodi:role="line"
         style="font-style:normal;font-variant:normal;font-weight:bold;font-stretch:normal;font-size:56px;font-family:Lavi;-inkscape-font-specification:'Lavi Bold'">Åh!</tspan></text>
  </g>
</svg>
