<?xml version="1.0" encoding="UTF-8" standalone="no"?>
<!-- Created with Inkscape (http://www.inkscape.org/) -->

<svg
   xmlns:dc="http://purl.org/dc/elements/1.1/"
   xmlns:cc="http://creativecommons.org/ns#"
   xmlns:rdf="http://www.w3.org/1999/02/22-rdf-syntax-ns#"
   xmlns:svg="http://www.w3.org/2000/svg"
   xmlns="http://www.w3.org/2000/svg"
   xmlns:xlink="http://www.w3.org/1999/xlink"
   xmlns:sodipodi="http://sodipodi.sourceforge.net/DTD/sodipodi-0.dtd"
   xmlns:inkscape="http://www.inkscape.org/namespaces/inkscape"
   id="svg2"
   version="1.1"
   inkscape:version="0.92.2 (5c3e80d, 2017-08-06)"
   width="2481"
   height="3503"
   sodipodi:docname="E24P04.svg"
   inkscape:export-filename="E:\Users\jamesmichael\Downloads\Compressed\eps\ep24_The-Unity-Tree_lang-pack\lang\ph\E24P04.png"
   inkscape:export-xdpi="90"
   inkscape:export-ydpi="90">
  <metadata
     id="metadata8">
    <rdf:RDF>
      <cc:Work
         rdf:about="">
        <dc:format>image/svg+xml</dc:format>
        <dc:type
           rdf:resource="http://purl.org/dc/dcmitype/StillImage" />
        <dc:title />
      </cc:Work>
    </rdf:RDF>
  </metadata>
  <defs
     id="defs6">
    <filter
       style="color-interpolation-filters:sRGB"
       id="filter4375-4-1-1-1-9-5-8"
       inkscape:label="Drop Shadow">
      <feFlood
         id="feFlood4377-7-9-0-8-1-7-3"
         flood-opacity="1"
         flood-color="rgb(200,55,55)"
         result="flood" />
      <feComposite
         id="feComposite4379-3-8-8-2-77-4-1"
         in2="SourceGraphic"
         in="flood"
         operator="in"
         result="composite1" />
      <feMorphology
         id="feMorphology4393-1-0-49-8-9-3-0"
         operator="dilate"
         radius="6.2000000000000002"
         result="result3" />
      <feComposite
         id="feComposite4385-9-5-7-0-8-8-7"
         in2="result3"
         in="SourceGraphic"
         operator="over"
         result="fbSourceGraphic" />
      <feColorMatrix
         result="fbSourceGraphicAlpha"
         in="fbSourceGraphic"
         values="0 0 0 -1 0 0 0 0 -1 0 0 0 0 -1 0 0 0 0 1 0"
         id="feColorMatrix4544" />
      <feTurbulence
         id="feTurbulence4546"
         type="fractalNoise"
         numOctaves="3"
         seed="37"
         baseFrequency="0.129 0.0050000000000000001"
         result="turbulence" />
      <feDisplacementMap
         id="feDisplacementMap4548"
         in2="turbulence"
         in="fbSourceGraphic"
         scale="6.6"
         yChannelSelector="G"
         xChannelSelector="R"
         result="fbSourceGraphic" />
      <feColorMatrix
         result="fbSourceGraphicAlpha"
         in="fbSourceGraphic"
         values="0 0 0 -1 0 0 0 0 -1 0 0 0 0 -1 0 0 0 0 1 0"
         id="feColorMatrix4670" />
      <feFlood
         id="feFlood4672"
         flood-opacity="1"
         flood-color="rgb(80,22,22)"
         result="flood"
         in="fbSourceGraphic" />
      <feComposite
         id="feComposite4674"
         in2="fbSourceGraphic"
         in="flood"
         operator="in"
         result="composite1" />
      <feGaussianBlur
         id="feGaussianBlur4676"
         in="composite1"
         stdDeviation="0"
         result="blur" />
      <feOffset
         id="feOffset4678"
         dx="6"
         dy="6"
         result="offset" />
      <feComposite
         id="feComposite4680"
         in2="offset"
         in="fbSourceGraphic"
         operator="over"
         result="composite2" />
    </filter>
    <filter
       style="color-interpolation-filters:sRGB"
       id="filter4375-4-1-1-1-9-5-8-0"
       inkscape:label="Drop Shadow">
      <feFlood
         id="feFlood4377-7-9-0-8-1-7-3-9"
         flood-opacity="1"
         flood-color="rgb(200,55,55)"
         result="flood" />
      <feComposite
         id="feComposite4379-3-8-8-2-77-4-1-3"
         in2="SourceGraphic"
         in="flood"
         operator="in"
         result="composite1" />
      <feMorphology
         id="feMorphology4393-1-0-49-8-9-3-0-6"
         operator="dilate"
         radius="6.2000000000000002"
         result="result3" />
      <feComposite
         id="feComposite4385-9-5-7-0-8-8-7-0"
         in2="result3"
         in="SourceGraphic"
         operator="over"
         result="fbSourceGraphic" />
      <feColorMatrix
         result="fbSourceGraphicAlpha"
         in="fbSourceGraphic"
         values="0 0 0 -1 0 0 0 0 -1 0 0 0 0 -1 0 0 0 0 1 0"
         id="feColorMatrix4544-6" />
      <feTurbulence
         id="feTurbulence4546-2"
         type="fractalNoise"
         numOctaves="3"
         seed="37"
         baseFrequency="0.129 0.0050000000000000001"
         result="turbulence" />
      <feDisplacementMap
         id="feDisplacementMap4548-6"
         in2="turbulence"
         in="fbSourceGraphic"
         scale="6.6"
         yChannelSelector="G"
         xChannelSelector="R"
         result="fbSourceGraphic" />
      <feColorMatrix
         result="fbSourceGraphicAlpha"
         in="fbSourceGraphic"
         values="0 0 0 -1 0 0 0 0 -1 0 0 0 0 -1 0 0 0 0 1 0"
         id="feColorMatrix4670-1" />
      <feFlood
         id="feFlood4672-8"
         flood-opacity="1"
         flood-color="rgb(80,22,22)"
         result="flood"
         in="fbSourceGraphic" />
      <feComposite
         id="feComposite4674-7"
         in2="fbSourceGraphic"
         in="flood"
         operator="in"
         result="composite1" />
      <feGaussianBlur
         id="feGaussianBlur4676-9"
         in="composite1"
         stdDeviation="0"
         result="blur" />
      <feOffset
         id="feOffset4678-2"
         dx="6"
         dy="6"
         result="offset" />
      <feComposite
         id="feComposite4680-0"
         in2="offset"
         in="fbSourceGraphic"
         operator="over"
         result="composite2" />
    </filter>
    <filter
       style="color-interpolation-filters:sRGB"
       id="filter4375-4-1-1-1-9-5-8-0-9"
       inkscape:label="Drop Shadow">
      <feFlood
         id="feFlood4377-7-9-0-8-1-7-3-9-2"
         flood-opacity="1"
         flood-color="rgb(200,55,55)"
         result="flood" />
      <feComposite
         id="feComposite4379-3-8-8-2-77-4-1-3-2"
         in2="SourceGraphic"
         in="flood"
         operator="in"
         result="composite1" />
      <feMorphology
         id="feMorphology4393-1-0-49-8-9-3-0-6-8"
         operator="dilate"
         radius="6.2000000000000002"
         result="result3" />
      <feComposite
         id="feComposite4385-9-5-7-0-8-8-7-0-9"
         in2="result3"
         in="SourceGraphic"
         operator="over"
         result="fbSourceGraphic" />
      <feColorMatrix
         result="fbSourceGraphicAlpha"
         in="fbSourceGraphic"
         values="0 0 0 -1 0 0 0 0 -1 0 0 0 0 -1 0 0 0 0 1 0"
         id="feColorMatrix4544-6-7" />
      <feTurbulence
         id="feTurbulence4546-2-3"
         type="fractalNoise"
         numOctaves="3"
         seed="37"
         baseFrequency="0.129 0.0050000000000000001"
         result="turbulence" />
      <feDisplacementMap
         id="feDisplacementMap4548-6-6"
         in2="turbulence"
         in="fbSourceGraphic"
         scale="6.6"
         yChannelSelector="G"
         xChannelSelector="R"
         result="fbSourceGraphic" />
      <feColorMatrix
         result="fbSourceGraphicAlpha"
         in="fbSourceGraphic"
         values="0 0 0 -1 0 0 0 0 -1 0 0 0 0 -1 0 0 0 0 1 0"
         id="feColorMatrix4670-1-1" />
      <feFlood
         id="feFlood4672-8-2"
         flood-opacity="1"
         flood-color="rgb(80,22,22)"
         result="flood"
         in="fbSourceGraphic" />
      <feComposite
         id="feComposite4674-7-9"
         in2="fbSourceGraphic"
         in="flood"
         operator="in"
         result="composite1" />
      <feGaussianBlur
         id="feGaussianBlur4676-9-3"
         in="composite1"
         stdDeviation="0"
         result="blur" />
      <feOffset
         id="feOffset4678-2-1"
         dx="6"
         dy="6"
         result="offset" />
      <feComposite
         id="feComposite4680-0-9"
         in2="offset"
         in="fbSourceGraphic"
         operator="over"
         result="composite2" />
    </filter>
  </defs>
  <sodipodi:namedview
     pagecolor="#ffffff"
     bordercolor="#666666"
     borderopacity="1"
     objecttolerance="10"
     gridtolerance="10"
     guidetolerance="10"
     inkscape:pageopacity="0"
     inkscape:pageshadow="2"
     inkscape:window-width="1920"
     inkscape:window-height="1029"
     id="namedview4"
     showgrid="false"
     inkscape:zoom="0.28284273"
     inkscape:cx="1246.2202"
     inkscape:cy="873.88849"
     inkscape:window-x="0"
     inkscape:window-y="27"
     inkscape:window-maximized="1"
     inkscape:current-layer="layer3"
     inkscape:snap-global="false" />
  <g
     inkscape:groupmode="layer"
     id="layer2"
     inkscape:label="artwork"
     sodipodi:insensitive="true">
    <image
       sodipodi:absref="E:\Users\jamesmichael\Downloads\Compressed\eps\ep24_The-Unity-Tree_lang-pack\lang\ph\../gfx_Pepper-and-Carrot_by-David-Revoy_E24P04.png"
       xlink:href="../gfx_Pepper-and-Carrot_by-David-Revoy_E24P04.png"
       width="2481"
       height="3503"
       id="image10"
       x="0"
       y="0" />
  </g>
  <g
     inkscape:groupmode="layer"
     id="layer3"
     inkscape:label="speechbubbles"
     style="display:inline">
    <path
       style="color:#000000;display:inline;overflow:visible;visibility:visible;fill:#ffffff;fill-opacity:1;fill-rule:nonzero;stroke:none;stroke-width:1px;marker:none;enable-background:accumulate"
       d="m 275.07152,175.91178 c -6.17177,18.3782 -40.98141,19.91929 -53.7958,16.1836 25.83084,20.5594 24.93032,33.33329 -10.1407,35.31667 58.8147,37.05342 10.75212,31.44637 1.27211,40.84206 46.18043,12.76942 25.51883,28.6613 17.29711,44.48137 53.07983,0.54339 35.70922,25.90245 37.94644,46.09931 4.49988,-9.47726 25.87761,-38.33026 27.1639,-6.20439 35.10922,-30.64981 77.39738,-50.44806 80.75518,3.18923 14.1461,-26.98345 28.24974,-38.38776 27.16391,-6.20439 35.04959,-41.85853 66.5465,-26.79142 98.23007,-14.96063 8.32153,-12.63389 9.29115,-32.04321 36.21324,-27.49474 -3.77479,-12.52246 5.31523,-21.13035 25.84353,-26.24207 -27.27885,-7.56446 -32.30625,-15.36702 18.34445,-23.76378 -38.54221,-0.8122 -74.4831,-2.47623 -29.26468,-31.11163 -14.18627,-0.6929 -47.8447,23.20127 -32.15181,-46.72553 -24.39409,22.38601 -50.4204,34.74151 -83.05973,-12.15147 -15.44659,23.4268 -42.23834,35.01932 -53.89408,5.75738 -4.18931,12.47488 -21.56042,17.16648 -36.3072,17.73544 -5.70261,-4.95527 -11.58418,-11.68577 -17.72187,-20.50381 -10.03155,18.51555 -25.03765,31.02013 -53.89407,5.75738 z"
       id="path3549-3-7"
       inkscape:connector-curvature="0"
       sodipodi:nodetypes="cccccccccccccccccccc" />
    <path
       style="fill:#ffffff;fill-opacity:1;stroke:none;stroke-width:1"
       d="m 432.98585,350.70425 c 142.68983,-8.58037 215.58599,79.74762 209.10021,318.28199 -1.8997,69.86743 -18.11782,307.22735 -27.15972,345.46666 -21.82803,92.3135 -60.11268,109.619 -93.82586,134.7411 -79.42594,30.2174 -169.38592,-1.367 -226.24592,-121.0254 C 267.4562,954.74199 272.25619,789.99098 265.54374,684.60072 258.96322,572.79563 290.50815,466.70243 320.10333,426.90944 350.63606,385.85585 395.692,352.42031 432.98585,350.70425 Z"
       id="path3238"
       inkscape:connector-curvature="0"
       sodipodi:nodetypes="csscccsc" />
    <path
       style="color:#000000;display:inline;overflow:visible;visibility:visible;fill:#ffffff;fill-opacity:1;fill-rule:nonzero;stroke:none;stroke-width:0.99999994px;marker:none;enable-background:accumulate"
       d="M 628.03197,858.476 C 533.61176,839.19986 469.65671,758.85607 474.91196,695.56193 L 455.19705,718.9725 C 424.07312,680.91386 433.33792,841.98614 628.03197,858.476 Z"
       id="path3072-1"
       inkscape:connector-curvature="0"
       sodipodi:nodetypes="cccc" />
    <path
       style="fill:#ffffff;fill-opacity:1;stroke:none;stroke-width:1.27712393"
       d="m 2014.2768,1736.969 c -79.1793,3.2872 -121.4887,-58.6753 -123.3199,-302.1923 -1.1511,-153.1075 44.6065,-255.9766 99.3599,-280.7449 54.7536,-24.7682 128.5391,-40.9798 171.664,109.0467 43.1246,150.0268 6.5616,359.2928 -23.9002,415.3425 -22.9442,42.2171 -44.6246,55.2608 -123.8038,58.548 z"
       id="path3238-4"
       inkscape:connector-curvature="0"
       sodipodi:nodetypes="zszcsz" />
    <path
       style="color:#000000;display:inline;overflow:visible;visibility:visible;fill:#ffffff;fill-opacity:1;fill-rule:nonzero;stroke:none;stroke-width:1.22301066px;marker:none;enable-background:accumulate"
       d="m 222.19035,1978.1309 c 92.85951,8.8288 157.6139,82.8807 131.28436,269.279 -14.10326,99.8449 -29.89301,217.2666 -165.98045,205.4949 C 51.40684,2441.133 71.088622,2260.509 69.487743,2226.6651 67.886285,2192.8213 64.892261,2025.071 112.75101,1995.819 c 29.95849,-18.3112 80.62063,-19.1595 109.43934,-17.6881 z"
       id="path4546"
       inkscape:connector-curvature="0"
       sodipodi:nodetypes="cssssc" />
    <path
       style="fill:#ffffff;fill-opacity:1;fill-rule:evenodd;stroke:none;stroke-width:1px;stroke-linecap:butt;stroke-linejoin:miter;stroke-opacity:1"
       d="m 802.26802,3297.9669 c -8.45693,-8.3218 2.04237,-18.7638 10.41354,-22.4599 9.38476,-6.8744 21.44237,-6.8194 32.71132,-6.3027 11.2101,1.352 19.42811,-5.27 26.70716,-12.1154 11.52114,-8.8817 28.24974,-11.9296 41.84526,-5.4527 10.1043,4.415 21.78863,9.8428 32.8639,4.778 13.20772,-5.1258 30.01959,-9.611 42.76833,-1.1515 9.069,9.8244 24.12597,5.6471 35.22067,1.7701 14.2501,-4.5481 29.8463,-7.3093 44.5651,-2.8986 9.7593,2.5816 21.8624,3.8416 26.6771,13.568 5.8113,10.6522 12.0632,23.368 25.6731,26.5604 9.6335,2.7568 23.4913,4.4272 25.9165,15.516 -0.2822,9.8954 -5.3829,19.6529 -10.0219,28.2714 -13.7153,11.1665 -34.7516,2.5793 -52.1695,5.6713 -11.3887,1.9912 -22.1031,6.3681 -31.5342,12.6071 -15.383,7.2786 -33.0953,1.3595 -49.0964,6.1031 -18.87027,4.4331 -39.12093,3.7873 -57.00014,11.7691 -20.3592,7.417 -44.31195,5.0132 -62.1762,-6.9075 -7.66705,-5.9244 -17.37924,-8.1452 -27.14223,-7.0123 -13.04101,0.3998 -19.7316,2.3025 -29.36412,-7.8758 -7.72181,-7.2593 -5.64459,-4.964 -10.78816,-13.0375 -5.37749,-7.9711 -17.86701,-9.7059 -21.62131,-19.1363 -2.87571,-7.794 7.09671,-14.1129 5.55218,-22.2643 z"
       id="path4367"
       inkscape:connector-curvature="0"
       sodipodi:nodetypes="ccccccccccccccccccccccc" />
    <path
       style="fill:#ffffff;fill-rule:evenodd;stroke:none;stroke-width:1px;stroke-linecap:butt;stroke-linejoin:miter;stroke-opacity:1"
       d="m 1605.781,3246.9359 c -12.1699,11.4769 -25.5961,24.3584 -44.149,28 -15.0876,1.9565 -26.6269,-9.6392 -31.8499,-20.2344 -1.6743,-3.1554 -3.121,-6.3912 -4.5318,-9.6347 -4.3835,12.0165 -10.4423,26.6343 -25.943,31.1093 -5.8489,1.0411 -12.17,-2.367 -16.2972,-4.0683 -12.9761,32.1359 -20.5531,22.5138 -37.6411,7.2398 9.7459,26.7848 -8.7248,38.1323 -22.4919,36.7289 -1.5723,0.1445 -5.6942,-1.4271 -3.1543,0.8223 27.2929,6.283 26.4234,19.5504 4.1608,31.2285 11.7003,-3.697 28.1689,-3.7176 35.2871,6.4297 3.0388,4.2736 3.893,9.3395 4.3416,14.2246 9.228,-7.8534 25.3137,-13.4118 36.9616,-5.9141 8.2073,4.4462 12.6326,13.5829 16.5987,19.5371 7.5025,-10.2823 17.9903,-22.6899 33.8933,-22.6679 6.8044,0.7087 12.0382,5.1892 15.453,9.8965 7.2131,-10.2342 23.7533,-17.3179 37.029,-10.8789 6.8467,2.7743 12.2215,7.4356 17.735,11.7148 0.3084,-11.3584 11.0988,-23.4604 25.6323,-22.4121 2.9443,-0.216 7.3525,0.6738 9.1446,0.5058 -9.9464,-9.5522 -12.8035,-25.0864 -2.5464,-35.2578 0.8637,-1.9073 6.3619,-5.1257 4.52,-5.8379 -18.0864,1.5435 -36.2989,-5.929 -23.227,-22.4257 -24.643,5.429 -36.8577,-12.8191 -26.8102,-40.1485 -0.7051,0.681 -1.4101,1.362 -2.1152,2.043 z"
       id="path1331"
       inkscape:connector-curvature="0"
       sodipodi:nodetypes="ccccccccccccccccccccccccc" />
    <path
       style="display:inline;fill:#ffffff;fill-rule:evenodd;stroke:none;stroke-width:1.28712273px;stroke-linecap:butt;stroke-linejoin:miter;stroke-opacity:1"
       d="m 2140.5644,2454.1134 c 63.7858,35.4263 100.119,21.02 99.0242,-61.3277 30.4318,88.9866 51.5501,108.8888 64.0745,65.0445 40.2896,37.6859 65.454,27.1148 85.4327,0 7.4466,34.8715 37.2365,19.0674 37.2365,19.0674 l -25.2697,217.5925 c 0,0 -40.5239,-16.2275 -74.0995,-0.6416 18.3867,-47.2566 -28.2764,-16.2422 -87.3745,29.7346 33.0947,-52.1845 -4.4931,-33.3342 -60.1912,3.7168 21.0444,-51.266 -13.2285,-76.0589 -95.141,-78.0532 39.2059,-18.4923 62.0684,-41.7644 21.3583,-83.6287 45.8919,12.3271 59.581,0.877 27.1831,-44.6018 50.0559,37.3286 27.2973,-16.8148 7.7666,-66.9028 z"
       id="path4508"
       inkscape:connector-curvature="0"
       sodipodi:nodetypes="ccccccccccccc" />
    <path
       style="fill:#ffffff;stroke:none;stroke-width:0.92998284"
       d="m 1921.861,2193.4907 c 31.2038,-1.1037 105.8399,19.1637 112.6606,171.9414 6.9392,155.4333 -50.538,226.0918 -106.0392,229.4255 -87.8014,5.2741 -83.7685,-83.8998 -87.1869,-199.4513 -3.524,-119.1212 1.6412,-195.4009 80.5655,-201.9156 z"
       id="path3280"
       inkscape:connector-curvature="0"
       sodipodi:nodetypes="csssc" />
    <path
       style="fill:#ffffff;stroke:none;stroke-width:1"
       d="m 237.28676,2264.0468 c -54.38249,-17.8219 -66.33148,-52.9511 -74.01784,-123.2551 -4.65716,-42.5973 9.48134,-57.6606 9.48134,-57.6606 l -35.68519,18.4405 -0.11203,17.0646 c 0,0 -15.3368,56.7167 16.55537,100.1244 15.1088,20.5643 40.81747,38.1415 83.77835,45.2862 z"
       id="path3063"
       inkscape:connector-curvature="0"
       sodipodi:nodetypes="cscccsc" />
  </g>
  <g
     inkscape:groupmode="layer"
     id="layer1"
     inkscape:label="txt"
     style="display:inline">
    <text
       xml:space="preserve"
       style="font-style:normal;font-variant:normal;font-weight:normal;font-stretch:normal;font-size:16.23249817px;line-height:0%;font-family:Lavi;-inkscape-font-specification:Lavi;text-align:center;letter-spacing:0px;word-spacing:0px;text-anchor:middle;fill:#000000;fill-opacity:1;stroke:none;stroke-width:1"
       x="381.57074"
       y="275.12958"
       id="text4246"><tspan
         sodipodi:role="line"
         style="font-size:60.87186813px;line-height:1.25;stroke-width:1"
         x="381.57074"
         y="275.12958"
         id="tspan4252">Astig!</tspan></text>
    <text
       xml:space="preserve"
       style="font-style:normal;font-variant:normal;font-weight:normal;font-stretch:normal;line-height:0%;font-family:Lavi;-inkscape-font-specification:Lavi;text-align:center;letter-spacing:0px;word-spacing:0px;text-anchor:middle;fill:#000000;fill-opacity:1;stroke:none"
       x="458.10886"
       y="518.01379"
       id="text4246-3"><tspan
         sodipodi:role="line"
         style="font-size:45px;line-height:1.25"
         x="466.01901"
         y="518.01379"
         id="tspan855">Dito sa loob </tspan><tspan
         sodipodi:role="line"
         style="font-size:45px;line-height:1.25"
         x="466.01901"
         y="574.26379"
         id="tspan4887">meron tayong </tspan><tspan
         sodipodi:role="line"
         style="font-size:45px;line-height:1.25"
         x="466.01901"
         y="630.51379"
         id="tspan4866">sarili nating </tspan><tspan
         sodipodi:role="line"
         style="font-size:45px;line-height:1.25"
         x="466.01901"
         y="686.76379"
         id="tspan4889">mundo, </tspan><tspan
         sodipodi:role="line"
         style="font-size:45px;line-height:1.25"
         x="458.10886"
         y="705.2973"
         id="tspan4864"></tspan><tspan
         sodipodi:role="line"
         style="font-size:45px;line-height:1.25"
         x="466.01901"
         y="743.01379"
         id="tspan4907"> </tspan><tspan
         sodipodi:role="line"
         style="font-size:45px;line-height:1.25"
         x="466.01901"
         y="799.26379"
         id="tspan4909">Isinama lang </tspan><tspan
         sodipodi:role="line"
         style="font-size:45px;line-height:1.25"
         x="466.01901"
         y="855.51379"
         id="tspan4893">natin ng konti </tspan><tspan
         sodipodi:role="line"
         style="font-size:45px;line-height:1.25"
         x="466.01901"
         y="911.76379"
         id="tspan4903">ang mga </tspan><tspan
         sodipodi:role="line"
         style="font-size:45px;line-height:1.25"
         x="466.01901"
         y="968.01379"
         id="tspan4860">materials </tspan><tspan
         sodipodi:role="line"
         style="font-size:45px;line-height:1.25"
         x="466.01901"
         y="1024.2638"
         id="tspan4858">na kailangan </tspan><tspan
         sodipodi:role="line"
         style="font-size:45px;line-height:1.25"
         x="466.01901"
         y="1080.5138"
         id="tspan4897">natin </tspan><tspan
         sodipodi:role="line"
         style="font-size:45px;line-height:1.25"
         x="458.10886"
         y="1099.0474"
         id="tspan4856" /></text>
    <text
       xml:space="preserve"
       style="font-style:normal;font-variant:normal;font-weight:normal;font-stretch:normal;line-height:0%;font-family:Lavi;-inkscape-font-specification:Lavi;text-align:center;letter-spacing:0px;word-spacing:0px;text-anchor:middle;fill:#000000;fill-opacity:1;stroke:none"
       x="2035.8555"
       y="1294.1895"
       id="text4246-3-7"><tspan
         sodipodi:role="line"
         style="font-size:45px;line-height:1.25"
         x="2035.8555"
         y="1294.1895"
         id="tspan907">Ngayon,</tspan><tspan
         sodipodi:role="line"
         style="font-size:45px;line-height:1.25"
         x="2043.7656"
         y="1350.4395"
         id="tspan4911">kahit anong </tspan><tspan
         sodipodi:role="line"
         style="font-size:45px;line-height:1.25"
         x="2043.7656"
         y="1406.6895"
         id="tspan4913">spell </tspan><tspan
         sodipodi:role="line"
         style="font-size:45px;line-height:1.25"
         x="2035.8555"
         y="1462.9395"
         id="tspan4873">pwedeng-</tspan><tspan
         sodipodi:role="line"
         style="font-size:45px;line-height:1.25"
         x="2043.7656"
         y="1519.1895"
         id="tspan4917">pwede </tspan><tspan
         sodipodi:role="line"
         style="font-size:45px;line-height:1.25"
         x="2043.7656"
         y="1575.4395"
         id="tspan4915">mong </tspan><tspan
         sodipodi:role="line"
         style="font-size:45px;line-height:1.25"
         x="2035.8555"
         y="1631.6895"
         id="tspan4919">gawin!</tspan></text>
    <text
       xml:space="preserve"
       style="font-style:normal;font-variant:normal;font-weight:normal;font-stretch:normal;line-height:0%;font-family:Lavi;-inkscape-font-specification:Lavi;text-align:center;letter-spacing:0px;word-spacing:0px;text-anchor:middle;fill:#000000;fill-opacity:1;stroke:none"
       x="212.66486"
       y="2078.4849"
       id="text4246-3-7-9"><tspan
         sodipodi:role="line"
         style="font-size:45px;line-height:1.25"
         x="220.57501"
         y="2078.4849"
         id="tspan940">Ano na? </tspan><tspan
         sodipodi:role="line"
         style="font-size:45px;line-height:1.25"
         x="220.57501"
         y="2134.7349"
         id="tspan4921">gagawa </tspan><tspan
         sodipodi:role="line"
         style="font-size:45px;line-height:1.25"
         x="220.57501"
         y="2190.9849"
         id="tspan4923">na ba </tspan><tspan
         sodipodi:role="line"
         style="font-size:45px;line-height:1.25"
         x="220.57501"
         y="2247.2349"
         id="tspan4877">tayo ng </tspan><tspan
         sodipodi:role="line"
         style="font-size:45px;line-height:1.25"
         x="212.66486"
         y="2303.4849"
         id="tspan4925">masterpiece</tspan><tspan
         sodipodi:role="line"
         style="font-size:45px;line-height:1.25"
         x="212.66486"
         y="2359.7349"
         id="tspan4927">?</tspan></text>
    <text
       xml:space="preserve"
       style="font-style:normal;font-variant:normal;font-weight:normal;font-stretch:normal;font-size:51.73136902px;line-height:0.01%;font-family:Arial;-inkscape-font-specification:Arial;letter-spacing:0.0088361px;word-spacing:0px;display:inline;fill:#faedf6;fill-opacity:1;stroke:#fff3fa;stroke-width:1.62600005;stroke-miterlimit:4;stroke-dasharray:none;stroke-opacity:1"
       x="1308.5319"
       y="3636.3977"
       id="text1105"
       transform="matrix(1.1211525,-0.41389973,-0.28840838,0.99841201,0,0)"><tspan
         sodipodi:role="line"
         x="1329.4746"
         y="3636.3977"
         id="tspan1103"
         style="font-style:normal;font-variant:normal;font-weight:normal;font-stretch:normal;font-family:Lavi;-inkscape-font-specification:Lavi;fill:#faedf6;fill-opacity:1;stroke:#fff3fa;stroke-width:1.62600005;stroke-miterlimit:4;stroke-dasharray:none;stroke-opacity:1"><tspan
           x="1329.4746"
           y="3636.3977"
           style="font-style:normal;font-variant:normal;font-weight:normal;font-stretch:normal;font-size:42.71826553px;font-family:Lavi;-inkscape-font-specification:Lavi;fill:#faedf6;fill-opacity:1;stroke:#fff3fa;stroke-width:1.62600005;stroke-miterlimit:4;stroke-dasharray:none;stroke-opacity:1"
           id="tspan1095">ShiiING</tspan></tspan></text>
    <text
       xml:space="preserve"
       style="font-style:normal;font-variant:normal;font-weight:normal;font-stretch:normal;line-height:0%;font-family:Lavi;-inkscape-font-specification:Lavi;letter-spacing:0px;word-spacing:0px;fill:#ffffff;fill-opacity:1;stroke:#c83737;stroke-width:0.99236238;stroke-miterlimit:4;stroke-dasharray:none;stroke-opacity:1;filter:url(#filter4375-4-1-1-1-9-5-8)"
       x="787.65729"
       y="1584.5073"
       id="text4580-6-0"
       transform="matrix(0.83434398,-0.14790328,-0.40858731,0.88612324,768.47254,904.8039)"><tspan
         sodipodi:role="line"
         id="tspan4582-1-1"
         x="787.65729"
         y="1584.5073"
         style="font-size:70px;line-height:1.25;fill:#ffffff;fill-opacity:1;stroke:#c83737;stroke-opacity:1"><tspan
           style="font-size:93.14950562px;fill:#ffffff;fill-opacity:1;stroke:#c83737;stroke-opacity:1"
           id="tspan4315-8">PLOooom!</tspan><tspan
           style="font-size:114.73223114px;fill:#ffffff;fill-opacity:1;stroke:#c83737;stroke-opacity:1"
           id="tspan4313-2">!</tspan></tspan></text>
    <text
       xml:space="preserve"
       style="font-style:normal;font-variant:normal;font-weight:normal;font-stretch:normal;line-height:0%;font-family:Lavi;-inkscape-font-specification:Lavi;letter-spacing:0px;word-spacing:0px;fill:#ffffff;fill-opacity:1;stroke:#c83737;stroke-width:0.99236238;stroke-miterlimit:4;stroke-dasharray:none;stroke-opacity:1;filter:url(#filter4375-4-1-1-1-9-5-8-0)"
       x="787.65729"
       y="1584.5073"
       id="text4580-6-0-2"
       transform="matrix(0.83434398,-0.14790328,-0.40858731,0.88612324,1358.123,876.325)"><tspan
         sodipodi:role="line"
         id="tspan4582-1-1-3"
         x="787.65729"
         y="1584.5073"
         style="font-size:70px;line-height:1.25;fill:#ffffff;fill-opacity:1;stroke:#c83737;stroke-opacity:1"><tspan
           style="font-size:93.14950562px;fill:#ffffff;fill-opacity:1;stroke:#c83737;stroke-opacity:1"
           id="tspan4315-8-7">Dhoooff!</tspan><tspan
           style="font-size:114.73223114px;fill:#ffffff;fill-opacity:1;stroke:#c83737;stroke-opacity:1"
           id="tspan4313-2-5">!</tspan></tspan></text>
    <text
       xml:space="preserve"
       style="font-style:normal;font-variant:normal;font-weight:normal;font-stretch:normal;line-height:0%;font-family:Lavi;-inkscape-font-specification:Lavi;letter-spacing:0px;word-spacing:0px;fill:#ffffff;fill-opacity:1;stroke:#c83737;stroke-width:0.99236238;stroke-miterlimit:4;stroke-dasharray:none;stroke-opacity:1;filter:url(#filter4375-4-1-1-1-9-5-8-0-9)"
       x="787.65729"
       y="1584.5073"
       id="text4580-6-0-2-4"
       transform="matrix(0.83434398,-0.14790328,-0.40858731,0.88612324,1943.5394,867.70579)"><tspan
         sodipodi:role="line"
         id="tspan4582-1-1-3-7"
         x="787.65729"
         y="1584.5073"
         style="font-size:70px;line-height:1.25;fill:#ffffff;fill-opacity:1;stroke:#c83737;stroke-opacity:1"><tspan
           style="font-size:93.14950562px;fill:#ffffff;fill-opacity:1;stroke:#c83737;stroke-opacity:1"
           id="tspan4315-8-7-8">Chting!</tspan><tspan
           style="font-size:114.73223114px;fill:#ffffff;fill-opacity:1;stroke:#c83737;stroke-opacity:1"
           id="tspan4313-2-5-4">!</tspan></tspan></text>
    <text
       xml:space="preserve"
       style="font-style:normal;font-variant:normal;font-weight:normal;font-stretch:normal;line-height:0%;font-family:Lavi;-inkscape-font-specification:Lavi;text-align:center;letter-spacing:0px;word-spacing:0px;text-anchor:middle;fill:#000000;fill-opacity:1;stroke:none"
       x="970.4834"
       y="3324.7639"
       id="text4246-3-7-9-5"><tspan
         sodipodi:role="line"
         style="font-size:45px;line-height:1.25"
         x="970.4834"
         y="3324.7639"
         id="tspan1157">Uh, Meh...</tspan></text>
    <text
       xml:space="preserve"
       style="font-style:normal;font-variant:normal;font-weight:normal;font-stretch:normal;line-height:0%;font-family:Lavi;-inkscape-font-specification:Lavi;text-align:center;letter-spacing:0px;word-spacing:0px;text-anchor:middle;fill:#000000;fill-opacity:1;stroke:none"
       x="1547.7905"
       y="3333.6245"
       id="text4246-3-7-9-5-1"><tspan
         sodipodi:role="line"
         style="font-size:45px;line-height:1.25"
         x="1547.7905"
         y="3333.6245"
         id="tspan1157-0">Ewww!</tspan></text>
    <text
       xml:space="preserve"
       style="font-style:normal;font-variant:normal;font-weight:normal;font-stretch:normal;line-height:0%;font-family:Lavi;-inkscape-font-specification:Lavi;text-align:center;letter-spacing:0px;word-spacing:0px;text-anchor:middle;fill:#000000;fill-opacity:1;stroke:none"
       x="1932.2458"
       y="2317.156"
       id="text4246-3-7-9-5-1-6"><tspan
         sodipodi:role="line"
         style="font-size:45px;line-height:1.25"
         x="1940.156"
         y="2317.156"
         id="tspan1197">Yan! </tspan><tspan
         sodipodi:role="line"
         style="font-size:45px;line-height:1.25"
         x="1940.156"
         y="2373.406"
         id="tspan4881">kaso </tspan><tspan
         sodipodi:role="line"
         style="font-size:45px;line-height:1.25"
         x="1940.156"
         y="2429.656"
         id="tspan4929">ang </tspan><tspan
         sodipodi:role="line"
         style="font-size:45px;line-height:1.25"
         x="1932.2458"
         y="2485.906"
         id="tspan4931">liit</tspan><tspan
         sodipodi:role="line"
         style="font-size:45px;line-height:1.25"
         x="1932.2458"
         y="2542.156"
         id="tspan4933">...</tspan></text>
    <text
       xml:space="preserve"
       style="font-style:normal;font-variant:normal;font-weight:normal;font-stretch:normal;font-size:11.64131737px;line-height:0%;font-family:Lavi;-inkscape-font-specification:Lavi;text-align:center;letter-spacing:0px;word-spacing:0px;text-anchor:middle;fill:#000000;fill-opacity:1;stroke:#000000;stroke-width:1.79999995;stroke-miterlimit:4;stroke-dasharray:none;stroke-opacity:1"
       x="2737.1636"
       y="2511.0825"
       id="text4246-3-7-9-5-1-6-2"
       transform="matrix(0.98783599,0,-0.17384645,1.0123138,0,0)"><tspan
         sodipodi:role="line"
         style="font-size:43.65493774px;line-height:1.25;stroke:#000000;stroke-width:1.79999995;stroke-miterlimit:4;stroke-dasharray:none;stroke-opacity:1"
         x="2744.8374"
         y="2511.0825"
         id="tspan1222">CARROT </tspan><tspan
         sodipodi:role="line"
         style="font-size:43.65493774px;line-height:1.25;stroke:#000000;stroke-width:1.79999995;stroke-miterlimit:4;stroke-dasharray:none;stroke-opacity:1"
         x="2744.8374"
         y="2565.6511"
         id="tspan4885">WAG MO </tspan><tspan
         sodipodi:role="line"
         style="font-size:43.65493774px;line-height:1.25;stroke:#000000;stroke-width:1.79999995;stroke-miterlimit:4;stroke-dasharray:none;stroke-opacity:1"
         x="2737.1636"
         y="2620.22"
         id="tspan4943">HAWAKAN!</tspan></text>
    <text
       xml:space="preserve"
       style="font-style:normal;font-variant:normal;font-weight:normal;font-stretch:normal;font-size:23.87601089px;line-height:0%;font-family:Lavi;-inkscape-font-specification:Lavi;text-align:center;letter-spacing:0px;word-spacing:0px;text-anchor:middle;fill:#ffffff;fill-opacity:1;stroke:none;stroke-width:1.63998652"
       x="2321.5217"
       y="3466.8298"
       id="text4246-3-7-9-5-1-6-2-1"
       transform="matrix(1.0600479,-0.23035956,-0.08957656,0.96281952,0,0)"><tspan
         sodipodi:role="line"
         style="font-size:89.53504181px;line-height:1.25;fill:#ffffff;fill-opacity:1;stroke-width:1.35176146"
         x="2321.5217"
         y="3466.8298"
         id="tspan1222-5">?</tspan></text>
  </g>
</svg>
