<?xml version="1.0" encoding="UTF-8" standalone="no"?>
<!-- Created with Inkscape (http://www.inkscape.org/) -->

<svg
   id="svg2"
   version="1.1"
   inkscape:version="1.1.1 (3bf5ae0d25, 2021-09-20)"
   width="2481"
   height="3503"
   sodipodi:docname="E03P03.svg"
   enable-background="new"
   xmlns:inkscape="http://www.inkscape.org/namespaces/inkscape"
   xmlns:sodipodi="http://sodipodi.sourceforge.net/DTD/sodipodi-0.dtd"
   xmlns:xlink="http://www.w3.org/1999/xlink"
   xmlns="http://www.w3.org/2000/svg"
   xmlns:svg="http://www.w3.org/2000/svg"
   xmlns:rdf="http://www.w3.org/1999/02/22-rdf-syntax-ns#"
   xmlns:cc="http://creativecommons.org/ns#"
   xmlns:dc="http://purl.org/dc/elements/1.1/">
  <sodipodi:namedview
     pagecolor="#ffffff"
     bordercolor="#666666"
     inkscape:pageopacity="0"
     inkscape:pageshadow="2"
     inkscape:window-width="1336"
     inkscape:window-height="725"
     id="namedview70"
     showgrid="false"
     inkscape:zoom="0.5"
     inkscape:cx="1187"
     inkscape:cy="2288"
     inkscape:current-layer="layer4"
     inkscape:window-x="15"
     inkscape:window-y="15"
     inkscape:window-maximized="0"
     borderopacity="1"
     inkscape:pagecheckerboard="0" />
  <metadata
     id="metadata8">
    <rdf:RDF>
      <cc:Work
         rdf:about="">
        <dc:format>image/svg+xml</dc:format>
        <dc:type
           rdf:resource="http://purl.org/dc/dcmitype/StillImage" />
        <dc:title />
      </cc:Work>
    </rdf:RDF>
  </metadata>
  <defs
     id="defs6">
    <linearGradient
       id="linearGradient5427">
      <stop
         style="stop-color:#ad5d0f;stop-opacity:1;"
         offset="0"
         id="stop5429" />
      <stop
         id="stop5437"
         offset="0.25"
         style="stop-color:#84470b;stop-opacity:1;" />
      <stop
         id="stop5435"
         offset="0.5"
         style="stop-color:#8a4a0c;stop-opacity:1;" />
      <stop
         style="stop-color:#7a420b;stop-opacity:1;"
         offset="1"
         id="stop5431" />
    </linearGradient>
    <linearGradient
       id="linearGradient5350"
       inkscape:swatch="solid">
      <stop
         style="stop-color:#9a530e;stop-opacity:1;"
         offset="0"
         id="stop5352" />
    </linearGradient>
    <linearGradient
       inkscape:collect="always"
       xlink:href="#linearGradient5427"
       id="linearGradient5433"
       x1="618.94147"
       y1="2316.8098"
       x2="1024.5358"
       y2="1619.6255"
       gradientUnits="userSpaceOnUse" />
    <linearGradient
       inkscape:collect="always"
       xlink:href="#linearGradient5427"
       id="linearGradient5443"
       gradientUnits="userSpaceOnUse"
       x1="618.94147"
       y1="2316.8098"
       x2="1024.5358"
       y2="1619.6255" />
    <linearGradient
       inkscape:collect="always"
       xlink:href="#linearGradient5427"
       id="linearGradient5445"
       gradientUnits="userSpaceOnUse"
       x1="618.94147"
       y1="2316.8098"
       x2="1024.5358"
       y2="1619.6255" />
    <linearGradient
       inkscape:collect="always"
       xlink:href="#linearGradient5427"
       id="linearGradient5447"
       gradientUnits="userSpaceOnUse"
       x1="618.94147"
       y1="2316.8098"
       x2="1024.5358"
       y2="1619.6255" />
    <linearGradient
       inkscape:collect="always"
       xlink:href="#linearGradient5427"
       id="linearGradient5449"
       gradientUnits="userSpaceOnUse"
       x1="618.94147"
       y1="2316.8098"
       x2="1024.5358"
       y2="1619.6255" />
    <linearGradient
       inkscape:collect="always"
       xlink:href="#linearGradient5427"
       id="linearGradient5451"
       gradientUnits="userSpaceOnUse"
       x1="618.94147"
       y1="2316.8098"
       x2="1024.5358"
       y2="1619.6255" />
    <linearGradient
       inkscape:collect="always"
       xlink:href="#linearGradient5427"
       id="linearGradient5453"
       gradientUnits="userSpaceOnUse"
       x1="618.94147"
       y1="2316.8098"
       x2="1024.5358"
       y2="1619.6255" />
    <linearGradient
       inkscape:collect="always"
       xlink:href="#linearGradient5427"
       id="linearGradient5455"
       gradientUnits="userSpaceOnUse"
       x1="618.94147"
       y1="2316.8098"
       x2="1024.5358"
       y2="1619.6255" />
    <linearGradient
       inkscape:collect="always"
       xlink:href="#linearGradient5427"
       id="linearGradient5457"
       gradientUnits="userSpaceOnUse"
       x1="618.94147"
       y1="2316.8098"
       x2="1024.5358"
       y2="1619.6255" />
    <linearGradient
       id="linearGradient5427-1">
      <stop
         style="stop-color:#ad5d0f;stop-opacity:1;"
         offset="0"
         id="stop5429-2" />
      <stop
         id="stop5437-1"
         offset="0.25"
         style="stop-color:#84470b;stop-opacity:1;" />
      <stop
         id="stop5435-6"
         offset="0.5"
         style="stop-color:#8a4a0c;stop-opacity:1;" />
      <stop
         style="stop-color:#7a420b;stop-opacity:1;"
         offset="1"
         id="stop5431-8" />
    </linearGradient>
    <linearGradient
       inkscape:collect="always"
       xlink:href="#linearGradient5427-1"
       id="linearGradient5443-3"
       gradientUnits="userSpaceOnUse"
       x1="618.94147"
       y1="2316.8098"
       x2="1024.5358"
       y2="1619.6255" />
    <linearGradient
       inkscape:collect="always"
       xlink:href="#linearGradient5427-1"
       id="linearGradient5445-2"
       gradientUnits="userSpaceOnUse"
       x1="618.94147"
       y1="2316.8098"
       x2="1024.5358"
       y2="1619.6255" />
    <linearGradient
       inkscape:collect="always"
       xlink:href="#linearGradient5427-1"
       id="linearGradient5449-7"
       gradientUnits="userSpaceOnUse"
       x1="618.94147"
       y1="2316.8098"
       x2="1024.5358"
       y2="1619.6255" />
    <linearGradient
       inkscape:collect="always"
       xlink:href="#linearGradient5427-1"
       id="linearGradient5451-9"
       gradientUnits="userSpaceOnUse"
       x1="618.94147"
       y1="2316.8098"
       x2="1024.5358"
       y2="1619.6255" />
    <linearGradient
       inkscape:collect="always"
       xlink:href="#linearGradient5427-1"
       id="linearGradient5455-2"
       gradientUnits="userSpaceOnUse"
       x1="618.94147"
       y1="2316.8098"
       x2="1024.5358"
       y2="1619.6255" />
    <linearGradient
       inkscape:collect="always"
       xlink:href="#linearGradient5427-1"
       id="linearGradient5457-0"
       gradientUnits="userSpaceOnUse"
       x1="618.94147"
       y1="2316.8098"
       x2="1024.5358"
       y2="1619.6255" />
    <linearGradient
       y2="1619.6255"
       x2="1024.5358"
       y1="2316.8098"
       x1="618.94147"
       gradientUnits="userSpaceOnUse"
       id="linearGradient5608"
       xlink:href="#linearGradient5427-1"
       inkscape:collect="always" />
    <linearGradient
       y2="1619.6255"
       x2="1024.5358"
       y1="2316.8098"
       x1="618.94147"
       gradientUnits="userSpaceOnUse"
       id="linearGradient5608-2"
       xlink:href="#linearGradient5427-1-2"
       inkscape:collect="always" />
    <linearGradient
       id="linearGradient5427-1-2">
      <stop
         style="stop-color:#ad5d0f;stop-opacity:1;"
         offset="0"
         id="stop5429-2-5" />
      <stop
         id="stop5437-1-2"
         offset="0.25"
         style="stop-color:#84470b;stop-opacity:1;" />
      <stop
         id="stop5435-6-0"
         offset="0.5"
         style="stop-color:#8a4a0c;stop-opacity:1;" />
      <stop
         style="stop-color:#7a420b;stop-opacity:1;"
         offset="1"
         id="stop5431-8-6" />
    </linearGradient>
    <linearGradient
       id="linearGradient3064">
      <stop
         style="stop-color:#ad5d0f;stop-opacity:1;"
         offset="0"
         id="stop3066" />
      <stop
         id="stop3068"
         offset="0.25"
         style="stop-color:#84470b;stop-opacity:1;" />
      <stop
         id="stop3070"
         offset="0.5"
         style="stop-color:#8a4a0c;stop-opacity:1;" />
      <stop
         style="stop-color:#7a420b;stop-opacity:1;"
         offset="1"
         id="stop3072" />
    </linearGradient>
    <linearGradient
       id="linearGradient3075">
      <stop
         style="stop-color:#ad5d0f;stop-opacity:1;"
         offset="0"
         id="stop3077" />
      <stop
         id="stop3079"
         offset="0.25"
         style="stop-color:#84470b;stop-opacity:1;" />
      <stop
         id="stop3081"
         offset="0.5"
         style="stop-color:#8a4a0c;stop-opacity:1;" />
      <stop
         style="stop-color:#7a420b;stop-opacity:1;"
         offset="1"
         id="stop3083" />
    </linearGradient>
    <linearGradient
       inkscape:collect="always"
       xlink:href="#linearGradient5427-1-2"
       id="linearGradient5443-3-4"
       gradientUnits="userSpaceOnUse"
       x1="618.94147"
       y1="2316.8098"
       x2="1024.5358"
       y2="1619.6255" />
    <linearGradient
       id="linearGradient3086">
      <stop
         style="stop-color:#ad5d0f;stop-opacity:1;"
         offset="0"
         id="stop3088" />
      <stop
         id="stop3090"
         offset="0.25"
         style="stop-color:#84470b;stop-opacity:1;" />
      <stop
         id="stop3092"
         offset="0.5"
         style="stop-color:#8a4a0c;stop-opacity:1;" />
      <stop
         style="stop-color:#7a420b;stop-opacity:1;"
         offset="1"
         id="stop3094" />
    </linearGradient>
    <linearGradient
       id="linearGradient3097">
      <stop
         style="stop-color:#ad5d0f;stop-opacity:1;"
         offset="0"
         id="stop3099" />
      <stop
         id="stop3101"
         offset="0.25"
         style="stop-color:#84470b;stop-opacity:1;" />
      <stop
         id="stop3103"
         offset="0.5"
         style="stop-color:#8a4a0c;stop-opacity:1;" />
      <stop
         style="stop-color:#7a420b;stop-opacity:1;"
         offset="1"
         id="stop3105" />
    </linearGradient>
    <linearGradient
       id="linearGradient3108">
      <stop
         style="stop-color:#ad5d0f;stop-opacity:1;"
         offset="0"
         id="stop3110" />
      <stop
         id="stop3112"
         offset="0.25"
         style="stop-color:#84470b;stop-opacity:1;" />
      <stop
         id="stop3114"
         offset="0.5"
         style="stop-color:#8a4a0c;stop-opacity:1;" />
      <stop
         style="stop-color:#7a420b;stop-opacity:1;"
         offset="1"
         id="stop3116" />
    </linearGradient>
    <linearGradient
       id="linearGradient3119">
      <stop
         style="stop-color:#ad5d0f;stop-opacity:1;"
         offset="0"
         id="stop3121" />
      <stop
         id="stop3123"
         offset="0.25"
         style="stop-color:#84470b;stop-opacity:1;" />
      <stop
         id="stop3125"
         offset="0.5"
         style="stop-color:#8a4a0c;stop-opacity:1;" />
      <stop
         style="stop-color:#7a420b;stop-opacity:1;"
         offset="1"
         id="stop3127" />
    </linearGradient>
    <linearGradient
       inkscape:collect="always"
       xlink:href="#linearGradient5427-1-2"
       id="linearGradient5451-9-2"
       gradientUnits="userSpaceOnUse"
       x1="618.94147"
       y1="2316.8098"
       x2="1024.5358"
       y2="1619.6255" />
    <linearGradient
       id="linearGradient3130">
      <stop
         style="stop-color:#ad5d0f;stop-opacity:1;"
         offset="0"
         id="stop3132" />
      <stop
         id="stop3134"
         offset="0.25"
         style="stop-color:#84470b;stop-opacity:1;" />
      <stop
         id="stop3136"
         offset="0.5"
         style="stop-color:#8a4a0c;stop-opacity:1;" />
      <stop
         style="stop-color:#7a420b;stop-opacity:1;"
         offset="1"
         id="stop3138" />
    </linearGradient>
    <linearGradient
       id="linearGradient3141">
      <stop
         style="stop-color:#ad5d0f;stop-opacity:1;"
         offset="0"
         id="stop3143" />
      <stop
         id="stop3145"
         offset="0.25"
         style="stop-color:#84470b;stop-opacity:1;" />
      <stop
         id="stop3147"
         offset="0.5"
         style="stop-color:#8a4a0c;stop-opacity:1;" />
      <stop
         style="stop-color:#7a420b;stop-opacity:1;"
         offset="1"
         id="stop3149" />
    </linearGradient>
    <linearGradient
       id="linearGradient3152">
      <stop
         style="stop-color:#ad5d0f;stop-opacity:1;"
         offset="0"
         id="stop3154" />
      <stop
         id="stop3156"
         offset="0.25"
         style="stop-color:#84470b;stop-opacity:1;" />
      <stop
         id="stop3158"
         offset="0.5"
         style="stop-color:#8a4a0c;stop-opacity:1;" />
      <stop
         style="stop-color:#7a420b;stop-opacity:1;"
         offset="1"
         id="stop3160" />
    </linearGradient>
    <linearGradient
       id="linearGradient3163">
      <stop
         style="stop-color:#ad5d0f;stop-opacity:1;"
         offset="0"
         id="stop3165" />
      <stop
         id="stop3167"
         offset="0.25"
         style="stop-color:#84470b;stop-opacity:1;" />
      <stop
         id="stop3169"
         offset="0.5"
         style="stop-color:#8a4a0c;stop-opacity:1;" />
      <stop
         style="stop-color:#7a420b;stop-opacity:1;"
         offset="1"
         id="stop3171" />
    </linearGradient>
    <filter
       inkscape:collect="always"
       id="filter3347"
       x="-0.0021334184"
       y="-0.0026684022"
       width="1.0040933"
       height="1.0051197">
      <feBlend
         inkscape:collect="always"
         mode="multiply"
         in2="BackgroundImage"
         id="feBlend3349" />
    </filter>
    <linearGradient
       inkscape:collect="always"
       xlink:href="#linearGradient5427-1-2"
       id="linearGradient3457"
       gradientUnits="userSpaceOnUse"
       x1="618.94147"
       y1="2316.8098"
       x2="1024.5358"
       y2="1619.6255" />
  </defs>
  <sodipodi:namedview
     pagecolor="#ffffff"
     bordercolor="#666666"
     borderopacity="1"
     objecttolerance="10"
     gridtolerance="10"
     guidetolerance="10"
     inkscape:pageopacity="0"
     inkscape:pageshadow="2"
     inkscape:window-width="1920"
     inkscape:window-height="1025"
     id="namedview4"
     showgrid="false"
     inkscape:zoom="0.41451838"
     inkscape:cx="1195.2101"
     inkscape:cy="1543.9004"
     inkscape:window-x="0"
     inkscape:window-y="26"
     inkscape:window-maximized="1"
     inkscape:current-layer="layer4" />
  <g
     inkscape:groupmode="layer"
     id="layer2"
     inkscape:label="artwork"
     sodipodi:insensitive="true">
    <image
       xlink:href="../gfx_Pepper-and-Carrot_by-David-Revoy_E03P03.png"
       width="2481"
       height="3503"
       id="image10"
       x="0"
       y="0" />
    <flowRoot
       xml:space="preserve"
       id="flowRoot5790"
       style="font-style:normal;font-variant:normal;font-weight:normal;font-stretch:normal;line-height:0.01%;font-family:Lavi;-inkscape-font-specification:Lavi;letter-spacing:0px;word-spacing:0px;fill:#000000;fill-opacity:1;stroke:none"><flowRegion
         id="flowRegion5792"><rect
           id="rect5794"
           width="698.64941"
           height="222.5463"
           x="1276.9049"
           y="2673.0117"
           style="font-style:normal;font-variant:normal;font-weight:normal;font-stretch:normal;font-size:48px;font-family:Lavi;-inkscape-font-specification:Lavi" /></flowRegion><flowPara
         id="flowPara5796"
         style="font-size:48px;line-height:1.25"> </flowPara></flowRoot>
  </g>
  <g
     inkscape:groupmode="layer"
     id="layer3"
     inkscape:label="speechbubbles">
    <path
       style="fill:#ffffff;stroke:none;stroke-width:1px;stroke-linecap:butt;stroke-linejoin:miter;stroke-opacity:1;fill-opacity:1"
       d="m 1268.3681,3059.9358 c 23.2564,8.3485 32.2011,16.1006 28.0269,20.8712 9.5411,2.3852 13.119,64.4023 4.1742,75.7323 -0.5963,1.1927 -4.7705,4.7706 -2.9816,5.3669 1.789,0.5963 12.5227,-1.1926 14.3117,1.1926 1.7889,2.3853 -16.1006,36.3754 -13.7154,37.5681 2.3853,1.1926 57.2466,-21.4675 64.9987,-16.1006 7.7521,5.3668 3.5779,19.0821 5.9632,19.6785 2.3852,0.5963 24.449,-2.9816 27.4306,-2.3853 2.9816,0.5963 8.3484,18.4858 11.33,19.0822 2.9816,0.5963 16.6969,-7.7522 19.0822,-7.1559 2.3853,0.5964 1.1926,15.5043 4.1742,16.1006 2.9816,0.5963 16.1006,-12.5226 17.8896,-11.9263 1.7889,0.5963 8.3484,30.4122 11.33,32.2011 2.9816,1.789 22.0638,-32.7974 23.8527,-33.3938 1.789,-0.5963 13.119,40.5496 15.5043,41.146 2.3853,0.5963 14.3116,-28.027 16.1006,-27.4307 1.7889,0.5964 13.119,17.2933 15.5042,18.4859 2.3853,1.1926 17.8896,-36.9717 20.2748,-36.9717 2.3853,0 22.6601,16.1006 24.4491,19.0822 1.7889,2.9816 3.5779,-15.5043 5.9631,-15.5043 2.3853,0 29.8159,10.7337 30.4123,10.1374 0.5963,-0.5963 -4.1743,-11.9264 -2.3853,-11.9264 1.7889,0 29.8159,14.908 31.0085,11.9264 1.1926,-2.9816 60.8244,14.9079 64.9987,12.5227 4.1742,-2.3853 -26.8343,-48.8981 -23.8528,-52.476 2.9816,-3.5779 13.7154,0.5963 14.3117,-1.1926 0.5963,-1.789 -6.5595,-9.5411 -4.7706,-11.9264 1.789,-2.3853 22.0638,-11.9263 23.8527,-14.9079 1.789,-2.9816 -8.9447,-10.7338 -6.5595,-12.5227 2.3853,-1.789 37.5681,-13.119 38.1644,-16.1006 0.5963,-2.9816 -17.8895,-17.2932 -15.5043,-21.4674 2.3853,-4.1743 8.9448,-5.9632 8.3485,-8.9448 -0.5963,-2.9816 -11.9264,-6.5595 -11.3301,-9.5411 0.5964,-2.9816 6.5595,-17.8895 8.3485,-20.2748 1.7889,-2.3853 -12.5227,-1.1926 -12.5227,-3.5779 0,-2.3853 52.476,-66.1913 51.2833,-84.0808 -18.4858,11.33 -81.6955,31.6048 -101.374,26.8343 -19.6785,-4.7706 -11.9263,-34.5864 -14.9079,-36.3754 -2.9816,-1.789 -25.0454,10.1374 -28.027,5.9632 -2.9816,-4.1742 -4.1742,-11.9264 -6.5595,-11.9264 -2.3852,0 -16.1006,16.6969 -19.0821,16.1006 -2.9816,-0.5963 -31.0086,-26.8343 -35.1828,-27.4306 -4.1742,-0.5963 -20.2748,10.1374 -23.8527,10.7337 -3.5779,0.5963 -6.5595,-14.3116 -9.5411,-13.119 -2.9816,1.1926 -22.0638,11.9264 -25.0453,10.7337 -2.9816,-1.1926 -5.3669,-5.9631 -7.7522,-4.7705 -2.3852,1.1926 -13.119,5.9632 -13.119,5.9632 0,0 -7.7521,-3.5779 -11.33,-3.5779 -3.5779,0 -28.0269,19.6784 -31.0085,20.8711 -2.9816,1.1926 -28.6233,-45.3202 -26.8343,-48.8981 1.7889,-3.5779 -26.8343,49.4944 -31.0086,51.2834 -4.1742,1.7889 -16.6969,-3.578 -17.8895,-1.789 -1.1926,1.789 -4.7705,11.33 -8.3485,11.9264 -3.5779,0.5963 -11.9263,2.9815 -11.9263,2.9815 l 1.1926,3.578 c 0,0 -25.0453,-9.5411 -28.0269,-13.119 -2.9816,-3.5779 1.7889,15.5042 3.5779,20.2748 -10.7337,-4.7706 -42.3386,-14.908 -44.7238,-17.8896 -2.3853,-2.9816 4.1742,10.7338 7.7521,14.908 -4.7706,-1.789 -8.9448,-2.3853 -8.9448,-2.3853 l 13.7153,14.3116 -4.1742,1.1927 c 0,0 8.9448,6.5595 8.9448,9.5411 0,2.9815 -23.2564,6.5595 -23.2564,6.5595 0,0 9.5411,5.3668 7.1558,8.3484 -2.3853,2.9816 -8.3485,4.7705 -8.3485,4.7705 l -1.1926,7.7522 z"
       id="path5888"
       inkscape:connector-curvature="0" />
    <path
       style="color:#000000;fill:#ffffff;fill-opacity:1;fill-rule:nonzero;stroke:none;stroke-width:1px;marker:none;visibility:visible;display:inline;overflow:visible;enable-background:accumulate"
       d="m 1309.514,3089.1554 c -23.8527,25.0454 -75.7324,71.5582 -90.044,77.5213 -14.908,-23.2564 -51.2833,-56.0538 -55.4576,-53.0723 -4.1742,2.9816 -42.3385,78.1177 -50.0907,77.5214 -7.7521,-0.5964 -32.2011,-11.3301 -39.3569,-19.0822 23.2564,20.2748 42.3385,33.9901 53.6686,31.6048 7.7521,-1.1926 36.9717,-60.2281 38.7606,-64.4023 18.4859,15.5043 53.0723,51.2834 62.0171,54.265 11.33,-4.1742 54.8612,-20.2749 98.3924,-59.0355 43.5312,-38.7607 -17.8895,-45.3202 -17.8895,-45.3202 z"
       id="path5901"
       inkscape:connector-curvature="0"
       sodipodi:nodetypes="ccccccccsc" />
    <path
       style="color:#000000;display:inline;overflow:visible;visibility:visible;fill:#ffffff;fill-opacity:1;fill-rule:nonzero;stroke:none;stroke-width:1.06842px;stroke-linecap:butt;stroke-linejoin:miter;stroke-opacity:1;marker:none;enable-background:accumulate"
       d="m 1294.1424,2775.8828 c 9.9026,-44.9519 46.8123,-71.7653 67.5177,-81.2289 20.7054,-9.4636 260.1682,-20.5044 312.3818,-22.0817 52.2137,-1.5772 203.4534,-2.3659 269.1706,25.2362 65.7172,27.6021 90.0235,64.6677 90.9238,85.9607 0.9002,21.293 -23.4061,78.0744 -147.6387,95.4243 -124.2325,17.3499 -252.9663,14.984 -300.6788,11.8294 -47.7125,-3.1545 -194.4509,-5.5204 -239.4627,-42.586 -45.0119,-37.0656 -51.3135,-45.7406 -52.2137,-72.554 z"
       id="path5909"
       inkscape:connector-curvature="0" />
    <path
       style="color:#000000;fill:#ffffff;fill-opacity:1;fill-rule:nonzero;stroke:none;stroke-width:1px;marker:none;visibility:visible;display:inline;overflow:visible;enable-background:accumulate"
       d="m 1534.3348,2988.0244 c 9.2065,-24.4476 30.9671,-78.8631 20.0868,-113.5628 -10.8803,-34.6997 26.7822,-22.0816 26.7822,-22.0816 0,0 -2.5108,-7.0977 -0.8369,16.5612 1.6739,23.6589 -9.2064,100.9447 -38.4995,122.2377 -29.2931,21.2931 -7.5326,-3.1545 -7.5326,-3.1545 z"
       id="path5917"
       inkscape:connector-curvature="0"
       sodipodi:nodetypes="cscssc" />
  </g>
  <g
     inkscape:groupmode="layer"
     id="layer1"
     inkscape:label="txt">
    <text
       xml:space="preserve"
       style="font-style:normal;font-variant:normal;font-weight:normal;font-stretch:normal;font-size:48px;line-height:0.01%;font-family:Arial;-inkscape-font-specification:Arial;letter-spacing:0px;word-spacing:0px;white-space:pre;inline-size:670.247;fill:#000000;fill-opacity:1;stroke:none"
       x="1699.8123"
       y="2770.6248"
       id="text133500"
       transform="translate(-376,-18)"><tspan
         x="1699.8123"
         y="2770.6248"
         id="tspan7660"><tspan
           style="line-height:1.25;font-family:Lavi;-inkscape-font-specification:Lavi;text-align:center;text-anchor:middle"
           id="tspan7658">Ledaá! Bíi ham wohume </tspan></tspan><tspan
         x="1699.8123"
         y="2830.6248"
         id="tspan7664"><tspan
           style="line-height:1.25;font-family:Lavi;-inkscape-font-specification:Lavi;text-align:center;text-anchor:middle"
           id="tspan7662">wosháal nede noshubewan wáa!</tspan></tspan></text>
    <text
       xml:space="preserve"
       style="font-style:normal;font-variant:normal;font-weight:normal;font-stretch:normal;font-size:60.7609px;line-height:0.01%;font-family:Arial;-inkscape-font-specification:Arial;letter-spacing:0px;word-spacing:0px;white-space:pre;inline-size:386.275;fill:#000000;fill-opacity:1;stroke:none;stroke-width:1.26585"
       x="1405.9313"
       y="2944.0549"
       id="text133514"
       transform="matrix(0.95633074,0,0,1.0456633,-4,-2)"><tspan
         x="1405.9313"
         y="2944.0549"
         id="tspan7668"><tspan
           style="line-height:1.25;font-family:Lavi;-inkscape-font-specification:Lavi"
           id="tspan7666">Wil hesho lezh </tspan></tspan><tspan
         x="1405.9313"
         y="3020.0062"
         id="tspan7672"><tspan
           style="line-height:1.25;font-family:Lavi;-inkscape-font-specification:Lavi"
           id="tspan7670">rashoneth hi!</tspan></tspan></text>
  </g>
  <g
     inkscape:groupmode="layer"
     id="layer4"
     inkscape:label="fx"
     style="filter:url(#filter3347);opacity:0.7265625">
    <text
       xml:space="preserve"
       style="font-style:normal;font-variant:normal;font-weight:normal;font-stretch:normal;font-size:71.4012px;line-height:1;font-family:Arial;-inkscape-font-specification:Arial;text-align:center;letter-spacing:0px;word-spacing:0px;text-anchor:middle;white-space:pre;inline-size:644.705;opacity:1;fill:#ba894f;fill-opacity:1;stroke:#7b441d;stroke-width:3.98445;stroke-miterlimit:4;stroke-dasharray:none;stroke-opacity:1"
       x="-562.01489"
       y="1767.3279"
       id="text133177"
       transform="matrix(0.86240547,-0.1951041,0.5328438,0.93403077,210.71168,15.424697)"><tspan
         x="-562.01489"
         y="1767.3279"
         id="tspan7676"><tspan
           style="font-family:Fondamento;-inkscape-font-specification:Fondamento;stroke-width:3.98444"
           id="tspan7674">Woyahaneshe-
</tspan></tspan><tspan
         x="-562.01489"
         y="1842.2183"
         id="tspan7680"><tspan
   style="font-family:Fondamento;-inkscape-font-specification:Fondamento;stroke-width:3.98444"
   id="tspan7678">rana Worashon</tspan><tspan
   y="1842.2183"
   id="tspan7682"> </tspan></tspan><tspan
         x="-562.01489"
         y="1917.1087"
         id="tspan7686"><tspan
           style="font-family:Fondamento;-inkscape-font-specification:Fondamento;stroke-width:3.98444"
           id="tspan7684">Sháadelol bethu</tspan></tspan></text>
    <text
       xml:space="preserve"
       style="color:#000000;font-style:normal;font-variant:normal;font-weight:normal;font-stretch:normal;font-size:59.2323px;line-height:0.01%;font-family:Arial;-inkscape-font-specification:Arial;text-align:center;letter-spacing:0px;word-spacing:0px;text-anchor:middle;white-space:pre;inline-size:782.998;clip-rule:nonzero;display:inline;overflow:visible;visibility:visible;opacity:1;isolation:auto;mix-blend-mode:normal;color-interpolation:sRGB;color-interpolation-filters:linearRGB;solid-color:#000000;solid-opacity:1;fill:#ba894f;fill-opacity:1;fill-rule:nonzero;stroke:#7b441d;stroke-width:4.22415;stroke-linecap:butt;stroke-linejoin:miter;stroke-miterlimit:4;stroke-dasharray:none;stroke-dashoffset:0;stroke-opacity:1;color-rendering:auto;image-rendering:auto;shape-rendering:auto;text-rendering:auto;enable-background:accumulate"
       x="-827.95782"
       y="1873.5533"
       id="text133195"
       transform="matrix(0.81019629,-0.2026506,0.62005547,0.93216772,302.53035,70.689847)"><tspan
         x="-827.95782"
         y="1873.5533"
         id="tspan7690"><tspan
           style="line-height:1.25;font-family:Fondamento;-inkscape-font-specification:Fondamento;display:inline;overflow:visible;enable-background:accumulate"
           id="tspan7688">Bíi ham mebish
</tspan></tspan><tspan
         x="-827.95782"
         y="1947.5938"
         id="tspan7694"><tspan
           style="line-height:1.25;font-family:Fondamento;-inkscape-font-specification:Fondamento;display:inline;overflow:visible;enable-background:accumulate"
           id="tspan7692">Lo 50 000
</tspan></tspan><tspan
         x="-827.95782"
         y="2021.6342"
         id="tspan7698"><tspan
           style="line-height:1.25;font-family:Fondamento;-inkscape-font-specification:Fondamento;display:inline;overflow:visible;enable-background:accumulate"
           id="tspan7696">WOHESHO
</tspan></tspan><tspan
         x="-827.95782"
         y="2095.6746"
         id="tspan7702"><tspan
           style="line-height:1.25;font-family:Fondamento;-inkscape-font-specification:Fondamento;display:inline;overflow:visible;enable-background:accumulate"
           id="tspan7700">WORANADIM</tspan></tspan></text>
    <text
       xml:space="preserve"
       style="color:#000000;font-style:normal;font-variant:normal;font-weight:normal;font-stretch:normal;font-size:56px;line-height:0.01%;font-family:Arial;-inkscape-font-specification:Arial;text-align:center;letter-spacing:0px;word-spacing:0px;text-anchor:middle;white-space:pre;inline-size:759.476;clip-rule:nonzero;display:inline;overflow:visible;visibility:visible;opacity:1;isolation:auto;mix-blend-mode:normal;color-interpolation:sRGB;color-interpolation-filters:linearRGB;solid-color:#000000;solid-opacity:1;fill:#ba894f;fill-opacity:1;fill-rule:nonzero;stroke:#7b441d;stroke-width:3.75982;stroke-linecap:butt;stroke-linejoin:miter;stroke-miterlimit:4;stroke-dasharray:none;stroke-dashoffset:0;stroke-opacity:1;color-rendering:auto;image-rendering:auto;shape-rendering:auto;text-rendering:auto;enable-background:accumulate"
       x="-935.36957"
       y="2187.7334"
       id="text133209"
       transform="matrix(0.81950511,-0.19812204,0.6660199,0.8907885,285.31935,129.66034)"><tspan
         x="-935.36957"
         y="2187.7334"
         id="tspan7706"><tspan
   style="line-height:1.25;font-family:Fondamento;-inkscape-font-specification:Fondamento;display:inline;overflow:visible;enable-background:accumulate"
   id="tspan7704">Hathamesháal sháaya 3,</tspan><tspan
   y="2187.7334"
   id="tspan7708"> </tspan></tspan><tspan
         x="-935.36957"
         y="2257.7333"
         id="tspan7712"><tspan
           style="line-height:1.25;font-family:Fondamento;-inkscape-font-specification:Fondamento;display:inline;overflow:visible;enable-background:accumulate"
           id="tspan7710">Rahíyahotheha Sháadelol bethu</tspan></tspan></text>
  </g>
</svg>
