<?xml version="1.0" encoding="UTF-8" standalone="no"?>
<!-- Created With Inkscape (http://www.inkscape.org/) -->

<svg
   xmlns:dc="http://purl.org/dc/elements/1.1/"
   xmlns:cc="http://creativecommons.org/ns#"
   xmlns:rdf="http://www.w3.org/1999/02/22-rdf-syntax-ns#"
   xmlns:svg="http://www.w3.org/2000/svg"
   xmlns="http://www.w3.org/2000/svg"
   xmlns:xlink="http://www.w3.org/1999/xlink"
   xmlns:sodipodi="http://sodipodi.sourceforge.net/DTD/sodipodi-0.dtd"
   xmlns:inkscape="http://www.inkscape.org/namespaces/inkscape"
   id="svg2"
   version="1.1"
   inkscape:version="0.92.5 (2060ec1f9f, 2020-04-08)"
   width="2481"
   height="3503"
   sodipodi:docname="E17P07.svg"
   viewBox="0 0 2481 3503">
  <metadata
     id="metadata8">
    <rdf:RDF>
      <cc:Work
         rdf:about="">
        <dc:format>image/svg+xml</dc:format>
        <dc:type
           rdf:resource="http://purl.org/dc/dcmitype/StillImage" />
        <dc:title />
      </cc:Work>
    </rdf:RDF>
  </metadata>
  <defs
     id="defs6">
    <filter
       style="color-interpolation-filters:sRGB"
       inkscape:label="Drop Shadow"
       id="filter5522">
      <feFlood
         flood-opacity="1"
         flood-color="rgb(0,0,0)"
         result="flood"
         id="feFlood5524" />
      <feComposite
         in="flood"
         in2="SourceGraphic"
         operator="in"
         result="composite1"
         id="feComposite5526" />
      <feGaussianBlur
         in="composite1"
         stdDeviation="1"
         result="blur"
         id="feGaussianBlur5528" />
      <feOffset
         dx="2.5"
         dy="2.5"
         result="offset"
         id="feOffset5530" />
      <feComposite
         in="SourceGraphic"
         in2="offset"
         operator="over"
         result="composite2"
         id="feComposite5532" />
    </filter>
    <filter
       style="color-interpolation-filters:sRGB"
       inkscape:label="Drop Shadow"
       id="filter5534">
      <feFlood
         flood-opacity="1"
         flood-color="rgb(0,0,0)"
         result="flood"
         id="feFlood5536" />
      <feComposite
         in="flood"
         in2="SourceGraphic"
         operator="in"
         result="composite1"
         id="feComposite5538" />
      <feGaussianBlur
         in="composite1"
         stdDeviation="1"
         result="blur"
         id="feGaussianBlur5540" />
      <feOffset
         dx="2.5"
         dy="2.5"
         result="offset"
         id="feOffset5542" />
      <feComposite
         in="SourceGraphic"
         in2="offset"
         operator="over"
         result="composite2"
         id="feComposite5544" />
    </filter>
    <filter
       style="color-interpolation-filters:sRGB"
       inkscape:label="Drop Shadow"
       id="filter5546">
      <feFlood
         flood-opacity="1"
         flood-color="rgb(0,0,0)"
         result="flood"
         id="feFlood5548" />
      <feComposite
         in="flood"
         in2="SourceGraphic"
         operator="in"
         result="composite1"
         id="feComposite5550" />
      <feGaussianBlur
         in="composite1"
         stdDeviation="1"
         result="blur"
         id="feGaussianBlur5552" />
      <feOffset
         dx="2.5"
         dy="2.5"
         result="offset"
         id="feOffset5554" />
      <feComposite
         in="SourceGraphic"
         in2="offset"
         operator="over"
         result="composite2"
         id="feComposite5556" />
    </filter>
    <filter
       style="color-interpolation-filters:sRGB"
       inkscape:label="Drop Shadow"
       id="filter5558">
      <feFlood
         flood-opacity="1"
         flood-color="rgb(0,0,0)"
         result="flood"
         id="feFlood5560" />
      <feComposite
         in="flood"
         in2="SourceGraphic"
         operator="in"
         result="composite1"
         id="feComposite5562" />
      <feGaussianBlur
         in="composite1"
         stdDeviation="1"
         result="blur"
         id="feGaussianBlur5564" />
      <feOffset
         dx="2.5"
         dy="2.5"
         result="offset"
         id="feOffset5566" />
      <feComposite
         in="SourceGraphic"
         in2="offset"
         operator="over"
         result="composite2"
         id="feComposite5568" />
    </filter>
  </defs>
  <sodipodi:namedview
     pagecolor="#ffffff"
     bordercolor="#666666"
     borderopacity="1"
     objecttolerance="10"
     gridtolerance="10"
     guidetolerance="10"
     inkscape:pageopacity="0"
     inkscape:pageshadow="2"
     inkscape:window-width="1866"
     inkscape:window-height="1016"
     id="namedview4"
     showgrid="false"
     inkscape:zoom="0.34782609"
     inkscape:cx="1262.3047"
     inkscape:cy="803.28815"
     inkscape:window-x="54"
     inkscape:window-y="27"
     inkscape:window-maximized="1"
     inkscape:current-layer="layer3" />
  <g
     inkscape:groupmode="layer"
     id="layer2"
     inkscape:label="artwork"
     sodipodi:insensitive="true">
    <image
       sodipodi:absref="/home/user/lojban/webcomics/ep17_A-Fresh-Start/lang/jb/../gfx_Pepper-and-Carrot_by-David-Revoy_E17P07.png"
       xlink:href="../gfx_Pepper-and-Carrot_by-David-Revoy_E17P07.png"
       width="2481"
       height="3503"
       id="image10"
       x="0"
       y="0" />
  </g>
  <g
     inkscape:groupmode="layer"
     id="layer3"
     inkscape:label="speechbubbles"
     style="opacity:1">
    <path
       style="color:#000000;display:inline;overflow:visible;visibility:visible;fill:#ffffff;fill-opacity:1;fill-rule:nonzero;stroke:none;stroke-width:0.91642177px;marker:none;enable-background:accumulate"
       d="m 1058.9799,436.42925 c 49.8221,-24.47544 416.1,-35.92389 497.4871,6.72694 91.9257,48.17359 26.2434,151.23554 -46.4353,172.80453 -68.7008,20.38844 -251.0609,34.64953 -341.0428,14.07002 -89.982,-20.57949 -159.9423,-48.3953 -163.9699,-109.84144 -1.644,-25.07861 4.1387,-59.28461 53.9609,-83.76005 z"
       id="path4040"
       inkscape:connector-curvature="0"
       sodipodi:nodetypes="zssssz" />
    <path
       style="color:#000000;display:inline;overflow:visible;visibility:visible;fill:#ffffff;fill-opacity:1;fill-rule:nonzero;stroke:none;stroke-width:1px;marker:none;enable-background:accumulate"
       d="m 1718.5209,509.9842 c -7.7418,16.19807 -15.5076,33.1973 -32.4434,44.53252 -4.9282,3.13091 -10.3949,6.06413 -16.7951,7.55715 -7.4315,0.34787 -14.9982,-3.69945 -19.5221,-8.64539 -7.1207,-6.8955 -11.3036,-15.81586 -21.4899,-20.78482 -7.4974,-3.49757 -15.0354,-1.37767 -21.6815,-0.0597 -16.7822,3.62734 -32.5282,9.11411 -50.5605,10.55753 -19.8886,2.65529 -41.3726,4.30783 -62.9062,-1.38774 -8.498,-2.35513 -17.1818,-5.65988 -23.4987,-11.12248 -16.9211,-13.58117 -25.455,-33.19058 -18.7509,-48.31082 5.6068,-9.14761 23.0937,-12.59261 36.7206,-5.62125 7.2465,3.60893 11.003,9.87667 12.2022,15.6104 4.8041,10.62809 13.5292,16.17886 27.3657,20.48853 11.3777,3.68742 23.4851,4.84238 34.5115,3.72094 16.3526,1.58414 28.7095,-5.25897 41.9672,-9.32447 6.1131,-1.78274 14.7425,-0.81807 21.9596,0.003 10.4123,2.98538 18.6964,8.13329 22.7748,15.25714 4.4423,7.30296 9.0427,15.99488 19.2106,20.41309 6.6879,3.70799 9.9042,1.61642 15.0888,-0.007 15.318,-7.03414 27.7026,-16.42843 34.5809,-29.01708 0.5231,-1.25492 0.8972,-2.55454 1.2667,-3.85901 z"
       id="path4496-6"
       inkscape:connector-curvature="0"
       sodipodi:nodetypes="cccccccccccccccccccccc" />
    <path
       style="fill:#ffffff;stroke:none;stroke-width:1.13978279"
       d="m 670.28931,227.35747 c 41.288,-77.62817 152.29053,-70.50379 236.7155,-74.34331 106.81129,-4.65443 265.70299,-0.20301 317.36089,37.08895 82.3377,64.87671 -35.6883,101.7908 -117.9949,117.23307 -131.50261,21.71321 -267.09513,11.70202 -397.36652,-11.55407 -24.21335,-5.68219 -51.68482,-41.78218 -38.71497,-68.42464 z"
       id="path3100"
       inkscape:connector-curvature="0"
       sodipodi:nodetypes="cccccc" />
    <path
       style="color:#000000;display:inline;overflow:visible;visibility:visible;fill:#ffffff;fill-opacity:1;fill-rule:nonzero;stroke:none;stroke-width:1px;marker:none;enable-background:accumulate"
       d="m 769.01638,470.98308 c 62.14532,-16.29259 90.41803,-60.54356 101.98459,-144.73098 11.48796,-83.61528 42.62521,-40.29844 42.62521,-40.29844 0,0 -10.34632,173.42219 -144.6098,185.02942 z"
       id="path3984"
       inkscape:connector-curvature="0"
       sodipodi:nodetypes="cscc" />
    <text
       xml:space="preserve"
       style="font-style:normal;font-variant:normal;font-weight:normal;font-stretch:normal;line-height:0%;font-family:Arial;-inkscape-font-specification:Arial;text-align:center;letter-spacing:0px;word-spacing:0px;text-anchor:middle;display:inline;opacity:0.85500004;fill:#ffffff;fill-opacity:1;stroke:#ffffff;filter:url(#filter5558)"
       x="1242.2528"
       y="3388.5505"
       id="text4229"><tspan
         sodipodi:role="line"
         x="1242.2528"
         y="3388.5505"
         style="font-style:normal;font-variant:normal;font-weight:normal;font-stretch:normal;font-size:27.5px;line-height:1.25;font-family:Lavi;-inkscape-font-specification:Lavi;fill:#ffffff;stroke:#ffffff"
         id="tspan4169">.i jaspu fa la'o gy.Creative Commons Attribution 4.0.gy. .i tutci fa la'o gy.Krita.gy. .e la'o gy.G'MIC.gy. .e la'o gy.Inkscape.gy. .e la'o gy.Ubuntu.gy.</tspan></text>
    <text
       xml:space="preserve"
       style="color:#000000;font-style:normal;font-variant:normal;font-weight:normal;font-stretch:normal;line-height:0%;font-family:Lavi;-inkscape-font-specification:Lavi;text-indent:0;text-align:center;text-decoration:none;text-decoration-line:none;letter-spacing:0px;word-spacing:0px;text-transform:none;writing-mode:lr-tb;direction:ltr;baseline-shift:baseline;text-anchor:middle;display:inline;overflow:visible;visibility:visible;opacity:0.85500004;fill:#ffffff;fill-opacity:1;fill-rule:nonzero;stroke:#ffffff;filter:url(#filter5546);enable-background:accumulate"
       x="1242.2528"
       y="3350.7795"
       id="text4246-42-4"><tspan
         sodipodi:role="line"
         style="color:#000000;font-style:normal;font-variant:normal;font-weight:normal;font-stretch:normal;font-size:27.5px;line-height:125%;font-family:Lavi;-inkscape-font-specification:Lavi;text-indent:0;text-align:center;text-decoration:none;text-decoration-line:none;letter-spacing:0px;word-spacing:0px;text-transform:none;writing-mode:lr-tb;direction:ltr;baseline-shift:baseline;text-anchor:middle;display:inline;overflow:visible;visibility:visible;fill:#ffffff;fill-opacity:1;fill-rule:nonzero;stroke:#ffffff;enable-background:accumulate"
         x="1242.2528"
         y="3350.7795"
         id="tspan4252-9-9">.i skicu la .erevas. noi munje .i la'o gy.Craig Maloney.gy. sidju .i cikre fa la'o gy.Willem Sonke.gy. .e la'o gy.Moini.gy. .e la'o gy.Hali.gy. .e la'o gy.CGand.gy. e la'o gy.Alex Gryson.gy.</tspan></text>
    <text
       xml:space="preserve"
       style="font-style:normal;font-variant:normal;font-weight:normal;font-stretch:normal;line-height:0%;font-family:Lavi;-inkscape-font-specification:Lavi;text-align:center;letter-spacing:0px;word-spacing:0px;text-anchor:middle;opacity:1;fill:#ffffff;fill-opacity:1;stroke:#ffffff;stroke-width:3.82200003;stroke-miterlimit:4;stroke-dasharray:none;stroke-opacity:1;filter:url(#filter5534)"
       x="2028.7821"
       y="2443.6147"
       id="text4213"
       transform="matrix(0.75304346,0,-0.11971288,1.3279446,2.1447435,27.158278)"><tspan
         sodipodi:role="line"
         id="tspan4215"
         x="2028.7821"
         y="2443.6147"
         style="font-size:63.55184174px;line-height:1.25;fill:#ffffff;stroke:#ffffff;stroke-width:3.82200003;stroke-miterlimit:4;stroke-dasharray:none">.i fanmo</tspan></text>
    <text
       xml:space="preserve"
       style="font-style:normal;font-variant:normal;font-weight:normal;font-stretch:normal;line-height:0%;font-family:Lavi;-inkscape-font-specification:Lavi;text-align:center;letter-spacing:0px;word-spacing:0px;text-anchor:middle;fill:#ffffff;fill-opacity:1;stroke:#ffffff;filter:url(#filter5522)"
       x="1239.9716"
       y="3314.6868"
       id="text4246-42"><tspan
         sodipodi:role="line"
         style="font-size:36.73472214px;line-height:1.25;fill:#ffffff;stroke:#ffffff"
         x="1239.9716"
         y="3314.6868"
         id="tspan4252-9">.i de'i li nanca bu 2016 masti bu 6 .i zoi zoi. www.peppercarrot.com.zoi. judri .i finti fa la'o gy.David Revoy.gy. .i la gleki cu fanva</tspan></text>
  </g>
  <g
     inkscape:groupmode="layer"
     id="layer1"
     inkscape:label="txt">
    <text
       xml:space="preserve"
       style="font-style:normal;font-variant:normal;font-weight:normal;font-stretch:normal;line-height:0%;font-family:Lavi;-inkscape-font-specification:Lavi;text-align:center;letter-spacing:0px;word-spacing:0px;text-anchor:middle;fill:#000000;fill-opacity:1;stroke:none"
       x="952.56854"
       y="221.56387"
       id="text4246-0"><tspan
         sodipodi:role="line"
         style="font-size:45px;line-height:1.25"
         x="952.56854"
         y="221.56387"
         id="tspan4184">mo'u klama ti .i nau ku</tspan><tspan
         sodipodi:role="line"
         style="font-size:45px;line-height:1.25"
         x="952.56854"
         y="277.81387"
         id="tspan4198">do ro da djuno</tspan></text>
    <text
       xml:space="preserve"
       style="font-style:normal;font-variant:normal;font-weight:normal;font-stretch:normal;line-height:0%;font-family:Lavi;-inkscape-font-specification:Lavi;text-align:center;letter-spacing:0px;word-spacing:0px;text-anchor:middle;fill:#000000;fill-opacity:1;stroke:none"
       x="1290.295"
       y="485.65073"
       id="text4246-0-2"><tspan
         sodipodi:role="line"
         style="font-size:45px;line-height:1.25"
         x="1290.295"
         y="485.65073"
         id="tspan3496">.i do ca'o xusra le du'u</tspan><tspan
         sodipodi:role="line"
         style="font-size:45px;line-height:1.25"
         x="1290.295"
         y="541.90076"
         id="tspan4213">lei kurji do pu ctuca</tspan><tspan
         sodipodi:role="line"
         style="font-size:45px;line-height:1.25"
         x="1290.295"
         y="598.15076"
         id="tspan65">no .ie pei de</tspan></text>
    <path
       style="color:#000000;display:inline;overflow:visible;visibility:visible;fill:#ffffff;fill-opacity:1;fill-rule:nonzero;stroke:none;stroke-width:1.02043676px;marker:none;enable-background:accumulate"
       d="m 373.63368,197.65297 c -2.2436,-12.29825 37.79046,-72.84827 175.00115,-68.87003 170.30846,4.93786 163.78321,54.93203 162.66136,71.32969 -1.12185,16.3976 -34.7758,41.81396 -54.96832,45.91336 -20.19242,4.09943 -72.91714,13.93794 -106.57131,10.65852 -33.65394,-3.2796 -130.1701,-6.63328 -150.36263,-21.3912 -20.1924,-14.75783 -23.51667,-34.36084 -25.76025,-37.64034 z"
       id="path3365"
       inkscape:connector-curvature="0"
       sodipodi:nodetypes="csssssc" />
    <text
       xml:space="preserve"
       style="font-style:normal;font-variant:normal;font-weight:normal;font-stretch:normal;line-height:0%;font-family:Lavi;-inkscape-font-specification:Lavi;text-align:center;letter-spacing:0px;word-spacing:0px;text-anchor:middle;fill:#000000;fill-opacity:1;stroke:none"
       x="539.41919"
       y="209.26059"
       id="text4246-0-7"><tspan
         sodipodi:role="line"
         style="font-size:45px;line-height:1.25"
         x="539.41919"
         y="209.26059"
         id="tspan4194">.i ro mai mi'a</tspan></text>
  </g>
</svg>
