<?xml version="1.0" encoding="UTF-8" standalone="no"?>
<!-- Created with Inkscape (http://www.inkscape.org/) -->

<svg
   id="svg2"
   version="1.1"
   inkscape:version="1.3 (1:1.3+202307231459+0e150ed6c4)"
   width="2481"
   height="3503"
   sodipodi:docname="E12P02.svg"
   xmlns:inkscape="http://www.inkscape.org/namespaces/inkscape"
   xmlns:sodipodi="http://sodipodi.sourceforge.net/DTD/sodipodi-0.dtd"
   xmlns:xlink="http://www.w3.org/1999/xlink"
   xmlns="http://www.w3.org/2000/svg"
   xmlns:svg="http://www.w3.org/2000/svg"
   xmlns:rdf="http://www.w3.org/1999/02/22-rdf-syntax-ns#"
   xmlns:cc="http://creativecommons.org/ns#"
   xmlns:dc="http://purl.org/dc/elements/1.1/">
  <sodipodi:namedview
     pagecolor="#ffffff"
     bordercolor="#666666"
     inkscape:pageopacity="0"
     inkscape:pageshadow="2"
     inkscape:window-width="1920"
     inkscape:window-height="997"
     id="namedview70"
     showgrid="false"
     inkscape:zoom="0.31819805"
     inkscape:cx="820.24387"
     inkscape:cy="2382.1642"
     inkscape:current-layer="layer3"
     inkscape:window-x="0"
     inkscape:window-y="0"
     inkscape:window-maximized="1"
     borderopacity="1"
     inkscape:showpageshadow="0"
     inkscape:pagecheckerboard="0"
     inkscape:deskcolor="#d1d1d1" />
  <metadata
     id="metadata8">
    <rdf:RDF>
      <cc:Work
         rdf:about="">
        <dc:format>image/svg+xml</dc:format>
        <dc:type
           rdf:resource="http://purl.org/dc/dcmitype/StillImage" />
        <dc:title />
      </cc:Work>
    </rdf:RDF>
  </metadata>
  <defs
     id="defs6">
    <filter
       style="color-interpolation-filters:sRGB"
       id="filter4375-4-1-1-1"
       inkscape:label="deevad outline effect"
       x="-0.05065431"
       y="-0.12072817"
       width="1.1013086"
       height="1.2414563">
      <feFlood
         id="feFlood4377-7-9-0-8"
         flood-opacity="1"
         flood-color="rgb(52,87,46)"
         result="flood" />
      <feComposite
         id="feComposite4379-3-8-8-2"
         in2="SourceGraphic"
         in="flood"
         operator="in"
         result="composite1" />
      <feMorphology
         id="feMorphology4393-1-0-49-8"
         operator="dilate"
         radius="4"
         result="result3" />
      <feComposite
         id="feComposite4385-9-5-7-0"
         in2="result3"
         in="SourceGraphic"
         operator="over"
         result="composite2" />
    </filter>
  </defs>
  <sodipodi:namedview
     pagecolor="#ffffff"
     bordercolor="#666666"
     borderopacity="1"
     objecttolerance="10"
     gridtolerance="10"
     guidetolerance="10"
     inkscape:pageopacity="0"
     inkscape:pageshadow="2"
     inkscape:window-width="1920"
     inkscape:window-height="1025"
     id="namedview4"
     showgrid="false"
     inkscape:zoom="0.69960253"
     inkscape:cx="1704.4995"
     inkscape:cy="879.13046"
     inkscape:window-x="0"
     inkscape:window-y="26"
     inkscape:window-maximized="1"
     inkscape:current-layer="layer3" />
  <g
     inkscape:groupmode="layer"
     id="layer2"
     inkscape:label="artwork"
     sodipodi:insensitive="true">
    <image
       xlink:href="../gfx_Pepper-and-Carrot_by-David-Revoy_E12P02.png"
       y="0"
       x="0"
       id="image10"
       height="3503"
       width="2481" />
  </g>
  <g
     inkscape:groupmode="layer"
     id="layer3"
     inkscape:label="speechbubbles">
    <path
       style="fill:#ffe4a0;stroke:none;fill-opacity:1"
       d="m 1619.4822,493.55313 c 59.37,10.88062 130.239,-19.10803 138.4344,-93.39209 4.9656,-45.00881 2.9147,-72.57554 2.9147,-72.57554 l 37.4598,26.38481 -2.7257,51.07511 c 0,0 -38.0508,127.16014 -176.0832,88.50771 z"
       id="path3063"
       inkscape:connector-curvature="0"
       sodipodi:nodetypes="cscccc" />
    <path
       style="fill:#ffe4a0;stroke:none;stroke-width:0.785656;fill-opacity:1"
       d="m 1600.6326,313.41049 c 7.4456,-43.21715 33.1667,-84.58211 188.1706,-90.13862 155.0039,-5.55647 218.6299,51.24321 219.3066,83.96473 0.677,32.72151 -45.3503,93.84293 -170.5716,95.07772 -125.2217,1.23478 -232.8443,-4.32173 -236.9056,-88.90383 z"
       id="path3270"
       inkscape:connector-curvature="0" />
    <path
       style="fill:#ffffff;fill-rule:evenodd;stroke:none;stroke-width:1px;stroke-linecap:butt;stroke-linejoin:miter;stroke-opacity:1"
       d="m 1477.3311,1611.0508 c -3.0154,46.8723 -29.7425,76.9194 -2.3075,76.5302 29.473,-0.4181 -0.1784,-28.9502 2.3075,-76.5302 z"
       id="path4222"
       inkscape:connector-curvature="0"
       sodipodi:nodetypes="csc" />
    <path
       style="fill:#ffffff;fill-rule:evenodd;stroke:none;stroke-width:1px;stroke-linecap:butt;stroke-linejoin:miter;stroke-opacity:1"
       d="m 1982.3019,2077.7766 c -3.0154,46.8723 -29.7425,76.9194 -2.3075,76.5302 29.473,-0.4181 -0.1784,-28.9502 2.3075,-76.5302 z"
       id="path4222-9"
       inkscape:connector-curvature="0"
       sodipodi:nodetypes="csc" />
    <flowRoot
       xml:space="preserve"
       id="flowRoot2987-7-9-9-6-2"
       style="font-style:normal;font-variant:normal;font-weight:normal;font-stretch:normal;line-height:0.01%;font-family:Lavi;-inkscape-font-specification:Lavi;letter-spacing:0px;word-spacing:0px;fill:#6f8a91;fill-opacity:1;stroke:none"
       transform="matrix(0.34033125,0.19613469,-0.07244778,0.46867793,867.99043,1397.2326)"><flowRegion
         id="flowRegion2989-4-5-8-75-8"><rect
           id="rect2991-45-1-3-34-5"
           width="417.15793"
           height="141.89404"
           x="120.55251"
           y="265.53046"
           style="font-style:normal;font-variant:normal;font-weight:normal;font-stretch:normal;font-family:Lavi;-inkscape-font-specification:Lavi;fill:#6f8a91" /></flowRegion><flowPara
         id="flowPara2995-4-1-5-4-4"
         style="font-size:48px;line-height:1.25;fill:#6f8a91">Švig!</flowPara></flowRoot>
    <path
       style="color:#000000;display:inline;overflow:visible;visibility:visible;fill:#ffe4a0;fill-opacity:1;fill-rule:nonzero;stroke:none;stroke-width:0.955293px;marker:none;enable-background:accumulate"
       d="m 232.70552,2581.6506 c 5.46017,-8.2205 32.78031,-33.6903 37.33641,-6.7731 45.27741,-37.1792 90.47283,-26.3273 135.6728,-18.2054 10.51814,-11.092 10.23145,-27.4527 48.16542,-25.1761 -6.34071,-10.3043 5.56524,-18.055 33.75243,-23.5275 -38.69073,-4.7903 -46.34201,-11.0582 23.56844,-21.0192 -53.81701,1.5291 -104.11448,2.1912 -43.51956,-24.4618 -19.84241,0.2319 -64.72258,22.239 -48.85153,-37.4113 -32.09264,20.2075 -67.31158,32.0789 -116.85922,-5.446 -12.39689,16.1318 -32.23055,27.4958 -74.64296,7.9267 -7.02625,15.7947 -55.45249,19.0704 -73.64337,16.6671 37.78887,15.7912 37.64949,26.5716 -11.08644,30.2502 85.20311,27.7563 17.69923,25.8206 5.28732,34.2585 65.49644,8.0787 38.04728,22.5975 27.94232,36.3608 74.06655,-2.5891 52.02151,19.7168 56.87794,36.5571 z"
       id="path3549-3"
       inkscape:connector-curvature="0"
       sodipodi:nodetypes="ccccccccccccccc"
       inkscape:transform-center-x="-190.01963"
       inkscape:transform-center-y="46.525539" />
    <path
       style="color:#000000;display:inline;overflow:visible;visibility:visible;fill:#ffe4a0;fill-opacity:1;fill-rule:nonzero;stroke:none;stroke-width:1px;marker:none;enable-background:accumulate"
       d="m 308.27858,2558.8689 c 22.23093,45.0827 43.46026,114.2405 119.66529,91.8336 28.367,25.1116 52.78253,40.8669 113.32912,19.0349 -47.52657,7.5386 -74.32369,6.2336 -113.25897,-34.0723 -40.58299,6.3014 -71.81242,-24.8983 -89.08654,-84.7355 -17.27409,-59.8372 13.4365,-43.9063 13.4365,-43.9063 l -41.14045,33.8175 z"
       id="path5074"
       inkscape:connector-curvature="0"
       sodipodi:nodetypes="ccccsccc" />
    <flowRoot
       xml:space="preserve"
       id="flowRoot2987-4-9-3-0"
       style="font-style:normal;font-variant:normal;font-weight:normal;font-stretch:normal;line-height:0.01%;font-family:Lavi;-inkscape-font-specification:Lavi;text-align:center;letter-spacing:0px;word-spacing:0px;text-anchor:middle;fill:#000000;fill-opacity:1;stroke:none"
       transform="matrix(1.186725,0,0,1.186725,-188.3597,2152.0265)"><flowRegion
         id="flowRegion2989-5-4-5-1"><rect
           id="rect2991-7-9-6-4"
           width="602.40173"
           height="310.73996"
           x="120.55252"
           y="265.53046"
           style="font-style:normal;font-variant:normal;font-weight:normal;font-stretch:normal;font-family:Lavi;-inkscape-font-specification:Lavi;text-align:center;text-anchor:middle;stroke-width:1" /></flowRegion><flowPara
         style="font-size:45px;line-height:1.25;text-align:center;letter-spacing:1.5px;text-anchor:middle;stroke:#000000;stroke-width:1.1;stroke-miterlimit:4;stroke-dasharray:none;stroke-opacity:1"
         id="flowPara3030-8-7">Pišuka!</flowPara></flowRoot>
    <path
       style="color:#000000;display:inline;overflow:visible;visibility:visible;fill:#ffe4a0;fill-opacity:1;fill-rule:nonzero;stroke:none;stroke-width:0.8612px;marker:none;enable-background:accumulate"
       d="m 1366.2633,2492.8726 c 12.025,-35.1125 111.7868,-49.9239 144.4037,-46.805 32.6169,3.119 116.1933,15.5982 136.3859,16.3895 20.1923,0.7911 94.0751,-2.7566 120.7736,-3.5512 26.6983,-0.7948 55.9862,33.4878 51.9934,47.1376 -3.9924,13.6496 -28.2971,51.3547 -98.1979,53.2175 -69.901,1.8631 -162.7036,-7.2959 -182.1234,-3.4547 -19.4199,3.841 -101.9411,5.2094 -130.8591,-8.8095 -28.918,-14.019 -54.4011,-19.0116 -42.3762,-54.1242 z"
       id="path4554"
       inkscape:connector-curvature="0"
       sodipodi:nodetypes="zsssssssz" />
    <flowRoot
       xml:space="preserve"
       id="flowRoot2987-4-9-3-7"
       style="font-style:normal;font-variant:normal;font-weight:normal;font-stretch:normal;line-height:0.01%;font-family:Lavi;-inkscape-font-specification:Lavi;text-align:center;letter-spacing:0px;word-spacing:0px;text-anchor:middle;fill:#000000;fill-opacity:1;stroke:none"
       transform="translate(1170.0158,2214.7528)"><flowRegion
         id="flowRegion2989-5-4-5-5"><rect
           id="rect2991-7-9-6-3"
           width="602.40173"
           height="310.73996"
           x="120.55252"
           y="265.53046"
           style="font-style:normal;font-variant:normal;font-weight:normal;font-stretch:normal;font-family:Lavi;-inkscape-font-specification:Lavi;text-align:center;text-anchor:middle;stroke-width:1" /></flowRegion><flowPara
         style="font-size:45px;line-height:1.25;text-align:center;text-anchor:middle"
         id="flowPara3030-8-3">Vse naj zakopljeva?!</flowPara></flowRoot>
    <path
       style="color:#000000;display:inline;overflow:visible;visibility:visible;fill:#ffe4a0;fill-opacity:1;fill-rule:nonzero;stroke:none;stroke-width:0.940865px;marker:none;enable-background:accumulate"
       d="m 1521.2696,2558.2428 c 55.0826,-22.3192 404.9308,-51.2838 501.0802,1.2432 80.2547,43.8434 48.9419,153.0293 -22.4319,178.1782 -71.3734,25.1488 -362.7853,19.7274 -462.5215,-4.8447 -52.0193,-12.8161 -71.1358,-41.6272 -76.2656,-107.5951 -2.1005,-27.0097 5.0562,-44.6624 60.1388,-66.9816 z"
       id="path4040-4"
       inkscape:connector-curvature="0"
       sodipodi:nodetypes="zssssz" />
    <flowRoot
       xml:space="preserve"
       id="flowRoot2987-4-9-3-7-3"
       style="font-style:normal;font-variant:normal;font-weight:normal;font-stretch:normal;line-height:0.01%;font-family:Lavi;-inkscape-font-specification:Lavi;text-align:center;letter-spacing:0px;word-spacing:0px;text-anchor:middle;fill:#000000;fill-opacity:1;stroke:none"
       transform="translate(1328.9463,2262.8013)"><flowRegion
         id="flowRegion2989-5-4-5-5-2"><rect
           id="rect2991-7-9-6-3-0"
           width="586.97607"
           height="264.88882"
           x="146.2814"
           y="294.1181"
           style="font-style:normal;font-variant:normal;font-weight:normal;font-stretch:normal;font-family:Lavi;-inkscape-font-specification:Lavi;text-align:center;text-anchor:middle;stroke-width:1" /></flowRegion><flowPara
         style="font-size:45px;line-height:1.25;text-align:center;text-anchor:middle"
         id="flowPara50">To bo trajalo več ur,</flowPara><flowPara
         style="font-size:45px;line-height:1.25;text-align:center;text-anchor:middle"
         id="flowPara443">da ne omenjam žuljev, ki jih bova imela na koncu!</flowPara></flowRoot>
    <path
       style="color:#000000;display:inline;overflow:visible;visibility:visible;fill:#ffe4a0;fill-opacity:1;fill-rule:nonzero;stroke:none;stroke-width:1px;marker:none;enable-background:accumulate"
       d="m 1441.3147,2544.329 c -23.3985,17.4927 -54.5954,34.8134 -62.7275,38.1478 -4.2781,-11.5147 -10.3873,-21.7519 -14.9988,-29.7602 -13.9101,7.5996 -74.5691,47.1108 -81.2285,63.2158 14.1525,-40.9765 56.1935,-74.749 80.875,-85.1855 8.0586,10.2803 11.5766,16.9465 15.9507,22.3139 12.8874,-4.5473 46.701,-28.838 46.701,-28.838 z"
       id="path5066"
       inkscape:connector-curvature="0" />
    <flowRoot
       xml:space="preserve"
       id="flowRoot2987-7-9-9-7-0-3-4-1"
       style="font-style:normal;font-variant:normal;font-weight:normal;font-stretch:normal;line-height:0.01%;font-family:Lavi;-inkscape-font-specification:Lavi;letter-spacing:0px;word-spacing:0px;display:inline;fill:#000000;fill-opacity:1;stroke:#000000;stroke-width:0.992362;stroke-miterlimit:4;stroke-dasharray:none;stroke-opacity:1;filter:url(#filter4375-4-1-1-1)"
       transform="matrix(0.99907964,-0.23828437,0.36362081,1.4376966,1628.1515,2876.7057)"><flowRegion
         id="flowRegion2989-4-5-8-7-41-7-62-2"
         style="stroke-width:5.40286"><rect
           id="rect2991-45-1-3-3-8-0-4-6"
           width="319.66232"
           height="56.089447"
           x="120.55251"
           y="265.53046"
           style="font-style:normal;font-variant:normal;font-weight:normal;font-stretch:normal;font-family:Lavi;-inkscape-font-specification:Lavi;fill:#000000;fill-opacity:1;stroke:#000000;stroke-width:0.99236238;stroke-miterlimit:4;stroke-dasharray:none;stroke-opacity:1" /></flowRegion><flowPara
         id="flowPara2995-4-1-5-0-7-2-6-4"
         style="font-weight:normal;font-size:48px;line-height:1.25;-inkscape-font-specification:Lavi;letter-spacing:7.06853px;fill:#ffffff;fill-opacity:1;stroke:#ffffff;stroke-width:0.992362;stroke-linejoin:miter;stroke-miterlimit:4;stroke-dasharray:none;stroke-opacity:1">Paf</flowPara></flowRoot>
  </g>
  <g
     inkscape:groupmode="layer"
     id="layer1"
     inkscape:label="txt">
    <flowRoot
       xml:space="preserve"
       id="flowRoot2987-4-9-3"
       style="font-style:normal;font-variant:normal;font-weight:normal;font-stretch:normal;line-height:0.01%;font-family:Lavi;-inkscape-font-specification:Lavi;text-align:center;letter-spacing:0px;word-spacing:0px;text-anchor:middle;fill:#000000;fill-opacity:1;stroke:none"
       transform="translate(1379.3401,4.9306088)"><flowRegion
         id="flowRegion2989-5-4-5"><rect
           id="rect2991-7-9-6"
           width="602.40173"
           height="310.73996"
           x="120.55252"
           y="265.53046"
           style="font-style:normal;font-variant:normal;font-weight:normal;font-stretch:normal;font-family:Lavi;-inkscape-font-specification:Lavi;text-align:center;text-anchor:middle;stroke-width:1" /></flowRegion><flowPara
         style="font-size:45px;line-height:1.25;text-align:center;text-anchor:middle"
         id="flowPara4169">Znebim naj se je?</flowPara><flowPara
         style="font-size:45px;line-height:1.25;text-align:center;text-anchor:middle"
         id="flowPara381">Nič lažjega!</flowPara></flowRoot>
  </g>
</svg>
