<?xml version="1.0" encoding="UTF-8" standalone="no"?>
<!-- Created with Inkscape (http://www.inkscape.org/) -->

<svg
   id="svg2"
   version="1.1"
   inkscape:version="1.2.2 (b0a8486541, 2022-12-01)"
   width="2481"
   height="663"
   sodipodi:docname="E29P00.svg"
   xmlns:inkscape="http://www.inkscape.org/namespaces/inkscape"
   xmlns:sodipodi="http://sodipodi.sourceforge.net/DTD/sodipodi-0.dtd"
   xmlns:xlink="http://www.w3.org/1999/xlink"
   xmlns="http://www.w3.org/2000/svg"
   xmlns:svg="http://www.w3.org/2000/svg"
   xmlns:rdf="http://www.w3.org/1999/02/22-rdf-syntax-ns#"
   xmlns:cc="http://creativecommons.org/ns#"
   xmlns:dc="http://purl.org/dc/elements/1.1/">
  <metadata
     id="metadata8">
    <rdf:RDF>
      <cc:Work
         rdf:about="">
        <dc:format>image/svg+xml</dc:format>
        <dc:type
           rdf:resource="http://purl.org/dc/dcmitype/StillImage" />
        <dc:title />
      </cc:Work>
    </rdf:RDF>
  </metadata>
  <defs
     id="defs6">
    <linearGradient
       inkscape:collect="always"
       id="linearGradient892">
      <stop
         style="stop-color:#f56bbd;stop-opacity:1"
         offset="0"
         id="stop888" />
      <stop
         style="stop-color:#00000b;stop-opacity:1"
         offset="1"
         id="stop890" />
    </linearGradient>
    <filter
       style="color-interpolation-filters:sRGB"
       inkscape:label="Drop Shadow"
       id="filter1194"
       x="-0.00319743"
       y="-0.03694969"
       width="1.0098177"
       height="1.0821583">
      <feFlood
         flood-opacity="1"
         flood-color="rgb(56,56,56)"
         result="flood"
         id="feFlood1184" />
      <feComposite
         in="flood"
         in2="SourceGraphic"
         operator="in"
         result="composite1"
         id="feComposite1186" />
      <feGaussianBlur
         in="composite1"
         stdDeviation="2.5"
         result="blur"
         id="feGaussianBlur1188" />
      <feOffset
         dx="6"
         dy="3.6"
         result="offset"
         id="feOffset1190" />
      <feComposite
         in="SourceGraphic"
         in2="offset"
         operator="over"
         result="composite2"
         id="feComposite1192" />
    </filter>
    <linearGradient
       inkscape:collect="always"
       id="linearGradient821">
      <stop
         style="stop-color:#9c7052;stop-opacity:1"
         offset="0"
         id="stop817" />
      <stop
         id="stop825"
         offset="0.47098562"
         style="stop-color:#311b0b;stop-opacity:0.99215686" />
      <stop
         style="stop-color:#384173;stop-opacity:0.98823529"
         offset="1"
         id="stop819" />
    </linearGradient>
    <filter
       style="color-interpolation-filters:sRGB"
       inkscape:label="Drop Shadow"
       id="filter1035"
       x="-0.0030883803"
       y="-0.029665865"
       width="1.0090272"
       height="1.0725801">
      <feFlood
         flood-opacity="1"
         flood-color="rgb(0,0,0)"
         result="flood"
         id="feFlood1025" />
      <feComposite
         in="flood"
         in2="SourceGraphic"
         operator="in"
         result="composite1"
         id="feComposite1027" />
      <feGaussianBlur
         in="composite1"
         stdDeviation="2.59067"
         result="blur"
         id="feGaussianBlur1029" />
      <feOffset
         dx="6.2"
         dy="3"
         result="offset"
         id="feOffset1031" />
      <feComposite
         in="SourceGraphic"
         in2="offset"
         operator="over"
         result="composite2"
         id="feComposite1033" />
    </filter>
    <radialGradient
       inkscape:collect="always"
       xlink:href="#linearGradient821"
       id="radialGradient247"
       gradientUnits="userSpaceOnUse"
       gradientTransform="matrix(1,0,0,0.20575413,516.78036,-112.53145)"
       cx="1229.9637"
       cy="729.06702"
       fx="1229.9637"
       fy="729.06702"
       r="778.86548" />
    <radialGradient
       inkscape:collect="always"
       xlink:href="#linearGradient821"
       id="radialGradient366"
       gradientUnits="userSpaceOnUse"
       gradientTransform="matrix(1,0,0,0.20575413,476.81406,-536.5397)"
       cx="1229.9637"
       cy="729.06702"
       fx="1229.9637"
       fy="729.06702"
       r="778.86548" />
    <radialGradient
       inkscape:collect="always"
       xlink:href="#linearGradient821"
       id="radialGradient904"
       gradientUnits="userSpaceOnUse"
       gradientTransform="matrix(1,0,0,0.20575413,516.78036,-112.53145)"
       cx="1229.9637"
       cy="729.06702"
       fx="1229.9637"
       fy="729.06702"
       r="778.86548" />
    <filter
       style="color-interpolation-filters:sRGB"
       inkscape:label="Drop Shadow"
       id="filter1035-0"
       x="-0.0030883803"
       y="-0.029665865"
       width="1.0090272"
       height="1.0725801">
      <feFlood
         flood-opacity="1"
         flood-color="rgb(0,0,0)"
         result="flood"
         id="feFlood1025-9" />
      <feComposite
         in="flood"
         in2="SourceGraphic"
         operator="in"
         result="composite1"
         id="feComposite1027-3" />
      <feGaussianBlur
         in="composite1"
         stdDeviation="2.59067"
         result="blur"
         id="feGaussianBlur1029-6" />
      <feOffset
         dx="6.2"
         dy="3"
         result="offset"
         id="feOffset1031-0" />
      <feComposite
         in="SourceGraphic"
         in2="offset"
         operator="over"
         result="composite2"
         id="feComposite1033-6" />
    </filter>
    <radialGradient
       inkscape:collect="always"
       xlink:href="#linearGradient821"
       id="radialGradient4242"
       gradientUnits="userSpaceOnUse"
       gradientTransform="matrix(1,0,0,0.20575413,516.78036,-112.53145)"
       cx="1229.9637"
       cy="729.06702"
       fx="1229.9637"
       fy="729.06702"
       r="778.86548" />
    <radialGradient
       inkscape:collect="always"
       xlink:href="#linearGradient821"
       id="radialGradient4720"
       gradientUnits="userSpaceOnUse"
       gradientTransform="matrix(1,0,0,0.20575413,695.72543,-415.38266)"
       cx="1229.9637"
       cy="729.06702"
       fx="1229.9637"
       fy="729.06702"
       r="778.86548" />
    <radialGradient
       inkscape:collect="always"
       xlink:href="#linearGradient892"
       id="radialGradient11469"
       gradientUnits="userSpaceOnUse"
       gradientTransform="matrix(1,0,0,0.20575413,695.72543,-415.38266)"
       cx="1229.9637"
       cy="729.06702"
       fx="1229.9637"
       fy="729.06702"
       r="778.86548" />
    <radialGradient
       inkscape:collect="always"
       xlink:href="#linearGradient892"
       id="radialGradient13682"
       cx="1419.4435"
       cy="40.876873"
       fx="1419.4435"
       fy="40.876873"
       r="1103.368"
       gradientTransform="matrix(1,0,0,0.11104476,-158.03772,286.13766)"
       gradientUnits="userSpaceOnUse" />
  </defs>
  <sodipodi:namedview
     pagecolor="#ffffff"
     bordercolor="#666666"
     borderopacity="1"
     objecttolerance="10"
     gridtolerance="10"
     guidetolerance="10"
     inkscape:pageopacity="0"
     inkscape:pageshadow="2"
     inkscape:window-width="1920"
     inkscape:window-height="1008"
     id="namedview4"
     showgrid="false"
     inkscape:zoom="0.51643698"
     inkscape:cx="1270.2421"
     inkscape:cy="219.77512"
     inkscape:window-x="0"
     inkscape:window-y="40"
     inkscape:window-maximized="1"
     inkscape:current-layer="layer1"
     inkscape:showpageshadow="2"
     inkscape:pagecheckerboard="0"
     inkscape:deskcolor="#d1d1d1" />
  <g
     inkscape:groupmode="layer"
     id="layer2"
     inkscape:label="artwork"
     sodipodi:insensitive="true">
    <image
       xlink:href="../gfx_Pepper-and-Carrot_by-David-Revoy_E29P00.png"
       width="2481"
       height="663"
       id="image10"
       x="0"
       y="0" />
  </g>
  <g
     inkscape:groupmode="layer"
     id="layer1"
     inkscape:label="txt"
     style="display:inline">
    <text
       xml:space="preserve"
       style="font-style:normal;font-variant:normal;font-weight:normal;font-stretch:normal;font-size:72.5px;line-height:1.25;font-family:Lavi;-inkscape-font-specification:'Lavi, Normal';font-variant-ligatures:normal;font-variant-caps:normal;font-variant-numeric:normal;font-feature-settings:normal;text-align:center;letter-spacing:0px;word-spacing:0px;writing-mode:lr-tb;text-anchor:middle;display:inline;fill:#2b1100;fill-opacity:1;stroke:none"
       x="1239.438"
       y="582.47577"
       id="episode-title"><tspan
         sodipodi:role="line"
         id="tspan4180"
         x="1239.438"
         y="582.47577">.i 29 mo'o lisri le spogau be le munje</tspan></text>
    <path
       id="path8561"
       style="display:inline;opacity:1;vector-effect:none;fill:url(#radialGradient13682);fill-opacity:1;stroke:#ffffff;stroke-width:4.8;stroke-linecap:round;stroke-linejoin:bevel;stroke-miterlimit:4;stroke-dasharray:none;stroke-dashoffset:0;stroke-opacity:1;paint-order:stroke fill markers;filter:url(#filter1194)"
       d="m 2344.8891,339.91233 c 0,-10.79465 -12.0213,-15.21065 -18.1546,-15.21065 -6.624,0 -18.1547,4.416 -18.1547,15.21065 0,10.30399 11.5307,14.47465 18.1547,14.47465 6.1333,0 18.1546,-4.17066 18.1546,-14.47465 z m -126.101,-45.63194 c 0,50.5386 35.3279,58.38926 50.5385,58.38926 16.928,0 30.176,-10.30399 30.176,-28.9493 0,-9.07732 -3.68,-17.66397 -10.5493,-21.09864 0.4907,2.69867 0.736,5.64266 0.736,8.58666 0,12.75731 -5.3973,27.23196 -21.5893,27.23196 -17.4187,0 -25.024,-20.1173 -25.024,-52.01059 0,0 0.4907,-13.49332 4.9067,-36.55462 l 45.1412,-3.18933 6.1334,-14.47464 -46.6133,-3.92533 c 2.944,-11.77599 6.624,-24.77863 11.2853,-39.49861 l -58.3892,63.78657 20.6079,-1.22666 c -3.68,12.26665 -7.3599,27.96796 -7.3599,42.93327 z m -135.4242,-7.60532 c 0,40.47994 27.4773,63.54125 58.6346,63.54125 32.6293,0 57.6533,-25.02397 55.1999,-64.27725 -2.208,-36.79995 -24.5333,-61.82391 -56.6719,-61.82391 -33.3653,0 -57.1626,26.74129 -57.1626,62.55991 z m 29.44,1.96266 c 0,-28.70396 17.664,-45.87727 35.8186,-45.87727 20.3626,0 35.328,21.34397 35.328,47.5946 0,26.49597 -14.9654,44.15994 -34.592,44.15994 -19.3813,0 -36.5546,-17.66397 -36.5546,-45.87727 z m -29.9308,-52.25592 c -16.1919,-16.68265 -41.4612,-9.81332 -41.4612,-9.81332 0,0 -13.4934,3.67999 -24.7787,16.92797 l -0.4906,-14.96531 -41.216,7.85066 25.5147,11.53065 -6.624,83.41321 -16.4373,16.68265 63.5412,-5.64266 -21.5893,-10.79465 -2.208,-69.42924 c 9.8133,-12.51198 18.1546,-14.71998 18.1546,-14.71998 0,0 26.2507,-6.13332 31.8933,17.66398 z m -119.4771,35.81861 c 0,-31.15729 -18.4,-47.83993 -42.9333,-49.0666 -13.0026,0 -29.1946,2.69867 -44.1599,21.09864 l -15.2106,-23.30663 10.0586,58.63458 c 7.6053,-23.55196 23.0613,-38.02661 39.9893,-38.02661 19.872,0 25.76,23.0613 27.4773,42.68794 -8.832,-4.66133 -19.872,-5.64266 -27.4773,-5.64266 -33.12,0 -52.7466,18.39998 -52.7466,38.02661 0,21.09864 12.7573,34.83729 39.7439,32.87463 16.4374,-1.22667 28.704,-7.35999 38.272,-19.38131 l -2.6987,14.71998 45.1413,1.96266 -25.5146,-17.90931 c 5.888,-16.19197 10.0586,-39.98927 10.0586,-56.67192 z m -24.7786,38.27195 c -7.36,12.51198 -19.872,24.28797 -35.0826,24.28797 -11.5307,0 -17.664,-6.37866 -17.664,-18.64531 0,-11.03999 8.5866,-23.30664 26.7413,-24.04263 2.208,0 14.9653,0 26.496,4.41599 v 1.472 c 0,3.92533 -0.2454,8.09599 -0.4907,12.51198 z m -144.9917,-83.65855 13.7386,15.21064 -33.6106,42.93328 -0.736,-108.43718 -42.4426,7.11465 26.7413,13.24798 -8.5867,133.46115 -18.4,14.96532 h 59.8613 l -15.9467,-13.24799 -0.2453,-23.0613 c 27.968,39.49861 48.5759,40.72528 48.5759,40.72528 5.888,0 24.0427,-10.05865 29.9307,-45.63194 -14.72,19.62664 -27.7227,19.62664 -27.7227,19.62664 0,0 -17.4186,4.90666 -43.1786,-26.25063 l 51.0293,-48.57593 24.7786,-8.58666 z m -68.448,113.09851 c 0,-10.79465 -12.0213,-15.21065 -18.1547,-15.21065 -6.624,0 -18.1546,4.416 -18.1546,15.21065 0,10.30399 11.5306,14.47465 18.1546,14.47465 6.1334,0 18.1547,-4.17066 18.1547,-14.47465 z m -122.1758,-67.71191 c 0,-31.15729 -18.4,-47.83993 -42.9333,-49.0666 -13.0027,0 -29.1946,2.69867 -44.16,21.09864 l -15.2106,-23.30663 10.0586,58.63458 c 7.6054,-23.55196 23.0613,-38.02661 39.9893,-38.02661 19.872,0 25.76,23.0613 27.4773,42.68794 -8.832,-4.66133 -19.872,-5.64266 -27.4773,-5.64266 -33.1199,0 -52.7466,18.39998 -52.7466,38.02661 0,21.09864 12.7573,34.83729 39.744,32.87463 16.4373,-1.22667 28.7039,-7.35999 38.2719,-19.38131 l -2.6986,14.71998 45.1412,1.96266 -25.5146,-17.90931 c 5.888,-16.19197 10.0587,-39.98927 10.0587,-56.67192 z m -24.7787,38.27195 c -7.36,12.51198 -19.872,24.28797 -35.0826,24.28797 -11.5306,0 -17.664,-6.37866 -17.664,-18.64531 0,-11.03999 8.5867,-23.30664 26.7413,-24.04263 2.208,0 14.9653,0 26.496,4.41599 v 1.472 c 0,3.92533 -0.2453,8.09599 -0.4907,12.51198 z m -95.9253,-129.53582 -60.5973,8.09599 27.7226,12.02132 3.68,129.29048 -21.5893,16.92798 60.1066,-5.88799 -24.0426,-9.56799 z m -109.664,158.48511 -25.76,-15.94664 9.3226,-96.17053 -51.5199,8.83198 22.08,14.47465 4.1706,82.67722 -18.8906,14.71998 z m -15.2107,-141.06647 c 0,-9.81332 -8.3413,-17.66397 -17.9093,-17.66397 -10.0587,0 -18.1546,7.85065 -18.1546,17.66397 0,9.56799 8.0959,17.66398 18.1546,17.66398 9.568,0 17.9093,-8.09599 17.9093,-17.66398 z m -169.0347,88.31988 c 0,40.47994 27.4773,63.54125 58.6346,63.54125 32.6293,0 57.6533,-25.02397 55.1999,-64.27725 -2.208,-36.79995 -24.5333,-61.82391 -56.6719,-61.82391 -33.3653,0 -57.1626,26.74129 -57.1626,62.55991 z m 29.44,1.96266 c 0,-28.70396 17.664,-45.87727 35.8186,-45.87727 20.3626,0 35.328,21.34397 35.328,47.5946 0,26.49597 -14.9654,44.15994 -34.592,44.15994 -19.3813,0 -36.5546,-17.66397 -36.5546,-45.87727 z M 1112.09,370.57896 c -7.8507,0 -20.3627,-2.944 -30.6666,-18.39998 l 13.9839,50.78393 5.6427,-21.09864 c 5.152,1.96267 10.304,2.45333 14.72,2.45333 41.9519,0 53.2372,-45.14127 53.2372,-89.79187 0,-23.7973 -2.6986,-52.0106 -6.1333,-68.44791 l -47.5946,9.32265 30.912,13.24798 c -0.2454,31.89329 0.4906,121.93051 -34.1013,121.93051 z m 54.7092,-171.48777 c 0,-8.83199 -6.8693,-16.19198 -16.1919,-16.19198 -8.832,0 -15.9467,7.35999 -15.9467,16.19198 0,9.07732 7.1147,16.43731 15.9467,16.43731 9.3226,0 16.1919,-7.35999 16.1919,-16.43731 z m -115.5521,140.82114 c 0,-10.79465 -12.0213,-15.21065 -18.1547,-15.21065 -6.624,0 -18.1546,4.416 -18.1546,15.21065 0,10.30399 11.5306,14.47465 18.1546,14.47465 6.1334,0 18.1547,-4.17066 18.1547,-14.47465 z m -30.912,-103.53052 c -16.192,-16.68265 -41.46132,-9.81332 -41.46132,-9.81332 0,0 -13.4933,3.67999 -24.7786,16.92797 l -0.4907,-14.96531 -41.2159,7.85066 25.5146,11.53065 -6.624,83.41321 -16.4373,16.68265 63.5413,-5.64266 -21.5893,-10.79465 -2.208,-69.42924 c 9.8133,-12.51198 18.1546,-14.71998 18.1546,-14.71998 0,0 26.2506,-6.13332 31.89332,17.66398 z m -110.89042,45.3866 c -2.208,-28.70396 -20.8533,-54.95459 -47.1039,-56.67192 -37.78125,-2.45333 -58.63456,24.04263 -58.63456,60.59725 0,35.81861 20.85331,65.01324 55.93586,65.01324 26.2507,0 45.1413,-14.47465 45.1413,-29.68529 0,-6.62399 -2.208,-15.21065 -11.2853,-18.64531 2.6987,15.70131 -8.5867,36.30928 -30.912,36.30928 -16.9279,0 -26.74123,-18.15464 -30.9119,-35.81861 z m -79.97849,1.71733 c 0,-20.60797 5.88799,-45.14127 25.75989,-45.14127 8.832,0 20.1173,9.56799 26.9867,32.62929 l -52.50126,19.13597 c -0.24533,-2.208 -0.24533,-4.41599 -0.24533,-6.62399 z m -115.79704,-56.91725 -49.55727,8.34132 21.83464,8.58665 4.90666,128.30916 -18.15464,18.15464 58.87992,-10.05865 -24.04264,-13.00265 1.22667,-26.98663 c 7.60532,7.35999 18.39997,11.77599 30.42129,11.77599 27.96796,0 50.29326,-22.32531 50.29326,-66.97591 0,-36.79995 -21.09864,-57.40792 -45.87727,-58.14392 -13.24798,0 -23.30663,6.62399 -30.66662,15.45597 z m 26.25063,15.21064 c 14.71998,0 22.3253,17.66398 22.3253,40.23461 0,30.66663 -9.07732,53.72793 -30.91196,53.72793 -9.07732,0 -16.68264,-5.88799 -21.83463,-13.73865 l 2.45333,-59.61592 c 10.30398,-18.6453 23.55196,-20.60797 27.96796,-20.60797 z m -67.71191,97.64253 -25.75997,-15.94664 9.32266,-96.17053 -51.51993,8.83198 22.07997,14.47465 4.17066,82.67722 -18.89064,14.71998 z M 656.99722,198.35519 c 0,-9.81332 -8.34132,-17.66397 -17.90931,-17.66397 -10.05865,0 -18.15464,7.85065 -18.15464,17.66397 0,9.56799 8.09599,17.66398 18.15464,17.66398 9.56799,0 17.90931,-8.09599 17.90931,-17.66398 z m -132.72498,28.2133 -49.55727,8.34132 21.83464,8.58665 4.90666,128.30916 -18.15464,18.15464 58.87991,-10.05865 -24.04263,-13.00265 1.22667,-26.98663 c 7.60532,7.35999 18.39997,11.77599 30.42129,11.77599 27.96796,0 50.29326,-22.32531 50.29326,-66.97591 0,-36.79995 -21.09864,-57.40792 -45.87727,-58.14392 -13.24798,0 -23.30663,6.62399 -30.66662,15.45597 z m 26.25063,15.21064 c 14.71998,0 22.3253,17.66398 22.3253,40.23461 0,30.66663 -9.07732,53.72793 -30.91196,53.72793 -9.07732,0 -16.68264,-5.88799 -21.83464,-13.73865 l 2.45333,-59.61592 c 10.30399,-18.6453 23.55197,-20.60797 27.96797,-20.60797 z m -77.28007,98.1332 c 0,-10.79465 -12.02132,-15.21065 -18.15464,-15.21065 -6.62399,0 -18.15464,4.416 -18.15464,15.21065 0,10.30399 11.53065,14.47465 18.15464,14.47465 6.13332,0 18.15464,-4.17066 18.15464,-14.47465 z M 351.06699,272.20042 c 0,-31.15729 -18.39998,-47.83993 -42.93328,-49.0666 -13.00264,0 -29.19462,2.69867 -44.15993,21.09864 l -15.21065,-23.30663 10.05865,58.63458 c 7.60533,-23.55196 23.0613,-38.02661 39.98928,-38.02661 19.87197,0 25.75997,23.0613 27.4773,42.68794 -8.83199,-4.66133 -19.87198,-5.64266 -27.4773,-5.64266 -33.11995,0 -52.74659,18.39998 -52.74659,38.02661 0,21.09864 12.75731,34.83729 39.74394,32.87463 16.43731,-1.22667 28.70396,-7.35999 38.27195,-19.38131 l -2.69866,14.71998 45.14127,1.96266 -25.51463,-17.90931 c 5.88799,-16.19197 10.05865,-39.98927 10.05865,-56.67192 z m -24.77863,38.27195 c -7.35999,12.51198 -19.87198,24.28797 -35.08262,24.28797 -11.53065,0 -17.66398,-6.37866 -17.66398,-18.64531 0,-11.03999 8.58666,-23.30664 26.7413,-24.04263 2.208,0 14.96531,0 26.49596,4.41599 v 1.472 c 0,3.92533 -0.24533,8.09599 -0.49066,12.51198 z m -95.92542,-129.53582 -60.59725,8.09599 27.72263,12.02132 3.68,129.29048 -21.58931,16.92798 60.10659,-5.88799 -24.04264,-9.56799 z" />
    <g
       aria-label="la .piper. joi la .karot."
       id="text14"
       style="display:inline;fill:url(#radialGradient11469);filter:url(#filter1035-0);fill-opacity:1" />
  </g>
</svg>
