<?xml version="1.0" encoding="UTF-8" standalone="no"?>
<!-- Created with Inkscape (http://www.inkscape.org/) -->

<svg
   id="svg2"
   version="1.1"
   inkscape:version="1.3 (1:1.3+202307231459+0e150ed6c4)"
   width="2481"
   height="3503"
   sodipodi:docname="E38P03.svg"
   xmlns:inkscape="http://www.inkscape.org/namespaces/inkscape"
   xmlns:sodipodi="http://sodipodi.sourceforge.net/DTD/sodipodi-0.dtd"
   xmlns:xlink="http://www.w3.org/1999/xlink"
   xmlns="http://www.w3.org/2000/svg"
   xmlns:svg="http://www.w3.org/2000/svg"
   xmlns:rdf="http://www.w3.org/1999/02/22-rdf-syntax-ns#"
   xmlns:cc="http://creativecommons.org/ns#"
   xmlns:dc="http://purl.org/dc/elements/1.1/">
  <metadata
     id="metadata8">
    <rdf:RDF>
      <cc:Work
         rdf:about="">
        <dc:format>image/svg+xml</dc:format>
        <dc:type
           rdf:resource="http://purl.org/dc/dcmitype/StillImage" />
        <dc:title />
      </cc:Work>
    </rdf:RDF>
  </metadata>
  <defs
     id="defs6" />
  <sodipodi:namedview
     pagecolor="#ffffff"
     bordercolor="#666666"
     borderopacity="1"
     objecttolerance="10"
     gridtolerance="10"
     guidetolerance="10"
     inkscape:pageopacity="0"
     inkscape:pageshadow="2"
     inkscape:window-width="1920"
     inkscape:window-height="997"
     id="namedview4"
     showgrid="false"
     inkscape:zoom="0.30417501"
     inkscape:cx="1124.3527"
     inkscape:cy="2357.1956"
     inkscape:window-x="0"
     inkscape:window-y="0"
     inkscape:window-maximized="1"
     inkscape:current-layer="layer3"
     inkscape:showpageshadow="0"
     inkscape:pagecheckerboard="0"
     inkscape:deskcolor="#d1d1d1"
     inkscape:lockguides="true" />
  <g
     inkscape:groupmode="layer"
     id="layer2"
     inkscape:label="artwork"
     sodipodi:insensitive="true">
    <image
       xlink:href="../gfx_Pepper-and-Carrot_by-David-Revoy_E38P03.png"
       y="0"
       x="0"
       id="image10"
       height="3503"
       width="2481" />
  </g>
  <g
     inkscape:groupmode="layer"
     id="layer3"
     inkscape:label="speechbubbles">
    <path
       style="color:#000000;display:inline;overflow:visible;visibility:visible;fill:#b6b6b6;fill-opacity:1;fill-rule:nonzero;stroke:none;stroke-width:0.951398px;marker:none;enable-background:accumulate"
       d="m 1959.6866,2510.0546 c -33.74,0.7235 -67.8698,3.4064 -100.2303,13.919 -13.7306,4.8933 -24.7448,15.1059 -35.3666,24.9476 -8.0177,7.652 -15.6053,16.7866 -17.957,28.0907 -3.305,15.6077 -2.6614,31.7847 -0.7899,47.5407 1.597,11.2461 5.7496,22.1801 12.6255,31.1209 9.3074,12.5599 22.7492,21.3474 37.1573,26.3814 24.6328,9.6291 50.88,15.2192 77.2734,15.1163 17.0726,0.076 34.1455,-0.9913 51.2151,-0.2343 21.2522,0.4582 42.709,1.1335 63.7116,-2.9012 18.4281,-3.38 36.485,-9.0939 53.4826,-17.19 12.065,-6.1071 22.9146,-15.3794 29.5289,-27.5923 12.6144,-22.2633 13.0217,-51.4504 0.4971,-73.8532 -10.2511,-19.1678 -27.3233,-33.7072 -46.3018,-43.057 -19.7207,-9.9263 -41.4677,-14.5945 -63.1437,-17.1416 -20.4607,-2.7808 -41.0253,-5.3994 -61.7022,-5.147 z"
       id="path4040-4-5-3"
       inkscape:connector-curvature="0"
       sodipodi:nodetypes="zssssz" />
    <path
       style="color:#000000;display:inline;overflow:visible;visibility:visible;fill:#b6b6b6;fill-opacity:1;fill-rule:nonzero;stroke:none;stroke-width:0.753633px;marker:none;enable-background:accumulate"
       d="m 1935.7195,2663.2652 c -33.6833,0.5633 -67.6819,0.7602 -100.7781,7.784 -15.1243,3.4196 -29.3039,12.3007 -37.6149,25.5347 -12.4085,19.1877 -13.5999,44.8064 -3.5686,65.2577 5.8474,12.4533 15.6694,22.8998 27.5211,29.8827 8.8929,5.6153 19.0003,9.3868 29.4951,10.4883 26.4121,3.8118 53.0885,6.246 79.7986,5.7246 20.2074,-0.3782 40.4326,-2.1809 60.2711,-6.095 14.5837,-3.1197 29.1354,-8.8744 39.9133,-19.4648 8.3356,-8.1201 13.8542,-19.0472 15.3095,-30.5844 1.5226,-9.962 2.056,-20.0827 1.6623,-30.1495 -0.5338,-10.5309 -3.2536,-21.1946 -9.4398,-29.8879 -5.7082,-8.3146 -14.265,-14.2773 -23.4905,-18.1573 -13.2602,-5.6541 -27.7089,-7.6507 -41.9511,-9.0974 -12.3404,-1.1244 -24.7435,-1.3118 -37.128,-1.2357 z"
       id="path3365-33"
       inkscape:connector-curvature="0"
       sodipodi:nodetypes="csssssc" />
    <path
       style="color:#000000;display:inline;overflow:visible;visibility:visible;fill:#b6b6b6;fill-opacity:1;fill-rule:nonzero;stroke:none;stroke-width:1px;marker:none;enable-background:accumulate"
       d="m 1916.9709,2636.425 c -77.3885,-61.1144 -158.5933,-65.3254 -208.3967,7.4705 60.8364,-52.278 143.8743,-25.5157 174.2291,8.7518 16.5264,23.0336 34.1676,-16.2223 34.1676,-16.2223 z"
       id="path3978-4"
       inkscape:connector-curvature="0"
       sodipodi:nodetypes="cccc" />
    <path
       style="fill:#ffe4a0;fill-rule:evenodd;stroke:none;stroke-width:0.926229px;stroke-linecap:butt;stroke-linejoin:miter;stroke-opacity:1;fill-opacity:1"
       d="m 1580.7039,1438.6662 c 0.8832,-18.6517 11.4812,-52.846 27.3783,-59.0632 15.897,-6.2173 60.0555,-6.2173 68.8872,-3.1082 8.8318,3.1082 22.9624,25.9044 26.4951,35.2307 3.5328,9.3254 13.2476,42.4833 -2.6494,55.9542 -15.8971,13.4708 -31.7941,23.8325 -48.5745,22.7962 -16.7803,-1.0364 -50.3407,-8.29 -58.2891,-20.7235 -7.9486,-12.4345 -13.2476,-31.0862 -13.2476,-31.0862 z"
       id="path1355"
       inkscape:connector-curvature="0" />
    <path
       style="fill:#ffbace;fill-rule:evenodd;stroke:none;stroke-width:1.0008px;stroke-linecap:butt;stroke-linejoin:miter;stroke-opacity:1;fill-opacity:1"
       d="m 990.90474,1568.0445 c 21.80556,1.7287 53.73616,-6.4472 36.10716,-32.4733 34.2179,18.44 62.2729,15.2208 117.9335,-13.7337 -4.6253,40.3431 20.2521,36.5739 42.6795,28.8285 -21.5241,13.5758 17.1125,21.3551 37.8957,22.1177 -43.9646,29.3633 -20.8785,38.7018 -3.5547,49.7613 -43.2069,-8.1824 -32.7571,8.3967 -37.9179,17.7719 -37.0648,-21.2418 -64.0198,-16.2004 -85.3148,3.5544 -11.1376,-10.7432 -14.6336,-32.9475 -55.6917,1.1848 15.0982,-29.466 -4.6921,-26.3731 -36.7326,-11.8479 5.0215,-10.0365 34.8662,-25.2985 -15.40416,-23.696 31.39996,-9.5411 37.98466,-22.466 0,-41.4677 z"
       id="path4584"
       inkscape:connector-curvature="0"
       sodipodi:nodetypes="cccccccccccc" />
    <path
       style="color:#000000;display:inline;overflow:visible;visibility:visible;fill:#ffbace;fill-opacity:1;fill-rule:nonzero;stroke:none;stroke-width:1px;marker:none;enable-background:accumulate"
       d="m 1092.7675,1600.0887 c 32.5118,17.1362 69.5241,50.078 26.9344,88.4809 5.5785,26.0417 6.6264,46.3987 -29.7935,75.4959 22.4386,-26.2104 31.5308,-42.9396 20.1333,-80.7335 19.0733,-22.4288 9.883,-53.2464 -33.7163,-67.4214 -43.5993,-14.1751 -33.1079,-7.2586 -33.1079,-7.2586 l 36.9086,-13.1055 z"
       id="path5074"
       inkscape:connector-curvature="0"
       sodipodi:nodetypes="ccccsccc" />
    <path
       style="fill:#ffe4a0;stroke:none;stroke-width:0.999998;fill-opacity:1"
       d="m 1641.2389,1626.3692 c -23.6692,-22.5115 -16.2357,-35.8105 -6.3972,-46.3314 9.8357,-10.5203 11.5626,-22.6355 9.6907,-30.0237 -1.8719,-7.3881 -10.8731,-18.1272 -18.2553,-23.021 -7.3832,-4.8937 2.0396,-17.023 7.4292,-24.7215 7.1196,-10.1717 17.3403,-10.9015 17.3403,-10.9015 0,0 -8.6513,-43.4434 -16.6505,-33.7546 -7.9983,9.6888 -25.6203,43.7517 -27.4427,48.1059 -1.8214,4.3541 -5.0288,17.8771 0.4234,24.5114 5.4533,6.6341 17.5984,9.8769 21.8896,18.2273 4.4207,8.6023 3.0414,15.2934 -2.2485,24.1895 -5.2898,8.8961 -13.1942,29.5079 -2.6908,39.3668 10.5043,9.8587 16.9118,14.3528 16.9118,14.3528 z"
       id="path3023-9"
       inkscape:connector-curvature="0"
       sodipodi:nodetypes="csssscssssssc" />
  </g>
  <g
     inkscape:groupmode="layer"
     id="layer1"
     inkscape:label="txt">
    <g
       id="g1"
       style="fill:#b6ffdf;fill-opacity:1">
      <path
         style="color:#000000;display:inline;overflow:visible;visibility:visible;fill:#b6ffdf;fill-opacity:1;fill-rule:nonzero;stroke:none;stroke-width:0.999999px;marker:none;enable-background:accumulate"
         d="m 1263.1642,1831.4688 c -42.5257,-42.2705 -19.5395,-108.0364 17.6028,-114.3414 51.4374,-8.7316 -11.3103,20.5827 -11.3103,20.5827 0,0 -37.0509,43.6527 -6.2925,93.7587 z"
         id="path5002-7"
         inkscape:connector-curvature="0"
         sodipodi:nodetypes="cscc" />
      <path
         style="color:#000000;display:inline;overflow:visible;visibility:visible;fill:#b6ffdf;fill-opacity:1;fill-rule:nonzero;stroke:none;stroke-width:0.890773px;marker:none;enable-background:accumulate"
         d="m 1278.0576,1774.4879 c 8.1796,-16.0602 24.1275,-29.3422 31.1679,-0.9466 19.7705,-26.5449 29.2872,-17.7805 44.7391,1.1239 0.1383,-6.0512 5.2915,-30.2299 27.5261,-15.1611 -7.0485,-21.6843 14.4563,-23.6228 24.9588,-21.1971 -3.9911,-10.6046 2.0347,-18.5677 16.9979,-24.1724 -21.2054,-4.9612 -16.6696,-17.7684 11.057,-30.0738 -29.052,1.5272 -35.956,-13.3658 -13.6133,-32.9653 -10.7296,0.2217 -47.9124,28.2575 -43.6847,-26.8273 -12.8385,18.6404 -36.3854,40.1686 -59.1427,5.4704 -4.6039,14.8907 -19.913,25.3723 -38.8567,7.2641 -2.3251,14.5838 -22.8606,17.5728 -30.7296,15.3392 16.8083,14.6139 17.2095,24.5713 -3.441,27.9322 37.5629,25.7028 8.6597,23.8629 3.721,31.6471 28.3086,7.5122 24.1558,21.659 11.7503,28.3253 24.9128,-18.3444 19.2701,13.9388 17.5499,34.2414 z"
         id="path3549-3-8"
         inkscape:connector-curvature="0"
         sodipodi:nodetypes="cccccccccccccccc" />
    </g>
    <text
       id="text4178-0"
       y="1603.2634"
       x="1108.3003"
       style="font-style:normal;font-variant:normal;font-weight:normal;font-stretch:normal;font-size:37.3333px;line-height:0%;font-family:Lavi;-inkscape-font-specification:Lavi;text-align:center;letter-spacing:0px;word-spacing:0px;text-anchor:middle;fill:#000000;fill-opacity:1;stroke:none"
       xml:space="preserve"><tspan
         y="1603.2634"
         x="1108.3003"
         style="font-size:37.3333px;line-height:1.25"
         sodipodi:role="line"
         id="tspan4245-6-6">Jaz prvi!</tspan></text>
    <text
       id="text4178-0-1"
       y="1709.7847"
       x="1325.7838"
       style="font-style:normal;font-variant:normal;font-weight:normal;font-stretch:normal;font-size:32.7584px;line-height:0%;font-family:Lavi;-inkscape-font-specification:Lavi;text-align:center;letter-spacing:0px;word-spacing:0px;text-anchor:middle;fill:#000000;fill-opacity:1;stroke:none;stroke-width:0.999996"
       xml:space="preserve"
       transform="scale(1.0080992,0.99196588)"><tspan
         y="1709.7847"
         x="1325.7838"
         style="font-size:32.7584px;line-height:1.25;stroke-width:0.999996"
         sodipodi:role="line"
         id="tspan451">Ne, jaz!</tspan><tspan
         y="1750.7327"
         x="1325.7838"
         style="font-size:32.7584px;line-height:1.25;stroke-width:0.999996"
         sodipodi:role="line"
         id="tspan363">Jaz!</tspan></text>
    <text
       id="text4178-0-7"
       y="1453.8214"
       x="1644.9895"
       style="font-style:normal;font-variant:normal;font-weight:normal;font-stretch:normal;font-size:18.9857px;line-height:0%;font-family:Lavi;-inkscape-font-specification:Lavi;text-align:center;letter-spacing:0px;word-spacing:0px;text-anchor:middle;fill:#000000;fill-opacity:1;stroke:none;stroke-width:0.999996"
       xml:space="preserve"><tspan
         y="1453.8214"
         x="1644.9895"
         style="font-size:64.3559px;line-height:1.25;stroke-width:0.999996"
         sodipodi:role="line"
         id="tspan4245-6-6-9">?</tspan></text>
    <text
       id="text4178-0-2"
       y="2597.2371"
       x="1965.8809"
       style="font-style:normal;font-variant:normal;font-weight:normal;font-stretch:normal;line-height:0%;font-family:Lavi;-inkscape-font-specification:Lavi;text-align:center;letter-spacing:0px;word-spacing:0px;text-anchor:middle;fill:#000000;fill-opacity:1;stroke:none"
       xml:space="preserve"><tspan
         y="2597.2371"
         x="1965.8809"
         style="font-size:40.6767px;line-height:1.25"
         sodipodi:role="line"
         id="tspan423">Mi pojasniš, kaj</tspan><tspan
         y="2648.083"
         x="1965.8809"
         style="font-size:40.6767px;line-height:1.25"
         sodipodi:role="line"
         id="tspan427">se tukaj greš?</tspan></text>
    <text
       id="text4178-0-2-2"
       y="2726.178"
       x="1919.9323"
       style="font-style:normal;font-variant:normal;font-weight:normal;font-stretch:normal;line-height:0%;font-family:Lavi;-inkscape-font-specification:Lavi;text-align:center;letter-spacing:0px;word-spacing:0px;text-anchor:middle;fill:#000000;fill-opacity:1;stroke:none"
       xml:space="preserve"><tspan
         y="2726.178"
         x="1919.9323"
         style="font-size:40.6767px;line-height:1.25"
         sodipodi:role="line"
         id="tspan6456">Že mesece</tspan><tspan
         y="2777.0239"
         x="1919.9323"
         style="font-size:40.6767px;line-height:1.25"
         sodipodi:role="line"
         id="tspan2997">te iščemo!</tspan></text>
  </g>
</svg>
