<?xml version="1.0" encoding="UTF-8" standalone="no"?>
<!-- Created with Inkscape (http://www.inkscape.org/) -->

<svg
   xmlns:dc="http://purl.org/dc/elements/1.1/"
   xmlns:cc="http://creativecommons.org/ns#"
   xmlns:rdf="http://www.w3.org/1999/02/22-rdf-syntax-ns#"
   xmlns:svg="http://www.w3.org/2000/svg"
   xmlns="http://www.w3.org/2000/svg"
   xmlns:xlink="http://www.w3.org/1999/xlink"
   xmlns:sodipodi="http://sodipodi.sourceforge.net/DTD/sodipodi-0.dtd"
   xmlns:inkscape="http://www.inkscape.org/namespaces/inkscape"
   id="svg2"
   version="1.1"
   inkscape:version="0.92.2 (5c3e80d, 2017-08-06)"
   width="2481"
   height="3503"
   sodipodi:docname="E26P01.svg"
   inkscape:export-filename="E:\Users\jamesmichael\Downloads\Compressed\eps\ep26_Books-Are-Great_lang-pack\lang\ph\E26P01.png"
   inkscape:export-xdpi="90"
   inkscape:export-ydpi="90">
  <metadata
     id="metadata8">
    <rdf:RDF>
      <cc:Work
         rdf:about="">
        <dc:format>image/svg+xml</dc:format>
        <dc:type
           rdf:resource="http://purl.org/dc/dcmitype/StillImage" />
        <dc:title />
      </cc:Work>
    </rdf:RDF>
  </metadata>
  <defs
     id="defs6">
    <clipPath
       clipPathUnits="userSpaceOnUse"
       id="clipPath8371">
      <path
         style="fill:#ffffff;fill-opacity:1;stroke:none;stroke-width:1px;stroke-linecap:butt;stroke-linejoin:miter;stroke-opacity:1"
         d="m 1025.5603,2083.878 c 5.4848,-1.8589 19.7271,-19.3456 7.4113,-41.6562 -5.3257,-5.0633 -3.8334,-1.9592 -24.7894,-10.7335 -22.0483,-9.0297 -24.86904,-12.6928 -30.92262,-16.3558 -13.97059,-8.6732 -27.94117,-12.1255 -41.91176,-26.0671 -26.93784,-6.8796 -38.47447,-4.9656 -51.90207,9.0739 l -1.25431,-290.1893 393.20516,4.0889 v 360.8501 z"
         id="path8373"
         inkscape:connector-curvature="0"
         sodipodi:nodetypes="cccccccccc" />
    </clipPath>
  </defs>
  <sodipodi:namedview
     pagecolor="#ffffff"
     bordercolor="#666666"
     borderopacity="1"
     objecttolerance="10"
     gridtolerance="10"
     guidetolerance="10"
     inkscape:pageopacity="0"
     inkscape:pageshadow="2"
     inkscape:window-width="1920"
     inkscape:window-height="1033"
     id="namedview4"
     showgrid="false"
     inkscape:zoom="0.17293105"
     inkscape:cx="712.12978"
     inkscape:cy="2289.7387"
     inkscape:window-x="0"
     inkscape:window-y="47"
     inkscape:window-maximized="0"
     inkscape:current-layer="layer1"
     inkscape:snap-global="false" />
  <g
     inkscape:groupmode="layer"
     id="layer2"
     inkscape:label="artwork"
     sodipodi:insensitive="true">
    <image
       sodipodi:absref="E:\Users\jamesmichael\Downloads\Compressed\eps\ep26_Books-Are-Great_lang-pack\lang\ph\../gfx_Pepper-and-Carrot_by-David-Revoy_E26P01.png"
       xlink:href="../gfx_Pepper-and-Carrot_by-David-Revoy_E26P01.png"
       y="0"
       x="0"
       id="image10"
       height="3503"
       width="2481" />
  </g>
  <g
     inkscape:groupmode="layer"
     id="layer3"
     inkscape:label="speechbubbles"
     style="display:inline;opacity:1">
    <path
       style="fill:#ffffff;fill-opacity:1;stroke:none;stroke-width:1.95017838"
       d="m 111.46324,2331.3844 c -0.60596,-102.2606 14.74897,-150.3455 28.34048,-174.3825 22.5522,-39.8846 158.19961,-47.6849 185.22773,32.6814 27.17033,80.7893 21.12821,238.3393 -31.12107,303.0011 -52.24927,64.6615 -121.044,18.5447 -135.18206,3.6769 -14.13792,-14.8679 -46.72273,-54.3459 -47.26508,-164.9769 z"
       id="path3659-8"
       inkscape:connector-curvature="0"
       sodipodi:nodetypes="cssssc" />
    <path
       style="color:#000000;display:inline;overflow:visible;visibility:visible;fill:#ffffff;fill-opacity:1;fill-rule:nonzero;stroke:none;stroke-width:0.77001458px;marker:none;enable-background:accumulate"
       d="m 237.30136,2507.3619 c 10.3238,-10.3938 31.88951,-23.905 38.31071,-24.6001 3.86385,5.8382 9.15409,11.2739 13.15813,15.5082 10.91429,-2.0755 36.51046,-30.2374 35.4861,-38.5953 4.58087,21.0382 -12.35485,52.4305 -31.83256,54.6881 -6.86039,-5.6629 -9.93527,-9.1535 -13.65124,-12.1278 -10.20321,0.757 -20.83022,19.4119 -20.83022,19.4119 z"
       id="path5066"
       inkscape:connector-curvature="0"
       sodipodi:nodetypes="cccccccc" />
    <path
       style="color:#000000;display:inline;overflow:visible;visibility:visible;fill:#ffffff;fill-opacity:1;fill-rule:nonzero;stroke:none;stroke-width:0.92893946px;marker:none;enable-background:accumulate"
       d="m 958.80923,1624.2824 c 46.23467,-29.2913 143.74197,-28.261 164.54757,-19.8919 38.9017,13.0876 45.8444,44.4438 45.8444,84.1964 0,39.7524 23.6227,321.9169 -24.9239,362.7154 -48.5464,40.7985 -138.9565,27.9558 -195.59387,-7.6122 -56.6375,-35.5681 -45.0788,-233.0396 -45.0788,-233.0396 0,0 -3.7445,-141.385 55.2046,-186.3681 z"
       id="path3992"
       inkscape:connector-curvature="0"
       sodipodi:nodetypes="ccscccc"
       clip-path="url(#clipPath8371)" />
    <path
       style="color:#000000;display:inline;overflow:visible;visibility:visible;fill:#ffffff;fill-opacity:1;fill-rule:nonzero;stroke:none;stroke-width:1.14540434px;marker:none;enable-background:accumulate"
       d="m 2170.7482,1703.8911 c 34.0313,20.6988 99.5679,36.0688 76.5233,188.5156 -12.3439,81.6587 -11.3891,174.5 -130.4988,164.8724 -119.1097,-9.6275 -103.7851,-144.8082 -105.1863,-172.4877 -1.4014,-27.6793 -0.017,-158.2511 41.8698,-182.175 26.2209,-14.9759 85.6736,-19.382 117.292,1.2747 z"
       id="path4546-6"
       inkscape:connector-curvature="0"
       sodipodi:nodetypes="cssssc" />
    <path
       style="color:#000000;display:inline;overflow:visible;visibility:visible;opacity:1;vector-effect:none;fill:#ffffff;fill-opacity:1;fill-rule:nonzero;stroke:none;stroke-width:1.02327919;stroke-linecap:butt;stroke-linejoin:miter;stroke-miterlimit:4;stroke-dasharray:none;stroke-dashoffset:0;stroke-opacity:1;marker:none;paint-order:stroke fill markers;enable-background:accumulate"
       d="m 1131.9914,2473.7695 c -50.7299,-33.6603 -149.65314,-30.0539 -172.48154,-20.4366 -34.1094,-5.6399 -62.4869,15.5163 -57.0711,68.5227 4.6491,45.5027 -29.6046,372.5027 23.6617,419.3867 53.2664,46.8838 156.32804,44.8749 218.47214,4.0017 62.1442,-40.8733 44.4898,-268.3106 44.4898,-268.3106 0.3529,-0.2148 20.1295,-159.091 -57.071,-203.1639 z"
       id="path3992-0"
       inkscape:connector-curvature="0"
       sodipodi:nodetypes="ccscscc" />
    <path
       style="color:#000000;display:inline;overflow:visible;visibility:visible;fill:#ffffff;fill-opacity:1;fill-rule:nonzero;stroke:none;stroke-width:1.1471467px;marker:none;enable-background:accumulate"
       d="m 1107.7917,2663.674 c -41.0805,41.3971 -74.3212,126.4523 -32.6058,262.3106 -64.481,-107.4324 -40.7404,-218.5665 -31.5488,-251.0486 9.1915,-32.4819 64.1546,-11.262 64.1546,-11.262 z"
       id="path4008"
       inkscape:connector-curvature="0" />
    <path
       style="color:#000000;display:inline;overflow:visible;visibility:visible;fill:#ffffff;fill-opacity:1;fill-rule:nonzero;stroke:none;stroke-width:0.62355822px;marker:none;enable-background:accumulate"
       d="m 1867.9313,2763.8816 c -55.5929,17.2436 -96.9351,49.5527 -44.2242,77.7726 -82.5768,-29.3463 -26.6109,-63.2491 -8.8926,-72.3842 10.7977,-9.9563 53.1168,-5.3884 53.1168,-5.3884 z"
       id="path4008-0"
       inkscape:connector-curvature="0"
       sodipodi:nodetypes="cccc" />
    <path
       style="color:#000000;display:inline;overflow:visible;visibility:visible;opacity:1;fill:#ffffff;fill-opacity:1;fill-rule:nonzero;stroke:none;stroke-width:1.26750028px;marker:none;enable-background:accumulate"
       d="m 2051.6903,2545.0187 c -7.1672,-71.3638 -28.2207,-84.4432 -79.6843,-104.4469 -51.4635,-20.0039 -200.3758,2.7224 -213.2068,16.7599 -5.1243,9.1215 -11.4951,163.7416 -3.0975,225.5807 8.3978,61.8392 -1.1938,89.107 79.6959,114.1015 70.0961,21.6596 179.683,-10.5337 201.2262,-90.3524 21.5433,-79.8186 15.0665,-161.6428 15.0665,-161.6428 z"
       id="path3970"
       inkscape:connector-curvature="0"
       sodipodi:nodetypes="csccssc" />
  </g>
  <g
     inkscape:groupmode="layer"
     id="layer1"
     inkscape:label="txt">
    <text
       xml:space="preserve"
       style="font-style:normal;font-variant:normal;font-weight:normal;font-stretch:normal;line-height:0%;font-family:Lavi;-inkscape-font-specification:Lavi;text-align:center;letter-spacing:0px;word-spacing:0px;text-anchor:middle;fill:#000000;fill-opacity:1;stroke:none"
       x="223.81172"
       y="2240.0051"
       id="text4246"><tspan
         sodipodi:role="line"
         style="font-size:45px;line-height:1.25"
         x="231.72188"
         y="2240.0051"
         id="tspan8284">Astig </tspan><tspan
         sodipodi:role="line"
         style="font-size:45px;line-height:1.25"
         x="231.72188"
         y="2296.2551"
         id="tspan8353">talaga </tspan><tspan
         sodipodi:role="line"
         style="font-size:45px;line-height:1.25"
         x="231.72188"
         y="2352.5051"
         id="tspan8355">ang mga </tspan><tspan
         sodipodi:role="line"
         style="font-size:45px;line-height:1.25"
         x="223.81172"
         y="2408.7551"
         id="tspan8357">libro!</tspan></text>
    <text
       xml:space="preserve"
       style="font-style:normal;font-variant:normal;font-weight:normal;font-stretch:normal;line-height:0%;font-family:Lavi;-inkscape-font-specification:Lavi;text-align:center;letter-spacing:0px;word-spacing:0px;text-anchor:middle;fill:#000000;fill-opacity:1;stroke:none"
       x="2124.8657"
       y="1835.4033"
       id="text4246-3-5-9"><tspan
         sodipodi:role="line"
         style="font-size:45px;line-height:1.25"
         x="2132.7759"
         y="1835.4033"
         id="tspan958">&quot; Dungeon  </tspan><tspan
         sodipodi:role="line"
         style="font-size:45px;line-height:1.25"
         x="2132.7759"
         y="1891.6533"
         id="tspan8308">Handbook </tspan><tspan
         sodipodi:role="line"
         style="font-size:45px;line-height:1.25"
         x="2124.8657"
         y="1947.9033"
         id="tspan8310">      101   &quot;</tspan></text>
    <text
       xml:space="preserve"
       style="font-style:normal;font-variant:normal;font-weight:normal;font-stretch:normal;line-height:0%;font-family:Lavi;-inkscape-font-specification:Lavi;text-align:center;letter-spacing:0px;word-spacing:0px;text-anchor:middle;fill:#000000;fill-opacity:1;stroke:none"
       x="1040.2064"
       y="1776.496"
       id="text4246-3-3"><tspan
         sodipodi:role="line"
         style="font-size:44.95333481px;line-height:1"
         x="1048.1084"
         y="1776.496"
         id="tspan1107">Madami </tspan><tspan
         sodipodi:role="line"
         style="font-size:44.95333481px;line-height:1"
         x="1048.1084"
         y="1821.4493"
         id="tspan8302">ka talagang </tspan><tspan
         sodipodi:role="line"
         style="font-size:44.95333481px;line-height:1"
         x="1040.2064"
         y="1866.4026"
         id="tspan8363">matututunan.</tspan><tspan
         sodipodi:role="line"
         style="font-size:44.95333481px;line-height:1"
         x="1048.1084"
         y="1911.356"
         id="tspan8300">Tulad sa </tspan><tspan
         sodipodi:role="line"
         style="font-size:44.95333481px;line-height:1"
         x="1048.1084"
         y="1956.3093"
         id="tspan8365">journal </tspan><tspan
         sodipodi:role="line"
         style="font-size:44.95333481px;line-height:1"
         x="1040.2064"
         y="2001.2627"
         id="tspan8367">na to</tspan><tspan
         sodipodi:role="line"
         style="font-size:44.95333481px;line-height:1"
         x="1040.2064"
         y="2046.2159"
         id="tspan8375">   ...</tspan></text>
    <text
       xml:space="preserve"
       style="font-style:normal;font-variant:normal;font-weight:normal;font-stretch:normal;font-size:11.22926044px;line-height:0%;font-family:Lavi;-inkscape-font-specification:Lavi;text-align:center;letter-spacing:0px;word-spacing:0px;text-anchor:middle;fill:#000000;fill-opacity:1;stroke:none;stroke-width:0.93577176"
       x="1057.8982"
       y="2479.6399"
       id="text4246-3-3-1"
       transform="scale(0.98638542,1.0138025)"><tspan
         sodipodi:role="line"
         style="font-size:42.10972977px;line-height:1;stroke-width:0.93577176"
         x="1065.3003"
         y="2479.6399"
         id="tspan8377">&quot;    ...      </tspan><tspan
         sodipodi:role="line"
         style="font-size:42.10972977px;line-height:1;stroke-width:0.93577176"
         x="1065.3003"
         y="2521.7495"
         id="tspan8395">iwasasang </tspan><tspan
         sodipodi:role="line"
         style="font-size:42.10972977px;line-height:1;stroke-width:0.93577176"
         x="1065.3003"
         y="2563.8594"
         id="tspan8379">tumingin sa </tspan><tspan
         sodipodi:role="line"
         style="font-size:42.10972977px;line-height:1;stroke-width:0.93577176"
         x="1057.8982"
         y="2575.9387"
         id="tspan8419" /><tspan
         sodipodi:role="line"
         style="font-size:42.10972977px;line-height:1;stroke-width:0.93577176"
         x="1065.3003"
         y="2605.969"
         id="tspan8421">mata ng gate, </tspan><tspan
         sodipodi:role="line"
         style="font-size:42.10972977px;line-height:1;stroke-width:0.93577176"
         x="1065.3003"
         y="2648.0789"
         id="tspan8331">kung hindi ka </tspan><tspan
         sodipodi:role="line"
         style="font-size:42.10972977px;line-height:1;stroke-width:0.93577176"
         x="1065.3003"
         y="2690.1885"
         id="tspan8385">naman bisita, </tspan><tspan
         sodipodi:role="line"
         style="font-size:42.10972977px;line-height:1;stroke-width:0.93577176"
         x="1065.3003"
         y="2732.2983"
         id="tspan8407">at tresspassing </tspan><tspan
         sodipodi:role="line"
         style="font-size:42.10972977px;line-height:1;stroke-width:0.93577176"
         x="1065.3003"
         y="2774.408"
         id="tspan8321">ka, susunugin </tspan><tspan
         sodipodi:role="line"
         style="font-size:42.10972977px;line-height:1;stroke-width:0.93577176"
         x="1065.3003"
         y="2816.5178"
         id="tspan8333">ka nito ng </tspan><tspan
         sodipodi:role="line"
         style="font-size:42.10972977px;line-height:1;stroke-width:0.93577176"
         x="1057.8982"
         y="2858.6274"
         id="tspan8415">   buhay...  &quot;</tspan></text>
    <text
       xml:space="preserve"
       style="font-style:normal;font-variant:normal;font-weight:normal;font-stretch:normal;line-height:0%;font-family:Lavi;-inkscape-font-specification:Lavi;text-align:center;letter-spacing:0px;word-spacing:0px;text-anchor:middle;fill:#000000;fill-opacity:1;stroke:none"
       x="1901.6539"
       y="2553.8435"
       id="text4246-3-3-1-2"><tspan
         sodipodi:role="line"
         style="font-size:45px;line-height:1"
         x="1909.5641"
         y="2553.8435"
         id="tspan1230">Pero kung </tspan><tspan
         sodipodi:role="line"
         style="font-size:45px;line-height:1"
         x="1909.5641"
         y="2598.8435"
         id="tspan8351">didikit ka </tspan><tspan
         sodipodi:role="line"
         style="font-size:45px;line-height:1"
         x="1901.6539"
         y="2643.8435"
         id="tspan8435">sa pader</tspan><tspan
         sodipodi:role="line"
         style="font-size:45px;line-height:1"
         x="1909.5641"
         y="2688.8435"
         id="tspan8349">mula sa </tspan><tspan
         sodipodi:role="line"
         style="font-size:45px;line-height:1"
         x="1901.6539"
         y="2733.8435"
         id="tspan8437">gilid...</tspan></text>
    <text
       xml:space="preserve"
       style="font-style:normal;font-weight:normal;font-size:40px;line-height:1.25;font-family:sans-serif;letter-spacing:0px;word-spacing:0px;fill:#000000;fill-opacity:1;stroke:none"
       x="1055.3339"
       y="2521.395"
       id="text8399"><tspan
         sodipodi:role="line"
         id="tspan8397"
         x="1055.3339"
         y="2521.395"> </tspan></text>
  </g>
</svg>
