<?xml version="1.0" encoding="UTF-8" standalone="no"?>
<!-- Created with Inkscape (http://www.inkscape.org/) -->

<svg
   id="svg2"
   version="1.1"
   inkscape:version="1.1 (c68e22c387, 2021-05-23)"
   width="2481"
   height="3503"
   sodipodi:docname="E37P05.svg"
   xmlns:inkscape="http://www.inkscape.org/namespaces/inkscape"
   xmlns:sodipodi="http://sodipodi.sourceforge.net/DTD/sodipodi-0.dtd"
   xmlns:xlink="http://www.w3.org/1999/xlink"
   xmlns="http://www.w3.org/2000/svg"
   xmlns:svg="http://www.w3.org/2000/svg"
   xmlns:rdf="http://www.w3.org/1999/02/22-rdf-syntax-ns#"
   xmlns:cc="http://creativecommons.org/ns#"
   xmlns:dc="http://purl.org/dc/elements/1.1/">
  <metadata
     id="metadata8">
    <rdf:RDF>
      <cc:Work
         rdf:about="">
        <dc:format>image/svg+xml</dc:format>
        <dc:type
           rdf:resource="http://purl.org/dc/dcmitype/StillImage" />
        <dc:title />
      </cc:Work>
    </rdf:RDF>
  </metadata>
  <defs
     id="defs6">
    <filter
       inkscape:label="Magmah-FX"
       inkscape:menu="Distort"
       inkscape:menu-tooltip="Horizontal rippling of edges"
       style="color-interpolation-filters:sRGB"
       id="filter4265-7"
       y="0"
       x="0"
       width="1"
       height="1">
      <feTurbulence
         numOctaves="1"
         baseFrequency="0.002 0.107"
         id="feTurbulence4267-7" />
      <feColorMatrix
         values="5 0 0 0 0 0 0 0 0 0 0 0 0 0 0 0 0 0 4 0 "
         result="result91"
         id="feColorMatrix4269-1" />
      <feDisplacementMap
         yChannelSelector="A"
         xChannelSelector="R"
         scale="14.3"
         in="SourceGraphic"
         in2="result91"
         id="feDisplacementMap4271-2" />
    </filter>
    <filter
       style="color-interpolation-filters:sRGB"
       inkscape:label="Magmah-spell-glow"
       id="filter4751"
       x="-0.033441791"
       y="-0.12562146"
       width="1.0668836"
       height="1.2512429">
      <feFlood
         flood-opacity="1"
         flood-color="rgb(255,255,255)"
         result="flood"
         id="feFlood4753" />
      <feComposite
         in="flood"
         in2="SourceGraphic"
         operator="in"
         result="composite1"
         id="feComposite4755" />
      <feGaussianBlur
         in="composite1"
         stdDeviation="5.4"
         result="blur"
         id="feGaussianBlur4757" />
      <feOffset
         dx="0"
         dy="0"
         result="offset"
         id="feOffset4759" />
      <feComposite
         in="SourceGraphic"
         in2="offset"
         operator="over"
         result="composite2"
         id="feComposite4761" />
    </filter>
    <filter
       inkscape:label="Magmah-FX"
       inkscape:menu="Distort"
       inkscape:menu-tooltip="Horizontal rippling of edges"
       style="color-interpolation-filters:sRGB"
       id="filter4265-7-5"
       y="0"
       x="0"
       width="1"
       height="1">
      <feTurbulence
         numOctaves="1"
         baseFrequency="0.002 0.107"
         id="feTurbulence4267-7-3" />
      <feColorMatrix
         values="5 0 0 0 0 0 0 0 0 0 0 0 0 0 0 0 0 0 4 0 "
         result="result91"
         id="feColorMatrix4269-1-5" />
      <feDisplacementMap
         yChannelSelector="A"
         xChannelSelector="R"
         scale="14.3"
         in="SourceGraphic"
         in2="result91"
         id="feDisplacementMap4271-2-6" />
    </filter>
  </defs>
  <sodipodi:namedview
     pagecolor="#ffffff"
     bordercolor="#666666"
     borderopacity="1"
     objecttolerance="10"
     gridtolerance="10"
     guidetolerance="10"
     inkscape:pageopacity="0"
     inkscape:pageshadow="2"
     inkscape:window-width="1366"
     inkscape:window-height="745"
     id="namedview4"
     showgrid="false"
     inkscape:zoom="0.4"
     inkscape:cx="942.5"
     inkscape:cy="3081.25"
     inkscape:window-x="-8"
     inkscape:window-y="-8"
     inkscape:window-maximized="1"
     inkscape:current-layer="layer3"
     inkscape:pagecheckerboard="0"
     inkscape:showpageshadow="0"
     inkscape:deskcolor="#d1d1d1" />
  <g
     inkscape:groupmode="layer"
     id="layer2"
     inkscape:label="artwork"
     sodipodi:insensitive="true">
    <image
       xlink:href="../gfx_Pepper-and-Carrot_by-David-Revoy_E37P05.png"
       y="0"
       x="0"
       id="image10"
       height="3503"
       width="2481" />
  </g>
  <g
     inkscape:groupmode="layer"
     id="layer3"
     inkscape:label="speechbubbles"
     style="display:inline">
    <path
       style="fill:#ffffff;stroke:none;stroke-width:0.75896"
       d="m 398.28776,328.05131 c -32.50907,0.87745 -64.87308,8.371 -94.36813,22.08176 -19.79361,11.41744 -30.2288,37.57841 -22.27663,59.25867 5.18949,14.84132 17.74323,26.07636 31.87482,32.32604 24.15804,11.55249 51.26524,14.65106 77.7238,15.65341 26.4149,0.9798 53.02587,0.5484 79.16333,-3.70855 17.03013,-3.36159 33.61514,-10.74126 46.32952,-22.73243 11.4226,-10.95627 18.99687,-26.80807 17.45011,-42.85162 -1.14125,-12.02368 -8.2502,-22.76664 -17.6153,-30.09633 -9.83995,-7.70344 -21.48745,-12.65095 -33.07922,-17.07836 -27.20294,-9.84809 -56.42709,-12.8829 -85.2023,-12.85259 z"
       id="path3280-81"
       inkscape:connector-curvature="0"
       sodipodi:nodetypes="csssc" />
    <path
       style="display:inline;fill:#ffffff;stroke:none;stroke-width:0.75896"
       d="m 339.75781,240.44336 c -22.99099,1.1501 -46.39908,3.2898 -67.96632,11.90454 -10.74883,4.21989 -21.21342,10.82965 -27.09165,21.06986 -8.02625,13.2182 -9.28045,30.84453 -1.54298,44.47778 7.1822,12.16051 20.41938,19.84459 34.12634,22.21384 25.21039,5.76801 50.96845,8.55332 76.6413,11.33177 28.62272,1.74222 57.97145,-2.72946 83.91915,-15.25464 10.27213,-5.31996 19.30352,-14.05281 22.83601,-25.29306 5.14556,-14.35754 1.86662,-31.7808 -9.22021,-42.50248 -7.36453,-7.00558 -16.77538,-11.26472 -25.99307,-15.25055 -16.69047,-6.76025 -34.61442,-9.78978 -52.44841,-11.59339 -11.05507,-0.98861 -22.16602,-1.21511 -33.26016,-1.10367 z"
       id="path3280-81-3"
       inkscape:connector-curvature="0"
       sodipodi:nodetypes="csssc" />
    <path
       style="color:#000000;display:inline;overflow:visible;visibility:visible;fill:#ffffff;fill-opacity:1;fill-rule:nonzero;stroke:none;stroke-width:2.02177px;marker:none;enable-background:accumulate"
       d="m 2010.6417,253.23827 c -73.0654,0.51735 -146.9419,5.0691 -217.0609,22.07105 -34.5441,8.63225 -68.298,22.36612 -91.84,44.43704 -23.58,23.56945 -35.8266,54.67468 -29.7703,84.4561 6.7337,20.32368 26.5095,36.48518 49.0474,47.10106 34.3118,16.80597 74.6543,23.73079 114.3006,27.95171 54.1564,5.32787 108.6947,7.86273 163.208,9.62303 80.2813,1.47143 162.2706,-1.72622 238.7765,-22.3995 31.4057,-8.51946 62.3309,-19.80285 87.3099,-37.25304 13.5541,-9.63003 25.6161,-21.97084 27.6785,-36.62014 2.3105,-14.73302 -1.983,-29.58153 -8.012,-43.47851 -10.5621,-23.01855 -31.618,-42.93036 -58.5524,-55.39695 -41.3821,-19.91557 -89.4388,-29.26332 -137.0975,-34.69677 -45.6753,-5.07892 -91.9163,-5.99315 -137.9878,-5.79508 z"
       id="path5026-3"
       inkscape:connector-curvature="0"
       sodipodi:nodetypes="csssc" />
    <path
       style="color:#000000;display:inline;overflow:visible;visibility:visible;fill:#ffffff;fill-opacity:1;fill-rule:nonzero;stroke:none;stroke-width:0.959031px;marker:none;enable-background:accumulate"
       d="m 1548.4425,883.45721 c -29.017,0.069 -58.8305,6.18665 -83.9678,23.75451 -12.734,8.67955 -23.2724,21.72671 -29.2938,37.42545 -12.3789,31.10056 -8.2188,69.02063 7.9743,97.20623 11.4487,20.5302 29.4681,35.3917 49.3024,43.2122 29.5679,11.5869 61.0401,14.5189 92.0661,14.9407 28.3813,-0.03 57.3052,0.3149 84.8344,-8.8285 14.8177,-4.9374 29.305,-12.7774 40.2409,-25.6671 13.4635,-15.2238 22.0312,-35.9613 24.0145,-57.6288 3.1003,-28.70177 -4.767,-59.33808 -22.7514,-79.79084 -18.6886,-22.25293 -44.6913,-34.35017 -70.8416,-38.8755 -30.2402,-5.95873 -61.0219,-5.34368 -91.578,-5.74835 z"
       id="path4040-40"
       inkscape:connector-curvature="0"
       sodipodi:nodetypes="zssssz" />
    <path
       style="color:#000000;display:inline;overflow:visible;visibility:visible;fill:#ffffff;fill-opacity:1;fill-rule:nonzero;stroke:none;stroke-width:0.999998px;marker:none;enable-background:accumulate"
       d="m 496.15677,1011.893 c 34.73321,-33.49717 31.89314,-53.50347 31.44376,-68.11357 -4.7651,-0.9949 -12.85059,-4.2577 -12.85059,-4.2577 0,0 1.90835,-28.8086 -1.17233,-39.94541 -3.08071,-11.13686 -17.53582,-8.20897 -17.53582,-8.20897 0,0 -5.18065,55.93348 -10.00914,67.69208 13.18767,2.2293 19.31591,4.9084 24.41808,3.8748 3.16059,8.1805 -2.4061,36.7502 -14.29396,48.95877 z"
       id="path4456-3"
       inkscape:connector-curvature="0" />
    <path
       style="color:#000000;display:inline;overflow:visible;visibility:visible;fill:#ffffff;fill-opacity:1;fill-rule:nonzero;stroke:none;stroke-width:0.709513px;marker:none;enable-background:accumulate"
       d="m 1196.6465,2294.5039 c -26.66,0.619 -54.2493,3.1801 -78.2856,15.6773 -17.5706,9.3105 -31.9875,26.4126 -34.4711,46.5695 -1.6332,22.1238 13.8259,43.3585 34.3158,50.841 17.1958,6.7047 35.784,8.2661 53.4612,13.2588 61.014,13.5197 124.0772,15.9595 186.2741,11.4556 30.0662,-2.5122 60.0023,-7.8601 88.7253,-17.191 17.4114,-6.1471 34.9857,-14.5147 46.9683,-29.0308 11.889,-15.703 10.8805,-39.6467 -2.4496,-54.1971 -10.7706,-12.7949 -27.1159,-18.7372 -42.8203,-22.8823 -28.1202,-7.5665 -57.3525,-9.1081 -86.2547,-11.3081 -55.0871,-3.2897 -110.3012,-3.2005 -165.4634,-3.1929 z"
       id="path4546-6-21"
       inkscape:connector-curvature="0"
       sodipodi:nodetypes="cssssc" />
    <path
       style="color:#000000;display:inline;overflow:visible;visibility:visible;fill:#ffffff;fill-opacity:1;fill-rule:nonzero;stroke:none;stroke-width:0.734605px;marker:none;enable-background:accumulate"
       d="m 648.32495,2264.4761 c -29.44109,0.4961 -59.5995,9.3662 -81.37855,28.3762 -23.6278,21.9967 -36.46683,52.6125 -39.35395,83.3297 -4.94947,37.7827 8.2151,77.1602 34.91738,105.8728 16.56386,15.2221 38.91141,22.7478 60.21563,30.2909 34.98822,11.8813 73.45825,14.0614 109.9028,7.2514 26.52521,-4.2043 53.0738,-14.1162 71.78261,-32.7122 15.32618,-15.5566 21.64899,-36.8488 23.72836,-57.4445 2.37307,-25.3342 0.23956,-50.847 -3.44864,-75.9774 -3.2844,-19.3764 -10.93252,-38.8334 -25.96343,-53.0074 -13.52389,-13.153 -32.02023,-20.4807 -50.56919,-25.1968 -21.2111,-5.3553 -43.12193,-7.7846 -64.95176,-9.6925 -11.60446,-0.8151 -23.24403,-1.1937 -34.88126,-1.0902 z"
       id="path4546-6-21-2"
       inkscape:connector-curvature="0"
       sodipodi:nodetypes="cssssc" />
    <path
       style="color:#000000;display:inline;overflow:visible;visibility:visible;fill:#ffffff;fill-opacity:1;fill-rule:nonzero;stroke:none;stroke-width:1.24776px;marker:none;enable-background:accumulate"
       d="m 459.6053,1891.1682 c -25.78503,-0.1843 -51.98226,-1.2113 -77.35414,8.2206 -14.89066,5.503 -29.5287,16.4906 -39.23287,34.6389 -11.30434,20.7888 -13.8777,49.4611 -9.45774,74.2333 2.0847,11.4957 5.45637,22.5261 10.13464,32.1648 5.10112,10.2673 12.34551,18.2476 20.71394,21.9272 23.99002,13.3419 49.94142,17.2374 75.56787,19.3922 26.83283,1.912 53.77615,1.5576 80.67395,-0.5068 22.72476,-2.2076 45.79131,-6.821 67.10421,-19.9956 12.9036,-8.3042 25.31276,-21.1158 32.03119,-39.8433 9.35157,-25.8894 8.31707,-59.5895 -4.03458,-82.094 -9.94251,-17.2808 -24.8812,-26.0068 -39.56322,-31.5062 -24.26146,-8.935 -49.44455,-11.2556 -74.40874,-14.0389 -14.02766,-1.3934 -28.08049,-2.6936 -42.17451,-2.5922 z"
       id="path4546-6-21-1"
       inkscape:connector-curvature="0"
       sodipodi:nodetypes="cssssc" />
    <path
       style="color:#000000;display:inline;overflow:visible;visibility:visible;fill:#ffffff;fill-opacity:1;fill-rule:nonzero;stroke:none;stroke-width:0.955158px;marker:none;enable-background:accumulate"
       d="m 496.31235,2164.6298 c 3.5619,-79.0368 53.41334,-137.9672 184.19185,-126.1726 70.05208,6.3168 149.57073,9.6749 145.16489,125.4379 -4.40592,115.7632 -118.66979,115.4633 -142.23634,118.7187 -23.56662,3.2572 -146.48522,-5.9959 -168.23187,-44.8311 -13.61293,-24.3097 -19.10895,-48.6962 -18.88853,-73.1529 z"
       id="path4546-6-21-1-9"
       inkscape:connector-curvature="0"
       sodipodi:nodetypes="cssssc" />
    <path
       style="color:#000000;display:inline;overflow:visible;visibility:visible;fill:#ffffff;fill-opacity:1;fill-rule:nonzero;stroke:none;stroke-width:1.1971px;marker:none;enable-background:accumulate"
       d="m 1361.4929,1913.2595 c -27.5618,0.4582 -55.9462,3.1632 -81.2588,17.1764 -12.5256,7.0164 -24.1142,19.5093 -27.0289,36.1571 -2.011,16.5978 7.3755,32.6541 19.5753,39.8816 12.5575,7.4302 26.7271,9.125 40.3274,12.2488 47.3844,8.8731 95.695,12.5507 143.5404,7.2714 16.7633,-2.1389 34.1059,-5.7216 48.5019,-16.7585 9.0671,-7.2007 15.462,-19.0016 16.6354,-31.9393 1.7823,-14.8825 -2.914,-31.5687 -14.0178,-39.759 -14.2163,-11.4438 -31.7223,-14.0896 -48.3325,-16.8855 -29.1521,-4.3915 -58.5332,-6.3032 -87.8924,-7.3341 -3.3497,-0.069 -6.6998,-0.078 -10.05,-0.059 z"
       id="path4546-6-21-1-9-4"
       inkscape:connector-curvature="0"
       sodipodi:nodetypes="cssssc" />
    <path
       style="color:#000000;display:inline;overflow:visible;visibility:visible;fill:#ffffff;fill-opacity:1;fill-rule:nonzero;stroke:none;stroke-width:1.14678px;marker:none;enable-background:accumulate"
       d="m 1185.5775,1985.7656 c -69.2431,0.882 -139.5924,2.8713 -206.2999,18.4889 -23.85437,6.8173 -41.69573,22.7322 -50.73074,40.6654 -15.00795,27.1823 -12.92043,60.755 10.47829,84.8351 13.74746,13.9915 35.48189,22.1407 57.6768,24.9674 29.29605,4.8894 59.03085,8.1831 88.82725,10.6435 53.658,3.8894 107.6022,2.0101 161.3689,1.0065 76.9704,-0.3976 154.1194,2.4619 230.9152,-2.8587 28.6936,-1.8225 57.529,-3.8181 85.6521,-8.678 37.0961,-8.9227 66.022,-36.1747 67.4335,-66.2485 1.9924,-24.676 -13.4225,-49.1571 -38.183,-64.6853 -31.7921,-21.3445 -73.8119,-31.1597 -115.0774,-35.023 -54.6806,-4.6848 -109.6552,0.8942 -164.4637,-0.9675 -42.5324,-0.7004 -85.0428,-2.493 -127.5973,-2.1458 z"
       id="path4546-6-21-1-9-4-7"
       inkscape:connector-curvature="0"
       sodipodi:nodetypes="cssssc" />
    <path
       style="color:#000000;display:inline;overflow:visible;visibility:visible;fill:#ffffff;fill-opacity:1;fill-rule:nonzero;stroke:none;stroke-width:1.25437px;marker:none;enable-background:accumulate"
       d="m 979.68195,3066.8417 c 6.84791,-41.6532 73.97315,-70.7879 245.50415,-59.2238 91.8812,6.1939 196.2837,11.2087 187.3197,72.2502 -8.9641,61.0415 -159.1085,56.2289 -190.1664,56.9907 -31.0579,0.7627 -192.3299,-9.1373 -219.8421,-30.561 -17.22206,-13.4105 -23.77556,-26.5311 -22.81535,-39.4561 z"
       id="path4546-6-21-1-9-4-7-8"
       inkscape:connector-curvature="0"
       sodipodi:nodetypes="cssssc" />
    <path
       style="color:#000000;display:inline;overflow:visible;visibility:visible;fill:#ffffff;fill-opacity:1;fill-rule:nonzero;stroke:none;stroke-width:0.624175px;marker:none;enable-background:accumulate"
       d="m 2225.7983,3151.2322 c 1.6004,-29.4598 24.0001,-51.4252 82.7628,-47.029 31.4764,2.3544 67.2066,3.6062 65.2269,46.7553 -1.9798,43.1489 -53.3219,43.0372 -63.9111,44.2506 -10.5891,1.2141 -65.82,-2.2349 -75.5915,-16.7102 -6.1167,-9.061 -8.5862,-18.1508 -8.4871,-27.2667 z"
       id="path4546-6-21-1-9-4-7-8-4"
       inkscape:connector-curvature="0"
       sodipodi:nodetypes="cssssc" />
    <path
       style="color:#000000;display:inline;overflow:visible;visibility:visible;fill:#ffffff;fill-opacity:1;fill-rule:nonzero;stroke:none;stroke-width:1px;marker:none;enable-background:accumulate"
       d="m 1284.7327,2502.3184 c -35.7282,-19.4322 -47.354,-28.3515 -44.071,-75.6186 3.2834,-47.2663 -14.2412,-48.0483 -14.2412,-48.0483 l -19.1468,25.8436 c 0,0 -0.01,101.2711 77.459,97.8233 z"
       id="path3072-56-6"
       inkscape:connector-curvature="0" />
    <path
       style="color:#000000;display:inline;overflow:visible;visibility:visible;fill:#ffffff;fill-opacity:1;fill-rule:nonzero;stroke:none;stroke-width:1px;marker:none;enable-background:accumulate"
       d="m 1468.6848,2848.0015 c 26.25,171.1132 -108.5575,232.9592 -156.9646,205.9986 -41.3932,-23.0541 -36.6132,25.372 -36.6132,25.372 0,0 -184.8377,-79.9742 -48.5243,-12.9007 136.3134,67.0735 295.373,-29.4851 242.1021,-218.4699 z"
       id="path3072-56-6-7"
       inkscape:connector-curvature="0"
       sodipodi:nodetypes="csczc" />
    <path
       style="color:#000000;display:inline;overflow:visible;visibility:visible;fill:#ffffff;fill-opacity:1;fill-rule:nonzero;stroke:none;stroke-width:1.0831px;marker:none;enable-background:accumulate"
       d="m 1604.4177,795.39266 c -32.8251,0.64648 -65.5939,2.67905 -98.4198,3.34943 -14.2045,0.46469 -28.5611,0.0196 -42.5463,2.62257 -18.9848,3.22703 -37.7515,9.93725 -51.8608,21.68505 -15.1478,13.03492 -22.7645,32.95407 -17.4324,51.10989 6.1829,23.54542 29.1792,42.75574 56.2566,47.92916 27.9521,6.87351 57.0579,8.8703 85.8912,10.94391 37.969,2.02476 76.4391,2.51528 113.9352,-3.87057 22.8437,-4.01442 45.8861,-9.43106 65.8175,-20.25506 16.3463,-9.67762 25.274,-27.01002 25.1711,-43.94165 0.9258,-16.14572 -5.3147,-33.20816 -19.5023,-44.14024 -15.7796,-12.7671 -36.9158,-19.14879 -57.8599,-22.20298 -19.6269,-2.8489 -39.5874,-3.38072 -59.4501,-3.22951 z"
       id="path4546-3"
       inkscape:connector-curvature="0"
       sodipodi:nodetypes="cssssc" />
    <path
       style="color:#000000;display:inline;overflow:visible;visibility:visible;fill:#ffffff;fill-opacity:1;fill-rule:nonzero;stroke:none;stroke-width:0.999998px;marker:none;enable-background:accumulate"
       d="m 2200.3678,3236.6589 c 19.412,3.2287 21.8531,2.1451 26.087,-6.1508 4.2336,-8.2965 7.4345,-21.3989 24.2674,-27.0612 16.8328,-5.6629 26.4772,-1.2243 33.0349,1.2943 -1.1679,-11.6566 8.131,-31.9623 0.9277,-37.4845 -7.2032,-5.5223 17.0343,2.8574 17.0343,2.8574 0,0 12.1095,28.3527 3.5098,41.2194 -8.5996,12.8666 -35.9866,3.6351 -48.1953,5.9287 -12.2087,2.2936 -17.7187,20.2054 -26.9698,23.8183 -9.2511,3.6136 -20.9523,-1.0637 -29.696,-4.4216 z"
       id="path4538-7-1"
       inkscape:connector-curvature="0"
       sodipodi:nodetypes="ccscccsscc" />
    <path
       style="fill:#ffffff;fill-rule:evenodd;stroke:none;stroke-width:0.989952px;stroke-linecap:butt;stroke-linejoin:miter;stroke-opacity:1"
       d="m 563.82903,2593.7899 c 63.64415,46.5419 99.6802,37.8628 99.27382,22.0538 -0.73279,-28.5061 -23.68426,-45.5161 -20.14693,-49.7569 56.87331,-68.1838 45.61583,-44.4564 42.02712,-78.3168 -3.58863,-33.8596 -32.82515,9.9982 -43.47048,25.9957 -10.64526,15.9984 -23.23393,28.0821 -24.13067,46.0989 -0.89678,18.0167 30.31994,32.2197 26.20251,52.3883 -4.11738,20.1676 -79.75537,-18.463 -79.75537,-18.463 z"
       id="path4324-2"
       inkscape:connector-curvature="0"
       sodipodi:nodetypes="cssssssc" />
    <path
       style="fill:#ffffff;fill-rule:evenodd;stroke:none;stroke-width:1px;stroke-linecap:butt;stroke-linejoin:miter;stroke-opacity:1"
       d="m 1641.3607,1592.1712 c 22.6649,-9.5896 43.3488,-24.3392 44.2472,-33.5648 0.8985,-9.2259 -11.1673,-38.3407 15.3399,-36.3802 44.753,7.0521 59.1413,-17.435 71.8681,-40.1028 -10.4456,44.0867 -37.326,59.8862 -66.9409,56.1082 -20.4331,0.5043 27.1628,20.802 -14.1238,65.6767 -34.0791,18.4121 -50.3905,-11.7371 -50.3905,-11.7371 z"
       id="path1085"
       inkscape:connector-curvature="0"
       sodipodi:nodetypes="csccccc" />
    <path
       style="display:inline;fill:#ffffff;fill-rule:evenodd;stroke:none;stroke-width:1px;stroke-linecap:butt;stroke-linejoin:miter;stroke-opacity:1"
       d="m 602.38281,413.81836 c -16.46145,0.69234 -32.53906,10.64863 -39.37482,25.82696 -1.5098,2.80001 -5.28273,3.60587 -7.9531,2.02233 -5.98863,-2.1906 -11.2243,-5.98508 -17.1572,-8.31055 -9.42582,-4.50612 -18.97461,-9.76783 -29.57769,-10.58241 -9.00662,0.914 -17.21994,8.38612 -18.31844,17.45517 0.90457,4.28518 5.9133,5.81752 9.78437,5.505 14.04596,1.22391 26.26568,8.99968 37.96354,16.2261 7.48461,4.90408 17.2879,7.91388 25.94154,4.3397 8.81339,-3.63103 14.02032,-12.22106 18.30372,-20.27104 3.62722,-6.5902 7.0618,-13.9609 13.65799,-18.08996 6.18392,-3.01805 13.32935,-0.5356 18.89819,2.69485 6.80555,3.74446 18.82609,7.48219 26.68995,6.1183 5.30212,-0.83429 11.53306,0.83552 40.82961,-10.13109 -31.99063,6.29792 -54.18708,-2.32452 -64.55229,-8.18195 -4.64584,-2.56145 -9.72444,-4.75296 -15.13537,-4.62141 z"
       id="path1090"
       inkscape:connector-curvature="0"
       sodipodi:nodetypes="cscsccsssssscccc" />
    <path
       style="display:inline;fill:#ffffff;fill-rule:evenodd;stroke:none;stroke-width:1px;stroke-linecap:butt;stroke-linejoin:miter;stroke-opacity:1"
       d="m 1617.1958,451.27144 c -12.9658,3.52999 -22.7273,13.2725 -33.0295,21.31481 -10.56,8.22528 -23.222,15.13886 -36.9698,14.8702 -12.354,-0.48323 -23.8452,-5.64876 -34.869,-10.8028 4.8969,5.51905 11.4884,9.07502 17.4852,13.22715 9.8915,6.03376 21.2993,11.19668 33.1646,9.85413 13.7356,-1.82473 25.2428,-10.16894 36.6713,-17.35003 9.2631,-5.89601 19.3995,-11.88555 30.7279,-11.84241 11.2199,0.46193 21.09,7.36067 28.069,15.7517 16.1165,16.07554 40.6983,22.00557 62.7241,17.44391 18.4525,-3.77253 34.5407,-14.70036 48.0397,-27.44861 7.4725,-7.02323 14.7519,-14.32675 21.1143,-22.37986 2.8972,-4.06459 5.7878,-8.70444 5.7898,-13.83941 -1.3294,-7.64777 -9.2775,-12.55259 -16.6906,-12.40095 -15.99,-1.92544 -32.0375,9.08542 -37.0028,24.21972 -6.8813,13.76612 -18.3165,26.13815 -33.3597,30.75119 -13.1078,4.184 -28.2984,-0.43593 -37.2218,-10.81739 -8.1607,-7.6165 -16.4492,-16.15889 -27.6395,-18.99131 -8.68,-2.75282 -18.0697,-3.47368 -27.0032,-1.56004 z"
       id="path1090-9"
       inkscape:connector-curvature="0"
       sodipodi:nodetypes="cscsccsssssscccccc" />
    <path
       style="display:inline;fill:#ffffff;stroke:none;stroke-width:1.20136"
       d="m 1532.2913,1550.2815 c -22.8972,0.1322 -45.9147,-0.079 -68.5966,3.7309 -25.7161,4.263 -51.1698,12.28 -73.8393,25.9598 -24.103,14.5135 -44.0772,37.8009 -52.6108,65.8873 -4.0983,13.0833 -4.7663,27.3139 -1.4947,40.6822 5.6871,24.6001 22.3959,45.9437 44.1043,56.7767 25.3947,14.5448 54.9294,17.8695 83.3973,17.7138 55.0533,2.0248 110.209,2.79 165.2283,-0.6345 32.0325,-1.7539 64.9437,-5.67 93.9683,-21.0749 20.3695,-10.9809 37.2431,-31.0476 41.2837,-55.2231 7.3652,-39.6004 -13.2288,-82.0846 -46.752,-100.9478 -29.9333,-18.0511 -64.4043,-25.0983 -98.2849,-29.3102 -28.6753,-3.3979 -57.5787,-3.7585 -86.4036,-3.5602 z"
       id="path3280-8-3"
       inkscape:connector-curvature="0"
       sodipodi:nodetypes="csssc" />
    <path
       style="fill:#ffffff;fill-rule:evenodd;stroke:none;stroke-width:1.05749px;stroke-linecap:butt;stroke-linejoin:miter;stroke-opacity:1"
       d="m 372.80842,761.5608 c -29.58019,1.79515 -59.30986,2.66681 -88.60558,7.95082 -13.09436,3.09291 -26.63189,6.90855 -37.4278,16.1815 -9.30796,10.44655 -15.81666,23.50187 -21.61616,36.60688 -4.97415,14.74002 -3.68457,30.97601 -0.69614,46.04545 2.14032,13.89024 7.05218,28.04855 17.00551,37.26767 10.29705,10.7655 23.01081,20.01048 37.42891,21.18155 13.81244,1.20679 27.67019,-0.23472 41.49748,0.45828 65.17184,0.13516 130.53981,0.71935 195.42428,-7.12753 10.55016,-1.85695 20.51876,-8.77888 25.83538,-19.26913 6.01099,-9.54595 12.78381,-19.57176 13.44918,-31.6715 0.74864,-11.36805 0.0468,-22.77495 0.0783,-34.15923 -0.23105,-7.3192 0.31173,-14.82565 -1.49339,-21.94938 -2.08665,-8.29822 -6.93419,-15.33835 -12.72009,-20.88675 -11.81298,-12.17325 -27.37714,-18.96153 -43.14535,-21.42492 -27.97299,-5.90031 -56.4336,-8.4944 -84.87791,-8.93815 -13.37697,-0.30084 -26.7575,-0.27893 -40.13651,-0.26556 z"
       id="path1299"
       inkscape:connector-curvature="0" />
    <path
       style="fill:#ffffff;fill-opacity:1;fill-rule:evenodd;stroke:none;stroke-width:1px;stroke-linecap:butt;stroke-linejoin:miter;stroke-opacity:1"
       d="m 913.77686,922.38419 c -8.14312,0.86734 -14.26823,7.06793 -18.7201,13.30501 -4.05249,5.15329 -11.25461,6.20817 -17.49514,6.08783 -8.52716,0.22173 -15.64579,6.16177 -20.06036,12.8845 -2.58577,3.55077 -3.35569,8.00224 -3.12063,12.27282 -0.47884,6.67297 -5.74109,11.93324 -6.43922,18.52713 0.1519,6.3875 6.22845,10.535 7.49987,16.59892 1.3255,4.5169 2.0838,9.9862 6.45373,12.7515 6.14651,3.1882 13.77597,-0.2253 19.75563,3.5487 4.3008,2.9316 7.95855,6.6895 12.17422,9.748 4.42989,3.4669 9.57506,6.0294 15.11817,7.2675 12.612,3.3373 25.79466,0.9185 38.25451,-1.867 17.19838,-3.5707 34.75427,-5.4628 52.33411,-5.6211 5.20745,-0.3583 9.72625,-3.1437 13.90665,-5.9562 4.7696,-2.8443 10.5501,-4.4438 16.1029,-3.1727 5.7715,0.7524 12.152,2.4968 17.6004,-0.3939 7.269,-4.7571 10.2417,-13.1958 14.3189,-20.35492 3.2566,-6.1287 6.9087,-12.97344 5.3433,-20.0904 -2.1868,-5.88049 -8.6217,-8.27678 -13.0699,-12.17595 -7.5392,-7.58527 -6.6187,-19.54532 -13.671,-27.42615 -6.7963,-7.78732 -17.7343,-10.83932 -27.9088,-10.57648 -7.8977,0.18336 -15.53343,2.5898 -22.65196,5.78799 -5.32477,1.83563 -11.93741,1.6179 -16.1423,-2.47125 -4.17603,-3.22883 -9.23574,-6.67829 -14.86015,-5.53162 -7.83463,0.94699 -14.71262,6.65075 -22.86995,5.44371 -7.9649,-1.16006 -13.49005,-8.87024 -21.85288,-8.58594 z"
       id="path4367-3"
       inkscape:connector-curvature="0"
       sodipodi:nodetypes="ccccccccccccccccccccccc" />
    <path
       style="color:#000000;display:inline;overflow:visible;visibility:visible;fill:#ffffff;fill-opacity:1;fill-rule:nonzero;stroke:none;stroke-width:1px;marker:none;enable-background:accumulate"
       d="m 925.04404,987.51508 c 0.43093,17.40692 10.57358,33.58462 24.60302,43.46732 4.0486,3.4474 7.8177,7.2049 11.522,11.0151 -9.5441,6.7343 -21.87387,8.4934 -30.69728,16.3868 -3.00333,7.8153 2.07856,16.9291 9.5442,19.9766 7.90108,4.1347 17.55078,5.3387 23.93238,12.0527 5.8472,7.0001 1.9231,19.0861 -6.6504,21.789 -11.2727,5.778 -17.95023,20.1486 -13.54258,32.3069 4.13098,10.8528 14.58748,18.0402 25.44518,21.0937 5.2942,1.6139 10.7387,2.647 16.1286,3.8787 -10.8778,-5.5071 -22.4207,-11.1561 -29.8066,-21.25 -5.866,-8.2804 -2.1755,-21.8742 7.6733,-25.1751 6.0663,-1.8597 13.149,-3.1903 17.0207,-8.7544 8.18221,-11.235 4.0413,-29.3207 -8.5309,-35.4929 -6.8306,-3.5643 -14.777,-5.4022 -20.3877,-10.9819 -1.6954,-3.9526 2.6275,-8.2401 6.5884,-7.513 7.4263,-1.7714 15.8041,-2.1777 21.7723,-7.5012 4.4591,-5.1824 3.2488,-13.2448 -0.7338,-18.3354 -8.0405,-15.3899 -15.424,-31.1229 -23.8906,-46.28912 -6.1584,-1.4328 -12.54059,-0.9451 -18.78997,-1.6404 -3.73928,-0.2117 -7.47855,-0.4233 -11.21782,-0.635 0.006,0.5339 0.0117,1.0677 0.0176,1.6016 z"
       id="path5058"
       inkscape:connector-curvature="0"
       sodipodi:nodetypes="cscsssssccsssccsccccc" />
    <path
       style="display:inline;fill:#ffffff;stroke:none;stroke-width:1"
       d="m 1571.4018,1191.6392 c 13.4807,-8.3202 19.4484,-23.3927 17.65,-33.0755 -8.8182,-22.1676 -14.651,-36.255 -2.7595,-61.9827 4.6158,-9.7523 4.136,-55.5565 4.136,-55.5565 0,0 -27.4173,28.8158 -35.0946,40.6428 -7.678,11.8285 -3.0663,7.9917 -4.8155,13.4555 -1.7483,5.4625 -1.3553,24.9485 0.8987,35.296 4.6362,17.6704 24.7701,36.2388 6.7072,51.624 -38.2054,28.7903 -15.6246,82.4307 39.9278,44.9299 -67.6745,16.2702 -41.7605,-26.0079 -26.6503,-35.3336 z"
       id="path3023-0"
       inkscape:connector-curvature="0"
       sodipodi:nodetypes="scccsscccss" />
    <path
       style="display:inline;fill:#ffffff;fill-rule:evenodd;stroke:none;stroke-width:1px;stroke-linecap:butt;stroke-linejoin:miter;stroke-opacity:1"
       d="m 464.88133,1910.6914 c -28.8926,-2.0653 -70.7911,12.6625 -46.4898,55.1642 -53.0586,-27.852 -127.5213,-37.8514 -145.041,8.545 -2.9485,-56.7468 -38.5111,-41.338 -67.8631,-27.673 27.9346,-23.2981 -23.4398,-34.7771 -50.9437,-35.2783 56.996,-50.2966 26.119,-64.931 2.7943,-82.6311 57.4315,11.9803 42.9826,-15.1235 49.4459,-30.8559 49.812,33.8557 85.2527,24.5077 112.648,-9.0266 15.1349,17.4028 20.6066,54.0871 73.5776,-4.0088 -18.8313,49.4071 7.2124,43.5524 49.0134,18.2945 -6.2541,16.8237 -45.124,43.2233 21.271,38.72 -41.1448,16.9717 -49.3548,38.642 1.5874,68.75 z"
       id="path4584-8"
       inkscape:connector-curvature="0"
       sodipodi:nodetypes="cccccccccccc" />
    <path
       style="fill:#ffffff;fill-rule:evenodd;stroke:none;stroke-width:0.918903px;stroke-linecap:butt;stroke-linejoin:miter;stroke-opacity:1"
       d="m 1060.5693,1861.1551 c 10.6463,4.62 25.9217,12.1275 27.7732,20.213 1.8515,8.0848 11.5721,23.1004 8.3319,36.3833 -3.2402,13.2822 -12.4979,26.5651 -21.2927,34.0733 -8.795,7.5075 -25.4588,13.2822 -36.1052,14.4376 -10.6464,1.1553 -37.9566,-6.9301 -45.82581,-4.6201 -7.86908,2.31 -36.56804,3.4647 -50.91753,-2.31 -14.34949,-5.7755 -30.55052,-27.1432 -32.86496,-40.4262 -2.31446,-13.2829 7.86905,-39.848 9.72059,-46.7781 1.85158,-6.9308 9.72065,-9.2409 9.72065,-9.2409 21.96996,-3.9635 99.08636,-7.6933 131.45986,-1.7319 z"
       id="path1099"
       inkscape:connector-curvature="0"
       sodipodi:nodetypes="ccccccccccc" />
    <path
       style="color:#000000;display:inline;overflow:visible;visibility:visible;fill:#ffffff;fill-opacity:1;fill-rule:nonzero;stroke:none;stroke-width:1.12678px;marker:none;enable-background:accumulate"
       d="m 1478.7478,2087.7856 c -7.8382,8.184 -16.3257,16.2326 -27.1236,22.099 -9.0491,-1.1163 -15.2977,-8.9165 -13.1104,-15.9508 -14.9358,2.4784 -24.6015,12.8652 -37.4366,18.5837 -19.7025,10.4746 -41.831,19.4958 -65.7113,20.6376 -22.1537,-2.9573 -38.8789,-20.4697 -36.4798,-38.21 -6.5367,-0.5144 -10.7151,4.6022 -13.2633,8.654 -7.4084,7.3999 -15.0743,15.4871 -26.5094,19.1227 -10.1893,-0.4701 -16.8399,-10.5798 -11.4888,-17.5861 -2.9852,-3.2332 -9.4158,-0.7158 -10.7966,2.541 -15.9106,10.8003 -32.3854,22.4055 -53.0446,26.7535 -23.8377,3.3629 -47.5964,-2.4989 -68.5526,-10.5178 -5.0319,-1.6612 -10.3071,-2.8262 -15.5137,-4.1179 -8.6027,8.1966 -10.8103,20.0171 -22.355,26.3766 -12.4843,6.7045 -28.4343,8.3502 -42.7509,5.9304 -7.1494,2.4652 -7.4511,9.3438 -11.0271,14.0021 -9.5711,11.8724 -27.59593,17.8896 -44.70236,18.6319 -6.84016,0.876 -13.68045,1.752 -20.5206,2.628 12.91993,5.1134 27.14974,8.4801 38.67678,15.5169 -3.60701,7.3147 -14.12369,10.2607 -23.14978,11.1579 -18.09991,1.6483 -36.38583,1.3367 -54.37283,4.0232 -3.18928,0.3119 -6.37907,0.6275 -9.55155,1.0544 33.92036,2.3376 67.94277,6.7137 99.37864,16.8463 6.2807,10.2562 -4.7013,23.813 -18.92539,24.9571 -7.75429,3.1243 -15.50846,6.2486 -23.26263,9.3731 18.80799,-0.4069 37.88762,-1.9657 56.40692,0.8714 11.8028,11.9053 8.4574,31.2932 -6.9333,40.9481 0.9716,3.8038 7.5612,3.4691 10.6621,1.384 14.8704,-2.8171 31.4495,-4.5873 45.3607,1.0138 21.6244,10.9924 33.4505,29.944 52.9607,42.7659 1.594,1.1009 3.3024,3.1686 5.4688,3.0253 17.1685,-24.3477 56.5402,-36.7839 89.7479,-29.7393 11.2587,1.8519 21.8944,5.3099 32.3611,8.8867 14.7404,-3.8059 24.6503,-14.9282 39.8858,-17.8717 16.0959,-5.178 34.9571,-7.2731 50.9198,-1.6084 8.71,4.6924 13.3327,13.0548 23.0746,16.7191 9.5366,-2.0013 12.4573,-10.7676 20.6678,-14.3724 19.5951,-11.6466 47.4342,-11.992 67.9408,-2.8723 7.7284,1.9222 15.4142,-2.3093 20.4839,-6.7112 17.2744,-11.0395 39.9088,-14.4727 61.3033,-15.1561 6.5204,-0.2187 13.0368,-0.1103 19.5461,0.013 1.6575,-3.774 -3.6124,-5.9112 -6.3315,-8.1497 -6.5533,-4.481 -13.4088,-10.6747 -11.8126,-18.1559 2.0741,-9.7377 13.4578,-16.4517 24.7372,-19.3861 7.2228,-2.1201 14.754,-3.55 21.7629,-6.1436 -6.9363,-4.9211 -15.7348,-7.7776 -23.3231,-11.996 -7.4212,-3.7714 -15.1237,-7.6549 -21.103,-12.7134 -0.5645,-10.8992 10.6094,-20.5759 23.3606,-23.8643 5.9076,-2.9265 11.7034,-6.0563 16.8127,-9.8323 -13.9013,-1.3838 -28.5454,-2.0907 -40.8266,-7.7195 -7.7227,-10.9967 -4.6429,-25.4188 5.0165,-35.4526 0.8723,-2.5644 -3.2686,-3.358 -5.6698,-2.7567 -14.9617,-0.3029 -31.2117,-0.6588 -43.5907,-7.8337 -12.5977,-8.3966 -16.3799,-22.431 -14.7084,-35.113 0.5192,-4.7338 1.7022,-9.5214 0.7747,-14.2409 -1.1208,1.185 -2.2417,2.3698 -3.3625,3.5548 z"
       id="path3549-3-7-5"
       inkscape:connector-curvature="0"
       sodipodi:nodetypes="cccccccccccccccccccc" />
    <path
       style="color:#000000;display:inline;overflow:visible;visibility:visible;fill:#ffffff;fill-opacity:1;fill-rule:nonzero;stroke:none;stroke-width:1px;marker:none;enable-background:accumulate"
       d="m 1215.9045,3102.4019 c -35.4901,1.0127 -71.3907,2.3026 -105.9431,13.293 -13.2375,4.504 -26.1502,13.6969 -33.2961,28.54 -10.5249,20.9979 -11.021,48.1413 -3.4047,70.6368 7.0343,21.7902 20.9827,40.9136 39.1726,48.9857 23.9245,10.5885 49.7029,10.9262 74.8256,11.303 14.3208,0.09 28.6368,0.5429 42.9549,0.8295 40.5334,0.5215 81.2461,-3.0065 120.9711,-13.2119 10.1832,-3.132 20.3171,-9.7458 25.7996,-21.1583 7.6002,-14.4665 10.3794,-31.6967 12.655,-48.4189 1.5762,-15.0588 -0.6114,-31.1141 -7.8437,-43.6735 -10.5753,-19.9832 -28.6838,-32.7789 -47.605,-36.7438 -20.525,-4.8818 -41.5328,-4.3959 -62.2691,-6.9623 -18.6423,-1.7278 -37.3041,-3.6794 -56.0171,-3.4193 z"
       id="path3330-06"
       inkscape:connector-curvature="0"
       sodipodi:nodetypes="zsssssz" />
    <path
       style="color:#000000;display:inline;overflow:visible;visibility:visible;fill:#ffffff;fill-opacity:1;fill-rule:nonzero;stroke:none;stroke-width:1.04956px;marker:none;enable-background:accumulate"
       d="m 1293.1747,3245.8924 c -39.3849,0.7733 -79.2253,1.7584 -117.5695,10.1515 -14.6904,3.4395 -29.0201,10.4599 -36.9503,21.7952 -11.6797,16.0354 -12.2305,36.7641 -3.7783,53.9432 7.8061,16.6406 23.2854,31.2445 43.4714,37.409 26.5502,8.0861 55.1576,8.344 83.0372,8.6317 15.8924,0.068 31.7796,0.4146 47.6691,0.6335 44.9815,0.3982 90.1621,-2.296 134.2467,-10.0896 11.3008,-2.3918 22.5467,-7.4425 28.6308,-16.158 8.4344,-11.0476 11.5185,-24.2057 14.0437,-36.976 1.7493,-11.5 -0.6784,-23.761 -8.7042,-33.3522 -11.736,-15.2605 -31.8317,-25.0322 -52.8295,-28.0602 -22.7774,-3.728 -46.0907,-3.357 -69.1024,-5.3169 -20.6884,-1.3194 -41.3982,-2.8098 -62.1647,-2.6112 z"
       id="path3330-06-3"
       inkscape:connector-curvature="0"
       sodipodi:nodetypes="zsssssz" />
    <path
       style="color:#000000;display:inline;overflow:visible;visibility:visible;fill:#ffffff;fill-opacity:1;fill-rule:nonzero;stroke:none;stroke-width:1.20263px;marker:none;enable-background:accumulate"
       d="m 961.19751,1903.8172 c 18.72891,3.5313 77.50459,20.5771 17.78287,22.1787 84.60032,34.8788 52.73292,48.5856 42.04872,56.6372 23.3903,-2.9028 62.5922,3.6912 54.8852,25.997 22.5332,-3.3105 53.6787,30.9541 67.9034,47.7121 7.9187,-22.5128 21.3524,-26.7531 48.5795,14.6671 -7.2638,-31.6407 -12.3409,-61.1815 51.4551,-24.5631 -1.9375,-11.6529 -54.2444,-38.8648 79.9638,-27.1762 -47.3774,-19.6367 -76.3826,-40.7758 3.7842,-68.3558 -36.8752,-7.917 -63.6467,-20.0077 -23.0249,-44.1161 -35.7394,-4.752 -46.5137,-33.2989 -42.455,-43.8776 -32.5216,21.5457 -56.5814,21.0346 -68.2768,-7.7103 -55.8228,48.8917 -56.3348,9.3578 -76.0468,1.7385 -13.3349,38.1114 -47.6904,21.426 -79.1158,14.9485 11.0768,43.5652 -40.26286,29.7409 -77.48349,31.92 z"
       id="path3549-3-8"
       inkscape:connector-curvature="0"
       sodipodi:nodetypes="ccccccccccccccc" />
  </g>
  <g
     inkscape:groupmode="layer"
     id="layer1"
     inkscape:label="txt"
     style="display:inline">
    <text
       xml:space="preserve"
       style="font-style:normal;font-variant:normal;font-weight:normal;font-stretch:normal;font-size:45.3333px;line-height:125%;font-family:Lavi;-inkscape-font-specification:Lavi;text-align:center;letter-spacing:0px;word-spacing:0px;text-anchor:middle;fill:#000000;fill-opacity:1;stroke:none"
       x="352.83478"
       y="308.57437"
       id="text4246-70-2-2-2-7-4-9-6"><tspan
         sodipodi:role="line"
         style="font-size:45.3333px"
         x="352.83478"
         y="308.57437"
         id="tspan9933-2-7">a...</tspan></text>
    <text
       xml:space="preserve"
       style="font-style:normal;font-variant:normal;font-weight:normal;font-stretch:normal;font-size:45.3333px;line-height:125%;font-family:Lavi;-inkscape-font-specification:Lavi;text-align:center;letter-spacing:0px;word-spacing:0px;text-anchor:middle;fill:#000000;fill-opacity:1;stroke:none"
       x="415.25522"
       y="407.0365"
       id="text4246-70-2-2-2-7-4-9"><tspan
         sodipodi:role="line"
         style="font-size:45.3333px"
         x="415.25522"
         y="407.0365"
         id="tspan9933-2">mi sona...</tspan></text>
    <text
       xml:space="preserve"
       style="font-style:normal;font-variant:normal;font-weight:normal;font-stretch:normal;font-size:45.3333px;line-height:125%;font-family:Lavi;-inkscape-font-specification:Lavi;text-align:center;letter-spacing:0px;word-spacing:0px;text-anchor:middle;fill:#000000;fill-opacity:1;stroke:none"
       x="2003.085"
       y="328.43054"
       id="text4246-70-2-2-2-7-4-9-7"><tspan
         sodipodi:role="line"
         style="font-size:45.3333px"
         x="2003.085"
         y="328.43054"
         id="tspan1083">...ni la sina wile pona e </tspan><tspan
         sodipodi:role="line"
         style="font-size:45.3333px"
         x="2003.085"
         y="385.09717"
         id="tspan4893">sijelo sina kepeken telo oko pi </tspan><tspan
         sodipodi:role="line"
         style="font-size:45.3333px"
         x="2003.085"
         y="441.76379"
         id="tspan4895">waso seli, anu seme?</tspan></text>
    <text
       xml:space="preserve"
       style="font-style:normal;font-variant:normal;font-weight:normal;font-stretch:normal;font-size:45.3333px;line-height:125%;font-family:Lavi;-inkscape-font-specification:Lavi;text-align:center;letter-spacing:0px;word-spacing:0px;text-anchor:middle;fill:#000000;fill-opacity:1;stroke:none"
       x="388.54419"
       y="830.83826"
       id="text4246-70-2-2-2-7-4-9-9"><tspan
         sodipodi:role="line"
         style="font-style:normal;font-variant:normal;font-weight:bold;font-stretch:normal;font-size:45.3333px;font-family:Lavi;-inkscape-font-specification:'Lavi Bold'"
         x="388.54419"
         y="830.83826"
         id="tspan1215"><tspan
           id="tspan11898"
           style="font-weight:normal;font-size:45.3333px;-inkscape-font-specification:Lavi">wile.</tspan></tspan><tspan
         sodipodi:role="line"
         style="font-style:normal;font-variant:normal;font-weight:bold;font-stretch:normal;font-size:45.3333px;font-family:Lavi;-inkscape-font-specification:'Lavi Bold'"
         x="388.54419"
         y="887.50488"
         id="tspan11901">ni taso <tspan
   style="font-weight:normal"
   id="tspan11896">li ken.</tspan></tspan></text>
    <text
       xml:space="preserve"
       style="font-style:normal;font-variant:normal;font-weight:normal;font-stretch:normal;font-size:45.3333px;line-height:125%;font-family:Lavi;-inkscape-font-specification:Lavi;text-align:center;letter-spacing:0px;word-spacing:0px;text-anchor:middle;fill:#000000;fill-opacity:1;stroke:none"
       x="956.3031"
       y="994.32025"
       id="text4246-70-2-2-2-7-4-9-9-3"><tspan
         sodipodi:role="line"
         style="font-style:italic;font-variant:normal;font-weight:normal;font-stretch:normal;font-size:45.3333px;font-family:Lavi;-inkscape-font-specification:'Lavi Italic'"
         x="956.3031"
         y="994.32025"
         id="tspan12869-7">*Pilin*</tspan></text>
    <text
       xml:space="preserve"
       style="font-style:normal;font-variant:normal;font-weight:normal;font-stretch:normal;font-size:45.3333px;line-height:125%;font-family:Lavi;-inkscape-font-specification:Lavi;text-align:center;letter-spacing:0px;word-spacing:0px;text-anchor:middle;fill:#000000;fill-opacity:1;stroke:none"
       x="1564.6672"
       y="862.2207"
       id="text4246-70-2-2-2-7-4-9-9-6-6"><tspan
         sodipodi:role="line"
         style="font-size:45.3333px"
         x="1564.6672"
         y="862.2207"
         id="tspan1351">...ni la o pali</tspan></text>
    <text
       xml:space="preserve"
       style="font-style:normal;font-variant:normal;font-weight:normal;font-stretch:normal;font-size:45.3333px;line-height:125%;font-family:Lavi;-inkscape-font-specification:Lavi;text-align:center;letter-spacing:0px;word-spacing:0px;text-anchor:middle;fill:#000000;fill-opacity:1;stroke:none"
       x="1578.8657"
       y="956.48041"
       id="text4246-70-2-2-2-7-4-9-9-6"><tspan
         sodipodi:role="line"
         style="font-size:45.3333px"
         x="1578.8657"
         y="956.48041"
         id="tspan1358">o lukin kama</tspan><tspan
         sodipodi:role="line"
         style="font-size:45.3333px"
         x="1578.8657"
         y="1013.147"
         id="tspan18770"> e telo tan </tspan><tspan
         sodipodi:role="line"
         style="font-size:45.3333px"
         x="1578.8657"
         y="1069.8137"
         id="tspan150">oko mi.</tspan></text>
    <text
       xml:space="preserve"
       style="font-style:normal;font-variant:normal;font-weight:normal;font-stretch:normal;font-size:45.3333px;line-height:125%;font-family:Lavi;-inkscape-font-specification:Lavi;text-align:center;letter-spacing:0px;word-spacing:0px;text-anchor:middle;fill:#000000;fill-opacity:1;stroke:none"
       x="1544.7095"
       y="1620.3534"
       id="text4246-70-2-2-2-7-4-9-9-6-5"><tspan
         sodipodi:role="line"
         style="font-style:normal;font-variant:normal;font-weight:normal;font-stretch:normal;font-size:45.3333px;font-family:Lavi;-inkscape-font-specification:Lavi"
         x="1544.7095"
         y="1620.3534"
         id="tspan3834">o kepeken </tspan><tspan
         sodipodi:role="line"
         style="font-style:normal;font-variant:normal;font-weight:normal;font-stretch:normal;font-size:45.3333px;font-family:Lavi;-inkscape-font-specification:Lavi"
         x="1544.7095"
         y="1677.02"
         id="tspan3847">tenpo <tspan
   style="font-weight:bold"
   id="tspan3851">sama tenpo </tspan></tspan><tspan
         sodipodi:role="line"
         style="font-style:normal;font-variant:normal;font-weight:bold;font-stretch:normal;font-size:45.3333px;font-family:Lavi;-inkscape-font-specification:'Lavi Bold'"
         x="1544.7095"
         y="1733.6866"
         id="tspan3853"><tspan
   id="tspan38456"
   style="font-style:normal;font-variant:normal;font-weight:bold;font-stretch:normal;font-size:45.3333px;font-family:Lavi;-inkscape-font-specification:Lavi">moku </tspan><tspan
   style="font-weight:bold;font-size:45.3333px;-inkscape-font-specification:Lavi"
   id="tspan3855">pi kili wan</tspan>!</tspan></text>
    <text
       xml:space="preserve"
       style="font-style:normal;font-variant:normal;font-weight:normal;font-stretch:normal;font-size:55.9581px;line-height:125%;font-family:Lavi;-inkscape-font-specification:Lavi;text-align:center;letter-spacing:0px;word-spacing:0px;text-anchor:middle;fill:#000000;fill-opacity:1;stroke:none;stroke-width:1"
       x="311.79352"
       y="1889.1261"
       id="text4246-70-2-2-2-7-4-9-9-6-1"><tspan
         sodipodi:role="line"
         style="font-style:normal;font-variant:normal;font-weight:bold;font-stretch:normal;font-size:55.9581px;font-family:Lavi;-inkscape-font-specification:'Lavi Bold';stroke-width:1"
         x="311.79352"
         y="1889.1261"
         id="tspan40668">seme?!</tspan></text>
    <text
       xml:space="preserve"
       style="font-style:normal;font-variant:normal;font-weight:normal;font-stretch:normal;font-size:49.2216px;line-height:125%;font-family:Lavi;-inkscape-font-specification:Lavi;text-align:center;letter-spacing:0px;word-spacing:0px;text-anchor:middle;fill:#000000;fill-opacity:1;stroke:none;stroke-width:1"
       x="472.64255"
       y="1972.0665"
       id="text4246-70-2-2-2-7-4-9-9-6-1-2-2"><tspan
         sodipodi:role="line"
         style="font-style:normal;font-variant:normal;font-weight:bold;font-stretch:normal;font-size:49.2216px;font-family:Lavi;-inkscape-font-specification:'Lavi Bold';stroke-width:1"
         x="472.64255"
         y="1972.0665"
         id="tspan4690">mi o kama </tspan><tspan
         sodipodi:role="line"
         style="font-style:normal;font-variant:normal;font-weight:bold;font-stretch:normal;font-size:49.2216px;font-family:Lavi;-inkscape-font-specification:'Lavi Bold';stroke-width:1"
         x="472.64255"
         y="2033.5935"
         id="tspan4694">e telo a?!</tspan></text>
    <text
       xml:space="preserve"
       style="font-style:normal;font-variant:normal;font-weight:normal;font-stretch:normal;font-size:45.3333px;line-height:125%;font-family:Lavi;-inkscape-font-specification:Lavi;text-align:center;letter-spacing:0px;word-spacing:0px;text-anchor:middle;fill:#000000;fill-opacity:1;stroke:none"
       x="669.1972"
       y="2124.0947"
       id="text4246-70-2-2-2-7-4-9-9-6-1-2"><tspan
         sodipodi:role="line"
         style="font-size:45.3333px"
         x="669.1972"
         y="2124.0947"
         id="tspan21081">taso tenpo </tspan><tspan
         sodipodi:role="line"
         style="font-size:45.3333px"
         x="669.1972"
         y="2180.7615"
         id="tspan40260">pini la mi sona </tspan><tspan
         sodipodi:role="line"
         style="font-size:45.3333px"
         x="669.1972"
         y="2237.428"
         id="tspan40264">ala e ni...</tspan></text>
    <text
       xml:space="preserve"
       style="font-style:normal;font-variant:normal;font-weight:normal;font-stretch:normal;font-size:49.2681px;line-height:125%;font-family:Lavi;-inkscape-font-specification:Lavi;text-align:center;letter-spacing:0px;word-spacing:0px;text-anchor:middle;fill:#000000;fill-opacity:1;stroke:none;stroke-width:1"
       x="695.23584"
       y="2318.561"
       id="text4246-70-2-2-2-7-4-9-9-6-1-2-27"
       transform="scale(0.98652379,1.0136603)"><tspan
         sodipodi:role="line"
         style="font-size:49.2681px;stroke-width:1"
         x="695.23584"
         y="2318.561"
         id="tspan1134">kepeken...</tspan><tspan
         sodipodi:role="line"
         style="font-style:normal;font-variant:normal;font-weight:bold;font-stretch:normal;font-size:49.2681px;font-family:Lavi;-inkscape-font-specification:'Lavi Bold';stroke-width:1"
         x="695.23584"
         y="2380.1462"
         id="tspan13298">tenpo lili </tspan><tspan
         sodipodi:role="line"
         style="font-style:normal;font-variant:normal;font-weight:bold;font-stretch:normal;font-size:49.2681px;font-family:Lavi;-inkscape-font-specification:'Lavi Bold';stroke-width:1"
         x="695.23584"
         y="2441.7312"
         id="tspan13890">anu seme?!</tspan></text>
    <text
       xml:space="preserve"
       style="font-style:normal;font-variant:normal;font-weight:normal;font-stretch:normal;font-size:48.1157px;line-height:125%;font-family:Lavi;-inkscape-font-specification:Lavi;text-align:center;letter-spacing:0px;word-spacing:0px;text-anchor:middle;fill:#000000;fill-opacity:1;stroke:none;stroke-width:1"
       x="997.19177"
       y="1920.8142"
       id="text4246-70-2-2-2-7-4-9-9-6-1-2-3"><tspan
         sodipodi:role="line"
         style="font-size:48.1157px;stroke-width:1"
         x="997.19177"
         y="1920.8142"
         id="tspan44044-5">a...</tspan></text>
    <text
       xml:space="preserve"
       style="font-style:normal;font-variant:normal;font-weight:normal;font-stretch:normal;font-size:51.9425px;line-height:125%;font-family:Lavi;-inkscape-font-specification:Lavi;text-align:center;letter-spacing:0px;word-spacing:0px;text-anchor:middle;fill:#000000;fill-opacity:1;stroke:none;stroke-width:1"
       x="1157.4293"
       y="1947.7235"
       id="text4246-70-2-2-2-7-4-9-9-6-1-2-3-9-6"><tspan
         sodipodi:role="line"
         style="font-style:normal;font-variant:normal;font-weight:bold;font-stretch:normal;font-size:51.9425px;font-family:Lavi;-inkscape-font-specification:'Lavi Bold';stroke-width:1"
         x="1157.4293"
         y="1947.7235"
         id="tspan62775-6">MI PALI!</tspan></text>
    <text
       xml:space="preserve"
       style="font-style:normal;font-variant:normal;font-weight:normal;font-stretch:normal;font-size:40.5417px;line-height:125%;font-family:Lavi;-inkscape-font-specification:Lavi;text-align:center;letter-spacing:0px;word-spacing:0px;text-anchor:middle;fill:#000000;fill-opacity:1;stroke:none;stroke-width:1"
       x="1397.374"
       y="1976.0564"
       id="text4246-70-2-2-2-7-4-9-9-6-1-2-3-9-6-0"><tspan
         sodipodi:role="line"
         style="font-size:40.5417px;stroke-width:1"
         x="1397.374"
         y="1976.0564"
         id="tspan62775-6-2">seme li pona.</tspan></text>
    <text
       xml:space="preserve"
       style="font-style:normal;font-variant:normal;font-weight:normal;font-stretch:normal;font-size:45.3333px;line-height:125%;font-family:Lavi;-inkscape-font-specification:Lavi;text-align:center;letter-spacing:0px;word-spacing:0px;text-anchor:middle;fill:#000000;fill-opacity:1;stroke:none"
       x="1277.869"
       y="2059.957"
       id="text4246-70-2-2-2-7-4-9-9-6-1-2-3-9"><tspan
         sodipodi:role="line"
         style="font-size:45.3333px"
         x="1277.869"
         y="2059.957"
         id="tspan46262">aaa... o kute: <tspan
   style="font-style:normal;font-variant:normal;font-weight:bold;font-stretch:normal;font-family:Lavi;-inkscape-font-specification:'Lavi Bold'"
   id="tspan2079">ma ale la jan li </tspan></tspan><tspan
         sodipodi:role="line"
         style="font-size:45.3333px"
         x="1277.869"
         y="2116.6238"
         id="tspan46270"><tspan
           style="font-style:normal;font-variant:normal;font-weight:bold;font-stretch:normal;font-family:Lavi;-inkscape-font-specification:'Lavi Bold'"
           id="tspan46272">ken ala moku sama wile ona.</tspan></tspan></text>
    <text
       xml:space="preserve"
       style="font-style:normal;font-variant:normal;font-weight:normal;font-stretch:normal;font-size:45.3333px;line-height:125%;font-family:Lavi;-inkscape-font-specification:Lavi;text-align:center;letter-spacing:0px;word-spacing:0px;text-anchor:middle;fill:#000000;fill-opacity:1;stroke:none"
       x="1275.8167"
       y="2215.9316"
       id="text4246-70-2-2-2-7-4-9-9-6-1-2-3-9-2"><tspan
         sodipodi:role="line"
         style="font-size:45.3333px"
         x="1275.8167"
         y="2215.9316"
         id="tspan62775-9">a, o awen o awen o awen!</tspan></text>
    <text
       xml:space="preserve"
       style="font-style:normal;font-variant:normal;font-weight:normal;font-stretch:normal;font-size:45.3333px;line-height:125%;font-family:Lavi;-inkscape-font-specification:Lavi;text-align:center;letter-spacing:0px;word-spacing:0px;text-anchor:middle;fill:#000000;fill-opacity:1;stroke:none"
       x="1276.9706"
       y="2276.7942"
       id="text4246-70-2-2-2-7-4-9-9-6-1-2-3-9-2-2"><tspan
         sodipodi:role="line"
         style="font-size:45.3333px"
         x="1276.9706"
         y="2276.7942"
         id="tspan67024">ijo ante li wawa:</tspan></text>
    <text
       xml:space="preserve"
       style="font-style:normal;font-variant:normal;font-weight:normal;font-stretch:normal;font-size:45.3333px;line-height:125%;font-family:Lavi;-inkscape-font-specification:Lavi;text-align:center;letter-spacing:0px;word-spacing:0px;text-anchor:middle;fill:#000000;fill-opacity:1;stroke:none"
       x="1293.4883"
       y="2352.7439"
       id="text4246-70-2-2-2-7-4-9-9-6-1-2-3-9-2-7-6"><tspan
         sodipodi:role="line"
         style="font-style:normal;font-variant:normal;font-weight:bold;font-stretch:normal;font-size:45.3333px;font-family:Lavi;-inkscape-font-specification:'Lavi Bold'"
         x="1293.4883"
         y="2352.7439"
         id="tspan61746">waso olin sina li </tspan><tspan
         sodipodi:role="line"
         style="font-style:normal;font-variant:normal;font-weight:bold;font-stretch:normal;font-size:45.3333px;font-family:Lavi;-inkscape-font-specification:'Lavi Bold'"
         x="1293.4883"
         y="2409.4106"
         id="tspan62600">moli.</tspan></text>
    <text
       xml:space="preserve"
       style="font-style:normal;font-variant:normal;font-weight:normal;font-stretch:normal;font-size:45.3333px;line-height:125%;font-family:Lavi;-inkscape-font-specification:Lavi;text-align:center;letter-spacing:0px;word-spacing:0px;text-anchor:middle;fill:#000000;fill-opacity:1;stroke:none"
       x="1184.426"
       y="3080.6577"
       id="text4246-70-2-2-2-7-4-9-9-6-1-2-3-9-2-7"><tspan
         sodipodi:role="line"
         style="font-size:45.3333px"
         x="1184.426"
         y="3080.6577"
         id="tspan70880">a, ni kin li pona ala</tspan></text>
    <text
       xml:space="preserve"
       style="font-style:normal;font-variant:normal;font-weight:normal;font-stretch:normal;font-size:45.3333px;line-height:125%;font-family:Lavi;-inkscape-font-specification:Lavi;text-align:center;letter-spacing:0px;word-spacing:0px;text-anchor:middle;fill:#000000;fill-opacity:1;stroke:none"
       x="1237.2577"
       y="3176.5801"
       id="text4246-70-2-2-2-7-4-9-9-6-1-2-3-9-2-7-9"><tspan
         sodipodi:role="line"
         style="font-style:normal;font-variant:normal;font-weight:bold;font-stretch:normal;font-size:45.3333px;font-family:Lavi;-inkscape-font-specification:'Lavi Bold'"
         x="1237.2577"
         y="3176.5801"
         id="tspan2463">soweli suwi li </tspan><tspan
         sodipodi:role="line"
         style="font-style:normal;font-variant:normal;font-weight:bold;font-stretch:normal;font-size:45.3333px;font-family:Lavi;-inkscape-font-specification:'Lavi Bold'"
         x="1237.2577"
         y="3233.2468"
         id="tspan78845">wan taso!</tspan></text>
    <text
       xml:space="preserve"
       style="font-style:normal;font-variant:normal;font-weight:normal;font-stretch:normal;font-size:31.9991px;line-height:125%;font-family:Lavi;-inkscape-font-specification:Lavi;text-align:center;letter-spacing:0px;word-spacing:0px;text-anchor:middle;fill:#000000;fill-opacity:1;stroke:none;stroke-width:0.999999"
       x="1309.0375"
       y="3310.5249"
       id="text4246-70-2-2-2-7-4-9-9-6-1-2-3-9-2-7-9-1"><tspan
         sodipodi:role="line"
         style="font-size:31.9991px;stroke-width:0.999999"
         x="1309.0375"
         y="3310.5249"
         id="tspan79743">soweli suwi li wan taso </tspan><tspan
         sodipodi:role="line"
         style="font-size:31.9991px;stroke-width:0.999999"
         x="1309.0375"
         y="3350.5237"
         id="tspan79747">la ni li ike...</tspan></text>
    <text
       xml:space="preserve"
       style="font-style:normal;font-variant:normal;font-weight:normal;font-stretch:normal;font-size:45.3333px;line-height:125%;font-family:Lavi;-inkscape-font-specification:Lavi;text-align:center;letter-spacing:0px;word-spacing:0px;text-anchor:middle;fill:#000000;fill-opacity:1;stroke:none"
       x="2305.2185"
       y="3151.553"
       id="text4246-70-2-2-2-7-4-9-9-6-1-2-3-9-2-7-9-5"><tspan
         sodipodi:role="line"
         style="font-size:45.3333px"
         x="2305.2185"
         y="3151.553"
         id="tspan80607-3">...</tspan></text>
  </g>
</svg>
