<?xml version="1.0" encoding="UTF-8" standalone="no"?>
<!-- Created with Inkscape (http://www.inkscape.org/) -->

<svg
   id="svg2"
   version="1.1"
   inkscape:version="1.3.2 (091e20ef0f, 2023-11-25, custom)"
   width="2481"
   height="3503"
   sodipodi:docname="E26P03.svg"
   xmlns:inkscape="http://www.inkscape.org/namespaces/inkscape"
   xmlns:sodipodi="http://sodipodi.sourceforge.net/DTD/sodipodi-0.dtd"
   xmlns:xlink="http://www.w3.org/1999/xlink"
   xmlns="http://www.w3.org/2000/svg"
   xmlns:svg="http://www.w3.org/2000/svg"
   xmlns:rdf="http://www.w3.org/1999/02/22-rdf-syntax-ns#"
   xmlns:cc="http://creativecommons.org/ns#"
   xmlns:dc="http://purl.org/dc/elements/1.1/">
  <metadata
     id="metadata8">
    <rdf:RDF>
      <cc:Work
         rdf:about="">
        <dc:format>image/svg+xml</dc:format>
        <dc:type
           rdf:resource="http://purl.org/dc/dcmitype/StillImage" />
        <dc:title />
      </cc:Work>
    </rdf:RDF>
  </metadata>
  <defs
     id="defs6" />
  <sodipodi:namedview
     pagecolor="#ffffff"
     bordercolor="#666666"
     borderopacity="1"
     objecttolerance="10"
     gridtolerance="10"
     guidetolerance="10"
     inkscape:pageopacity="0"
     inkscape:pageshadow="2"
     inkscape:window-width="1920"
     inkscape:window-height="1008"
     id="namedview4"
     showgrid="false"
     inkscape:zoom="0.40200776"
     inkscape:cx="1075.8499"
     inkscape:cy="1803.4478"
     inkscape:window-x="0"
     inkscape:window-y="0"
     inkscape:window-maximized="1"
     inkscape:current-layer="layer1"
     showguides="false"
     inkscape:showpageshadow="2"
     inkscape:pagecheckerboard="0"
     inkscape:deskcolor="#d1d1d1" />
  <g
     inkscape:groupmode="layer"
     id="layer2"
     inkscape:label="artwork"
     sodipodi:insensitive="true">
    <image
       xlink:href="../gfx_Pepper-and-Carrot_by-David-Revoy_E26P03.png"
       y="0"
       x="0"
       id="image10"
       height="3503"
       width="2481" />
  </g>
  <g
     inkscape:groupmode="layer"
     id="layer3"
     inkscape:label="speechbubbles"
     style="opacity:1">
    <path
       style="color:#000000;display:inline;overflow:visible;visibility:visible;fill:#ffffff;fill-opacity:1;fill-rule:nonzero;stroke:none;stroke-width:0.94309884px;marker:none;enable-background:accumulate"
       d="m 256.65846,623.49642 c 20.98345,-26.98761 279.83311,-46.20731 339.63027,14.82975 41.67263,42.5367 25.59663,124.10935 -10.12221,145.34442 -35.71877,21.23515 -208.16671,27.21564 -257.17939,16.40149 -44.07486,-9.7247 -90.33786,-30.6561 -92.77691,-86.36645 -0.99546,-22.73759 -0.53527,-63.22153 20.44824,-90.20921 z"
       id="path4040"
       inkscape:connector-curvature="0"
       sodipodi:nodetypes="zssssz" />
    <path
       style="fill:#ffffff;stroke:none;stroke-width:0.99999994"
       d="m 628.34471,847.51507 c -38.61917,12.80883 -55.09288,-0.0828 -66.95346,-14.05699 -11.86058,-13.97408 -28.36174,-20.89656 -39.29055,-22.32443 -10.92881,-1.42786 -28.67404,2.49427 -37.73175,7.41599 -9.05781,4.92182 -23.30007,-9.35873 -32.51481,-17.85685 -12.1752,-11.22835 -10.17368,-21.3089 -10.17368,-21.3089 0,0 -63.56569,-10.64656 -52.32882,1.21103 11.23688,11.85757 53.851,43.51663 59.4257,47.15218 5.57479,3.63555 23.61454,12.58563 34.54483,10.2648 10.93033,-2.32073 19.07986,-12.5098 32.07626,-12.9737 13.38845,-0.4779 22.37583,3.75223 33.30162,12.67727 10.92577,8.92503 37.52895,25.44728 54.48293,19.70573 16.95397,-5.74156 25.16173,-9.90613 25.16173,-9.90613 z"
       id="path3023"
       inkscape:connector-curvature="0"
       sodipodi:nodetypes="csssscssssssc" />
    <path
       style="color:#000000;display:inline;overflow:visible;visibility:visible;fill:#ffffff;fill-opacity:1;fill-rule:nonzero;stroke:none;stroke-width:1px;marker:none;enable-background:accumulate"
       d="m 1085.8968,2230.4558 c -2.8076,-15.1687 21.868,-97.9258 126.0717,-95.2517 104.2037,2.6741 128.7809,59.3042 129.4149,79.7552 0.634,20.451 -22.5103,53.9038 -37.4048,60.1108 -14.8944,6.2069 -53.8637,21.3377 -79.6018,19.1093 -25.738,-2.2286 -60.185,8.7123 -99.8697,-15.1947 -31.5416,-19.0016 -36.6178,-44.5743 -38.6103,-48.5289 z"
       id="path3365"
       inkscape:connector-curvature="0"
       sodipodi:nodetypes="cssccsc" />
    <path
       style="color:#000000;display:inline;overflow:visible;visibility:visible;fill:#ffffff;fill-opacity:1;fill-rule:nonzero;stroke:none;stroke-width:1.00914943px;marker:none;enable-background:accumulate"
       d="m 209.20221,1743.3829 c -4.418,-21.6149 -13.1391,-145.8211 182.4138,-137.5731 171.4874,7.2332 196.775,107.6099 197.5419,136.7102 0.7668,29.1005 -12.6649,58.661 -43.1168,75.7502 -32.6411,16.3843 -90.2679,25.7515 -132.6238,22.2424 -42.3556,-3.5093 -99.1414,-0.5471 -142.766,-17.3189 -30.0078,-11.5366 -56.6223,-49.5887 -61.4491,-79.8108 z"
       id="path3365-5"
       inkscape:connector-curvature="0"
       sodipodi:nodetypes="cssccsc" />
    <path
       style="color:#000000;display:inline;overflow:visible;visibility:visible;fill:#ffffff;fill-opacity:1;fill-rule:nonzero;stroke:none;stroke-width:1px;marker:none;enable-background:accumulate"
       d="m 377.75121,1797.7955 c 0.14136,37.7496 7.44343,98.937 94.82871,86.7057 -14.99489,10.61 -114.59779,34.3786 -127.13109,-74.0559 -3.63685,-31.4647 8.70865,-21.0527 15.81183,-23.0996 7.10319,-2.047 16.49055,10.4498 16.49055,10.4498 z"
       id="path4064"
       inkscape:connector-curvature="0"
       sodipodi:nodetypes="ccszc" />
    <path
       style="color:#000000;display:inline;overflow:visible;visibility:visible;fill:#ffffff;fill-opacity:1;fill-rule:nonzero;stroke:none;stroke-width:1px;marker:none;enable-background:accumulate"
       d="m 1237.4731,2165.1562 c 16.4769,-33.9641 36.832,-92.1267 -47.0265,-119.5779 18.1333,-2.9332 118.0386,19.5304 81.6003,122.4254 -10.5733,29.8573 -17.0809,15.0765 -24.3604,13.7904 -7.2795,-1.2859 -10.2134,-16.6379 -10.2134,-16.6379 z"
       id="path4064-3"
       inkscape:connector-curvature="0"
       sodipodi:nodetypes="ccszc" />
    <path
       style="fill:#ffffff;stroke:none;stroke-width:1.002231"
       d="m 50.228832,2694.5432 c -30.881699,-196.2754 65.820888,-174.0783 314.441458,-175.3217 316.81618,-1.5846 311.08762,43.0618 316.18356,126.9449 11.71827,192.8919 -70.07339,234.1842 -397.82784,222.3378 C -4.5880137,2858.1087 19.901745,2803.5949 50.228832,2694.5432 Z"
       id="path3280-8"
       inkscape:connector-curvature="0"
       sodipodi:nodetypes="csssc" />
    <path
       style="color:#000000;display:inline;overflow:visible;visibility:visible;fill:#ffffff;fill-opacity:1;fill-rule:nonzero;stroke:none;stroke-width:1.09098148px;marker:none;enable-background:accumulate"
       d="m 541.6664,2826.0288 c 14.75467,36.3891 56.10784,84.8029 132.56738,64.1383 -52.93998,24.1174 -112.04254,21.8254 -162.9129,-49.9788 -68.01242,-96.0004 -45.71056,-118.3536 -45.71056,-118.3536 z"
       id="path4064-6"
       inkscape:connector-curvature="0"
       sodipodi:nodetypes="ccscc" />
    <path
       style="color:#000000;display:inline;overflow:visible;visibility:visible;fill:#ffffff;fill-opacity:1;fill-rule:nonzero;stroke:none;stroke-width:0.98498011px;marker:none;enable-background:accumulate"
       d="m 1866.8691,2967.1271 c -2.2435,-17.8749 32.4697,-97.3439 169.3281,-85.4272 136.8583,11.9166 156.3236,54.5174 157.6876,94.0272 -2.3647,40.7155 -29.8036,70.4216 -49.9958,76.3799 -20.1922,5.9583 -50.5433,14.2286 -106.5701,15.4915 -64.7271,0.057 -102.8837,-2.4468 -143.8699,-34.9007 -39.0958,-28.7858 -24.3363,-60.8041 -26.5799,-65.5707 z"
       id="path3365-7"
       inkscape:connector-curvature="0"
       sodipodi:nodetypes="cscsccc" />
    <path
       style="color:#000000;display:inline;overflow:visible;visibility:visible;fill:#ffffff;fill-opacity:1;fill-rule:nonzero;stroke:none;stroke-width:1px;marker:none;enable-background:accumulate"
       d="m 1963.5548,2926.8144 c -22.0372,-41.7339 -131.901,-116.3258 -202.9973,-80.3598 84.8906,-21.0574 174.3494,70.9697 177.3562,85.6217 3.0068,14.6521 25.6411,-5.2619 25.6411,-5.2619 z"
       id="path3978"
       inkscape:connector-curvature="0"
       sodipodi:nodetypes="cccc" />
    <path
       style="color:#000000;display:inline;overflow:visible;visibility:visible;fill:#ffffff;fill-opacity:1;fill-rule:nonzero;stroke:none;stroke-width:0.58296984px;marker:none;enable-background:accumulate"
       d="m 365.3498,532.80415 c 15.11182,-14.31867 181.53977,-24.51596 224.60435,7.86814 30.0117,22.56846 28.429,63.39355 2.7051,74.66012 -25.72387,11.26661 -149.91701,14.43965 -185.21484,8.70205 -31.74173,-5.15958 -65.05931,-16.26504 -66.81585,-45.82297 -0.71691,-12.06376 9.60938,-31.08864 24.72124,-45.40734 z"
       id="path4040-3"
       inkscape:connector-curvature="0"
       sodipodi:nodetypes="zssssz" />
  </g>
  <g
     inkscape:groupmode="layer"
     id="layer1"
     inkscape:label="txt">
    <text
       xml:space="preserve"
       style="font-style:normal;font-variant:normal;font-weight:500;font-stretch:normal;font-size:7.0604px;line-height:1.4em;font-family:Mikhak;-inkscape-font-specification:'Mikhak Medium';text-align:center;letter-spacing:0px;word-spacing:0px;text-anchor:middle;fill:#000000;fill-opacity:1;stroke:none;stroke-width:0.88255"
       x="423.8205"
       y="658.85248"
       id="text4246-5"><tspan
         sodipodi:role="line"
         style="font-style:normal;font-variant:normal;font-weight:500;font-stretch:normal;font-size:35.5555px;font-family:Mikhak;-inkscape-font-specification:'Mikhak Medium';direction:rtl;stroke-width:0.88255;line-height:1.4em"
         x="423.8205"
         y="658.85248"
         id="tspan439">می‌دونم که گربه‌ها</tspan><tspan
         sodipodi:role="line"
         style="font-style:normal;font-variant:normal;font-weight:500;font-stretch:normal;font-size:35.5555px;font-family:Mikhak;-inkscape-font-specification:'Mikhak Medium';direction:rtl;stroke-width:0.88255;line-height:1.4em"
         x="423.8205"
         y="672.92749"
         id="tspan859">اصلا خوششون نمیاد</tspan><tspan
         sodipodi:role="line"
         style="font-style:normal;font-variant:normal;font-weight:500;font-stretch:normal;font-size:35.5555px;font-family:Mikhak;-inkscape-font-specification:'Mikhak Medium';direction:rtl;stroke-width:0.88255;line-height:1.4em"
         x="423.8205"
         y="687.0025"
         id="tspan861">که خیس بشن.</tspan></text>
    <text
       xml:space="preserve"
       style="font-style:normal;font-variant:normal;font-weight:500;font-stretch:normal;line-height:1.4em;font-family:Mikhak;-inkscape-font-specification:'Mikhak Medium';text-align:center;letter-spacing:0px;word-spacing:0px;text-anchor:middle;fill:#000000;fill-opacity:1;stroke:none"
       x="1212.8783"
       y="2228.7454"
       id="text4246-1"><tspan
         sodipodi:role="line"
         style="font-style:normal;font-variant:normal;font-weight:500;font-stretch:normal;font-size:42.6667px;font-family:Mikhak;-inkscape-font-specification:'Mikhak Medium';direction:rtl;line-height:1.4em"
         x="1212.8783"
         y="2228.7454"
         id="tspan887">نگران نباش!</tspan></text>
    <text
       xml:space="preserve"
       style="font-style:normal;font-variant:normal;font-weight:500;font-stretch:normal;font-size:13.4951px;line-height:1.4em;font-family:Mikhak;-inkscape-font-specification:'Mikhak Medium';text-align:center;letter-spacing:0px;word-spacing:0px;text-anchor:middle;fill:#000000;fill-opacity:1;stroke:none;stroke-width:1"
       x="393.50461"
       y="1699.7214"
       id="text4246-1-3"
       transform="scale(0.99789912,1.0021053)"><tspan
         sodipodi:role="line"
         style="font-style:normal;font-variant:normal;font-weight:500;font-stretch:normal;font-size:46.2222px;font-family:Mikhak;-inkscape-font-specification:'Mikhak Medium';direction:rtl;stroke-width:1;line-height:1.4em"
         x="393.50461"
         y="1699.7214"
         id="tspan914">کتابا برای اینم</tspan><tspan
         sodipodi:role="line"
         style="font-style:normal;font-variant:normal;font-weight:500;font-stretch:normal;font-size:46.2222px;font-family:Mikhak;-inkscape-font-specification:'Mikhak Medium';direction:rtl;stroke-width:1;line-height:1.4em"
         x="393.50461"
         y="1723.4274"
         id="tspan870">بدرد می‌خورن!</tspan></text>
    <text
       xml:space="preserve"
       style="font-style:normal;font-variant:normal;font-weight:500;font-stretch:normal;font-size:7.60427px;line-height:1.4em;font-family:Mikhak;-inkscape-font-specification:'Mikhak Medium';text-align:center;letter-spacing:0px;word-spacing:0px;text-anchor:middle;fill:#000000;fill-opacity:1;stroke:none;stroke-width:0.95053"
       x="382.46652"
       y="2623.9456"
       id="text4246-5-5"><tspan
         sodipodi:role="line"
         style="font-style:normal;font-variant:normal;font-weight:500;font-stretch:normal;font-size:39.1111px;font-family:Mikhak;-inkscape-font-specification:'Mikhak Medium';text-align:center;direction:rtl;text-anchor:middle;stroke-width:0.95053;line-height:1.4em"
         x="382.46652"
         y="2623.9456"
         id="tspan920">و تو کمتر از دہ دقیقه از واردشدن </tspan><tspan
         sodipodi:role="line"
         style="font-style:normal;font-variant:normal;font-weight:500;font-stretch:normal;font-size:39.1111px;font-family:Mikhak;-inkscape-font-specification:'Mikhak Medium';text-align:center;direction:rtl;text-anchor:middle;stroke-width:0.95053;line-height:1.4em"
         x="382.46652"
         y="2639.2249"
         id="tspan302">به سیاہ‌چال، این‌جا تو اتاق گنج</tspan><tspan
         sodipodi:role="line"
         style="font-style:normal;font-variant:normal;font-weight:500;font-stretch:normal;font-size:39.1111px;font-family:Mikhak;-inkscape-font-specification:'Mikhak Medium';text-align:center;direction:rtl;text-anchor:middle;stroke-width:0.95053;line-height:1.4em"
         x="382.46652"
         y="2654.5042"
         id="tspan922">نشستم و دارم برگای درخت کمیاب </tspan><tspan
         sodipodi:role="line"
         style="font-style:normal;font-variant:normal;font-weight:500;font-stretch:normal;font-size:39.1111px;font-family:Mikhak;-inkscape-font-specification:'Mikhak Medium';text-align:center;direction:rtl;text-anchor:middle;stroke-width:0.95053;line-height:1.4em"
         x="382.46652"
         y="2669.7834"
         id="tspan924">آب رو می‌چینم. </tspan><tspan
         sodipodi:role="line"
         x="382.46652"
         y="2680.4294"
         id="tspan918"
         style="font-style:normal;font-variant:normal;font-weight:500;font-stretch:normal;font-family:Mikhak;-inkscape-font-specification:'Mikhak Medium';line-height:1.4em" /></text>
    <text
       xml:space="preserve"
       style="font-style:normal;font-variant:normal;font-weight:500;font-stretch:normal;font-size:13.4951px;line-height:1.4em;font-family:Mikhak;-inkscape-font-specification:'Mikhak Medium';text-align:center;letter-spacing:0px;word-spacing:0px;text-anchor:middle;fill:#000000;fill-opacity:1;stroke:none;stroke-width:1"
       x="2035.9705"
       y="2981.3413"
       id="text4246-1-3-2"
       transform="scale(0.99789912,1.0021053)"><tspan
         sodipodi:role="line"
         style="font-style:normal;font-variant:normal;font-weight:500;font-stretch:normal;font-size:49.7778px;font-family:Mikhak;-inkscape-font-specification:'Mikhak Medium';direction:rtl;stroke-width:1;line-height:1.4em"
         x="2035.9705"
         y="2981.3413"
         id="tspan914-2">کتابا جادویین!</tspan></text>
    <text
       xml:space="preserve"
       style="font-style:normal;font-variant:normal;font-weight:500;font-stretch:normal;font-size:7.0604px;line-height:1.4em;font-family:Mikhak;-inkscape-font-specification:'Mikhak Medium';text-align:center;letter-spacing:0px;word-spacing:0px;text-anchor:middle;fill:#000000;fill-opacity:1;stroke:none;stroke-width:0.88255"
       x="473.98587"
       y="579.85919"
       id="text4246-5-6"><tspan
         sodipodi:role="line"
         style="font-style:normal;font-variant:normal;font-weight:500;font-stretch:normal;font-size:35.5555px;font-family:Mikhak;-inkscape-font-specification:'Mikhak Medium';direction:rtl;stroke-width:0.88255;line-height:1.4em"
         x="473.98587"
         y="579.85919"
         id="tspan439-5">ای وای هویج...</tspan></text>
  </g>
</svg>
