<?xml version="1.0" encoding="UTF-8" standalone="no"?>
<!-- Created with Inkscape (http://www.inkscape.org/) -->

<svg
   id="svg2"
   version="1.1"
   inkscape:version="1.3.2 (091e20ef0f, 2023-11-25, custom)"
   width="2481"
   height="3503"
   sodipodi:docname="E26P04.svg"
   xmlns:inkscape="http://www.inkscape.org/namespaces/inkscape"
   xmlns:sodipodi="http://sodipodi.sourceforge.net/DTD/sodipodi-0.dtd"
   xmlns:xlink="http://www.w3.org/1999/xlink"
   xmlns="http://www.w3.org/2000/svg"
   xmlns:svg="http://www.w3.org/2000/svg"
   xmlns:rdf="http://www.w3.org/1999/02/22-rdf-syntax-ns#"
   xmlns:cc="http://creativecommons.org/ns#"
   xmlns:dc="http://purl.org/dc/elements/1.1/">
  <metadata
     id="metadata8">
    <rdf:RDF>
      <cc:Work
         rdf:about="">
        <dc:format>image/svg+xml</dc:format>
        <dc:type
           rdf:resource="http://purl.org/dc/dcmitype/StillImage" />
        <dc:title />
      </cc:Work>
    </rdf:RDF>
  </metadata>
  <defs
     id="defs6" />
  <sodipodi:namedview
     pagecolor="#ffffff"
     bordercolor="#666666"
     borderopacity="1"
     objecttolerance="10"
     gridtolerance="10"
     guidetolerance="10"
     inkscape:pageopacity="0"
     inkscape:pageshadow="2"
     inkscape:window-width="1920"
     inkscape:window-height="1008"
     id="namedview4"
     showgrid="false"
     inkscape:zoom="0.30245747"
     inkscape:cx="1234.8844"
     inkscape:cy="2555.7312"
     inkscape:window-x="0"
     inkscape:window-y="0"
     inkscape:window-maximized="1"
     inkscape:current-layer="layer1"
     inkscape:showpageshadow="2"
     inkscape:pagecheckerboard="0"
     inkscape:deskcolor="#d1d1d1" />
  <g
     inkscape:groupmode="layer"
     id="layer2"
     inkscape:label="artwork"
     sodipodi:insensitive="true">
    <image
       xlink:href="../gfx_Pepper-and-Carrot_by-David-Revoy_E26P04.png"
       y="0"
       x="0"
       id="image10"
       height="3503"
       width="2481" />
  </g>
  <g
     inkscape:groupmode="layer"
     id="layer3"
     inkscape:label="speechbubbles">
    <path
       style="color:#000000;display:inline;overflow:visible;visibility:visible;fill:#ffffff;fill-opacity:1;fill-rule:nonzero;stroke:none;stroke-width:1.94898546px;marker:none;enable-background:accumulate"
       d="m 77.729558,1506.9232 c -5.203345,-67.4656 -3.584614,-126.5765 5.07845,-182.4591 5.380075,-34.7051 174.476322,-42.9783 232.850102,-36.6628 49.82002,5.3902 162.77122,20.0737 187.06565,68.4983 24.29455,48.4244 27.97666,123.5623 23.41598,170.8309 -4.56055,47.2686 -10.10107,57.3541 -55.60984,97.2147 -23.25795,20.3713 -158.58687,32.6947 -213.03592,35.7285 -56.14206,3.132 -134.3364,0.576 -162.01309,-31.0665 -28.05877,-32.079 -12.548133,-54.6183 -17.751332,-122.084 z"
       id="path3373"
       inkscape:connector-curvature="0"
       sodipodi:nodetypes="zsssssssz" />
    <path
       style="color:#000000;display:inline;overflow:visible;visibility:visible;fill:#ffffff;fill-opacity:1;fill-rule:nonzero;stroke:none;stroke-width:0.95470774;marker:none;enable-background:accumulate"
       d="M 369.79142,809.84364 C 305.75829,762.35821 198.20492,558.84155 249.43665,362.79562 266.81502,310.92732 307.36394,84.8784 238.16093,303.5743 c -69.203,218.6959 9.34385,417.00687 131.63049,506.26934 z"
       id="path3010"
       inkscape:connector-curvature="0"
       sodipodi:nodetypes="cczc" />
    <path
       style="color:#000000;display:inline;overflow:visible;visibility:visible;fill:#ffffff;fill-opacity:1;fill-rule:nonzero;stroke:none;stroke-width:0.92846394px;marker:none;enable-background:accumulate"
       d="m 860.75243,1017.8265 c -22.47857,-11.219 -27.79905,-26.61133 -25.55111,-33.02225 2.24784,-6.41084 22.47847,-39.26666 47.20477,-43.27347 24.72641,-4.00682 88.79012,-8.81495 103.40117,-4.80813 14.61114,4.00673 56.19634,30.45171 56.19634,44.07478 0,13.62316 -7.8675,40.06807 -30.346,48.08167 -22.4785,8.0136 -123.93103,0.7406 -150.90517,-11.0526 z"
       id="path3349"
       inkscape:connector-curvature="0"
       sodipodi:nodetypes="ccscssc" />
    <path
       style="color:#000000;display:inline;overflow:visible;visibility:visible;fill:#ffffff;fill-opacity:1;fill-rule:nonzero;stroke:none;stroke-width:0.62015647px;marker:none;enable-background:accumulate"
       d="m 803.72501,1037.9825 c 14.66913,-19.5487 138.49336,-40.76767 182.01312,-0.4818 43.51977,40.2859 14.94867,97.3247 -10.02177,112.7065 -24.97033,15.3818 -94.89002,19.2165 -129.81217,10.3485 -46.32344,-11.7632 -59.65064,-32.8926 -61.35574,-73.2471 -0.6959,-16.4701 4.50736,-29.7772 19.17656,-49.3261 z"
       id="path4040"
       inkscape:connector-curvature="0"
       sodipodi:nodetypes="zssssz" />
    <path
       style="color:#000000;display:inline;overflow:visible;visibility:visible;fill:#ffffff;fill-opacity:1;fill-rule:nonzero;stroke:none;stroke-width:0.9220413px;marker:none;enable-background:accumulate"
       d="m 1556.6491,1184.577 c -4.6607,-31.4449 7.7677,-114.9705 103.3121,-108.0919 95.5443,6.8785 111.08,46.1846 113.4103,57.9765 2.3304,11.7918 22.5267,78.6124 -52.0444,96.3003 -74.5713,17.6877 -141.3745,-0.9828 -164.678,-46.1849 z"
       id="path3525"
       inkscape:connector-curvature="0" />
    <path
       style="color:#000000;display:inline;overflow:visible;visibility:visible;fill:#ffffff;fill-opacity:1;fill-rule:nonzero;stroke:none;stroke-width:1px;marker:none;enable-background:accumulate"
       d="m 938.35118,1086.2126 c 69.98612,31.0197 98.42482,29.5718 151.73632,-4.4587 -31.1182,24.6589 -43.6342,55.9553 -145.08715,33.1222 -40.4073,-9.0941 -6.64917,-28.6635 -6.64917,-28.6635 z"
       id="path4480"
       inkscape:connector-curvature="0"
       sodipodi:nodetypes="ccsc" />
    <path
       style="color:#000000;display:inline;overflow:visible;visibility:visible;fill:#ffffff;fill-opacity:1;fill-rule:nonzero;stroke:none;stroke-width:1px;marker:none;enable-background:accumulate"
       d="m 1496.1025,1128.3709 c 34.6297,22.4436 48.151,28.3727 87.526,0.3521 39.375,-28.0207 48.7701,-12.382 48.7701,-12.382 l -12.8989,31.2148 c 0,0 -87.8568,53.5997 -123.3972,-19.1849 z"
       id="path3072"
       inkscape:connector-curvature="0" />
    <path
       style="color:#000000;display:inline;overflow:visible;visibility:visible;fill:#ffffff;fill-opacity:1;fill-rule:nonzero;stroke:none;stroke-width:0.74193799px;marker:none;enable-background:accumulate"
       d="m 1981.2747,183.12255 c -0.7336,-19.20925 5.8514,-26.39203 36.6602,-38.93681 30.809,-12.54478 60.0351,-6.41212 87.8924,-3.85385 32.0305,2.94151 66.1693,7.50842 77.1725,21.62136 11.0032,14.11286 19.8057,19.60121 16.1379,32.93007 -3.6677,13.32878 -7.3354,27.44172 -20.5392,32.14599 -13.2039,4.70434 -107.0977,10.97669 -122.5021,7.84051 -15.4046,-3.13617 -40.3451,-3.92026 -53.5488,-13.32886 -13.3861,-9.53839 -20.5394,-19.20917 -21.2729,-38.41841 z"
       id="path3373-0"
       inkscape:connector-curvature="0"
       sodipodi:nodetypes="zsssssssz" />
    <path
       style="color:#000000;display:inline;overflow:visible;visibility:visible;fill:#ffffff;fill-opacity:1;fill-rule:nonzero;stroke:none;stroke-width:1.05252004px;marker:none;enable-background:accumulate"
       d="m 1893.5238,275.99898 c 2.6846,-45.42743 36.6881,-55.43685 72.4814,-57.74673 35.7933,-2.30988 50.1107,4.61975 59.9539,6.1596 9.8431,1.53995 102.0109,-4.61974 114.5385,-3.07979 12.5277,1.53994 71.5867,22.32874 68.9021,58.51664 -2.6844,36.18791 -42.9519,51.58702 -84.1143,53.89689 -41.1623,2.30988 -125.2765,0 -145.8576,4.61975 -20.5812,4.61975 -79.6402,-3.0798 -85.904,-62.36645 z"
       id="path5034"
       inkscape:connector-curvature="0" />
    <path
       style="color:#000000;display:inline;overflow:visible;visibility:visible;fill:#ffffff;fill-opacity:1;fill-rule:nonzero;stroke:none;stroke-width:1px;marker:none;enable-background:accumulate"
       d="m 2014.1421,464.34286 c -57.0243,-41.23372 -60.4397,-86.77108 -49.5441,-144.9504 10.8956,-58.17932 39.6811,-24.31559 39.6811,-24.31559 0,0 -65.1914,100.00192 9.863,169.26599 z"
       id="path5002"
       inkscape:connector-curvature="0"
       sodipodi:nodetypes="cscc" />
    <path
       style="color:#000000;display:inline;overflow:visible;visibility:visible;fill:#ffffff;fill-opacity:1;fill-rule:nonzero;stroke:none;stroke-width:0.77728993px;marker:none;enable-background:accumulate"
       d="m 1832.4279,2232.4771 c 1.9548,12.6252 -20.2332,66.0408 -111.3756,61.8839 -91.1424,-4.157 -112.9427,-36.8339 -112.8192,-53.7968 0.1234,-16.963 21.4964,-44.2602 34.7426,-49.1276 13.2461,-4.8673 52.126,-15.6749 87.6192,-10.6767 39.5028,5.5627 74.284,12.3263 88.2445,26.9259 13.9604,14.5994 11.9752,21.4764 13.5885,24.7913 z"
       id="path3365"
       inkscape:connector-curvature="0"
       sodipodi:nodetypes="ccccscc" />
    <path
       style="color:#000000;display:inline;overflow:visible;visibility:visible;fill:#ffffff;fill-opacity:1;fill-rule:nonzero;stroke:none;stroke-width:1.50715446px;marker:none;enable-background:accumulate"
       d="m 1467.4131,2309.4063 c 35.4382,-65.1491 229.7192,-65.3935 289.4258,-36.497 59.7063,28.8961 68.3393,64.2591 70.6337,81.6125 2.2943,17.3533 -7.1694,118.76 -38.6291,134.2363 -31.4597,15.4759 -120.4264,22.5595 -151.4111,22.2827 -30.9849,-0.2768 -129.593,-11.1873 -153.927,-34.4652 -23.2781,-22.2681 -51.5305,-102.0204 -16.0923,-167.1693 z"
       id="path3330"
       inkscape:connector-curvature="0"
       sodipodi:nodetypes="zsssssz" />
    <path
       style="color:#000000;display:inline;overflow:visible;visibility:visible;fill:#ffffff;fill-opacity:1;fill-rule:nonzero;stroke:none;stroke-width:1.07720649px;marker:none;enable-background:accumulate"
       d="m 1664.135,2448.2545 c -69.9893,51.1328 8.9085,162.5856 132.4832,191.8362 -158.9941,-19.5502 -214.8639,-129.8242 -184.2863,-182.6082 -12.1609,-26.4834 51.8031,-9.228 51.8031,-9.228 z"
       id="path4008"
       inkscape:connector-curvature="0"
       sodipodi:nodetypes="cccc" />
    <path
       style="color:#000000;display:inline;overflow:visible;visibility:visible;fill:#ffffff;fill-opacity:1;fill-rule:nonzero;stroke:none;stroke-width:0.92337912px;marker:none;enable-background:accumulate"
       d="M 91.805509,69.839589 C 118.1593,44.819976 351.91785,57.851953 407.96113,125.92711 464.00427,194.00223 406.70535,286.4242 365.87638,303.1038 325.04754,319.78343 170.58392,330.08958 120.32725,309.42951 53.662925,282.02438 38.98534,238.1613 45.525484,179.35037 48.194771,155.34755 65.45156,94.859486 91.805509,69.839589 Z"
       id="path4040-0"
       inkscape:connector-curvature="0"
       sodipodi:nodetypes="zssssz" />
    <path
       style="color:#000000;display:inline;overflow:visible;visibility:visible;fill:#ffffff;fill-opacity:1;fill-rule:nonzero;stroke:none;stroke-width:1.31624353px;marker:none;enable-background:accumulate"
       d="m 439.87684,468.55748 c 4.06309,22.56052 -27.2505,120.08167 -172.70425,118.8051 -145.45375,-1.27676 -182.62914,-58.53066 -183.709075,-89.02936 -1.0801,-30.49886 30.901265,-81.01756 51.629025,-90.66695 20.72762,-9.64922 81.82907,-31.71839 138.72683,-25.1469 63.32539,7.31362 119.22219,17.10676 142.55253,42.40015 23.33015,25.29305 20.68633,37.78918 23.50494,43.63796 z"
       id="path3365-6"
       inkscape:connector-curvature="0"
       sodipodi:nodetypes="ccccscc" />
    <path
       style="color:#000000;display:inline;overflow:visible;visibility:visible;fill:#ffffff;fill-opacity:1;fill-rule:nonzero;stroke:none;stroke-width:1.17923069px;marker:none;enable-background:accumulate"
       d="m 421.00062,1204.9587 c -82.04637,41.839 -98.69807,91.9551 -101.02486,156.986 -2.32681,65.0308 42.64616,29.4851 42.64616,29.4851 0,0 -53.69551,-114.8291 58.3787,-186.4711 z"
       id="path5002-1"
       inkscape:connector-curvature="0"
       sodipodi:nodetypes="cscc" />
  </g>
  <g
     inkscape:groupmode="layer"
     id="layer1"
     inkscape:label="txt">
    <text
       xml:space="preserve"
       style="font-style:normal;font-variant:normal;font-weight:500;font-stretch:normal;font-size:48px;line-height:1.4em;font-family:Mikhak;-inkscape-font-specification:'Mikhak Medium';text-align:center;letter-spacing:0px;word-spacing:0px;text-anchor:middle;fill:#000000;fill-opacity:1;stroke:none"
       x="292.70755"
       y="1374.8282"
       id="text4246-5-5"><tspan
         sodipodi:role="line"
         style="font-style:normal;font-variant:normal;font-weight:500;font-stretch:normal;font-size:48px;font-family:Mikhak;-inkscape-font-specification:'Mikhak Medium';text-align:center;direction:rtl;text-anchor:middle;line-height:1.4em"
         x="292.70755"
         y="1374.8282"
         id="tspan478">«به خاطر این‌که</tspan><tspan
         sodipodi:role="line"
         style="font-style:normal;font-variant:normal;font-weight:500;font-stretch:normal;font-size:48px;font-family:Mikhak;-inkscape-font-specification:'Mikhak Medium';text-align:center;direction:rtl;text-anchor:middle;line-height:1.4em"
         x="292.70755"
         y="1442.0282"
         id="tspan948">از راہ میانبر اومدی،</tspan><tspan
         sodipodi:role="line"
         style="font-style:normal;font-variant:normal;font-weight:500;font-stretch:normal;font-size:48px;font-family:Mikhak;-inkscape-font-specification:'Mikhak Medium';text-align:center;direction:rtl;text-anchor:middle;line-height:1.4em"
         x="292.70755"
         y="1509.2283"
         id="tspan951">الان باید برسی به اتاق</tspan><tspan
         sodipodi:role="line"
         style="font-style:normal;font-variant:normal;font-weight:500;font-stretch:normal;font-size:48px;font-family:Mikhak;-inkscape-font-specification:'Mikhak Medium';text-align:center;direction:rtl;text-anchor:middle;line-height:1.4em"
         x="292.70755"
         y="1576.4282"
         id="tspan953">محافظ سیاہ‌چال».</tspan></text>
    <text
       xml:space="preserve"
       style="font-style:normal;font-variant:normal;font-weight:500;font-stretch:normal;font-size:48px;line-height:1.4em;font-family:Mikhak;-inkscape-font-specification:'Mikhak Medium';text-align:center;letter-spacing:0px;word-spacing:0px;text-anchor:middle;fill:#000000;fill-opacity:1;stroke:none"
       x="929.59772"
       y="989.02594"
       id="text4246-5"><tspan
         sodipodi:role="line"
         style="font-style:normal;font-variant:normal;font-weight:500;font-stretch:normal;font-size:48px;font-family:Mikhak;-inkscape-font-specification:'Mikhak Medium';direction:rtl;line-height:1.4em"
         x="929.59772"
         y="989.02594"
         id="tspan859">همم...</tspan></text>
    <text
       xml:space="preserve"
       style="font-style:normal;font-variant:normal;font-weight:500;font-stretch:normal;font-size:40.7286px;line-height:1.4em;font-family:Mikhak;-inkscape-font-specification:'Mikhak Medium';text-align:center;letter-spacing:0px;word-spacing:0px;text-anchor:middle;fill:#000000;fill-opacity:1;stroke:none;stroke-width:0.848512"
       x="897.68005"
       y="1069.7599"
       id="text4246-5-3"><tspan
         sodipodi:role="line"
         style="font-style:normal;font-variant:normal;font-weight:500;font-stretch:normal;font-size:40.7286px;line-height:1.4em;font-family:Mikhak;-inkscape-font-specification:'Mikhak Medium';direction:rtl;stroke-width:0.848512"
         x="897.68005"
         y="1069.7599"
         id="tspan964">محافظ</tspan><tspan
         sodipodi:role="line"
         style="font-style:normal;font-variant:normal;font-weight:500;font-stretch:normal;font-size:40.7286px;line-height:1.4em;font-family:Mikhak;-inkscape-font-specification:'Mikhak Medium';direction:rtl;stroke-width:0.848512"
         x="897.68005"
         y="1126.7799"
         id="tspan868">سیاہ‌چال؟!</tspan></text>
    <text
       xml:space="preserve"
       style="font-style:normal;font-variant:normal;font-weight:500;font-stretch:normal;font-size:48px;line-height:1.4em;font-family:Mikhak;-inkscape-font-specification:'Mikhak Medium';text-align:center;letter-spacing:0px;word-spacing:0px;text-anchor:middle;fill:#000000;fill-opacity:1;stroke:none"
       x="1669.2767"
       y="1168.7792"
       id="text4246-5-3-7"><tspan
         sodipodi:role="line"
         style="font-style:normal;font-variant:normal;font-weight:500;font-stretch:normal;font-size:48px;font-family:Mikhak;-inkscape-font-specification:'Mikhak Medium';direction:rtl;line-height:1.4em"
         x="1669.2767"
         y="1168.7792"
         id="tspan917-6">ولی کجا؟</tspan></text>
    <text
       xml:space="preserve"
       style="font-style:normal;font-variant:normal;font-weight:500;font-stretch:normal;font-size:48px;line-height:1.4em;font-family:Mikhak;-inkscape-font-specification:'Mikhak Medium';text-align:center;letter-spacing:0px;word-spacing:0px;text-anchor:middle;fill:#000000;fill-opacity:1;stroke:none"
       x="2081.5693"
       y="200.21571"
       id="text4246-5-3-7-2"><tspan
         sodipodi:role="line"
         style="font-style:normal;font-variant:normal;font-weight:500;font-stretch:normal;font-size:48px;font-family:Mikhak;-inkscape-font-specification:'Mikhak Medium';direction:rtl;line-height:1.4em"
         x="2081.5693"
         y="200.21571"
         id="tspan917-6-7">آها ها...</tspan></text>
    <text
       xml:space="preserve"
       style="font-style:normal;font-variant:normal;font-weight:500;font-stretch:normal;font-size:48px;line-height:1.4em;font-family:Mikhak;-inkscape-font-specification:'Mikhak Medium';text-align:center;letter-spacing:0px;word-spacing:0px;text-anchor:middle;fill:#000000;fill-opacity:1;stroke:none"
       x="2048.343"
       y="284.80627"
       id="text4246-5-3-7-2-0"><tspan
         sodipodi:role="line"
         style="font-style:normal;font-variant:normal;font-weight:500;font-stretch:normal;font-size:48px;font-family:Mikhak;-inkscape-font-specification:'Mikhak Medium';direction:rtl;line-height:1.4em"
         x="2048.343"
         y="284.80627"
         id="tspan917-6-7-6">پیدات کردم!</tspan></text>
    <text
       xml:space="preserve"
       style="font-style:normal;font-variant:normal;font-weight:500;font-stretch:normal;font-size:43.5886px;line-height:1.4em;font-family:Mikhak;-inkscape-font-specification:'Mikhak Medium';text-align:center;letter-spacing:0px;word-spacing:0px;text-anchor:middle;fill:#000000;fill-opacity:1;stroke:none;stroke-width:0.908095"
       x="1716.2399"
       y="2246.1672"
       id="text4246-5-3-7-6"><tspan
         sodipodi:role="line"
         style="font-style:normal;font-variant:normal;font-weight:500;font-stretch:normal;font-size:43.5886px;line-height:1.4em;font-family:Mikhak;-inkscape-font-specification:'Mikhak Medium';direction:rtl;stroke-width:0.908095"
         x="1716.2399"
         y="2246.1672"
         id="tspan917-6-8">هــا هـــا!</tspan></text>
    <text
       xml:space="preserve"
       style="font-style:normal;font-variant:normal;font-weight:500;font-stretch:normal;font-size:43.5886px;line-height:1.4em;font-family:Mikhak;-inkscape-font-specification:'Mikhak Medium';text-align:center;letter-spacing:0px;word-spacing:0px;text-anchor:middle;fill:#000000;fill-opacity:1;stroke:none;stroke-width:0.908095"
       x="1640.2594"
       y="2355.1821"
       id="text4246-5-3-79"><tspan
         sodipodi:role="line"
         style="font-style:normal;font-variant:normal;font-weight:500;font-stretch:normal;font-size:43.5886px;line-height:1.4em;font-family:Mikhak;-inkscape-font-specification:'Mikhak Medium';direction:rtl;stroke-width:0.908095"
         x="1640.2594"
         y="2355.1821"
         id="tspan917-3">وقتی نقطه ضعفش</tspan><tspan
         sodipodi:role="line"
         style="font-style:normal;font-variant:normal;font-weight:500;font-stretch:normal;font-size:43.5886px;line-height:1.4em;font-family:Mikhak;-inkscape-font-specification:'Mikhak Medium';direction:rtl;stroke-width:0.908095"
         x="1640.2594"
         y="2416.2061"
         id="tspan1019">رو بدونی خیلی آسونه!</tspan></text>
    <text
       xml:space="preserve"
       style="font-style:normal;font-variant:normal;font-weight:500;font-stretch:normal;font-size:48px;line-height:1.4em;font-family:Mikhak;-inkscape-font-specification:'Mikhak Medium';text-align:center;letter-spacing:0px;word-spacing:0px;text-anchor:middle;fill:#000000;fill-opacity:1;stroke:none"
       x="248.19962"
       y="178.25061"
       id="text4246-5-5-3"><tspan
         sodipodi:role="line"
         style="font-style:normal;font-variant:normal;font-weight:500;font-stretch:normal;font-size:48px;font-family:Mikhak;-inkscape-font-specification:'Mikhak Medium';text-align:center;direction:rtl;text-anchor:middle;line-height:1.4em"
         x="248.19962"
         y="178.25061"
         id="tspan940">«از سر راہ </tspan><tspan
         sodipodi:role="line"
         style="font-style:normal;font-variant:normal;font-weight:500;font-stretch:normal;font-size:48px;font-family:Mikhak;-inkscape-font-specification:'Mikhak Medium';text-align:center;direction:rtl;text-anchor:middle;line-height:1.4em"
         x="248.19962"
         y="245.45061"
         id="tspan883">یه پر بردار».</tspan></text>
    <text
       xml:space="preserve"
       style="font-style:normal;font-variant:normal;font-weight:500;font-stretch:normal;font-size:48px;line-height:1.4em;font-family:Mikhak;-inkscape-font-specification:'Mikhak Medium';text-align:center;letter-spacing:0px;word-spacing:0px;text-anchor:middle;fill:#000000;fill-opacity:1;stroke:none;stroke-width:0.926994"
       x="259.16489"
       y="464.17123"
       id="text4246-5-3-9"><tspan
         sodipodi:role="line"
         style="font-style:normal;font-variant:normal;font-weight:500;font-stretch:normal;font-size:48px;font-family:Mikhak;-inkscape-font-specification:'Mikhak Medium';direction:rtl;stroke-width:0.926994;line-height:1.4em"
         x="259.16489"
         y="464.17123"
         id="tspan995">این‌جا هم که</tspan><tspan
         sodipodi:role="line"
         style="font-style:normal;font-variant:normal;font-weight:500;font-stretch:normal;font-size:48px;font-family:Mikhak;-inkscape-font-specification:'Mikhak Medium';direction:rtl;stroke-width:0.926994;line-height:1.4em"
         x="259.16489"
         y="531.37122"
         id="tspan894">پر از پرہ!</tspan></text>
    <text
       xml:space="preserve"
       style="font-style:normal;font-variant:normal;font-weight:normal;font-stretch:normal;font-size:9.62365px;line-height:0%;font-family:Lavi;-inkscape-font-specification:Lavi;text-align:center;letter-spacing:0px;word-spacing:0px;text-anchor:middle;fill:#000000;fill-opacity:1;stroke:none;stroke-width:0.801971"
       x="-471.04593"
       y="2038.0599"
       id="text4246-5-5-8-3"
       transform="matrix(0.7609691,-0.67575823,0.671699,0.71762951,0,0)"
       inkscape:transform-center-x="-65.071236"
       inkscape:transform-center-y="-4.5235747"><tspan
         sodipodi:role="line"
         style="font-style:normal;font-variant:normal;font-weight:normal;font-stretch:normal;font-size:37.3333px;line-height:1.25;font-family:'XP Vosta';-inkscape-font-specification:'XP Vosta';text-align:start;text-anchor:start;fill:#ffffff;fill-opacity:1;stroke-width:0.801971"
         x="-471.04593"
         y="2038.0599"
         id="tspan478-2-7">قلقلک</tspan></text>
    <flowRoot
       xml:space="preserve"
       id="flowRoot896"
       style="font-style:normal;font-variant:normal;font-weight:normal;font-stretch:normal;font-size:45px;line-height:100%;font-family:midan;-inkscape-font-specification:'midan, Normal';text-align:center;letter-spacing:0px;word-spacing:0px;writing-mode:lr-tb;text-anchor:middle;fill:#000000;fill-opacity:1;stroke:none;stroke-width:1px;stroke-linecap:butt;stroke-linejoin:miter;stroke-opacity:1"><flowRegion
         id="flowRegion898"><rect
           id="rect900"
           width="39.74382"
           height="77.149765"
           x="258.33484"
           y="262.70975" /></flowRegion><flowPara
         id="flowPara902" /></flowRoot>
    <text
       xml:space="preserve"
       style="font-style:normal;font-variant:normal;font-weight:normal;font-stretch:normal;font-size:9.62365px;line-height:0%;font-family:Lavi;-inkscape-font-specification:Lavi;text-align:center;letter-spacing:0px;word-spacing:0px;text-anchor:middle;fill:#000000;fill-opacity:1;stroke:none;stroke-width:0.801971"
       x="42.706104"
       y="2114.1199"
       id="text4246-5-5-8-3-7"
       transform="matrix(0.91038251,-0.4548921,0.46223011,0.86747621,0,0)"
       inkscape:transform-center-x="-63.92422"
       inkscape:transform-center-y="12.451893"><tspan
         sodipodi:role="line"
         style="font-style:normal;font-variant:normal;font-weight:normal;font-stretch:normal;font-size:32px;line-height:1.25;font-family:'XP Vosta';-inkscape-font-specification:'XP Vosta';text-align:start;text-anchor:start;fill:#ffffff;fill-opacity:1;stroke-width:0.801971"
         x="42.706104"
         y="2114.1199"
         id="tspan478-2-7-9">قلقلک</tspan></text>
  </g>
</svg>
