<?xml version="1.0" encoding="UTF-8" standalone="no"?>
<svg
   id="svg2"
   version="1.1"
   inkscape:version="1.1.1 (3bf5ae0d25, 2021-09-20)"
   width="2481"
   height="3503"
   sodipodi:docname="E35P02.svg"
   xmlns:inkscape="http://www.inkscape.org/namespaces/inkscape"
   xmlns:sodipodi="http://sodipodi.sourceforge.net/DTD/sodipodi-0.dtd"
   xmlns:xlink="http://www.w3.org/1999/xlink"
   xmlns="http://www.w3.org/2000/svg"
   xmlns:svg="http://www.w3.org/2000/svg"
   xmlns:rdf="http://www.w3.org/1999/02/22-rdf-syntax-ns#"
   xmlns:cc="http://creativecommons.org/ns#"
   xmlns:dc="http://purl.org/dc/elements/1.1/">
  <metadata
     id="metadata8">
    <rdf:RDF>
      <cc:Work
         rdf:about="">
        <dc:format>image/svg+xml</dc:format>
        <dc:type
           rdf:resource="http://purl.org/dc/dcmitype/StillImage" />
        <dc:title />
      </cc:Work>
    </rdf:RDF>
  </metadata>
  <defs
     id="defs6" />
  <sodipodi:namedview
     pagecolor="#ffffff"
     bordercolor="#666666"
     borderopacity="1"
     objecttolerance="10"
     gridtolerance="10"
     guidetolerance="10"
     inkscape:pageopacity="0"
     inkscape:pageshadow="2"
     inkscape:window-width="1920"
     inkscape:window-height="1001"
     id="namedview4"
     showgrid="false"
     inkscape:window-x="-9"
     inkscape:window-y="-9"
     inkscape:window-maximized="1"
     inkscape:document-rotation="0"
     inkscape:snap-global="false"
     inkscape:pagecheckerboard="0"
     inkscape:zoom="0.23180131"
     inkscape:cx="1240.2863"
     inkscape:cy="1753.657"
     inkscape:current-layer="layer3" />
  <g
     inkscape:groupmode="layer"
     id="layer2"
     inkscape:label="artwork"
     sodipodi:insensitive="true">
    <image
       xlink:href="../gfx_Pepper-and-Carrot_by-David-Revoy_E35P02.png"
       y="0"
       x="0"
       id="image10"
       height="3503"
       width="2481" />
  </g>
  <g
     inkscape:groupmode="layer"
     id="layer3"
     inkscape:label="speechbubbles">
    <path
       style="color:#000000;display:inline;overflow:visible;visibility:visible;fill:#ffffff;fill-opacity:1;fill-rule:nonzero;stroke:none;stroke-width:1.04438px;marker:none;enable-background:accumulate"
       d="m 304.05483,2060.6861 c -6.79342,17.214 -45.10939,18.658 -59.21454,15.159 28.43271,19.257 27.44145,31.222 -11.16214,33.079 64.739,34.707 11.83512,29.455 1.40028,38.255 50.83203,11.961 33.98368,30.089 1.35601,38.422 58.42648,0.509 44.28227,12.725 22.16208,30.304 25.86883,-11.509 65.7741,-19.785 67.18998,10.306 37.48188,-26.287 56.82071,-25.775 70.37483,3.95 11.32193,-25.632 49.87371,-30.565 64.61509,-2.922 12.69876,-37.411 58.00938,-32.144 84.98117,-14.013 -15.1407,-12.796 -4.81614,-33.866 46.8039,-29.605 -4.15493,-11.73 2.37911,-26.535 28.44667,-24.58 -30.0266,-7.085 -35.56033,-14.394 20.19222,-22.259 -42.42443,-0.76 -81.98553,-2.319 -32.21243,-29.141 -15.61517,-0.649 -52.66388,21.732 -35.39036,-43.765 -45.7335,19.313 -93.79048,29.186 -91.4261,-11.382 -17.00247,21.943 -46.49287,32.801 -59.32274,5.393 -10.59102,25.603 -42.76005,14.882 -59.47129,-2.593 -11.04194,17.342 -27.55958,29.055 -59.32263,5.392 z"
       id="path3549-3-7-8"
       inkscape:connector-curvature="0"
       sodipodi:nodetypes="ccccccccccccccccccc" />
    <path
       style="fill:#ffffff;stroke:none;stroke-width:1.11747"
       d="m 402.95155,2014.2181 c 26.97915,-1.1151 157.35896,-6.3967 155.33108,101.0997 -2.54084,134.6965 -3.821,196.2482 -143.43924,194.1791 -149.95773,-2.2225 -119.77638,-83.4609 -120.95054,-185.257 -1.03953,-90.1215 36.66343,-106.7644 109.0587,-110.0218 z"
       id="path3280-8-6"
       inkscape:connector-curvature="0"
       sodipodi:nodetypes="csssc" />
    <path
       style="color:#000000;display:inline;overflow:visible;visibility:visible;fill:#ffffff;fill-opacity:1;fill-rule:nonzero;stroke:none;stroke-width:1px;marker:none;enable-background:accumulate"
       d="m 596.40058,2341.6788 c -54.36956,-1.3158 -66.37353,-18.0831 -76.5499,-29.227 3.41593,-3.9672 8.07344,-11.8668 8.07344,-11.8668 0,0 -22.49109,-20.0802 -27.87182,-30.4304 -5.38071,-10.3501 9.28192,-17.9731 9.28192,-17.9731 0,0 44.94813,37.9871 57.64264,43.4391 -9.83295,10.5902 -13.21387,16.7305 -18.38931,19.4211 3.1733,8.211 28.66645,25.6349 47.81303,26.6371 z"
       id="path4456-3"
       inkscape:connector-curvature="0" />
    <path
       style="color:#000000;display:inline;overflow:visible;visibility:visible;fill:#ffffff;fill-opacity:1;fill-rule:nonzero;stroke:none;stroke-width:0.803733px;marker:none;enable-background:accumulate"
       d="m 1983.6307,2169.1943 c -4.3305,-56.497 5.9266,-125.335 143.5229,-109.0086 131.1888,15.5659 122.995,36.9633 124.3842,108.6937 1.4636,75.5745 -52.0802,112.1707 -146.0786,104.9253 -55.0849,-4.2457 -109.9759,-8.2642 -121.8285,-104.6104 z"
       id="path5026-4"
       inkscape:connector-curvature="0"
       sodipodi:nodetypes="csssc" />
    <path
       style="color:#000000;display:inline;overflow:visible;visibility:visible;fill:#ffffff;fill-opacity:1;fill-rule:nonzero;stroke:none;stroke-width:1.63768px;marker:none;enable-background:accumulate"
       d="m 2065.086,2229.8886 c -4.2272,-2.5286 -41.7209,44.7549 -41.7209,44.7549 l -35.4466,3.459 1.2502,26.926 -53.4012,-4.5662 35.1739,-8.2914 -1.9242,-26.5703 33.0101,-11.5413 29.8178,-33.9388 z"
       id="path4448"
       inkscape:connector-curvature="0"
       sodipodi:nodetypes="cccccccccc" />
    <path
       style="color:#000000;display:inline;overflow:visible;visibility:visible;fill:#ffffff;fill-opacity:1;fill-rule:nonzero;stroke:none;stroke-width:0.823535px;marker:none;enable-background:accumulate"
       d="m 148.48197,2675.9256 c -5.46661,-21.2516 9.111,-78.4212 121.17689,-76.517 112.06578,1.904 130.28795,28.1864 133.02121,36.1389 2.73334,7.9523 26.42205,52.8128 -61.04395,67.0083 -87.46608,14.1953 -165.82099,3.4366 -193.15415,-26.6302 z"
       id="path3525"
       inkscape:connector-curvature="0" />
    <path
       style="color:#000000;display:inline;overflow:visible;visibility:visible;fill:#ffffff;fill-opacity:1;fill-rule:nonzero;stroke:none;stroke-width:0.886811px;marker:none;enable-background:accumulate"
       d="m 1179.2987,2492.4237 c -20.7667,0.8182 -41.8655,1.788 -61.7522,6.9827 -26.5667,7.5173 -47.6072,26.7389 -52.0929,48.8922 -2.1802,13.8942 6.6012,28.0441 20.6453,36.2747 16.1139,9.8699 35.7619,15.2118 55.338,19.0219 29.4171,5.4774 59.93,5.2221 89.911,3.7345 23.8538,-1.3088 47.8607,-4.9224 69.4905,-13.2573 9.6143,-3.5602 19.1749,-8.4478 24.2314,-16.0968 6.7073,-9.7255 7.1894,-21.3487 4.851,-32.0561 -2.8941,-13.2028 -11.6264,-25.8753 -25.5172,-33.7852 -15.3357,-9.089 -34.2722,-13.2462 -52.923,-15.6624 -17.4107,-2.2129 -35.0175,-3.2505 -52.5935,-4.2311 -6.5345,-0.2852 -13.0614,-0.132 -19.5884,0.1829 z"
       id="path3525-3"
       inkscape:connector-curvature="0" />
    <path
       style="color:#000000;display:inline;overflow:visible;visibility:visible;fill:#ffffff;fill-opacity:1;fill-rule:nonzero;stroke:none;stroke-width:0.850812px;marker:none;enable-background:accumulate"
       d="m 378.31396,2800.4734 c -21.81603,-6.0365 -24.7236,-21.3438 -23.81085,-34.7307 0.91307,-13.3879 3.43731,-21.6544 -10.14803,-38.2382 -13.58559,-16.5829 -43.44749,-17.8668 -26.36893,-33.9071 2.07754,-10.3968 3.18888,-19.4098 8.63924,-29.73 6.0118,-11.3839 -30.60834,-11.6128 -30.60834,-11.6128 0,0 -9.2601,36.4069 -8.60393,58.2554 0.65624,21.8486 37.98578,15.4181 49.29264,29.8458 10.55851,13.4728 3.54145,36.8172 10.69223,46.6028 7.15061,9.7866 19.89022,13.3481 30.91597,13.5148 z"
       id="path4538-8"
       inkscape:connector-curvature="0"
       sodipodi:nodetypes="csscscsssc" />
    <path
       style="fill:#ffffff;fill-rule:evenodd;stroke:none;stroke-width:1.00018px;stroke-linecap:butt;stroke-linejoin:miter;stroke-opacity:1"
       d="m 683.3565,2839.4097 c 22.47948,-7.6888 8.18259,-27.2917 13.56572,-36.5201 5.55722,-9.5269 47.07364,3.0903 52.88651,-5.37 5.81286,-8.4604 -12.6074,-31.2018 -3.16551,-44.2198 9.44226,-13.0187 37.29048,-1.0958 25.77916,13.6924 -11.51166,14.7889 6.85876,28.7751 -4.63767,39.1332 -19.17293,17.274 -46.18634,1.6002 -58.07288,2.8253 -7.86988,0.8115 -1.86593,15.6117 -9.63373,23.71 -7.76824,8.099 -16.7216,6.749 -16.7216,6.749 z"
       id="path4272-2"
       inkscape:connector-curvature="0"
       sodipodi:nodetypes="csssssssc" />
    <path
       style="fill:#ffffff;stroke:none;stroke-width:1.03446"
       d="m 1749.0598,2739.2306 c -1.2968,-32.5196 21.9575,-113.9286 135.3906,-107.8056 113.4332,6.123 148.9359,41.8938 152.2602,99.6969 5.2585,91.4439 -54.4187,115.8815 -140.1095,122.6542 -88.3382,6.9825 -148.9122,-55.7872 -147.5413,-114.5455 z"
       id="path3280-8-90"
       inkscape:connector-curvature="0"
       sodipodi:nodetypes="csssc" />
    <path
       style="color:#000000;display:inline;overflow:visible;visibility:visible;fill:#ffffff;fill-opacity:1;fill-rule:nonzero;stroke:none;stroke-width:1px;marker:none;enable-background:accumulate"
       d="m 1981.8954,2716.5742 c 21.7602,57.3157 81.8906,99.8161 102.9782,111.0989 -62.8332,-18.8149 -116.4083,-51.6111 -129.2847,-90.9766 -12.8765,-39.3656 26.3065,-20.1223 26.3065,-20.1223 z"
       id="path4480"
       inkscape:connector-curvature="0" />
    <path
       style="fill:#ffffff;fill-rule:evenodd;stroke:none;stroke-width:0.948577px;stroke-linecap:butt;stroke-linejoin:miter;stroke-opacity:1"
       d="m 1142.7461,1150.3215 c -26.7361,0.2228 -53.5793,2.9824 -79.5812,10.3896 -9.7626,2.8863 -19.4644,6.2476 -28.7196,10.8769 -12.1154,6.5865 -21.2853,18.6167 -28.1464,31.6025 -7.79046,14.8996 -12.73978,31.6294 -15.18047,48.7612 -1.95151,13.3869 -2.91349,26.9483 -3.41983,40.5013 -0.50494,18.6732 1.30421,37.5702 6.64198,55.2776 6.26862,22.0079 16.72952,42.9302 32.12932,58.1053 14.7779,13.9711 32.9966,21.924 51.2214,27.7574 30.0315,9.2016 61.3217,10.5977 92.2386,10.5804 23.2877,-0.2844 46.4076,-4.6916 68.9315,-11.3292 17.3369,-4.7945 34.6299,-10.2656 51.0251,-18.434 12.2284,-6.5233 23.5186,-16.4563 30.2552,-30.1329 8.9823,-17.1556 12.9126,-36.9678 16.1916,-56.4249 3.5558,-22.3097 5.329,-45.5079 1.1198,-67.8728 -4.0738,-21.1955 -14.0175,-40.1334 -25.2013,-57.3206 -14.3367,-20.625 -34.839,-34.6702 -56.5869,-42.375 -23.423,-8.3361 -48.1475,-9.5731 -72.4906,-9.9177 -13.4756,-0.1056 -26.9524,-0.1 -40.4282,-0.045 z"
       id="path1353"
       inkscape:connector-curvature="0"
       sodipodi:nodetypes="cssscscssccc" />
    <path
       style="color:#000000;display:inline;overflow:visible;visibility:visible;fill:#ffffff;fill-opacity:1;fill-rule:nonzero;stroke:none;stroke-width:1.32704px;marker:none;enable-background:accumulate"
       d="m 1567.2167,1263.2749 c -23.3951,-13.5874 -47.4345,-27.8488 -80.2438,-37.3029 -9.419,-2.6108 -19.456,-5.052 -29.7275,-6.2777 -10.8699,-0.2589 -18.5833,3.1803 -21.2691,7.3616 -4.9062,5.8321 -4.0751,13.3543 -14.8239,17.5815 -8.0334,2.9766 -20.4058,1.2285 -30.8948,0.151 -55.5613,-5.5966 -116.4529,-16.3815 -168.9125,-7.1839 -10.3316,2.0201 -20.2049,4.8402 -25.0559,9.4641 -13.7945,11.5007 -11.0257,28.0336 10.0671,40.719 14.9737,7.6682 42.5542,10.484 56.687,4.5569 7.5899,-3.0688 8.1735,-8.3583 5.5139,-13.1861 -1.2458,-8.9607 7.6217,0.022 24.0822,-3.6677 37.2334,-5.6014 77.5291,-14.6477 110.5037,-9.7254 10.0809,1.4739 25.6582,0.1256 35.3315,-0.599 12.5832,-2.5592 14.9137,-9.3886 15.3033,-15.3984 0.7726,-6.1637 0.047,-13.4883 11.1891,-17.2514 6.7172,-3.1499 17.8965,0.5337 26.5328,1.8753 27.2211,5.8451 51.5565,15.088 70.9679,25.6439 1.7031,1.0526 3.2274,2.1441 4.749,3.2392 z"
       id="path4496-9"
       inkscape:connector-curvature="0"
       inkscape:transform-center-x="43.812193"
       inkscape:transform-center-y="17.777857"
       sodipodi:nodetypes="ccccccccccccccccccc" />
    <path
       style="fill:#ffffff;stroke:none;stroke-width:0.742945"
       d="m 931.12403,506.07458 c 2.94519,-79.95564 17.22027,-109.60227 190.37677,-112.65143 239.6483,-4.2206 256.4155,63.76808 251.8628,157.5583 -4.9121,101.19365 -146.2525,101.47753 -261.7903,98.35148 -199.37995,-5.39418 -178.65163,-61.2111 -180.44927,-143.25835 z"
       id="path3280-8-0"
       inkscape:connector-curvature="0"
       sodipodi:nodetypes="csssc" />
    <path
       style="display:inline;fill:#ffffff;stroke:none;stroke-width:0.780241"
       d="m 846.26269,318.63754 c 2.64624,-62.9498 17.77499,-145.15068 157.47751,-146.44194 139.7022,-1.29222 186.7111,38.50078 194.4921,107.2676 14.9048,131.72583 -56.0665,121.41139 -160.7332,135.97035 -107.9001,15.00816 -195.32553,-4.53008 -191.23641,-96.79601 z"
       id="path3280-8-2"
       inkscape:connector-curvature="0"
       sodipodi:nodetypes="csssc" />
    <path
       style="color:#000000;display:inline;overflow:visible;visibility:visible;fill:#ffffff;fill-opacity:1;fill-rule:nonzero;stroke:none;stroke-width:1.31527px;marker:none;enable-background:accumulate"
       d="m 1028.1586,634.23591 c 29.664,-37.13091 395.5934,-63.57405 480.1273,20.40242 58.9116,58.52252 36.1853,170.75199 -14.3094,199.96637 -50.495,29.21582 -294.2806,37.44451 -363.5686,22.56548 -62.3073,-13.37839 -127.7085,-42.17655 -131.15656,-118.82414 -1.40714,-31.28216 -0.75673,-86.98071 28.90726,-124.11013 z"
       id="path4040-5"
       inkscape:connector-curvature="0"
       sodipodi:nodetypes="zssssz" />
    <path
       style="color:#000000;display:inline;overflow:visible;visibility:visible;fill:#ffffff;fill-opacity:1;fill-rule:nonzero;stroke:none;stroke-width:1px;marker:none;enable-background:accumulate"
       d="m 880.35523,328.5815 c -13.93862,-43.79995 -75.39205,-33.32608 -131.42892,10.54697 35.43843,-36.41055 76.35778,-76.93843 143.98747,-47.05147 49.32789,21.79901 14.57754,15.53221 14.57754,15.53221 z"
       id="path4035-4"
       inkscape:connector-curvature="0"
       sodipodi:nodetypes="ccscc" />
    <path
       style="display:inline;fill:#ffffff;fill-rule:evenodd;stroke:none;stroke-width:1.35988px;stroke-linecap:butt;stroke-linejoin:miter;stroke-opacity:1"
       d="m 1548.4515,71.619933 c 27.3196,5.793404 26.6857,18.959491 13.8891,17.639048 8.203,22.947809 33.3246,75.029379 11.5045,81.465079 0.3516,63.9758 14.6683,96.99152 -1.714,133.3805 60.3729,-16.22272 62.7234,11.34478 58.1846,37.36138 22.2713,-34.64111 39.3014,-12.07585 32.6237,19.78535 22.8857,-34.83705 49.4081,-50.69323 45.1581,-13.35757 25.8612,-26.97855 27.1842,-39.45512 48.908,-27.78038 39.4908,-32.36707 55.9615,12.81962 79.8724,32.93992 8.9161,-36.73832 25.4937,-29.5983 54.5216,-10.87598 9.9316,-15.46913 -13.1779,-42.91267 13.9471,-9.1895 -10.9224,-38.67303 44.4855,-20.02028 55.7909,-14.32381 -13.8464,-17.39684 9.9565,-22.00167 77.0661,-11.89519 -25.9886,-9.30819 -37.1431,-40.04329 14.9979,-61.82426 -68.3787,8.83659 -42.8973,-9.45622 -21.9091,-29.45507 -44.7195,-30.71396 -0.2338,-59.34641 21.9932,-88.49783 -45.1635,13.50432 -61.603,-44.502353 -69.9318,-58.334579 -68.55,10.543316 -58.3819,4.67716 -51.803,-0.440896 -42.4707,12.824672 -40.0905,1.446479 -51.0665,-2.724502 -116.7083,15.616521 -112.5755,-0.688504 -136.7126,-9.525581 -9.5622,18.669199 -34.1487,11.414952 -58.7974,4.053771 0.924,15.799861 -13.9625,11.180214 -28.5183,6.987641 -1.8647,6.812619 -16.3211,8.77544 -47.7548,4.198974 22.4482,5.623526 8.5853,6.563777 -60.2497,0.413485 z"
       id="path4289-9-2"
       inkscape:connector-curvature="0"
       sodipodi:nodetypes="cccccccccccccccccccccccc" />
    <path
       style="fill:#ffffff;fill-opacity:1;fill-rule:evenodd;stroke:none;stroke-width:1.00695px;stroke-linecap:butt;stroke-linejoin:miter;stroke-opacity:1"
       d="m 2392.4514,828.31665 c -1.2897,6.34195 -59.6083,55.67385 -23.1902,12.27055 l -34.0742,12.12489 c -66.0475,-26.31741 -282.1311,-10.24548 -354.4099,4.27336 l -19.8277,-26.10175 3.9549,21.91163 -22.9882,-32.45316 12.8831,43.70313 -12.1343,-14.83665 5.0964,16.38217 -11.7866,-7.96597 1.9937,14.02227 c -27.4039,13.02061 -42.9852,38.6939 -49.158,65.18156 l -22.1306,-2.39962 20.5581,10.35709 c -0.2616,1.60795 -0.4974,3.2159 -0.6919,4.81912 -0.012,0.10971 -0.026,0.22227 -0.037,0.33199 l -23.2611,-3.78341 22.3359,14.1055 c -0.049,0.75385 -0.097,1.5058 -0.1394,2.26627 l -44.5053,-8.83427 44.129,24.00669 c -0.011,26.96436 3.1924,54.63526 4.8504,66.73086 1.1496,8.3859 2.3852,23.9368 9.1012,27.2702 l -41.451,10.0692 54.9279,-5.4935 c 1.1667,0.1226 2.3577,0.2449 3.5539,0.3675 l -14.1903,3.4243 24.7037,-2.3849 c 2.5279,0.2411 5.1111,0.4809 7.744,0.7194 l -25.5828,7.6712 38.1594,-6.5785 c 91.8494,7.6565 288.1993,15.2779 425.1752,-3.2458 l 20.245,3.9931 -7.7792,-5.7621 c 2.6744,-0.398 6.1072,-0.805 6.2491,-1.2225 l 0.4804,0.1682 -0.3183,-1.2778 c 0.03,-0.2112 0.06,-0.4228 0.091,-0.6363 l 1.6369,2.8101 -1.2303,-14.9918 c 0.7755,-17.4103 0.9748,-37.1654 0.8789,-57.172 l 1.4846,-12.03792 c -2.5661,6.22845 -1.6495,-7.47602 -0.036,-14.52451 l -1.4494,0.97517 c 0.1403,-16.19678 -0.3784,-45.90319 -1.0578,-61.40761 l 0.068,-11.756 c -1.1894,1.12651 -0.4234,-8.98845 -0.015,-17.79623 -1.306,7.9253 -1.1457,4.5959 -0.632,-10.81204 -2.1993,4.39065 1.1775,-36.29143 1.7752,-46.48111 z"
       id="path4212-3"
       inkscape:connector-curvature="0"
       sodipodi:nodetypes="ccccccccccccccccccccccsccccccccccccccccccccccccccc" />
    <path
       style="display:inline;fill:#ffffff;fill-rule:evenodd;stroke:none;stroke-width:1.44912px;stroke-linecap:butt;stroke-linejoin:miter;stroke-opacity:1"
       d="m 2102.6149,751.43806 c 0.6806,41.31231 13.5699,99.33289 8.1415,118.1885 4.1542,65.56524 102.9122,-3.97588 46.8489,-17.72263 -23.7511,-36.29813 -38.7836,-65.39219 -54.9904,-100.46587 z"
       id="path4667-2"
       inkscape:connector-curvature="0"
       sodipodi:nodetypes="cccc" />
    <path
       style="color:#000000;display:inline;overflow:visible;visibility:visible;fill:#ffffff;fill-opacity:1;fill-rule:nonzero;stroke:none;stroke-width:0.929472px;marker:none;enable-background:accumulate"
       d="m 720.88352,2654.7496 c -29.92875,-0.098 -60.9116,5.1296 -85.66352,19.5074 -17.06289,9.8584 -29.55685,26.2721 -28.77482,43.7335 0.59306,14.2429 11.58726,27.0138 25.86917,34.6216 16.28599,8.6903 35.69905,12.1176 54.60328,14.7287 32.67452,4.0973 65.83225,3.3432 98.74718,4.9003 20.79792,0.6389 42.15503,0.9884 62.24339,-4.1125 18.01083,-6.0439 29.16065,-21.5133 30.9593,-36.9608 1.8608,-15.5734 -0.71946,-32.4583 -12.6256,-45.2137 -11.20348,-11.5412 -28.57229,-17.3952 -45.42411,-21.357 -32.42888,-7.3926 -66.33159,-10.2257 -99.93427,-9.8475 z"
       id="path3525-3-5"
       inkscape:connector-curvature="0" />
    <path
       style="fill:#ffffff;fill-rule:evenodd;stroke:none;stroke-width:1.00018px;stroke-linecap:butt;stroke-linejoin:miter;stroke-opacity:1"
       d="m 1223.463,2688.0374 c 17.4992,-16.0693 -3.4666,-28.2803 -2.2428,-38.8936 1.2634,-10.9567 44.3518,-16.0746 46.2777,-26.1572 1.9258,-10.0826 -24.0767,-23.5119 -20.6577,-39.2259 3.4191,-15.7147 33.7111,-15.9794 29.1078,2.1868 -4.6033,18.167 17.8374,23.5982 11.4686,37.7013 -10.6216,23.5196 -41.6554,20.0139 -52.0494,25.9095 -6.8814,3.9037 4.5609,15.0468 0.6993,25.5829 -3.8618,10.5369 -12.6035,12.8962 -12.6035,12.8962 z"
       id="path4272-2-3"
       inkscape:connector-curvature="0"
       sodipodi:nodetypes="csssssssc" />
    <path
       style="color:#000000;display:inline;overflow:visible;visibility:visible;fill:#ffffff;fill-opacity:1;fill-rule:nonzero;stroke:none;stroke-width:1.00989px;marker:none;enable-background:accumulate"
       d="m 1555.8755,2522.3224 c -7.2641,19.7338 -49.9991,21.9845 -65.8052,18.2182 32.0867,21.5056 31.201,35.1623 -11.8474,37.8903 72.8902,38.545 13.7513,33.3934 2.268,43.5918 56.9502,12.8342 31.8432,30.1632 22.0165,47.2005 65.2147,-0.3425 44.314,27.0397 47.411,48.5677 5.3642,-10.1977 31.1272,-41.3812 33.2621,-7.0964 0.014,-6.488 42.0303,-60.8477 106.6414,-9.4692 -1.9757,-26.8993 19.7511,-32.7435 41.0685,4.1555 -7.5742,-40.161 66.0961,-29.5513 105.2215,-17.4684 -20.0617,-24.1109 10.8603,-34.3802 44.011,-29.9904 -4.8532,-13.3079 6.1646,-22.6579 31.294,-28.4736 -33.641,-7.6032 -39.9516,-15.8481 22.125,-25.6962 -47.361,-0.1964 -91.541,-1.3483 -36.4875,-32.7151 -17.4388,-0.492 -58.3734,25.6094 -40.3033,-49.338 -29.5802,24.3307 -61.3385,37.9775 -102.2437,-11.5311 -18.5708,25.285 -51.2826,38.132 -66.1064,7.0859 -4.9308,13.3936 -26.189,18.707 -44.2948,19.5706 -7.0909,-5.1921 -14.4322,-12.2772 -22.1244,-21.587 -12.0033,19.9474 -30.2215,33.5613 -66.1063,7.0849 z"
       id="path3549-3-7-9-6"
       inkscape:connector-curvature="0"
       sodipodi:nodetypes="cccccccccccccccccccc" />
    <path
       style="color:#000000;display:inline;overflow:visible;visibility:visible;fill:#ffffff;fill-opacity:1;fill-rule:nonzero;stroke:none;stroke-width:1.22149px;marker:none;enable-background:accumulate"
       d="m 1834.6942,302.71538 c 13.3969,25.86728 33.5213,54.90113 39.2123,61.39746 7.9957,-8.63868 17.0744,-15.33555 24.0331,-20.64544 9.0197,12.83333 45.9509,74.58787 45.5696,92.05922 3.355,-43.2627 -19.8328,-91.86712 -36.9856,-111.86967 -10.7606,5.90497 -16.2791,10.46235 -22.0396,13.47435 -9.2965,-9.62452 -29.0289,-46.10687 -29.0289,-46.10687 z"
       id="path5066-8"
       inkscape:connector-curvature="0" />
  </g>
  <g
     inkscape:groupmode="layer"
     id="layer1"
     inkscape:label="txt">
    <text
       xml:space="preserve"
       style="font-style:normal;font-variant:normal;font-weight:normal;font-stretch:normal;font-size:45px;line-height:1.25;font-family:Lavi;-inkscape-font-specification:Lavi;text-align:center;letter-spacing:0px;word-spacing:0px;text-anchor:middle;fill:#000000;fill-opacity:1;stroke:none"
       x="1026.2073"
       y="250.12212"
       id="text4246-3-2-2"><tspan
         style="font-size:45px"
         sodipodi:role="line"
         x="1026.2073"
         y="250.12212"
         id="tspan949">Я вот-вот</tspan><tspan
         style="font-size:45px"
         sodipodi:role="line"
         x="1026.2073"
         y="306.37213"
         id="tspan909">лишусь своей</tspan><tspan
         style="font-size:45px"
         sodipodi:role="line"
         x="1026.2073"
         y="362.62213"
         id="tspan911">гиперскорости,</tspan></text>
    <text
       xml:space="preserve"
       style="font-style:normal;font-variant:normal;font-weight:normal;font-stretch:normal;font-size:45px;line-height:1.25;font-family:Lavi;-inkscape-font-specification:Lavi;text-align:center;letter-spacing:0px;word-spacing:0px;text-anchor:middle;fill:#000000;fill-opacity:1;stroke:none"
       x="1153.5723"
       y="475.56839"
       id="text4246-3-2-2-3"><tspan
         style="font-size:45px"
         sodipodi:role="line"
         x="1153.5723"
         y="475.56839"
         id="tspan958">а дракон с</tspan><tspan
         style="font-size:45px"
         sodipodi:role="line"
         x="1153.5723"
         y="531.81836"
         id="tspan924">его пилотом гонятся</tspan><tspan
         style="font-size:45px"
         sodipodi:role="line"
         x="1153.5723"
         y="588.06836"
         id="tspan928">за нами много часов.</tspan></text>
    <text
       xml:space="preserve"
       style="font-style:normal;font-variant:normal;font-weight:normal;font-stretch:normal;font-size:45px;line-height:1.25;font-family:Lavi;-inkscape-font-specification:Lavi;text-align:center;letter-spacing:0px;word-spacing:0px;text-anchor:middle;fill:#000000;fill-opacity:1;stroke:none"
       x="1263.569"
       y="697.07538"
       id="text4246-3-2-2-3-6"><tspan
         style="font-size:45px"
         sodipodi:role="line"
         x="1263.569"
         y="697.07538"
         id="tspan935">У них не будет никаких</tspan><tspan
         style="font-size:45px"
         sodipodi:role="line"
         x="1263.569"
         y="753.32538"
         id="tspan954">проблем поймать нас</tspan><tspan
         style="font-size:45px"
         sodipodi:role="line"
         x="1263.569"
         y="809.57538"
         id="tspan956">как только мы</tspan><tspan
         style="font-size:45px"
         sodipodi:role="line"
         x="1263.569"
         y="865.82538"
         id="tspan4307">замедлимся.</tspan></text>
    <text
       xml:space="preserve"
       style="font-style:normal;font-variant:normal;font-weight:normal;font-stretch:normal;font-size:45px;line-height:1.25;font-family:Lavi;-inkscape-font-specification:Lavi;text-align:center;letter-spacing:0px;word-spacing:0px;text-anchor:middle;fill:#000000;fill-opacity:1;stroke:none"
       x="2133.592"
       y="917.40289"
       id="text4246-3-2-2-3-6-2"><tspan
         style="font-size:45px"
         sodipodi:role="line"
         x="2133.592"
         y="917.40289"
         id="tspan894">Я была уверена,</tspan><tspan
         style="font-size:45px"
         sodipodi:role="line"
         x="2133.592"
         y="973.65289"
         id="tspan964">что они сдались бы</tspan><tspan
         style="font-size:45px"
         sodipodi:role="line"
         x="2133.592"
         y="1029.9028"
         id="tspan966">через несколько часов!</tspan></text>
    <text
       xml:space="preserve"
       style="font-style:normal;font-variant:normal;font-weight:normal;font-stretch:normal;font-size:45px;line-height:1.25;font-family:Lavi;-inkscape-font-specification:Lavi;text-align:center;letter-spacing:0px;word-spacing:0px;text-anchor:middle;fill:#000000;fill-opacity:1;stroke:none"
       x="1158.7565"
       y="1236.7683"
       id="text4246-3-2-2-3-6-2-7"><tspan
         style="font-size:45px"
         sodipodi:role="line"
         x="1158.7565"
         y="1236.7683"
         id="tspan1171">Если бы только</tspan><tspan
         style="font-size:45px"
         sodipodi:role="line"
         x="1158.7565"
         y="1293.0183"
         id="tspan977">я могла</tspan><tspan
         style="font-size:45px"
         sodipodi:role="line"
         x="1158.7565"
         y="1349.2683"
         id="tspan979">сбросить их</tspan><tspan
         style="font-size:45px"
         sodipodi:role="line"
         x="1158.7565"
         y="1405.5183"
         id="tspan10473">с хвоста.</tspan></text>
    <text
       xml:space="preserve"
       style="font-style:normal;font-variant:normal;font-weight:normal;font-stretch:normal;font-size:45px;line-height:1.25;font-family:Lavi;-inkscape-font-specification:Lavi;text-align:center;letter-spacing:0px;word-spacing:0px;text-anchor:middle;fill:#000000;fill-opacity:1;stroke:none"
       x="416.16843"
       y="2096.4697"
       id="text4246-3-2-2-3-6-2-7-2"><tspan
         style="font-size:45px"
         sodipodi:role="line"
         x="416.16843"
         y="2096.4697"
         id="tspan1171-9"><tspan
   style="font-style:normal;font-variant:normal;font-weight:bold;font-stretch:normal;font-family:Lavi;-inkscape-font-specification:'Lavi Bold'"
   id="tspan889">НЕТ.</tspan> </tspan><tspan
         style="font-size:45px"
         sodipodi:role="line"
         x="416.16843"
         y="2152.7197"
         id="tspan1220">Я <tspan
   style="font-style:normal;font-variant:normal;font-weight:bold;font-stretch:normal;font-family:Lavi;-inkscape-font-specification:'Lavi Bold'"
   id="tspan887">должна</tspan></tspan><tspan
         style="font-size:45px"
         sodipodi:role="line"
         x="416.16843"
         y="2208.9697"
         id="tspan1222"> избавиться</tspan><tspan
         style="font-size:45px"
         sodipodi:role="line"
         x="416.16843"
         y="2265.2197"
         id="tspan885">от них!</tspan></text>
    <text
       xml:space="preserve"
       style="font-style:normal;font-variant:normal;font-weight:normal;font-stretch:normal;font-size:45px;line-height:1.25;font-family:Lavi;-inkscape-font-specification:Lavi;text-align:center;letter-spacing:0px;word-spacing:0px;text-anchor:middle;fill:#000000;fill-opacity:1;stroke:none"
       x="2119.5425"
       y="2131.1331"
       id="text4246-3-2-2-3-6-2-7-2-2"><tspan
         style="font-size:45px"
         sodipodi:role="line"
         x="2119.5425"
         y="2131.1331"
         id="tspan1222-7">Прежде чем</tspan><tspan
         style="font-size:45px"
         sodipodi:role="line"
         x="2119.5425"
         y="2187.3831"
         id="tspan1269">они схватят</tspan><tspan
         style="font-size:45px"
         sodipodi:role="line"
         x="2119.5425"
         y="2243.6331"
         id="tspan1271">нас!</tspan></text>
    <text
       xml:space="preserve"
       style="font-style:normal;font-variant:normal;font-weight:normal;font-stretch:normal;font-size:45px;line-height:1.25;font-family:Lavi;-inkscape-font-specification:Lavi;text-align:center;letter-spacing:0px;word-spacing:0px;text-anchor:middle;fill:#000000;fill-opacity:1;stroke:none"
       x="285.79352"
       y="2669.6626"
       id="text4246-3-2-2-3-6-2-7-2-3"><tspan
         style="font-size:45px"
         sodipodi:role="line"
         x="285.79352"
         y="2669.6626"
         id="tspan903">Но я так...</tspan></text>
    <text
       xml:space="preserve"
       style="font-style:normal;font-variant:normal;font-weight:normal;font-stretch:normal;font-size:45px;line-height:1.25;font-family:Lavi;-inkscape-font-specification:Lavi;text-align:center;letter-spacing:0px;word-spacing:0px;text-anchor:middle;fill:#000000;fill-opacity:1;stroke:none"
       x="746.94037"
       y="2724.3162"
       id="text4246-3-2-2-3-6-2-7-2-3-3-3"><tspan
         style="font-size:45px"
         x="746.94037"
         y="2724.3162"
         id="tspan1318-9-6"
         sodipodi:role="line">...сильно...</tspan><tspan
         style="font-size:45px"
         x="746.94037"
         y="2780.5662"
         id="tspan1356-7"
         sodipodi:role="line" /></text>
    <text
       xml:space="preserve"
       style="font-style:normal;font-variant:normal;font-weight:normal;font-stretch:normal;font-size:45px;line-height:1.25;font-family:Lavi;-inkscape-font-specification:Lavi;text-align:center;letter-spacing:0px;word-spacing:0px;text-anchor:middle;fill:#000000;fill-opacity:1;stroke:none"
       x="1202.5862"
       y="2507.2249"
       id="text4246-3-2-2-3-6-2-7-2-3-3"><tspan
         style="font-size:45px"
         sodipodi:role="line"
         x="1202.5862"
         y="2507.2249"
         id="tspan1318-9" /><tspan
         style="font-size:45px"
         sodipodi:role="line"
         x="1209.6174"
         y="2563.4749"
         id="tspan1356">...устала... </tspan></text>
    <text
       xml:space="preserve"
       style="font-style:normal;font-variant:normal;font-weight:normal;font-stretch:normal;font-size:64.434px;line-height:1.25;font-family:Lavi;-inkscape-font-specification:Lavi;text-align:center;letter-spacing:0px;word-spacing:0px;text-anchor:middle;fill:#000000;fill-opacity:1;stroke:none;stroke-width:1.43187"
       x="1696.2407"
       y="2630.5286"
       id="text4246-3-2-2-3-6-2-7-2-3-3-4"><tspan
         style="font-style:normal;font-variant:normal;font-weight:bold;font-stretch:normal;font-size:64.434px;font-family:Lavi;-inkscape-font-specification:'Lavi Bold';stroke-width:1.43187"
         sodipodi:role="line"
         x="1696.2407"
         y="2630.5286"
         id="tspan1356-4">УУПС!</tspan></text>
    <text
       xml:space="preserve"
       style="font-style:normal;font-variant:normal;font-weight:normal;font-stretch:normal;font-size:45px;line-height:1.25;font-family:Lavi;-inkscape-font-specification:Lavi;text-align:center;letter-spacing:0px;word-spacing:0px;text-anchor:middle;fill:#000000;fill-opacity:1;stroke:none"
       x="1905.2314"
       y="2697.1885"
       id="text4246-3-2-2-3-6-2-7-2-3-5"><tspan
         style="font-size:45px"
         sodipodi:role="line"
         x="1905.2314"
         y="2697.1885"
         id="tspan1068">Держи себя </tspan><tspan
         style="font-size:45px"
         sodipodi:role="line"
         x="1905.2314"
         y="2753.4385"
         id="tspan1072">в руках,</tspan><tspan
         style="font-size:45px"
         sodipodi:role="line"
         x="1905.2314"
         y="2809.6885"
         id="tspan1074">Перчинка!</tspan></text>
    <text
       xml:space="preserve"
       style="font-style:normal;font-variant:normal;font-weight:normal;font-stretch:normal;font-size:59.5686px;line-height:1.25;font-family:Lavi;-inkscape-font-specification:Lavi;text-align:center;letter-spacing:0px;word-spacing:0px;text-anchor:middle;fill:#000000;fill-opacity:1;stroke:none;stroke-width:1.32375"
       x="1790.1418"
       y="189.64172"
       id="text4246-3-2-2-3-6-3"><tspan
         style="font-size:59.5686px;stroke-width:1.32375"
         sodipodi:role="line"
         x="1790.1418"
         y="189.64172"
         id="tspan1031-6">Какой идиоткой</tspan><tspan
         style="font-size:59.5686px;stroke-width:1.32375"
         sodipodi:role="line"
         x="1790.1418"
         y="264.10248"
         id="tspan1079">я была!</tspan></text>
  </g>
</svg>
