<?xml version="1.0" encoding="UTF-8" standalone="no"?>
<!-- Created with Inkscape (http://www.inkscape.org/) -->

<svg
   xmlns:dc="http://purl.org/dc/elements/1.1/"
   xmlns:cc="http://creativecommons.org/ns#"
   xmlns:rdf="http://www.w3.org/1999/02/22-rdf-syntax-ns#"
   xmlns:svg="http://www.w3.org/2000/svg"
   xmlns="http://www.w3.org/2000/svg"
   xmlns:xlink="http://www.w3.org/1999/xlink"
   xmlns:sodipodi="http://sodipodi.sourceforge.net/DTD/sodipodi-0.dtd"
   xmlns:inkscape="http://www.inkscape.org/namespaces/inkscape"
   id="svg2"
   version="1.1"
   inkscape:version="0.92.1 r15371"
   width="2481"
   height="3503"
   viewBox="0 0 2646.3999 3736.5334"
   sodipodi:docname="Pepper-and-Carrot_by-David-Revoy_E13P01.svg">
  <metadata
     id="metadata8">
    <rdf:RDF>
      <cc:Work
         rdf:about="">
        <dc:format>image/svg+xml</dc:format>
        <dc:type
           rdf:resource="http://purl.org/dc/dcmitype/StillImage" />
        <dc:title />
      </cc:Work>
    </rdf:RDF>
  </metadata>
  <defs
     id="defs6" />
  <sodipodi:namedview
     pagecolor="#ffffff"
     bordercolor="#666666"
     borderopacity="1"
     objecttolerance="10"
     gridtolerance="10"
     guidetolerance="10"
     inkscape:pageopacity="0"
     inkscape:pageshadow="2"
     inkscape:window-width="1305"
     inkscape:window-height="744"
     id="namedview4"
     showgrid="false"
     inkscape:zoom="0.39774138"
     inkscape:cx="1329.7141"
     inkscape:cy="541.8854"
     inkscape:window-x="61"
     inkscape:window-y="24"
     inkscape:window-maximized="1"
     inkscape:current-layer="layer1" />
  <g
     inkscape:groupmode="layer"
     id="layer2"
     inkscape:label="artwork"
     sodipodi:insensitive="true">
    <image
       sodipodi:absref="/home/emmiline/Documents/git/peppercarrot/peppercarrot_ep13_translation/da/../gfx_Pepper-and-Carrot_by-David-Revoy_E13P01.png"
       xlink:href="../gfx_Pepper-and-Carrot_by-David-Revoy_E13P01.png"
       y="0"
       x="0"
       id="image10"
       height="3736.5334"
       width="2646.3999" />
  </g>
  <g
     inkscape:groupmode="layer"
     id="layer3"
     inkscape:label="speechbubbles" />
  <g
     inkscape:groupmode="layer"
     id="layer1"
     inkscape:label="txt">
    <path
       style="fill:#ffffff;fill-opacity:1;stroke:none;stroke-width:1.06666672"
       d="m 782.51444,818.56267 c -6.53633,-78.51659 -104.80541,-88.5471 -201.41297,-91.26244 -132.8369,-3.73362 -182.09759,41.75434 -191.58111,72.68259 -7.32591,23.89174 -13.07952,81.80039 92.82096,102.47608 84.19471,16.43817 229.83454,-5.45314 252.53916,-16.88956 16.67953,-8.40155 41.81744,-21.94564 47.63396,-67.00667 z"
       id="path3238-1-6"
       inkscape:connector-curvature="0"
       sodipodi:nodetypes="cssssc" />
    <path
       style="fill:#ffffff;fill-opacity:1;stroke:none;stroke-width:1.06666672"
       d="m 780.09746,1186.1882 c 11.48037,-62.2941 -61.80007,-63.7161 -199.2396,-67.7392 -131.3651,-3.8453 -157.43931,9.6825 -175.15687,35.8789 -20.45779,30.2479 -27.29533,78.7855 77.46241,94.1319 83.28619,12.2012 230.92171,0.7269 249.81409,-12.5362 18.89238,-13.263 41.36621,-16.289 47.11997,-49.7354 z"
       id="path3238-1"
       inkscape:connector-curvature="0"
       sodipodi:nodetypes="cssssc" />
    <path
       style="fill:#ffffff;stroke:none;stroke-width:1.06666672"
       d="m 2068.5889,3565.5532 c -12.6323,-64.752 15.0877,-119.1708 33.5308,-133.0693 18.4431,-13.8984 50.4578,-31.2418 66.5877,-34.7518 16.13,-3.5102 272.6079,-19.3484 288.1549,-11.4815 15.547,7.8667 85.3368,36.0415 101.6445,75.9095 16.3076,39.868 38.9646,156.192 19.0367,179.4246 -19.928,23.2326 -71.4602,10.2312 -188.1493,19.405 -116.6889,9.1738 -256.8511,9.4472 -291.2636,-37.3136 -19.4,-26.3611 -29.5417,-58.1229 -29.5417,-58.1229 z"
       id="path3286"
       inkscape:connector-curvature="0"
       sodipodi:nodetypes="csssssssc" />
    <path
       style="color:#000000;display:inline;overflow:visible;visibility:visible;fill:#ffffff;fill-opacity:1;fill-rule:nonzero;stroke:none;stroke-width:1.06666672px;marker:none;enable-background:accumulate"
       d="m 2203.033,3102.926 c 63.0793,61.5663 89.6582,87.1714 75.0401,140.3348 -14.618,53.1636 31.5495,23.3099 31.5495,23.3099 0,0 29.4722,-113.8761 -106.5896,-163.6447 z"
       id="path3984"
       inkscape:connector-curvature="0"
       sodipodi:nodetypes="cscc" />
    <path
       style="color:#000000;display:inline;overflow:visible;visibility:visible;fill:#ffffff;fill-opacity:1;fill-rule:nonzero;stroke:none;stroke-width:1.06666672px;marker:none;enable-background:accumulate"
       d="m 2180.8188,3303.0885 c 1.5221,-52.9519 36.6619,-86.8659 73.723,-94.5624 38.0487,-7.9018 57.8671,-4.852 68.4326,-1.9705 10.5657,2.8816 92.4905,-3.9876 124.0215,0.8925 30.3562,4.6984 75.7648,35.1273 72.8832,102.8443 -2.8816,67.717 -46.1046,96.5328 -90.2881,100.855 -44.1836,4.3225 -123.897,2.8931 -147.0471,1.8964 -34.3266,-1.4776 -95.0014,0.9853 -101.7251,-109.9556 z"
       id="path5034"
       inkscape:connector-curvature="0"
       sodipodi:nodetypes="cscsssscc" />
    <path
       style="fill:#ffffff;fill-opacity:1;stroke:none;stroke-width:1.06666672"
       d="m 867.44592,1542.2707 c 12.23537,-66.5477 -65.86428,-68.0668 -212.34234,-72.3647 -140.00416,-4.1077 -167.79309,10.3438 -186.67583,38.329 -21.80316,32.3133 -29.09036,84.1652 82.55663,100.5596 88.7634,13.0343 246.10797,0.7764 266.24279,-13.3923 20.1348,-14.1686 44.0866,-17.4013 50.21875,-53.1316 z"
       id="path3238"
       inkscape:connector-curvature="0"
       sodipodi:nodetypes="cssssc" />
    <path
       style="color:#000000;display:inline;overflow:visible;visibility:visible;fill:#ffffff;fill-opacity:1;fill-rule:nonzero;stroke:none;stroke-width:1.06666672px;marker:none;enable-background:accumulate"
       d="M 573.01996,797.1358 C 530.3271,1194.6378 771.82153,1971.866 797.65856,2212.442 810.77569,2016.6111 561.50119,1264.752 603.47458,792.36439 577.6706,787.98748 573.01996,797.1358 573.01996,797.1358 Z"
       id="path4008"
       inkscape:connector-curvature="0"
       sodipodi:nodetypes="cccc" />
    <text
       xml:space="preserve"
       style="color:#000000;font-style:normal;font-variant:normal;font-weight:normal;font-stretch:normal;font-size:12.80000019px;line-height:0%;font-family:Lavi;-inkscape-font-specification:Lavi;text-indent:0;text-align:center;text-decoration:none;text-decoration-line:none;text-decoration-style:solid;text-decoration-color:#000000;letter-spacing:0px;word-spacing:0px;text-transform:none;writing-mode:lr-tb;direction:ltr;baseline-shift:baseline;text-anchor:middle;white-space:normal;clip-rule:nonzero;display:inline;overflow:visible;visibility:visible;opacity:1;isolation:auto;mix-blend-mode:normal;color-interpolation:sRGB;color-interpolation-filters:linearRGB;solid-color:#000000;solid-opacity:1;fill:#000000;fill-opacity:1;fill-rule:nonzero;stroke:none;stroke-width:1.06666672;stroke-linecap:butt;stroke-linejoin:miter;stroke-miterlimit:4;stroke-dasharray:none;stroke-dashoffset:0;stroke-opacity:1;color-rendering:auto;image-rendering:auto;shape-rendering:auto;text-rendering:auto;enable-background:accumulate"
       x="2350.2209"
       y="3295.3843"
       id="text4159"><tspan
         sodipodi:role="line"
         x="2350.2209"
         y="3295.3843"
         id="tspan4181"
         style="font-size:48px;line-height:1.25;stroke-width:1.06666672">Det er bare<tspan
   style="font-style:italic;font-variant:normal;font-weight:normal;font-stretch:normal;font-family:Lavi;-inkscape-font-specification:'Lavi Italic';stroke-width:1.06666672"
   id="tspan4185"></tspan></tspan><tspan
         sodipodi:role="line"
         x="2350.2209"
         y="3355.3843"
         style="font-size:48px;line-height:1.25;stroke-width:1.06666672"
         id="tspan38"><tspan
   style="font-style:italic;font-variant:normal;font-weight:normal;font-stretch:normal;font-family:Lavi;-inkscape-font-specification:'Lavi Italic';stroke-width:1.06666672"
   id="tspan40">SÅ godt</tspan>!</tspan></text>
    <text
       xml:space="preserve"
       style="font-style:normal;font-variant:normal;font-weight:normal;font-stretch:normal;font-size:12.80000019px;line-height:0%;font-family:Lavi;-inkscape-font-specification:'Lavi, Normal';text-align:center;letter-spacing:0px;word-spacing:0px;writing-mode:lr-tb;text-anchor:middle;fill:#000000;fill-opacity:1;stroke:none;stroke-width:1.06666672px;stroke-linecap:butt;stroke-linejoin:miter;stroke-opacity:1"
       x="2381.3333"
       y="3317.8667"
       id="text4169"><tspan
         sodipodi:role="line"
         id="tspan4171"
         x="2390.1465"
         y="3317.8667"
         style="font-size:50.13733292px;line-height:1.25;stroke-width:1.06666672px"> </tspan><tspan
         sodipodi:role="line"
         x="2390.1465"
         y="3380.5383"
         id="tspan4173"
         style="font-size:50.13733292px;line-height:1.25;stroke-width:1.06666672px"> </tspan></text>
    <text
       xml:space="preserve"
       style="color:#000000;font-style:normal;font-variant:normal;font-weight:normal;font-stretch:normal;font-size:12.80000019px;line-height:0%;font-family:Lavi;-inkscape-font-specification:Lavi;text-indent:0;text-align:center;text-decoration:none;text-decoration-line:none;text-decoration-style:solid;text-decoration-color:#000000;letter-spacing:0px;word-spacing:0px;text-transform:none;writing-mode:lr-tb;direction:ltr;baseline-shift:baseline;text-anchor:middle;white-space:normal;clip-rule:nonzero;display:inline;overflow:visible;visibility:visible;opacity:1;isolation:auto;mix-blend-mode:normal;color-interpolation:sRGB;color-interpolation-filters:linearRGB;solid-color:#000000;solid-opacity:1;fill:#000000;fill-opacity:1;fill-rule:nonzero;stroke:none;stroke-width:1.06666672;stroke-linecap:butt;stroke-linejoin:miter;stroke-miterlimit:4;stroke-dasharray:none;stroke-dashoffset:0;stroke-opacity:1;color-rendering:auto;image-rendering:auto;shape-rendering:auto;text-rendering:auto;enable-background:accumulate"
       x="2307.9011"
       y="3483.0518"
       id="text4177"><tspan
         sodipodi:role="line"
         x="2307.9011"
         y="3483.0518"
         id="tspan4179"
         style="font-size:48px;line-height:1.25;stroke-width:1.06666672">Tak fordi du</tspan><tspan
         sodipodi:role="line"
         x="2307.9011"
         y="3543.0518"
         style="font-size:48px;line-height:1.25;stroke-width:1.06666672"
         id="tspan47">inviterede os,</tspan><tspan
         sodipodi:role="line"
         x="2307.9011"
         y="3603.0518"
         style="font-size:48px;line-height:1.25;stroke-width:1.06666672"
         id="tspan53">Koriander!</tspan></text>
    <text
       xml:space="preserve"
       style="color:#000000;font-style:normal;font-variant:normal;font-weight:normal;font-stretch:normal;font-size:12.80000019px;line-height:0%;font-family:Lavi;-inkscape-font-specification:Lavi;text-indent:0;text-align:center;text-decoration:none;text-decoration-line:none;text-decoration-style:solid;text-decoration-color:#000000;letter-spacing:0px;word-spacing:0px;text-transform:none;writing-mode:lr-tb;direction:ltr;baseline-shift:baseline;text-anchor:middle;white-space:normal;clip-rule:nonzero;display:inline;overflow:visible;visibility:visible;opacity:1;isolation:auto;mix-blend-mode:normal;color-interpolation:sRGB;color-interpolation-filters:linearRGB;solid-color:#000000;solid-opacity:1;fill:#000000;fill-opacity:1;fill-rule:nonzero;stroke:#000000;stroke-width:1.23241782;stroke-linecap:butt;stroke-linejoin:miter;stroke-miterlimit:4;stroke-dasharray:none;stroke-dashoffset:0;stroke-opacity:1;color-rendering:auto;image-rendering:auto;shape-rendering:auto;text-rendering:auto;enable-background:accumulate"
       x="669.75629"
       y="1544.9871"
       id="text4201"
       transform="scale(0.99121655,1.0088613)"><tspan
         sodipodi:role="line"
         x="669.75629"
         y="1544.9871"
         id="tspan4183"
         style="font-size:50.41709137px;line-height:1.25;stroke-width:1.23241782">… nogensinde!</tspan></text>
    <text
       xml:space="preserve"
       style="color:#000000;font-style:normal;font-variant:normal;font-weight:normal;font-stretch:normal;font-size:12.80000019px;line-height:0%;font-family:Lavi;-inkscape-font-specification:Lavi;text-indent:0;text-align:center;text-decoration:none;text-decoration-line:none;text-decoration-style:solid;text-decoration-color:#000000;letter-spacing:0px;word-spacing:0px;text-transform:none;writing-mode:lr-tb;direction:ltr;baseline-shift:baseline;text-anchor:middle;white-space:normal;clip-rule:nonzero;display:inline;overflow:visible;visibility:visible;opacity:1;isolation:auto;mix-blend-mode:normal;color-interpolation:sRGB;color-interpolation-filters:linearRGB;solid-color:#000000;solid-opacity:1;fill:#000000;fill-opacity:1;fill-rule:nonzero;stroke:none;stroke-width:1.06666672;stroke-linecap:butt;stroke-linejoin:miter;stroke-miterlimit:4;stroke-dasharray:none;stroke-dashoffset:0;stroke-opacity:1;color-rendering:auto;image-rendering:auto;shape-rendering:auto;text-rendering:auto;enable-background:accumulate"
       x="585.83893"
       y="803.65833"
       id="text4201-8"><tspan
         sodipodi:role="line"
         x="585.83893"
         y="803.65833"
         id="tspan4160"
         style="font-size:48px;line-height:1.25;stroke-width:1.06666672">Det er den</tspan><tspan
         sodipodi:role="line"
         x="585.83893"
         y="863.65833"
         style="font-size:48px;line-height:1.25;stroke-width:1.06666672"
         id="tspan37">bedste…</tspan></text>
    <text
       xml:space="preserve"
       style="color:#000000;font-style:normal;font-variant:normal;font-weight:normal;font-stretch:normal;font-size:12.80000019px;line-height:0%;font-family:Lavi;-inkscape-font-specification:Lavi;text-indent:0;text-align:center;text-decoration:none;text-decoration-line:none;text-decoration-style:solid;text-decoration-color:#000000;letter-spacing:0px;word-spacing:0px;text-transform:none;writing-mode:lr-tb;direction:ltr;baseline-shift:baseline;text-anchor:middle;white-space:normal;clip-rule:nonzero;display:inline;overflow:visible;visibility:visible;opacity:1;isolation:auto;mix-blend-mode:normal;color-interpolation:sRGB;color-interpolation-filters:linearRGB;solid-color:#000000;solid-opacity:1;fill:#000000;fill-opacity:1;fill-rule:nonzero;stroke:none;stroke-width:1.06666672;stroke-linecap:butt;stroke-linejoin:miter;stroke-miterlimit:4;stroke-dasharray:none;stroke-dashoffset:0;stroke-opacity:1;color-rendering:auto;image-rendering:auto;shape-rendering:auto;text-rendering:auto;enable-background:accumulate"
       x="588.8869"
       y="1195.9253"
       id="text4201-2"><tspan
         sodipodi:role="line"
         x="588.8869"
         y="1195.9253"
         id="tspan4183-92"
         style="font-size:48px;line-height:1.25;stroke-width:1.06666672">… ferie…</tspan></text>
  </g>
</svg>
