<?xml version="1.0" encoding="UTF-8" standalone="no"?>
<svg
   id="svg2"
   version="1.1"
   inkscape:version="1.1 (c68e22c387, 2021-05-23)"
   width="2481"
   height="3503"
   sodipodi:docname="E03P04.svg"
   xmlns:inkscape="http://www.inkscape.org/namespaces/inkscape"
   xmlns:sodipodi="http://sodipodi.sourceforge.net/DTD/sodipodi-0.dtd"
   xmlns:xlink="http://www.w3.org/1999/xlink"
   xmlns="http://www.w3.org/2000/svg"
   xmlns:svg="http://www.w3.org/2000/svg"
   xmlns:rdf="http://www.w3.org/1999/02/22-rdf-syntax-ns#"
   xmlns:cc="http://creativecommons.org/ns#"
   xmlns:dc="http://purl.org/dc/elements/1.1/">
  <sodipodi:namedview
     pagecolor="#ffffff"
     bordercolor="#666666"
     inkscape:pageopacity="0"
     inkscape:pageshadow="2"
     inkscape:window-width="1366"
     inkscape:window-height="745"
     id="namedview70"
     showgrid="false"
     inkscape:zoom="0.28284271"
     inkscape:cx="1417.7491"
     inkscape:cy="2091.2683"
     inkscape:current-layer="layer3"
     inkscape:document-rotation="0"
     inkscape:window-x="-8"
     inkscape:window-y="-8"
     inkscape:window-maximized="1"
     borderopacity="1.0"
     inkscape:pagecheckerboard="0" />
  <metadata
     id="metadata8">
    <rdf:RDF>
      <cc:Work
         rdf:about="">
        <dc:format>image/svg+xml</dc:format>
        <dc:type
           rdf:resource="http://purl.org/dc/dcmitype/StillImage" />
        <dc:title />
      </cc:Work>
    </rdf:RDF>
  </metadata>
  <defs
     id="defs6" />
  <sodipodi:namedview
     pagecolor="#ffffff"
     bordercolor="#666666"
     borderopacity="1"
     objecttolerance="10"
     gridtolerance="10"
     guidetolerance="10"
     inkscape:pageopacity="0"
     inkscape:pageshadow="2"
     inkscape:window-width="1920"
     inkscape:window-height="1025"
     id="namedview4"
     showgrid="false"
     inkscape:zoom="0.36045077"
     inkscape:cx="1127.5122"
     inkscape:cy="1605.2364"
     inkscape:window-x="0"
     inkscape:window-y="26"
     inkscape:window-maximized="1"
     inkscape:current-layer="layer3" />
  <g
     inkscape:groupmode="layer"
     id="layer2"
     inkscape:label="artwork"
     sodipodi:insensitive="true"
     style="display:inline">
    <image
       xlink:href="../gfx_Pepper-and-Carrot_by-David-Revoy_E03P04.png"
       y="0"
       x="0"
       id="image10"
       height="3503"
       width="2481" />
  </g>
  <g
     inkscape:groupmode="layer"
     id="layer3"
     inkscape:label="speechbubbles">
    <path
       style="fill:#ffffff;stroke:none"
       d="m 224.19782,1380.2353 c 1.37932,-33.1037 29.59695,-40.0081 54.4247,-42.7668 24.82775,-2.7586 100.69031,8.276 92.4144,48.2762 -8.27592,40.0003 -53.74673,43.4447 -84.09176,39.3068 -30.34503,-4.138 -62.10052,-15.8662 -62.74734,-44.8162 z"
       id="path3938"
       inkscape:connector-curvature="0"
       sodipodi:nodetypes="csssc" />
    <path
       style="color:#000000;display:inline;overflow:visible;visibility:visible;fill:#ffffff;fill-opacity:1;fill-rule:nonzero;stroke:none;stroke-width:1px;marker:none;enable-background:accumulate"
       d="m 368.94185,1386.0419 c 24.68756,9.5472 45.26052,39.3825 48.00359,45.9462 -12.34378,-7.1604 -50.74665,-26.8516 -68.57656,-29.8351 -15.13337,-2.5324 20.57297,-16.1111 20.57297,-16.1111 z"
       id="path3940"
       inkscape:connector-curvature="0"
       sodipodi:nodetypes="ccsc" />
    <path
       style="color:#000000;display:inline;overflow:visible;visibility:visible;fill:#ffffff;fill-opacity:1;fill-rule:nonzero;stroke:none;stroke-width:1px;stroke-linecap:butt;stroke-linejoin:miter;stroke-opacity:1;marker:none;enable-background:accumulate"
       d="m 280.23979,2358.4608 c -54.41549,-7.2554 -134.22488,-30.8355 -149.64261,-75.2748 -15.41772,-44.4393 -11.79002,-99.7617 19.95235,-124.2487 31.74237,-24.487 86.15787,-45.3462 133.31796,-37.1839 47.1601,8.1623 108.83099,38.0908 123.34179,79.8094 14.5108,41.7185 0.90692,130.5972 -59.85705,147.8287 -60.76396,17.2316 -67.11244,9.0693 -67.11244,9.0693 z"
       id="path3970"
       inkscape:connector-curvature="0" />
    <path
       style="color:#000000;display:inline;overflow:visible;visibility:visible;fill:#ffffff;fill-opacity:1;fill-rule:nonzero;stroke:none;stroke-width:1px;stroke-linecap:butt;stroke-linejoin:miter;stroke-opacity:1;marker:none;enable-background:accumulate"
       d="m 254.8459,2340.3223 c 1.81384,47.1601 45.34624,116.0864 91.59941,107.924 -55.32242,-26.3008 -69.83322,-87.0647 -66.20552,-101.5755 3.6277,-14.5108 -25.39389,-6.3485 -25.39389,-6.3485 z"
       id="path3978"
       inkscape:connector-curvature="0" />
    <path
       style="color:#000000;display:inline;overflow:visible;visibility:visible;fill:#ffffff;fill-opacity:1;fill-rule:nonzero;stroke:none;stroke-width:0.890494px;stroke-linecap:butt;stroke-linejoin:miter;stroke-opacity:1;marker:none;enable-background:accumulate"
       d="m 1026.7756,2219.7013 c 0,-58.0432 21.5752,-87.9717 85.5815,-93.4133 64.0063,-5.4415 238.0461,-10.8831 266.0938,8.1623 28.0477,19.0455 38.1161,44.4394 39.5545,82.5302 1.4383,38.0908 -62.568,97.041 -126.5744,94.3202 -64.0063,-2.7208 -153.9028,2.7208 -188.4231,-10.8831 -34.5203,-13.6039 -73.3556,-34.4632 -76.2323,-80.7163 z"
       id="path3986"
       inkscape:connector-curvature="0" />
    <path
       style="color:#000000;display:inline;overflow:visible;visibility:visible;fill:#ffffff;fill-opacity:1;fill-rule:nonzero;stroke:none;stroke-width:1px;marker:none;enable-background:accumulate"
       d="m 997.61738,2413.7832 c 35.37012,-43.5324 121.79372,-42.2278 129.95602,-52.2039 8.1623,-9.9762 20.5935,-15.8155 18.7797,-56.6271 -1.8139,-40.8116 -29.9286,-45.3462 -29.9286,-45.3462 l -9.0692,30.8354 c 0,0 14.4493,43.961 3.8265,51.0758 -10.6227,7.1148 -99.659,25.7577 -113.56442,72.266 z"
       id="path3994"
       inkscape:connector-curvature="0"
       sodipodi:nodetypes="csscczc" />
    <path
       style="color:#000000;display:inline;overflow:visible;visibility:visible;fill:#ffffff;fill-opacity:1;fill-rule:nonzero;stroke:none;stroke-width:1.20902px;stroke-linecap:butt;stroke-linejoin:miter;stroke-opacity:1;marker:none;enable-background:accumulate"
       d="m 1728.8316,2259.606 c -22.5368,-30.8355 -71.5872,-41.7186 -84.8439,-43.5324 41.0962,-3.6277 63.6329,-4.5346 80.8668,2.7208 -39.7706,-24.487 -50.3761,-36.277 -58.3302,-38.9978 -7.9541,-2.7208 25.1881,-3.6277 41.0963,0 -1.3258,-7.2554 13.2569,-2.7208 13.2569,-2.7208 l -25.1881,-20.8593 30.4908,8.1624 -9.2799,-43.5324 59.656,7.2554 25.1878,-34.4632 6.6285,23.5801 116.6602,-38.9978 3.977,35.3701 84.844,-34.4632 33.142,32.6493 26.5137,-24.487 7.9542,18.1385 95.4493,-18.1385 2.6513,27.2078 117.986,-9.0693 -31.8164,22.6732 50.3762,1.8138 -26.5137,8.1623 29.1648,2.7208 -46.3989,19.0454 54.3532,2.7208 c 0,0 -15.9082,11.79 -25.1881,14.5108 14.5827,5.4416 38.4447,10.8831 38.4447,10.8831 0,0 -25.1877,7.2554 -34.4676,8.1623 14.5825,6.3485 25.188,7.2554 25.188,7.2554 l -14.5824,3.6277 49.0501,21.7662 -62.3071,4.5346 c 0,0 21.2109,11.7901 29.1651,12.697 -22.5366,-0.9069 -39.7706,-1.8139 -39.7706,-1.8139 0,0 18.5597,9.9762 23.8625,9.9762 5.3026,0 -27.8395,1.8139 -27.8395,1.8139 19.8852,12.6969 35.7934,15.4177 35.7934,15.4177 l -62.3071,-1.8139 -11.9313,28.1147 -22.5365,-22.6731 -10.6054,69.8332 -75.5642,-68.0194 -31.8164,20.8593 -35.7936,-27.2077 -55.6786,80.7163 1.3256,-57.1363 -95.4495,36.277 25.1881,-29.9285 -160.4077,29.0216 34.4677,-30.8355 -74.2383,0.907 18.5596,-19.9524 c 0,0 -96.7749,11.79 -90.1466,9.0693 6.6284,-2.7208 38.445,-17.2315 51.7018,-29.0216 z"
       id="path4002"
       inkscape:connector-curvature="0"
       sodipodi:nodetypes="cccsccccccccccccccccccccccccccccccccsc" />
    <path
       style="color:#000000;display:inline;overflow:visible;visibility:visible;fill:#ffffff;fill-opacity:1;fill-rule:nonzero;stroke:none;stroke-width:0.931359px;stroke-linecap:butt;stroke-linejoin:miter;stroke-opacity:1;marker:none;enable-background:accumulate"
       d="m 1680.5318,2321.0012 c 7.2554,-38.5479 46.2532,-70.8024 89.7856,-77.0959 43.5324,-6.2936 402.6746,4.7202 429.8824,14.1605 27.2077,9.4403 68.9263,16.5205 57.1363,82.6027 -11.7901,66.0822 -63.4848,80.2427 -115.1795,81.8161 -51.6947,1.5733 -359.1423,11.0136 -402.6747,-25.1742 -43.5323,-36.1878 -60.7639,-33.041 -58.9501,-76.3092 z"
       id="path4010"
       inkscape:connector-curvature="0" />
    <path
       style="color:#000000;display:inline;overflow:visible;visibility:visible;fill:#ffffff;fill-opacity:1;fill-rule:nonzero;stroke:none;stroke-width:1px;stroke-linecap:butt;stroke-linejoin:miter;stroke-opacity:1;marker:none;enable-background:accumulate"
       d="m 1715.9019,2480.8956 c 26.3008,-46.2531 61.6709,-30.8354 73.4609,-29.9285 11.79,0.9069 54.4155,4.5346 73.4609,-34.4631 19.0455,-38.9978 67.1125,-44.4393 67.1125,-44.4393 l -27.2078,58.9501 c 0,0 -38.0908,33.5562 -66.2055,37.1839 -28.1147,3.6277 -67.1124,-9.0693 -80.7163,-4.5346 -13.6039,4.5346 -29.0216,4.5346 -39.9047,17.2315 z"
       id="path4018"
       inkscape:connector-curvature="0" />
  </g>
  <g
     inkscape:groupmode="layer"
     id="layer1"
     inkscape:label="txt"
     style="display:inline">
    <flowRoot
       xml:space="preserve"
       id="flowRoot2987-4"
       style="font-style:normal;font-variant:normal;font-weight:normal;font-stretch:normal;font-size:66.6667px;line-height:0.01%;font-family:'linja sike';-inkscape-font-specification:'linja sike';text-align:center;letter-spacing:0px;word-spacing:0px;text-anchor:middle;fill:#000000;fill-opacity:1;stroke:none"
       transform="translate(22.035887,1895.6508)"><flowRegion
         id="flowRegion2989-5"
         style="font-size:66.6667px"><rect
           id="rect2991-7"
           width="247.77328"
           height="219.06728"
           x="120.55251"
           y="265.53046"
           style="font-style:normal;font-variant:normal;font-weight:normal;font-stretch:normal;font-family:'linja sike';-inkscape-font-specification:'linja sike';text-align:center;text-anchor:middle;font-size:66.66666667px" /></flowRegion><flowPara
         style="font-size:66.6667px;line-height:1.25;text-align:center;text-anchor:middle"
         id="flowPara3033">a&gt;____</flowPara><flowPara
         style="font-size:66.6667px;line-height:1.25;text-align:center;text-anchor:middle"
         id="flowPara3024">mi sona…</flowPara></flowRoot>
    <flowRoot
       xml:space="preserve"
       id="flowRoot2987-4-5"
       style="font-style:normal;font-variant:normal;font-weight:normal;font-stretch:normal;font-size:66.6667px;line-height:0.01%;font-family:'linja sike';-inkscape-font-specification:'linja sike';text-align:center;letter-spacing:0px;word-spacing:0px;text-anchor:middle;fill:#000000;fill-opacity:1;stroke:none"
       transform="translate(859.39544,1866.0077)"><flowRegion
         id="flowRegion2989-5-5"
         style="font-size:66.6667px"><rect
           id="rect2991-7-8"
           width="498.00189"
           height="193.77916"
           x="120.55251"
           y="265.53046"
           style="font-style:normal;font-variant:normal;font-weight:normal;font-stretch:normal;font-size:66.6667px;font-family:'linja sike';-inkscape-font-specification:'linja sike';text-align:center;text-anchor:middle" /></flowRegion><flowPara
         style="font-size:66.6667px;line-height:1.25;text-align:center;text-anchor:middle"
         id="flowPara3024-5">… ni li pona.</flowPara><flowPara
         style="font-size:66.6667px;line-height:1.25;text-align:center;text-anchor:middle"
         id="flowPara47">mi wile e ni</flowPara></flowRoot>
    <flowRoot
       xml:space="preserve"
       id="flowRoot2987-4-5-9"
       style="font-style:normal;font-variant:normal;font-weight:normal;font-stretch:normal;line-height:0.01%;font-family:'linja sike';-inkscape-font-specification:'linja sike';text-align:center;letter-spacing:0px;word-spacing:0px;text-anchor:middle;fill:#000000;fill-opacity:1;stroke:#000000;stroke-width:1.22382;stroke-miterlimit:4;stroke-dasharray:none;stroke-opacity:1"
       transform="matrix(1.6940983,0,0,1.5764632,1384.3211,1737.9306)"><flowRegion
         id="flowRegion2989-5-5-0"
         style="stroke:#000000;stroke-width:1.22382;stroke-miterlimit:4;stroke-dasharray:none;stroke-opacity:1"><rect
           id="rect2991-7-8-3"
           width="469.71762"
           height="144.28166"
           x="120.55251"
           y="265.53046"
           style="font-style:normal;font-variant:normal;font-weight:normal;font-stretch:normal;font-family:'linja sike';-inkscape-font-specification:'linja sike';text-align:center;text-anchor:middle;stroke:#000000;stroke-opacity:1;stroke-width:1.22382346;stroke-miterlimit:4;stroke-dasharray:none" /></flowRegion><flowPara
         style="font-size:66.6667px;line-height:1.25;text-align:center;text-anchor:middle;stroke:#000000;stroke-width:1.22382;stroke-miterlimit:4;stroke-dasharray:none;stroke-opacity:1"
         id="flowPara3024-5-4">soweli[ _kili+anpa_wile-awen ]o!</flowPara></flowRoot>
    <flowRoot
       xml:space="preserve"
       id="flowRoot2987-4-5-6"
       style="font-style:normal;font-variant:normal;font-weight:normal;font-stretch:normal;font-size:66.6667px;line-height:0.01%;font-family:'linja sike';-inkscape-font-specification:'linja sike';text-align:center;letter-spacing:0px;word-spacing:0px;text-anchor:middle;fill:#000000;fill-opacity:1;stroke:none"
       transform="translate(1610.2934,2032.7253)"><flowRegion
         id="flowRegion2989-5-5-8"
         style="font-size:66.6667px"><rect
           id="rect2991-7-8-5"
           width="503.49176"
           height="207.00507"
           x="120.55251"
           y="265.53046"
           style="font-style:normal;font-variant:normal;font-weight:normal;font-stretch:normal;font-family:'linja sike';-inkscape-font-specification:'linja sike';text-align:center;text-anchor:middle;font-size:66.66666667px" /></flowRegion><flowPara
         style="font-size:66.6667px;line-height:1.25;text-align:center;text-anchor:middle"
         id="flowPara55">o tawa.mi-tu li alasa e wan</flowPara></flowRoot>
    <flowRoot
       xml:space="preserve"
       id="flowRoot2987-4-0"
       style="font-style:normal;font-variant:normal;font-weight:normal;font-stretch:normal;font-size:66.6667px;line-height:0.01%;font-family:'linja sike';-inkscape-font-specification:'linja sike';text-align:center;letter-spacing:0px;word-spacing:0px;text-anchor:middle;fill:#000000;fill-opacity:1;stroke:none"
       transform="translate(51.104249,1062.6036)"><flowRegion
         id="flowRegion2989-5-2"
         style="font-size:66.6667px"><rect
           id="rect2991-7-3"
           width="247.77328"
           height="219.06728"
           x="120.55251"
           y="265.53046"
           style="font-style:normal;font-variant:normal;font-weight:normal;font-stretch:normal;font-family:'linja sike';-inkscape-font-specification:'linja sike';text-align:center;text-anchor:middle;font-size:66.66666667px" /></flowRegion><flowPara
         style="font-size:66.6667px;line-height:1.25;text-align:center;text-anchor:middle"
         id="flowPara3024-3">…</flowPara></flowRoot>
  </g>
</svg>
