<?xml version="1.0" encoding="UTF-8" standalone="no"?>
<!-- Created with Inkscape (http://www.inkscape.org/) -->

<svg
   id="svg2"
   version="1.1"
   inkscape:version="1.1.1 (3bf5ae0d25, 2021-09-20)"
   width="2481"
   height="2479"
   sodipodi:docname="E05P05.svg"
   xmlns:inkscape="http://www.inkscape.org/namespaces/inkscape"
   xmlns:sodipodi="http://sodipodi.sourceforge.net/DTD/sodipodi-0.dtd"
   xmlns:xlink="http://www.w3.org/1999/xlink"
   xmlns="http://www.w3.org/2000/svg"
   xmlns:svg="http://www.w3.org/2000/svg"
   xmlns:rdf="http://www.w3.org/1999/02/22-rdf-syntax-ns#"
   xmlns:cc="http://creativecommons.org/ns#"
   xmlns:dc="http://purl.org/dc/elements/1.1/">
  <sodipodi:namedview
     pagecolor="#ffffff"
     bordercolor="#666666"
     inkscape:pageopacity="0"
     inkscape:pageshadow="2"
     inkscape:window-width="942"
     inkscape:window-height="1141"
     id="namedview70"
     showgrid="false"
     inkscape:zoom="0.28284271"
     inkscape:cx="1235.6691"
     inkscape:cy="1350.574"
     inkscape:current-layer="layer2"
     borderopacity="1"
     inkscape:pagecheckerboard="0"
     inkscape:window-x="15"
     inkscape:window-y="15"
     inkscape:window-maximized="0" />
  <metadata
     id="metadata8">
    <rdf:RDF>
      <cc:Work
         rdf:about="">
        <dc:format>image/svg+xml</dc:format>
        <dc:type
           rdf:resource="http://purl.org/dc/dcmitype/StillImage" />
      </cc:Work>
    </rdf:RDF>
  </metadata>
  <defs
     id="defs6" />
  <sodipodi:namedview
     pagecolor="#ffffff"
     bordercolor="#666666"
     borderopacity="1"
     objecttolerance="10"
     gridtolerance="10"
     guidetolerance="10"
     inkscape:pageopacity="0"
     inkscape:pageshadow="2"
     inkscape:window-width="1572"
     inkscape:window-height="996"
     id="namedview4"
     showgrid="false"
     inkscape:zoom="0.58"
     inkscape:cx="1406.6234"
     inkscape:cy="675.26218"
     inkscape:window-x="348"
     inkscape:window-y="55"
     inkscape:window-maximized="0"
     inkscape:current-layer="layer2"
     inkscape:object-nodes="true" />
  <g
     inkscape:groupmode="layer"
     id="layer1"
     inkscape:label="artwork"
     style="display:inline"
     sodipodi:insensitive="true">
    <image
       xlink:href="../gfx_Pepper-and-Carrot_by-David-Revoy_E05P05.png"
       y="0"
       x="0"
       id="image10"
       height="2479"
       width="2481" />
  </g>
  <g
     inkscape:groupmode="layer"
     id="layer3"
     inkscape:label="speechbubbles"
     style="display:inline">
    <path
       style="fill:#ffffff;stroke:none"
       d="m -2021.8885,646.19917 c 1.0628,-51.0158 26.5707,-103.09442 170.0526,-112.65988 143.4819,-9.56546 203.0004,48.89014 207.2517,90.34047 4.2513,41.45033 -82.9007,96.71744 -162.6129,97.78027 -79.7121,1.06282 -214.6914,-11.69112 -214.6914,-75.46086 z"
       id="path4279"
       inkscape:connector-curvature="0" />
    <path
       style="fill:#ffffff;stroke:none"
       d="m -1788.0661,898.08964 c 70.1467,-44.63882 88.2148,-124.35099 45.7016,-190.24639 -42.5132,-65.8954 -82.9007,-54.20428 -82.9007,-54.20428 l 35.0734,41.45033 c 0,0 97.7803,97.78027 2.1257,203.00034 z"
       id="path4281"
       inkscape:connector-curvature="0"
       sodipodi:nodetypes="csccc" />
  </g>
  <g
     inkscape:groupmode="layer"
     id="layer2"
     inkscape:label="text"
     style="display:inline">
    <text
       xml:space="preserve"
       style="font-style:normal;font-variant:normal;font-weight:normal;font-stretch:normal;font-size:15.1084px;line-height:0.01%;font-family:Arial;-inkscape-font-specification:Arial;text-align:center;letter-spacing:0px;word-spacing:0px;text-anchor:middle;white-space:pre;inline-size:1771.41;fill:#000000;fill-opacity:1;stroke:none;stroke-width:1.25903"
       x="1286.9546"
       y="117.99328"
       id="text147429"
       transform="scale(0.97964969,1.0207731)"><tspan
         x="1286.9546"
         y="117.99328"
         id="tspan81823"><tspan
   style="line-height:1.25"
   id="tspan81821"> </tspan>
</tspan><tspan
         x="1286.9546"
         y="127.43678"
         id="tspan81825">
</tspan><tspan
         x="1286.9546"
         y="177.90003"
         id="tspan81829"><tspan
   dx="0 0 0 0 0 0 0 0 0 0 0 0 0 0 0 0 0 0 0 0 0 0 0 0 0 0 0 0 0 0 0 0 0 0 0 0 0 0 0.00011444092"
   style="font-size:60.4335px;line-height:1.25;font-family:Lavi;-inkscape-font-specification:Lavi"
   id="tspan81827">Bíi dínonehóo Loyud i Ámed wa. Dínon woban betha. Meden</tspan><tspan
   y="177.90003"
   id="tspan81831"> </tspan></tspan><tspan
         x="1286.9546"
         y="253.4419"
         id="tspan81835"><tspan
           style="font-size:60.4335px;line-height:1.25;font-family:Lavi;-inkscape-font-specification:Lavi"
           id="tspan81833">wéedaná i meban ben wothem woloneth. Áala withedim 170 hi:</tspan></tspan></text>
    <flowRoot
       xml:space="preserve"
       id="flowRoot3027-8-8"
       style="font-style:normal;font-variant:normal;font-weight:normal;font-stretch:normal;line-height:0.01%;font-family:Arial;-inkscape-font-specification:Arial;text-align:center;letter-spacing:0px;word-spacing:0px;text-anchor:middle;fill:#a72f14;fill-opacity:1;stroke:none"
       transform="matrix(1.2234224,0,0,1.2506407,-251.98383,1512.9315)"><flowRegion
         id="flowRegion3029-9-3"><rect
           id="rect3031-9-1"
           width="2230.314"
           height="376.21677"
           x="135.21135"
           y="219.33444"
           style="text-align:center;text-anchor:middle;fill:#a72f14;fill-opacity:1" /></flowRegion><flowPara
         id="flowPara3033-3-0"
         style="font-size:12px;line-height:1.25"> </flowPara><flowPara
         style="font-style:normal;font-variant:normal;font-weight:normal;font-stretch:normal;font-size:48px;line-height:1.25;font-family:Lavi;-inkscape-font-specification:Lavi;text-align:center;text-anchor:middle;fill:#a72f14;fill-opacity:1"
         id="flowPara3067-4">https://www.patreon.com/davidrevoy</flowPara></flowRoot>
    <text
       xml:space="preserve"
       style="font-style:normal;font-variant:normal;font-weight:normal;font-stretch:normal;font-size:11.12px;line-height:0.01%;font-family:Arial;-inkscape-font-specification:Arial;text-align:center;letter-spacing:0px;word-spacing:0px;text-anchor:middle;white-space:pre;inline-size:1665.71;fill:#000000;fill-opacity:1;stroke:none;stroke-width:0.926666"
       x="1084.5502"
       y="1705.8834"
       id="text152025"
       transform="matrix(0.98446186,0,0,1.0157834,172.94107,0)"><tspan
         x="1084.5502"
         y="1705.8834"
         id="tspan81839"><tspan
           style="font-size:44.48px;line-height:1.25;font-family:Lavi;-inkscape-font-specification:Lavi"
           id="tspan81837">Bóo den ne alehalath. 
</tspan></tspan><tspan
         x="1084.5502"
         y="1761.4835"
         id="tspan81843"><tspan
           style="font-size:44.48px;line-height:1.25;font-family:Lavi;-inkscape-font-specification:Lavi"
           id="tspan81841">Bíi bere den ne losheth nedebe barada, ébere denehal ne Loyud i Ámed beth wa!</tspan></tspan></text>
    <text
       xml:space="preserve"
       style="font-style:normal;font-variant:normal;font-weight:normal;font-stretch:normal;font-size:9.17979px;line-height:0.01%;font-family:Arial;-inkscape-font-specification:Arial;text-align:center;letter-spacing:0px;word-spacing:0px;text-anchor:middle;white-space:pre;inline-size:1298.74;fill:#000000;fill-opacity:1;stroke:none;stroke-width:0.764983"
       x="1230.1885"
       y="2207.8865"
       id="text161671"
       transform="scale(1.0306136,0.97029579)"><tspan
         x="1230.1885"
         y="2207.8865"
         id="tspan81847"><tspan
   style="line-height:1.25"
   id="tspan81845"> </tspan>
</tspan><tspan
         x="1230.1885"
         y="2213.6244"
         id="tspan81849">
</tspan><tspan
         x="1230.1885"
         y="2244.2857"
         id="tspan81853"><tspan
   style="font-size:36.7192px;line-height:1.25;font-family:Lavi;-inkscape-font-specification:Lavi"
   id="tspan81851">Bodibod: Bíi wudeth hi eleshub wodínon wohedenan wa:</tspan>
</tspan><tspan
         x="1230.1885"
         y="2259.5243"
         id="tspan81855">
</tspan><tspan
         x="1230.1885"
         y="2290.1856"
         id="tspan81859"><tspan
   style="font-size:36.7192px;line-height:1.25;font-family:Lavi;-inkscape-font-specification:Lavi"
   id="tspan81857">Krita, G'MIC, Blender Ubuntu Gnome (GNU/Linux) beha</tspan>
</tspan><tspan
         x="1230.1885"
         y="2305.4242"
         id="tspan81861">
</tspan><tspan
         x="1230.1885"
         y="2336.0855"
         id="tspan81865"><tspan
           style="font-size:36.7192px;line-height:1.25;font-family:Lavi;-inkscape-font-specification:Lavi"
           id="tspan81863"> </tspan></tspan></text>
    <text
       xml:space="preserve"
       style="font-style:normal;font-variant:normal;font-weight:normal;font-stretch:normal;font-size:9.22817px;line-height:0.01%;font-family:Arial;-inkscape-font-specification:Arial;text-align:center;letter-spacing:0px;word-spacing:0px;text-anchor:middle;white-space:pre;inline-size:1397.25;display:inline;fill:#000000;fill-opacity:1;stroke:none;stroke-width:0.769014"
       x="1251.7227"
       y="2082.9766"
       id="text158493"
       transform="scale(1.0252106,0.97540934)"><tspan
         x="1251.7227"
         y="2082.9766"
         id="tspan81869"><tspan
   style="line-height:1.25"
   id="tspan81867"> </tspan>
</tspan><tspan
         x="1251.7227"
         y="2088.7446"
         id="tspan81871">
</tspan><tspan
         x="1251.7227"
         y="2119.5676"
         id="tspan81875"><tspan
   style="font-size:36.9127px;line-height:1.25;font-family:Lavi;-inkscape-font-specification:Lavi"
   id="tspan81873">Wodínon wohel: Bíi meham dadem woho i thoded woho i minidibi...</tspan>
</tspan><tspan
         x="1251.7227"
         y="2134.8865"
         id="tspan81877">
</tspan><tspan
         x="1251.7227"
         y="2165.7094"
         id="tspan81881"><tspan
           style="font-size:36.9127px;line-height:1.25;font-family:Lavi;-inkscape-font-specification:Lavi"
           id="tspan81879"> </tspan></tspan></text>
    <text
       xml:space="preserve"
       style="font-style:normal;font-variant:normal;font-weight:normal;font-stretch:normal;font-size:9.39007px;line-height:0.01%;font-family:Arial;-inkscape-font-specification:Arial;text-align:center;letter-spacing:0px;word-spacing:0px;text-anchor:middle;white-space:pre;inline-size:1291.05;display:inline;fill:#000000;fill-opacity:1;stroke:none;stroke-width:0.782506"
       x="1275.1079"
       y="1923.4836"
       id="text155629"
       transform="scale(1.0075341,0.99252227)"><tspan
         x="1275.1079"
         y="1923.4836"
         id="tspan81885"><tspan
   style="line-height:1.25"
   id="tspan81883"> </tspan>
</tspan><tspan
         x="1275.1079"
         y="1929.3529"
         id="tspan81887">
</tspan><tspan
         x="1275.1079"
         y="1960.7166"
         id="tspan81891"><tspan
   style="font-size:37.5603px;line-height:1.25;font-family:Lavi;-inkscape-font-specification:Lavi"
   id="tspan81889">Hudi: Creative Commons Attribution, 'David Revoy' bedim</tspan>
</tspan><tspan
         x="1275.1079"
         y="2007.6669"
         id="tspan81895"><tspan
   style="font-size:37.5603px;line-height:1.25;font-family:Lavi;-inkscape-font-specification:Lavi"
   id="tspan81893">Bíi thad el ne zheheleth, shebeleth, nerabutheth, úthú beheb ne, minidibi...</tspan>
</tspan><tspan
         x="1275.1079"
         y="2023.2545"
         id="tspan81897">
</tspan><tspan
         x="1275.1079"
         y="2054.6182"
         id="tspan81901"><tspan
           style="font-size:37.5603px;line-height:1.25;font-family:Lavi;-inkscape-font-specification:Lavi"
           id="tspan81899"> </tspan></tspan></text>
    <text
       xml:space="preserve"
       style="font-style:normal;font-variant:normal;font-weight:normal;font-stretch:normal;font-size:9.95644px;line-height:1.5;font-family:Arial;-inkscape-font-specification:Arial;letter-spacing:0px;word-spacing:0px;writing-mode:lr-tb;white-space:pre;inline-size:2461.74;display:inline;fill:#000000;fill-opacity:1;stroke:none;stroke-width:0.829703"
       x="1670.9775"
       y="324.13937"
       id="text111708"
       transform="matrix(0.9635824,0,0,1.037794,-1550.4185,0)"><tspan
         x="1670.9775"
         y="324.13937"
         id="tspan81907"><tspan
           dx="0 0 0 0 0 0 0 0 0 0 0 0 0 0 0 0 0 0 0 0 0 0 0 0 0 0 0 0 0 0 0 0 0 0 0 0 0 0 0 0 0 0 0 0 0 0 0 0 0 0 0 0 0 0 0 0 0 0 0 0 0 0 0 0 0 0 0 0 0 0 0 0.00010681152 0 0 0 0 0 0 0 0 0 0 0 0 0 0 0 0 0 0 0 0 0.00010681152 0 0 0 0 0 0 0 0 0 0.00010681152 0 0 0 0 0 0 0 0 0 0 0 0 0 0 0 -0.0001373291 0 0 0.00015830994 -0.00016403198 0.00018310547 0 0 0 0.00010681152 -0.00013256073"
           style="font-size:39.0895px;font-family:Lavi;-inkscape-font-specification:Lavi;text-align:center;text-anchor:middle"
           id="tspan81903">Addison Lewis - Adrian Lord - Alan Hardman - Albert Westra - Alejandro Flores Prieto - Aleš Tomeček - Alexander Bülow Tomassen - </tspan><tspan
           dx="0.00010681152"
           style="text-align:center;text-anchor:middle"
           id="tspan81905">
</tspan></tspan><tspan
         x="1670.9775"
         y="382.77362"
         id="tspan81913"><tspan
           dx="0 0 0 0 0 0 0 0 0 0 0 0 0 0 0 0 0 0 0 0 0 0 0 0 0 0 0 0 0 0 0 0 0 0 0 0 0 0 0 0 0 0 0 0 0 0 0 0 0 0 0 0 0 0 0 0 0 0 0 0 0 0 0 0 0 0 0 0 0 0 0 0 0 0 0 0 0 0 0 0 0 0 0 0 0 0 0 0 0 0 0 0 0 0 0 0 0 0.00010681152 0 0 0 0 0 0 0 0 0 0 0 0 0 0 0 0 0 0 0 0 0 0 0 0 -0.0001373291 0.0001373291 -0.00010871887 0 0 0 0 0.00010681152 -0.00013256073"
           style="font-size:39.0895px;font-family:Lavi;-inkscape-font-specification:Lavi;text-align:center;text-anchor:middle"
           id="tspan81909">Alexander Sopicki - Alex Lusco - Alex Silver - Alex Vandiver - Alfredo - Ali Poulton (Aunty Pol) - Allan Zieser - Andreas Rieger - </tspan><tspan
           dx="0.00010681152"
           style="text-align:center;text-anchor:middle"
           id="tspan81911">
</tspan></tspan><tspan
         x="1670.9775"
         y="441.40787"
         id="tspan81919"><tspan
           dx="0 0 0 0 0 0 0 0 0 0 0 0 0 0 0 0 0 0 0 0 0 0 0 0 0 0 0 0 0 0 0 0 0 0 0 0 0 0 0 0 0 0 0 0 0 0 0 0 0 0 0 0 0 0 0 0 0 0 0 0 0 0.00010681152 0 0 0 0 0 0 0 0 0.00010681152 0 0 0 0 0 0 0 0 0 0 0 0 0 0 0 0 0.0001115799 0 0 0 0 0 0 0 0 0 0 0 0 0 0 0 0 0 0 0 0 0 0 0 -0.00016021729 0.00016689301 -0.00016403198 0.00010681152 0.0001115799 -0.0001373291 0.0001449585 -0.00014686584"
           style="font-size:39.0895px;font-family:Lavi;-inkscape-font-specification:Lavi;text-align:center;text-anchor:middle"
           id="tspan81915">Andrej Kwadrin - Andrew - Andrew Godfrey - Andrey Alekseenko - Angela K - Anna Orlova - anonymous - Antan Karmola - Ardash </tspan><tspan
           dx="0.00010681152"
           style="text-align:center;text-anchor:middle"
           id="tspan81917">
</tspan></tspan><tspan
         x="1670.9775"
         y="500.04211"
         id="tspan81925"><tspan
           dx="0 0 0 0 0 0 0 0 0 0 0 0 0 0 0 0 0 0 0 0 0 0 0 0 0 0 0 0 0 0 0 0 0 0 0 0 0 0 0 0 0 0 0 0 0 0 0 0 0 0 0 0 0 0 0 0 0 0 0 0 0 0 0 0 0 0 0 0.00010681152 0 0 -0.00010871887 0 0 0 0 0 0 0 0 0 0 0 0 0 0 0 0 0 0 0 0 0 0.00010681152"
           style="font-size:39.0895px;font-family:Lavi;-inkscape-font-specification:Lavi;text-align:center;text-anchor:middle"
           id="tspan81921">Crowfoot - Arne Brix - Aslak Kjølås-Sæverud - Axel Bordelon - Axel Philipsenburg - barbix - Ben Evans - Bernd - Boonsak </tspan><tspan
           dx="-0.0001373291"
           style="text-align:center;text-anchor:middle"
           id="tspan81923">
</tspan></tspan><tspan
         x="1670.9775"
         y="558.67636"
         id="tspan81931"><tspan
           dx="0 0 0 0 0 0 0 0 0 0 0 0 0 0 0 0 0 0 0 0 0 0 0 0 0 0 0 0 0 0 0 0 0 0 0 0 0 0 0 0 0 0 0 0 0 0 0 0 0 0 0 0 0 0 0 0 0 0 0 0.00010681152 0 0 0 0 0 0 0 0 0 0 0 0 0 0 0 0 0 0 0 0 0 0 0 0 0 0 0 0 0 0 0 0 0 0 0 0 0 0 0 0 0 0 0 0.00010681152 0 0 0 0 0 0 0 0 0 0 0 0 0 0 0.00010681152 -0.00013256073 0.00010681152 0 0 0 -0.00010871887 0 0.00010681152 -0.00012016296 0 0 0.00016975403 -0.00016403198"
           style="font-size:39.0895px;font-family:Lavi;-inkscape-font-specification:Lavi;text-align:center;text-anchor:middle"
           id="tspan81927">Watanavisit - Boudewijn Rempt - Brett Smith - Brian Behnke - carlos levischi - Charlotte Lacombe-bar - Chris Radcliff - Chris Sakkas </tspan><tspan
           dx="0.00010681152"
           style="text-align:center;text-anchor:middle"
           id="tspan81929">
</tspan></tspan><tspan
         x="1670.9775"
         y="617.31064"
         id="tspan81937"><tspan
           dx="0 0 0 0 0 0 0 0 0 0 0 0 0 0 0 0 0 0 0 0 0 0 0 0 0 0 0 0 0 0 0 0 0 0 0 0 0 0 0 0 0 0 0 0 0 0 0 0 0 0 0 0 0 0 0 0 0 0 0 0 0 0 0 0 0 0 0 0 0 0 0 0 0 0 0 0 0 0 0 0 0.00010681152 0 0 0 0 0 0 0 0 0 0 0 0 0 0.00010681152 0 0 0 0 0 0 0 0.00010681152 0 0 0 0 0 0 0 -0.00010871887 0 0 0 0 0 0 0 0 -0.00010871887 0.00016689301 -0.0001373291 0 0 0 -0.00010871887 0 0 0 0.00020599365 -0.0001373291 0.0001115799"
           style="font-size:39.0895px;font-family:Lavi;-inkscape-font-specification:Lavi;text-align:center;text-anchor:middle"
           id="tspan81933">- Christophe Carré - Christopher Bates - Clara Dexter - Colby Driedger - Conway Scott Smith - Cyrille Largillier - Cyril Paciullo - </tspan><tspan
           dx="-0.0001373291"
           style="text-align:center;text-anchor:middle"
           id="tspan81935">
</tspan></tspan><tspan
         x="1670.9775"
         y="675.94492"
         id="tspan81943"><tspan
           dx="0 0 0 0 0 0 0 0 0 0 0 0 0 0 0 0 0 0 0 0 0 0 0 0 0 0 0 0 0 0 0 0 0 0 0 0 0 0 0 0 0 0 0 0 0 0 0 0 0 0 0 0 0 0 0 0 0 0 0 0 0 0 0 0 0 0 0 0 0 0 0 0 0 0 0 0 0 0 0 0 0 0 0 0 0 0 0 0.00010681152 0 0 0 0 0 0 0 0 0 0 0 0 0 0 0 0 0 0 0 0 0 0 0 0 0 0 0 0 0 0 0.00010681152 0 -0.00014686584 0.00013542175 -0.00015449524 0.00010681152 -0.00012016296 0 0 0 0 0 0.00010681152 0.0001115799"
           style="font-size:39.0895px;font-family:Lavi;-inkscape-font-specification:Lavi;text-align:center;text-anchor:middle"
           id="tspan81939">Damien - Daniel - Daniel Björkman - david - Dmitry - Donald Hayward - Eitan Goldshtrom - Enrico Billich - -epsilon- - Eric Schulz - </tspan><tspan
           dx="-0.0001373291"
           style="text-align:center;text-anchor:middle"
           id="tspan81941">
</tspan></tspan><tspan
         x="1670.9775"
         y="734.57919"
         id="tspan81947"><tspan
           dx="0 0 0 0 0 0 0 0 0 0 0 0 0 0 0 0 0 0 0 0 0 0 0 0 0 0 0 0 0 0 0 0 0 0 0 0 0 0 0 0 0 0 0 0 0 0 0 0 0 0 0 0 0 0 0 0 0 0 0 0 0 0 0 0 0.00010681152"
           style="font-size:39.0895px;font-family:Lavi;-inkscape-font-specification:Lavi;text-align:center;text-anchor:middle"
           id="tspan81945">Frederico - Garret Patterson - GreenAngel5 - Guillaume - Gustav Strömbom 
</tspan></tspan><tspan
         x="1670.9775"
         y="793.21347"
         id="tspan81951"><tspan
           dx="0 0 0 0 0 0 0 0 0 0 0 0 0 0 0 0 0 0 0 0 0 0 0 0 0 0 0 0 0 0 0 0 0 0 0 0 0 0 0 0 0 0 0 0 0 0 0 0 0 0 0 0 0 0 0 0 0 0 0 0 0 0 0 0 0 0 0 0 0 0 0 0 0 0 0 0 0 0 0 0.00010681152 0 0 0 0 0 0 0 0 0 0 0 0 0 0 0 0 0 0 0 0 0 0 0 0 0 0 0 0 0 0 0 0 0 0 -0.0001373291 0.0001115799 -0.0001373291 0 0 0 0 0 -0.0001373291"
           style="font-size:39.0895px;font-family:Lavi;-inkscape-font-specification:Lavi;text-align:center;text-anchor:middle"
           id="tspan81949">Guy Davis - Happy Mimic - Helmar Suschka - Ilyas Akhmedov - Inga Huang - Irene C. - Ivan Korotkov - James Frazier - Jared 
</tspan></tspan><tspan
         x="1670.9775"
         y="851.84775"
         id="tspan81955"><tspan
           dx="0 0 0 0 0 0 0 0 0 0 0 0 0 0 0 0 0 0 0 0 0 0 0 0 0 0 0 0 0 0 0 0 0 0 0 0 0 0 0 0 0 0 0 0 0 0 0 0 0 0 0 0 0 0 0 0 0 0 0 0 0 0 0 0 0 0 0 0 0 0 0 0 0 0 0 0 0 0.0001115799 0 0 0 0 0 0 0.0001115799 0 0 0 0 0 0 0.0001115799 0 0 0 0 0 0 0 0 0 0 0 0 0 0 0 0 0 0 0 0 0 0 0 0 0 0 0 -0.0001373291 0 0 0 -0.00011444092 0 0.00010681152 -0.00013256073"
           style="font-size:39.0895px;font-family:Lavi;-inkscape-font-specification:Lavi;text-align:center;text-anchor:middle"
           id="tspan81953">Tritsch - JDB - Jean-Baptiste Hebbrecht - Jeffrey Schneider - Jessey Wright - John - John - Jónatan Nilsson - Jonathan Leroy -
</tspan></tspan><tspan
         x="1670.9775"
         y="910.48202"
         id="tspan81959"><tspan
           dx="0 0 0 0 0 0 0 0 0 0 0 0 0 0 0 0 0 0 0 0 0 0 0 0 0 0 0 0 0 0 0 0 0 0 0 0 0 0 0 0 0 0 0 0 0 0 0 0 0 0 0 0 0 0 0 0 0 0 0 0 0 0 0 0 0 0 0 0 0 0 0 0 0 0 0 0 0 0 0 0 0 0 0 0 0 0 0 0 0 0 0 0 0 0 0 0 0 0 0 0 0 0 0 0 0 0 0 0 0 0 0 0 0 0 0 0 0 0 0 0.00010681152 0.0001115799"
           style="font-size:39.0895px;font-family:Lavi;-inkscape-font-specification:Lavi;text-align:center;text-anchor:middle"
           id="tspan81957">Jon Brake - Joseph Bowman - Jurgo van den Elzen - Justin Diehl - Kai-Ting (Danil) Ko - Kasper Hansen - Kathryn Wuerstl -
</tspan></tspan><tspan
         x="1670.9775"
         y="969.1163"
         id="tspan81963"><tspan
           dx="0 0 0 0 0 0 0 0 0 0 0 0 0 0 0 0 0 0 0 0 0 0 0 0 0 0 0 0 0 0 0 0 0 0 0 0 0 0 0 0 0 0 0 0 0 0 0 0 0 0 0 0 0 0 0 0 0 0 0 0 0 0 0 0 0 0 0 0 0 0 0 0 0 0 0 0 0 0 0 0 0 0 0 0 0 0 0 0.00010681152 0 0 0 0 0 0 0 0 0.00010681152 0 0 0 0 -0.00010871887"
           style="font-size:39.0895px;font-family:Lavi;-inkscape-font-specification:Lavi;text-align:center;text-anchor:middle"
           id="tspan81961">Ken Mingyuan Xia - Liselle - Lorentz Grip - MacCoy - Magnus Kronnäs - Mandy Streisel - marcus - Martin Owens 
</tspan></tspan><tspan
         x="1670.9775"
         y="1027.7506"
         id="tspan81969"><tspan
           dx="0 0 0 0 0 0 0 0 0 0 0 0 0 0 0 0 0 0 0 0 0 0 0 0 0 0 0 0 0 0 0 0 0 0 0 0 0 0 0 0 0 0 0 0 0 0 0 0 0 0 0 0 0 0 0 0 0 0 0 0 0 0 0 0 0 0 0 0 0 0 0 0 0 0 0 0 0 0 0 0 0 0 0 0 0 0 0 0 0 0 0 0 0 0 0 -0.00010871887 0 0 0 0 0 0 0.00010681152"
           style="font-size:39.0895px;font-family:Lavi;-inkscape-font-specification:Lavi;text-align:center;text-anchor:middle"
           id="tspan81965">Mary Brownlee - Masked Admirer - Mathias Stærk - mattscribbles - Maurice-Marie Stromer - mefflin ross bullis-bates </tspan><tspan
           dx="-0.0001373291"
           style="text-align:center;text-anchor:middle"
           id="tspan81967">
</tspan></tspan><tspan
         x="1670.9775"
         y="1086.3849"
         id="tspan81973"><tspan
           dx="0 0 0 0 0 0 0 0 0 0 0 0 0 0 0 0 0 0 0 0 0 0 0 0 0 0 0 0 0 0 0 0 0 0 0 0 0 0 0 0 0 0 0 0 0 0 0 0 0 0 0 0 0 0 0 0 0 0 0 0 0 0 0 0 0 0 0 0 0 0 0 0 0 0 0 0 0 0 0 0 0 0 0 0 0 0 0 0 0 0 0 0 0 0 0 0 0 0.0001115799 0 0 0 0 0 0 0 0 0 0 0 0 0 0 0 0 0 0 0.00010681152 0 0 0 0 0 0 0 -0.00014686584 0.00010681152 -0.00013256073"
           style="font-size:39.0895px;font-family:Lavi;-inkscape-font-specification:Lavi;text-align:center;text-anchor:middle"
           id="tspan81971"> Michael Gill - Michelle Pereira Garcia - Mike Mosher - Morten Hellesø Johansen - Muzyka Dmytro - Nazhif - Nicholas DeLateur -
</tspan></tspan><tspan
         x="1670.9775"
         y="1145.0191"
         id="tspan81979"><tspan
           dx="0 0 0 0 0 0 0 0 0 0 0 0 0 0 0 0 0 0 0 0 0 0 0 0 0 0 0 0 0 0 0 0 0 0 0 0 0 0 0 0 0 0 0 0 0 0 0 0 0 0 0 0 0 0 0 0 0 0 0 0 0 0 0 0 0 0 0 0 0 0 0 0 0 0 0 0.00010681152 0 0 0 0 0 0 0 0 0 0 0 0 0 0 0 0 0 0 0 0 0 0 0 0 0 0 0 0 0 0 0 0.0001115799"
           style="font-size:39.0895px;font-family:Lavi;-inkscape-font-specification:Lavi;text-align:center;text-anchor:middle"
           id="tspan81975">Nick Allott - Nicki Aya - Nicola Angel - Nicolae Berbece - Nicole Heersema - Noble Hays - Nora Czaykowski - Nyx -</tspan><tspan
           style="text-align:center;text-anchor:middle"
           id="tspan81977">
</tspan></tspan><tspan
         x="1670.9775"
         y="1203.6534"
         id="tspan81985"><tspan
           dx="0 0 0 0 0 0 0 0 0 0 0 0 0 0 0 0 0 0 0 0 0 0 0 0 0 0 0 0 0 0 0 0 0 0 0 0 0 0 0 0 0 0 0 0 0 0 0 0 0 0 0 0 0 0 0 0 0 0 0 0 0 0 0 0 0 0 0 0 0 0 0 0 0 0 0 0 0.00010681152 0 0 0 0 0 0 0 0 0 0 0.00010681152 0 0 0 0 0 0 0 0 0 0 0 0 0 0 0 0 0 0 0 0 0 0 0 0 0 0 0 0 0 -0.0001373291"
           style="font-size:39.0895px;font-family:Lavi;-inkscape-font-specification:Lavi;text-align:center;text-anchor:middle"
           id="tspan81981">Olivier Amrein - Olivier Brun - Omar Willey - Oscar Moreno - Öykü Su Gürler - Ozone S. - Paul - Paul - Pavel Semenov -</tspan><tspan
           dx="0.0001115799"
           style="text-align:center;text-anchor:middle"
           id="tspan81983">
</tspan></tspan><tspan
         x="1670.9775"
         y="1262.2877"
         id="tspan81991"><tspan
           dx="0 0 0 0 0 0 0 0 0 0 0 0 0 0 0 0 0 0 0 0 0 0 0 0 0 0 0 0 0 0 0 0 0 0 0 0 0 0 0 0 0 0 0 0 0 0 0 0 0 0 0 0 0 0 0 0 0 0 0 0 0.00010681152 0 0 0 0 0 0 0 0 0 0 0 0 0 0 0 0 0 0 0 0 0 0 0 0 0 0 0.0001115799 0 0 0 0 0 0 0 0 0 0 0 0 0.00010681152 0 0 0 0 0 0 0 0 0 0 0 0 0 0 0 0 0 0 -0.00010871887 0 -0.0001373291"
           style="font-size:39.0895px;font-family:Lavi;-inkscape-font-specification:Lavi;text-align:center;text-anchor:middle"
           id="tspan81987"> Peter - Peter Moonen - Petr Vlašic - Pierre Geier - Pierre Vuillemin - Pranab Shenoy - Rajul Gupta - Ret Samys - rictic -</tspan><tspan
           dx="0.0001115799"
           style="text-align:center;text-anchor:middle"
           id="tspan81989">
</tspan></tspan><tspan
         x="1670.9775"
         y="1320.922"
         id="tspan81997"><tspan
           dx="0 0 0 0 0 0 0 0 0 0 0 0 0 0 0 0 0 0 0 0 0 0 0 0 0 0 0 0 0 0 0 0 0 0 0 0 0 0 0 0 0 0 0 0 0 0 0 0 0 0 0 0 0 0 0 0 0 0 0 0 0 0 0 0 0 0 0 0 0 0 0 0 0 0 0 0.00010681152 0 0 0 0 0 0 0 0 0.00010871887 0 0 0 0 0 0 0 0 0 0 0 0 0 0 0 0 0 0 0 0 0 0 0 0 0 0 0 0 0 0 0.00013542175 -0.00015163422 0 0.00020599365 0 -0.0001373291 0.00012397766 -0.00015449524 0.00020599365 -0.00015163422"
           style="font-size:39.0895px;font-family:Lavi;-inkscape-font-specification:Lavi;text-align:center;text-anchor:middle"
           id="tspan81993">RJ van der Weide - Roberto Zaghis - Roman - Rumiko Hoshino - Rustin Simons - Sally Bridgewater - Sami T - Samuel Mitson Scott </tspan><tspan
           dx="-0.0001373291"
           style="text-align:center;text-anchor:middle"
           id="tspan81995">
</tspan></tspan><tspan
         x="1670.9775"
         y="1379.5562"
         id="tspan82003"><tspan
           style="font-size:39.0895px;font-family:Lavi;-inkscape-font-specification:Lavi;text-align:center;text-anchor:middle"
           id="tspan81999">Russ - Sean Adams   Shadefalcon - Shane Lopez - Shawn Meyer - Sigmundur Þórir Jónsson - Simon Forster </tspan><tspan
           style="text-align:center;text-anchor:middle"
           id="tspan82001">
</tspan></tspan><tspan
         x="1670.9775"
         y="1438.1905"
         id="tspan82009"><tspan
           dx="0 0 0 0 0 0 0 0 0 0 0 0 0 0 0 0 0 0 0 0 0 0 0 0 0 0 0 0 0 0 0 0 0 0 0 0 0 0 0 0 0 0 0 0 0 0 0 0 0 0 0 0 0 0 0 0 0 0 0.00010681152 0 0 0 0 0 0 0 0 0 0 0 0 0 0 0 0 0 0 0 0 0 0 0 0 0 0 0 0 0 0 0 0 0 0 0 0 0 0 0 0 0 0 0 0 0 0 0 0 0 0 0 0 0 0 0 0 0.00015258789 -0.00010871887 0.00010681152 0 0 0 0 0.00012016296"
           style="font-size:39.0895px;font-family:Lavi;-inkscape-font-specification:Lavi;text-align:center;text-anchor:middle"
           id="tspan82005">Simon Isenberg - Sonny W. - Stanislav Vodetskyi - Stephen Bates - Steven Bennett - Stuart Dickson - surt - Tadamichi Ohkubo </tspan><tspan
           dx="-0.0001373291"
           style="text-align:center;text-anchor:middle"
           id="tspan82007">
</tspan></tspan><tspan
         x="1670.9775"
         y="1496.8248"
         id="tspan82015"><tspan
           style="font-size:39.0895px;font-family:Lavi;-inkscape-font-specification:Lavi;text-align:center;text-anchor:middle"
           id="tspan82011">tar8156 - TheFaico - Thomas Schwery - Tracey Reuben - Travis Humble - tree - Vespertinus - Victoria - Vlad Tomash </tspan><tspan
           style="text-align:center;text-anchor:middle"
           id="tspan82013">
</tspan></tspan><tspan
         x="1670.9775"
         y="1557.6111"
         id="tspan82029"><tspan
           style="font-size:39.0895px;font-family:Lavi;-inkscape-font-specification:Lavi;text-align:center;text-anchor:middle"
           id="tspan82017"> Westen Curry - Xavier Claude - Yalyn Vinkindo - </tspan><tspan
           style="font-size:39.0895px;font-family:Lavi;-inkscape-font-specification:Lavi;text-align:center;text-anchor:middle"
           id="tspan82019">Алексей - Глеб Бузало - </tspan><tspan
           style="font-size:39.0895px;font-family:Lavi;-inkscape-font-specification:Lavi;text-align:center;text-anchor:middle"
           id="tspan82021">獨孤欣</tspan><tspan
           style="font-size:39.0895px;font-family:Lavi;-inkscape-font-specification:Lavi;text-align:center;text-anchor:middle"
           id="tspan82023"> &amp; </tspan><tspan
           style="font-size:39.0895px;font-family:Lavi;-inkscape-font-specification:Lavi;text-align:center;text-anchor:middle"
           id="tspan82025">獨弧</tspan><tspan
           style="font-size:39.0895px;font-family:Lavi;-inkscape-font-specification:Lavi;text-align:center;text-anchor:middle"
           id="tspan82027">悦</tspan></tspan></text>
  </g>
</svg>
