<?xml version="1.0" encoding="UTF-8" standalone="no"?>
<svg
   sodipodi:docname="E34P05.svg"
   height="3503"
   width="2481"
   inkscape:version="1.2.1 (9c6d41e410, 2022-07-14)"
   version="1.1"
   id="svg2"
   xmlns:inkscape="http://www.inkscape.org/namespaces/inkscape"
   xmlns:sodipodi="http://sodipodi.sourceforge.net/DTD/sodipodi-0.dtd"
   xmlns:xlink="http://www.w3.org/1999/xlink"
   xmlns="http://www.w3.org/2000/svg"
   xmlns:svg="http://www.w3.org/2000/svg"
   xmlns:rdf="http://www.w3.org/1999/02/22-rdf-syntax-ns#"
   xmlns:cc="http://creativecommons.org/ns#"
   xmlns:dc="http://purl.org/dc/elements/1.1/">
  <metadata
     id="metadata8">
    <rdf:RDF>
      <cc:Work
         rdf:about="">
        <dc:format>image/svg+xml</dc:format>
        <dc:type
           rdf:resource="http://purl.org/dc/dcmitype/StillImage" />
        <dc:title />
      </cc:Work>
    </rdf:RDF>
  </metadata>
  <defs
     id="defs6">
    <filter
       inkscape:label="soundFX1"
       id="filter4375-4-1-1-1-9-5-8-8-5-5-3-3"
       style="color-interpolation-filters:sRGB"
       x="-0.018402677"
       y="-0.00056175355"
       width="1.0190343"
       height="1.0017147">
      <feFlood
         result="flood"
         flood-color="rgb(52,52,52)"
         flood-opacity="1"
         id="feFlood4377-7-9-0-8-1-7-3-1-2-7-6-6" />
      <feComposite
         baseFrequency="0.053999999999999999 0.053999999999999999"
         result="composite1"
         operator="in"
         in="flood"
         in2="SourceGraphic"
         id="feComposite4379-3-8-8-2-77-4-1-0-6-4-7-7" />
      <feMorphology
         result="result3"
         radius="4.0330969769021738"
         operator="dilate"
         id="feMorphology4393-1-0-49-8-9-3-0-1-9-9-5-5" />
      <feComposite
         result="fbSourceGraphic"
         operator="over"
         in="SourceGraphic"
         in2="result3"
         id="feComposite4385-9-5-7-0-8-8-7-5-4-9-3-3" />
      <feColorMatrix
         id="feColorMatrix4544-9-4-4-5-5"
         values="0 0 0 -1 0 0 0 0 -1 0 0 0 0 -1 0 0 0 0 1 0"
         in="fbSourceGraphic"
         result="fbSourceGraphicAlpha" />
      <feTurbulence
         result="turbulence"
         baseFrequency="0.053999999999999999 0.054054054054054057"
         seed="147"
         numOctaves="4"
         type="fractalNoise"
         id="feTurbulence4546-3-6-5-6-6" />
      <feDisplacementMap
         result="fbSourceGraphic"
         xChannelSelector="R"
         yChannelSelector="G"
         scale="10.561763"
         in="fbSourceGraphic"
         in2="turbulence"
         id="feDisplacementMap4548-8-0-9-2-2" />
      <feColorMatrix
         id="feColorMatrix4670-7-7-3-9-9"
         values="0 0 0 -1 0 0 0 0 -1 0 0 0 0 -1 0 0 0 0 1 0"
         in="fbSourceGraphic"
         result="fbSourceGraphicAlpha" />
      <feFlood
         in="fbSourceGraphic"
         result="flood"
         flood-color="rgb(28,28,28)"
         flood-opacity="1"
         id="feFlood4672-4-4-5-1-1" />
      <feComposite
         result="composite1"
         operator="in"
         in="flood"
         in2="fbSourceGraphic"
         id="feComposite4674-8-3-7-2-2" />
      <feGaussianBlur
         result="blur"
         stdDeviation="0"
         in="composite1"
         id="feGaussianBlur4676-3-7-08-7-7" />
      <feOffset
         result="offset"
         dy="0.39217365321829334"
         dx="-10.48377497279229"
         id="feOffset4678-6-9-1-0-0" />
      <feComposite
         result="composite2"
         operator="over"
         in="fbSourceGraphic"
         in2="offset"
         id="feComposite4680-4-0-9-9-9" />
    </filter>
    <filter
       height="1.2584219"
       y="-0.12921094"
       width="1.132931"
       x="-0.066465525"
       id="filter1624"
       style="color-interpolation-filters:sRGB"
       inkscape:collect="always">
      <feGaussianBlur
         id="feGaussianBlur1626"
         stdDeviation="4.7367523"
         inkscape:collect="always" />
    </filter>
    <filter
       height="1.2584219"
       y="-0.12921094"
       width="1.132931"
       x="-0.066465525"
       id="filter1624-1"
       style="color-interpolation-filters:sRGB"
       inkscape:collect="always">
      <feGaussianBlur
         id="feGaussianBlur1626-9"
         stdDeviation="4.7367523"
         inkscape:collect="always" />
    </filter>
    <filter
       height="1.2584219"
       y="-0.12921094"
       width="1.132931"
       x="-0.066465525"
       id="filter1624-1-7"
       style="color-interpolation-filters:sRGB"
       inkscape:collect="always">
      <feGaussianBlur
         id="feGaussianBlur1626-9-8"
         stdDeviation="4.7367523"
         inkscape:collect="always" />
    </filter>
  </defs>
  <sodipodi:namedview
     borderlayer="true"
     inkscape:snap-global="false"
     inkscape:document-rotation="0"
     inkscape:current-layer="layer1"
     inkscape:window-maximized="1"
     inkscape:window-y="36"
     inkscape:window-x="1283"
     inkscape:cy="2261.9564"
     inkscape:cx="1257.6086"
     inkscape:zoom="0.46000002"
     showgrid="false"
     id="namedview4"
     inkscape:window-height="1388"
     inkscape:window-width="1261"
     inkscape:pageshadow="2"
     inkscape:pageopacity="0"
     guidetolerance="10"
     gridtolerance="10"
     objecttolerance="10"
     borderopacity="1"
     bordercolor="#666666"
     pagecolor="#ffffff"
     inkscape:showpageshadow="2"
     inkscape:pagecheckerboard="0"
     inkscape:deskcolor="#d1d1d1" />
  <g
     sodipodi:insensitive="true"
     inkscape:label="artwork"
     id="layer2"
     inkscape:groupmode="layer">
    <image
       xlink:href="../gfx_Pepper-and-Carrot_by-David-Revoy_E34P05.png"
       width="2481"
       height="3503"
       id="image10"
       x="0"
       y="0" />
  </g>
  <g
     style="display:inline"
     inkscape:label="speechbubbles"
     id="layer3"
     inkscape:groupmode="layer">
    <path
       inkscape:connector-curvature="0"
       id="path1076"
       d="m 2153.4295,839.96161 c -33.2875,0.0462 -66.5386,1.81217 -99.6529,4.62806 -17.6262,1.18647 -34.6288,5.72636 -51.3806,10.29298 -15.6673,4.52022 -31.3107,9.38987 -45.8744,16.13412 -18.8589,8.99879 -35.7538,22.24442 -44.2706,39.46625 -7.1534,13.80343 -11.3598,28.57206 -14.6394,43.35097 -4.91,28.63172 3.2808,59.33111 24.9551,81.92701 24.7481,26.3592 63.8769,41.8948 103.3058,42.5419 83.1756,6.5873 167.4117,9.174 250.3645,-0.8833 27.7907,-3.4498 55.7936,-10.7747 78.0875,-25.8255 24.4176,-16.7235 37.5071,-43.6674 37.3147,-70.09328 0.1195,-25.06346 -11.8896,-49.41487 -30.4263,-68.59708 -22.0652,-23.39739 -52.5653,-40.05107 -84.9555,-51.23471 -31.4526,-11.28435 -64.7788,-19.4434 -98.9739,-21.16192 -7.9385,-0.45958 -15.8983,-0.62079 -23.854,-0.5455 z"
       style="display:inline;fill:#ffffff;fill-rule:evenodd;stroke:none;stroke-width:1.28571px;stroke-linecap:butt;stroke-linejoin:miter;stroke-opacity:1" />
    <path
       sodipodi:nodetypes="cssssccccccccccccc"
       inkscape:connector-curvature="0"
       id="path4546-6-5-5"
       d="m 1428.3359,65.120548 c -17.4739,0.888025 -33.9438,9.688718 -51.7052,7.190042 -13.5923,-1.336905 -28.6989,-1.314572 -40.1845,6.655123 -10.1979,7.499642 -15.4914,19.381286 -18.2438,30.968607 -2.7629,13.01644 -2.7947,26.35635 -3.7368,39.55587 -2.3167,52.21359 3.6249,104.29318 5.8333,156.41447 1.1212,21.63506 2.1958,43.5767 8.6503,64.49648 2.6591,6.13496 8.461,10.48978 14.002,14.30192 9.986,6.23143 21.2245,10.35826 32.1014,14.9744 33.6218,12.86436 70.0113,17.03836 105.8597,20.427 47.6939,3.55566 95.1741,-3.83856 142.5674,-7.72512 27.2304,-2.65027 55.2912,-5.85559 79.8449,-18.04753 23.5389,-12.5744 39.6102,-34.38967 50.6191,-57.12693 15.8279,-32.14972 22.4633,-69.17579 13.7868,-103.99825 -7.1937,-31.31947 -19.2131,-62.71439 -41.8965,-87.19113 -14.93,-15.89375 -34.9453,-27.14113 -56.4439,-33.28095 -22.5258,-7.2634 -45.4883,-13.352896 -67.6178,-21.67728 -25.47,-8.788203 -51.8893,-15.544283 -78.9735,-17.896465 -22.8567,-2.371537 -45.7862,-4.115853 -68.6015,-6.832214 -8.5944,-0.776239 -17.2238,-1.289915 -25.8614,-1.208043 z"
       style="color:#000000;display:inline;overflow:visible;visibility:visible;fill:#ffffff;fill-opacity:1;fill-rule:nonzero;stroke:none;stroke-width:1.41693px;marker:none;enable-background:accumulate" />
    <path
       sodipodi:nodetypes="zssssz"
       inkscape:connector-curvature="0"
       id="path4040-41"
       d="m 670.35742,769.71094 c -12.2973,0.9647 -24.88043,3.61674 -35.31645,10.49777 -8.26937,6.01073 -15.67977,13.16759 -22.32417,20.92215 -6.62645,7.92618 -12.45435,16.68654 -16.1348,26.37998 -3.14551,10.49958 -1.35181,21.73717 1.78536,32.01289 2.82779,8.96948 7.68064,17.87175 15.78303,23.07197 6.94429,4.14841 15.32919,4.36127 23.18225,3.9754 9.46419,-0.29273 19.23433,0.27025 28.00976,4.15103 9.04638,3.43181 18.21763,7.73729 28.11679,7.43852 13.77277,-0.35998 26.75813,-6.06737 38.3739,-13.09874 14.74173,-9.08988 26.7992,-23.24144 31.53588,-40.07628 2.84106,-10.03042 2.47383,-20.87049 -0.8408,-30.74109 -3.01302,-9.29937 -7.98249,-18.10356 -15.00292,-24.96219 -5.74301,-5.42623 -13.1915,-8.71524 -20.86833,-10.30244 -10.75987,-2.41067 -21.91535,-2.58388 -32.57378,-5.52158 -7.80876,-1.66324 -15.63484,-4.45051 -23.72572,-3.74739 z"
       style="color:#000000;display:inline;overflow:visible;visibility:visible;fill:#ffffff;fill-opacity:1;fill-rule:nonzero;stroke:none;stroke-width:0.600991px;marker:none;enable-background:accumulate" />
    <path
       sodipodi:nodetypes="zssssz"
       inkscape:connector-curvature="0"
       id="path4040-4-5-3-6"
       d="m 568.42916,294.92188 c -17.68902,0.52894 -35.55971,1.20542 -52.87348,10.07138 -5.09138,2.5029 -10.06373,7.05158 -14.03438,14.64504 -3.78414,6.92199 -6.85413,16.57887 -7.29327,27.62133 -0.48739,10.00446 0.27749,20.03515 1.01857,29.88295 0.99946,10.72435 3.21655,21.50126 7.33414,28.10742 5.09863,8.67822 11.34595,12.92409 17.31366,17.75407 12.17387,8.97683 25.13272,10.74304 37.88207,10.72165 19.93545,0.24417 39.90245,-2.07645 59.65547,-8.12962 9.03655,-3.52183 17.53881,-15.03886 22.52464,-32.15893 3.02254,-10.8684 4.16429,-24.51234 2.46987,-36.83872 -2.96904,-25.29193 -12.83556,-45.27497 -24.2011,-51.78308 -7.46879,-4.49459 -15.22331,-5.75471 -22.88793,-7.66458 -8.94478,-1.76751 -17.93049,-2.30343 -26.90826,-2.22891 z"
       style="color:#000000;display:inline;overflow:visible;visibility:visible;fill:#ffffff;fill-opacity:1;fill-rule:nonzero;stroke:none;stroke-width:0.715165px;marker:none;enable-background:accumulate" />
    <path
       inkscape:connector-curvature="0"
       id="path1299"
       d="m 580.2412,116.07422 c -59.03213,0.81664 -117.99359,3.72049 -176.98457,5.65427 -27.51602,1.86837 -55.84223,7.43373 -78.39797,22.18494 -24.77097,15.72637 -43.97984,39.6884 -47.95709,66.78409 -3.22113,25.1711 6.85936,52.32501 29.3806,68.65112 20.64889,14.9854 47.45006,21.18116 73.56079,23.60492 38.94731,3.93287 78.21534,3.36422 117.34477,4.01569 68.2369,0.17783 136.60392,-1.18208 204.49833,-7.58705 25.1064,-3.20379 50.88613,-8.79887 71.42191,-22.59371 19.09519,-13.88851 33.59682,-34.18377 34.6553,-56.42299 0.59764,-21.46668 -12.29272,-41.943 -30.84475,-55.31 C 755.5822,148.58792 730.33876,136.16269 703.54138,128.12188 663.87005,116.57797 621.58011,116.08342 580.2412,116.07422 Z"
       style="fill:#ffffff;fill-rule:evenodd;stroke:none;stroke-width:1.12842px;stroke-linecap:butt;stroke-linejoin:miter;stroke-opacity:1" />
    <path
       sodipodi:nodetypes="ccscc"
       inkscape:connector-curvature="0"
       id="path4035-4"
       d="m 601.64274,401.13421 c -14.17455,40.88456 44.77094,72.82978 100.67006,54.05497 -23.16137,8.79652 -79.7912,49.66875 -144.52484,-46.85819 -30.03766,-44.79037 28.99451,-4.6799 28.99451,-4.6799 z"
       style="color:#000000;display:inline;overflow:visible;visibility:visible;fill:#ffffff;fill-opacity:1;fill-rule:nonzero;stroke:none;stroke-width:1px;marker:none;enable-background:accumulate" />
    <path
       sodipodi:nodetypes="ccscccsscc"
       inkscape:connector-curvature="0"
       id="path4538-7"
       d="m 611.41244,701.29174 c 17.11413,0.19349 18.72502,1.92575 19.18724,12.28702 0.46185,10.36191 -1.67076,26.02679 10.09463,35.89667 11.76506,9.87056 19.1963,13.36617 25.49665,11.79439 -5.19491,13.1306 -2.83584,31.62853 -10.75775,36.51466 -7.9219,4.88611 26.05967,-2.07377 26.05967,-2.07377 0,0 9.21399,-27.86213 6.82755,-44.34007 -2.3864,-16.4779 -28.23087,-11.38908 -37.42309,-16.46871 -9.19219,-5.07958 -7.20814,-26.722 -13.49221,-32.72081 -6.28377,-5.99953 -17.59228,-2.98484 -25.99269,-0.88938 z"
       style="color:#000000;display:inline;overflow:visible;visibility:visible;fill:#ffffff;fill-opacity:1;fill-rule:nonzero;stroke:none;stroke-width:0.65663px;marker:none;enable-background:accumulate" />
    <path
       inkscape:transform-center-y="-25.902749"
       inkscape:transform-center-x="21.004464"
       inkscape:connector-curvature="0"
       id="path4496-9"
       d="m 1589.4665,581.96871 c 14.1467,-11.40413 29.0076,-23.09483 38.4486,-39.96949 2.5984,-4.85383 4.9981,-10.05752 6.0756,-15.49957 0.016,-5.8546 -3.8969,-10.34151 -8.4908,-12.17778 -6.4361,-3.18874 -14.5628,-3.42982 -19.4026,-9.63069 -3.4195,-4.61758 -1.8272,-11.14779 -0.9156,-16.72114 2.5699,-14.17326 6.8395,-28.1699 7.4104,-42.5769 1.5793,-16.24635 2.1988,-33.38893 -3.7408,-48.10801 -2.4394,-5.7727 -5.7341,-11.37091 -10.8601,-14.41865 -12.7918,-8.51566 -30.6307,-8.53627 -43.8564,1.70558 -7.9407,7.39354 -10.3193,22.05002 -3.5557,30.23691 3.5085,4.38614 9.2515,5.18736 14.4155,4.19228 9.6748,0.1491 18.2991,6.65319 22.6959,15.89335 3.7428,7.54995 5.2552,16.51182 4.6927,25.40135 2.0644,12.09608 -3.5504,23.92983 -6.6517,35.52848 -1.3509,5.3164 -2.467,11.0518 -1.4466,16.34944 3.0779,7.03972 10.5313,8.927 17.0498,9.68941 6.6944,0.98385 14.6099,1.26357 18.9566,7.63463 3.5752,3.9219 -0.1424,9.62907 -1.3852,14.17636 -5.6681,14.18394 -15.0865,26.49538 -26.0468,36.02362 -1.0987,0.82439 -2.2436,1.54861 -3.3927,2.27078 z"
       style="color:#000000;display:inline;overflow:visible;visibility:visible;fill:#ffffff;fill-opacity:1;fill-rule:nonzero;stroke:none;stroke-width:1.01366px;marker:none;enable-background:accumulate" />
    <path
       sodipodi:nodetypes="ccsc"
       inkscape:connector-curvature="0"
       id="path5010-4"
       d="m 2109.2559,751.99134 c -20.4103,6.10083 -40.0468,16.85113 -53.8,33.41265 -10.7709,14.46078 -16.5835,31.98514 -19.9326,49.53175 -1.4068,8.93082 -2.2092,18.35818 0.5,27.10829 3.2554,6.18918 11.8987,8.09797 17.7559,4.53442 7.5966,-3.5917 11.8306,-12.98928 9.3278,-21.03888 -1.6093,-16.53808 1.3652,-33.26989 6.7533,-48.89003 5.7833,-15.14652 16.5635,-28.06938 29.7192,-37.41611 3.7487,-2.79439 7.6932,-5.31046 11.6413,-7.81045 -0.655,0.18946 -1.3099,0.37891 -1.9649,0.56836 z"
       style="color:#000000;display:inline;overflow:visible;visibility:visible;fill:#ffffff;fill-opacity:1;fill-rule:nonzero;stroke:none;stroke-width:1.03729px;marker:none;enable-background:accumulate" />
    <path
       sodipodi:nodetypes="csssc"
       inkscape:connector-curvature="0"
       id="path3280-10"
       d="m 1683.4094,1439.9913 c -43.8973,2.1127 -87.2126,25.9335 -113.4491,65.5071 -10.0472,15.5828 -14.5415,34.7438 -15.5843,53.6811 -2.5818,28.8084 -2.1908,57.8039 -2.6145,86.7113 0.8227,20.262 7.0907,41.0632 20.5854,55.2538 16.82,19.2631 40.3184,29.3742 63.7601,33.7047 36.9396,7.7649 74.7218,6.2584 112.0879,4.7352 29.3787,-1.8049 59.5782,-9.0673 83.9745,-28.232 20.1461,-15.6396 34.9071,-40.5152 37.6259,-67.931 2.9958,-25.6732 -0.7997,-51.4744 -3.7839,-76.9167 -3.5903,-26.3195 -9.8324,-53.2388 -24.6088,-74.7346 -18.3724,-26.5256 -47.1223,-42.4406 -76.5779,-47.1577 -26.8973,-4.7647 -54.255,-4.7535 -81.4153,-4.6212 z"
       style="fill:#ffffff;stroke:none;stroke-width:1.04306" />
    <path
       sodipodi:nodetypes="cssssc"
       inkscape:connector-curvature="0"
       id="path4546-6-89"
       d="m 1701.3359,1182.3633 c -23.6044,0.4972 -47.5014,8.2194 -65.537,23.7485 -16.8972,15.2472 -21.3862,42.7399 -9.3936,62.2553 7.3737,12.546 20.5403,20.6735 34.317,24.5048 22.0738,8.2236 45.7993,10.6274 69.1919,11.348 21.8322,0.47 44.2156,-1.001 64.7362,-9.0519 13.7438,-5.6802 26.0669,-16.1754 31.5122,-30.2834 6.1857,-15.1026 4.6669,-33.4624 -5.1548,-46.703 -9.4277,-13.4338 -24.3106,-21.9676 -39.6896,-26.8896 -23.7701,-7.8332 -49.0614,-8.7336 -73.8752,-8.9512 -2.0358,-7e-4 -4.0715,-0.013 -6.1071,0.023 z"
       style="color:#000000;display:inline;overflow:visible;visibility:visible;fill:#ffffff;fill-opacity:1;fill-rule:nonzero;stroke:none;stroke-width:0.730994px;marker:none;enable-background:accumulate" />
    <path
       sodipodi:nodetypes="ccccccsc"
       inkscape:connector-curvature="0"
       id="path1305"
       d="m 893.13501,1534.7305 c 27.51836,-11.7764 54.23289,-20.9661 71.61477,-23.4902 -3.55561,10.1642 -5.56972,16.3128 -14.89804,25.0191 24.30441,1.9047 70.63976,-18.9809 95.44776,-31.1705 -33.9587,5.7956 -60.1404,12.1497 -70.78238,13.5607 4.97656,-8.3585 6.96879,-14.5328 9.86224,-23.8449 -15.1281,3.6171 -70.65358,12.0504 -83.85269,9.4593 -13.19922,-2.5913 -7.39166,30.4665 -7.39166,30.4665 z"
       style="fill:#ffffff;fill-rule:evenodd;stroke:none;stroke-width:0.479277px;stroke-linecap:butt;stroke-linejoin:miter;stroke-opacity:1" />
    <path
       sodipodi:nodetypes="cccccccccccccccccccccccccccccccc"
       id="path1798"
       d="m 465.74707,1569.9179 c 28.87183,-10.521 24.32313,29.0854 7.08566,87.6907 19.83535,-42.7253 58.62076,-54.5706 24.69692,26.6768 53.33209,-60.6901 91.37058,-85.7432 83.00707,-2.6705 70.72385,-79.5477 74.65488,-42.486 69.66817,10.1446 28.08575,-75.6211 54.57913,-83.9057 79.14209,-10.5586 -6.93201,-78.0763 30.95517,-75.972 111.70601,2.8146 -36.07719,-82.423 8.61948,-53.0558 53.75735,-23.0779 -37.94547,-70.5513 14.27698,-31.4196 34.75897,-30.8979 -76.36992,-108.9326 -11.22818,-67.7368 29.89142,-52.0259 -39.46749,-30.7464 -58.64539,-59.0586 9.88191,-68.7458 -60.75668,-12.0507 -35.2302,-38.0924 24.24399,-68.2115 -32.45545,5.098 -94.63626,-15.3443 12.21427,-45.3995 -41.56582,5.4023 -82.33845,-12.8563 -34.95925,-34.29 -15.60965,4.7236 -101.52369,-3.5691 -31.53248,-30.5201 -43.29633,5.5599 -58.96456,3.015 38.1249,-32.6078 -150.7151,30.9765 -41.25336,-16.6513 -14.86102,-39.1823 -62.25583,18.1964 -167.4658,76.6905 -78.41792,-47.06 -124.10967,123.4237 -109.53608,49.4763 -102.58613,-13.6214 -42.77091,98.984 -57.68546,85.536 -61.35602,26.7059 -19.97379,37.9213 -22.58532,10.5965 -24.77223,-18.3239 -19.92787,54.5096 -39.28645,83.9303 -55.98572,-3.8445 -9.18339,101.4459 -41.61144,81.7174 -79.15518,35.321 6.77104,35.8651 -14.43617,19.1419 -45.11533,-15.3849 25.30032,91.5621 -23.64469,69.919 -40.67727,45.1678 13.49987,35.08 19.42837,57.2941 -2.44747,32.2608 13.27872,48.4683 14.69227,78.266 -8.1228,69.9386 26.82013,39.3443 18.18516,35.3206 7.96165,29.3537 10.06784,18.8013 7.71873,39.4912 -10.5109,50.1391 9.5137,17.2849 27.87758,31.8693 3.88482,59.3783 20.75982,-3.5137 22.61196,2.6462 1.12563,20.7466 29.51571,-21.1225 16.91582,6.6004 -0.65111,40.084 z"
       style="fill:#ffffff;fill-opacity:1;fill-rule:evenodd;stroke:none;stroke-width:1.07431px;stroke-linecap:butt;stroke-linejoin:miter;stroke-opacity:1" />
    <path
       inkscape:connector-curvature="0"
       id="path1359"
       d="m 1778.0933,1289.0282 c 0,0 -3.9407,28.9212 8.0996,38.6226 12.0408,9.7023 15.4867,13.5023 36.0798,21.9048 -30.1647,-5.7228 -44.5902,-13.4046 -52.5226,-23.226 -7.9325,-9.8214 -20.0355,-30.3233 -22.8091,-36.2438 -2.7736,-5.9205 31.1523,-1.0576 31.1523,-1.0576 z"
       style="fill:#ffffff;fill-rule:evenodd;stroke:none;stroke-width:0.960637px;stroke-linecap:butt;stroke-linejoin:miter;stroke-opacity:1" />
    <path
       inkscape:connector-curvature="0"
       id="path1359-6"
       d="m 1835.717,1622.8075 c 0,0 33.9119,33.6868 61.5885,28.1474 27.6785,-5.5388 36.9697,-6.1077 73.3411,-23.7148 -44.4607,32.3304 -72.3434,42.8809 -95.1692,43.1241 -22.826,0.2433 -65.0389,-4.864 -76.3485,-7.2483 -11.31,-2.3842 36.5881,-40.3084 36.5881,-40.3084 z"
       style="fill:#ffffff;fill-rule:evenodd;stroke:none;stroke-width:1.63552px;stroke-linecap:butt;stroke-linejoin:miter;stroke-opacity:1" />
    <path
       transform="matrix(1.2257744,0,0,1.060297,78.802093,-33.662704)"
       inkscape:connector-curvature="0"
       id="path1285-4-4"
       d="m 304.54727,1936.8855 c 5.39109,-32.111 32.34599,-42.814 51.75368,-46.025 19.40768,-3.211 83.0216,-3.211 100.27283,9.633 17.25112,12.844 22.6421,36.392 16.17294,43.884 -6.46926,7.493 -15.09476,29.97 -38.81515,31.04 -23.7206,1.071 -74.39599,5.352 -94.88185,-6.422 -20.48586,-11.774 -36.6588,-14.985 -34.50245,-32.11 z"
       style="fill:#ffffff;fill-rule:evenodd;stroke:none;stroke-width:1.04628px;stroke-linecap:butt;stroke-linejoin:miter;stroke-opacity:1;filter:url(#filter1624-1-7)" />
    <path
       transform="matrix(1.1958956,0,0,0.97870713,-64.882445,39.800192)"
       inkscape:connector-curvature="0"
       id="path1285-4"
       d="m 304.54727,1936.8855 c 5.39109,-32.111 32.34599,-42.814 51.75368,-46.025 19.40768,-3.211 83.0216,-3.211 100.27283,9.633 17.25112,12.844 22.6421,36.392 16.17294,43.884 -6.46926,7.493 -15.09476,29.97 -38.81515,31.04 -23.7206,1.071 -74.39599,5.352 -94.88185,-6.422 -20.48586,-11.774 -36.6588,-14.985 -34.50245,-32.11 z"
       style="fill:#ffffff;fill-rule:evenodd;stroke:none;stroke-width:1.04628px;stroke-linecap:butt;stroke-linejoin:miter;stroke-opacity:1;filter:url(#filter1624-1)" />
    <path
       transform="matrix(1.1608616,0,0,0.98960959,-30.44593,19.531819)"
       inkscape:connector-curvature="0"
       id="path1285"
       d="m 115.7959,1883.6103 c 5.39109,-32.111 32.34599,-42.814 51.75368,-46.025 19.40768,-3.211 83.0216,-3.211 100.27283,9.633 17.25112,12.844 22.6421,36.392 16.17294,43.884 -6.46926,7.493 -15.09476,29.97 -38.81515,31.04 -23.7206,1.071 -74.39599,5.352 -94.88185,-6.422 -20.48586,-11.774 -36.6588,-14.985 -34.50245,-32.11 z"
       style="fill:#ffffff;fill-rule:evenodd;stroke:none;stroke-width:1.04628px;stroke-linecap:butt;stroke-linejoin:miter;stroke-opacity:1;filter:url(#filter1624)" />
    <path
       sodipodi:nodetypes="cccccccccccc"
       inkscape:connector-curvature="0"
       id="path4032-8"
       d="m 1241.0664,2352.3233 c -36.2286,-32.2998 -77.602,-59.113 -107.8532,-97.7871 l 6.9677,43.9112 c -17.7743,-7.7018 -29.1706,-25.5756 -42.7328,-39.995 l -0.057,27.888 c -41.735,-18.7232 -69.4761,-51.7603 -103.98103,-77.8792 l 3.66035,48.6148 c 37.88508,22.0665 78.75808,37.3542 113.28208,67.0437 l 2.7503,-27.2332 c 13.303,8.4793 26.3021,17.5344 37.9439,29.1641 l 0.5073,-34.5085 z"
       style="color:#000000;display:inline;overflow:visible;visibility:visible;fill:#ffffff;fill-opacity:1;fill-rule:nonzero;stroke:none;stroke-width:0.921112px;marker:none;enable-background:accumulate" />
    <path
       sodipodi:nodetypes="cccccccccccccccccccccccccccc"
       id="path523"
       d="m 654.35692,2153.9416 c 58.75546,-3.71 58.93977,-22.4352 17.98812,-51.7058 29.67774,0.1363 19.587,-18.1251 -1.42914,-41.4407 78.40021,28.7105 92.10169,-20.5013 69.95898,-77.5544 63.12499,67.1697 63.87012,28.4005 86.86865,-53.0521 13.12316,29.9734 30.48835,122.8095 104.08337,42.4068 -12.68932,66.9216 27.08594,20.6134 58.87117,-2.719 5.70058,9.6409 -51.54682,65.2732 31.79223,-3.6887 -60.14507,91.4191 32.7607,16.1788 61.5631,-9.148 -29.9323,43.2369 -95.65406,108.039 -7.5152,83.1286 -64.0952,50.0208 -7.4255,31.1958 21.1188,28.9061 -36.2016,20.7975 -37.6304,41.3996 -0.7248,33.0705 -53.8054,38.9217 -11.9257,42.1844 13.9993,43.3438 -20.163,2.9798 -69.8172,20.0724 -5.759,23.576 -44.27,12.4278 -31.2704,45.5628 -24.9359,59.1169 -48.9698,-4.7181 -14.2117,40.6656 4.0329,69.9104 -33.814,-12.5236 -86.53643,-44.8665 -49.2651,12.2481 -82.91478,-34.1395 -50.22703,0.6718 -31.7479,42.03 -60.85869,-34.6571 -70.19272,-51.5284 -88.8576,-22.8562 -20.58022,-24.1043 -24.23786,-2.9812 -30.56964,22.5971 -12.68254,-51.6999 -34.24748,-20.2628 -57.16184,11.0334 -11.87335,-53.8683 -35.26901,-31.2483 -57.18718,-16.6774 0.0876,-61.8923 -29.47285,-46.8638 -89.21765,-0.897 46.91643,-43.2544 72.60415,-86.0991 -5.21276,-60.8009 24.99531,-12.5883 48.31613,-50.4679 15.0138,-36.7051 14.86771,-9.5615 28.85321,-31.2999 -15.28328,-25.1166 41.09288,-13.261 36.16457,-23.9727 -8.47396,-32.4844 76.85045,-11.8787 42.48856,-24.677 -11.94947,-36.5214 z"
       style="opacity:1;fill:#ffffff;fill-rule:evenodd;stroke:none;stroke-width:1.0434px;stroke-linecap:butt;stroke-linejoin:miter;stroke-opacity:1" />
  </g>
  <g
     inkscape:label="txt"
     id="layer1"
     inkscape:groupmode="layer">
    <text
       id="text4246-3-2-2-6-3-7-9-3"
       y="202.09711"
       x="546.48358"
       style="font-style:normal;font-variant:normal;font-weight:normal;font-stretch:normal;font-size:45px;line-height:1.25;font-family:Lavi;-inkscape-font-specification:Lavi;text-align:center;letter-spacing:0px;word-spacing:0px;text-anchor:middle;fill:#000000;fill-opacity:1;stroke:none"
       xml:space="preserve"><tspan
         id="tspan919"
         y="202.09711"
         x="546.48358"
         sodipodi:role="line"
         style="font-size:45px">Het spijt me, Pepper, </tspan><tspan
         id="tspan94"
         y="258.34711"
         x="546.48358"
         sodipodi:role="line"
         style="font-size:45px">maar je moet gaan.</tspan></text>
    <text
       id="text4246-3-2-2-6-3-7-9-3-3"
       y="378.66003"
       x="568.95776"
       style="font-style:normal;font-variant:normal;font-weight:normal;font-stretch:normal;font-size:45px;line-height:1.25;font-family:Lavi;-inkscape-font-specification:Lavi;text-align:center;letter-spacing:0px;word-spacing:0px;text-anchor:middle;fill:#000000;fill-opacity:1;stroke:none"
       xml:space="preserve"><tspan
         id="tspan27-7"
         y="378.66003"
         x="568.95776"
         sodipodi:role="line"
         style="font-size:45px">Nu.</tspan></text>
    <text
       id="text4246-3-2-2-6-3-7-9-3-3-5"
       y="852.03693"
       x="681.67358"
       style="font-style:normal;font-variant:normal;font-weight:normal;font-stretch:normal;font-size:45px;line-height:1.25;font-family:Lavi;-inkscape-font-specification:Lavi;text-align:center;letter-spacing:0px;word-spacing:0px;text-anchor:middle;fill:#000000;fill-opacity:1;stroke:none"
       xml:space="preserve"><tspan
         id="tspan27-7-3"
         y="852.03693"
         x="681.67358"
         sodipodi:role="line"
         style="font-size:45px">Hè?</tspan></text>
    <text
       id="text4246-3-2-2-6-3-7-9-3-3-56"
       y="186.16815"
       x="1539.5929"
       style="font-style:normal;font-variant:normal;font-weight:normal;font-stretch:normal;font-size:45px;line-height:1.25;font-family:Lavi;-inkscape-font-specification:Lavi;text-align:center;letter-spacing:0px;word-spacing:0px;text-anchor:middle;fill:#000000;fill-opacity:1;stroke:none"
       xml:space="preserve"><tspan
         id="tspan113"
         y="186.16815"
         x="1539.5929"
         sodipodi:role="line"
         style="font-size:45px">Ho, ho, wacht</tspan><tspan
         id="tspan117"
         y="242.41815"
         x="1539.5929"
         sodipodi:role="line"
         style="font-size:45px">eens even! Er is</tspan><tspan
         y="298.66815"
         x="1539.5929"
         sodipodi:role="line"
         style="font-size:45px"
         id="tspan354">vast sprake van een</tspan><tspan
         y="354.91815"
         x="1539.5929"
         sodipodi:role="line"
         style="font-size:45px"
         id="tspan361">misverstand.</tspan></text>
    <text
       id="text4246-3-2-2-6-3-7-9-3-3-56-9"
       y="930.02814"
       x="2139.6536"
       style="font-style:normal;font-variant:normal;font-weight:normal;font-stretch:normal;font-size:45px;line-height:1.25;font-family:Lavi;-inkscape-font-specification:Lavi;text-align:center;letter-spacing:0px;word-spacing:0px;text-anchor:middle;fill:#000000;fill-opacity:1;stroke:none"
       xml:space="preserve"><tspan
         id="tspan946"
         y="930.02814"
         x="2139.6536"
         sodipodi:role="line"
         style="font-size:45px">Alsjeblieft, Pepper, </tspan><tspan
         y="986.27814"
         x="2139.6536"
         sodipodi:role="line"
         style="font-size:45px"
         id="tspan448">maak het niet zwaarder</tspan><tspan
         y="1042.5281"
         x="2139.6536"
         sodipodi:role="line"
         style="font-size:45px"
         id="tspan452">dan het al is.</tspan></text>
    <text
       id="text4246-3-2-2-6-3-7-9-3-3-56-9-3"
       y="1357.8563"
       x="698.72296"
       style="font-style:normal;font-variant:normal;font-weight:normal;font-stretch:normal;font-size:45px;line-height:1.25;font-family:Lavi;-inkscape-font-specification:Lavi;text-align:center;letter-spacing:0px;word-spacing:0px;text-anchor:middle;fill:#000000;fill-opacity:1;stroke:none"
       xml:space="preserve"><tspan
         id="tspan980"
         y="1357.8563"
         x="698.72296"
         sodipodi:role="line"
         style="font-size:45px">Hé! Jij daar op</tspan><tspan
         id="tspan168"
         y="1414.1063"
         x="698.72296"
         sodipodi:role="line"
         style="font-size:45px">die troon! Als je een</tspan><tspan
         y="1470.3563"
         x="698.72296"
         sodipodi:role="line"
         style="font-size:45px"
         id="tspan546">probleem hebt met</tspan><tspan
         y="1526.6063"
         x="698.72296"
         sodipodi:role="line"
         style="font-size:45px"
         id="tspan550">mij, kom het dan zelf</tspan><tspan
         y="1582.8563"
         x="698.72296"
         sodipodi:role="line"
         style="font-size:45px"
         id="tspan554">tegen me zeggen!</tspan></text>
    <text
       id="text4246-3-2-2-6-3-7-9-3-3-56-9-3-2"
       y="1258.5393"
       x="1726.7211"
       style="font-style:normal;font-variant:normal;font-weight:normal;font-stretch:normal;font-size:52.7307px;line-height:1.25;font-family:Lavi;-inkscape-font-specification:Lavi;text-align:center;letter-spacing:0px;word-spacing:0px;text-anchor:middle;fill:#000000;fill-opacity:1;stroke:none;stroke-width:1.17179"
       xml:space="preserve"><tspan
         id="tspan222-9"
         y="1258.5393"
         x="1726.7211"
         sodipodi:role="line"
         style="font-size:52.7307px;stroke-width:1.17179">Pfff...</tspan></text>
    <text
       id="text4246-3-2-2-6-3-7-9-3-3-56-9-3-20"
       y="1527.6768"
       x="1711.4393"
       style="font-style:normal;font-variant:normal;font-weight:normal;font-stretch:normal;font-size:45px;line-height:1.25;font-family:Lavi;-inkscape-font-specification:Lavi;text-align:center;letter-spacing:0px;word-spacing:0px;text-anchor:middle;fill:#000000;fill-opacity:1;stroke:none"
       xml:space="preserve"><tspan
         id="tspan334"
         y="1527.6768"
         x="1711.4393"
         sodipodi:role="line"
         style="font-size:45px">Shichimi, </tspan><tspan
         y="1583.9268"
         x="1711.4393"
         sodipodi:role="line"
         style="font-size:45px"
         id="tspan558">je krijgt nog</tspan><tspan
         y="1640.1768"
         x="1711.4393"
         sodipodi:role="line"
         style="font-size:45px"
         id="tspan562">tien seconden</tspan><tspan
         y="1696.4268"
         x="1711.4393"
         sodipodi:role="line"
         style="font-size:45px"
         id="tspan564">de tijd...</tspan></text>
    <text
       id="text4246-3-2-2-6-3-7-9-3-3-56-9-3-20-2"
       y="1889.5347"
       x="210.39514"
       style="font-style:normal;font-variant:normal;font-weight:normal;font-stretch:normal;font-size:45px;line-height:1.25;font-family:Lavi;-inkscape-font-specification:Lavi;text-align:center;letter-spacing:0px;word-spacing:0px;text-anchor:middle;fill:#000000;fill-opacity:1;stroke:none"
       xml:space="preserve"><tspan
         id="tspan334-7"
         y="1889.5347"
         x="210.39514"
         sodipodi:role="line"
         style="font-size:45px">negen...</tspan></text>
    <text
       id="text4246-3-2-2-6-3-7-9-3-3-56-9-3-20-2-3"
       y="1942.1443"
       x="399.80328"
       style="font-style:normal;font-variant:normal;font-weight:normal;font-stretch:normal;font-size:45px;line-height:1.25;font-family:Lavi;-inkscape-font-specification:Lavi;text-align:center;letter-spacing:0px;word-spacing:0px;text-anchor:middle;fill:#000000;fill-opacity:1;stroke:none"
       xml:space="preserve"><tspan
         id="tspan334-7-6"
         y="1942.1443"
         x="399.80328"
         sodipodi:role="line"
         style="font-size:45px">acht...</tspan></text>
    <text
       id="text4246-3-2-2-6-3-7-9-3-3-56-9-3-20-2-3-1"
       y="2025.6428"
       x="564.68182"
       style="font-style:normal;font-variant:normal;font-weight:normal;font-stretch:normal;font-size:45px;line-height:1.25;font-family:Lavi;-inkscape-font-specification:Lavi;text-align:center;letter-spacing:0px;word-spacing:0px;text-anchor:middle;fill:#000000;fill-opacity:1;stroke:none"
       xml:space="preserve"><tspan
         id="tspan334-7-6-2"
         y="2025.6428"
         x="564.68182"
         sodipodi:role="line"
         style="font-size:45px">zeven...</tspan></text>
    <text
       transform="skewX(-4.8400228)"
       id="text4246-3-2-2-6-3-7-9-3-3-56-9-3-20-2-3-1-9"
       y="2113.1382"
       x="1071.8196"
       style="font-style:normal;font-variant:normal;font-weight:normal;font-stretch:normal;font-size:55.953px;line-height:1.25;font-family:Lavi;-inkscape-font-specification:Lavi;text-align:center;letter-spacing:0px;word-spacing:0px;text-anchor:middle;fill:#000000;fill-opacity:1;stroke:none;stroke-width:0.902468"
       xml:space="preserve"
       inkscape:transform-center-x="-34.08548"
       inkscape:transform-center-y="7.9309875"><tspan
         y="2113.1382"
         x="1071.8196"
         sodipodi:role="line"
         style="font-style:normal;font-variant:normal;font-weight:bold;font-stretch:normal;font-size:55.953px;font-family:Lavi;-inkscape-font-specification:'Lavi Bold';stroke-width:0.902468"
         id="tspan574">GENOEG,</tspan><tspan
         y="2183.0793"
         x="1071.8196"
         sodipodi:role="line"
         style="font-style:normal;font-variant:normal;font-weight:bold;font-stretch:normal;font-size:55.953px;font-family:Lavi;-inkscape-font-specification:'Lavi Bold';stroke-width:0.902468"
         id="tspan568">PEPPER! </tspan><tspan
         id="tspan194"
         y="2253.0208"
         x="1071.8196"
         sodipodi:role="line"
         style="font-style:normal;font-variant:normal;font-weight:bold;font-stretch:normal;font-size:55.953px;font-family:Lavi;-inkscape-font-specification:'Lavi Bold';stroke-width:0.902468">GA WEG!!!</tspan></text>
    <text
       y="279.76691"
       x="418.61386"
       transform="matrix(0.88341196,-0.53750677,0,1.1213027,-74.551071,722.92786)"
       id="text4580-6-0-0-0-9-3-3"
       style="font-style:normal;font-variant:normal;font-weight:normal;font-stretch:normal;font-size:180px;line-height:1.25;font-family:Lavi;-inkscape-font-specification:Lavi;letter-spacing:0px;word-spacing:0px;fill:#ffffff;fill-opacity:1;stroke:#ffffff;stroke-width:0.74524;stroke-miterlimit:4;stroke-dasharray:none;stroke-opacity:1;filter:url(#filter4375-4-1-1-1-9-5-8-8-5-5-3-3)"
       xml:space="preserve"><textPath
         style="font-size:180px;stroke-width:0.74524"
         id="textPath2837"
         xlink:href="#path974"><tspan
           rotate="325 325 325 325 325 325 325 325 325 0"
           id="tspan876-6-6"
           style="font-size:180px;fill:#ffffff;fill-opacity:1;stroke:#ffffff;stroke-width:0.74524;stroke-miterlimit:4;stroke-dasharray:none;stroke-opacity:1">SHRRIiii!</tspan></textPath></text>
    <path
       sodipodi:nodetypes="cc"
       id="path974"
       d="m 2062.1793,2191.5476 c 235.3161,220.1206 417.0174,422.7368 620.7004,632.5297"
       style="fill:none;fill-rule:evenodd;stroke:none;stroke-width:1.13654px;stroke-linecap:butt;stroke-linejoin:miter;stroke-opacity:1" />
  </g>
</svg>
