<?xml version="1.0" encoding="UTF-8" standalone="no"?>
<!-- Created with Inkscape (http://www.inkscape.org/) -->

<svg
   xmlns:dc="http://purl.org/dc/elements/1.1/"
   xmlns:cc="http://creativecommons.org/ns#"
   xmlns:rdf="http://www.w3.org/1999/02/22-rdf-syntax-ns#"
   xmlns:svg="http://www.w3.org/2000/svg"
   xmlns="http://www.w3.org/2000/svg"
   xmlns:xlink="http://www.w3.org/1999/xlink"
   xmlns:sodipodi="http://sodipodi.sourceforge.net/DTD/sodipodi-0.dtd"
   xmlns:inkscape="http://www.inkscape.org/namespaces/inkscape"
   id="svg2"
   version="1.1"
   inkscape:version="0.91 r13725"
   width="2481"
   height="3503"
   sodipodi:docname="E32P07.svg">
  <metadata
     id="metadata8">
    <rdf:RDF>
      <cc:Work
         rdf:about="">
        <dc:format>image/svg+xml</dc:format>
        <dc:type
           rdf:resource="http://purl.org/dc/dcmitype/StillImage" />
        <dc:title />
      </cc:Work>
    </rdf:RDF>
  </metadata>
  <defs
     id="defs6" />
  <sodipodi:namedview
     pagecolor="#ffffff"
     bordercolor="#666666"
     borderopacity="1"
     objecttolerance="10"
     gridtolerance="10"
     guidetolerance="10"
     inkscape:pageopacity="0"
     inkscape:pageshadow="2"
     inkscape:window-width="1366"
     inkscape:window-height="715"
     id="namedview4"
     showgrid="false"
     inkscape:zoom="0.46000002"
     inkscape:cx="1271.9391"
     inkscape:cy="1326.0874"
     inkscape:window-x="-8"
     inkscape:window-y="-8"
     inkscape:window-maximized="1"
     inkscape:current-layer="layer1" />
  <g
     inkscape:groupmode="layer"
     id="layer2"
     inkscape:label="artwork"
     sodipodi:insensitive="true">
    <image
       sodipodi:absref="D:\Pepper&amp;Carrot translation\ep32_The-Battlefield_lang-pack\lang\cn\..\gfx_Pepper-and-Carrot_by-David-Revoy_E32P07.png"
       xlink:href="../gfx_Pepper-and-Carrot_by-David-Revoy_E32P07.png"
       width="2481"
       height="3503"
       id="image10"
       x="0"
       y="0" />
  </g>
  <g
     inkscape:groupmode="layer"
     id="layer3"
     inkscape:label="speechbubbles" />
  <g
     inkscape:groupmode="layer"
     id="layer1"
     inkscape:label="txt">
    <path
       style="color:#000000;display:inline;overflow:visible;visibility:visible;opacity:1;fill:#ffffff;fill-opacity:1;fill-rule:nonzero;stroke:none;stroke-width:1px;marker:none;enable-background:accumulate"
       d="m 1056.8386,2202.0169 c -10.399,3.1097 -19.0647,10.6359 -24.862,19.6711 -4.6138,7.2893 -17.2509,15.4965 -15.9508,24.1556 0.9045,6.2645 3.4885,12.2114 7.0602,17.4088 4.9823,4.1786 10.7717,7.2309 16.4747,10.2898 13.956,7.1808 39.0329,12.0634 54.1262,16.1118 11.6919,3.244 23.3837,6.488 35.0756,9.732 5.0949,3.3041 6.8782,10.3837 4.7324,15.9258 -2.5523,8.028 -5.7927,15.981 -6.4238,24.4649 0.469,8.3691 7.2362,15.6672 15.3278,17.4183 23.1263,6.8834 46.95,10.9935 70.7295,14.8666 16.8553,2.5917 33.8211,4.4192 50.6435,7.2326 8.6937,1.344 17.4528,2.335 26.2503,2.6075 -14.7027,-2.9835 -29.0454,-7.4415 -43.6031,-11.0191 -17.5491,-3.9894 -35.2233,-7.6141 -52.357,-13.1989 -12.1385,-3.8263 -24.3458,-7.4273 -36.5828,-10.9238 -2.1361,-0.6181 -4.2722,-1.2362 -6.4082,-1.8543 -3.8086,-2.8565 -4.791,-8.4047 -3.0215,-12.6797 3.1112,-10.0301 7.2356,-19.7537 9.5683,-30.0176 0.1907,-7.1989 -5.0046,-13.8258 -11.6328,-16.2568 -8.1859,-3.2713 -16.7215,-5.5386 -25.1516,-8.0754 -10.6728,-3.1009 -17.6074,-6.3044 -28.2511,-9.5031 -1.634,-0.5123 -3.3158,-0.9349 -4.8985,-1.5745 -6.4463,-4.0275 -11.4798,-10.04 -14.9988,-16.7269 -0.6308,-10.1283 2.4237,-19.9428 4.0156,-29.8414 0.7111,-3.8042 0.5769,-8.0798 -1.8053,-11.3085 -2.8415,-4.4602 -11.7784,-7.3612 -17.0919,-7.1782 -0.3216,0.091 -0.6432,0.1823 -0.9649,0.2734 z m 241.4961,179.3652 c 1.4323,-0.5267 2.8646,-1.0533 4.2969,-1.58 -1.4323,0.5267 -2.8646,1.0533 -4.2969,1.58 z"
       id="path4496-04"
       inkscape:connector-curvature="0"
       sodipodi:nodetypes="ccccccccccccccccccccccccccccccc" />
    <path
       style="display:inline;fill:#ffffff;stroke:none;stroke-width:0.87079054"
       d="m 719.74226,1905.4081 c -44.49933,0.4576 -89.55408,2.7441 -132.51556,14.7728 -20.97444,5.847 -41.46896,16.2085 -54.97052,33.1266 -9.9173,12.5975 -12.48137,28.9982 -11.98416,44.4111 0.40146,13.295 1.7145,27.2637 9.19322,38.831 5.67457,9.0361 14.63282,15.6846 23.96333,20.9912 17.36752,9.5108 37.16577,13.5422 56.50788,17.5585 48.57838,9.436 98.35076,10.5152 147.74829,10.702 50.24617,-0.023 100.58167,-1.0537 150.58747,-6.0832 25.88205,-2.9808 52.17116,-8.6634 74.44844,-22.2221 16.84271,-10.4821 29.61665,-27.8411 31.66055,-47.283 1.5658,-13.5933 -0.2223,-27.5392 -4.9005,-40.4407 -6.3301,-16.8601 -18.9707,-31.7154 -35.73572,-39.8596 -19.77593,-10.1879 -42.35702,-13.3074 -64.34649,-15.8555 -29.71013,-3.1206 -59.60957,-3.9042 -89.41429,-5.8237 -33.38381,-1.6969 -66.80628,-2.9144 -100.24194,-2.8254 z"
       id="path3280-8-1"
       inkscape:connector-curvature="0"
       sodipodi:nodetypes="csssc" />
    <path
       style="color:#000000;display:inline;overflow:visible;visibility:visible;fill:#ffffff;fill-opacity:1;fill-rule:nonzero;stroke:none;stroke-width:0.97895557px;marker:none;enable-background:accumulate"
       d="m 984.26271,2056.9994 c -32.96745,1.0268 -66.33047,3.1866 -98.02227,12.5547 -13.89197,4.2193 -27.99189,10.1638 -37.54911,21.0903 -11.73829,13.1945 -17.07712,30.5014 -18.67541,47.4982 -1.16803,12.4935 -0.55159,25.5973 5.19588,37.0952 4.77084,10.1846 13.08464,18.4715 22.58466,24.7862 14.41109,9.5615 31.27528,14.9508 48.03368,19.4102 37.37763,9.5687 76.47104,10.5592 114.91126,8.7006 20.6738,-0.9991 41.8076,-3.6449 60.5399,-12.587 14.0014,-6.523 26.776,-16.5094 33.8242,-30.0213 8.2541,-15.4228 10.1478,-33.1396 9.6448,-50.2305 -0.3734,-12.6482 -3.9177,-25.5035 -11.9721,-35.7172 -7.1711,-9.3267 -17.6249,-15.6972 -28.1995,-20.9971 -12.9545,-6.2493 -26.7909,-10.6556 -40.7254,-14.422 -19.3989,-4.966 -39.5105,-7.3701 -59.59059,-7.1603 z"
       id="path4546-1"
       inkscape:connector-curvature="0"
       sodipodi:nodetypes="cssssc" />
    <text
       xml:space="preserve"
       style="font-style:normal;font-variant:normal;font-weight:normal;font-stretch:normal;line-height:0%;font-family:'小赖字体 SC';-inkscape-font-specification:'小赖字体 SC';text-align:center;letter-spacing:0px;word-spacing:0px;text-anchor:middle;display:inline;fill:#000000;fill-opacity:1;stroke:none"
       x="778.37128"
       y="1980.6964"
       id="text4246-7-6-1-7-6-3-5-6"
       sodipodi:linespacing="0%"><tspan
         sodipodi:role="line"
         style="font-style:normal;font-variant:normal;font-weight:normal;font-stretch:normal;font-size:45px;line-height:1.25;font-family:'小赖字体 SC';-inkscape-font-specification:'小赖字体 SC'"
         x="778.37128"
         y="1980.6964"
         id="tspan831">权衡一下，还是把</tspan><tspan
         sodipodi:role="line"
         style="font-style:normal;font-variant:normal;font-weight:normal;font-stretch:normal;font-size:45px;line-height:1.25;font-family:'小赖字体 SC';-inkscape-font-specification:'小赖字体 SC'"
         x="778.37128"
         y="2036.9464"
         id="tspan3350">那个小女孩叫回来吧。</tspan></text>
    <text
       xml:space="preserve"
       style="font-style:normal;font-variant:normal;font-weight:normal;font-stretch:normal;line-height:0%;font-family:'小赖字体 SC';-inkscape-font-specification:'小赖字体 SC';text-align:center;letter-spacing:0px;word-spacing:0px;text-anchor:middle;display:inline;fill:#000000;fill-opacity:1;stroke:none"
       x="977.6701"
       y="2134.6045"
       id="text4246-7-6-1-7-6-3-5-6-4"
       sodipodi:linespacing="0%"><tspan
         sodipodi:role="line"
         style="font-style:normal;font-variant:normal;font-weight:normal;font-stretch:normal;font-size:45px;line-height:1.25;font-family:'小赖字体 SC';-inkscape-font-specification:'小赖字体 SC'"
         x="977.6701"
         y="2134.6045"
         id="tspan840">这位的佣金</tspan><tspan
         sodipodi:role="line"
         style="font-style:normal;font-variant:normal;font-weight:normal;font-stretch:normal;font-size:45px;line-height:1.25;font-family:'小赖字体 SC';-inkscape-font-specification:'小赖字体 SC'"
         x="977.6701"
         y="2190.8545"
         id="tspan3356">肯定很贵。</tspan></text>
    <text
       xml:space="preserve"
       style="font-style:normal;font-variant:normal;font-weight:normal;font-stretch:normal;font-size:43.85733414px;line-height:0%;font-family:Lavi;-inkscape-font-specification:'Lavi, Normal';text-align:center;letter-spacing:0px;word-spacing:0px;writing-mode:lr-tb;text-anchor:middle;display:inline;fill:#241c1c;fill-opacity:1;stroke:#000000;stroke-width:0.82200003;stroke-miterlimit:4;stroke-dasharray:none;stroke-opacity:1"
       x="3388.5708"
       y="3317.343"
       id="text4213"
       transform="matrix(0.96049651,0,-0.32716292,1.0411282,0,0)"
       sodipodi:linespacing="0%"><tspan
         sodipodi:role="line"
         x="3388.5708"
         y="3317.343"
         style="font-style:normal;font-variant:normal;font-weight:normal;font-stretch:normal;font-size:43.85733414px;line-height:1.25;font-family:'小赖字体 SC';-inkscape-font-specification:'小赖字体 SC';text-align:center;writing-mode:lr-tb;text-anchor:middle;stroke-width:0.82200003"
         id="tspan858">未完待续……</tspan></text>
  </g>
</svg>
