<?xml version="1.0" encoding="UTF-8" standalone="no"?>
<!-- Created with Inkscape (http://www.inkscape.org/) -->

<svg
   xmlns:dc="http://purl.org/dc/elements/1.1/"
   xmlns:cc="http://creativecommons.org/ns#"
   xmlns:rdf="http://www.w3.org/1999/02/22-rdf-syntax-ns#"
   xmlns:svg="http://www.w3.org/2000/svg"
   xmlns="http://www.w3.org/2000/svg"
   xmlns:xlink="http://www.w3.org/1999/xlink"
   xmlns:sodipodi="http://sodipodi.sourceforge.net/DTD/sodipodi-0.dtd"
   xmlns:inkscape="http://www.inkscape.org/namespaces/inkscape"
   id="svg2"
   version="1.1"
   inkscape:version="0.92.4 (5da689c313, 2019-01-14)"
   width="2481"
   height="3503"
   sodipodi:docname="E27P01.svg">
  <metadata
     id="metadata8">
    <rdf:RDF>
      <cc:Work
         rdf:about="">
        <dc:format>image/svg+xml</dc:format>
        <dc:type
           rdf:resource="http://purl.org/dc/dcmitype/StillImage" />
        <dc:title />
      </cc:Work>
    </rdf:RDF>
  </metadata>
  <defs
     id="defs6">
    <linearGradient
       inkscape:collect="always"
       id="linearGradient964">
      <stop
         style="stop-color:#918a6f;stop-opacity:1;"
         offset="0"
         id="stop960" />
      <stop
         style="stop-color:#c2bb9f;stop-opacity:1"
         offset="1"
         id="stop962" />
    </linearGradient>
    <linearGradient
       inkscape:collect="always"
       id="linearGradient928">
      <stop
         style="stop-color:#f3efe0;stop-opacity:1"
         offset="0"
         id="stop924" />
      <stop
         style="stop-color:#d9cc9d;stop-opacity:1"
         offset="1"
         id="stop926" />
    </linearGradient>
    <radialGradient
       inkscape:collect="always"
       xlink:href="#linearGradient928"
       id="radialGradient932"
       cx="322.14978"
       cy="230.87151"
       fx="322.14978"
       fy="230.87151"
       r="182.11266"
       gradientTransform="matrix(1.118507,-0.00767018,0.00833117,1.2148946,-40.100433,-47.142096)"
       gradientUnits="userSpaceOnUse" />
    <linearGradient
       inkscape:collect="always"
       xlink:href="#linearGradient964"
       id="linearGradient966"
       x1="483.93088"
       y1="252.79726"
       x2="521.5141"
       y2="254.66634"
       gradientUnits="userSpaceOnUse"
       gradientTransform="translate(68.793336)" />
    <filter
       inkscape:collect="always"
       style="color-interpolation-filters:sRGB"
       id="filter4210"
       x="-0.0015578248"
       width="1.0031157"
       y="-0.0045528179"
       height="1.0091056">
      <feGaussianBlur
         inkscape:collect="always"
         stdDeviation="0.2079876"
         id="feGaussianBlur4212" />
    </filter>
    <filter
       inkscape:collect="always"
       style="color-interpolation-filters:sRGB"
       id="filter4210-3"
       x="-0.0015578248"
       width="1.0031157"
       y="-0.0045528179"
       height="1.0091056">
      <feGaussianBlur
         inkscape:collect="always"
         stdDeviation="0.2079876"
         id="feGaussianBlur4212-9" />
    </filter>
    <clipPath
       clipPathUnits="userSpaceOnUse"
       id="clipPath120">
      <path
         style="opacity:1;vector-effect:none;fill:none;fill-opacity:1;fill-rule:nonzero;stroke:#000000;stroke-width:2;stroke-linecap:butt;stroke-linejoin:miter;stroke-miterlimit:4;stroke-dasharray:none;stroke-dashoffset:0;stroke-opacity:1;paint-order:fill markers stroke"
         d="m 1599.2475,1685.4 c -5.1923,6.9687 -5.1923,18.1732 -2.8694,21.1793 2.3229,3.0061 7.7885,6.5588 15.987,6.8321 l 0.4135,76.3253 -163.4808,15.0727 -1.5459,-108.2142 z"
         id="path122"
         inkscape:connector-curvature="0"
         sodipodi:nodetypes="csccccc" />
    </clipPath>
  </defs>
  <sodipodi:namedview
     pagecolor="#ffffff"
     bordercolor="#666666"
     borderopacity="1"
     objecttolerance="10"
     gridtolerance="10"
     guidetolerance="10"
     inkscape:pageopacity="0"
     inkscape:pageshadow="2"
     inkscape:window-width="1296"
     inkscape:window-height="704"
     id="namedview4"
     showgrid="false"
     inkscape:zoom="0.4574026"
     inkscape:cx="1252.9191"
     inkscape:cy="642.39622"
     inkscape:window-x="70"
     inkscape:window-y="27"
     inkscape:window-maximized="1"
     inkscape:current-layer="layer1"
     inkscape:snap-global="false" />
  <g
     inkscape:groupmode="layer"
     id="layer2"
     inkscape:label="artwork"
     sodipodi:insensitive="true">
    <image
       sodipodi:absref="/home/emmiline/Documents/git/webcomics/ep27_Coriander-s-Invention/lang/da/../gfx_Pepper-and-Carrot_by-David-Revoy_E27P01.png"
       xlink:href="../gfx_Pepper-and-Carrot_by-David-Revoy_E27P01.png"
       y="0"
       x="0"
       id="image10"
       height="3503"
       width="2481" />
  </g>
  <g
     inkscape:groupmode="layer"
     id="layer3"
     inkscape:label="speechbubbles">
    <g
       id="g975">
      <path
         inkscape:connector-curvature="0"
         id="path101"
         d="m 549.88676,190.72919 c -3.54348,-0.0348 -7.29462,0.1157 -11.15995,0.53804 0,0 -30.0934,106.15112 -34.39246,120.39084 11.46417,0 17.19658,2.58826 28.66075,3.88278 11.46419,1.29452 32.95953,-2.58907 41.55766,-3.23633 8.59813,-0.64726 15.76193,2.58904 44.42238,0 -2.86603,0.64726 -12.18043,-6.47148 -16.47949,-9.06051 -4.29907,-2.58904 -2.86564,-7.7685 -5.73169,-13.59384 -7.1651,4.53081 -12.18133,-3e-5 -15.76388,-3.23633 -3.58256,-3.2363 0,-4.52924 0,-4.52924 l 11.4634,-8.41405 c 0,0 -3.58217,-14.24033 -5.7317,-17.47663 -2.14954,-3.2363 2.86698,-16.18167 2.86698,-16.18167 0,0 3.58164,-9.0614 0.71562,-14.88673 -2.86604,-5.82535 4.29867,-7.11997 5.73169,-9.70901 1.43304,-2.58904 9.31656,-12.29889 9.31656,-12.29889 l 7.88082,-3.88279 19.34646,-0.64645 10.74778,-5.82622 -16.48174,0.64645 -24.3603,2.58989 -25.79378,-1.29494 c 0,0 -11.46004,-3.62374 -26.81511,-3.77437 z m 14.40511,63.85728 c 0,0 11.92148,1.46891 13.54683,3.42659 1.62535,1.95768 4.33226,0.4895 6.4994,1.95776 2.16714,1.46826 4.87786,9.7878 2.71073,10.76663 -2.16714,0.97885 -5.41927,3.42554 -7.58642,2.44669 -2.16713,-0.97883 -4.87568,-5.87327 -4.87568,-5.87327 -0.54179,-4.40479 0,-6.85113 0,-6.85113 z"
         style="fill:url(#linearGradient966);fill-opacity:1;fill-rule:evenodd;stroke:none;stroke-width:0.99999994px;stroke-linecap:butt;stroke-linejoin:miter;stroke-opacity:1" />
      <path
         inkscape:connector-curvature="0"
         id="path958"
         d="m 504.79715,310.61856 c 0,0 8.1984,-5.23752 15.06909,-6.63932 6.87069,-1.40181 24.66762,-6.18478 30.68906,-7.94356 l 6.13248,-1.15243 -4.75833,-30.62178 -8.70287,-22.89613 -30.68908,2.80361 -5.49655,49.06313 z"
         style="fill:#6c6753;fill-rule:evenodd;stroke:#6c6753;stroke-width:1px;stroke-linecap:butt;stroke-linejoin:miter;stroke-opacity:1"
         sodipodi:nodetypes="ccscccccc" />
      <path
         inkscape:connector-curvature="0"
         id="path99"
         d="m 567.53094,152.34375 c -0.14714,0.0194 -0.29648,0.0584 -0.44937,0.11719 -4.89222,1.87969 -40.11706,-0.93945 -46.96617,3.75976 -6.84911,4.69921 -93.63782,-0.94062 -110.27137,-2.82031 -16.63354,-1.87968 -133.80309,7.8e-4 -147.50129,2.82031 -13.69822,2.81953 -48.9227,6.57969 -91.97424,2.82032 l 2.93411,9.39843 0.98007,7.51758 -3.91418,7.51953 h 2.93411 l 15.65675,5.63867 v 8.45899 l -6.85034,6.57812 -10.76248,1.88086 -13.69865,40.41211 c 0,0 1.9565,6.57852 0.97805,10.33789 -0.97844,3.75937 -10.76128,15.97738 -18.58883,46.99219 18.59043,-1.87969 37.18053,-3.75937 59.68474,-4.69922 22.50421,-0.93984 128.91044,10.33789 143.5871,10.33789 14.67666,0 46.9658,-2.81915 67.51312,-5.63867 20.54732,-2.81953 96.57437,-2.81992 107.33725,-3.75977 10.76288,-0.93985 24.46114,-7.51873 39.1378,-4.69921 -1.95688,-11.27811 -0.97967,-15.03595 -1.95811,-22.55469 -0.97845,-7.51874 8.80561,-29.13674 10.76249,-38.53516 1.95689,-9.39843 1.95811,-18.79493 1.95811,-23.49414 0,-4.69921 4.89223,-6.58008 4.89223,-6.58008 l -4.89223,-9.39843 c 0,0 3.91378,-12.21799 4.89223,-18.79688 0.94786,-6.37331 -0.85928,-24.21344 -5.4209,-23.61328 z m -391.06648,68.12891 c 1.88302,0.02 3.3984,0.6712 3.61122,2.30664 0.48646,3.73815 2.43327,8.87803 -0.97194,11.68164 -3.40522,2.80361 -12.16143,-0.46687 -12.16143,-2.33594 0,-1.86907 2.43188,-9.3457 2.43188,-9.3457 1.64181,-1.31419 4.66925,-2.33231 7.09027,-2.30664 z"
         style="fill:url(#radialGradient932);fill-opacity:1;fill-rule:evenodd;stroke:none;stroke-width:0.99999994px;stroke-linecap:butt;stroke-linejoin:miter;stroke-opacity:1"
         sodipodi:nodetypes="ccsssccccccccccccssssccsscccccccscc" />
      <path
         inkscape:connector-curvature="0"
         id="path109"
         d="m 500.39935,227.45228 c 4.8646,-2.80361 12.64794,-2.33634 14.59378,0.46727 1.94585,2.80361 7.78336,6.07448 6.32398,8.87809 -1.45938,2.80361 -4.8646,8.41082 -7.78336,8.41082 -2.91876,0 -11.18856,1.86907 -13.62086,-2.33634 -2.4323,-4.20541 -4.37814,-8.87809 -3.40521,-11.21443 0.97291,-2.33634 3.89167,-4.20541 3.89167,-4.20541 z"
         style="opacity:0.53299997;fill:#cbc29a;fill-opacity:1;fill-rule:evenodd;stroke:none;stroke-width:0.99999994px;stroke-linecap:butt;stroke-linejoin:miter;stroke-opacity:1" />
      <path
         inkscape:connector-curvature="0"
         id="path111"
         d="m 526.66816,190.53812 c 7.29689,-4.20541 14.59379,-4.20541 16.05316,0.93454 1.45939,5.13994 4.8646,8.87808 0.48646,10.74716 -4.37813,1.86907 -10.7021,9.81262 -13.62086,4.20541 -2.91876,-5.60722 -9.72919,-8.41082 -8.75627,-9.81263 0.97291,-1.4018 5.83751,-6.07448 5.83751,-6.07448 z"
         style="opacity:0.53299997;vector-effect:none;fill:#cbc29a;fill-opacity:1;fill-rule:evenodd;stroke:none;stroke-width:0.99999994px;stroke-linecap:butt;stroke-linejoin:miter;stroke-miterlimit:4;stroke-dasharray:none;stroke-dashoffset:0;stroke-opacity:1" />
      <path
         inkscape:connector-curvature="0"
         id="path113"
         d="m 517.91189,269.50639 c 4.8646,-2.80361 8.75627,0 8.75627,3.27087 0,3.27088 2.4323,6.54175 -2.91875,6.54175 -5.35106,0 -9.72919,0.46727 -9.72919,-3.27087 0,-3.73814 3.89167,-6.54175 3.89167,-6.54175 z"
         style="opacity:0.53299997;vector-effect:none;fill:#cbc29a;fill-opacity:1;fill-rule:evenodd;stroke:none;stroke-width:0.99999994px;stroke-linecap:butt;stroke-linejoin:miter;stroke-miterlimit:4;stroke-dasharray:none;stroke-dashoffset:0;stroke-opacity:1" />
      <path
         inkscape:connector-curvature="0"
         id="path115"
         d="m 499.42643,283.05716 c 3.40522,-6.07449 6.81043,-4.67268 6.81043,-4.67268 l 4.37813,4.67268 -5.35104,5.60721 z"
         style="opacity:0.53299997;vector-effect:none;fill:#cbc29a;fill-opacity:1;fill-rule:evenodd;stroke:none;stroke-width:0.99999994px;stroke-linecap:butt;stroke-linejoin:miter;stroke-miterlimit:4;stroke-dasharray:none;stroke-dashoffset:0;stroke-opacity:1" />
    </g>
    <path
       style="fill:#ffffff;fill-rule:evenodd;stroke:none;stroke-width:0.95753437px;stroke-linecap:butt;stroke-linejoin:miter;stroke-opacity:1"
       d="m 451.77642,1796.8863 c 0.0917,-47.8581 29.01219,-66.0538 42.43675,-73.0439 13.42455,-6.9901 102.16817,-19.3417 126.92435,-17.8459 24.75619,1.4961 96.95879,7.3841 117.55611,25.7566 20.59733,18.3722 36.01227,49.3945 38.03233,71.9234 2.02006,22.529 -2.66749,50.6724 -14.04499,66.1153 -11.3775,15.4431 -47.0203,37.8295 -65.59485,40.5785 -18.57455,2.7489 -114.50983,-0.4087 -131.01305,-1.8753 -16.50323,-1.4665 -56.72022,-10.0556 -71.13861,-22.7755 -14.4184,-12.72 -39.1476,-28.2919 -43.15804,-88.8332 z"
       id="path1371"
       inkscape:connector-curvature="0"
       sodipodi:nodetypes="csccscscsc" />
    <path
       style="fill:#ffffff;fill-rule:evenodd;stroke:none;stroke-width:1px;stroke-linecap:butt;stroke-linejoin:miter;stroke-opacity:1"
       d="m 686.45974,1880.2247 c 44.39811,49.0647 82.31113,72.1949 226.38521,65.9802 144.07415,-6.2147 259.30275,-47.8428 331.33975,-14.2833 -70.9757,-31.1157 -238.5537,21.7759 -308.13415,25.4908 -85.56941,6.1866 -198.69784,15.5262 -270.73489,-67.7509 -3.85912,-26.1017 21.14408,-9.4368 21.14408,-9.4368 z"
       id="path1373"
       inkscape:connector-curvature="0"
       sodipodi:nodetypes="cscccc" />
    <path
       style="fill:#ffffff;fill-rule:evenodd;stroke:none;stroke-width:1.04555166px;stroke-linecap:butt;stroke-linejoin:miter;stroke-opacity:1"
       d="m 260.74284,2388.7838 c 14.81311,-36.1783 49.37706,-49.8673 74.06559,-57.6896 24.68853,-7.8223 102.70428,-10.7558 126.40527,-8.8002 23.70099,1.9556 128.38035,10.7558 157.01904,24.4448 28.6387,13.6891 51.35214,37.1561 48.38952,73.3344 -1.72284,21.0386 -4.9377,79.201 -36.53902,97.7791 -31.60132,18.578 -105.66691,26.4003 -149.11872,28.3559 -43.45181,1.9555 -114.55478,1.9555 -153.06888,-17.6003 -38.51411,-19.5558 -52.33968,-52.8007 -62.21509,-71.3787 -9.87541,-18.578 -4.93771,-68.4454 -4.93771,-68.4454 z"
       id="path1381"
       inkscape:connector-curvature="0"
       sodipodi:nodetypes="csssscccsc" />
    <path
       style="fill:#ffffff;fill-rule:evenodd;stroke:none;stroke-width:0.99999994px;stroke-linecap:butt;stroke-linejoin:miter;stroke-opacity:1"
       d="m 521.21334,2517.9278 c 14.59223,33.5128 26.0029,48.9812 67.83396,39.5558 41.83105,-9.4256 108.5282,-16.3248 141.78674,1.4788 29.28137,15.6746 51.90739,13.079 121.7666,131.8501 -56.77814,-114.9266 -99.32551,-134.2862 -123.35037,-143.8201 -24.59626,-9.7606 -55.76454,-20.3814 -126.39262,-4.6406 -32.1029,7.3309 -47.44956,5.5181 -53.3456,-33.119 -10.70097,-20.9453 -28.29871,8.695 -28.29871,8.695 z"
       id="path1383"
       inkscape:connector-curvature="0"
       sodipodi:nodetypes="csscsccc" />
    <path
       style="color:#000000;display:inline;overflow:visible;visibility:visible;fill:#ffffff;fill-opacity:1;fill-rule:nonzero;stroke:none;stroke-width:0.84628552px;marker:none;enable-background:accumulate"
       d="m 403.76127,2584.8684 c 49.65938,-18.5116 172.46228,-12.1599 206.20629,12.1226 33.744,24.2826 34.04317,53.7639 -14.48262,79.1559 -19.28444,10.091 -114.56982,9.5797 -144.34174,5.9959 -39.34278,-4.7358 -81.63871,-19.977 -89.00124,-40.708 -6.89687,-19.4198 -8.04008,-38.0547 41.61931,-56.5664 z"
       id="path4040"
       inkscape:connector-curvature="0"
       sodipodi:nodetypes="zssssz" />
    <path
       style="fill:#ffffff;fill-rule:evenodd;stroke:none;stroke-width:1px;stroke-linecap:butt;stroke-linejoin:miter;stroke-opacity:1"
       d="m 592.9793,2651.1296 c 6.2779,5.7652 17.59909,17.4223 21.13933,28.7257 3.46311,11.4895 -12.47795,24.7828 -8.01922,31.4781 2.84262,5.6853 15.43964,23.6392 31.35903,13.9966 -16.26214,14.8047 -31.96506,-0.6746 -39.07162,-10.6237 -7.10656,-9.9492 7.60797,-24.6926 3.34403,-31.0885 -4.26393,-6.3959 -19.70358,-20.8255 -19.70358,-20.8255 z"
       id="path1391"
       inkscape:connector-curvature="0"
       sodipodi:nodetypes="cccccccc" />
    <path
       style="fill:#ffffff;fill-rule:evenodd;stroke:none;stroke-width:0.96196741px;stroke-linecap:butt;stroke-linejoin:miter;stroke-opacity:1"
       d="m 1621.4112,2519.0109 c 43.002,77.9608 121.6342,66.3249 151.1213,67.4884 29.4871,1.1636 114.2626,6.9816 135.1492,2.3272 20.8867,-4.6544 78.6323,-32.5806 83.5468,-39.5622 4.9145,-6.9816 2.4574,-279.2626 2.4574,-279.2626 h -374.732 z"
       id="path1393"
       inkscape:connector-curvature="0" />
    <path
       style="fill:#ffffff;fill-rule:evenodd;stroke:none;stroke-width:1px;stroke-linecap:butt;stroke-linejoin:miter;stroke-opacity:1"
       d="m 1940.7749,2518.045 c 0,0 17.857,53.571 17.857,79.8866 0,26.3156 -21.6164,50.7515 -17.857,75.1874 3.7594,24.4359 29.1351,57.3304 29.1351,81.7663 0,24.4359 -31.9546,53.571 -52.6311,70.4882 32.8944,-38.5335 52.6311,-56.3906 31.0148,-95.8639 -21.6164,-39.4734 -29.1352,-55.4508 -28.1953,-71.4281 0.9398,-15.9773 13.1987,-40.9036 7.5596,-68.159 -5.639,-27.2554 -26.193,-59.2509 -26.193,-59.2509 z"
       id="path1395"
       inkscape:connector-curvature="0"
       sodipodi:nodetypes="cssscscccc" />
    <path
       style="fill:#ffffff;fill-rule:evenodd;stroke:none;stroke-width:0.99999994px;stroke-linecap:butt;stroke-linejoin:miter;stroke-opacity:1"
       d="m 2064.2281,2399.5845 c 4.6992,-28.9913 13.1578,-42.1693 31.0148,-50.076 17.857,-7.9067 78.9468,-10.5423 97.7436,-6.1497 18.7969,4.3926 46.9921,8.7853 55.4507,26.3558 8.4586,17.5705 12.218,36.8981 4.6992,46.5619 -7.5187,9.6637 -19.7367,26.3557 -37.5937,33.3839 -17.857,7.0282 -102.4428,-3.5141 -115.6006,-9.6638 -13.1578,-6.1496 -34.7742,-18.449 -35.714,-40.4121 z"
       id="path1397"
       inkscape:connector-curvature="0" />
    <path
       style="fill:#ffffff;fill-rule:evenodd;stroke:none;stroke-width:1px;stroke-linecap:butt;stroke-linejoin:miter;stroke-opacity:1"
       d="m 2158.8184,2429.6998 c 0,0 -15.0375,20.6765 -21.6164,31.0148 -6.5789,10.3383 -24.4359,33.8343 -12.218,71.428 -34.7741,-63.9093 4.6993,-93.0444 15.0375,-108.0819 10.3383,-15.0375 18.7969,5.6391 18.7969,5.6391 z"
       id="path1399"
       inkscape:connector-curvature="0" />
  </g>
  <g
     inkscape:groupmode="layer"
     id="layer1"
     inkscape:label="txt">
    <text
       xml:space="preserve"
       style="font-style:italic;font-variant:normal;font-weight:normal;font-stretch:normal;font-size:45px;line-height:1.20000005;font-family:Fondamento;-inkscape-font-specification:'Fondamento Italic';text-anchor:middle"
       x="358.75275"
       y="216.16245"
       id="text4246"><tspan
         sodipodi:role="line"
         x="358.75275"
         y="216.16245"
         id="tspan4252">Om eftermiddagen</tspan><tspan
         sodipodi:role="line"
         x="358.75275"
         y="270.16245"
         id="tspan923">i Qualicity</tspan></text>
    <text
       xml:space="preserve"
       style="font-style:normal;font-variant:normal;font-weight:normal;font-stretch:normal;line-height:0%;font-family:Lavi;-inkscape-font-specification:Lavi;text-align:center;letter-spacing:0px;word-spacing:0px;text-anchor:middle;fill:#000000;fill-opacity:1;stroke:none"
       x="612.50909"
       y="1767.755"
       id="text4246-4"><tspan
         sodipodi:role="line"
         style="font-size:45px;line-height:1.20000005"
         x="612.50909"
         y="1767.755"
         id="tspan49">Jeg beder</tspan><tspan
         sodipodi:role="line"
         style="font-size:45px;line-height:1.20000005"
         x="612.50909"
         y="1821.755"
         id="tspan133">Dem, Prinsesse</tspan><tspan
         sodipodi:role="line"
         style="font-size:45px;line-height:1.20000005"
         x="612.50909"
         y="1875.755"
         id="tspan135">Koriander…</tspan></text>
    <text
       xml:space="preserve"
       style="font-style:normal;font-variant:normal;font-weight:normal;font-stretch:normal;line-height:0%;font-family:Lavi;-inkscape-font-specification:Lavi;text-align:center;letter-spacing:0px;word-spacing:0px;text-anchor:middle;fill:#000000;fill-opacity:1;stroke:none"
       x="464.49915"
       y="2392.3777"
       id="text4246-5"><tspan
         sodipodi:role="line"
         style="font-size:45px;line-height:1.20000005"
         x="464.49915"
         y="2392.3777"
         id="tspan933">Kunne De stoppe</tspan><tspan
         sodipodi:role="line"
         style="font-size:45px;line-height:1.20000005"
         x="464.49915"
         y="2446.3777"
         id="tspan142">med at bevæge</tspan><tspan
         sodipodi:role="line"
         style="font-size:45px;line-height:1.20000005"
         x="464.49915"
         y="2500.3777"
         id="tspan144">Dem så meget?</tspan></text>
    <text
       xml:space="preserve"
       style="font-style:normal;font-variant:normal;font-weight:normal;font-stretch:normal;line-height:0%;font-family:Lavi;-inkscape-font-specification:Lavi;text-align:center;letter-spacing:0px;word-spacing:0px;text-anchor:middle;fill:#000000;fill-opacity:1;stroke:none"
       x="498.26331"
       y="2637.249"
       id="text4246-8"><tspan
         sodipodi:role="line"
         style="font-size:45px;line-height:1.20000005"
         x="498.26331"
         y="2637.249"
         id="tspan941">Ja, ja...</tspan></text>
    <text
       xml:space="preserve"
       style="font-style:normal;font-variant:normal;font-weight:normal;font-stretch:normal;line-height:0%;font-family:Lavi;-inkscape-font-specification:Lavi;text-align:center;letter-spacing:0px;word-spacing:0px;text-anchor:middle;fill:#000000;fill-opacity:1;stroke:none"
       x="1808.3252"
       y="2344.9854"
       id="text4246-3"><tspan
         sodipodi:role="line"
         style="font-size:45px;line-height:1.20000005"
         x="1808.3252"
         y="2344.9854"
         id="tspan963">Der er ikke meget</tspan><tspan
         sodipodi:role="line"
         style="font-size:45px;line-height:1.20000005"
         x="1808.3252"
         y="2398.9854"
         id="tspan162">tid tilbage.</tspan><tspan
         sodipodi:role="line"
         style="font-size:45px;line-height:1.20000005"
         x="1808.3252"
         y="2452.9854"
         id="tspan168">Kroningen</tspan><tspan
         sodipodi:role="line"
         style="font-size:45px;line-height:1.20000005"
         x="1808.3252"
         y="2506.9854"
         id="tspan164">starter om</tspan><tspan
         sodipodi:role="line"
         style="font-size:45px;line-height:1.20000005"
         x="1808.3252"
         y="2560.9854"
         id="tspan166">tre timer.</tspan></text>
    <text
       xml:space="preserve"
       style="font-style:normal;font-variant:normal;font-weight:normal;font-stretch:normal;line-height:0%;font-family:Lavi;-inkscape-font-specification:Lavi;text-align:center;letter-spacing:0px;word-spacing:0px;text-anchor:middle;fill:#000000;fill-opacity:1;stroke:none"
       x="2165.603"
       y="2401.189"
       id="text4246-0"><tspan
         sodipodi:role="line"
         style="font-size:45px;line-height:1.25"
         x="2165.603"
         y="2401.189"
         id="tspan4252-1">...</tspan></text>
    <g
       id="g113"
       clip-path="url(#clipPath120)">
      <g
         id="g114">
        <text
           xml:space="preserve"
           style="font-style:normal;font-variant:normal;font-weight:normal;font-stretch:normal;line-height:0%;font-family:Lavi;-inkscape-font-specification:Lavi;text-align:center;letter-spacing:0px;word-spacing:0px;text-anchor:middle;display:inline;opacity:0.6;fill:#fff6d5;fill-opacity:1;stroke:#fff6d5;stroke-width:2.68153024;stroke-miterlimit:4;stroke-dasharray:none;filter:url(#filter4210)"
           x="1174.0292"
           y="1085.962"
           id="text4246-5-9"
           transform="matrix(0.33903705,-0.05122671,-0.0460767,0.85971309,1182.8761,863.23227)"
           clip-path="none"><tspan
             id="tspan113"
             sodipodi:role="line"
             style="font-style:normal;font-variant:normal;font-weight:normal;font-stretch:normal;font-size:45.00812149px;line-height:1;font-family:Fondamento;-inkscape-font-specification:Fondamento;fill:#fff6d5;stroke:#fff6d5;stroke-width:2.68153024;stroke-miterlimit:4;stroke-dasharray:none;stroke-opacity:1"
             x="1179.5233"
             y="1085.962">KRONINGSDAG </tspan><tspan
             id="tspan124"
             sodipodi:role="line"
             style="font-style:normal;font-variant:normal;font-weight:normal;font-stretch:normal;font-size:45.00812149px;line-height:1;font-family:Fondamento;-inkscape-font-specification:Fondamento;fill:#fff6d5;stroke:#fff6d5;stroke-width:2.68153024;stroke-miterlimit:4;stroke-dasharray:none;stroke-opacity:1"
             x="1179.5233"
             y="1130.9702">AF MAJESTÆTEN </tspan><tspan
             id="tspan109"
             sodipodi:role="line"
             style="font-style:normal;font-variant:normal;font-weight:normal;font-stretch:normal;font-size:45.00812149px;line-height:1;font-family:Fondamento;-inkscape-font-specification:Fondamento;fill:#fff6d5;stroke:#fff6d5;stroke-width:2.68153024;stroke-miterlimit:4;stroke-dasharray:none;stroke-opacity:1"
             x="1174.0292"
             y="1146.7502" /></text>
      </g>
    </g>
    <text
       xml:space="preserve"
       style="font-style:normal;font-variant:normal;font-weight:normal;font-stretch:normal;line-height:0%;font-family:Lavi;-inkscape-font-specification:Lavi;text-align:center;letter-spacing:0px;word-spacing:0px;text-anchor:middle;display:inline;opacity:0.6;fill:#fff6d5;fill-opacity:1;stroke:#fff6d5;stroke-width:2.70249391;stroke-miterlimit:4;stroke-dasharray:none;filter:url(#filter4210-3)"
       x="1174.0292"
       y="1085.962"
       id="text4246-5-9-4"
       transform="matrix(0.52526015,-0.03262335,-0.01350018,0.76149002,929.61396,1240.278)"><tspan
         sodipodi:role="line"
         style="font-style:normal;font-variant:normal;font-weight:normal;font-stretch:normal;font-size:45.00812149px;line-height:1;font-family:Fondamento;-inkscape-font-specification:Fondamento;fill:#fff6d5;stroke:#fff6d5;stroke-width:2.70249391;stroke-miterlimit:4;stroke-dasharray:none;stroke-opacity:1"
         x="1174.0292"
         y="1085.962"
         id="tspan121">DRONNING</tspan><tspan
         sodipodi:role="line"
         style="font-style:normal;font-variant:normal;font-weight:normal;font-stretch:normal;font-size:45.00812149px;line-height:1;font-family:Fondamento;-inkscape-font-specification:Fondamento;fill:#fff6d5;stroke:#fff6d5;stroke-width:2.70249391;stroke-miterlimit:4;stroke-dasharray:none;stroke-opacity:1"
         x="1174.0292"
         y="1130.9702"
         id="tspan920">KORIANDER</tspan></text>
    <use
       x="0"
       y="0"
       xlink:href="#text4246-5-9"
       id="use1080"
       transform="matrix(1.1352105,0.37683751,-0.01499536,1.1237128,-1330.7826,-542.72023)"
       width="100%"
       height="100%"
       style="stroke-width:0.90093011" />
    <use
       x="0"
       y="0"
       xlink:href="#text4246-5-9-4"
       id="use1082"
       transform="matrix(1.0693722,0.24945635,-0.06483775,1.0842891,-1134.3733,-504.58661)"
       width="100%"
       height="100%" />
    <use
       x="0"
       y="0"
       xlink:href="#text4246-5-9"
       id="use1084"
       transform="matrix(0.66121329,0.28918666,0.05100776,0.73846619,993.71613,316.45766)"
       width="100%"
       height="100%"
       style="stroke-width:1.53159201" />
    <use
       x="0"
       y="0"
       xlink:href="#text4246-5-9-4"
       id="use1086"
       transform="matrix(0.6684957,0.19385173,0.02577676,0.73986265,1017.7929,304.84075)"
       width="100%"
       height="100%"
       style="stroke-width:1.58885944" />
  </g>
  <g
     inkscape:groupmode="layer"
     id="layer4"
     inkscape:label="notes"
     sodipodi:insensitive="true">
    <path
       style="color:#000000;clip-rule:nonzero;display:inline;overflow:visible;visibility:visible;opacity:0.5;isolation:auto;mix-blend-mode:normal;color-interpolation:sRGB;color-interpolation-filters:linearRGB;solid-color:#000000;solid-opacity:1;fill:#ffe680;fill-opacity:1;fill-rule:nonzero;stroke:#565656;stroke-width:1.20000005;stroke-linecap:butt;stroke-linejoin:miter;stroke-miterlimit:4;stroke-dasharray:none;stroke-dashoffset:0;stroke-opacity:1;marker:none;color-rendering:auto;image-rendering:auto;shape-rendering:auto;text-rendering:auto;enable-background:accumulate"
       d="m -491.70805,1691.6386 v 509.9547 h 423.636685 v -373.4851 h 13.923338 v 21.7545 l 43.137977,-37.5533 -43.137977,-37.5506 v 23.1272 h -13.923338 v -106.2474 z"
       id="rect4191-6"
       inkscape:connector-curvature="0"
       sodipodi:nodetypes="cccccccccccc" />
    <flowRoot
       xml:space="preserve"
       id="flowRoot4212-7"
       style="font-style:normal;font-variant:normal;font-weight:normal;font-stretch:normal;line-height:0.01%;font-family:Lavi;-inkscape-font-specification:'Lavi, Normal';text-align:center;letter-spacing:0px;word-spacing:0px;writing-mode:lr-tb;text-anchor:middle;display:inline;opacity:0.5;fill:#000000;fill-opacity:1;stroke:none;stroke-width:0.71836352px;stroke-linecap:butt;stroke-linejoin:miter;stroke-opacity:1"
       transform="matrix(1.3923338,0,0,1.391772,-88.183544,272.03294)"><flowRegion
         id="flowRegion4214-5"
         style="stroke-width:0.71836352px"><rect
           id="rect4216-3"
           width="271.92325"
           height="318.06064"
           x="-275.14545"
           y="1061.6674"
           style="stroke-width:0.71836352px" /></flowRegion><flowPara
         style="font-size:25.3241539px;line-height:1.25;stroke-width:0.71836352px"
         id="flowPara1114">Translate “Her Majesty’s Coronation” and “Queen Coriander”</flowPara><flowPara
         style="font-size:25.3241539px;line-height:1.25;stroke-width:0.71836352px"
         id="flowPara1116">on the banner</flowPara><flowPara
         style="font-size:25.3241539px;line-height:1.25;stroke-width:0.71836352px"
         id="flowPara119">on the building</flowPara><flowPara
         style="font-size:25.3241539px;line-height:1.25;stroke-width:0.71836352px"
         id="flowPara1118">(in the middle).</flowPara><flowPara
         style="font-size:25.3241539px;line-height:1.25;stroke-width:0.71836352px"
         id="flowPara1120" /><flowPara
         style="font-size:25.3241539px;line-height:1.25;stroke-width:0.71836352px"
         id="flowPara1122">The other text boxes</flowPara><flowPara
         style="font-size:25.3241539px;line-height:1.25;stroke-width:0.71836352px"
         id="flowPara1124">will update automatically</flowPara><flowPara
         style="font-size:25.3241539px;line-height:1.25;stroke-width:0.71836352px"
         id="flowPara1126">(they are clones).</flowPara></flowRoot>    <flowRoot
       xml:space="preserve"
       id="flowRoot4212-7-6"
       style="font-style:normal;font-variant:normal;font-weight:normal;font-stretch:normal;line-height:0.01%;font-family:Lavi;-inkscape-font-specification:'Lavi, Normal';text-align:center;letter-spacing:0px;word-spacing:0px;writing-mode:lr-tb;text-anchor:middle;display:inline;opacity:0.5;fill:#000000;fill-opacity:1;stroke:none;stroke-width:0.71836352px;stroke-linecap:butt;stroke-linejoin:miter;stroke-opacity:1"
       transform="matrix(1.3923338,0,0,1.391772,-103.52319,226.44878)"><flowRegion
         id="flowRegion4214-5-2"
         style="stroke-width:0.71836352px"><rect
           id="rect4216-3-6"
           width="294.12939"
           height="323.61441"
           x="-275.14545"
           y="1061.6674"
           style="stroke-width:0.71836352px" /></flowRegion><flowPara
         style="font-style:normal;font-variant:normal;font-weight:bold;font-stretch:normal;font-size:18.66666603px;line-height:1.25;font-family:Lavi;-inkscape-font-specification:'Lavi Bold';stroke-width:0.71836352px"
         id="flowPara1220">NOTE FOR TRANSLATORS</flowPara></flowRoot>    <path
       style="color:#000000;clip-rule:nonzero;display:inline;overflow:visible;visibility:visible;opacity:0.5;isolation:auto;mix-blend-mode:normal;color-interpolation:sRGB;color-interpolation-filters:linearRGB;solid-color:#000000;solid-opacity:1;fill:#ffe680;fill-opacity:1;fill-rule:nonzero;stroke:#565656;stroke-width:1.20000005;stroke-linecap:butt;stroke-linejoin:miter;stroke-miterlimit:4;stroke-dasharray:none;stroke-dashoffset:0;stroke-opacity:1;marker:none;color-rendering:auto;image-rendering:auto;shape-rendering:auto;text-rendering:auto;enable-background:accumulate"
       d="M -430.25364,116.98448 V 365.20819 H -71.78786 V 218.47397 h 13.92334 v 21.7545 l 43.13797,-37.5533 -43.13797,-37.5506 v 23.1272 h -13.92334 v -71.26729 z"
       id="rect4191-6-6"
       inkscape:connector-curvature="0"
       sodipodi:nodetypes="cccccccccccc" />
    <flowRoot
       xml:space="preserve"
       id="flowRoot4212-7-7"
       style="font-style:normal;font-variant:normal;font-weight:normal;font-stretch:normal;line-height:0.01%;font-family:Lavi;-inkscape-font-specification:'Lavi, Normal';text-align:center;letter-spacing:0px;word-spacing:0px;writing-mode:lr-tb;text-anchor:middle;display:inline;opacity:0.5;fill:#000000;fill-opacity:1;stroke:none;stroke-width:0.71836352px;stroke-linecap:butt;stroke-linejoin:miter;stroke-opacity:1"
       transform="matrix(1.3923338,0,0,1.391772,-36.204082,-1303.3246)"><flowRegion
         id="flowRegion4214-5-3"
         style="stroke-width:0.71836352px"><rect
           id="rect4216-3-60"
           width="241.20609"
           height="175.29474"
           x="-275.14545"
           y="1061.6674"
           style="stroke-width:0.71836352px" /></flowRegion><flowPara
         style="font-size:25.3241539px;line-height:1.25;stroke-width:0.71836352px"
         id="flowPara1339">You can strech the scroll and translate “Qualicity” to</flowPara><flowPara
         style="font-size:25.3241539px;line-height:1.25;stroke-width:0.71836352px"
         id="flowPara1357">“City of Qualicity”.</flowPara></flowRoot>    <flowRoot
       xml:space="preserve"
       id="flowRoot4212-7-6-2"
       style="font-style:normal;font-variant:normal;font-weight:normal;font-stretch:normal;line-height:0.01%;font-family:Lavi;-inkscape-font-specification:'Lavi, Normal';text-align:center;letter-spacing:0px;word-spacing:0px;writing-mode:lr-tb;text-anchor:middle;display:inline;opacity:0.5;fill:#000000;fill-opacity:1;stroke:none;stroke-width:0.71836352px;stroke-linecap:butt;stroke-linejoin:miter;stroke-opacity:1"
       transform="matrix(1.3923338,0,0,1.391772,-72.256293,-1348.2053)"><flowRegion
         id="flowRegion4214-5-2-4"
         style="stroke-width:0.71836352px"><rect
           id="rect4216-3-6-0"
           width="294.12939"
           height="323.61441"
           x="-275.14545"
           y="1061.6674"
           style="stroke-width:0.71836352px" /></flowRegion><flowPara
         style="font-style:normal;font-variant:normal;font-weight:bold;font-stretch:normal;font-size:18.66666603px;line-height:1.25;font-family:Lavi;-inkscape-font-specification:'Lavi Bold';stroke-width:0.71836352px"
         id="flowPara1220-6">NOTE FOR TRANSLATORS</flowPara></flowRoot>  </g>
</svg>
