<?xml version="1.0" encoding="UTF-8" standalone="no"?>
<!-- Created with Inkscape (http://www.inkscape.org/) -->

<svg
   xmlns:dc="http://purl.org/dc/elements/1.1/"
   xmlns:cc="http://creativecommons.org/ns#"
   xmlns:rdf="http://www.w3.org/1999/02/22-rdf-syntax-ns#"
   xmlns:svg="http://www.w3.org/2000/svg"
   xmlns="http://www.w3.org/2000/svg"
   xmlns:xlink="http://www.w3.org/1999/xlink"
   xmlns:sodipodi="http://sodipodi.sourceforge.net/DTD/sodipodi-0.dtd"
   xmlns:inkscape="http://www.inkscape.org/namespaces/inkscape"
   id="svg2"
   version="1.1"
   inkscape:version="0.92.5 (2060ec1f9f, 2020-04-08)"
   width="2481"
   height="3503"
   sodipodi:docname="E23P03.svg">
  <metadata
     id="metadata8">
    <rdf:RDF>
      <cc:Work
         rdf:about="">
        <dc:format>image/svg+xml</dc:format>
        <dc:type
           rdf:resource="http://purl.org/dc/dcmitype/StillImage" />
        <dc:title />
      </cc:Work>
    </rdf:RDF>
  </metadata>
  <defs
     id="defs6">
    <filter
       style="color-interpolation-filters:sRGB"
       id="filter4375-4-1-1-1-9"
       inkscape:label="deevad outline effect">
      <feFlood
         id="feFlood4377-7-9-0-8-1"
         flood-opacity="1"
         flood-color="rgb(0,0,0)"
         result="flood" />
      <feComposite
         id="feComposite4379-3-8-8-2-77"
         in2="SourceGraphic"
         in="flood"
         operator="in"
         result="composite1" />
      <feMorphology
         id="feMorphology4393-1-0-49-8-9"
         operator="dilate"
         radius="3"
         result="result3" />
      <feComposite
         id="feComposite4385-9-5-7-0-8"
         in2="result3"
         in="SourceGraphic"
         operator="over"
         result="composite2" />
    </filter>
    <filter
       style="color-interpolation-filters:sRGB"
       id="filter4375-4-1-1-1-9-3"
       inkscape:label="deevad outline effect">
      <feFlood
         id="feFlood4377-7-9-0-8-1-6"
         flood-opacity="1"
         flood-color="rgb(0,0,0)"
         result="flood" />
      <feComposite
         id="feComposite4379-3-8-8-2-77-7"
         in2="SourceGraphic"
         in="flood"
         operator="in"
         result="composite1" />
      <feMorphology
         id="feMorphology4393-1-0-49-8-9-5"
         operator="dilate"
         radius="3"
         result="result3" />
      <feComposite
         id="feComposite4385-9-5-7-0-8-3"
         in2="result3"
         in="SourceGraphic"
         operator="over"
         result="composite2" />
    </filter>
  </defs>
  <sodipodi:namedview
     pagecolor="#ffffff"
     bordercolor="#666666"
     borderopacity="1"
     objecttolerance="10"
     gridtolerance="10"
     guidetolerance="10"
     inkscape:pageopacity="0"
     inkscape:pageshadow="2"
     inkscape:window-width="1866"
     inkscape:window-height="1016"
     id="namedview4"
     showgrid="false"
     inkscape:zoom="0.3478261"
     inkscape:cx="845.38251"
     inkscape:cy="1132.9763"
     inkscape:window-x="54"
     inkscape:window-y="27"
     inkscape:window-maximized="1"
     inkscape:current-layer="layer1"
     inkscape:document-rotation="0" />
  <g
     inkscape:groupmode="layer"
     id="layer2"
     inkscape:label="artwork"
     sodipodi:insensitive="true">
    <image
       sodipodi:absref="/home/user/lojban/webcomics/ep23_Take-a-Chance/lang/jb/../gfx_Pepper-and-Carrot_by-David-Revoy_E23P03.png"
       xlink:href="../gfx_Pepper-and-Carrot_by-David-Revoy_E23P03.png"
       y="0"
       x="0"
       id="image10"
       height="3503"
       width="2481" />
  </g>
  <g
     inkscape:groupmode="layer"
     id="layer3"
     inkscape:label="speechbubbles">
    <path
       style="fill:#ffffff;stroke:none;stroke-width:0.85418093"
       d="M 337.88798,2940.3745 C 337.59761,2823.0107 503.58503,2808.5 565.2844,2808.7568 c 83.46821,0.3474 244.58546,-3.8656 285.69774,40.6031 62.45539,67.5544 49.15808,146.8484 27.4148,174.2782 -29.11284,36.7271 -76.12871,31.5478 -138.76988,45.9583 -77.7815,17.8933 -267.12832,4.8417 -316.12286,-3.7516 -38.81785,-6.8083 -85.32585,-8.1065 -85.61622,-125.4703 z"
       id="path3100"
       inkscape:connector-curvature="0"
       sodipodi:nodetypes="zsssssz" />
    <path
       style="color:#000000;display:inline;overflow:visible;visibility:visible;fill:#ffffff;fill-opacity:1;fill-rule:nonzero;stroke:none;stroke-width:1px;marker:none;enable-background:accumulate"
       d="m 842.55945,2966.8035 c 57.3052,17.7871 114.43744,34.6742 149.48328,-5.5841 -24.12635,56.7783 -126.22584,48.3612 -173.00855,34.6012 -39.73498,-11.6871 23.52527,-29.0171 23.52527,-29.0171 z"
       id="path4480"
       inkscape:connector-curvature="0"
       sodipodi:nodetypes="ccsc" />
    <path
       style="fill:#ffffff;stroke:none"
       d="m 654.52742,2758.8526 c -4.14136,57.1669 -81.95291,74.2662 -137.57411,75.5045 -94.49029,6.2705 -190.51285,1.1492 -283.21484,-15.2086 -59.95645,-14.5458 -90.6481,-87.342 -42.08866,-125.3753 50.02157,-29.8732 115.20374,-28.7665 173.58164,-35.5382 82.68356,-4.658 168.52245,-1.1401 246.64153,23.9189 34.86358,13.7956 47.58592,45.8336 42.65444,76.6987 z"
       id="path3100-2"
       inkscape:connector-curvature="0" />
    <path
       style="fill:#ffffff;stroke:none;stroke-width:0.90931034"
       d="m 249.59931,2634.1653 c -0.54314,-16.8815 16.98571,-63.5857 92.11477,-58.2124 75.12906,5.3735 98.31366,24.6033 99.95431,54.6302 2.59548,47.5016 -37.19921,59.0112 -94.06491,60.8606 -58.62238,1.9065 -94.79817,-14.5794 -98.00417,-57.2784 z"
       id="path3280"
       inkscape:connector-curvature="0"
       sodipodi:nodetypes="csssc" />
    <text
       xml:space="preserve"
       style="font-style:normal;font-variant:normal;font-weight:normal;font-stretch:normal;line-height:0%;font-family:Lavi;-inkscape-font-specification:Lavi;text-align:center;letter-spacing:0px;word-spacing:0px;text-anchor:middle;fill:#000000;fill-opacity:1;stroke:#000000;stroke-width:0.5;stroke-miterlimit:4;stroke-dasharray:none;stroke-opacity:1"
       x="333.31992"
       y="2645.6636"
       id="text4246-3"><tspan
         sodipodi:role="line"
         style="font-size:49.67481232px;line-height:1.25;stroke:#000000;stroke-width:0.5;stroke-miterlimit:4;stroke-dasharray:none;stroke-opacity:1"
         x="333.31992"
         y="2645.6636"
         id="tspan4167-3">coi do</tspan></text>
    <text
       xml:space="preserve"
       style="font-style:normal;font-variant:normal;font-weight:normal;font-stretch:normal;line-height:0%;font-family:Lavi;-inkscape-font-specification:Lavi;text-align:center;letter-spacing:0px;word-spacing:0px;text-anchor:middle;fill:#000000;fill-opacity:1;stroke:none"
       x="409.17966"
       y="2728.4468"
       id="text4246-5"><tspan
         sodipodi:role="line"
         style="font-size:45px;line-height:1.25"
         x="409.17966"
         y="2728.4468"
         id="tspan873">ko curmi le nu</tspan><tspan
         sodipodi:role="line"
         style="font-size:45px;line-height:1.25"
         x="409.17966"
         y="2784.6968"
         id="tspan845"
         dx="0 0 0 0 0 0 0 0 0 -8">mi do co'a slabu</tspan></text>
  </g>
  <g
     inkscape:groupmode="layer"
     id="layer1"
     inkscape:label="txt">
    <text
       xml:space="preserve"
       style="font-style:normal;font-variant:normal;font-weight:normal;font-stretch:normal;line-height:0%;font-family:Lavi;-inkscape-font-specification:Lavi;letter-spacing:0px;word-spacing:0px;fill:#000000;fill-opacity:1;stroke:#ffffff;stroke-width:2.24600291;stroke-miterlimit:4;stroke-dasharray:none;stroke-opacity:1;filter:url(#filter4375-4-1-1-1-9)"
       x="787.65729"
       y="1584.5073"
       id="text4580"
       transform="matrix(0.59080172,-0.79384316,0.23129973,1.313198,478.68923,-967.19282)"><tspan
         sodipodi:role="line"
         id="tspan4582"
         x="787.65729"
         y="1584.5073"
         style="font-size:70px;line-height:100%;letter-spacing:4.88345098px;fill:#ffffff;stroke:#ffffff;stroke-width:2.24600291;stroke-miterlimit:4;stroke-dasharray:none;stroke-opacity:1">.pum.</tspan></text>
    <text
       xml:space="preserve"
       style="font-style:normal;font-variant:normal;font-weight:normal;font-stretch:normal;line-height:0%;font-family:Lavi;-inkscape-font-specification:Lavi;text-align:center;letter-spacing:0px;word-spacing:0px;text-anchor:middle;fill:#000000;fill-opacity:1;stroke:none"
       x="617.54071"
       y="2865.5256"
       id="text4246"><tspan
         sodipodi:role="line"
         style="font-size:45px;line-height:1.25"
         x="617.54071"
         y="2865.5256"
         id="tspan459">.i mi se cmene</tspan><tspan
         sodipodi:role="line"
         style="font-size:45px;line-height:1.25"
         x="617.54071"
         y="2921.7756"
         id="tspan35">lu crida be lo nu snada</tspan><tspan
         sodipodi:role="line"
         style="font-size:45px;line-height:1.25"
         x="617.54071"
         y="2978.0256"
         id="tspan854"
         dx="0 0 0">.i bredi le ka selfu do vau</tspan><tspan
         sodipodi:role="line"
         style="font-size:45px;line-height:1.25"
         x="617.54071"
         y="3034.2756"
         id="tspan858"
         dx="0 0 0 -8">ze'a ro djedi ja cacra</tspan></text>
  </g>
</svg>
