<?xml version="1.0" encoding="UTF-8" standalone="no"?>
<svg
   xmlns:dc="http://purl.org/dc/elements/1.1/"
   xmlns:cc="http://creativecommons.org/ns#"
   xmlns:rdf="http://www.w3.org/1999/02/22-rdf-syntax-ns#"
   xmlns:svg="http://www.w3.org/2000/svg"
   xmlns="http://www.w3.org/2000/svg"
   xmlns:xlink="http://www.w3.org/1999/xlink"
   xmlns:sodipodi="http://sodipodi.sourceforge.net/DTD/sodipodi-0.dtd"
   xmlns:inkscape="http://www.inkscape.org/namespaces/inkscape"
   id="svg2"
   version="1.1"
   inkscape:version="1.0.2 (e86c870879, 2021-01-15)"
   width="2481"
   height="3503"
   sodipodi:docname="E32P02.svg">
  <metadata
     id="metadata8">
    <rdf:RDF>
      <cc:Work
         rdf:about="">
        <dc:format>image/svg+xml</dc:format>
        <dc:type
           rdf:resource="http://purl.org/dc/dcmitype/StillImage" />
        <dc:title />
      </cc:Work>
    </rdf:RDF>
  </metadata>
  <defs
     id="defs6" />
  <sodipodi:namedview
     pagecolor="#ffffff"
     bordercolor="#666666"
     borderopacity="1"
     objecttolerance="10"
     gridtolerance="10"
     guidetolerance="10"
     inkscape:pageopacity="0"
     inkscape:pageshadow="2"
     inkscape:window-width="1920"
     inkscape:window-height="1020"
     id="namedview4"
     showgrid="false"
     inkscape:zoom="0.44533031"
     inkscape:cx="970.59655"
     inkscape:cy="2411.851"
     inkscape:window-x="0"
     inkscape:window-y="0"
     inkscape:window-maximized="1"
     inkscape:current-layer="layer3"
     inkscape:snap-global="false"
     inkscape:document-rotation="0" />
  <g
     inkscape:groupmode="layer"
     id="layer2"
     inkscape:label="artwork"
     sodipodi:insensitive="true">
    <image
       sodipodi:absref="/media/twilight/Carlota/Proyectos/webcomics/ep32_The-Battlefield/lang/gfx_Pepper-and-Carrot_by-David-Revoy_E32P02.png"
       xlink:href="../gfx_Pepper-and-Carrot_by-David-Revoy_E32P02.png"
       y="0"
       x="0"
       id="image10"
       height="3503"
       width="2481" />
  </g>
  <g
     inkscape:groupmode="layer"
     id="layer3"
     inkscape:label="speechbubbles"
     style="display:inline">
    <path
       style="color:#000000;display:inline;overflow:visible;visibility:visible;fill:#ffffff;fill-opacity:1;fill-rule:nonzero;stroke:none;stroke-width:1.03461px;marker:none;enable-background:accumulate"
       d="m 303.68632,228.36879 c 4.2889,-13.02211 28.90241,-14.11411 37.9812,-11.46676 -18.35473,-14.5676 -17.7708,-23.61908 7.0258,-25.02398 -41.75179,-26.25509 -7.73521,-22.28209 -1.06916,-28.93966 -32.71521,-9.04803 -18.16766,-20.3079 -12.41825,-31.51735 -37.54434,-0.38559 -25.36368,-18.35373 -27.02985,-32.664737 -3.14325,6.715637 -18.14348,27.159357 -19.18654,4.396207 -24.70461,21.71744 -54.53178,35.74586 -57.12922,-2.2598 -9.89323,19.11935 -19.821,27.20033 -19.18661,4.3962 -24.61598,29.65919 -46.9554,18.98338 -69.41347,10.60026 -5.83315,8.95215 -6.43844,22.70459 -25.4986,19.4815 2.72179,8.87315 -3.67162,14.97271 -18.169571,18.59465 19.324981,5.35972 22.913091,10.88811 -12.875988,16.83789 27.263319,0.57578 52.690219,1.75458 20.827199,22.04436 10.03641,0.49124 33.74307,-16.43917 22.93396,33.10847 17.16045,-15.86184 35.51696,-24.61646 58.79635,8.60989 10.82783,-16.59904 29.72879,-24.81343 38.09399,-4.07954 2.91121,-8.83921 15.1779,-12.16309 25.60552,-12.56644 4.05388,3.5114 8.24166,8.28013 12.6193,14.52836 7.01827,-13.11924 17.57977,-21.97974 38.09394,-4.07952 z"
       id="path3549-3-7-5"
       inkscape:connector-curvature="0"
       sodipodi:nodetypes="cccccccccccccccccccc" />
    <path
       style="color:#000000;display:inline;overflow:visible;visibility:visible;fill:#ffffff;fill-opacity:1;fill-rule:nonzero;stroke:none;stroke-width:0.90038055px;marker:none;enable-background:accumulate"
       d="M 488.02539 117.04492 C 444.65894 118.43212 400.94733 126.55988 361.63127 145.41897 C 334.46505 159.40601 316.21734 187.93712 312.53188 218.00316 C 308.1285 246.23884 312.4116 276.39749 327.42265 301.00137 C 337.6468 314.84218 353.24253 322.96595 367.73569 331.5214 C 391.63202 345.82969 417.43073 358.14543 445.26395 362.07642 C 476.74163 367.27618 508.79881 366.09169 540.53323 364.66598 C 569.10692 362.5254 598.03082 355.6412 622.31319 339.89417 C 648.78602 323.10707 669.78325 296.7252 677.33398 266.03125 C 684.1057 239.06389 681.47315 209.13309 667.08984 185.00781 C 655.5035 165.85138 636.06472 152.7485 615.53147 144.71888 C 580.56021 130.50081 543.8185 119.2794 505.91276 117.257 C 499.95712 116.93986 493.98665 116.82992 488.02539 117.04492 z "
       id="path3970-3"
       inkscape:connector-curvature="0"
       sodipodi:nodetypes="cccscsc" />
    <path
       style="color:#000000;display:inline;overflow:visible;visibility:visible;fill:#ffffff;fill-opacity:1;fill-rule:nonzero;stroke:none;stroke-width:1px;marker:none;enable-background:accumulate"
       d="m 577.63531,468.51204 c 24.15675,-46.43871 15.15598,-67.79787 10.19676,-83.83511 -5.04081,0.18752 -14.08073,-1.23448 -14.08073,-1.23448 0,0 -7.00281,-32.37916 -13.50272,-43.8635 -6.49993,-11.48435 -19.9552,-4.33851 -19.9552,-4.33851 0,0 12.13026,63.2638 10.96525,77.57434 13.78917,-1.09946 20.70461,0.20644 25.45323,-2.31613 5.66701,8.19382 8.96155,41.29633 0.92341,58.01339 z"
       id="path4456-8"
       inkscape:connector-curvature="0" />
    <path
       style="color:#000000;display:inline;overflow:visible;visibility:visible;opacity:1;fill:#ffffff;fill-opacity:1;fill-rule:nonzero;stroke:none;stroke-width:0.800672px;marker:none;enable-background:accumulate"
       d="m 830.72272,619.2239 c 26.53663,-37.93386 186.84398,-49.84443 230.01488,11.1729 30.0859,42.52247 22.3103,109.48906 -7.3077,145.29562 -28.6999,34.69649 -150.28725,27.2072 -185.67225,16.39609 -31.82011,-9.72073 -65.21999,-30.64549 -66.9809,-86.33767 -0.71861,-22.72963 3.40934,-48.5931 29.94597,-86.52694 z"
       id="path4040-5"
       inkscape:connector-curvature="0"
       sodipodi:nodetypes="zssssz" />
    <path
       style="color:#000000;display:inline;overflow:visible;visibility:visible;fill:#ffffff;fill-opacity:1;fill-rule:nonzero;stroke:none;stroke-width:1px;marker:none;enable-background:accumulate"
       d="m 1172.2087,638.16525 c -22.426,10.78245 -21.9205,17.27525 -23.5228,31.76828 -1.6032,14.49315 -6.5002,31.6111 -27.1248,48.30404 -30.1996,17.58679 -94.1328,69.98654 -71.7029,5.83439 5.3345,-23.46958 48.5109,-22.99772 64.4153,-32.38817 15.9045,-9.39055 14.6245,-34.55514 25.6984,-44.48017 11.0738,-9.92492 18.2375,-9.80409 32.2368,-9.03837 z"
       id="path4538-0"
       inkscape:connector-curvature="0"
       sodipodi:nodetypes="ccccccc" />
    <path
       style="fill:#ffffff;stroke:none;stroke-width:1"
       d="m 756.05473,530.38172 c -8.49811,-38.80164 14.62297,-88.11058 118.3853,-88.14796 108.97067,-0.0389 129.09427,25.32295 130.34437,89.39769 1.5946,81.72984 -59.84346,84.82282 -124.19822,86.44662 -98.87092,2.49471 -123.99904,-30.03767 -124.53145,-87.69635 z"
       id="path3280-10"
       inkscape:connector-curvature="0"
       sodipodi:nodetypes="csssc" />
    <path
       style="display:inline;fill:#ffffff;fill-rule:evenodd;stroke:none;stroke-width:1px;stroke-linecap:butt;stroke-linejoin:miter;stroke-opacity:1"
       d="m 1429.8027,2558.7383 c 1.1434,83.556 -36.7936,98.1743 -103.3945,62.2285 20.3927,50.8236 44.1556,105.7613 -8.1094,67.8848 33.8277,46.1464 19.5346,57.7631 -28.3828,45.2558 42.5069,42.4785 18.6353,66.0928 -22.3008,84.8555 27.441,0.6495 49.7523,3.6856 66.6875,9.2207 -28.428,12.3695 -52.3396,11.9323 -52.3396,11.9323 0,0 27.3548,9.4949 39.7534,21.61 4.7218,8.6293 -1.1772,19.5993 -26.1846,2.4279 0,0 7.0745,10.8395 10.0571,16.8816 -7.9985,-1.392 -14.6267,-6.5084 -36.7706,-22.5706 25.3177,27.9782 37.8533,49.5137 1.5957,46.461 17.3253,20.7761 4.96,23.3642 -14.8868,21.3652 33.0219,15.2284 15.2075,17.3687 20.2247,22.7402 37.167,45.6384 -9.2653,28.0498 -25.2422,37.4766 81.5878,28.4818 53.117,40.1481 44.5566,54.8574 56.2569,-4.1188 -13.2526,49.8315 -31.4128,87.9182 42.8312,-34.7278 72.6377,-57.5369 55.0847,-10.0041 46.3778,-42.059 38.4046,-22.1564 25.4648,3.4082 26.6358,-22.9597 34.4251,-13.5217 11.3262,49.0117 34.528,-50.0042 68.1244,-96.7046 75.5137,-50.3144 38.7413,-23.0015 43.8334,-12.9656 47.4062,-1.4414 65.406,-24.759 48.4969,-4.4182 52.6758,4.3711 14.0937,-1.1098 31.0393,-15.4504 36.6738,22.6914 21.7205,-28.2308 47.7874,-38.275 86.5352,4.7304 15.0852,-46.7456 28.8113,-37.1935 53.123,21.3223 3.3968,-89.1587 40.9893,-102.7342 103.6602,-60.8731 -17.0421,-55.2759 -28.9133,-62.5172 19.7461,-19.3574 -30.3275,-51.0007 -15.8353,-62.6312 29.9746,-46.7539 -38.945,-47.5497 -14.5148,-71.4639 26.209,-89.3008 -21.0809,-1.7028 -38.9489,-4.8342 -53.4903,-9.4472 -0.8763,-2.69 6.1814,-10.5879 27.5888,-13.5832 -30.0305,0 -26.8763,-4.1096 -25.2958,-14.0612 2.3979,-9.9516 13.9011,-7.4757 50.4235,-0.9377 -21.3034,-14.4681 -62.0546,-30.8829 -17.1961,-33.9063 -23.437,-12.7672 -15.0264,-37.4375 39.1789,-5.5331 -27.4807,-24.8715 -41.4857,-44.3728 -4.0547,-43.3711 -18.8904,-18.5446 -6.3147,-21.5953 14.1914,-20.7402 -34.7377,-12.554 -16.5359,-15.4673 -21.9727,-20.2344 -40.5797,-40.7819 8.0661,-26.7052 24,-36.3379 -85.3518,-22.4665 -56.6913,-34.8334 -48.6562,-49.0273 -57.617,6.7273 29.8596,-74.4218 62.8476,-122.5704 -65.9476,65.1359 -106.8034,96.2647 -91.2304,50.9141 -45.489,41.7047 -38.3283,22.6848 -26.3555,-1.8848 -26.1875,22.8335 -34.6856,14.4049 -14.1914,-45.2578 -32.8945,48.5294 -65.004,93.9211 -75.0117,50.9141 -38.6297,23.4915 -44.3843,14.3665 -48.6563,3.7715 -65.949,26.498 -49.6241,6.6097 -54.3769,-1.3965 -14.4305,1.7582 -31.1058,16.037 -38.8809,-19.3457 -20.8606,27.512 -47.1353,38.2388 -89.2031,0 -13.0772,44.4881 -35.1274,24.2932 -66.9024,-66 z"
       id="path4508-2"
       inkscape:connector-curvature="0"
       sodipodi:nodetypes="ccccccccccccccccccccccccccccccccccccccccccccccccccc" />
    <path
       style="color:#000000;display:inline;overflow:visible;visibility:visible;fill:#ffffff;fill-opacity:1;fill-rule:nonzero;stroke:none;stroke-width:0.99999988px;marker:none;enable-background:accumulate"
       d="m 1159.215,2912.3636 c 24.9289,15.9696 53.0046,32.3355 73.7186,51.7212 l -4.4671,-22.5612 c 12.3017,3.6243 20.5576,9.2984 29.8695,16.4802 l 0.282,-14.4184 c 28.8782,8.8394 47.895,25.3613 71.6781,38.17 l -1.1627,-32.9839 c -26.1704,-10.6456 -58.8089,-18.5611 -82.5747,-33.2158 l 0.2558,18.7223 c -9.1838,-4.1156 -21.518,-9.7867 -29.518,-15.5652 l 2.2339,19.9359 z"
       id="path4032-7"
       inkscape:connector-curvature="0"
       sodipodi:nodetypes="cccccccccccc" />
    <path
       style="fill:#ffffff;fill-rule:evenodd;stroke:none;stroke-width:1px;stroke-linecap:butt;stroke-linejoin:miter;stroke-opacity:1"
       d="m 1753.7087,204.34351 c 1.185,-20.50278 15.4056,-58.09068 36.7365,-64.92493 21.3308,-6.83426 80.5831,-6.83426 92.4336,-3.41661 11.8505,3.41661 30.8112,28.4752 35.5515,38.72712 4.7402,10.25086 17.7757,46.69954 -3.5551,61.50728 -21.3309,14.80774 -42.6617,26.19782 -65.1777,25.0586 -22.5159,-1.13922 -67.5477,-9.1127 -78.2131,-22.78016 -10.6654,-13.66852 -17.7757,-34.1713 -17.7757,-34.1713 z"
       id="path1355"
       inkscape:connector-curvature="0" />
    <path
       style="fill:#ffffff;stroke:none"
       d="m 1847.3696,354.09054 c -13.8328,-28.3217 -7.9502,-36.13851 -0.501,-44.49778 7.4497,-8.36018 15.1632,-15.13458 14.5125,-22.36198 -0.6506,-7.22728 -5.6372,-15.60621 -10.1839,-21.34253 -4.5468,-5.73632 4.0413,-9.66514 7.9076,-16.31667 3.8657,-6.6508 10.7042,-47.80659 10.7042,-47.80659 0,0 -26.0852,17.5715 -32.236,25.43439 -6.1509,7.86277 -8.4405,10.70667 -10.0173,14.51431 -1.5759,3.80696 -4.0646,13.75357 -0.9533,20.82655 3.1118,7.07218 9.494,12.21912 13.0595,17.0376 3.5649,4.81933 -1.3116,12.15392 -5.5827,19.6909 -4.2712,7.53691 -6.1414,13.7099 -2.3508,27.83912 3.2494,12.11102 15.6412,26.98268 15.6412,26.98268 z"
       id="path3023-4"
       inkscape:connector-curvature="0"
       sodipodi:nodetypes="csssscssssssc" />
    <path
       style="color:#000000;display:inline;overflow:visible;visibility:visible;fill:#ffffff;fill-opacity:1;fill-rule:nonzero;stroke:none;stroke-width:1px;marker:none;enable-background:accumulate"
       d="m 1776.3464,1315.529 c 3.2527,-11.321 20.627,-46.387 25.7118,-9.291 37.4381,-49.672 83.6395,-32.169 93.8806,-24.931 -4.7258,-14.705 4.8022,-41.137 32.0153,-34.638 -5.1706,-14.206 2.6362,-24.873 22.022,-32.381 -27.4731,-6.646 -33.2796,-15.291 15.0553,-28.938 -37.6389,2.046 -72.8702,2.901 -32.2408,-33.757 -13.9008,0.297 -43.8343,30.571 -36.8893,-51.608 -21.0909,27.809 -44.9596,44.128 -82.345,-7.637 -7.5628,22.215 -20.6761,37.852 -51.7969,10.837 -3.8196,21.757 -37.5549,26.216 -50.4824,22.884 27.6128,21.802 28.2717,36.657 -5.6527,41.671 61.708,38.345 14.2263,35.6 6.113,47.213 46.5049,11.207 28.2717,31.183 22.1502,50.136 51.7672,-3.483 37.8708,27.229 42.4589,50.44 z"
       id="path3549-3-8"
       inkscape:connector-curvature="0"
       sodipodi:nodetypes="ccccccccccccccc" />
    <path
       style="color:#000000;display:inline;overflow:visible;visibility:visible;fill:#ffffff;fill-opacity:1;fill-rule:nonzero;stroke:none;stroke-width:1px;marker:none;enable-background:accumulate"
       d="m 1862.3291,1246.0499 c 14.3861,24.2296 28.6134,53.9163 31.3484,61.3263 -9.104,1.8541 -16.3446,4.7584 -22.9617,5.3139 6.2417,13.3724 31.8119,68.3466 45.0873,79.3414 -33.7825,-25.8525 -61.563,-70.2493 -70.1237,-92.8544 8.499,-2.3387 14.007,-2.5569 18.4447,-3.9047 -3.7254,-11.4708 -23.6989,-46.1206 -23.6989,-46.1206 z"
       id="path5066-8"
       inkscape:connector-curvature="0"
       sodipodi:nodetypes="cccccccc" />
    <path
       style="fill:#ffffff;stroke:none;stroke-width:0.99999988"
       d="m 585.04713,1483.669 c -1.37338,-27.1718 23.25103,-95.1953 143.36788,-90.0791 120.11691,5.1162 157.71158,35.0056 161.23156,83.3044 5.56834,76.4076 -57.625,96.826 -148.365,102.4861 -93.54306,5.8339 -157.68622,-46.6144 -156.23444,-95.7114 z"
       id="path3280-7"
       inkscape:connector-curvature="0"
       sodipodi:nodetypes="csssc" />
    <path
       style="color:#000000;display:inline;overflow:visible;visibility:visible;fill:#ffffff;fill-opacity:1;fill-rule:nonzero;stroke:none;stroke-width:1px;marker:none;enable-background:accumulate"
       d="m 869.08895,1636.9955 c -67.24677,1.2844 -93.00504,-48.0053 -100.0269,-87.4546 -9.92573,-55.7646 -2.09042,-31.0329 -2.09042,-31.0329 l -33.99104,26.0816 c -4.43616,0.2077 36.58553,127.7062 136.10836,92.4059 z"
       id="path3072-12"
       inkscape:connector-curvature="0"
       sodipodi:nodetypes="csccc" />
    <path
       style="fill:#ffffff;fill-rule:evenodd;stroke:none;stroke-width:1px;stroke-linecap:butt;stroke-linejoin:miter;stroke-opacity:1"
       d="m 542.83913,1378.9971 c 1.0808,-19.455 14.0506,-55.122 33.5054,-61.607 19.4547,-6.485 73.4956,-6.485 84.3038,-3.242 10.8082,3.242 28.1013,27.02 32.4246,36.748 4.3233,9.727 16.2123,44.313 -3.2424,58.364 -19.4548,14.051 -38.9095,24.859 -59.4451,23.778 -20.5356,-1.081 -61.6067,-8.647 -71.334,-21.616 -9.7274,-12.97 -16.2123,-32.425 -16.2123,-32.425 z"
       id="path1355-3"
       inkscape:connector-curvature="0" />
  </g>
  <g
     inkscape:groupmode="layer"
     id="layer1"
     inkscape:label="txt">
    <text
       xml:space="preserve"
       style="font-style:normal;font-variant:normal;font-weight:normal;font-stretch:normal;line-height:0%;font-family:Lavi;-inkscape-font-specification:Lavi;text-align:center;letter-spacing:0px;word-spacing:0px;text-anchor:middle;fill:#000000;fill-opacity:1;stroke:none"
       x="229.87317"
       y="184.54718"
       id="text4246-3-3"><tspan
         sodipodi:role="line"
         style="font-style:normal;font-variant:normal;font-weight:bold;font-stretch:normal;font-size:45px;line-height:1.25;font-family:Lavi;-inkscape-font-specification:'Lavi Bold'"
         x="229.87317"
         y="184.54718"
         id="tspan67">¡Capitán!</tspan><tspan
         sodipodi:role="line"
         x="229.87317"
         y="203.05417"
         id="tspan852"
         style="font-style:normal;font-variant:normal;font-weight:bold;font-stretch:normal;font-size:45px;line-height:1.25;font-family:Lavi;-inkscape-font-specification:'Lavi Bold'" /></text>
    <text
       xml:space="preserve"
       style="font-style:normal;font-variant:normal;font-weight:normal;font-stretch:normal;line-height:0%;font-family:Lavi;-inkscape-font-specification:Lavi;text-align:center;letter-spacing:0px;word-spacing:0px;text-anchor:middle;fill:#000000;fill-opacity:1;stroke:none"
       x="498.49622"
       y="206.7603"
       id="text4246-3-5-9"><tspan
         sodipodi:role="line"
         style="font-size:45px;line-height:1.25"
         x="498.49622"
         y="206.7603"
         id="tspan75">¿Conseguiste</tspan><tspan
         sodipodi:role="line"
         style="font-size:45px;line-height:1.25"
         x="498.49622"
         y="263.01028"
         id="tspan866"> la bruja que</tspan><tspan
         sodipodi:role="line"
         style="font-size:45px;line-height:1.25"
         x="498.49622"
         y="319.26028"
         id="tspan868"> te pedí?</tspan></text>
    <text
       xml:space="preserve"
       style="font-style:normal;font-variant:normal;font-weight:normal;font-stretch:normal;line-height:0%;font-family:Lavi;-inkscape-font-specification:Lavi;text-align:center;letter-spacing:0px;word-spacing:0px;text-anchor:middle;fill:#000000;fill-opacity:1;stroke:none"
       x="883.4093"
       y="509.67288"
       id="text4246-1-6"><tspan
         sodipodi:role="line"
         style="font-style:normal;font-variant:normal;font-weight:normal;font-stretch:normal;font-size:45px;line-height:1.25;font-family:Lavi;-inkscape-font-specification:Lavi"
         x="890.44055"
         y="509.67288"
         id="tspan71">¡Sí, </tspan><tspan
         sodipodi:role="line"
         style="font-style:normal;font-variant:normal;font-weight:normal;font-stretch:normal;font-size:45px;line-height:1.25;font-family:Lavi;-inkscape-font-specification:Lavi"
         x="883.4093"
         y="565.92291"
         id="tspan915">mi señor!</tspan></text>
    <text
       xml:space="preserve"
       style="font-style:normal;font-variant:normal;font-weight:normal;font-stretch:normal;line-height:0%;font-family:Lavi;-inkscape-font-specification:Lavi;text-align:center;letter-spacing:0px;word-spacing:0px;text-anchor:middle;display:inline;fill:#000000;fill-opacity:1;stroke:none"
       x="945.81696"
       y="664.9931"
       id="text4246-7-6-1-7-6-3-5"><tspan
         sodipodi:role="line"
         style="font-size:45px;line-height:1.25"
         x="952.84821"
         y="664.9931"
         id="tspan960">Está justo </tspan><tspan
         sodipodi:role="line"
         style="font-size:45px;line-height:1.25"
         x="952.84821"
         y="721.2431"
         id="tspan929">al lado </tspan><tspan
         sodipodi:role="line"
         style="font-size:45px;line-height:1.25"
         x="945.81696"
         y="777.4931"
         id="tspan931">suyo.</tspan></text>
    <text
       xml:space="preserve"
       style="font-style:normal;font-variant:normal;font-weight:normal;font-stretch:normal;font-size:15.90748692px;line-height:0%;font-family:Lavi;-inkscape-font-specification:Lavi;text-align:center;letter-spacing:0px;word-spacing:0px;text-anchor:middle;fill:#000000;fill-opacity:1;stroke:none;stroke-width:0.99999988"
       x="1859.6963"
       y="214.15907"
       id="text4246-86-3-3"
       transform="scale(0.98795945,1.0121873)"><tspan
         sodipodi:role="line"
         style="font-size:59.65306854px;line-height:1.20000005;stroke-width:0.99999988"
         x="1859.6963"
         y="214.15907"
         id="tspan1044-3"><tspan
           style="font-style:normal;font-variant:normal;font-weight:bold;font-stretch:normal;font-family:Lavi;-inkscape-font-specification:'Lavi Bold';stroke-width:0.99999988"
           id="tspan1046-9">…?</tspan></tspan></text>
    <text
       xml:space="preserve"
       style="font-style:normal;font-variant:normal;font-weight:normal;font-stretch:normal;line-height:0%;font-family:Lavi;-inkscape-font-specification:Lavi;text-align:center;letter-spacing:0px;word-spacing:0px;text-anchor:middle;fill:#000000;fill-opacity:1;stroke:none"
       x="622.40643"
       y="1389.9771"
       id="text4246-3-7-7-6-7-2-9-6-1-4"><tspan
         sodipodi:role="line"
         style="font-size:45px;line-height:1.20000005"
         x="622.40643"
         y="1389.9771"
         id="tspan1183-0">¡Hola!</tspan></text>
    <text
       xml:space="preserve"
       style="font-style:normal;font-variant:normal;font-weight:normal;font-stretch:normal;line-height:0%;font-family:Lavi;-inkscape-font-specification:Lavi;text-align:center;letter-spacing:0px;word-spacing:0px;text-anchor:middle;fill:#000000;fill-opacity:1;stroke:none"
       x="736.13556"
       y="1470.2469"
       id="text4246-7-5"><tspan
         sodipodi:role="line"
         style="font-size:45px;line-height:1.25"
         x="736.13556"
         y="1470.2469"
         id="tspan4169-1">Mi nombre </tspan><tspan
         sodipodi:role="line"
         style="font-size:45px;line-height:1.25"
         x="736.13556"
         y="1526.4969"
         id="tspan1089">es Pepp…</tspan></text>
    <text
       xml:space="preserve"
       style="font-style:normal;font-variant:normal;font-weight:normal;font-stretch:normal;line-height:0%;font-family:Lavi;-inkscape-font-specification:Lavi;text-align:center;letter-spacing:0px;word-spacing:0px;text-anchor:middle;display:inline;fill:#000000;fill-opacity:1;stroke:none"
       x="2271.7188"
       y="1112.7358"
       id="text4246-2-3-1-3-9-9-7"
       transform="matrix(0.89365154,0,-0.19329856,1.1190044,0,0)"><tspan
         sodipodi:role="line"
         style="font-size:104.29582214px;line-height:1.25;letter-spacing:-5px"
         x="2269.2188"
         y="1112.7358"
         id="tspan4161-6">?!!</tspan></text>
    <text
       xml:space="preserve"
       style="font-style:normal;font-variant:normal;font-weight:normal;font-stretch:normal;font-size:25px;line-height:0%;font-family:Lavi;-inkscape-font-specification:Lavi;text-align:center;letter-spacing:29.10897446px;word-spacing:0px;text-anchor:middle;fill:#000000;fill-opacity:1;stroke:none;stroke-width:1"
       x="2299.6943"
       y="2623.665"
       id="text4246-6-6-3-6"
       transform="matrix(0.94427779,0,-0.21829887,1.0590104,0,0)"><tspan
         sodipodi:role="line"
         style="font-style:normal;font-variant:normal;font-weight:bold;font-stretch:normal;font-size:107.74396515px;line-height:1.20000005;font-family:Lavi;-inkscape-font-specification:'Lavi Bold';letter-spacing:4px;stroke-width:1"
         x="2301.6943"
         y="2623.665"
         id="tspan4252-00-4-7-3">¡¡¡TONTO!!!</tspan></text>
    <text
       xml:space="preserve"
       style="font-style:normal;font-variant:normal;font-weight:normal;font-stretch:normal;font-size:14.11471462px;line-height:0%;font-family:Lavi;-inkscape-font-specification:Lavi;text-align:center;letter-spacing:14.30004215px;word-spacing:0px;text-anchor:middle;fill:#000000;fill-opacity:1;stroke:none;stroke-width:1"
       x="1660.5546"
       y="2714.4756"
       id="text4246-6-3"
       transform="scale(0.94973823,1.0529217)"><tspan
         sodipodi:role="line"
         style="font-style:normal;font-variant:normal;font-weight:bold;font-stretch:normal;font-size:52.9301796px;line-height:1.20000005;font-family:Lavi;-inkscape-font-specification:'Lavi Bold';letter-spacing:0.90000004px;stroke-width:1"
         x="1661.0045"
         y="2714.4756"
         id="tspan4252-00">¿¡Que es esto!?</tspan><tspan
         sodipodi:role="line"
         style="font-style:normal;font-variant:normal;font-weight:bold;font-stretch:normal;font-size:52.9301796px;line-height:1.20000005;font-family:Lavi;-inkscape-font-specification:'Lavi Bold';letter-spacing:0.90000004px;stroke-width:1"
         x="1661.0045"
         y="2777.9917"
         id="tspan59">¡¡Te pedí una</tspan><tspan
         sodipodi:role="line"
         style="font-style:normal;font-variant:normal;font-weight:bold;font-stretch:normal;font-size:52.9301796px;line-height:1.20000005;font-family:Lavi;-inkscape-font-specification:'Lavi Bold';letter-spacing:0.90000004px;stroke-width:1"
         x="1661.0045"
         y="2841.5081"
         id="tspan61">bruja de guerra,</tspan><tspan
         sodipodi:role="line"
         style="font-style:normal;font-variant:normal;font-weight:bold;font-stretch:normal;font-size:52.9301796px;line-height:1.20000005;font-family:Lavi;-inkscape-font-specification:'Lavi Bold';letter-spacing:0.90000004px;stroke-width:1"
         x="1661.0045"
         y="2905.0242"
         id="tspan63">no una niña!!</tspan><tspan
         sodipodi:role="line"
         x="1660.5546"
         y="2925.6294"
         id="tspan1117"
         style="font-style:normal;font-variant:normal;font-weight:bold;font-stretch:normal;font-size:52.9301796px;line-height:1.20000005;font-family:Lavi;-inkscape-font-specification:'Lavi Bold';letter-spacing:0.90000004px;stroke-width:1" /></text>
    <text
       xml:space="preserve"
       style="font-style:normal;font-variant:normal;font-weight:normal;font-stretch:normal;font-size:14.11471462px;line-height:0%;font-family:Lavi;-inkscape-font-specification:Lavi;text-align:center;letter-spacing:14.30004215px;word-spacing:0px;text-anchor:middle;fill:#000000;fill-opacity:1;stroke:none;stroke-width:1"
       x="1640.3445"
       y="2842.5552"
       id="text4246-6-3-4"
       transform="scale(0.94973823,1.0529217)"><tspan
         sodipodi:role="line"
         x="1640.3445"
         y="2846.6108"
         id="tspan1142"
         style="font-style:normal;font-variant:normal;font-weight:bold;font-stretch:normal;font-size:52.9301796px;line-height:1.20000005;font-family:Lavi;-inkscape-font-specification:'Lavi Bold';letter-spacing:0.90000004px;stroke-width:1" /></text>
  </g>
</svg>
