<?xml version="1.0" encoding="UTF-8" standalone="no"?>
<svg
   xmlns:dc="http://purl.org/dc/elements/1.1/"
   xmlns:cc="http://creativecommons.org/ns#"
   xmlns:rdf="http://www.w3.org/1999/02/22-rdf-syntax-ns#"
   xmlns:svg="http://www.w3.org/2000/svg"
   xmlns="http://www.w3.org/2000/svg"
   xmlns:xlink="http://www.w3.org/1999/xlink"
   xmlns:sodipodi="http://sodipodi.sourceforge.net/DTD/sodipodi-0.dtd"
   xmlns:inkscape="http://www.inkscape.org/namespaces/inkscape"
   sodipodi:docname="E36P04.svg"
   height="3503"
   width="2481"
   inkscape:version="1.0 (4035a4fb49, 2020-05-01)"
   version="1.1"
   id="svg2">
  <metadata
     id="metadata8">
    <rdf:RDF>
      <cc:Work
         rdf:about="">
        <dc:format>image/svg+xml</dc:format>
        <dc:type
           rdf:resource="http://purl.org/dc/dcmitype/StillImage" />
        <dc:title />
      </cc:Work>
    </rdf:RDF>
  </metadata>
  <defs
     id="defs6">
    <filter
       height="1.0078095"
       width="1.0133605"
       y="-0.0039047552"
       x="-0.0066802343"
       id="filter827"
       style="color-interpolation-filters:sRGB"
       inkscape:collect="always">
      <feGaussianBlur
         id="feGaussianBlur829"
         stdDeviation="5.1724067"
         inkscape:collect="always" />
    </filter>
    <filter
       height="1.0307353"
       width="1.0081459"
       y="-0.015367663"
       x="-0.0040729675"
       inkscape:label="deevad outline effect"
       id="filter5561-1"
       style="color-interpolation-filters:sRGB">
      <feFlood
         result="flood"
         flood-color="rgb(0,0,0)"
         flood-opacity="1"
         id="feFlood5563-9" />
      <feComposite
         result="composite1"
         operator="in"
         in="flood"
         in2="SourceGraphic"
         id="feComposite5565-0" />
      <feMorphology
         result="result3"
         radius="1.8999999999999999 6.0999999999999996"
         operator="dilate"
         id="feMorphology5567-7" />
      <feComposite
         result="composite2"
         operator="over"
         in="SourceGraphic"
         in2="result3"
         id="feComposite5569-2" />
    </filter>
  </defs>
  <sodipodi:namedview
     inkscape:document-rotation="0"
     inkscape:snap-global="false"
     inkscape:pagecheckerboard="0"
     inkscape:current-layer="layer1"
     inkscape:window-maximized="1"
     inkscape:window-y="-8"
     inkscape:window-x="-8"
     inkscape:cy="2786.9564"
     inkscape:cx="1274.9701"
     inkscape:zoom="0.46000002"
     showgrid="false"
     id="namedview4"
     inkscape:window-height="715"
     inkscape:window-width="1366"
     inkscape:pageshadow="2"
     inkscape:pageopacity="0"
     guidetolerance="10"
     gridtolerance="10"
     objecttolerance="10"
     borderopacity="1"
     bordercolor="#111111"
     pagecolor="#1e1e1e" />
  <g
     sodipodi:insensitive="true"
     inkscape:label="artwork"
     id="layer2"
     inkscape:groupmode="layer">
    <image
       sodipodi:absref="D:\Pepper&amp;Carrot translation\ep36_the-suprise-attack\lang\gfx_Pepper-and-Carrot_by-David-Revoy_E36P04.png"
       xlink:href="../gfx_Pepper-and-Carrot_by-David-Revoy_E36P04.png"
       y="0"
       x="0"
       id="image10"
       height="3503"
       width="2481" />
  </g>
  <g
     style="display:inline;opacity:0.7;mix-blend-mode:screen;filter:url(#filter827)"
     inkscape:label="speechbubbles-whisper"
     id="layer4"
     inkscape:groupmode="layer">
    <path
       inkscape:connector-curvature="0"
       id="path3274"
       d="m 134.12401,262.63919 c 7.57407,-61.3595 79.18346,-131.78979 247.19011,-121.65178 168.00665,10.13746 232.04196,53.88933 227.22211,137.65856 -4.81987,83.76917 -95.70871,116.31641 -236.86184,111.51435 C 230.52128,385.35829 125.8614,351.21036 134.12401,262.63919 Z"
       style="fill:#cdf0ff;fill-opacity:1;stroke:none;stroke-width:0.621584" />
    <path
       sodipodi:nodetypes="ccsc"
       inkscape:connector-curvature="0"
       id="path5010-4"
       d="m 242.60168,349.60676 c -56.00074,50.85065 -65.64194,103.14191 -28.27365,140.37761 -72.25173,-48.27906 -39.24342,-137.06385 -13.64787,-157.65108 25.06142,-20.15755 41.92152,17.27347 41.92152,17.27347 z"
       style="color:#000000;display:inline;overflow:visible;visibility:visible;fill:#cdf0ff;fill-opacity:1;fill-rule:nonzero;stroke:none;stroke-width:1.2829px;marker:none;enable-background:accumulate" />
    <path
       sodipodi:nodetypes="csssc"
       inkscape:connector-curvature="0"
       id="path3280-10"
       d="m 123.9912,1018.0745 c -0.5816,-43.01769 12.13659,-79.80065 146.25945,-79.8345 140.85516,-0.0353 168.96982,22.93266 175.35052,80.9663 9.00438,81.8973 -70.70911,78.0856 -153.90397,78.2937 -116.53812,0.2905 -160.25369,0.3596 -167.706,-79.4255 z"
       style="fill:#cdf0ff;fill-opacity:1;stroke:none;stroke-width:0.756165" />
    <path
       sodipodi:nodetypes="csssc"
       inkscape:connector-curvature="0"
       id="path3280-10-9"
       d="m 435.14253,1139.5355 c -0.4763,-45.3262 9.93922,-84.083 119.77867,-84.1187 115.35284,-0.037 138.37724,24.1633 143.60269,85.3112 7.37411,86.2921 -57.90698,82.2759 -126.03912,82.4951 -95.43848,0.3061 -131.2392,0.3789 -137.34224,-83.6876 z"
       style="opacity:1;fill:#cdf0ff;stroke:none;stroke-width:0.702417;fill-opacity:1" />
    <path
       sodipodi:nodetypes="csssc"
       inkscape:connector-curvature="0"
       id="path3280-1"
       d="m 418.80584,1047.725 c 1.8259,-28.5636 11.25884,-52.9867 91.14989,-53.0095 83.90114,-0.027 99.48767,15.2275 100.35756,53.7611 1.22784,54.3791 -46.06047,51.8485 -95.62547,51.9869 -69.4297,0.1929 -95.47205,0.2384 -95.88198,-52.7385 z"
       style="fill:#cdf0ff;fill-opacity:1;stroke:none;stroke-width:0.9001" />
    <path
       style="display:inline;fill:#cdf0ff;fill-rule:evenodd;stroke:none;stroke-width:0.863514px;stroke-linecap:butt;stroke-linejoin:miter;stroke-opacity:1;fill-opacity:1"
       d="m 298.8264,1007.8278 c -1.05852,1.1484 -2.23987,0.5097 -1.98486,-0.6816 0.46134,-10.29186 -2.14669,-20.41664 -9.6319,-26.29325 -10.13751,-7.29069 -22.77075,-12.21022 -29.84045,-22.59504 -5.75745,-8.74427 -5.01971,-21.18698 -1.49413,-32.91007 4.31252,-14.84587 13.38648,-30.0739 26.78068,-41.34485 6.19451,-5.09695 13.0206,-9.28731 19.6858,-13.63981 1.70647,-1.09332 3.42181,-2.16912 5.1321,-3.25498 -15.98365,14.17836 -28.18362,32.92468 -31.66564,51.29818 -0.83521,11.52515 5.1122,20.58777 12.46283,27.38858 8.74595,8.67863 19.87856,15.63077 24.72663,27.4867 2.05504,6.07335 3.77199,13.18731 -0.0119,20.5838 -3.32768,5.64168 -9.09749,9.69894 -14.15911,13.96234 z"
       id="path1082-6"
       inkscape:connector-curvature="0" />
    <path
       sodipodi:nodetypes="csssc"
       inkscape:connector-curvature="0"
       id="path3280-8-90"
       d="m 1648.5524,214.95544 c -1.1218,-26.88596 18.992,-94.19206 117.1062,-89.12977 98.1142,5.06229 128.8224,34.63624 131.6976,82.42581 4.5483,75.60259 -47.0694,95.80665 -121.1879,101.40614 -76.4081,5.77287 -128.8017,-46.12286 -127.6159,-94.70218 z"
       style="fill:#cdf0ff;fill-opacity:1;stroke:none;stroke-width:0.874781" />
    <path
       sodipodi:nodetypes="ccccc"
       inkscape:transform-center-y="26.227202"
       inkscape:transform-center-x="-4.9958775"
       inkscape:connector-curvature="0"
       id="path3072-5"
       d="m 1919.0381,436.75748 c -46.1767,7.90205 -92.9576,-47.05578 -88.8324,-112.54776 3.657,-73.69663 3.0894,-80.88495 3.0894,-80.88495 l -54.9358,5.52485 c 0,0 25.8928,219.92306 140.6788,187.90786 z"
       style="color:#000000;display:inline;overflow:visible;visibility:visible;fill:#cdf0ff;fill-opacity:1;fill-rule:nonzero;stroke:none;stroke-width:1.45931px;marker:none;enable-background:accumulate" />
    <path
       sodipodi:nodetypes="csssc"
       inkscape:connector-curvature="0"
       id="path5026-3"
       d="m 1618.1099,1155.6744 c 0.9145,-55.4749 18.7278,-107.9364 176.6399,-106.1209 118.4032,1.3605 149.9346,44.1029 152.5579,100.1767 1.8488,39.5168 -62.2081,76.0945 -163.9369,74.1563 -97.2331,-1.8521 -158.1501,-25.906 -165.2609,-68.2121 z"
       style="color:#000000;display:inline;overflow:visible;visibility:visible;fill:#cdf0ff;fill-opacity:1;fill-rule:nonzero;stroke:none;stroke-width:1.22256px;marker:none;enable-background:accumulate" />
    <path
       sodipodi:nodetypes="ccscc"
       inkscape:connector-curvature="0"
       id="path4248"
       d="m 1876.9024,1072.4564 c 28.2335,-6.4279 93.4241,-58.729 105.0673,-115.8066 2.8219,25.56546 -15.0538,86.6026 -55.5282,133.1516 -63.168,72.6485 -68.303,-6.7555 -68.303,-6.7555 z"
       style="fill:#cdf0ff;fill-rule:evenodd;stroke:none;stroke-width:1.78217px;stroke-linecap:butt;stroke-linejoin:miter;stroke-opacity:1;fill-opacity:1" />
    <path
       sodipodi:nodetypes="sssssss"
       inkscape:connector-curvature="0"
       id="path4246"
       d="m 1099.1618,1776.7471 c 55.0256,-61.1088 172.3793,-55.1886 263.4952,-57.5408 133.1051,-2.8813 261.657,-18.8674 380.1586,24.9481 37.278,13.7833 49.5467,126.7179 -40.0173,131.0907 -118.7218,11.5783 -239.5241,12.2266 -359.3327,11.5134 -71.1739,-3.5774 -149.8532,-5.9486 -210.2451,-33.9782 -29.0631,-19.274 -42.7255,-48.9447 -34.0587,-76.0332 z"
       style="fill:#cdf0ff;fill-opacity:1;fill-rule:evenodd;stroke:none;stroke-width:1.04679px;stroke-linecap:butt;stroke-linejoin:miter;stroke-opacity:1" />
    <path
       sodipodi:nodetypes="csssc"
       inkscape:connector-curvature="0"
       id="path3280-10-5"
       d="m 1446.0361,1974.6235 c -32.5099,0.4022 -65.626,2.6502 -96.1948,12.1533 -18.2978,5.893 -35.1539,16.3888 -43.4523,31.0408 -10.9518,18.7127 -11.3817,40.4901 -5.0186,60.2712 5.2574,16.1889 17.6207,31.0391 35.1806,40.2469 21.1334,11.7498 46.98,16.9804 72.4571,17.5699 27.1493,1.0082 54.3292,0.063 81.4922,0.3048 27.2079,-0.065 54.8993,-0.3156 81.2415,-6.4156 23.219,-5.8719 43.1252,-20.1334 52.0773,-38.3863 6.7927,-13.1466 8.2358,-27.6447 7.0042,-41.7235 -0.9745,-13.7341 -3.648,-27.9581 -12.7799,-39.8715 -7.0011,-9.1362 -17.6995,-16.2255 -29.8487,-20.6019 -22.343,-8.4835 -47.226,-10.9373 -71.5555,-12.8933 -23.4672,-1.7129 -47.0581,-1.8051 -70.6031,-1.6948 z"
       style="fill:#cdf0ff;fill-opacity:1;stroke:none;stroke-width:0.778185" />
    <path
       id="path98507"
       d="m 1452.8701,2063.1977 c 20.0222,-118.9472 -38.8836,-176.8263 -112.6674,-203.8912 -73.7839,-27.0648 -408.44801,-122.5007 -586.75006,31.3 164.14364,-172.6923 505.87416,-84.1291 578.34696,-59.2455 72.4727,24.8835 165.149,62.928 159.016,232.4228 -6.133,169.4949 -37.9455,-0.5861 -37.9455,-0.5861 z"
       style="fill:#cdf0ff;fill-rule:evenodd;stroke:none;stroke-width:0.982814px;stroke-linecap:butt;stroke-linejoin:miter;stroke-opacity:1;fill-opacity:1" />
    <path
       sodipodi:nodetypes="zsssssz"
       inkscape:connector-curvature="0"
       id="path3330-0"
       d="m 470.03846,2940.8547 c 24.56093,-36.8211 160.75651,-31.1896 203.11889,-21.7058 46.23086,10.3497 60.46466,25.0144 62.53193,57.1557 0.63857,9.9277 -3.10093,54.9473 -25.84151,63.8101 -22.74053,8.8622 -87.8611,13.2936 -110.60169,13.2936 -22.74052,0 -95.33332,-5.6406 -113.70286,-18.6115 -17.57221,-12.407 -40.06575,-57.1216 -15.50476,-93.9421 z"
       style="color:#000000;display:inline;overflow:visible;visibility:visible;fill:#cdf0ff;fill-opacity:1;fill-rule:nonzero;stroke:none;stroke-width:0.623202px;marker:none;enable-background:accumulate" />
    <path
       sodipodi:nodetypes="cssssc"
       inkscape:connector-curvature="0"
       id="path4546-6-5-3"
       d="m 684.39526,3091.2782 c -1.4307,-95.9836 61.20566,-154.4483 233.08799,-138.5605 89.16155,8.2417 197.63835,17.7114 182.90945,161.8172 -12.9815,127.0102 -158.61354,108.2038 -188.06533,109.7026 -29.45222,1.4987 -181.98776,-5.7242 -207.44384,-50.5258 -15.93479,-28.0456 -21.76874,-55.4553 -20.48827,-82.4335 z"
       style="color:#000000;display:inline;overflow:visible;visibility:visible;fill:#cdf0ff;fill-opacity:1;fill-rule:nonzero;stroke:none;stroke-width:1.18888px;marker:none;enable-background:accumulate" />
    <path
       sodipodi:nodetypes="cssssc"
       inkscape:connector-curvature="0"
       id="path4546-1"
       d="m 1200.2241,3072.9465 c -23.3864,0.4206 -47.0205,0.5141 -69.9672,6.5188 -19.7589,5.1101 -38.7529,15.1587 -54.3702,30.4503 -9.5575,9.3 -18.0401,20.4277 -23.5629,33.605 -6.3785,14.8923 -9.5433,32.0264 -7.5722,48.6561 2.0899,14.1237 9.3055,26.096 16.3279,37.4214 7.7273,12.5019 17.1386,23.9802 28.9258,31.1088 17.7887,11.2801 37.8775,15.904 57.6667,19.3582 34.6839,6.1939 69.8133,9.754 104.9093,8.343 29.5875,-1.5584 59.4186,-5.4778 87.6009,-16.7179 15.4537,-6.3193 30.7143,-14.982 42.3335,-28.8704 9.8981,-11.8314 16.8505,-27.1728 19.1072,-43.6306 3.7628,-23.1537 0.6066,-48.3793 -10.8044,-68.0346 -11.0444,-19.156 -28.2711,-32.46 -46.7663,-39.586 -19.5407,-7.7566 -40.1561,-10.4728 -60.5581,-13.0402 -21.7313,-2.4213 -43.523,-4.0675 -65.3256,-5.263 -5.979,-0.2392 -11.9621,-0.328 -17.9444,-0.3189 z"
       style="color:#000000;display:inline;overflow:visible;visibility:visible;fill:#cdf0ff;fill-opacity:1;fill-rule:nonzero;stroke:none;stroke-width:0.872831px;marker:none;enable-background:accumulate" />
    <path
       sodipodi:nodetypes="cscc"
       inkscape:connector-curvature="0"
       id="path914"
       d="m 1485.2712,3247.2085 c -50.4862,11.4936 -118.5889,-1.8333 -151.4166,-46.2885 -32.8277,-44.4549 -2.6699,31.9178 -2.6699,31.9178 0,0 59.9464,55.1538 154.0865,14.3707 z"
       style="fill:#cdf0ff;fill-rule:evenodd;stroke:none;stroke-width:0.8628px;stroke-linecap:butt;stroke-linejoin:miter;stroke-opacity:1;fill-opacity:1" />
  </g>
  <g
     style="display:inline"
     inkscape:label="speechbubbles"
     id="layer3"
     inkscape:groupmode="layer">
    <path
       sodipodi:nodetypes="ccccccccccccccccccc"
       inkscape:connector-curvature="0"
       id="path3549-3-7-3"
       d="m 1257.935,1916.79 c -18.9485,13.729 -18.2881,22.2591 7.439,23.5835 -43.1447,24.7437 -7.8873,20.9995 -0.9332,27.2737 -33.8765,8.5275 -21.3092,19.6601 -12.6885,29.704 -42.1154,-16.2682 -27.7586,6.1339 -24.8515,20.7092 -11.8143,-9.8963 -30.9848,-19.7481 -22.9114,5.932 -25.7549,-20.467 -47.9262,-38.8367 -50.3894,-3.0184 -10.377,-18.0193 -36.8482,-21.3996 -36.0516,0.092 -21.402,-25.3028 -43.4646,-26.7823 -64.7833,-9.0768 0.7313,-11.3625 25.1813,-35.0922 -26.5648,-18.3608 21.2092,-15.8217 6.0255,-18.1254 -18.9581,-17.5242 20.011,-5.0513 23.6989,-10.2617 -13.45677,-15.8687 28.27337,-0.5427 54.63827,-1.6541 21.46757,-20.7759 10.4066,-0.4632 58.4658,15.3065 10.5872,-44.3656 17.8948,14.9491 52.4898,24.5281 47.3151,-8.6629 28.6587,27.3868 41.0685,13.7711 49.6189,-5.7696 20.1907,28.718 29.8395,23.0011 50.0885,2.0703 1.5387,13.2814 24.2569,30.3795 50.3608,12.8593 -14.218,21.0674 11.1217,26.7445 34.7115,21.1989 z"
       style="color:#000000;display:inline;overflow:visible;visibility:visible;fill:#ffffff;fill-opacity:1;fill-rule:nonzero;stroke:none;stroke-width:0.76825px;marker:none;enable-background:accumulate" />
    <path
       sodipodi:nodetypes="cscc"
       inkscape:connector-curvature="0"
       id="path5002-7"
       d="m 925.06037,1946.2293 c 42.82178,-22.7004 91.81273,-11.0807 106.41913,-4.0321 46.7932,22.5812 18.1866,37.5471 18.1866,37.5471 0.4518,-0.4935 -62.67425,-53.459 -124.60573,-33.515 z"
       style="color:#000000;display:inline;overflow:visible;visibility:visible;fill:#ffffff;fill-opacity:1;fill-rule:nonzero;stroke:none;stroke-width:0.837149px;marker:none;enable-background:accumulate" />
  </g>
  <g
     style="display:inline"
     inkscape:label="txt"
     id="layer1"
     inkscape:groupmode="layer">
    <text
       xml:space="preserve"
       style="font-style:normal;font-variant:normal;font-weight:normal;font-stretch:normal;line-height:0%;font-family:'Xiaolai SC';-inkscape-font-specification:'Xiaolai SC';text-align:center;letter-spacing:0px;word-spacing:0px;text-anchor:middle;fill:#000000;fill-opacity:1;stroke:none"
       x="376.04797"
       y="202.04556"
       id="text4246-4-2-7"><tspan
         id="tspan6111"
         sodipodi:role="line"
         style="font-style:normal;font-variant:normal;font-weight:normal;font-stretch:normal;font-size:45px;line-height:1.25;font-family:'Xiaolai SC';-inkscape-font-specification:'Xiaolai SC'"
         x="376.04797"
         y="202.04556">我…</tspan><tspan
         id="tspan94"
         sodipodi:role="line"
         style="font-style:normal;font-variant:normal;font-weight:normal;font-stretch:normal;font-size:45px;line-height:1.25;font-family:'Xiaolai SC';-inkscape-font-specification:'Xiaolai SC'"
         x="376.04797"
         y="258.29556">很抱歉曾经发生在</tspan><tspan
         id="tspan96"
         sodipodi:role="line"
         style="font-style:normal;font-variant:normal;font-weight:normal;font-stretch:normal;font-size:45px;line-height:1.25;font-family:'Xiaolai SC';-inkscape-font-specification:'Xiaolai SC'"
         x="376.04797"
         y="314.54556">咱们之间的这些事…</tspan></text>
    <text
       xml:space="preserve"
       style="font-style:normal;font-variant:normal;font-weight:normal;font-stretch:normal;line-height:0%;font-family:'Xiaolai SC';-inkscape-font-specification:'Xiaolai SC';text-align:center;letter-spacing:0px;word-spacing:0px;text-anchor:middle;fill:#000000;fill-opacity:1;stroke:none"
       x="282.38058"
       y="1005.3795"
       id="text4246-4-2-7-3"><tspan
         id="tspan37052"
         sodipodi:role="line"
         style="font-style:normal;font-variant:normal;font-weight:normal;font-stretch:normal;font-size:45px;line-height:1.25;font-family:'Xiaolai SC';-inkscape-font-specification:'Xiaolai SC'"
         x="282.38058"
         y="1005.3795">…我是说</tspan><tspan
         id="tspan102"
         sodipodi:role="line"
         style="font-style:normal;font-variant:normal;font-weight:normal;font-stretch:normal;font-size:45px;line-height:1.25;font-family:'Xiaolai SC';-inkscape-font-specification:'Xiaolai SC'"
         x="282.38058"
         y="1061.6295">咱俩的决斗…</tspan></text>
    <text
       xml:space="preserve"
       style="font-style:normal;font-variant:normal;font-weight:normal;font-stretch:normal;line-height:0%;font-family:'Xiaolai SC';-inkscape-font-specification:'Xiaolai SC';text-align:center;letter-spacing:0px;word-spacing:0px;text-anchor:middle;fill:#000000;fill-opacity:1;stroke:none"
       x="520.34784"
       y="1069.3779"
       id="text4246-4-2-7-3-1"><tspan
         id="tspan37052-0"
         sodipodi:role="line"
         style="font-style:normal;font-variant:normal;font-weight:normal;font-stretch:normal;font-size:45px;line-height:1.25;font-family:'Xiaolai SC';-inkscape-font-specification:'Xiaolai SC'"
         x="520.34784"
         y="1069.3779">我…</tspan></text>
    <text
       xml:space="preserve"
       style="font-style:normal;font-variant:normal;font-weight:normal;font-stretch:normal;line-height:0%;font-family:'Xiaolai SC';-inkscape-font-specification:'Xiaolai SC';text-align:center;letter-spacing:0px;word-spacing:0px;text-anchor:middle;fill:#000000;fill-opacity:1;stroke:none"
       x="571.68365"
       y="1135.6951"
       id="text4246-4-2-7-3-5"><tspan
         id="tspan25464"
         sodipodi:role="line"
         style="font-style:normal;font-variant:normal;font-weight:normal;font-stretch:normal;font-size:45px;line-height:1.25;font-family:'Xiaolai SC';-inkscape-font-specification:'Xiaolai SC'"
         x="571.68365"
         y="1135.6951">…也是</tspan><tspan
         id="tspan106"
         sodipodi:role="line"
         style="font-style:normal;font-variant:normal;font-weight:normal;font-stretch:normal;font-size:45px;line-height:1.25;font-family:'Xiaolai SC';-inkscape-font-specification:'Xiaolai SC'"
         x="571.68365"
         y="1191.9451">身不由己。</tspan></text>
    <text
       xml:space="preserve"
       style="font-style:normal;font-variant:normal;font-weight:normal;font-stretch:normal;line-height:0%;font-family:'Xiaolai SC';-inkscape-font-specification:'Xiaolai SC';text-align:center;letter-spacing:0px;word-spacing:0px;text-anchor:middle;fill:#000000;fill-opacity:1;stroke:none"
       x="1779.386"
       y="205.05074"
       id="text4246-4-2-7-9"><tspan
         id="tspan66776"
         sodipodi:role="line"
         style="font-style:normal;font-variant:normal;font-weight:normal;font-stretch:normal;font-size:45px;line-height:1.25;font-family:'Xiaolai SC';-inkscape-font-specification:'Xiaolai SC'"
         x="1779.386"
         y="205.05074">别在意，</tspan><tspan
         id="tspan112"
         sodipodi:role="line"
         style="font-style:normal;font-variant:normal;font-weight:normal;font-stretch:normal;font-size:45px;line-height:1.25;font-family:'Xiaolai SC';-inkscape-font-specification:'Xiaolai SC'"
         x="1779.386"
         y="261.30072">我理解。</tspan></text>
    <text
       xml:space="preserve"
       style="font-style:normal;font-variant:normal;font-weight:normal;font-stretch:normal;line-height:0%;font-family:'Xiaolai SC';-inkscape-font-specification:'Xiaolai SC';text-align:center;letter-spacing:0px;word-spacing:0px;text-anchor:middle;fill:#000000;fill-opacity:1;stroke:none"
       x="1783.5726"
       y="1117.2592"
       id="text4246-4-2-7-9-2"><tspan
         id="tspan116"
         sodipodi:role="line"
         style="font-style:normal;font-variant:normal;font-weight:normal;font-stretch:normal;font-size:45px;line-height:1.25;font-family:'Xiaolai SC';-inkscape-font-specification:'Xiaolai SC'"
         x="1783.5726"
         y="1117.2592">谢谢你</tspan><tspan
         id="tspan191"
         sodipodi:role="line"
         style="font-style:normal;font-variant:normal;font-weight:normal;font-stretch:normal;font-size:45px;line-height:1.25;font-family:'Xiaolai SC';-inkscape-font-specification:'Xiaolai SC'"
         x="1783.5726"
         y="1173.5092">前来救我。</tspan></text>
    <text
       xml:space="preserve"
       style="font-style:normal;font-variant:normal;font-weight:normal;font-stretch:normal;line-height:0%;font-family:'Xiaolai SC';-inkscape-font-specification:'Xiaolai SC';text-align:center;letter-spacing:0px;word-spacing:0px;text-anchor:middle;fill:#000000;fill-opacity:1;stroke:none"
       x="1438.9933"
       y="1788.3612"
       id="text4246-4-2-7-9-2-7"><tspan
         id="tspan93883"
         sodipodi:role="line"
         style="font-style:normal;font-variant:normal;font-weight:normal;font-stretch:normal;font-size:45px;line-height:1.25;font-family:'Xiaolai SC';-inkscape-font-specification:'Xiaolai SC'"
         x="1438.9933"
         y="1788.3612">这间魔法监狱真够坚固的。</tspan><tspan
         id="tspan122"
         sodipodi:role="line"
         style="font-style:normal;font-variant:normal;font-weight:normal;font-stretch:normal;font-size:45px;line-height:1.25;font-family:'Xiaolai SC';-inkscape-font-specification:'Xiaolai SC'"
         x="1438.9933"
         y="1844.6112">他们对你真是下了血本。</tspan></text>
    <text
       id="text4246-97"
       y="1968.5275"
       x="1144.8231"
       style="font-style:normal;font-variant:normal;font-weight:normal;font-stretch:normal;line-height:0%;font-family:'Xiaolai SC';-inkscape-font-specification:'Xiaolai SC';text-align:center;letter-spacing:0px;word-spacing:0px;text-anchor:middle;display:inline;fill:#000000;fill-opacity:1;stroke:none"
       xml:space="preserve"><tspan
         id="tspan4252-99"
         y="1968.5275"
         x="1144.8231"
         style="font-style:normal;font-variant:normal;font-weight:normal;font-stretch:normal;font-size:45px;line-height:1.25;font-family:'Xiaolai SC';-inkscape-font-specification:'Xiaolai SC'"
         sodipodi:role="line">哈哈哈！</tspan></text>
    <text
       xml:space="preserve"
       style="font-style:normal;font-variant:normal;font-weight:normal;font-stretch:normal;font-size:11.0752px;line-height:0%;font-family:'Xiaolai SC';-inkscape-font-specification:'Xiaolai SC';text-align:center;letter-spacing:0px;word-spacing:0px;text-anchor:middle;fill:#000000;fill-opacity:1;stroke:none;stroke-width:0.922932"
       x="1477.1412"
       y="2045.4873"
       id="text4246-4-2-7-9-2-7-0"><tspan
         id="tspan96797"
         sodipodi:role="line"
         style="font-style:normal;font-variant:normal;font-weight:normal;font-stretch:normal;font-size:41.5319px;line-height:1.25;font-family:'Xiaolai SC';-inkscape-font-specification:'Xiaolai SC';stroke-width:0.922932"
         x="1477.1412"
         y="2045.4873">小点声，</tspan><tspan
         id="tspan128"
         sodipodi:role="line"
         style="font-style:normal;font-variant:normal;font-weight:normal;font-stretch:normal;font-size:41.5319px;line-height:1.25;font-family:'Xiaolai SC';-inkscape-font-specification:'Xiaolai SC';stroke-width:0.922932"
         x="1477.1412"
         y="2097.4021">小心被发现了。</tspan></text>
    <text
       transform="matrix(0.87642423,-0.49049559,0.3850957,0.92547904,0,0)"
       id="text4246-1711"
       y="3065.9202"
       x="614.17847"
       style="color:#000000;font-style:normal;font-variant:normal;font-weight:normal;font-stretch:normal;font-size:96px;line-height:0.01%;font-family:Arial;-inkscape-font-specification:Arial;letter-spacing:2.51825px;word-spacing:0px;display:inline;overflow:visible;visibility:visible;opacity:0.635039;fill:#e69d76;fill-opacity:1;fill-rule:nonzero;stroke:#e99f77;stroke-width:2.70666;stroke-opacity:1;marker:none;enable-background:accumulate"
       xml:space="preserve"><tspan
         style="font-size:96px;word-spacing:0px;fill:#ffffff;fill-opacity:1;stroke:#ffffff;stroke-width:2.70666;stroke-opacity:1"
         id="tspan1709"
         y="3065.9202"
         x="614.17847"
         sodipodi:role="line"><tspan
   id="tspan130"
   style="font-style:normal;font-variant:normal;font-weight:normal;font-stretch:normal;font-size:42.6667px;font-family:'Xiaolai SC';-inkscape-font-specification:'Xiaolai SC'">舔~~~</tspan> </tspan></text>
    <text
       xml:space="preserve"
       style="font-style:normal;font-variant:normal;font-weight:normal;font-stretch:normal;line-height:0%;font-family:'Xiaolai SC';-inkscape-font-specification:'Xiaolai SC';text-align:center;letter-spacing:0px;word-spacing:0px;text-anchor:middle;fill:#000000;fill-opacity:1;stroke:none"
       x="613.72961"
       y="3001.6843"
       id="text4246-4-2-7-9-2-7-0-9"><tspan
         id="tspan96797-9"
         sodipodi:role="line"
         style="font-style:normal;font-variant:normal;font-weight:normal;font-stretch:normal;font-size:45px;line-height:1.25;font-family:'Xiaolai SC';-inkscape-font-specification:'Xiaolai SC'"
         x="613.72961"
         y="3001.6843">你知道么，</tspan></text>
    <text
       xml:space="preserve"
       style="font-style:normal;font-variant:normal;font-weight:normal;font-stretch:normal;line-height:0%;font-family:'Xiaolai SC';-inkscape-font-specification:'Xiaolai SC';text-align:center;letter-spacing:0px;word-spacing:0px;text-anchor:middle;fill:#000000;fill-opacity:1;stroke:none"
       x="901.74365"
       y="3043.0681"
       id="text4246-4-2-7-9-2-7-0-9-4"><tspan
         id="tspan124228"
         sodipodi:role="line"
         style="font-style:normal;font-variant:normal;font-weight:normal;font-stretch:normal;font-size:45px;line-height:1.25;font-family:'Xiaolai SC';-inkscape-font-specification:'Xiaolai SC'"
         x="901.74365"
         y="3043.0681">仪式结束以后，</tspan><tspan
         id="tspan181"
         sodipodi:role="line"
         style="font-style:normal;font-variant:normal;font-weight:normal;font-stretch:normal;font-size:45px;line-height:1.25;font-family:'Xiaolai SC';-inkscape-font-specification:'Xiaolai SC'"
         x="901.74365"
         y="3099.3181">我被编入绿芥末的</tspan><tspan
         id="tspan183"
         sodipodi:role="line"
         style="font-style:normal;font-variant:normal;font-weight:normal;font-stretch:normal;font-size:45px;line-height:1.25;font-family:'Xiaolai SC';-inkscape-font-specification:'Xiaolai SC'"
         x="901.74365"
         y="3155.5681">忠实核心组织中，</tspan></text>
    <text
       xml:space="preserve"
       style="font-style:normal;font-variant:normal;font-weight:normal;font-stretch:normal;line-height:0%;font-family:'Xiaolai SC';-inkscape-font-specification:'Xiaolai SC';text-align:center;letter-spacing:0px;word-spacing:0px;text-anchor:middle;fill:#000000;fill-opacity:1;stroke:none"
       x="1230.9203"
       y="3168.8494"
       id="text4246-4-2-7-9-2-7-0-9-4-8"><tspan
         id="tspan129373"
         sodipodi:role="line"
         style="font-style:normal;font-variant:normal;font-weight:normal;font-stretch:normal;font-size:45px;line-height:1.25;font-family:'Xiaolai SC';-inkscape-font-specification:'Xiaolai SC'"
         x="1230.9203"
         y="3168.8494">也因此得知了</tspan><tspan
         id="tspan187"
         sodipodi:role="line"
         style="font-style:normal;font-variant:normal;font-weight:normal;font-stretch:normal;font-size:45px;line-height:1.25;font-family:'Xiaolai SC';-inkscape-font-specification:'Xiaolai SC'"
         x="1230.9203"
         y="3225.0994">她的计划…</tspan></text>
    <text
       xml:space="preserve"
       style="color:#000000;font-style:normal;font-variant:normal;font-weight:normal;font-stretch:normal;font-size:96px;line-height:0.01%;font-family:Arial;-inkscape-font-specification:Arial;letter-spacing:2.51825px;word-spacing:0px;display:inline;overflow:visible;visibility:visible;opacity:0.635039;fill:#e69d76;fill-opacity:1;fill-rule:nonzero;stroke:#e99f77;stroke-width:2.70666;stroke-opacity:1;marker:none;enable-background:accumulate"
       x="567.67542"
       y="3111.3552"
       id="text4246-1711-8"
       transform="matrix(0.87642423,-0.49049559,0.3850957,0.92547904,0,0)"><tspan
         sodipodi:role="line"
         x="567.67542"
         y="3111.3552"
         id="tspan1709-9"
         style="font-size:96px;word-spacing:0px;fill:#ffffff;fill-opacity:1;stroke:#ffffff;stroke-width:2.70666;stroke-opacity:1"><tspan
   style="font-style:normal;font-variant:normal;font-weight:normal;font-stretch:normal;font-size:42.6667px;font-family:'Xiaolai SC';-inkscape-font-specification:'Xiaolai SC'"
   id="tspan130-8">舔~~~</tspan> </tspan></text>
    <text
       xml:space="preserve"
       style="color:#000000;font-style:normal;font-variant:normal;font-weight:normal;font-stretch:normal;font-size:96px;line-height:0.01%;font-family:Arial;-inkscape-font-specification:Arial;letter-spacing:2.51825px;word-spacing:0px;display:inline;overflow:visible;visibility:visible;opacity:0.635039;fill:#e69d76;fill-opacity:1;fill-rule:nonzero;stroke:#e99f77;stroke-width:2.70666;stroke-opacity:1;marker:none;enable-background:accumulate"
       x="515.2309"
       y="3151.6799"
       id="text4246-1711-6"
       transform="matrix(0.87642423,-0.49049559,0.3850957,0.92547904,0,0)"><tspan
         sodipodi:role="line"
         x="515.2309"
         y="3151.6799"
         id="tspan1709-7"
         style="font-size:96px;word-spacing:0px;fill:#ffffff;fill-opacity:1;stroke:#ffffff;stroke-width:2.70666;stroke-opacity:1"><tspan
   style="font-style:normal;font-variant:normal;font-weight:normal;font-stretch:normal;font-size:42.6667px;font-family:'Xiaolai SC';-inkscape-font-specification:'Xiaolai SC'"
   id="tspan130-0">舔~~~</tspan> </tspan></text>
  </g>
</svg>
