<?xml version="1.0" encoding="UTF-8" standalone="no"?>
<!-- Created with Inkscape (http://www.inkscape.org/) -->

<svg
   xmlns:dc="http://purl.org/dc/elements/1.1/"
   xmlns:cc="http://creativecommons.org/ns#"
   xmlns:rdf="http://www.w3.org/1999/02/22-rdf-syntax-ns#"
   xmlns:svg="http://www.w3.org/2000/svg"
   xmlns="http://www.w3.org/2000/svg"
   xmlns:xlink="http://www.w3.org/1999/xlink"
   xmlns:sodipodi="http://sodipodi.sourceforge.net/DTD/sodipodi-0.dtd"
   xmlns:inkscape="http://www.inkscape.org/namespaces/inkscape"
   id="svg2"
   version="1.1"
   inkscape:version="0.92.4 (5da689c313, 2019-01-14)"
   width="2481"
   height="3503"
   sodipodi:docname="E38P02.svg">
  <metadata
     id="metadata8">
    <rdf:RDF>
      <cc:Work
         rdf:about="">
        <dc:format>image/svg+xml</dc:format>
        <dc:type
           rdf:resource="http://purl.org/dc/dcmitype/StillImage" />
        <dc:title />
      </cc:Work>
    </rdf:RDF>
  </metadata>
  <defs
     id="defs6">
    <filter
       style="color-interpolation-filters:sRGB"
       id="filter4375-4-1-1-1-9-5-8-8-3-3"
       inkscape:label="Drop Shadow"
       x="-0.043542961"
       y="-0.085412804"
       width="1.0739263"
       height="1.2192212">
      <feFlood
         id="feFlood4377-7-9-0-8-1-7-3-1-6-61"
         flood-opacity="1"
         flood-color="rgb(87,166,204)"
         result="flood"
         radius="5.0999999999999996" />
      <feComposite
         id="feComposite4379-3-8-8-2-77-4-1-0-7-2"
         in2="SourceGraphic"
         in="flood"
         operator="in"
         result="composite1"
         baseFrequency="0.053999999999999999 0.053999999999999999" />
      <feMorphology
         id="feMorphology4393-1-0-49-8-9-3-0-1-5-9"
         operator="dilate"
         radius="5.1272503082614058"
         result="result3" />
      <feComposite
         id="feComposite4385-9-5-7-0-8-8-7-5-3-3"
         in2="result3"
         in="SourceGraphic"
         operator="over"
         result="fbSourceGraphic"
         numOctaves="4" />
      <feColorMatrix
         result="fbSourceGraphicAlpha"
         in="fbSourceGraphic"
         values="0 0 0 -1 0 0 0 0 -1 0 0 0 0 -1 0 0 0 0 1 0"
         id="feColorMatrix4544-9-5-1" />
      <feTurbulence
         id="feTurbulence4546-3-6-9"
         type="fractalNoise"
         numOctaves="4.4123222748815163"
         seed="172"
         baseFrequency="0.062 0.054054054054054057"
         result="turbulence" />
      <feDisplacementMap
         id="feDisplacementMap4548-8-2-4"
         in2="turbulence"
         in="fbSourceGraphic"
         scale="10.781991"
         yChannelSelector="G"
         xChannelSelector="R"
         result="fbSourceGraphic" />
      <feColorMatrix
         result="fbSourceGraphicAlpha"
         in="fbSourceGraphic"
         values="0 0 0 -1 0 0 0 0 -1 0 0 0 0 -1 0 0 0 0 1 0"
         id="feColorMatrix4670-7-9-7"
         scale="10.800000000000001" />
      <feFlood
         id="feFlood4672-4-1-8"
         flood-opacity="0"
         flood-color="rgb(45,8,0)"
         result="flood"
         in="fbSourceGraphic"
         dx="-2.3999999999999999" />
      <feComposite
         id="feComposite4674-8-2-4"
         in2="fbSourceGraphic"
         in="flood"
         operator="in"
         result="composite1" />
      <feGaussianBlur
         id="feGaussianBlur4676-3-7-50"
         in="composite1"
         stdDeviation="0"
         result="blur" />
      <feOffset
         id="feOffset4678-6-0-3"
         dx="-2.3696682464454994"
         dy="3.1000000000000001"
         result="offset" />
      <feComposite
         id="feComposite4680-4-9-6"
         in2="offset"
         in="fbSourceGraphic"
         operator="over"
         result="composite2" />
    </filter>
  </defs>
  <sodipodi:namedview
     pagecolor="#ffffff"
     bordercolor="#666666"
     borderopacity="1"
     objecttolerance="10"
     gridtolerance="10"
     guidetolerance="10"
     inkscape:pageopacity="0"
     inkscape:pageshadow="2"
     inkscape:window-width="1858"
     inkscape:window-height="1057"
     id="namedview4"
     showgrid="false"
     inkscape:zoom="0.46000002"
     inkscape:cx="914.13039"
     inkscape:cy="890.21736"
     inkscape:window-x="54"
     inkscape:window-y="-8"
     inkscape:window-maximized="1"
     inkscape:current-layer="layer3"
     inkscape:showpageshadow="0"
     inkscape:pagecheckerboard="0"
     inkscape:deskcolor="#d1d1d1" />
  <g
     inkscape:groupmode="layer"
     id="layer2"
     inkscape:label="artwork"
     sodipodi:insensitive="true">
    <image
       sodipodi:absref="D:\Documents\code\webcomics\ep38_The-Healer\lang\id\../gfx_Pepper-and-Carrot_by-David-Revoy_E38P02.png"
       xlink:href="../gfx_Pepper-and-Carrot_by-David-Revoy_E38P02.png"
       width="2481"
       height="3503"
       id="image10"
       x="0"
       y="0" />
  </g>
  <g
     inkscape:groupmode="layer"
     id="layer3"
     inkscape:label="speechbubbles">
    <path
       style="display:inline;fill:#ffffff;fill-rule:evenodd;stroke:none;stroke-width:1.01494682px;stroke-linecap:butt;stroke-linejoin:miter;stroke-opacity:1"
       d="m 2294.5124,2496.1187 c -39.1883,16.8666 -15.389,42.5449 21.3762,49.8578 -38.3206,7.0013 -29.8694,34.9093 -3.8539,45.6646 -54.2455,3.57 -80.501,47.8293 -57.3708,73.1466 -44.9417,-14.7427 -77.5557,-17.556 -65.7383,16.3982 -17.7269,-34.3312 -26.5281,-38.3421 -20.262,-5.5682 -12.9531,-13.8438 -31.6447,-43.6309 -36.7791,-5.9503 -10.7467,-29.3824 -27.5622,-18.0428 -45.614,-5.6745 1.4849,-17.6995 -44.2726,-7.8055 -55.1416,9.7474 -7.7325,21.3766 -13.3174,15.6381 -6.6372,-6.8151 10.1543,-15.0722 -47.1445,-4.0901 -54.2599,7.5043 3.4391,-16.8948 -13.8175,-15.1213 -32.685,1.0731 -2.9814,-26.6903 -13.2811,-20.0948 -48.0972,-5.9205 12.8228,-14.2232 19.7848,-34.6101 -37.3967,-30.0311 22.505,-6.4515 38.5595,-38.1695 -17.447,-31.9755 34.0217,-11.8058 14.5646,-38.7495 -1.7684,-57.4021 54.8363,-10.3576 35.3141,-40.8027 18.5506,-67.4696 37.123,14.5277 66.573,27.3063 76.5686,-10.8167 40.874,36.9824 49.1636,5.5378 44.7278,-9.1705 32.9945,38.4763 33.4438,6.5412 43.5845,-4.4264 94.8986,50.9057 94.9345,5.0977 117.1634,-18.0849 4.0253,52.7516 26.2908,34.0194 48.632,14.9919 -4.185,44.0817 3.8826,28.9652 17.0421,18.1607 0.1,19.1483 17.3128,28.6723 44.766,17.8479 -20.1136,14.3102 -8.6438,17.8014 50.6399,4.9129 z"
       id="path4289-9-3-6"
       inkscape:connector-curvature="0"
       sodipodi:nodetypes="ccccccccccccccccccccccccc" />
    <path
       style="display:inline;fill:#ffffff;fill-rule:evenodd;stroke:none;stroke-width:0.93569446px;stroke-linecap:butt;stroke-linejoin:miter;stroke-opacity:1"
       d="m 1835.217,2732.3845 c 41.9343,-13.5102 18.4798,-37.706 -19.5653,-45.8999 40.4739,-4.6496 33.1978,-30.1895 6.589,-41.0212 56.9388,-0.8625 86.8805,-39.6426 64.1057,-63.4836 46.1813,15.2508 80.1365,19.2058 69.678,-11.9339 16.6187,31.7365 25.5994,35.7368 20.8813,5.903 12.7732,13.0498 30.6551,40.7296 38.1363,6.9655 9.5947,26.9694 27.8181,17.4721 47.3926,7.1006 -2.5448,15.9001 45.8702,8.9645 58.222,-6.3955 9.2856,-18.9453 14.8057,-13.5265 6.5606,6.4356 -11.4655,13.1535 49.082,5.7381 57.174,-4.4107 -4.5436,15.0894 13.6056,14.2397 34.2474,0.4526 1.6232,24.2038 12.766,18.7024 49.9762,7.4305 -14.2089,12.2718 -22.6333,30.3579 37.4329,28.7128 -23.9009,4.841 -42.47,32.7524 16.4575,29.5995 -36.2465,9.1701 -17.4047,34.3185 -1.366,51.8526 -57.9368,6.9592 -39.223,35.2686 -23.1831,60.0502 -38.0152,-14.7171 -68.1029,-27.5231 -80.6937,6.4288 -40.6807,-35.1339 -51.113,-7.1316 -47.2973,6.3278 -32.3553,-36.1389 -52.6009,-14.3392 -45.8356,2.0983 -35.6264,-50.5777 -101.4728,-32.1755 -140.7866,4.1138 29.9143,-48.4666 -18.1313,-32.2396 -42.565,-16.0481 23.1184,-28.301 -5.6928,-17.8363 -20.0624,-8.6627 13.9838,-21.9751 -37.1128,6.2801 -66.4341,14.8504 21.8395,-12.0334 43.6662,-49.5151 -19.0644,-40.4664 z"
       id="path4289-9-3-6-7"
       inkscape:connector-curvature="0"
       sodipodi:nodetypes="ccccccccccccccccccccccccc" />
    <path
       style="color:#000000;display:inline;overflow:visible;visibility:visible;fill:#ffffff;fill-opacity:1;fill-rule:nonzero;stroke:none;stroke-width:1.51332772px;marker:none;enable-background:accumulate"
       d="m 1705.6309,2287.3418 c -41.3578,0.9142 -83.2254,8.4683 -119.9082,26.4044 -18.1081,9.1435 -32.0455,24.6174 -38.7366,42.4336 -7.3957,19.1339 -6.9131,40.0157 -3.0397,59.7557 4.1748,19.6803 13.2757,38.9305 28.4086,53.6897 13.4336,12.0343 31.9525,17.4873 49.9296,21.1338 42.5051,9.6746 86.4573,14.8785 130.3043,12.8766 33.1666,-1.2683 66.3188,-5.254 98.386,-13.1863 23.8756,-6.4955 47.1913,-17.3149 63.6607,-34.7338 15.7914,-17.8245 20.1546,-42.4205 15.0011,-64.4953 -8.2586,-37.6921 -39.2889,-69.7225 -77.9924,-84.269 -31.8744,-12.1216 -66.5747,-16.0084 -100.7621,-18.2332 -15.06,-0.8535 -30.1583,-1.561 -45.2513,-1.3762 z"
       id="path4546-6-5"
       inkscape:connector-curvature="0"
       sodipodi:nodetypes="cssssc" />
    <path
       style="color:#000000;display:inline;overflow:visible;visibility:visible;fill:#ffffff;fill-opacity:1;fill-rule:nonzero;stroke:none;stroke-width:1px;marker:none;enable-background:accumulate"
       d="m 1733.0484,2482.7523 c 6.9926,29.8076 18.6468,64.1129 22.1431,71.987 6.9925,-7.8741 25.192,-15.9494 31.0192,-20.4483 5.2444,15.1842 10.3157,90.3585 -41.7451,151.3743 75.7752,-73.0554 60.9745,-148.5099 50.4857,-172.6929 -8.7406,4.4989 -24.0266,12.5222 -28.6883,14.7716 -5.8271,-11.81 -16.316,-53.9894 -16.316,-53.9894 z"
       id="path5066-8"
       inkscape:connector-curvature="0"
       sodipodi:nodetypes="cccccccc" />
    <path
       style="fill:#ffffff;fill-rule:evenodd;stroke:none;stroke-width:1px;stroke-linecap:butt;stroke-linejoin:miter;stroke-opacity:1"
       d="m 1964.0773,2883.7318 c 45.1876,-35.5067 85.571,-88.3706 91.9435,-99.1494 -29.2434,6.0571 -35.5635,6.8258 -37.506,0.8095 -1.9423,-6.0163 77.997,-127.2212 77.997,-127.2212 l 34.1125,6.4808 c 0,0 -45.8842,48.0721 -65.8722,73.2263 -12.2121,15.3687 -24.0776,37.3165 -24.0776,37.3165 0,0 23.3653,-5.1149 27.6634,-5.865 20.6338,-3.6012 -2.4761,50.755 -104.2606,114.4025 z"
       id="path891"
       inkscape:connector-curvature="0"
       sodipodi:nodetypes="ccsccscsc" />
    <path
       id="path3280-81"
       style="fill:#ffffff;stroke:none;stroke-width:0.999997"
       d="m 95.707032,2263.3965 v 118.5643 c 30.372868,27.6248 88.835058,43.0991 150.190338,41.0153 84.4777,-2.8693 157.54675,-5.7821 159.36633,-79.6078 0.9686,-39.3007 -12.92307,-64.4532 -41.21972,-79.9718 z" />
    <path
       style="fill:#ffffff;stroke:none;stroke-width:1"
       d="m 314.52334,2468.4433 c 0.8464,-75.4301 -5.67281,-88.4399 215.12083,-86.206 146.41886,1.4814 220.54357,20.705 218.02633,88.0788 -2.38039,63.7066 -97.9694,66.2207 -208.48276,68.6967 -113.92727,2.5523 -220.33578,-25.3897 -224.6644,-70.5695 z"
       id="path3280-81-3"
       inkscape:connector-curvature="0"
       sodipodi:nodetypes="csssc" />
    <path
       style="color:#000000;display:inline;overflow:visible;visibility:visible;fill:#ffffff;fill-opacity:1;fill-rule:nonzero;stroke:none;stroke-width:1px;marker:none;enable-background:accumulate"
       d="m 494.17744,2446.3438 c 51.55764,73.5011 80.22705,174.4048 2.98718,203.1998 87.30859,-21.8078 96.44645,-110.3127 41.91237,-227.0906 -12.14937,-42.2577 -24.66054,10.9291 -44.89955,23.8908 z"
       id="path4035-4"
       inkscape:connector-curvature="0"
       sodipodi:nodetypes="cccc" />
    <path
       style="display:inline;fill:#ffffff;fill-rule:evenodd;stroke:none;stroke-width:0.999994px;stroke-linecap:butt;stroke-linejoin:miter;stroke-opacity:1"
       d="m 697.91192,3178.1697 c -29.60023,1.0641 -59.4603,2.5753 -88.42754,13.4092 -22.89033,9.7216 -43.63583,33.9843 -55.31643,67.5701 -5.4643,18.7899 -3.81843,41.683 2.77974,59.159 9.2095,25.4184 26.08128,42.429 43.95063,46.7029 31.16656,9.131 62.94525,9.1723 94.50227,10.4322 20.70328,0.3481 41.40184,1.2288 62.1006,1.9223 19.99113,-0.1718 40.06992,-1.1476 59.82667,-6.4808 10.96901,-2.9376 21.85248,-6.9712 32.40401,-12.6709 6.94367,-4.1898 13.22861,-11.4002 17.64241,-21.0991 10.76696,-22.483 13.55041,-54.9505 5.78182,-80.7615 -3.04423,-10.6297 -7.89485,-19.5086 -12.93618,-27.7651 -11.6997,-18.6999 -26.93589,-31.3124 -43.05677,-36.3102 -11.43004,-3.9066 -23.02107,-6.4359 -34.61156,-8.7081 -28.09399,-5.0372 -56.40547,-5.4771 -84.63967,-5.4 z"
       id="path4291"
       inkscape:connector-curvature="0"
       sodipodi:nodetypes="ccccssscssc" />
    <path
       style="color:#000000;display:inline;overflow:visible;visibility:visible;fill:#ffffff;fill-opacity:1;fill-rule:nonzero;stroke:none;stroke-width:1.12444746px;marker:none;enable-background:accumulate"
       d="m 2002.3204,2345.7795 c -5.9471,20.293 -39.4892,21.9952 -51.8372,17.8704 24.8904,22.7014 24.0226,36.8065 -9.7712,38.9956 56.6731,40.9149 10.3605,34.7234 1.2258,45.0976 44.4988,14.1002 29.7495,35.4707 1.1869,45.2942 51.1471,0.6 -1.4871,33.2268 -20.8513,53.9501 22.6458,-13.5676 97.8317,-41.5496 99.0712,-6.0764 32.8119,-30.9887 49.7413,-30.3852 61.6069,4.6565 9.9112,-30.2166 43.6599,-36.032 56.5646,-3.4446 11.1167,-44.1025 50.7821,-37.8935 74.3934,-16.5194 -13.2543,-15.0848 -4.216,-39.9234 40.9727,-34.9003 -3.6373,-13.8281 2.0827,-31.2812 24.9026,-28.9766 -26.2857,-8.3521 -31.1299,-16.9685 17.6764,-26.2402 -37.1387,-0.896 -71.7711,-2.7338 -28.1991,-34.3533 -13.6698,-0.7652 -46.1026,25.619 -30.9811,-51.593 -40.0356,22.7673 -82.1052,34.4062 -80.0354,-13.4179 -14.8841,25.8678 -40.7003,38.668 -51.9317,6.3576 -9.2715,30.1825 -37.4326,17.544 -52.0619,-3.0567 -9.6662,20.4438 -24.1259,34.2518 -51.9316,6.3564 z"
       id="path3549-3-7-8"
       inkscape:connector-curvature="0"
       sodipodi:nodetypes="ccccccccccccccccccc" />
    <path
       style="color:#000000;display:inline;overflow:visible;visibility:visible;fill:#ffffff;fill-opacity:1;fill-rule:nonzero;stroke:none;stroke-width:1.09098px;marker:none;enable-background:accumulate"
       d="m 622.39235,3237.8068 c -45.84039,33.0435 -96.09041,45.4564 -121.01898,-53.4867 -9.12126,82.2936 58.68778,158.1279 153.07948,78.9046 48.17517,-40.4335 47.74258,-58.4665 47.74258,-58.4665 z"
       id="path4064-6"
       inkscape:connector-curvature="0"
       sodipodi:nodetypes="ccscc"
       inkscape:transform-center-x="-10.62037"
       inkscape:transform-center-y="-9.1957583" />
    <path
       style="fill:#ffffff;stroke:none;stroke-width:0.999995"
       d="m 879.7112,622.75275 c -27.23201,0.80503 -54.98985,5.25019 -79.47254,18.09663 -12.26939,7.61167 -18.98214,22.19268 -20.16669,36.50571 -1.47655,13.28003 4.20124,27.35879 15.0409,34.98064 13.24109,10.8087 29.53042,16.57517 45.604,21.26639 25.67261,6.45955 52.2942,4.74642 78.48098,5.43186 35.49006,0.4897 71.08844,0.43847 106.42075,-3.42421 16.1699,-2.1541 32.679,-7.52962 44.7871,-19.19973 9.2298,-9.54102 11.8678,-24.07194 9.7798,-36.9903 -2.3641,-15.04295 -11.649,-28.63798 -24.4926,-36.23148 -6.6445,-4.19016 -14.2178,-6.3321 -21.7283,-8.19578 -43.95315,-12.14398 -89.84537,-11.42364 -134.98414,-12.16575 -6.42279,-0.077 -12.84609,-0.0977 -19.26926,-0.074 z"
       id="path3280-81-3-1"
       inkscape:connector-curvature="0"
       sodipodi:nodetypes="csssc" />
    <path
       style="color:#000000;display:inline;overflow:visible;visibility:visible;fill:#ffffff;fill-opacity:1;fill-rule:nonzero;stroke:none;stroke-width:0.999996px;marker:none;enable-background:accumulate"
       d="m 900.02327,671.19991 c 91.6633,40.10272 117.58643,129.77771 79.9982,191.17722 56.92493,-63.39039 51.42053,-142.19167 -64.39752,-216.52752 -33.65115,-29.84166 0.1749,6.90048 -15.60068,25.3503 z"
       id="path4035-4-9"
       inkscape:connector-curvature="0"
       sodipodi:nodetypes="cccc" />
  </g>
  <g
     inkscape:groupmode="layer"
     id="layer1"
     inkscape:label="txt">
    <text
       id="text4178-36-4"
       y="694.52051"
       x="934.77313"
       style="font-style:normal;font-variant:normal;font-weight:normal;font-stretch:normal;line-height:0%;font-family:Lavi;-inkscape-font-specification:Lavi;text-align:center;letter-spacing:0px;word-spacing:0px;text-anchor:middle;fill:#000000;fill-opacity:1;stroke:none"
       xml:space="preserve"><tspan
         y="694.52051"
         x="934.77313"
         style="font-size:40.67670059px;line-height:1.25"
         sodipodi:role="line"
         id="tspan4307-5-7">Minggir...</tspan></text>
    <text
       xml:space="preserve"
       style="font-style:normal;font-variant:normal;font-weight:normal;font-stretch:normal;line-height:0%;font-family:Lavi;-inkscape-font-specification:Lavi;letter-spacing:3.02325px;word-spacing:0px;fill:#daf9ff;fill-opacity:1;stroke:#00bfff;stroke-width:0.687796;stroke-miterlimit:4;stroke-dasharray:none;stroke-opacity:1;filter:url(#filter4375-4-1-1-1-9-5-8-8-3-3)"
       x="787.65729"
       y="1584.5073"
       id="text4580-6-0-0-3"
       transform="matrix(0.74083092,-0.35642121,0.14558873,1.2591067,40.891484,217.84741)"><tspan
         sodipodi:role="line"
         id="tspan4582-1-1-0-6"
         x="787.65729"
         y="1584.5073"
         style="font-style:normal;font-variant:normal;font-weight:bold;font-stretch:normal;font-size:70px;line-height:1.25;font-family:Lavi;-inkscape-font-specification:'Lavi Bold';fill:#daf9ff;fill-opacity:1;stroke:#00bfff;stroke-width:0.687796;stroke-opacity:1"><tspan
           style="font-size:68.6116px;fill:#daf9ff;fill-opacity:1;stroke-width:0.687796;stroke:#00bfff;stroke-opacity:1"
           id="tspan853-6">Dzing</tspan><tspan
           style="font-size:79.977px;fill:#daf9ff;fill-opacity:1;stroke-width:0.687796;stroke:#00bfff;stroke-opacity:1"
           id="tspan929" /></tspan></text>
    <text
       id="text4178"
       y="2325.9587"
       x="247.24895"
       style="font-style:normal;font-variant:normal;font-weight:normal;font-stretch:normal;line-height:0%;font-family:Lavi;-inkscape-font-specification:Lavi;text-align:center;letter-spacing:0px;word-spacing:0px;text-anchor:middle;fill:#000000;fill-opacity:1;stroke:none"
       xml:space="preserve"><tspan
         y="2325.9587"
         x="247.24895"
         style="font-size:40.67670059px;line-height:1.25"
         sodipodi:role="line"
         id="tspan449">Lukaku</tspan><tspan
         y="2376.8047"
         x="247.24895"
         style="font-size:40.67670059px;line-height:1.25"
         sodipodi:role="line"
         id="tspan513">lenyap.</tspan></text>
    <text
       id="text4178-36"
       y="2444.9231"
       x="534.44073"
       style="font-style:normal;font-variant:normal;font-weight:normal;font-stretch:normal;line-height:0%;font-family:Lavi;-inkscape-font-specification:Lavi;text-align:center;letter-spacing:0px;word-spacing:0px;text-anchor:middle;fill:#000000;fill-opacity:1;stroke:none"
       xml:space="preserve"><tspan
         y="2444.9231"
         x="534.44073"
         style="font-size:40.67670059px;line-height:1.25"
         sodipodi:role="line"
         id="tspan517">Tiap kali ini</tspan><tspan
         y="2495.769"
         x="534.44073"
         style="font-size:40.67670059px;line-height:1.25"
         sodipodi:role="line"
         id="tspan67">mujizat yang sama.</tspan></text>
    <text
       id="text4178-3"
       y="3244.4319"
       x="717.56146"
       style="font-style:normal;font-variant:normal;font-weight:normal;font-stretch:normal;line-height:0%;font-family:Lavi;-inkscape-font-specification:Lavi;text-align:center;letter-spacing:0px;word-spacing:0px;text-anchor:middle;fill:#000000;fill-opacity:1;stroke:none"
       xml:space="preserve"><tspan
         y="3244.4319"
         x="717.56146"
         style="font-size:40.67670059px;line-height:1.25"
         sodipodi:role="line"
         id="tspan568">Bakatmu</tspan><tspan
         y="3295.2778"
         x="717.56146"
         style="font-size:40.67670059px;line-height:1.25"
         sodipodi:role="line"
         id="tspan587">mengagumkan,</tspan><tspan
         y="3346.1235"
         x="717.56146"
         style="font-size:40.67670059px;line-height:1.25"
         sodipodi:role="line"
         id="tspan589">Dokter!</tspan></text>
    <text
       id="text4178-3-5-1-7"
       y="2356.8318"
       x="1734.5117"
       style="font-style:normal;font-variant:normal;font-weight:normal;font-stretch:normal;line-height:0%;font-family:Lavi;-inkscape-font-specification:Lavi;text-align:center;letter-spacing:0px;word-spacing:0px;text-anchor:middle;fill:#000000;fill-opacity:1;stroke:none"
       xml:space="preserve"><tspan
         y="2356.8318"
         x="1734.5117"
         style="font-size:40.67670059px;line-height:1.25"
         sodipodi:role="line"
         id="tspan722">Mari kita lanjut.</tspan><tspan
         y="2407.6777"
         x="1734.5117"
         style="font-size:40.67670059px;line-height:1.25"
         sodipodi:role="line"
         id="tspan724">Harta karun</tspan><tspan
         y="2458.5234"
         x="1734.5117"
         style="font-size:40.67670059px;line-height:1.25"
         sodipodi:role="line"
         id="tspan71">sudah menanti!</tspan></text>
    <text
       id="text4178-3-5"
       y="2424.7144"
       x="2106.1868"
       style="font-style:normal;font-variant:normal;font-weight:normal;font-stretch:normal;font-size:14.59039974px;line-height:0%;font-family:Lavi;-inkscape-font-specification:Lavi;text-align:center;letter-spacing:0px;word-spacing:0px;text-anchor:middle;fill:#000000;fill-opacity:1;stroke:none;stroke-width:1"
       xml:space="preserve"><tspan
         y="2424.7144"
         x="2106.1868"
         style="font-weight:bold;font-size:49.45750046px;line-height:1.25;stroke-width:1"
         sodipodi:role="line"
         id="tspan4378-9">Dengar</tspan><tspan
         y="2486.5361"
         x="2106.1868"
         style="font-weight:bold;font-size:49.45750046px;line-height:1.25;stroke-width:1"
         sodipodi:role="line"
         id="tspan73">semua!</tspan></text>
    <text
       id="text4178-3-5-1"
       y="2539.3179"
       x="2074.4785"
       style="font-style:normal;font-variant:normal;font-weight:normal;font-stretch:normal;line-height:0%;font-family:Lavi;-inkscape-font-specification:Lavi;text-align:center;letter-spacing:0px;word-spacing:0px;text-anchor:middle;fill:#000000;fill-opacity:1;stroke:none"
       xml:space="preserve"><tspan
         y="2539.3179"
         x="2074.4785"
         style="font-size:40.67670059px;line-height:1.25"
         sodipodi:role="line"
         id="tspan613">Berkat dia,</tspan><tspan
         y="2590.1638"
         x="2074.4785"
         style="font-size:40.67670059px;line-height:1.25"
         sodipodi:role="line"
         id="tspan852">kita tak terkalahkan!</tspan></text>
    <text
       id="text4178-3-5-1-3"
       y="2667.0034"
       x="2075.4658"
       style="font-style:normal;font-variant:normal;font-weight:normal;font-stretch:normal;line-height:0%;font-family:Lavi;-inkscape-font-specification:Lavi;text-align:center;letter-spacing:0px;word-spacing:0px;text-anchor:middle;fill:#000000;fill-opacity:1;stroke:none"
       xml:space="preserve"><tspan
         y="2667.0034"
         x="2075.4658"
         style="font-size:40.67670059px;line-height:1.25"
         sodipodi:role="line"
         id="tspan611">Ayo kita cari</tspan><tspan
         y="2717.8494"
         x="2075.4658"
         style="font-size:40.67670059px;line-height:1.25"
         sodipodi:role="line"
         id="tspan919">monster berikutnya!</tspan></text>
  </g>
</svg>
