<?xml version="1.0" encoding="UTF-8" standalone="no"?>
<svg
   xmlns:dc="http://purl.org/dc/elements/1.1/"
   xmlns:cc="http://creativecommons.org/ns#"
   xmlns:rdf="http://www.w3.org/1999/02/22-rdf-syntax-ns#"
   xmlns:svg="http://www.w3.org/2000/svg"
   xmlns="http://www.w3.org/2000/svg"
   xmlns:xlink="http://www.w3.org/1999/xlink"
   xmlns:sodipodi="http://sodipodi.sourceforge.net/DTD/sodipodi-0.dtd"
   xmlns:inkscape="http://www.inkscape.org/namespaces/inkscape"
   id="svg2"
   version="1.1"
   inkscape:version="1.0.1 (3bc2e813f5, 2020-09-07)"
   width="2481"
   height="3503"
   sodipodi:docname="E34P01.svg">
  <metadata
     id="metadata8">
    <rdf:RDF>
      <cc:Work
         rdf:about="">
        <dc:format>image/svg+xml</dc:format>
        <dc:type
           rdf:resource="http://purl.org/dc/dcmitype/StillImage" />
        <dc:title />
      </cc:Work>
    </rdf:RDF>
  </metadata>
  <defs
     id="defs6">
    <filter
       inkscape:collect="always"
       style="color-interpolation-filters:sRGB"
       id="filter7961"
       x="-0.0038362744"
       width="1.0076725"
       y="-0.012583922"
       height="1.0251678"
       inkscape:label="blur-layer-whisper">
      <feGaussianBlur
         inkscape:collect="always"
         stdDeviation="2.6222679"
         id="feGaussianBlur7963" />
    </filter>
    <filter
       style="color-interpolation-filters:sRGB;"
       inkscape:label="narrator-drop-shadow"
       id="filter8274"
       width="1.3"
       height="1.5">
      <feFlood
         flood-opacity="0.603922"
         flood-color="rgb(0,21,64)"
         result="flood"
         id="feFlood8264" />
      <feComposite
         in="flood"
         in2="SourceGraphic"
         operator="in"
         result="composite1"
         id="feComposite8266" />
      <feGaussianBlur
         in="composite1"
         stdDeviation="2.0230825044646368"
         result="blur"
         id="feGaussianBlur8268" />
      <feOffset
         dx="-7.4077921838061513"
         dy="4.8380533854166714"
         result="offset"
         id="feOffset8270" />
      <feComposite
         in="SourceGraphic"
         in2="offset"
         operator="over"
         result="fbSourceGraphic"
         id="feComposite8272" />
      <feColorMatrix
         result="fbSourceGraphicAlpha"
         in="fbSourceGraphic"
         values="0 0 0 -1 0 0 0 0 -1 0 0 0 0 -1 0 0 0 0 1 0"
         id="feColorMatrix8420" />
      <feFlood
         id="feFlood8422"
         flood-opacity="0.061934527228860295"
         flood-color="rgb(0,12,37)"
         result="flood"
         in="fbSourceGraphic" />
      <feComposite
         in2="fbSourceGraphic"
         id="feComposite8424"
         in="flood"
         operator="in"
         result="composite1" />
      <feGaussianBlur
         id="feGaussianBlur8426"
         in="composite1"
         stdDeviation="1"
         result="blur" />
      <feOffset
         id="feOffset8428"
         dx="-3.3194756113327486"
         dy="-2.8318869588504754"
         result="offset" />
      <feComposite
         in2="offset"
         id="feComposite8430"
         in="fbSourceGraphic"
         operator="over"
         result="composite2" />
    </filter>
  </defs>
  <sodipodi:namedview
     pagecolor="#ffffff"
     bordercolor="#666666"
     borderopacity="1"
     objecttolerance="10"
     gridtolerance="10"
     guidetolerance="10"
     inkscape:pageopacity="0"
     inkscape:pageshadow="2"
     inkscape:window-width="1551"
     inkscape:window-height="905"
     id="namedview4"
     showgrid="false"
     inkscape:zoom="0.43772747"
     inkscape:cx="1366.1316"
     inkscape:cy="2790.6034"
     inkscape:window-x="369"
     inkscape:window-y="138"
     inkscape:window-maximized="0"
     inkscape:current-layer="layer3"
     inkscape:document-rotation="0"
     borderlayer="true"
     inkscape:snap-global="false" />
  <g
     inkscape:groupmode="layer"
     id="layer2"
     inkscape:label="artwork"
     sodipodi:insensitive="true">
    <image
       sodipodi:absref="/home/emmiline/Documents/git/webcomics/new-ep34_The-Knighting-of-Shichimi/lang/gfx_Pepper-and-Carrot_by-David-Revoy_E34P01.png"
       xlink:href="../gfx_Pepper-and-Carrot_by-David-Revoy_E34P01.png"
       y="0"
       x="0"
       id="image10"
       height="3503.7233"
       width="2481" />
  </g>
  <g
     inkscape:groupmode="layer"
     id="layer3"
     inkscape:label="speechbubbles-whisper"
     style="display:inline;opacity:0.65;filter:url(#filter7961)">
    <path
       id="path1299"
       style="fill:#e0ffff;fill-rule:evenodd;stroke:none;stroke-width:1.32707px;stroke-linecap:butt;stroke-linejoin:miter;stroke-opacity:1"
       d="m 1503.0578,2593.9873 c -42.7341,2.5897 -85.837,4.4136 -127.7807,14.1939 -34.6522,9.6925 -68.0541,24.9977 -96.7777,46.7987 -23.0967,19.2414 -39.0366,47.5645 -40.5942,77.3397 -1.3745,33.4639 18.0897,66.0441 47.4577,82.0036 21.7296,12.4558 45.5165,20.9082 68.9911,29.6611 34.1637,11.6162 70.5872,15.9821 106.8066,16.0474 44.1799,0.574 88.3521,-2.5404 132.4859,-5.0332 35.0853,-2.202 70.5697,-5.0808 104.4201,-15.5647 20.2352,-6.5216 39.1776,-17.6138 53.8835,-32.9883 11.8408,-11.7754 23.0143,-25.2626 27.4529,-41.4995 4.7298,-17.9899 1.9977,-36.8694 -3.2732,-54.2553 -6.7969,-21.5973 -20.3243,-40.6281 -37.2324,-55.6309 -18.621,-16.6588 -39.649,-31.0345 -63.1494,-40.2954 -11.9079,-4.8219 -24.4601,-7.9782 -37.1844,-10.0661 -32.2371,-5.8465 -65.0409,-8.2722 -97.7783,-10.3409 -12.5588,-0.559 -25.145,-0.6349 -37.7275,-0.3701 z" />
    <path
       style="fill:#e0ffff;fill-rule:evenodd;stroke:none;stroke-width:1.52507px;stroke-linecap:butt;stroke-linejoin:miter;stroke-opacity:1"
       d="m 1279.2412,2520.4406 c -23.8312,0.5715 -48.0621,3.124 -69.8233,10.569 -25.7258,9.335 -43.5611,29.5951 -43.4991,50.6444 0.5787,10.9745 7.7955,21.3476 17.9311,29.2934 7.2818,5.6779 16.4232,9.8604 25.9572,13.2307 19.1954,7.0126 40.7068,10.2679 62.1031,10.4477 34.0923,1.3792 68.5782,-0.345 101.7582,-6.3959 15.615,-2.9712 31.1615,-7.7122 42.733,-16.162 11.8449,-8.3459 20.5268,-19.6239 21.5511,-31.7683 0.3144,-10.8875 -6.1583,-21.2253 -14.5867,-29.9724 -10.7405,-11.6163 -27.1535,-20.6918 -46.0312,-23.8402 -22.9667,-4.5851 -46.9277,-5.1076 -70.5749,-5.8492 -9.1701,-0.1945 -18.345,-0.2195 -27.5185,-0.1972 z"
       id="path1285"
       inkscape:connector-curvature="0" />
    <path
       style="font-variation-settings:normal;vector-effect:none;fill:#e0ffff;fill-opacity:1;stroke:none;stroke-width:1.28082px;stroke-linecap:butt;stroke-linejoin:miter;stroke-miterlimit:4;stroke-dasharray:none;stroke-dashoffset:0;stroke-opacity:1;stop-color:#000000"
       d="m 247.23264,2520.078 c -28.38432,1.2291 -56.8822,10.5086 -78.9986,28.6668 -18.63166,14.7836 -34.2286,34.2765 -41.45298,57.1712 -11.99049,41.1822 2.65545,88.8641 36.08198,115.8559 18.12316,14.8981 40.5932,23.2898 63.17043,28.7186 38.16304,8.8386 78.09262,9.8436 116.69462,3.2781 23.38738,-4.6715 46.32127,-14.492 63.70922,-31.142 18.85509,-18.074 31.17186,-43.3618 32.0321,-69.6182 0.60108,-14.7078 -1.15573,-29.4332 -4.02795,-43.8387 -4.90025,-22.4903 -16.81391,-43.7064 -34.75204,-58.3422 -11.96137,-9.8917 -26.3247,-16.6035 -41.32397,-20.4038 -25.60296,-7.1055 -52.26838,-9.146 -78.71986,-10.0843 -10.80183,-0.2861 -21.60826,-0.2664 -32.41295,-0.2614 z"
       id="path3280-8-90"
       inkscape:connector-curvature="0"
       sodipodi:nodetypes="csssc" />
    <path
       style="fill:#e0ffff;fill-opacity:1;fill-rule:evenodd;stroke:none;stroke-width:1.28082px;stroke-linecap:butt;stroke-linejoin:miter;stroke-opacity:1"
       d="m 405.61348,2631.9631 c 42.85265,-5.0607 58.06957,-2.3086 68.49973,0.7202 10.42915,3.0295 34.5561,33.0962 43.85358,53.3011 -34.06156,-36.1486 -48.52756,-39.3772 -65.05064,-34.4498 -16.52311,4.9273 -63.29994,23.4366 -63.29994,23.4366 l 11.09296,-45.4041 z"
       id="path1291"
       inkscape:connector-curvature="0"
       sodipodi:nodetypes="csccccc" />
    <path
       style="fill:#e0ffff;fill-rule:evenodd;stroke:none;stroke-width:0.964753px;stroke-linecap:butt;stroke-linejoin:miter;stroke-opacity:1"
       d="m 1434.2038,2989.2388 c 48.3667,-37.0134 81.9085,-79.2404 77.928,-171.8638 l 30.8393,-3.1198 c -4.7727,67.6875 -17.9327,144.5385 -108.7673,174.9836 z"
       id="path1291-6"
       inkscape:connector-curvature="0"
       sodipodi:nodetypes="cccc" />
  </g>
  <g
     inkscape:groupmode="layer"
     id="layer4"
     inkscape:label="speechbubbles"
     style="display:inline">
    <path
       id="path4040-4-1"
       style="color:#000000;display:inline;overflow:visible;visibility:visible;fill:#ffffff;fill-opacity:1;fill-rule:nonzero;stroke:none;stroke-width:0.898513px;marker:none;enable-background:accumulate"
       d="m 412.73746,1862.907 c -65.80323,0.5059 -132.06172,0.3148 -197.10542,9.1097 -38.48369,5.7461 -75.25084,20.651 -101.15386,43.7188 -11.80524,10.6277 -20.131113,23.5688 -23.594882,37.3619 -6.106736,22.0556 -3.589719,45.076 3.337781,66.8253 7.345481,21.9422 21.765521,43.0064 44.359021,57.7349 20.4249,13.6384 46.01676,22.0004 72.37506,25.7381 26.19732,4.0639 52.78755,6.4226 79.38621,8.2042 74.26226,4.5407 148.794,1.9182 223.16481,1.1053 43.36164,-0.8881 87.28689,-4.1083 128.37834,-15.5404 22.86073,-6.0258 45.92836,-13.4924 63.75258,-26.502 15.99154,-12.7858 23.69935,-30.1577 29.07836,-47.1172 6.4569,-21.5159 8.49616,-43.9932 4.34963,-65.898 -4.90489,-21.4499 -20.23804,-41.2503 -42.1253,-54.8553 -18.5644,-11.8929 -41.16477,-19.2926 -64.24044,-24.1115 -65.67297,-15.1297 -134.83506,-15.7392 -202.77418,-15.8025 -5.72932,-0.014 -11.45846,0.011 -17.18771,0.029 z" />
    <path
       style="color:#000000;display:inline;overflow:visible;visibility:visible;fill:#ffffff;fill-opacity:1;fill-rule:nonzero;stroke:none;stroke-width:1.80075px;marker:none;enable-background:accumulate"
       d="m 539.19946,1927.3519 c 7.55014,-44.8382 62.74837,-99.1824 137.61984,-61.3131 -80.77928,-16.5552 -107.19343,39.0539 -106.74645,81.3775 0.39562,37.4602 -16.36437,17.1598 -16.36437,17.1598 z"
       id="path4440-1"
       inkscape:connector-curvature="0"
       sodipodi:nodetypes="ccscc" />
    <path
       style="color:#000000;display:inline;overflow:visible;visibility:visible;fill:#ffffff;fill-opacity:1;fill-rule:nonzero;stroke:none;stroke-width:0.624178px;marker:none;enable-background:accumulate"
       d="m 1809.6293,2838.742 c -14.8549,2.5941 -29.8073,6.1471 -43.8411,15.0673 -7.3889,5.0192 -13.3845,15.2749 -16.9874,27.5302 -2.8138,9.6259 -4.189,20.8902 -2.9607,31.7544 1.8737,17.7548 9.1248,33.6763 18.666,40.7039 9.0939,7.3046 19.0489,9.9763 28.8508,11.8771 22.59,4.1258 45.26,2.1775 67.8861,3.6831 9.9415,0.5793 20.0914,-1.5255 29.1327,-8.7592 7.6258,-5.9879 14.4661,-15.7271 18.4103,-28.7969 2.8595,-9.1181 3.9543,-20.0225 2.7808,-30.4029 -0.9424,-9.349 -3.5664,-18.1027 -7.2202,-25.1567 -5.583,-11.1973 -13.2506,-18.6282 -21.2364,-22.9969 -10.7892,-6.3166 -21.9888,-9.99 -33.2014,-12.6239 -13.3813,-2.8848 -26.88,-3.1672 -40.2795,-1.8795 z"
       id="path4040-2"
       inkscape:connector-curvature="0"
       sodipodi:nodetypes="zssssz" />
    <path
       style="color:#000000;display:inline;overflow:visible;visibility:visible;fill:#ffffff;fill-opacity:1;fill-rule:nonzero;stroke:none;stroke-width:0.811733px;marker:none;enable-background:accumulate"
       d="m 1970.7532,2998.2521 c 42.5246,54.5422 86.7334,47.5024 118.7066,15.8691 -23.32,34.399 -69.359,69.3478 -144.2603,0.1036 -14.3413,-13.258 25.5537,-15.9727 25.5537,-15.9727 z"
       id="path5010-4"
       inkscape:connector-curvature="0"
       sodipodi:nodetypes="ccsc" />
    <path
       style="color:#000000;display:inline;overflow:visible;visibility:visible;fill:#ffffff;fill-opacity:1;fill-rule:nonzero;stroke:none;stroke-width:0.866707px;marker:none;enable-background:accumulate"
       d="M 1882.7598 2929.8555 C 1857.2423 2930.7872 1830.9583 2936.0641 1809.571 2950.6995 C 1796.3603 2960.1081 1789.0194 2975.2738 1783.5442 2990.0859 C 1777.0611 3007.1968 1774.2022 3026.7381 1780.7185 3044.2828 C 1787.4578 3062.4282 1802.7725 3075.9924 1819.4826 3084.9541 C 1855.9515 3104.6292 1899.262 3109.128 1939.7514 3102.1636 C 1952.8715 3099.9299 1966.1078 3096.55 1977.3758 3089.1873 C 1992.1403 3079.9899 2003.6727 3065.8018 2009.575 3049.4301 C 2018.9367 3024.6765 2016.5866 2995.0392 2000.8867 2973.3398 C 1988.1465 2955.4968 1968.0844 2944.1536 1947.1895 2938.5996 C 1926.31 2932.4846 1904.5082 2929.595 1882.7598 2929.8555 z "
       id="path4040-2-5"
       inkscape:connector-curvature="0"
       sodipodi:nodetypes="zssssz" />
    <rect
       style="color:#000000;overflow:visible;fill:#eeffdb;fill-opacity:0.89322001;stroke:#807e00;stroke-width:8.05223;paint-order:stroke fill markers;stop-color:#000000;filter:url(#filter8274);stroke-opacity:1"
       id="rect8238"
       width="417.40149"
       height="86.261734"
       x="128.97966"
       y="127.99652" />
  </g>
  <g
     inkscape:groupmode="layer"
     id="layer1"
     inkscape:label="txt">
    <text
       xml:space="preserve"
       style="font-style:normal;font-variant:normal;font-weight:normal;font-stretch:normal;font-size:45px;line-height:1.25;font-family:Lavi;-inkscape-font-specification:Lavi;text-align:center;letter-spacing:0px;word-spacing:0px;text-anchor:middle;fill:#000000;fill-opacity:1;stroke:none"
       x="339.29865"
       y="186.49605"
       id="text4246-3-2-2-35"><tspan
         style="font-size:45px"
         sodipodi:role="line"
         x="339.29865"
         y="186.49605"
         id="tspan905-2">Den samme aften...</tspan></text>
    <text
       xml:space="preserve"
       style="font-style:normal;font-variant:normal;font-weight:normal;font-stretch:normal;font-size:45px;line-height:1.25;font-family:Lavi;-inkscape-font-specification:Lavi;text-align:center;letter-spacing:0px;word-spacing:0px;text-anchor:middle;fill:#000000;fill-opacity:1;stroke:none"
       x="407.95737"
       y="1958.8977"
       id="text4246-3-2-2"><tspan
         style="font-size:45px"
         sodipodi:role="line"
         x="407.95737"
         y="1958.8977"
         id="tspan73">...så i aften siger vi velkommen</tspan><tspan
         style="font-size:45px"
         sodipodi:role="line"
         x="407.95737"
         y="2015.1477"
         id="tspan65">til dig, Shichimi, som vores</tspan><tspan
         style="font-size:45px"
         sodipodi:role="line"
         x="407.95737"
         y="2071.3977"
         id="tspan77">yngste Ah-ridder.</tspan><tspan
         style="font-size:45px"
         sodipodi:role="line"
         x="407.95737"
         y="2127.6477"
         id="tspan905" /></text>
    <text
       xml:space="preserve"
       style="font-style:normal;font-variant:normal;font-weight:normal;font-stretch:normal;font-size:45px;line-height:1.25;font-family:Lavi;-inkscape-font-specification:Lavi;text-align:center;letter-spacing:0px;word-spacing:0px;text-anchor:middle;fill:#000000;fill-opacity:1;stroke:none"
       x="281.69833"
       y="2592.4832"
       id="text4246-3-2-2-3"><tspan
         style="font-size:45px;fill:#000000;fill-opacity:1"
         sodipodi:role="line"
         x="281.69833"
         y="2592.4832"
         id="tspan1165">Stadig</tspan><tspan
         style="font-size:45px;fill:#000000;fill-opacity:1"
         sodipodi:role="line"
         x="281.69833"
         y="2648.7332"
         id="tspan84">intet spor</tspan><tspan
         style="font-size:45px;fill:#000000;fill-opacity:1"
         sodipodi:role="line"
         x="281.69833"
         y="2704.9832"
         id="tspan90">af Pepper?</tspan></text>
    <text
       xml:space="preserve"
       style="font-style:normal;font-variant:normal;font-weight:normal;font-stretch:normal;font-size:45px;line-height:1.25;font-family:Lavi;-inkscape-font-specification:Lavi;text-align:center;letter-spacing:0px;word-spacing:0px;text-anchor:middle;white-space:pre;inline-size:253.323;fill:#000000;fill-opacity:1;stroke:none"
       x="1320.327"
       y="2594.489"
       id="text4246-3-2-2-3-5"
       transform="translate(-10.795882,-6.9036151)"><tspan
         x="1320.327"
         y="2594.489"><tspan>Ikke endnu.</tspan></tspan></text>
    <text
       xml:space="preserve"
       style="font-style:normal;font-variant:normal;font-weight:normal;font-stretch:normal;font-size:45px;line-height:1.25;font-family:Lavi;-inkscape-font-specification:Lavi;text-align:center;letter-spacing:0px;word-spacing:0px;text-anchor:middle;fill:#000000;fill-opacity:1;stroke:none"
       x="1506.9663"
       y="2681.9597"
       id="text4246-3-2-2-3-5-1"><tspan
         style="font-size:45px;fill:#000000;fill-opacity:1"
         sodipodi:role="line"
         x="1506.9663"
         y="2681.9597"
         id="tspan97">Hun burde skynde sig,</tspan><tspan
         style="font-size:45px;fill:#000000;fill-opacity:1"
         sodipodi:role="line"
         x="1506.9663"
         y="2738.2097"
         id="tspan69">ellers går hun</tspan><tspan
         style="font-size:45px;fill:#000000;fill-opacity:1"
         sodipodi:role="line"
         x="1506.9663"
         y="2794.4597"
         id="tspan101">glip af Shichimis tale.</tspan></text>
    <text
       xml:space="preserve"
       style="font-style:normal;font-variant:normal;font-weight:normal;font-stretch:normal;font-size:45px;line-height:1.25;font-family:Lavi;-inkscape-font-specification:Lavi;text-align:center;letter-spacing:0px;word-spacing:0px;text-anchor:middle;fill:#000000;fill-opacity:1;stroke:none"
       x="1831.7936"
       y="2918.1755"
       id="text4246-3-2-2-3-5-1-7"><tspan
         style="font-size:45px"
         x="1831.7936"
         y="2918.1755"
         id="tspan7676"
         sodipodi:role="line">Tak.</tspan></text>
    <text
       xml:space="preserve"
       style="font-style:normal;font-variant:normal;font-weight:normal;font-stretch:normal;font-size:45px;line-height:1.25;font-family:Lavi;-inkscape-font-specification:Lavi;text-align:center;letter-spacing:0px;word-spacing:0px;text-anchor:middle;fill:#000000;fill-opacity:1;stroke:none"
       x="1898.54"
       y="3001.3691"
       id="text4246-3-2-2-3-5-1-7-3"><tspan
         style="font-size:45px"
         sodipodi:role="line"
         x="1898.54"
         y="3001.3691"
         id="tspan7730">Jeg vil</tspan><tspan
         style="font-size:45px"
         sodipodi:role="line"
         x="1898.54"
         y="3057.6191"
         id="tspan105">gerne...</tspan></text>
  </g>
</svg>
