<?xml version="1.0" encoding="UTF-8" standalone="no"?>
<!-- Created with Inkscape (http://www.inkscape.org/) -->

<svg
   xmlns:dc="http://purl.org/dc/elements/1.1/"
   xmlns:cc="http://creativecommons.org/ns#"
   xmlns:rdf="http://www.w3.org/1999/02/22-rdf-syntax-ns#"
   xmlns:svg="http://www.w3.org/2000/svg"
   xmlns="http://www.w3.org/2000/svg"
   xmlns:xlink="http://www.w3.org/1999/xlink"
   xmlns:sodipodi="http://sodipodi.sourceforge.net/DTD/sodipodi-0.dtd"
   xmlns:inkscape="http://www.inkscape.org/namespaces/inkscape"
   id="svg2"
   version="1.1"
   inkscape:version="0.92.4 (5da689c313, 2019-01-14)"
   width="2481"
   height="3503"
   sodipodi:docname="E09P02.svg">
  <sodipodi:namedview
     pagecolor="#ffffff"
     bordercolor="#666666"
     inkscape:pageopacity="0"
     inkscape:pageshadow="2"
     inkscape:window-width="1920"
     inkscape:window-height="975"
     id="namedview70"
     showgrid="false"
     inkscape:zoom="0.51265353"
     inkscape:cx="687.65147"
     inkscape:cy="529.47173"
     inkscape:current-layer="layer1"
     inkscape:window-x="0"
     inkscape:window-y="64"
     inkscape:window-maximized="1" />
  <metadata
     id="metadata8">
    <rdf:RDF>
      <cc:Work
         rdf:about="">
        <dc:format>image/svg+xml</dc:format>
        <dc:type
           rdf:resource="http://purl.org/dc/dcmitype/StillImage" />
        <dc:title />
      </cc:Work>
    </rdf:RDF>
  </metadata>
  <defs
     id="defs6" />
  <sodipodi:namedview
     pagecolor="#ffffff"
     bordercolor="#666666"
     borderopacity="1"
     objecttolerance="10"
     gridtolerance="10"
     guidetolerance="10"
     inkscape:pageopacity="0"
     inkscape:pageshadow="2"
     inkscape:window-width="1920"
     inkscape:window-height="1025"
     id="namedview4"
     showgrid="false"
     inkscape:zoom="0.34782609"
     inkscape:cx="1179.3576"
     inkscape:cy="636.93881"
     inkscape:window-x="0"
     inkscape:window-y="26"
     inkscape:window-maximized="1"
     inkscape:current-layer="layer1"
     showguides="false" />
  <g
     inkscape:groupmode="layer"
     id="layer2"
     inkscape:label="artwork"
     sodipodi:insensitive="true">
    <image
       sodipodi:absref="/felles/omsetting/pepper-carrot/webcomics/ep09_The-Remedy/lang/nn/../gfx_Pepper-and-Carrot_by-David-Revoy_E09P02.png"
       xlink:href="../gfx_Pepper-and-Carrot_by-David-Revoy_E09P02.png"
       width="2481"
       height="3503"
       id="image10"
       x="0"
       y="0" />
  </g>
  <g
     inkscape:groupmode="layer"
     id="layer3"
     inkscape:label="speechbubbles" />
  <g
     inkscape:groupmode="layer"
     id="layer1"
     inkscape:label="txt">
    <path
       style="fill:#ffffff;stroke:none;stroke-width:0.97907579"
       d="m 638.80453,2796.0321 c -12.91472,-119.4954 -19.61661,-206.8828 286.5404,-201.9741 215.14167,3.4494 291.43377,91.1976 272.80907,204.4807 -17.5148,106.5319 -184.3729,105.2808 -285.61509,108.1445 -165.15485,4.6715 -262.77104,-9.2111 -273.73438,-110.6511 z"
       id="path3274"
       inkscape:connector-curvature="0"
       sodipodi:nodetypes="asssa" />
    <path
       style="color:#000000;display:inline;overflow:visible;visibility:visible;fill:#ffffff;fill-opacity:1;fill-rule:nonzero;stroke:none;stroke-width:1.00761414px;marker:none;enable-background:accumulate"
       d="m 755.89621,2612.1218 c -59.32179,44.637 -258.61748,50.5479 -344.2233,4.9829 -55.1247,-29.341 -78.21599,-167.6802 -25.33101,-196.97 58.65915,-32.4877 326.19312,-29.941 404.58756,-13.1702 83.87137,17.9425 74.6913,54.9021 53.29178,116.0533 -41.73976,119.2753 -54.90779,63.959 -88.32503,89.104 z"
       id="path4040"
       inkscape:connector-curvature="0"
       sodipodi:nodetypes="ssssss" />
    <path
       style="color:#000000;display:inline;overflow:visible;visibility:visible;fill:#ffffff;fill-opacity:1;fill-rule:nonzero;stroke:none;stroke-width:0.99999994px;marker:none;enable-background:accumulate"
       d="m 158.5365,1484.3376 c 7.291,-69.8684 93.14629,-120.4435 315.80423,-105.79 119.26762,7.8492 254.71161,13.3827 245.41494,115.7442 -9.29684,102.3613 -203.99228,98.4173 -244.19893,100.5415 -40.2067,2.1246 -249.51083,-10.026 -285.96583,-45.1126 -22.81999,-21.9632 -31.80804,-43.7344 -31.05441,-65.3831 z"
       id="path4546-0-3"
       inkscape:connector-curvature="0"
       sodipodi:nodetypes="cssssc" />
    <path
       style="color:#000000;display:inline;overflow:visible;visibility:visible;fill:#ffffff;fill-opacity:1;fill-rule:nonzero;stroke:none;stroke-width:1px;marker:none;enable-background:accumulate"
       d="m 181.85704,237.97293 c -1.10047,-57.32649 87.35998,-69.41682 165.2991,-69.58715 77.93926,-0.17032 210.13605,1.8189 208.43531,81.92893 -1.97733,93.13843 -259.67907,70.4535 -267.31144,71.81988 -7.63238,1.36625 -119.13197,-14.77599 -106.42297,-84.16166 z"
       id="path5018"
       inkscape:connector-curvature="0"
       sodipodi:nodetypes="csscc" />
    <path
       style="fill:#ffffff;fill-rule:evenodd;stroke:none;stroke-width:1px;stroke-linecap:butt;stroke-linejoin:miter;stroke-opacity:1"
       d="m 842.8376,505.67472 c 22.75894,31.36316 36.92168,58.48731 -3.76855,108.91199 46.07559,-30.50609 66.18145,-76.69578 53.29121,-112.23489 -12.89024,-35.53909 -49.52266,3.3229 -49.52266,3.3229 z"
       id="path4201"
       inkscape:connector-curvature="0" />
    <path
       style="fill:#ffffff;stroke:none"
       d="m 599.66457,1809.031 c 51.60054,6.5328 69.89222,45.7908 69.53557,69.1473 -0.35672,23.3565 51.26695,38.0903 71.5221,24.124 -42.11057,37.4152 -95.95231,11.4531 -119.94631,-33.3419 -7.04419,-13.1509 -32.45984,-13.1413 -49.73119,5.435 -15.96302,17.1691 -43.85075,15.3917 -43.85075,15.3917 z"
       id="path3276"
       inkscape:connector-curvature="0"
       sodipodi:nodetypes="cscsscc" />
    <path
       style="color:#000000;display:inline;overflow:visible;visibility:visible;fill:#ffffff;fill-opacity:1;fill-rule:nonzero;stroke:none;stroke-width:1px;marker:none;enable-background:accumulate"
       d="m 771.15761,1782.5103 c -4.9508,67.5084 -78.92218,118.0221 -273.71999,108.4454 -104.34421,-5.1299 -222.77213,-7.6966 -216.72881,-106.5724 6.04345,-98.8756 176.19753,-99.0522 211.27651,-101.922 35.07896,-2.8698 218.16091,4.5668 250.71796,37.6483 20.37993,20.7083 28.67324,41.514 28.45433,62.4007 z"
       id="path4546-0-6"
       inkscape:connector-curvature="0"
       sodipodi:nodetypes="cssssc" />
    <path
       style="color:#000000;display:inline;overflow:visible;visibility:visible;fill:#ffffff;fill-opacity:1;fill-rule:nonzero;stroke:none;stroke-width:1px;marker:none;enable-background:accumulate"
       d="m 214.22575,1643.5517 c -2.05017,-109.446 67.02617,-125.0244 293.29494,-116.9689 121.20177,4.315 258.73472,5.851 252.56262,107.9964 -6.17226,102.1452 -201.25361,97.7759 -242.07568,98.5204 -44.26828,0.8073 -186.89655,-11.3635 -222.60823,-24.0838 -29.60574,-10.5454 -78.59769,-27.1028 -81.17365,-65.4641 z"
       id="path4546-0"
       inkscape:connector-curvature="0"
       sodipodi:nodetypes="cssssc" />
    <path
       style="fill:#ffffff;fill-opacity:1;stroke:none;stroke-width:1"
       d="m 426.61606,376.66033 c -7.01183,-111.5499 82.95553,-160.181 277.88394,-155.11055 194.92837,5.07037 248.31637,75.6538 262.34001,114.94974 14.02367,39.29601 3.07983,132.45064 -117.52335,175.54949 C 728.7135,555.14769 543.43493,529.04673 487.31059,480.41784 438.75903,438.35037 428.0184,405.81534 426.61606,376.66033 Z"
       id="path3238"
       inkscape:connector-curvature="0"
       sodipodi:nodetypes="cssssc" />
    <flowRoot
       xml:space="preserve"
       id="flowRoot2987-4-9-3-7"
       style="font-style:normal;font-variant:normal;font-weight:normal;font-stretch:normal;line-height:0.01%;font-family:Lavi;-inkscape-font-specification:Lavi;text-align:center;letter-spacing:0px;word-spacing:0px;text-anchor:middle;fill:#000000;fill-opacity:1;stroke:none"
       transform="translate(277.83762,-23.558913)"><flowRegion
         id="flowRegion2989-5-4-5-9"><rect
           id="rect2991-7-9-6-4"
           width="630.74487"
           height="277.88373"
           x="111.92751"
           y="285.65546"
           style="font-style:normal;font-variant:normal;font-weight:normal;font-stretch:normal;font-family:Lavi;-inkscape-font-specification:Lavi;text-align:center;text-anchor:middle" /></flowRegion><flowPara
         style="font-size:48px;line-height:1.25;text-align:center;text-anchor:middle"
         id="flowPara4181">Eg hadde visst </flowPara><flowPara
         style="font-size:48px;line-height:1.25;text-align:center;text-anchor:middle"
         id="flowPara3460">heilt gløymt å</flowPara><flowPara
         style="font-size:48px;line-height:1.25;text-align:center;text-anchor:middle"
         id="flowPara3458">slå av «tryggings-systemet» ...</flowPara></flowRoot>    <flowRoot
       xml:space="preserve"
       id="flowRoot2987-4-9-3-7-3-7"
       style="font-style:normal;font-variant:normal;font-weight:normal;font-stretch:normal;line-height:0.01%;font-family:Lavi;-inkscape-font-specification:Lavi;text-align:center;letter-spacing:0px;word-spacing:0px;text-anchor:middle;fill:#000000;fill-opacity:1;stroke:none"
       transform="translate(121.07446,1472.6242)"><flowRegion
         id="flowRegion2989-5-4-5-9-3-2"><rect
           id="rect2991-7-9-6-4-4-0"
           width="577.74487"
           height="312.3837"
           x="120.55251"
           y="265.53046"
           style="font-style:normal;font-variant:normal;font-weight:normal;font-stretch:normal;font-family:Lavi;-inkscape-font-specification:Lavi;text-align:center;text-anchor:middle" /></flowRegion><flowPara
         style="font-size:48px;line-height:1.25;text-align:center;text-anchor:middle"
         id="flowPara877">Det fall visst nokre regndropar ...?</flowPara></flowRoot>    <flowRoot
       xml:space="preserve"
       id="flowRoot2987-4-9-3-7-3-4"
       style="font-style:normal;font-variant:normal;font-weight:normal;font-stretch:normal;line-height:0.01%;font-family:Lavi;-inkscape-font-specification:Lavi;text-align:center;letter-spacing:0px;word-spacing:0px;text-anchor:middle;fill:#000000;fill-opacity:1;stroke:none"
       transform="translate(78.444963,1312.0323)"><flowRegion
         id="flowRegion2989-5-4-5-9-3-0"><rect
           id="rect2991-7-9-6-4-4-2"
           width="577.74487"
           height="312.3837"
           x="120.55251"
           y="265.53046"
           style="font-style:normal;font-variant:normal;font-weight:normal;font-stretch:normal;font-family:Lavi;-inkscape-font-specification:Lavi;text-align:center;text-anchor:middle" /></flowRegion><flowPara
         style="font-size:48px;line-height:1.25;text-align:center;text-anchor:middle"
         id="flowPara4298-3">Korleis har forresten</flowPara><flowPara
         style="font-size:48px;line-height:1.25;text-align:center;text-anchor:middle"
         id="flowPara873">natta vore?</flowPara></flowRoot>    <flowRoot
       xml:space="preserve"
       id="flowRoot2987-4-9-3-7-3-7-8"
       style="font-style:normal;font-variant:normal;font-weight:normal;font-stretch:normal;line-height:0.01%;font-family:Lavi;-inkscape-font-specification:Lavi;text-align:center;letter-spacing:0px;word-spacing:0px;text-anchor:middle;fill:#000000;fill-opacity:1;stroke:none"
       transform="translate(187.00435,2169.4217)"><flowRegion
         id="flowRegion2989-5-4-5-9-3-2-0"><rect
           id="rect2991-7-9-6-4-4-0-8"
           width="577.74487"
           height="312.3837"
           x="120.55251"
           y="265.53046"
           style="font-style:normal;font-variant:normal;font-weight:normal;font-stretch:normal;font-family:Lavi;-inkscape-font-specification:Lavi;text-align:center;text-anchor:middle" /></flowRegion><flowPara
         style="font-size:48px;line-height:1.25;text-align:center;text-anchor:middle"
         id="flowPara4412">Eg er så lei for det!</flowPara><flowPara
         style="font-size:48px;line-height:1.25;text-align:center;text-anchor:middle"
         id="flowPara3477">Men, ingen skade</flowPara><flowPara
         style="font-size:48px;line-height:1.25;text-align:center;text-anchor:middle"
         id="flowPara881">skjedd, kva?</flowPara></flowRoot>    <path
       style="color:#000000;display:inline;overflow:visible;visibility:visible;fill:#ffffff;fill-opacity:1;fill-rule:nonzero;stroke:none;stroke-width:1px;marker:none;enable-background:accumulate"
       d="m 1216.7346,2918.2863 c -43.3715,1.0822 -59.0619,-1.0925 -84.8726,-48.9239 -25.8107,-47.8314 -41.7698,-38.7869 -41.7698,-38.7869 l -1.2183,35.8616 c 0,0 61.508,98.5494 127.8607,51.8492 z"
       id="path3072"
       inkscape:connector-curvature="0" />
    <flowRoot
       xml:space="preserve"
       id="flowRoot2987-4-9-3-7-3-7-8-5"
       style="font-style:normal;font-variant:normal;font-weight:normal;font-stretch:normal;line-height:0.01%;font-family:Lavi;-inkscape-font-specification:Lavi;text-align:center;letter-spacing:0px;word-spacing:0px;text-anchor:middle;fill:#000000;fill-opacity:1;stroke:none"
       transform="translate(501.31345,2369.631)"><flowRegion
         id="flowRegion2989-5-4-5-9-3-2-0-4"><rect
           id="rect2991-7-9-6-4-4-0-8-5"
           width="577.74487"
           height="312.3837"
           x="120.55251"
           y="265.53046"
           style="font-style:normal;font-variant:normal;font-weight:normal;font-stretch:normal;font-family:Lavi;-inkscape-font-specification:Lavi;text-align:center;text-anchor:middle" /></flowRegion><flowPara
         style="font-size:48px;line-height:1.25;text-align:center;text-anchor:middle"
         id="flowPara4412-8">Eg har laga til te,</flowPara><flowPara
         style="font-size:48px;line-height:1.25;text-align:center;text-anchor:middle"
         id="flowPara874">så me alle kan koma</flowPara><flowPara
         style="font-size:48px;line-height:1.25;text-align:center;text-anchor:middle"
         id="flowPara878">til hektene att etter</flowPara><flowPara
         style="font-size:48px;line-height:1.25;text-align:center;text-anchor:middle"
         id="flowPara872">dette vesle uhellet!</flowPara></flowRoot>    <flowRoot
       transform="matrix(1.0893046,0,0.05787519,1.1966756,-208.64545,-104.66519)"
       style="font-style:normal;font-variant:normal;font-weight:normal;font-stretch:normal;line-height:0.01%;font-family:Lavi;-inkscape-font-specification:Lavi;text-align:center;letter-spacing:0px;word-spacing:0px;text-anchor:middle;fill:#000000;fill-opacity:1;stroke:#000000;stroke-width:1.97814989;stroke-miterlimit:4;stroke-dasharray:none;stroke-opacity:1"
       id="flowRoot4212-3-7-8-6"
       xml:space="preserve"><flowRegion
         id="flowRegion4214-6-7-8-3"><rect
           style="font-style:normal;font-variant:normal;font-weight:normal;font-stretch:normal;font-family:Lavi;-inkscape-font-specification:Lavi;text-align:center;text-anchor:middle;stroke:#000000;stroke-width:1.97814989;stroke-miterlimit:4;stroke-dasharray:none;stroke-opacity:1"
           y="265.53046"
           x="120.55251"
           height="355.03918"
           width="798.1947"
           id="rect4216-4-0-26-5" /></flowRegion><flowPara
         style="font-size:48px;line-height:1.25;text-align:center;letter-spacing:5.20896292px;text-anchor:middle;stroke:#000000;stroke-width:1.97814989;stroke-miterlimit:4;stroke-dasharray:none;stroke-opacity:1"
         id="flowPara4358-7-1">Orsak ...</flowPara></flowRoot>    <flowRoot
       xml:space="preserve"
       id="flowRoot2987-4-9-3-7-3-4-6"
       style="font-style:normal;font-variant:normal;font-weight:normal;font-stretch:normal;line-height:0.01%;font-family:Lavi;-inkscape-font-specification:Lavi;text-align:center;letter-spacing:0px;word-spacing:0px;text-anchor:middle;fill:#000000;fill-opacity:1;stroke:none"
       transform="translate(30.294829,1152.1741)"><flowRegion
         id="flowRegion2989-5-4-5-9-3-0-1"><rect
           id="rect2991-7-9-6-4-4-2-6"
           width="577.74487"
           height="312.3837"
           x="120.55251"
           y="265.53046"
           style="font-style:normal;font-variant:normal;font-weight:normal;font-stretch:normal;font-family:Lavi;-inkscape-font-specification:Lavi;text-align:center;text-anchor:middle" /></flowRegion><flowPara
         style="font-size:48px;line-height:1.25;text-align:center;text-anchor:middle"
         id="flowPara3462">Men eg er verkeleg</flowPara><flowPara
         style="font-size:48px;line-height:1.25;text-align:center;text-anchor:middle"
         id="flowPara871">glad for at de kom!</flowPara></flowRoot>    <flowRoot
       xml:space="preserve"
       id="flowRoot4519"
       style="font-style:normal;font-variant:normal;font-weight:normal;font-stretch:normal;line-height:0.01%;font-family:Arial;-inkscape-font-specification:Arial;letter-spacing:0px;word-spacing:0px;fill:#000000;fill-opacity:1;stroke:none;stroke-width:1px;stroke-linecap:butt;stroke-linejoin:miter;stroke-opacity:1"><flowRegion
         id="flowRegion4521"><rect
           id="rect4523"
           width="103.5"
           height="17.25"
           x="2866.375"
           y="1792.375" /></flowRegion><flowPara
         id="flowPara4525"
         style="font-size:12px;line-height:1.25"> </flowPara></flowRoot>  </g>
</svg>
