<?xml version="1.0" encoding="UTF-8" standalone="no"?>
<!-- Created with Inkscape (http://www.inkscape.org/) -->

<svg
   id="svg2"
   version="1.1"
   inkscape:version="1.3 (0e150ed6c4, 2023-07-21)"
   width="2481"
   height="3503"
   sodipodi:docname="E37P08.svg"
   xmlns:inkscape="http://www.inkscape.org/namespaces/inkscape"
   xmlns:sodipodi="http://sodipodi.sourceforge.net/DTD/sodipodi-0.dtd"
   xmlns:xlink="http://www.w3.org/1999/xlink"
   xmlns="http://www.w3.org/2000/svg"
   xmlns:svg="http://www.w3.org/2000/svg"
   xmlns:rdf="http://www.w3.org/1999/02/22-rdf-syntax-ns#"
   xmlns:cc="http://creativecommons.org/ns#"
   xmlns:dc="http://purl.org/dc/elements/1.1/">
  <metadata
     id="metadata8">
    <rdf:RDF>
      <cc:Work
         rdf:about="">
        <dc:format>image/svg+xml</dc:format>
        <dc:type
           rdf:resource="http://purl.org/dc/dcmitype/StillImage" />
        <dc:title />
      </cc:Work>
    </rdf:RDF>
  </metadata>
  <defs
     id="defs6">
    <filter
       style="color-interpolation-filters:sRGB"
       id="filter4375-4-1-1-15-1-3-5"
       inkscape:label="deevad outline effect"
       x="-0.0010983899"
       y="-0.0045733851"
       width="1.0021968"
       height="1.0091468">
      <feFlood
         id="feFlood4377-7-9-0-4-4-4-9"
         flood-opacity="1"
         flood-color="rgb(0,0,0)"
         result="flood" />
      <feComposite
         id="feComposite4379-3-8-8-6-0-7-7"
         in2="SourceGraphic"
         in="flood"
         operator="in"
         result="composite1" />
      <feMorphology
         id="feMorphology4393-1-0-49-8-2-7-7"
         operator="dilate"
         radius="0.69999999999999996"
         result="result3" />
      <feComposite
         id="feComposite4385-9-5-7-2-1-2-6"
         in2="result3"
         in="SourceGraphic"
         operator="over"
         result="composite2" />
    </filter>
    <filter
       style="color-interpolation-filters:sRGB"
       id="filter4375-4-1-1-15-1-3-5-1"
       inkscape:label="deevad outline effect"
       x="-0.0017880683"
       y="-0.0034836332"
       width="1.0035761"
       height="1.0069673">
      <feFlood
         id="feFlood4377-7-9-0-4-4-4-9-2"
         flood-opacity="1"
         flood-color="rgb(0,0,0)"
         result="flood" />
      <feComposite
         id="feComposite4379-3-8-8-6-0-7-7-7"
         in2="SourceGraphic"
         in="flood"
         operator="in"
         result="composite1" />
      <feMorphology
         id="feMorphology4393-1-0-49-8-2-7-7-0"
         operator="dilate"
         radius="0.69999999999999996"
         result="result3" />
      <feComposite
         id="feComposite4385-9-5-7-2-1-2-6-9"
         in2="result3"
         in="SourceGraphic"
         operator="over"
         result="composite2" />
    </filter>
    <filter
       style="color-interpolation-filters:sRGB"
       id="filter4375-4-1-1-1-9-30-2-7-9"
       inkscape:label="Roughen"
       x="0"
       y="0"
       width="1"
       height="1">
      <feFlood
         id="feFlood4377-7-9-0-8-1-78-6-7-8"
         flood-opacity="1"
         flood-color="rgb(0,0,0)"
         result="flood" />
      <feComposite
         id="feComposite4379-3-8-8-2-77-68-1-1-4"
         in2="SourceGraphic"
         in="flood"
         operator="in"
         result="composite1" />
      <feMorphology
         id="feMorphology4393-1-0-49-8-9-8-0-1-8"
         operator="dilate"
         radius="4"
         result="result3" />
      <feComposite
         id="feComposite4385-9-5-7-0-8-4-6-5-1"
         in2="result3"
         in="SourceGraphic"
         operator="over"
         result="fbSourceGraphic" />
      <feColorMatrix
         result="fbSourceGraphicAlpha"
         in="fbSourceGraphic"
         values="0 0 0 -1 0 0 0 0 -1 0 0 0 0 -1 0 0 0 0 1 0"
         id="feColorMatrix333-3-1-9-0" />
      <feTurbulence
         id="feTurbulence335-1-5-7-3"
         type="fractalNoise"
         numOctaves="5"
         seed="1"
         baseFrequency="0.013 0.013"
         result="turbulence" />
      <feDisplacementMap
         in2="turbulence"
         id="feDisplacementMap337-4-9-7-0"
         in="fbSourceGraphic"
         scale="6.6"
         yChannelSelector="G"
         xChannelSelector="R"
         result="fbSourceGraphic" />
      <feColorMatrix
         result="fbSourceGraphicAlpha"
         in="fbSourceGraphic"
         values="0 0 0 -1 0 0 0 0 -1 0 0 0 0 -1 0 0 0 0 1 0"
         id="feColorMatrix435-92-4-6-4" />
      <feTurbulence
         id="feTurbulence437-06-9-7-4"
         type="fractalNoise"
         numOctaves="5"
         seed="27"
         baseFrequency="0.001 0.4414"
         result="turbulence" />
      <feDisplacementMap
         in2="turbulence"
         id="feDisplacementMap439-8-0-3-4"
         in="fbSourceGraphic"
         scale="4.27461"
         yChannelSelector="G"
         xChannelSelector="R" />
    </filter>
  </defs>
  <sodipodi:namedview
     pagecolor="#ffffff"
     bordercolor="#666666"
     borderopacity="1"
     objecttolerance="10"
     gridtolerance="10"
     guidetolerance="10"
     inkscape:pageopacity="0"
     inkscape:pageshadow="2"
     inkscape:window-width="1888"
     inkscape:window-height="1144"
     id="namedview4"
     showgrid="false"
     inkscape:zoom="0.49190039"
     inkscape:cx="850.782"
     inkscape:cy="2314.493"
     inkscape:window-x="32"
     inkscape:window-y="0"
     inkscape:window-maximized="1"
     inkscape:current-layer="layer1"
     inkscape:pagecheckerboard="0"
     inkscape:showpageshadow="0"
     inkscape:deskcolor="#d1d1d1" />
  <g
     inkscape:groupmode="layer"
     id="layer2"
     inkscape:label="artwork"
     sodipodi:insensitive="true">
    <image
       xlink:href="../gfx_Pepper-and-Carrot_by-David-Revoy_E37P08.png"
       y="0"
       x="0"
       id="image10"
       height="3503"
       width="2481" />
  </g>
  <g
     inkscape:groupmode="layer"
     id="layer3"
     inkscape:label="speechbubbles">
    <path
       style="color:#000000;display:inline;overflow:visible;visibility:visible;fill:#ffffff;fill-opacity:1;fill-rule:nonzero;stroke:none;stroke-width:0.702239px;marker:none;enable-background:accumulate"
       d="m 143.6158,135.32326 c 3.61636,-3.47216 10.23506,-0.94728 14.93963,-2.67999 4.70465,-1.73323 7.49516,-7.72454 12.2427,-9.00489 16.434,-3.67137 34.23308,2.62188 51.02849,1.31925 16.79557,-1.30213 32.58754,-10.20068 49.401,-10.0798 16.00836,0.3564 30.48675,9.12472 46.44109,11.00113 15.95426,1.87589 33.38456,-3.14118 48.70613,1.68343 7.29045,2.30959 6.83687,10.19444 13.282,14.32648 6.44512,4.13205 19.78885,4.51128 23.91705,11.03383 6.9447,10.63903 2.92843,23.26496 4.09769,35.68237 1.16936,12.41738 7.52409,24.62571 4.45402,36.56479 -2.33391,8.46331 -14.95723,13.33822 -19.64392,21.02335 -4.68659,7.68513 -1.43645,18.18047 -9.3706,22.93296 -7.52008,3.87577 -20.52519,-1.10706 -28.78792,0.69931 -8.26273,1.80638 -11.78307,10.403 -20.10604,11.53444 -20.35133,2.28727 -41.91286,-5.65256 -62.39454,-5.40304 -20.48168,0.25005 -39.88333,8.69 -60.30896,7.42523 -9.80417,-0.84301 -17.0253,-10.01495 -26.83347,-11.3866 -9.80808,-1.37111 -22.20302,5.05806 -31.37023,1.24196 -6.40207,-2.58195 -7.71841,-11.88565 -12.37786,-16.79794 -4.65946,-4.91227 -12.66195,-5.43312 -14.86133,-11.80782 -2.79514,-7.83506 4.85404,-17.55016 3.7837,-25.76029 -1.07042,-8.21065 -10.86025,-14.91633 -11.18589,-23.14202 -0.009,-11.18167 12.98179,-17.28143 17.37647,-27.48937 4.39468,-10.20844 0.19823,-24.52455 7.57079,-32.91677 z"
       id="path4040-4-5"
       inkscape:connector-curvature="0"
       sodipodi:nodetypes="cscscscscscscscscscscscsc" />
    <path
       style="color:#000000;display:inline;overflow:visible;visibility:visible;fill:#ffffff;fill-opacity:1;fill-rule:nonzero;stroke:none;stroke-width:0.753284px;marker:none;enable-background:accumulate"
       d="m 207.45442,334.26656 c 2.90942,-2.17208 8.23426,-0.59258 12.01916,-1.67653 3.78494,-1.08425 6.02995,-4.83222 9.84941,-5.63318 13.22135,-2.29668 27.54096,1.64018 41.05309,0.82529 13.51227,-0.81457 26.21711,-6.38122 39.74376,-6.30561 12.87894,0.22295 24.52699,5.70816 37.36247,6.88197 12.8354,1.1735 26.85834,-1.96503 39.18473,1.0531 5.86527,1.4448 5.50036,6.37731 10.68553,8.96219 5.1852,2.58486 15.92041,2.82213 19.24159,6.90242 5.58712,6.65544 2.35596,14.55383 3.29667,22.32176 0.94076,7.76794 6.05322,15.40509 3.5833,22.87379 -1.87764,5.29438 -12.03331,8.34397 -15.80378,13.15154 -3.77042,4.80759 -1.15564,11.37314 -7.53878,14.34614 -6.05001,2.42457 -16.5128,-0.69253 -23.16027,0.43747 -6.64749,1.13002 -9.47963,6.50779 -16.17555,7.21559 -16.37295,1.43084 -33.71947,-3.53607 -50.19725,-3.37998 -16.4778,0.15642 -32.08667,5.43619 -48.51937,4.64499 -7.88758,-0.52736 -13.69706,-6.26503 -21.58788,-7.12309 -7.89074,-0.85773 -17.86262,3.16418 -25.23777,0.77691 -5.15053,-1.61516 -6.20956,-7.43527 -9.95816,-10.50825 -3.74858,-3.07295 -10.1867,-3.39877 -11.95611,-7.3866 -2.24874,-4.90135 3.90513,-10.97884 3.044,-16.11482 -0.86115,-5.13633 -8.7372,-9.3312 -8.99918,-14.4769 -0.006,-6.99493 10.44404,-10.81074 13.97961,-17.1965 3.53558,-6.38608 0.15945,-15.34179 6.09078,-20.5917 z"
       id="path4040-4-5-5"
       inkscape:connector-curvature="0"
       sodipodi:nodetypes="cscscscscscscscscscscscsc" />
    <path
       style="color:#000000;display:inline;overflow:visible;visibility:visible;fill:#ffffff;fill-opacity:1;fill-rule:nonzero;stroke:none;stroke-width:1px;marker:none;enable-background:accumulate"
       d="M 248.60156 229.58203 C 244.39892 229.98448 241.3875 233.85856 240.47519 237.75004 C 239.37916 241.79267 241.34033 245.7317 242.02336 249.66032 C 249.14144 280.69184 255.56648 312.03167 266.61848 341.97015 C 270.54885 352.2806 275.2506 362.27439 279.89538 372.27648 C 286.60214 386.36532 293.8784 400.22398 302.4333 413.28668 C 312.21154 425.54126 325.33528 434.57193 338.87446 442.20971 C 347.30329 447.12997 355.71022 452.10469 363.78516 457.59375 C 367.15748 462.3499 366.92193 468.81374 364.63436 473.97432 C 363.20776 478.79123 361.79543 484.10452 363.59389 489.01582 C 367.05325 495.85037 374.7656 499.72306 382.24414 499.86914 C 389.10791 500.39517 396.04583 500.09655 402.84766 501.30664 C 406.74858 503.4322 408.22032 507.89592 410.02468 511.66104 C 413.40285 518.84343 419.15291 525.37394 426.87375 527.8922 C 435.05955 530.69638 444.22435 528.98089 451.63807 524.82257 C 457.91976 521.88721 464.15756 518.8258 470.67383 516.43359 C 459.91483 517.79013 449.73813 522.43753 438.80273 522.60547 C 429.27116 521.61609 421.21593 513.86243 419.00927 504.66886 C 417.80185 500.37952 415.78134 495.82905 411.63821 493.65685 C 406.78201 490.76048 400.87265 491.07377 395.46928 491.72699 C 390.0183 492.26335 384.07323 492.62468 379.17984 489.70927 C 375.67117 487.49889 374.49265 482.84505 375.55219 478.98918 C 376.59113 475.02548 379.28898 471.75457 380.38477 467.80469 C 381.89521 463.30556 382.13682 458.10466 379.70119 453.87495 C 376.86537 448.48729 371.69106 444.8869 366.47298 442.04054 C 353.39351 433.89207 339.60337 426.46274 328.53129 415.56384 C 317.03507 403.43023 309.22498 388.47156 301.64138 373.73051 C 289.09435 349.13379 276.86605 324.12236 269.45508 297.41992 C 266.72368 287.68483 265.19715 277.19384 267.89844 267.27539 C 269.04475 263.06294 271.79926 259.48584 274.98828 256.58984 C 276.26643 254.49474 274.72734 252.1689 273.76973 250.2899 C 271.32404 245.94145 268.03597 242.15398 265.14853 238.10669 C 261.11379 233.15191 255.16362 229.43373 248.60156 229.58203 z "
       id="path4496-8"
       inkscape:connector-curvature="0"
       sodipodi:nodetypes="cccccccccccccccccccc" />
    <path
       style="color:#000000;display:inline;overflow:visible;visibility:visible;fill:#ffffff;fill-opacity:1;fill-rule:nonzero;stroke:none;stroke-width:1.46921px;marker:none;enable-background:accumulate"
       d="m 1501.4604,479.70832 c 6.0005,-80.26185 76.0227,-138.84437 257.4978,-123.35732 97.2077,8.2953 207.6027,13.83564 199.9402,131.41503 -7.6626,117.58038 -166.3543,114.22063 -199.1282,116.90097 -32.774,2.68131 -203.3666,-10.01248 -233.052,-50.07713 -18.5819,-25.07932 -25.8901,-50.02216 -25.2578,-74.88155 z"
       id="path4546-6-5"
       inkscape:connector-curvature="0"
       sodipodi:nodetypes="cssssc" />
    <path
       style="color:#000000;display:inline;overflow:visible;visibility:visible;fill:#ffffff;fill-opacity:1;fill-rule:nonzero;stroke:none;stroke-width:1.02629px;marker:none;enable-background:accumulate"
       d="m 1647.4996,181.75651 c -2.8067,-65.53932 -47.1606,-114.514217 -164.3231,-105.034832 -62.7584,5.077346 -133.9795,7.679992 -130.595,103.672092 3.3847,95.99291 105.7033,96.00551 126.7901,98.75901 21.087,2.75431 131.1989,-4.63653 150.8601,-36.78538 12.3072,-20.12427 17.3468,-40.33275 17.2679,-60.61089 z"
       id="path4546-6-5-1"
       inkscape:connector-curvature="0"
       sodipodi:nodetypes="cssssc" />
    <path
       style="color:#000000;display:inline;overflow:visible;visibility:visible;fill:#ffffff;fill-opacity:1;fill-rule:nonzero;stroke:none;stroke-width:1.123px;marker:none;enable-background:accumulate"
       d="m 1794.7169,316.04882 c -3.19,-44.77306 -53.6016,-78.23018 -186.7655,-71.75436 -71.3296,3.46859 -152.2777,5.24658 -148.4308,70.82341 3.8468,65.57739 120.1395,65.58599 144.1063,67.46704 23.9668,1.88159 149.1173,-3.16744 171.4636,-25.12987 13.9882,-13.74785 19.716,-27.55324 19.6264,-41.40622 z"
       id="path4546-6-5-1-8"
       inkscape:connector-curvature="0"
       sodipodi:nodetypes="cssssc" />
    <path
       style="color:#000000;display:inline;overflow:visible;visibility:visible;fill:#ffffff;fill-opacity:1;fill-rule:nonzero;stroke:none;stroke-width:1px;marker:none;enable-background:accumulate"
       d="m 2028.2472,543.45854 c -37.3331,39.54779 -57.8273,37.26198 -72.9181,37.37736 -0.6657,-5.19261 -3.4254,-13.93796 -3.4254,-13.93796 0,0 -29.9699,3.29695 -41.2638,0.37719 -11.2939,-2.91973 -7.1578,-18.91959 -7.1578,-18.91959 0,0 58.3009,-8.02179 70.8431,-13.81554 1.2997,14.39271 3.6048,21.01241 2.1448,26.65978 8.2273,3.13074 38.2294,-4.17454 51.7772,-17.74124 z"
       id="path4456-3"
       inkscape:connector-curvature="0" />
    <path
       style="color:#000000;display:inline;overflow:visible;visibility:visible;fill:#ffffff;fill-opacity:1;fill-rule:nonzero;stroke:none;stroke-width:0.979012px;marker:none;enable-background:accumulate"
       d="m 656.80169,1592.2113 c -17.89954,-5.2851 -69.512,-47.1466 -6.2117,-44.9601 -46.58732,-17.614 -40.39427,-52.6687 -2.10994,-73.1426 -50.21577,4.1847 -87.48035,-4.552 -61.60552,-40.7324 -74.27761,23.1697 -107.24288,27.8941 -91.80661,-22.9244 -34.21669,41.9338 -67.03679,34.1074 -75.49148,-14.9474 -7.71067,36.5637 -24.17114,56.5467 -73.23744,10.5097 -3.61175,13.4158 -13.85734,55.8724 -119.65946,43.6898 40.09617,25.5724 65.56688,41.9413 -2.66489,52.7596 34.7734,11.5042 56.94892,27.088 2.75341,51.8466 35.11612,7.8196 90.67119,5.5272 23.20801,52.8806 44.47783,-22.3804 118.67177,-6.2099 86.69313,29.8898 87.15795,-40.5626 103.9212,-29.7469 117.08178,-0.6825 32.40697,-42.5575 79.2409,-37.7373 106.48165,-12.9989 -13.24267,-37.7137 56.54683,-31.2038 96.56906,-31.1878 z"
       id="path3549-3-78-5"
       inkscape:connector-curvature="0"
       sodipodi:nodetypes="ccccccccccccccc" />
    <path
       style="color:#000000;display:inline;overflow:visible;visibility:visible;fill:#ffffff;fill-opacity:1;fill-rule:nonzero;stroke:none;stroke-width:0.959944px;marker:none;enable-background:accumulate"
       d="m 379.74497,1694.667 c 19.63276,-5.2024 76.24286,-46.4087 6.81318,-44.2565 51.09838,-17.3383 44.30566,-51.8444 2.31425,-71.9979 55.07818,4.1192 95.95109,-4.4807 67.57079,-40.0949 81.46994,22.8071 117.62724,27.4576 100.69626,-22.5656 37.5299,41.2775 73.52799,33.5736 82.80135,-14.7135 8.4573,35.9915 26.51163,55.6617 80.32904,10.3452 3.96147,13.2059 15.19914,54.998 131.24611,43.0061 -43.9787,25.1722 -71.91574,41.2849 2.92292,51.9339 -38.14051,11.3241 -62.46329,26.664 -3.02002,51.0352 -38.51641,7.6972 -99.4509,5.4407 -25.45524,52.053 -48.78463,-22.0302 -130.16279,-6.1127 -95.08765,29.422 -95.59747,-39.9278 -113.98391,-29.2814 -128.41883,-0.6718 -35.54495,-41.8915 -86.91381,-37.1467 -116.79229,-12.7955 14.52496,-37.1235 -62.02227,-30.7154 -105.91987,-30.6997 z"
       id="path3549-3-78-5-2"
       inkscape:connector-curvature="0"
       sodipodi:nodetypes="ccccccccccccccc" />
    <path
       style="color:#000000;display:inline;overflow:visible;visibility:visible;fill:#ffffff;fill-opacity:1;fill-rule:nonzero;stroke:none;stroke-width:1px;marker:none;enable-background:accumulate"
       d="m 730.6484,1672.3589 c 24.58889,17.0255 58.1857,36.9488 66.10452,35.8831 -8.27321,5.3495 -14.59566,11.5935 -19.61526,16.3705 10.8945,10.2124 55.72892,28.2136 80.79774,39.0726 -45.44587,-1.2883 -99.65783,-22.4232 -118.62671,-35.9648 9.69378,-3.5509 16.76376,-8.3846 19.55366,-12.4141 -5.41715,-10.5354 -45.88559,-24.0982 -46.46956,-23.6682 z"
       id="path5066-6"
       inkscape:connector-curvature="0"
       sodipodi:nodetypes="cccccccc" />
    <path
       style="color:#000000;display:inline;overflow:visible;visibility:visible;fill:#ffffff;fill-opacity:1;fill-rule:nonzero;stroke:none;stroke-width:1.25301px;marker:none;enable-background:accumulate"
       d="m 1892.2351,1496.0149 c -8.1474,29.3996 -54.0998,31.8653 -71.0163,25.8896 34.0995,32.8897 32.9107,53.3237 -13.3868,56.4975 77.6417,59.2757 14.194,50.306 1.6792,65.3361 60.9632,20.4287 35.4221,50.3725 24.5687,75.6811 59.4506,-13.0009 27.9634,6.0572 17.8589,52.1126 19.8001,-15.5991 70.2681,-65.0584 66.3593,7.1865 37.744,-40.1175 80.5489,-58.3002 106.6055,5.1022 18.6744,-43.1669 37.9303,-67.1003 71.5565,-4.2353 -9.1889,-67.6747 52.1515,-48.5498 93.9773,-29.6233 -9.9318,-18.0899 6.8776,-65.0514 47.8053,-43.9848 -27.8018,-29.5796 7.0167,-33.803 34.1163,-41.9798 -36.011,-12.101 -42.6477,-24.5832 24.2166,-38.0157 -50.8798,-1.2997 -98.3257,-3.9614 -38.6324,-49.7714 -18.7275,-1.1077 -63.1604,37.1158 -42.444,-74.749 -32.2029,35.8121 -66.5602,55.5777 -109.6478,-19.4386 -20.3911,37.477 -55.7593,56.0224 -71.1461,9.2104 -5.5303,19.9562 -28.462,27.4619 -47.9294,28.3725 -7.528,-7.9279 -15.2924,-18.6948 -23.3947,-32.8011 -13.2429,29.6193 -33.0526,49.6245 -71.1461,9.2105 z"
       id="path3549-3-7-1"
       inkscape:connector-curvature="0"
       sodipodi:nodetypes="cccccccccccccccccccc" />
    <path
       style="color:#000000;display:inline;overflow:visible;visibility:visible;fill:#ffffff;fill-opacity:1;fill-rule:nonzero;stroke:none;stroke-width:2.00053px;marker:none;enable-background:accumulate"
       d="m 1889.8797,1704.1371 c -6.0848,-9.0445 -78.053,18.5831 -74.6462,27.8679 0,0 -29.3607,-6.4482 -34.6423,-5.6747 -9.9834,10.8034 -12.9296,25.7173 -12.9296,25.7173 l -58.0107,-10.8388 43.8646,-1.7548 5.4216,-32.5531 48.8388,1.1853 38.3888,-41.3739 z"
       id="path4448"
       inkscape:connector-curvature="0"
       sodipodi:nodetypes="cccccccccc" />
    <path
       style="color:#000000;display:inline;overflow:visible;visibility:visible;fill:#ffffff;fill-opacity:1;fill-rule:nonzero;stroke:none;stroke-width:1.06316px;marker:none;enable-background:accumulate"
       d="m 210.2553,2061.3851 c -7.13847,20.9257 -47.4004,22.6804 -62.22194,18.4269 29.87678,23.4093 28.83521,37.9537 -11.72906,40.212 68.02696,42.1895 12.43626,35.8052 1.47138,46.5034 53.41374,14.5394 58.73583,37.9766 13.26455,58.5683 61.41085,-14.2913 52.6886,4.5456 29.11639,28.8516 30.65849,-14.7233 51.44638,-27.927 52.93413,8.652 39.97047,-33.2231 70.03633,-2.7425 67.22053,14.8161 16.36181,-30.7236 58.85807,-54.8937 57.60216,-18.2492 40.53947,-47.6607 76.96982,-30.5051 113.61605,-17.0345 9.62494,-14.385 10.74644,-36.4848 41.88538,-31.3059 -4.36603,-14.2581 6.14777,-24.0592 29.89148,-29.8795 -31.5516,-8.6128 -37.36646,-17.4971 21.21778,-27.0577 -44.57917,-0.9247 -86.14955,-2.8194 -33.84849,-35.4241 -16.40829,-0.789 -55.33871,26.4172 -37.18781,-53.2021 -28.21498,25.4888 -58.31785,39.557 -96.06953,-13.8361 -17.86603,26.6743 -48.85423,39.8736 -62.33563,6.5555 -4.84549,14.2041 -24.93748,19.5459 -41.99407,20.1938 -6.59582,-5.6421 -13.39864,-13.3055 -20.49769,-23.3459 -11.6028,21.0821 -28.95935,35.3198 -62.33561,6.5554 z"
       id="path3549-3-7"
       inkscape:connector-curvature="0"
       sodipodi:nodetypes="cccccccccccccccccccc" />
    <path
       style="fill:#ffffff;fill-rule:evenodd;stroke:none;stroke-width:1.28358px;stroke-linecap:butt;stroke-linejoin:miter;stroke-opacity:1"
       d="m 273.44061,2188.476 c 37.67243,17.4785 71.72569,28.3455 60.14826,-44.1497 66.68261,98.4231 57.11705,31.0167 67.66679,7.3582 39.64525,69.5257 73.75676,59.6177 103.3798,-14.7164 16.7463,107.2237 51.78971,55.2731 82.70381,39.2441 -0.0756,30.153 -8.51617,64.7288 82.70391,46.6026 -26.0822,27.2334 -39.29269,49.6508 19.07388,63.9195 -40.54397,21.8965 -59.32848,28.1445 -15.31465,56.5318 -23.38199,41.3532 -7.74318,65.9295 24.43519,83.394 -75.34305,2.4185 -57.19867,25.1692 -45.11116,46.6026 -64.14665,-44.0669 -73.1215,-26.4241 -67.66673,7.3582 -29.85655,-19.3792 -39.4892,-66.7095 -92.82423,-6.431 -15.86245,-20.0056 -42.91933,-43.747 -78.22237,18.6948 -2.4904,-54.4663 -28.30125,-52.4174 -65.78717,-22.0747 -9.88715,-51.0794 -47.01356,-25.1447 -86.46313,7.3583 32.19988,-49.8545 34.53321,-91.504 -28.19449,-115.2802 60.78839,-28.5205 39.50655,-51.8306 6.21389,-63.6954 42.99639,2.1968 45.94727,-36.7442 26.40284,-57.9526 35.52187,6.2276 44.48694,-1.7161 6.85556,-52.7641 z"
       id="path4582"
       inkscape:connector-curvature="0"
       sodipodi:nodetypes="ccccccccccccccccccc" />
    <path
       style="display:inline;fill:#ffffff;fill-rule:evenodd;stroke:none;stroke-width:1.2242px;stroke-linecap:butt;stroke-linejoin:miter;stroke-opacity:1"
       d="m 540.57434,2647.2931 14.22886,-155.5072 -40.08849,23.6621 -2.04668,-118.1312 -33.62214,7.7692 19.95272,138.816 33.30356,-19.8952 z"
       id="path4667-2"
       inkscape:connector-curvature="0"
       sodipodi:nodetypes="cccccccc" />
  </g>
  <g
     inkscape:groupmode="layer"
     id="layer1"
     inkscape:label="txt">
    <text
       xml:space="preserve"
       style="font-style:normal;font-variant:normal;font-weight:normal;font-stretch:normal;font-size:45.3333px;line-height:125%;font-family:Lavi;-inkscape-font-specification:Lavi;text-align:center;letter-spacing:0px;word-spacing:0px;text-anchor:middle;fill:#000000;fill-opacity:1;stroke:none"
       x="267.78494"
       y="191.73756"
       id="text4246-70-2-2-2-7-4-9-9-6-1-2-3-9-2-7-9-3-3-5"><tspan
         sodipodi:role="line"
         style="font-size:45.3333px"
         x="267.78494"
         y="191.73756"
         id="tspan1032">¡Ah! Has</tspan><tspan
         sodipodi:role="line"
         style="font-size:45.3333px"
         x="267.78494"
         y="248.40419"
         id="tspan1036">vuelto.</tspan></text>
    <text
       xml:space="preserve"
       style="font-style:normal;font-variant:normal;font-weight:normal;font-stretch:normal;font-size:34.2589px;line-height:125%;font-family:Lavi;-inkscape-font-specification:Lavi;text-align:center;letter-spacing:0px;word-spacing:0px;text-anchor:middle;fill:#000000;fill-opacity:1;stroke:none;stroke-width:1"
       x="313.10175"
       y="381.30099"
       id="text4246-70-2-2-2-7-4-9-9-6-1-2-3-9-2-7-9-3-3-5-36"><tspan
         sodipodi:role="line"
         style="font-size:34.2589px;stroke-width:1"
         x="313.10175"
         y="381.30099"
         id="tspan474">Que pronto...</tspan></text>
    <text
       xml:space="preserve"
       style="font-style:normal;font-variant:normal;font-weight:normal;font-stretch:normal;font-size:45.3333px;line-height:125%;font-family:Lavi;-inkscape-font-specification:Lavi;text-align:center;letter-spacing:0px;word-spacing:0px;text-anchor:middle;fill:#000000;fill-opacity:1;stroke:none"
       x="1496.1012"
       y="163.22484"
       id="text4246-70-2-2-2-7-4-9-9-6-1-2-3-9-2-7-9-3-3-5-3"><tspan
         sodipodi:role="line"
         style="font-style:normal;font-variant:normal;font-weight:bold;font-stretch:normal;font-size:45.3333px;font-family:Lavi;-inkscape-font-specification:'Lavi Bold'"
         x="1496.1012"
         y="163.22484"
         id="tspan16557">¿¡ Un arma</tspan><tspan
         sodipodi:role="line"
         style="font-style:normal;font-variant:normal;font-weight:bold;font-stretch:normal;font-size:45.3333px;font-family:Lavi;-inkscape-font-specification:'Lavi Bold'"
         x="1496.1012"
         y="219.89146"
         id="tspan1134">de metal?!</tspan></text>
    <text
       xml:space="preserve"
       style="font-style:normal;font-variant:normal;font-weight:normal;font-stretch:normal;font-size:45.3333px;line-height:125%;font-family:Lavi;-inkscape-font-specification:Lavi;text-align:center;letter-spacing:0px;word-spacing:0px;text-anchor:middle;fill:#000000;fill-opacity:1;stroke:none"
       x="1623.1512"
       y="326.78018"
       id="text4246-70-2-2-2-7-4-9-9-6-1-2-3-9-2-7-9-3-3-5-3-3"><tspan
         sodipodi:role="line"
         style="font-style:italic;font-variant:normal;font-weight:normal;font-stretch:normal;font-size:45.3333px;font-family:Lavi;-inkscape-font-specification:'Lavi Italic'"
         x="1623.1512"
         y="326.78018"
         id="tspan16557-6">¡¿En serio?!</tspan></text>
    <text
       xml:space="preserve"
       style="font-style:normal;font-variant:normal;font-weight:normal;font-stretch:normal;font-size:45.3333px;line-height:125%;font-family:Lavi;-inkscape-font-specification:Lavi;text-align:center;letter-spacing:0px;word-spacing:0px;text-anchor:middle;fill:#000000;fill-opacity:1;stroke:none"
       x="1742.8424"
       y="450.44391"
       id="text4246-70-2-2-2-7-4-9-9-6-1-2-3-9-2-7-9-3-3-5-3-3-2"><tspan
         sodipodi:role="line"
         style="font-size:45.3333px"
         x="1742.8424"
         y="450.44391"
         id="tspan26906">No sabes que puedo </tspan><tspan
         sodipodi:role="line"
         style="font-size:45.3333px"
         x="1742.8424"
         y="507.11053"
         id="tspan1145">derretir cualquier </tspan><tspan
         sodipodi:role="line"
         style="font-size:45.3333px"
         x="1742.8424"
         y="563.77716"
         id="tspan1147">metal y...</tspan></text>
    <text
       xml:space="preserve"
       style="color:#000000;font-style:normal;font-variant:normal;font-weight:normal;font-stretch:normal;font-size:66.6887px;line-height:0.01%;font-family:Lavi;-inkscape-font-specification:'Lavi, Normal';font-variant-ligatures:normal;font-variant-caps:normal;font-variant-numeric:normal;font-feature-settings:normal;text-align:start;letter-spacing:0.0113909px;word-spacing:0px;writing-mode:lr-tb;text-anchor:start;display:inline;overflow:visible;visibility:visible;fill:#ffffff;fill-opacity:1;fill-rule:nonzero;stroke:#000000;stroke-width:12;stroke-linecap:butt;stroke-linejoin:miter;stroke-miterlimit:4;stroke-dasharray:none;stroke-dashoffset:0;stroke-opacity:1;marker:none;paint-order:markers stroke fill;enable-background:accumulate"
       x="1186.1803"
       y="1892.3933"
       id="text1702-3"
       transform="matrix(0.76617461,-0.51781655,0.6039947,0.89697771,0,0)"><tspan
         sodipodi:role="line"
         id="tspan1032-6"
         x="1186.1803"
         y="1892.3933"
         style="font-style:normal;font-variant:normal;font-weight:bold;font-stretch:normal;font-family:Lavi;-inkscape-font-specification:'Lavi Bold';stroke:#000000;stroke-width:12;stroke-miterlimit:4;stroke-dasharray:none;stroke-opacity:1;paint-order:markers stroke fill">Plop</tspan></text>
    <text
       xml:space="preserve"
       style="color:#000000;font-style:normal;font-variant:normal;font-weight:normal;font-stretch:normal;font-size:57.2464px;line-height:0.01%;font-family:Lavi;-inkscape-font-specification:'Lavi, Normal';font-variant-ligatures:normal;font-variant-caps:normal;font-variant-numeric:normal;font-feature-settings:normal;text-align:start;letter-spacing:0.00977809px;word-spacing:0px;writing-mode:lr-tb;text-anchor:start;display:inline;overflow:visible;visibility:visible;fill:#ffffff;fill-opacity:1;fill-rule:nonzero;stroke:#000000;stroke-width:12;stroke-linecap:butt;stroke-linejoin:miter;stroke-miterlimit:4;stroke-dasharray:none;stroke-dashoffset:0;stroke-opacity:1;marker:none;paint-order:markers stroke fill;enable-background:accumulate"
       x="1290.0953"
       y="1974.2545"
       id="text1702-3-0"
       transform="matrix(0.73530329,-0.5395568,0.57965806,0.93463685,0,0)"><tspan
         sodipodi:role="line"
         id="tspan1032-6-6"
         x="1290.0953"
         y="1974.2545"
         style="font-style:normal;font-variant:normal;font-weight:bold;font-stretch:normal;font-family:Lavi;-inkscape-font-specification:'Lavi Bold';stroke:#000000;stroke-width:12;stroke-miterlimit:4;stroke-dasharray:none;stroke-opacity:1;paint-order:markers stroke fill">Plop</tspan></text>
    <text
       xml:space="preserve"
       style="color:#000000;font-style:normal;font-variant:normal;font-weight:normal;font-stretch:normal;font-size:49.8591px;line-height:0.01%;font-family:Lavi;-inkscape-font-specification:'Lavi, Normal';font-variant-ligatures:normal;font-variant-caps:normal;font-variant-numeric:normal;font-feature-settings:normal;text-align:start;letter-spacing:0.00851629px;word-spacing:0px;writing-mode:lr-tb;text-anchor:start;display:inline;overflow:visible;visibility:visible;fill:#ffffff;fill-opacity:1;fill-rule:nonzero;stroke:#000000;stroke-width:12;stroke-linecap:butt;stroke-linejoin:miter;stroke-miterlimit:4;stroke-dasharray:none;stroke-dashoffset:0;stroke-opacity:1;marker:none;paint-order:markers stroke fill;enable-background:accumulate"
       x="1383.9742"
       y="2054.8049"
       id="text1702-3-0-2"
       transform="matrix(0.7083762,-0.56006666,0.55843076,0.97016465,0,0)"><tspan
         sodipodi:role="line"
         id="tspan1032-6-6-6"
         x="1383.9742"
         y="2054.8049"
         style="font-style:normal;font-variant:normal;font-weight:bold;font-stretch:normal;font-family:Lavi;-inkscape-font-specification:'Lavi Bold';stroke:#000000;stroke-width:12;stroke-miterlimit:4;stroke-dasharray:none;stroke-opacity:1;paint-order:markers stroke fill">Plop</tspan></text>
    <text
       xml:space="preserve"
       style="font-style:normal;font-variant:normal;font-weight:normal;font-stretch:normal;font-size:64.787px;line-height:125%;font-family:Lavi;-inkscape-font-specification:Lavi;text-align:center;letter-spacing:0px;word-spacing:0px;text-anchor:middle;fill:#000000;fill-opacity:1;stroke:none;stroke-width:1.42912"
       x="436.67139"
       y="1539.6874"
       id="text4246-70-2-2-2-7-4-9-9-6-1-2-3-9-2-7-9-3-2-3-6-1"><tspan
         sodipodi:role="line"
         style="font-style:normal;font-variant:normal;font-weight:bold;font-stretch:normal;font-size:64.787px;font-family:Lavi;-inkscape-font-specification:'Lavi Bold';stroke-width:1.42912"
         x="436.67139"
         y="1539.6874"
         id="tspan37654-7">¡OH NO!</tspan></text>
    <text
       xml:space="preserve"
       style="font-style:normal;font-variant:normal;font-weight:normal;font-stretch:normal;font-size:64.787px;line-height:125%;font-family:Lavi;-inkscape-font-specification:Lavi;text-align:center;letter-spacing:0px;word-spacing:0px;text-anchor:middle;fill:#000000;fill-opacity:1;stroke:none;stroke-width:1.42912"
       x="624.6698"
       y="1651.1398"
       id="text4246-70-2-2-2-7-4-9-9-6-1-2-3-9-2-7-9-3-2-3-6-1-7"><tspan
         sodipodi:role="line"
         style="font-style:normal;font-variant:normal;font-weight:bold;font-stretch:normal;font-size:64.787px;font-family:Lavi;-inkscape-font-specification:'Lavi Bold';stroke-width:1.42912"
         x="624.6698"
         y="1651.1398"
         id="tspan37654-7-9">¡ESO NO!</tspan></text>
    <text
       xml:space="preserve"
       style="font-style:normal;font-variant:normal;font-weight:normal;font-stretch:normal;font-size:68.45px;line-height:125%;font-family:Lavi;-inkscape-font-specification:Lavi;text-align:center;letter-spacing:0px;word-spacing:0px;text-anchor:middle;fill:#000000;fill-opacity:1;stroke:none;stroke-width:1.50992"
       x="2036.9307"
       y="1610.5674"
       id="text4246-70-2-2-2-7-4-9-9-6-1-2-3-9-2-7-9-3-2-3-6-1-2"><tspan
         sodipodi:role="line"
         style="font-style:normal;font-variant:normal;font-weight:bold;font-stretch:normal;font-size:68.45px;font-family:Lavi;-inkscape-font-specification:'Lavi Bold';stroke-width:1.50992"
         x="2036.9307"
         y="1610.5674"
         id="tspan1325">¡NO ES</tspan><tspan
         sodipodi:role="line"
         style="font-style:normal;font-variant:normal;font-weight:bold;font-stretch:normal;font-size:68.45px;font-family:Lavi;-inkscape-font-specification:'Lavi Bold';stroke-width:1.50992"
         x="2036.9307"
         y="1696.1299"
         id="tspan87420">JUSTO!</tspan></text>
    <text
       xml:space="preserve"
       style="font-style:normal;font-variant:normal;font-weight:normal;font-stretch:normal;font-size:54.7739px;line-height:125%;font-family:Lavi;-inkscape-font-specification:Lavi;text-align:center;letter-spacing:0px;word-spacing:0px;text-anchor:middle;fill:#000000;fill-opacity:1;stroke:none;stroke-width:1.25434"
       x="347.36807"
       y="2137.4272"
       id="text4246-70-2-2-2-7-4-9-9-6-1-2-3-9-2-7-9-3-3-5-3-3-2-3"><tspan
         sodipodi:role="line"
         style="font-style:normal;font-variant:normal;font-weight:bold;font-stretch:normal;font-size:54.7739px;font-family:Lavi;-inkscape-font-specification:'Lavi Bold';stroke-width:1.25434"
         x="347.36807"
         y="2137.4272"
         id="tspan26906-2">¡Rápido</tspan><tspan
         sodipodi:role="line"
         style="font-style:normal;font-variant:normal;font-weight:bold;font-stretch:normal;font-size:54.7739px;font-family:Lavi;-inkscape-font-specification:'Lavi Bold';stroke-width:1.25434"
         x="347.36807"
         y="2205.8945"
         id="tspan1">Zanahoria!</tspan></text>
    <text
       xml:space="preserve"
       style="font-style:normal;font-variant:normal;font-weight:normal;font-stretch:normal;font-size:50.6384px;line-height:125%;font-family:Lavi;-inkscape-font-specification:Lavi;text-align:center;letter-spacing:0px;word-spacing:0px;text-anchor:middle;fill:#000000;fill-opacity:1;stroke:none;stroke-width:1.11702"
       x="465.48636"
       y="2288.4961"
       id="text4246-70-2-2-2-7-4-9-9-6-1-2-3-9-2-7-9-3-3-5-3-3-2-3-2"><tspan
         sodipodi:role="line"
         style="font-size:50.6384px;stroke-width:1.11702"
         x="465.48636"
         y="2288.4961"
         id="tspan107212">¡Coge tantas</tspan><tspan
         sodipodi:role="line"
         style="font-size:50.6384px;stroke-width:1.11702"
         x="465.48636"
         y="2351.7942"
         id="tspan126060">lágrimas como</tspan><tspan
         sodipodi:role="line"
         style="font-size:50.6384px;stroke-width:1.11702"
         x="465.48636"
         y="2415.092"
         id="tspan2">puedas!</tspan></text>
    <text
       xml:space="preserve"
       style="font-style:normal;font-variant:normal;font-weight:normal;font-stretch:normal;font-size:8.2445px;line-height:0%;font-family:Lavi;-inkscape-font-specification:Lavi;letter-spacing:0px;word-spacing:0px;fill:#000000;fill-opacity:1;stroke:#000000;stroke-width:12;stroke-linecap:square;stroke-miterlimit:4;stroke-dasharray:none;stroke-opacity:1;paint-order:stroke fill markers"
       x="798.03912"
       y="3198.8276"
       id="text4580-9-9-6-3"
       transform="matrix(0.93156536,-0.43055488,0.11148381,1.0219359,0,0)"><tspan
         sodipodi:role="line"
         id="tspan4582-26-1-5-0"
         x="798.03912"
         y="3198.8276"
         style="font-style:normal;font-variant:normal;font-weight:normal;font-stretch:normal;font-size:48.0929px;line-height:1.25;font-family:ComicSpice;-inkscape-font-specification:ComicSpice;fill:#ffffff;stroke-width:12;stroke-linecap:square;stroke-miterlimit:4;stroke-dasharray:none;paint-order:stroke fill markers">¡Chop!</tspan></text>
    <text
       xml:space="preserve"
       style="font-style:normal;font-variant:normal;font-weight:normal;font-stretch:normal;font-size:8.2445px;line-height:0%;font-family:Lavi;-inkscape-font-specification:Lavi;letter-spacing:0px;word-spacing:0px;fill:#000000;fill-opacity:1;stroke:#000000;stroke-width:12;stroke-linecap:square;stroke-miterlimit:4;stroke-dasharray:none;stroke-opacity:1;paint-order:stroke fill markers"
       x="786.51398"
       y="3272.8726"
       id="text4580-9-9-6-3-3"
       transform="matrix(0.93156536,-0.43055488,0.11148381,1.0219359,0,0)"><tspan
         sodipodi:role="line"
         id="tspan4582-26-1-5-0-6"
         x="786.51398"
         y="3272.8726"
         style="font-style:normal;font-variant:normal;font-weight:normal;font-stretch:normal;font-size:48.0929px;line-height:1.25;font-family:ComicSpice;-inkscape-font-specification:ComicSpice;fill:#ffffff;stroke-width:12;stroke-linecap:square;stroke-miterlimit:4;stroke-dasharray:none;paint-order:stroke fill markers">¡Chop!</tspan></text>
    <text
       xml:space="preserve"
       style="font-style:normal;font-variant:normal;font-weight:normal;font-stretch:normal;font-size:8.2445px;line-height:0%;font-family:Lavi;-inkscape-font-specification:Lavi;letter-spacing:0px;word-spacing:0px;fill:#000000;fill-opacity:1;stroke:#000000;stroke-width:12;stroke-linecap:square;stroke-miterlimit:4;stroke-dasharray:none;stroke-opacity:1;paint-order:stroke fill markers"
       x="769.24554"
       y="3348.0605"
       id="text4580-9-9-6-3-3-7"
       transform="matrix(0.93156536,-0.43055488,0.11148381,1.0219359,0,0)"><tspan
         sodipodi:role="line"
         id="tspan4582-26-1-5-0-6-5"
         x="769.24554"
         y="3348.0605"
         style="font-style:normal;font-variant:normal;font-weight:normal;font-stretch:normal;font-size:48.0929px;line-height:1.25;font-family:ComicSpice;-inkscape-font-specification:ComicSpice;fill:#ffffff;stroke-width:12;stroke-linecap:square;stroke-miterlimit:4;stroke-dasharray:none;paint-order:stroke fill markers">¡Chop!</tspan></text>
    <text
       transform="matrix(0.85852879,0,-0.29243083,1.1647833,0,0)"
       id="text4213-7"
       y="2977.7437"
       x="2452.6748"
       style="font-style:normal;font-variant:normal;font-weight:normal;font-stretch:normal;font-size:10.7631px;line-height:0%;font-family:Lavi;-inkscape-font-specification:Lavi;text-align:center;letter-spacing:0px;word-spacing:0px;text-anchor:middle;display:inline;fill:#000000;fill-opacity:1;stroke:#000000;stroke-width:0;stroke-miterlimit:4;stroke-dasharray:none;stroke-opacity:1"
       xml:space="preserve"><tspan
         style="font-style:normal;font-variant:normal;font-weight:bold;font-stretch:normal;font-size:64.7408px;line-height:1.25;font-family:Lavi;-inkscape-font-specification:'Lavi Bold';fill:#000000;fill-opacity:1;stroke:#000000;stroke-width:0;stroke-miterlimit:4;stroke-dasharray:none;stroke-opacity:1"
         y="2977.7437"
         x="2452.6748"
         id="tspan3562-5"
         sodipodi:role="line">- FIN -</tspan></text>
  </g>
</svg>
