<?xml version="1.0" encoding="UTF-8" standalone="no"?>
<!-- Created with Inkscape (http://www.inkscape.org/) -->

<svg
   xmlns:dc="http://purl.org/dc/elements/1.1/"
   xmlns:cc="http://creativecommons.org/ns#"
   xmlns:rdf="http://www.w3.org/1999/02/22-rdf-syntax-ns#"
   xmlns:svg="http://www.w3.org/2000/svg"
   xmlns="http://www.w3.org/2000/svg"
   xmlns:xlink="http://www.w3.org/1999/xlink"
   xmlns:sodipodi="http://sodipodi.sourceforge.net/DTD/sodipodi-0.dtd"
   xmlns:inkscape="http://www.inkscape.org/namespaces/inkscape"
   id="svg2"
   version="1.1"
   inkscape:version="0.92.4 (5da689c313, 2019-01-14)"
   width="2481"
   height="3503"
   sodipodi:docname="E31P06.svg">
  <metadata
     id="metadata8">
    <rdf:RDF>
      <cc:Work
         rdf:about="">
        <dc:format>image/svg+xml</dc:format>
        <dc:type
           rdf:resource="http://purl.org/dc/dcmitype/StillImage" />
        <dc:title />
      </cc:Work>
    </rdf:RDF>
  </metadata>
  <defs
     id="defs6">
    <filter
       style="color-interpolation-filters:sRGB"
       id="filter4375-4-1-1-1-9-5-8-3-8"
       inkscape:label="Drop Shadow">
      <feFlood
         id="feFlood4377-7-9-0-8-1-7-3-8-3"
         flood-opacity="1"
         flood-color="rgb(39,39,39)"
         result="flood" />
      <feComposite
         id="feComposite4379-3-8-8-2-77-4-1-8-7"
         in2="SourceGraphic"
         in="flood"
         operator="in"
         result="composite1" />
      <feMorphology
         id="feMorphology4393-1-0-49-8-9-3-0-31-8"
         operator="dilate"
         radius="6.2000000000000002"
         result="result3" />
      <feComposite
         id="feComposite4385-9-5-7-0-8-8-7-8-2"
         in2="result3"
         in="SourceGraphic"
         operator="over"
         result="fbSourceGraphic" />
      <feColorMatrix
         result="fbSourceGraphicAlpha"
         in="fbSourceGraphic"
         values="0 0 0 -1 0 0 0 0 -1 0 0 0 0 -1 0 0 0 0 1 0"
         id="feColorMatrix4544-96-1" />
      <feTurbulence
         id="feTurbulence4546-4-0"
         type="fractalNoise"
         numOctaves="3"
         seed="37"
         baseFrequency="0.129 0.0050000000000000001"
         result="turbulence" />
      <feDisplacementMap
         id="feDisplacementMap4548-3-5"
         in2="turbulence"
         in="fbSourceGraphic"
         scale="6.6"
         yChannelSelector="G"
         xChannelSelector="R"
         result="fbSourceGraphic" />
      <feColorMatrix
         result="fbSourceGraphicAlpha"
         in="fbSourceGraphic"
         values="0 0 0 -1 0 0 0 0 -1 0 0 0 0 -1 0 0 0 0 1 0"
         id="feColorMatrix4670-33-8" />
      <feFlood
         id="feFlood4672-8-5"
         flood-opacity="0.40999999999999998"
         flood-color="rgb(0,0,0)"
         result="flood"
         in="fbSourceGraphic" />
      <feComposite
         id="feComposite4674-6-5"
         in2="fbSourceGraphic"
         in="flood"
         operator="in"
         result="composite1" />
      <feGaussianBlur
         id="feGaussianBlur4676-0-0"
         in="composite1"
         stdDeviation="0"
         result="blur" />
      <feOffset
         id="feOffset4678-4-7"
         dx="6"
         dy="6"
         result="offset" />
      <feComposite
         id="feComposite4680-8-3"
         in2="offset"
         in="fbSourceGraphic"
         operator="over"
         result="composite2" />
    </filter>
    <filter
       style="color-interpolation-filters:sRGB"
       id="filter4375-4-1-1-1-9-0"
       inkscape:label="deevad outline effect">
      <feFlood
         id="feFlood4377-7-9-0-8-1-9"
         flood-opacity="1"
         flood-color="rgb(0,0,0)"
         result="flood" />
      <feComposite
         id="feComposite4379-3-8-8-2-77-1"
         in2="SourceGraphic"
         in="flood"
         operator="in"
         result="composite1" />
      <feMorphology
         id="feMorphology4393-1-0-49-8-9-9"
         operator="dilate"
         radius="3"
         result="result3" />
      <feComposite
         id="feComposite4385-9-5-7-0-8-6"
         in2="result3"
         in="SourceGraphic"
         operator="over"
         result="composite2" />
    </filter>
    <filter
       style="color-interpolation-filters:sRGB"
       id="filter4375-4-1-1-1-9-0-5"
       inkscape:label="deevad outline effect">
      <feFlood
         id="feFlood4377-7-9-0-8-1-9-6"
         flood-opacity="1"
         flood-color="rgb(0,0,0)"
         result="flood" />
      <feComposite
         id="feComposite4379-3-8-8-2-77-1-2"
         in2="SourceGraphic"
         in="flood"
         operator="in"
         result="composite1" />
      <feMorphology
         id="feMorphology4393-1-0-49-8-9-9-9"
         operator="dilate"
         radius="3"
         result="result3" />
      <feComposite
         id="feComposite4385-9-5-7-0-8-6-1"
         in2="result3"
         in="SourceGraphic"
         operator="over"
         result="composite2" />
    </filter>
  </defs>
  <sodipodi:namedview
     pagecolor="#ffffff"
     bordercolor="#666666"
     borderopacity="1"
     objecttolerance="10"
     gridtolerance="10"
     guidetolerance="10"
     inkscape:pageopacity="0"
     inkscape:pageshadow="2"
     inkscape:window-width="1296"
     inkscape:window-height="704"
     id="namedview4"
     showgrid="false"
     inkscape:zoom="0.4574026"
     inkscape:cx="1229.3708"
     inkscape:cy="455.52566"
     inkscape:window-x="70"
     inkscape:window-y="27"
     inkscape:window-maximized="1"
     inkscape:current-layer="layer3"
     inkscape:snap-global="false" />
  <g
     inkscape:groupmode="layer"
     id="layer2"
     inkscape:label="artwork"
     sodipodi:insensitive="true">
    <image
       sodipodi:absref="/home/emmiline/Documents/git/webcomics/ep31_The-Fight/lang/da/../gfx_Pepper-and-Carrot_by-David-Revoy_E31P06.png"
       xlink:href="../gfx_Pepper-and-Carrot_by-David-Revoy_E31P06.png"
       width="2481"
       height="3503"
       id="image10"
       x="0"
       y="0" />
  </g>
  <g
     inkscape:groupmode="layer"
     id="layer3"
     inkscape:label="speechbubbles">
    <path
       style="fill:#ffffff;fill-opacity:1;stroke:none;stroke-width:1.09036469"
       d="m 2336.0954,607.49639 c -18.7292,3.86007 -25.9382,7.46431 -22.5847,9.6977 -7.6825,1.09817 -10.642,30.03928 -3.457,35.3413 0.4782,0.55806 3.8336,2.23433 2.3926,2.50979 -1.4403,0.27548 -10.0773,-0.5762 -11.5201,0.53413 -1.443,1.11089 12.912,17.00347 10.9905,17.5563 -1.9213,0.55338 -46.0482,-10.10974 -52.2944,-7.61678 -6.2463,2.49298 -2.9042,8.9012 -4.8247,9.17575 -1.9204,0.27454 -19.6745,-1.42978 -22.0749,-1.15616 -2.4006,0.2736 -6.7431,8.61487 -9.1435,8.88847 -2.4008,0.27362 -13.4289,-3.64446 -15.3494,-3.36991 -1.9207,0.27454 -0.9799,7.23467 -3.3803,7.50829 -2.4007,0.2736 -12.9428,-5.86981 -14.3835,-5.59434 -1.4405,0.27548 -6.7584,14.1817 -9.1604,15.01188 -2.4022,0.83018 -17.716,-15.34253 -19.1554,-15.62363 -1.439,-0.28165 -10.611,18.90564 -12.5314,19.18018 -1.921,0.27454 -11.483,-13.1041 -12.9238,-12.82862 -1.4407,0.27548 -10.5811,8.05138 -12.5024,8.60421 -1.9213,0.55283 -14.3511,-17.28455 -16.2711,-17.28829 -1.9198,-0.004 -18.2589,7.47929 -19.7026,8.86791 -1.4438,1.38917 -2.8598,-7.24215 -4.7796,-7.24589 -1.9197,-0.004 -24.0116,4.96349 -24.4907,4.68427 -0.4793,-0.27923 3.3751,-5.56029 1.9352,-5.56309 -1.4397,-0.003 -24.0167,6.9115 -24.9731,5.5182 6.5854,-20.42315 -48.6929,6.15199 -52.331,5.74316 -3.3567,-1.12024 21.6608,-22.78124 19.2658,-24.45617 -2.3954,-1.6744 -11.0401,0.25676 -11.5178,-0.57903 -0.4774,-0.83579 5.292,-4.44284 3.8552,-5.55878 -1.4368,-1.1165 -17.7429,-5.60143 -19.1789,-6.99566 -1.4361,-1.3948 7.213,-4.99624 5.2954,-5.83483 -1.9176,-0.83915 -30.2203,-6.18233 -30.6965,-7.57524 -0.476,-1.39237 14.4212,-8.04334 12.5066,-9.99509 -1.9143,-1.95229 -7.1918,-2.79743 -6.7079,-4.18848 0.4839,-1.39049 9.6075,-3.04299 9.1315,-4.43535 -0.4761,-1.39238 -5.2566,-8.36054 -6.6933,-9.47648 -1.4369,-1.11595 10.0806,-0.53694 10.0836,-1.65008 0,-1.11369 -2.2198,-23.5183 -19.2437,-33.66701 29.806,6.75864 42.3674,3.53587 58.2122,1.34045 15.8448,-2.19598 9.6434,-16.12464 12.0456,-16.95484 9.7468,5.17921 25.364,27.89768 27.8451,1.91714 -0.4929,-1.85524 17.1622,11.16727 19.5626,10.89366 2.4006,-0.27361 22.1886,-14.7864 25.549,-15.05814 3.3604,-0.27174 16.3055,4.76377 19.1843,5.04767 2.8791,0.2839 5.2979,-6.66969 7.6963,-6.10843 2.3983,0.56124 17.7429,5.60143 20.1441,5.04953 2.4014,-0.55245 4.3273,-2.775 6.2458,-2.21468 1.9179,0.56031 10.5511,2.80399 10.5511,2.80399 0,0 6.2442,-1.65812 9.1238,-1.65251 2.8797,0.006 22.5326,9.22905 24.9308,9.79031 2.3982,0.56124 27.0629,-9.43403 25.6277,-11.10655 3.0376,7.31416 17.801,0.65375 20.9249,1.02589 3.3571,0.84196 13.4432,-1.64353 14.4009,-0.80679 0.9574,0.83672 3.825,5.29601 6.7039,5.57991 2.8791,0.2839 9.5952,1.41013 9.5952,1.41013 l -0.9643,1.6684 c 0,0 20.1702,6.87013 22.5749,5.20508 8.6376,-0.92566 8.2539,1.56665 30.4265,-6.34533 -17.7607,16.83134 -29.5499,35.87639 7.4297,28.12884 -30.7502,7.40389 -17.1325,13.68463 8.6056,12.26364 z"
       id="path5888-3-2"
       inkscape:connector-curvature="0"
       sodipodi:nodetypes="cccsccsscccccccsccscscsccsccccccsccscsccccsccscsccccccccccc" />
    <path
       style="fill:#ffffff;fill-opacity:1;stroke:none;stroke-width:0.94140345"
       d="m 2212.2504,406.59221 c -0.053,0.004 -0.1087,0.0166 -0.1624,0.0387 -1.7204,0.70742 -8.1496,7.4591 -9.8699,6.75169 -1.7204,-0.70812 -9.5871,-6.98619 -10.9635,-6.27878 -1.3762,0.70741 -6.4229,10.43536 -6.4229,10.43536 0,0 -8.344,-4.68325 -17.0553,-10.39256 -2.5695,5.5752 -4.89,16.11188 -6.6105,16.8193 -1.7203,0.70742 -19.3824,-12.0571 -26.3676,-16.47879 -2.5739,5.83967 -4.7678,17.42833 -7.008,17.89359 -2.4084,1.06183 -17.6517,-12.46976 -18.3397,-11.40863 -0.6882,1.06112 5.2642,17.06968 3.1997,17.42339 -2.0645,0.35371 -6.8812,1.7685 -6.8812,1.7685 l 0.6873,2.12221 c 0,0 -14.4514,-5.66102 -16.1718,-7.78327 -1.7202,-2.12293 1.033,9.19916 2.0653,12.02952 -6.1936,-2.83036 -24.4294,-8.84547 -25.8056,-10.61471 -1.3763,-1.76853 2.4088,6.36843 4.4732,8.84436 -2.7526,-1.06111 -5.1621,-1.4148 -5.1621,-1.4148 l 7.9145,8.49066 -2.408,0.7074 c 0,0 5.1605,3.89069 5.1605,5.65921 0,1.76925 -13.4194,3.89255 -13.4194,3.89255 15.2232,10.59867 5.6327,13.72674 -6.1923,15.56651 6.4237,2.37085 10.9329,4.65757 13.6473,6.7111 l -13.1093,3.50569 13.6147,7.13481 -7.2617,3.05804 7.2617,5.09734 -19.9693,8.15538 20.878,5.09734 -15.4321,9.17595 15.4321,5.09735 -8.1704,7.13481 18.2911,1.37058 c 0,2.96479 -5.3258,17.96035 -7.9785,21.94971 10.4487,-0.0286 27.8197,0.12711 40.447,0.12711 0.023,1.09828 0.099,1.89268 0.4969,1.99509 0.6761,0.17375 4.105,-0.25299 7.6096,-0.68713 l 11.1492,4.1744 c 1.3141,2.97443 2.666,6.22472 3.6071,6.4182 1.0753,0.22106 4.569,-1.63057 7.3747,-2.96409 6e-4,-2.3e-4 0,2.4e-4 0,0 l 4.0204,-0.85661 c 0.8628,1.81008 0.4943,8.81198 2.0225,9.12621 1.7205,0.35372 9.2903,-7.42772 10.3225,-7.07401 1.0322,0.3537 4.8165,18.04237 6.5367,19.10351 1.7205,1.06111 12.7316,-19.45722 13.764,-19.81092 1.0321,-0.35441 7.5682,24.05533 8.9445,24.40903 1.3764,0.35372 8.2585,-16.62763 9.2908,-16.27391 1.0323,0.35369 7.5701,10.26099 8.9463,10.9684 1.3764,0.70742 10.3224,-21.93497 11.6988,-21.93497 1.3763,0 13.0745,9.55174 14.1068,11.32027 1.0323,1.76925 2.065,-9.19807 3.4413,-9.19807 1.3764,0 17.2024,6.36847 17.5464,6.01476 0.3443,-0.35371 -2.4084,-7.07586 -1.3761,-7.07586 1.0322,0 17.2044,8.84439 17.8926,7.07586 0.688,-1.76924 29.5417,3.26917 37.504,7.42956 -6.1747,-9.01809 -15.4841,-29.00825 -13.7638,-31.13119 1.7204,-2.12223 7.915,0.35372 8.2591,-0.7074 0.344,-1.06112 -3.7846,-5.66104 -2.7524,-7.07585 1.0322,-1.41554 12.73,-7.07582 13.7621,-8.84437 1.0322,-1.76923 -5.1603,-6.3666 -3.7842,-7.42771 1.3763,-1.06182 21.6772,-7.78437 22.0213,-9.5536 0.344,-1.76854 -10.3226,-10.25912 -8.9463,-12.73506 1.3763,-2.47665 5.1618,-3.53628 4.8176,-5.30551 -0.3441,-1.76853 -6.8823,-3.89254 -6.5382,-5.66106 0.344,-1.76854 3.7854,-10.61285 4.8175,-12.02767 1.0324,-1.41483 -7.2255,-0.70738 -7.2255,-2.1222 0,-1.41554 -18.8802,-9.18218 2.3386,-30.12835 -30.3756,4.4719 -19.8866,-1.00279 -31.241,-3.83244 -11.3547,-2.83036 -6.8815,-20.52015 -8.6018,-21.58127 -1.7205,-1.06183 -14.4517,6.0148 -16.1719,3.53884 -1.7204,-2.47665 -2.4096,-7.07585 -3.786,-7.07585 -1.3761,0 -16.1614,7.60602 -17.8818,7.25231 -1.7204,-0.35371 -11.0199,-13.62076 -13.4285,-13.97446 -2.4085,-0.35372 -11.6995,6.01475 -13.764,6.36845 -1.9998,0.34266 -3.6753,-7.94668 -5.3424,-7.82194 z"
       id="path5888-3"
       inkscape:connector-curvature="0"
       sodipodi:nodetypes="ccccccccccscccccccccscccccccccccccccscccccccccccccscsssccccccccccccsccccsccccc" />
    <path
       style="color:#000000;display:inline;overflow:visible;visibility:visible;fill:#ffffff;fill-opacity:1;fill-rule:nonzero;stroke:none;stroke-width:1px;marker:none;enable-background:accumulate"
       d="m 2279.1877,625.34508 c -0.091,3.76817 51.831,-6.4041 51.831,-6.4041 0,0 1.5665,29.95657 4.6782,32.0986 11.0733,-0.0391 21.0624,-5.37296 21.0624,-5.37296 l 18.0133,48.73793 -20.0054,-31.72225 c -9.8867,-0.91886 -20.0127,-0.88091 -32.7339,9.5382 l -4.3594,-32.26765 -34.1656,7.80769 z"
       id="path4448"
       inkscape:connector-curvature="0"
       sodipodi:nodetypes="cccccccccc" />
    <path
       style="color:#000000;display:inline;overflow:visible;visibility:visible;fill:#ffffff;fill-opacity:1;fill-rule:nonzero;stroke:none;stroke-width:1.40753901px;marker:none;enable-background:accumulate"
       d="m 901.29384,2963.1714 c -17.2531,-3.9512 -68.14571,-39.8717 -7.84074,-41.1043 -45.07064,-13.8384 -40.68635,-46.4528 -5.15034,-67.28 -47.5852,6.4316 -83.40659,0.2939 -60.34946,-34.3678 -69.65683,25.1575 -100.81021,31.2013 -88.31128,-16.411 -30.74459,40.3903 -62.2993,34.8633 -72.44957,-9.8986 -5.76299,34.0827 -53.47823,47.4002 -110.38752,5.377 19.38709,39.6262 30.39619,60.2506 -70.76593,54.4541 39.23833,21.5036 64.16942,35.2781 -0.26742,48.7453 33.57071,8.8152 55.33374,22.0357 4.84722,47.6266 33.73836,5.4033 86.48358,0.4406 24.34795,47.5296 41.3453,-22.9013 112.61321,-11.8091 83.74669,23.0911 81.16109,-41.8426 97.57102,-32.7378 111.3384,-6.6351 28.9964,-40.872 89.47397,-48.4939 116.44843,-27.0991 -14.21718,-34.0675 36.72391,-21.9893 74.79357,-24.0278 z"
       id="path3549-3-78-5-3"
       inkscape:connector-curvature="0"
       sodipodi:nodetypes="ccccccccccccccc" />
    <path
       style="color:#000000;display:inline;overflow:visible;visibility:visible;fill:#ffffff;fill-opacity:1;fill-rule:nonzero;stroke:none;stroke-width:1.13598561px;marker:none;enable-background:accumulate"
       d="m 843.02907,2994.1713 c -11.89713,-2.9785 -24.17157,-22.306 -4.83933,-35.2868 -16.04099,-0.688 -25.22109,-7.3316 -10.09016,-20.9326 -33.63592,17.0282 -42.55262,-6.109 -31.54836,-33.2935 -49.36943,13.0575 -71.28017,15.72 -61.02027,-12.9191 -22.7425,23.6321 -44.55674,19.2215 -50.17625,-8.4238 -5.12498,20.6058 -16.0656,31.8674 -48.67807,5.9229 -2.4006,7.5606 8.64658,32.4271 -61.67596,25.5615 26.65036,14.4116 42.6399,17.0575 -2.71109,23.1541 23.11252,6.4833 38.79157,21.8447 2.76993,35.7976 23.34031,4.4069 60.2656,3.1148 15.42545,29.8013 29.56268,-12.6127 61.01949,-4.4394 39.76453,15.9049 57.9305,-22.8594 69.07237,-16.7642 77.8197,-0.3847 21.53965,-23.9836 52.66833,-21.2672 70.7742,-7.3256 -8.80189,-21.2539 37.58447,-17.5851 64.18568,-17.5762 z"
       id="path3549-3-78-5"
       inkscape:connector-curvature="0"
       sodipodi:nodetypes="ccccccccccccccc" />
    <path
       style="color:#000000;display:inline;overflow:visible;visibility:visible;fill:#ffffff;fill-opacity:1;fill-rule:nonzero;stroke:none;stroke-width:0.99999994px;marker:none;enable-background:accumulate"
       d="m 1272.5449,3085.5137 c -78.231,15.2781 -158.5825,23.1124 -234.3525,47.042 l 48.6913,-38.9221 c -31.113,-0.2775 -62.6052,11.89 -93.96922,19.832 l 24.81112,-26.6421 c -73.62433,-0.043 -140.93978,19.5825 -211.30464,29.7017 l 48.37788,-44.8304 c 71.35729,-4.7997 140.74069,-1.8479 214.31916,-15.3676 l -20.5535,27.1733 c 25.7084,-2.3825 51.5171,-5.4463 77.7719,-11.5491 l -30.1046,33.1547 z"
       id="path4032-1"
       inkscape:connector-curvature="0"
       sodipodi:nodetypes="cccccccccccc" />
    <path
       style="display:inline;fill:#ffffff;fill-rule:evenodd;stroke:none;stroke-width:0.99999994px;stroke-linecap:butt;stroke-linejoin:miter;stroke-opacity:1"
       d="m 507.89373,2985.6758 c 53.60128,25.3057 99.90263,44.5082 63.55409,-27.178 43.28705,53.5581 60.74598,29.808 71.27074,-1.51 33.85679,26.9193 57.23556,50.7118 74.02443,31.3437 6.25758,24.9084 19.67718,14.8567 31.29105,13.6193 3.82507,5.6361 -23.8233,-12.7878 29.25339,-31.4418 -6.60779,-35.7737 33.74221,4.1555 64.83194,-12.3821 8.05437,30.2757 3.57017,49.0142 49.20859,6.3092 -16.49417,42.0021 -9.65471,47.9345 11.42145,31.8599 -9.63586,17.2969 -15.39908,30.6865 21.2111,1.327 -12.53348,31.9265 31.7497,10.83 75.05246,-21.9485 -41.20831,36.3475 -98.58037,77.13 -52.20942,72.3933 -6.46673,9.9923 -29.53311,18.6984 39.15911,34.5148 -12.82392,6.7804 -51.97493,-3.1285 -19.31594,25.5808 4.37563,3.3565 -10.27298,5.4055 17.68429,14.2438 -16.50347,-0.6014 -26.62467,1.546 -11.42146,14.6021 -30.12497,-0.7061 -18.85353,13.0223 3.26329,30.5321 -56.49477,-34.2659 -74.60034,-40.5092 -47.31746,-5.3097 -54.67514,-30.6208 -73.92078,-26.7015 -66.95326,-1.5269 -23.27401,-26.7299 -49.92406,-31.404 -71.51014,-0.5236 -23.01549,-31.864 -38.69617,-28.5994 -86.7021,-4.5871 25.89589,-27.0213 -10.94437,-9.806 -39.15926,1.327 15.45103,-33.7555 -23.76147,-11.6013 -73.42359,21.2397 27.81055,-37.2752 -3.7757,-23.8103 -50.58073,2.6548 17.68439,-36.6197 -11.11627,-54.329 -79.9501,-55.7536 32.94591,-13.2095 52.15827,-29.8331 17.94807,-59.7372 38.56461,8.8054 50.06785,0.6262 22.84286,-31.8591 42.06372,26.6638 22.93889,-12.0111 6.5266,-47.7899 z"
       id="path4508-9"
       inkscape:connector-curvature="0"
       sodipodi:nodetypes="cccccccccccccccccccccccccccc" />
  </g>
  <g
     inkscape:groupmode="layer"
     id="layer1"
     inkscape:label="txt">
    <text
       xml:space="preserve"
       style="font-style:normal;font-variant:normal;font-weight:normal;font-stretch:normal;font-size:15.89058971px;line-height:0%;font-family:Lavi;-inkscape-font-specification:Lavi;text-align:center;letter-spacing:0px;word-spacing:0px;text-anchor:middle;fill:#000000;fill-opacity:1;stroke:none;stroke-width:1.17751098"
       x="2194.2212"
       y="488.80966"
       id="text4246-1-3-2-8"
       transform="scale(0.99789912,1.0021053)"><tspan
         sodipodi:role="line"
         style="font-style:normal;font-variant:normal;font-weight:bold;font-stretch:normal;font-size:46.66666794px;line-height:1.25;font-family:Lavi;-inkscape-font-specification:'Lavi Bold';stroke-width:1.17751098"
         x="2194.2212"
         y="488.80966"
         id="tspan70">Jeg sagde:</tspan><tspan
         sodipodi:role="line"
         style="font-style:normal;font-variant:normal;font-weight:bold;font-stretch:normal;font-size:46.66666794px;line-height:1.25;font-family:Lavi;-inkscape-font-specification:'Lavi Bold';stroke-width:1.17751098"
         x="2194.2212"
         y="547.14301"
         id="tspan829">STOP!</tspan></text>
    <text
       xml:space="preserve"
       style="font-style:normal;font-variant:normal;font-weight:normal;font-stretch:normal;font-size:15.89058971px;line-height:0%;font-family:Lavi;-inkscape-font-specification:Lavi;text-align:center;letter-spacing:0px;word-spacing:0px;text-anchor:middle;fill:#000000;fill-opacity:1;stroke:none;stroke-width:1.17751098"
       x="2149.405"
       y="636.27936"
       id="text4246-1-3-2-8-3"
       transform="scale(0.99789912,1.0021053)"><tspan
         sodipodi:role="line"
         style="font-style:normal;font-variant:normal;font-weight:bold;font-stretch:normal;font-size:46.66666794px;line-height:1.25;font-family:Lavi;-inkscape-font-specification:'Lavi Bold';stroke-width:1.17751098"
         x="2149.405"
         y="636.27936"
         id="tspan829-7">Så er det nok!</tspan></text>
    <text
       xml:space="preserve"
       style="font-style:normal;font-variant:normal;font-weight:normal;font-stretch:normal;line-height:0%;font-family:Lavi;-inkscape-font-specification:Lavi;letter-spacing:0px;word-spacing:0px;fill:#000000;fill-opacity:1;stroke:#ffffff;stroke-width:2.66678286;stroke-miterlimit:4;stroke-dasharray:none;stroke-opacity:1;filter:url(#filter4375-4-1-1-1-9-0)"
       x="787.65729"
       y="1584.5073"
       id="text4580-25"
       transform="matrix(0.55718765,-0.37423929,0.21813977,1.0749149,-120.92735,-234.76499)"><tspan
         sodipodi:role="line"
         id="tspan4582-4"
         x="787.65729"
         y="1584.5073"
         style="font-size:70px;line-height:100%;letter-spacing:4.88345098px;fill:#ffffff;stroke:#ffffff;stroke-width:2.66678286;stroke-miterlimit:4;stroke-dasharray:none;stroke-opacity:1"><tspan
           style="font-size:55.34964371px;line-height:100%;letter-spacing:4.88345098px;stroke:#ffffff;stroke-width:2.66678286;stroke-miterlimit:4;stroke-dasharray:none;stroke-opacity:1"
           id="tspan4439-4">Klack</tspan><tspan
           style="font-size:80.40014648px;line-height:100%;letter-spacing:4.88345098px;stroke:#ffffff;stroke-width:2.66678286;stroke-miterlimit:4;stroke-dasharray:none;stroke-opacity:1"
           id="tspan4617-9">!</tspan></tspan></text>
    <text
       xml:space="preserve"
       style="font-style:normal;font-variant:normal;font-weight:normal;font-stretch:normal;line-height:0%;font-family:Lavi;-inkscape-font-specification:Lavi;letter-spacing:0px;word-spacing:0px;display:inline;fill:#ffffff;fill-opacity:1;stroke:#000000;stroke-width:0.48148537;stroke-miterlimit:4;stroke-dasharray:none;stroke-opacity:1;filter:url(#filter4375-4-1-1-1-9-5-8-3-8)"
       x="787.65729"
       y="1584.5073"
       id="text4580-6-0-8-8"
       transform="matrix(1.5492299,-0.0813593,-0.87667877,1.9075458,1570.733,-1836.1775)"><tspan
         sodipodi:role="line"
         id="tspan4582-1-1-8-2"
         x="787.65729"
         y="1584.5073"
         style="font-style:normal;font-variant:normal;font-weight:bold;font-stretch:normal;font-size:70px;line-height:1.25;font-family:'Noto Sans';-inkscape-font-specification:'Noto Sans Bold';letter-spacing:5.87610865px;fill:#ffffff;fill-opacity:1;stroke:#000000;stroke-width:0.48148537;stroke-opacity:1"><tspan
           style="font-style:normal;font-variant:normal;font-weight:bold;font-stretch:normal;font-size:81.11493683px;font-family:'Noto Sans';-inkscape-font-specification:'Noto Sans Bold';letter-spacing:5.87610865px;fill:#ffffff;fill-opacity:1;stroke:#000000;stroke-width:0.48148537;stroke-opacity:1"
           id="tspan4315-8-97-3">TSHAK</tspan><tspan
           style="font-style:normal;font-variant:normal;font-weight:bold;font-stretch:normal;font-size:114.73223114px;font-family:'Noto Sans';-inkscape-font-specification:'Noto Sans Bold';letter-spacing:5.87610865px;fill:#ffffff;fill-opacity:1;stroke:#000000;stroke-width:0.48148537;stroke-opacity:1"
           id="tspan4313-2-76-0">!</tspan></tspan></text>
    <text
       xml:space="preserve"
       style="font-style:normal;font-variant:normal;font-weight:normal;font-stretch:normal;line-height:0%;font-family:Lavi;-inkscape-font-specification:Lavi;letter-spacing:0px;word-spacing:0px;fill:#000000;fill-opacity:1;stroke:#ffffff;stroke-width:4.21925974;stroke-miterlimit:4;stroke-dasharray:none;stroke-opacity:1;filter:url(#filter4375-4-1-1-1-9-0-5)"
       x="787.65729"
       y="1584.5073"
       id="text4580-25-2"
       transform="matrix(0.37191843,0.11061463,-0.38324889,0.61702867,2371.8774,1301.4149)"><tspan
         sodipodi:role="line"
         id="tspan4582-4-7"
         x="787.65729"
         y="1584.5073"
         style="font-style:normal;font-variant:normal;font-weight:bold;font-stretch:normal;font-size:80.40014648px;line-height:100%;font-family:'Noto Sans';-inkscape-font-specification:'Noto Sans Bold';letter-spacing:4.88345098px;fill:#ffffff;stroke:#ffffff;stroke-width:4.21925974;stroke-miterlimit:4;stroke-dasharray:none;stroke-opacity:1">TSHK!</tspan></text>
    <text
       xml:space="preserve"
       style="font-style:normal;font-variant:normal;font-weight:normal;font-stretch:normal;font-size:15.89058971px;line-height:0%;font-family:Lavi;-inkscape-font-specification:Lavi;text-align:center;letter-spacing:0px;word-spacing:0px;text-anchor:middle;fill:#000000;fill-opacity:1;stroke:none;stroke-width:1.17751098"
       x="687.48999"
       y="2893.6208"
       id="text4246-1-3-2-8-3-3"
       transform="scale(0.99789912,1.0021053)"><tspan
         sodipodi:role="line"
         style="font-style:normal;font-variant:normal;font-weight:bold;font-stretch:normal;font-size:46.66666794px;line-height:1.25;font-family:Lavi;-inkscape-font-specification:'Lavi Bold';stroke-width:1.17751098"
         x="687.48999"
         y="2893.6208"
         id="tspan829-7-6">I to!</tspan></text>
    <text
       xml:space="preserve"
       style="font-style:normal;font-variant:normal;font-weight:normal;font-stretch:normal;font-size:15.89058971px;line-height:0%;font-family:Lavi;-inkscape-font-specification:Lavi;text-align:center;letter-spacing:0px;word-spacing:0px;text-anchor:middle;fill:#000000;fill-opacity:1;stroke:none;stroke-width:1.17751098"
       x="710.07288"
       y="2990.7144"
       id="text4246-1-3-2-8-3-3-7"
       transform="scale(0.99789912,1.0021053)"><tspan
         sodipodi:role="line"
         style="font-style:normal;font-variant:normal;font-weight:bold;font-stretch:normal;font-size:46.66666794px;line-height:1.25;font-family:Lavi;-inkscape-font-specification:'Lavi Bold';stroke-width:1.17751098"
         x="710.07288"
         y="2990.7144"
         id="tspan829-7-6-5">KOM HER!</tspan></text>
    <text
       xml:space="preserve"
       style="font-style:normal;font-variant:normal;font-weight:normal;font-stretch:normal;font-size:15.89058971px;line-height:0%;font-family:Lavi;-inkscape-font-specification:Lavi;text-align:center;letter-spacing:0px;word-spacing:0px;text-anchor:middle;fill:#000000;fill-opacity:1;stroke:none;stroke-width:1.17751098"
       x="715.01428"
       y="3089.5005"
       id="text4246-1-3-2-8-36-2"
       transform="scale(0.99789912,1.0021053)"><tspan
         sodipodi:role="line"
         style="font-style:normal;font-variant:normal;font-weight:bold;font-stretch:normal;font-size:46.66666794px;line-height:1.25;font-family:Lavi;-inkscape-font-specification:'Lavi Bold';stroke-width:1.17751098"
         x="715.01428"
         y="3089.5005"
         id="tspan1020-8">Med det samme!</tspan></text>
  </g>
</svg>
