<?xml version="1.0" encoding="UTF-8" standalone="no"?>
<!-- Created with Inkscape (http://www.inkscape.org/) -->

<svg
   id="svg2"
   version="1.1"
   inkscape:version="1.3 (0e150ed6c4, 2023-07-21)"
   width="2481"
   height="3503"
   viewBox="0 0 2646.3999 3736.5334"
   sodipodi:docname="da_E08P02.svg"
   xmlns:inkscape="http://www.inkscape.org/namespaces/inkscape"
   xmlns:sodipodi="http://sodipodi.sourceforge.net/DTD/sodipodi-0.dtd"
   xmlns:xlink="http://www.w3.org/1999/xlink"
   xmlns="http://www.w3.org/2000/svg"
   xmlns:svg="http://www.w3.org/2000/svg"
   xmlns:rdf="http://www.w3.org/1999/02/22-rdf-syntax-ns#"
   xmlns:cc="http://creativecommons.org/ns#"
   xmlns:dc="http://purl.org/dc/elements/1.1/">
  <metadata
     id="metadata8">
    <rdf:RDF>
      <cc:Work
         rdf:about="">
        <dc:format>image/svg+xml</dc:format>
        <dc:type
           rdf:resource="http://purl.org/dc/dcmitype/StillImage" />
        <dc:title />
      </cc:Work>
    </rdf:RDF>
  </metadata>
  <defs
     id="defs6" />
  <sodipodi:namedview
     pagecolor="#ffffff"
     bordercolor="#666666"
     borderopacity="1"
     objecttolerance="10"
     gridtolerance="10"
     guidetolerance="10"
     inkscape:pageopacity="0"
     inkscape:pageshadow="2"
     inkscape:window-width="1888"
     inkscape:window-height="1144"
     id="namedview4"
     showgrid="false"
     inkscape:zoom="0.32526913"
     inkscape:cx="1348.1144"
     inkscape:cy="976.11476"
     inkscape:window-x="32"
     inkscape:window-y="0"
     inkscape:window-maximized="1"
     inkscape:current-layer="layer3"
     inkscape:showpageshadow="0"
     inkscape:pagecheckerboard="0"
     inkscape:deskcolor="#d1d1d1" />
  <g
     inkscape:groupmode="layer"
     id="layer2"
     inkscape:label="artwork"
     sodipodi:insensitive="true">
    <image
       xlink:href="../gfx_Pepper-and-Carrot_by-David-Revoy_E08P02.png"
       y="0"
       x="0"
       id="image10"
       height="3736.5334"
       width="2646.3999" />
  </g>
  <g
     inkscape:groupmode="layer"
     id="layer3"
     inkscape:label="speechbubbles">
    <path
       style="color:#000000;display:inline;overflow:visible;visibility:visible;fill:#ffffff;fill-opacity:1;fill-rule:nonzero;stroke:none;stroke-width:1.06666672px;marker:none;enable-background:accumulate"
       d="m 1200.5059,810.78062 c 0.7586,-32.10484 18.4435,-59.87312 47.6791,-73.76306 32.2259,-15.31061 94.9753,-12.84529 106.4294,-10.33501 11.4539,2.51045 109.2606,-1.21318 133.2827,2.07224 21.5233,2.9437 83.3018,36.40064 80.1781,95.3947 -3.1239,58.99406 -49.9811,77.00492 -97.8797,80.77052 -47.8985,3.7656 -143.6385,2.09037 -168.5446,-0.85912 -27.4974,-3.25636 -99.7695,-34.98617 -99.9623,-101.67075 z"
       id="path5034"
       inkscape:connector-curvature="0"
       sodipodi:nodetypes="cscsssscc" />
    <path
       style="color:#000000;display:inline;overflow:visible;visibility:visible;fill:#ffffff;fill-opacity:1;fill-rule:nonzero;stroke:none;stroke-width:1.06666672px;marker:none;enable-background:accumulate"
       d="m 588.64597,469.59366 c -15.99234,9.08669 -32.53594,18.76907 -51.41582,20.43705 -5.38188,0.35878 -10.99099,0.34893 -16.2609,-1.12954 -5.19305,-2.76353 -7.53939,-8.90335 -7.25385,-14.48291 -0.14562,-8.11015 3.0238,-16.55424 -0.45505,-24.45724 -2.66739,-5.69631 -9.11553,-7.16433 -14.43263,-8.87495 -13.62634,-4.0936 -27.80369,-6.36042 -40.80491,-12.61338 -15.05047,-6.09269 -30.4955,-13.59394 -41.06306,-26.66726 -4.09869,-5.2404 -7.68676,-11.27413 -8.25304,-17.97428 -2.2191,-17.15341 5.18874,-35.44616 19.76799,-44.14109 9.8557,-4.62867 23.83042,-0.11021 28.26796,10.70716 2.42532,5.67807 0.74441,11.94393 -2.28693,16.76491 -3.89544,9.98721 -1.72354,21.91369 4.63244,30.80492 5.13057,7.41997 12.44054,13.22352 20.55012,16.86659 9.85697,7.85664 22.67825,7.71821 34.24478,10.04542 5.27188,1.14248 10.818,2.71719 15.08681,6.27677 4.95522,6.49617 3.52457,15.03062 1.48638,22.07451 -1.91515,7.32736 -4.96245,15.57315 -1.12765,23.05265 1.98629,5.52542 8.58996,4.42387 13.13591,5.30818 14.92562,0.92311 29.75333,-2.88636 42.75726,-9.59747 1.18785,-0.73519 2.30602,-1.56483 3.42417,-2.40008 z"
       id="path4496"
       inkscape:connector-curvature="0" />
    <path
       style="color:#000000;display:inline;overflow:visible;visibility:visible;fill:#ffffff;fill-opacity:1;fill-rule:nonzero;stroke:none;stroke-width:0.96649933px;marker:none;enable-background:accumulate"
       d="M 145.52914,365.43167 C 109.352,313.69915 113.22807,212.82083 123.56446,189.54123 c 10.3363,-23.27959 24.54866,-58.19896 73.64626,-58.19896 49.09752,0 390.19602,-24.57294 440.58562,29.74617 50.38949,54.31911 49.0975,148.73075 5.16824,212.10302 -43.92946,63.37226 -279.08072,50.43916 -279.08072,50.43916 0,0 -162.79697,7.75989 -218.35472,-58.19895 z"
       id="path3992"
       inkscape:connector-curvature="0" />
    <flowRoot
       xml:space="preserve"
       id="flowRoot2987-4-9-3"
       style="font-style:normal;font-variant:normal;font-weight:normal;font-stretch:normal;font-size:12.8px;line-height:0.01%;font-family:Lavi;-inkscape-font-specification:Lavi;text-align:center;letter-spacing:0px;word-spacing:0px;text-anchor:middle;fill:#000000;fill-opacity:1;stroke:none;stroke-width:1.06667"
       transform="translate(15.371886,33.818149)"><flowRegion
         id="flowRegion2989-5-4-5"
         style="stroke-width:1.06667"><rect
           id="rect2991-7-9-6"
           width="642.56183"
           height="331.45596"
           x="56.409595"
           y="127.85334"
           style="font-style:normal;font-variant:normal;font-weight:normal;font-stretch:normal;font-family:Lavi;-inkscape-font-specification:Lavi;text-align:center;text-anchor:middle;stroke-width:1.13777781" /></flowRegion><flowPara
         style="font-size:51.2px;line-height:1.25;text-align:center;text-anchor:middle;stroke-width:1.06667"
         id="flowPara47">Ah, invitere heksene</flowPara><flowPara
         style="font-size:51.2px;line-height:1.25;text-align:center;text-anchor:middle;stroke-width:1.06667"
         id="flowPara38">vi mødte til</flowPara><flowPara
         style="font-size:51.2px;line-height:1.25;text-align:center;text-anchor:middle;stroke-width:1.06667"
         id="flowPara40">eliksirkonkurrencen?</flowPara></flowRoot>
    <path
       style="color:#000000;display:inline;overflow:visible;visibility:visible;fill:#ffffff;fill-opacity:1;fill-rule:nonzero;stroke:none;stroke-width:1.06666672px;marker:none;enable-background:accumulate"
       d="m 1314.0775,661.81022 c 34.0374,18.03773 45.022,26.70896 40.1727,77.9799 -4.8493,51.27095 12.153,50.67785 12.153,50.67785 l 19.5131,-29.45654 c 0,0 3.5627,-109.27366 -71.8388,-99.20121 z"
       id="path3072"
       inkscape:connector-curvature="0" />
    <flowRoot
       xml:space="preserve"
       id="flowRoot2987-4-9-3-1"
       style="font-style:normal;font-variant:normal;font-weight:normal;font-stretch:normal;font-size:12.8px;line-height:0.01%;font-family:Lavi;-inkscape-font-specification:Lavi;text-align:center;letter-spacing:0px;word-spacing:0px;text-anchor:middle;fill:#000000;fill-opacity:1;stroke:none;stroke-width:1.06667"><flowRegion
         id="flowRegion2989-5-4-5-1"
         style="stroke-width:1.06667"><rect
           id="rect2991-7-9-6-6"
           width="642.56183"
           height="331.45596"
           x="1065.8525"
           y="755.44489"
           style="font-style:normal;font-variant:normal;font-weight:normal;font-stretch:normal;font-family:Lavi;-inkscape-font-specification:Lavi;text-align:center;text-anchor:middle;stroke-width:1.13777781" /></flowRegion><flowPara
         style="font-size:51.2px;line-height:1.25;text-align:center;text-anchor:middle;stroke-width:1.06667"
         id="flowPara3138">God idé</flowPara><flowPara
         style="font-size:51.2px;line-height:1.25;text-align:center;text-anchor:middle;stroke-width:1.06667"
         id="flowPara44">Carrot!</flowPara></flowRoot>
    <flowRoot
       xml:space="preserve"
       id="flowRoot3121"
       style="font-style:normal;font-variant:normal;font-weight:normal;font-stretch:normal;font-size:12.8px;line-height:0.01%;font-family:Arial;-inkscape-font-specification:Arial;letter-spacing:0px;word-spacing:0px;fill:#000000;fill-opacity:1;stroke:none;stroke-width:1.06667px;stroke-linecap:butt;stroke-linejoin:miter;stroke-opacity:1"><flowRegion
         id="flowRegion3123"
         style="stroke-width:1.06667px"><rect
           id="rect3125"
           width="36.294895"
           height="14.114681"
           x="1623.1882"
           y="887.38409"
           style="stroke-width:1.13777781px" /></flowRegion><flowPara
         id="flowPara3127"
         style="font-size:12.8px;line-height:1.25;stroke-width:1.06667px"> </flowPara></flowRoot>
    <flowRoot
       xml:space="preserve"
       id="flowRoot2987-4-9-3-1-2"
       style="font-style:normal;font-variant:normal;font-weight:normal;font-stretch:normal;line-height:0.01%;font-family:Lavi;-inkscape-font-specification:Lavi;text-align:center;letter-spacing:0px;word-spacing:0px;text-anchor:middle;opacity:0.437209;fill:#000000;fill-opacity:1;stroke:none"
       transform="matrix(0.97320549,0.22038206,-0.58495151,1.0366412,955.08735,1274.8129)"><flowRegion
         id="flowRegion2989-5-4-5-1-3"><rect
           id="rect2991-7-9-6-6-2"
           width="248.1633"
           height="63.394516"
           x="120.55251"
           y="265.53046"
           style="font-style:normal;font-variant:normal;font-weight:normal;font-stretch:normal;font-family:Lavi;-inkscape-font-specification:Lavi;text-align:center;text-anchor:middle" /></flowRegion><flowPara
         style="font-style:normal;font-variant:normal;font-weight:normal;font-stretch:normal;font-size:48px;line-height:1.25;font-family:Fondamento;-inkscape-font-specification:Fondamento;text-align:center;text-anchor:middle"
         id="flowPara3138-0">Invitation</flowPara></flowRoot>
  </g>
  <g
     inkscape:groupmode="layer"
     id="layer1"
     inkscape:label="txt" />
</svg>
