<?xml version="1.0" encoding="UTF-8" standalone="no"?>
<!-- Created with Inkscape (http://www.inkscape.org/) -->

<svg
   id="svg2"
   version="1.1"
   inkscape:version="1.3 (0e150ed6c4, 2023-07-21)"
   width="2481"
   height="3503"
   sodipodi:docname="E22P08.svg"
   xmlns:inkscape="http://www.inkscape.org/namespaces/inkscape"
   xmlns:sodipodi="http://sodipodi.sourceforge.net/DTD/sodipodi-0.dtd"
   xmlns:xlink="http://www.w3.org/1999/xlink"
   xmlns="http://www.w3.org/2000/svg"
   xmlns:svg="http://www.w3.org/2000/svg"
   xmlns:rdf="http://www.w3.org/1999/02/22-rdf-syntax-ns#"
   xmlns:cc="http://creativecommons.org/ns#"
   xmlns:dc="http://purl.org/dc/elements/1.1/">
  <metadata
     id="metadata8">
    <rdf:RDF>
      <cc:Work
         rdf:about="">
        <dc:format>image/svg+xml</dc:format>
        <dc:type
           rdf:resource="http://purl.org/dc/dcmitype/StillImage" />
        <dc:title />
      </cc:Work>
    </rdf:RDF>
  </metadata>
  <defs
     id="defs6">
    <linearGradient
       inkscape:collect="always"
       id="linearGradient4763">
      <stop
         id="stop4767"
         offset="0"
         style="stop-color:#ff6a05;stop-opacity:1" />
      <stop
         id="stop4765"
         offset="1"
         style="stop-color:#d40000;stop-opacity:1;" />
    </linearGradient>
    <linearGradient
       id="linearGradient4361"
       inkscape:collect="always">
      <stop
         id="stop4363"
         offset="0"
         style="stop-color:#e47107;stop-opacity:1" />
      <stop
         id="stop4365"
         offset="1"
         style="stop-color:#ffbf0b;stop-opacity:1" />
    </linearGradient>
    <filter
       style="color-interpolation-filters:sRGB"
       id="filter4375-4-1-1-1-9-6-9-2-1"
       inkscape:label="deevad outline effect"
       x="-0.02661371"
       y="-0.095537234"
       width="1.0532274"
       height="1.1910745">
      <feFlood
         id="feFlood4377-7-9-0-8-1-0-2-2-06"
         flood-opacity="1"
         flood-color="rgb(0,0,0)"
         result="flood" />
      <feComposite
         id="feComposite4379-3-8-8-2-77-6-0-8-3"
         in2="SourceGraphic"
         in="flood"
         operator="in"
         result="composite1" />
      <feMorphology
         id="feMorphology4393-1-0-49-8-9-2-2-9-2"
         operator="dilate"
         radius="4"
         result="result3" />
      <feComposite
         id="feComposite4385-9-5-7-0-8-6-3-7-0"
         in2="result3"
         in="SourceGraphic"
         operator="over"
         result="composite2" />
    </filter>
    <linearGradient
       inkscape:collect="always"
       xlink:href="#linearGradient4361"
       id="linearGradient4294"
       x1="754.64325"
       y1="1552.0063"
       x2="1186.035"
       y2="1552.0063"
       gradientUnits="userSpaceOnUse" />
    <linearGradient
       inkscape:collect="always"
       id="linearGradient4288">
      <stop
         style="stop-color:#07b5e4;stop-opacity:1;"
         offset="0"
         id="stop4290" />
      <stop
         style="stop-color:#d0f5ff;stop-opacity:1"
         offset="1"
         id="stop4292" />
    </linearGradient>
    <filter
       style="color-interpolation-filters:sRGB"
       id="filter4375-4-1-1-1-9-5-8-8-5"
       inkscape:label="soundFX-fire"
       x="-0.021248759"
       y="-0.070228853"
       width="1.0630608"
       height="1.2084211">
      <feFlood
         id="feFlood4377-7-9-0-8-1-7-3-1-2"
         flood-opacity="1"
         flood-color="rgb(171,34,14)"
         result="flood" />
      <feComposite
         id="feComposite4379-3-8-8-2-77-4-1-0-6"
         in2="SourceGraphic"
         in="flood"
         operator="in"
         result="composite1"
         baseFrequency="0.053999999999999999 0.053999999999999999" />
      <feMorphology
         id="feMorphology4393-1-0-49-8-9-3-0-1-9"
         operator="dilate"
         radius="6.2000000000000002"
         result="result3" />
      <feComposite
         id="feComposite4385-9-5-7-0-8-8-7-5-4"
         in2="result3"
         in="SourceGraphic"
         operator="over"
         result="fbSourceGraphic" />
      <feColorMatrix
         result="fbSourceGraphicAlpha"
         in="fbSourceGraphic"
         values="0 0 0 -1 0 0 0 0 -1 0 0 0 0 -1 0 0 0 0 1 0"
         id="feColorMatrix4544-9-4" />
      <feTurbulence
         id="feTurbulence4546-3-6"
         type="fractalNoise"
         numOctaves="5"
         seed="174"
         baseFrequency="0.053999999999999999 0.054054054054054057"
         result="turbulence" />
      <feDisplacementMap
         id="feDisplacementMap4548-8-0"
         in2="turbulence"
         in="fbSourceGraphic"
         scale="6.6"
         yChannelSelector="G"
         xChannelSelector="R"
         result="fbSourceGraphic" />
      <feColorMatrix
         result="fbSourceGraphicAlpha"
         in="fbSourceGraphic"
         values="0 0 0 -1 0 0 0 0 -1 0 0 0 0 -1 0 0 0 0 1 0"
         id="feColorMatrix4670-7-7" />
      <feFlood
         id="feFlood4672-4-4"
         flood-opacity="1"
         flood-color="rgb(103,29,0)"
         result="flood"
         in="fbSourceGraphic" />
      <feComposite
         id="feComposite4674-8-3"
         in2="fbSourceGraphic"
         in="flood"
         operator="in"
         result="composite1" />
      <feGaussianBlur
         id="feGaussianBlur4676-3-7"
         in="composite1"
         stdDeviation="0"
         result="blur" />
      <feOffset
         id="feOffset4678-6-9"
         dx="6"
         dy="6"
         result="offset" />
      <feComposite
         id="feComposite4680-4-0"
         in2="offset"
         in="fbSourceGraphic"
         operator="over"
         result="composite2" />
    </filter>
    <linearGradient
       inkscape:collect="always"
       xlink:href="#linearGradient4288"
       id="linearGradient4273"
       x1="754.64325"
       y1="1552.0063"
       x2="1186.035"
       y2="1552.0063"
       gradientUnits="userSpaceOnUse" />
    <linearGradient
       inkscape:collect="always"
       xlink:href="#linearGradient4288"
       id="linearGradient4281"
       x1="754.64325"
       y1="1552.0063"
       x2="1186.035"
       y2="1552.0063"
       gradientUnits="userSpaceOnUse" />
    <linearGradient
       inkscape:collect="always"
       xlink:href="#linearGradient4288"
       id="linearGradient4289"
       x1="754.64325"
       y1="1552.0063"
       x2="1186.035"
       y2="1552.0063"
       gradientUnits="userSpaceOnUse" />
    <linearGradient
       inkscape:collect="always"
       xlink:href="#linearGradient4361"
       id="linearGradient4294-8"
       x1="754.64325"
       y1="1552.0063"
       x2="1186.035"
       y2="1552.0063"
       gradientUnits="userSpaceOnUse" />
    <filter
       style="color-interpolation-filters:sRGB"
       id="filter4375-4-1-1-1-9-5-8-8-5-2"
       inkscape:label="soundFX-fire"
       x="-0.021248759"
       y="-0.070228853"
       width="1.0630608"
       height="1.2084211">
      <feFlood
         id="feFlood4377-7-9-0-8-1-7-3-1-2-0"
         flood-opacity="1"
         flood-color="rgb(171,34,14)"
         result="flood" />
      <feComposite
         id="feComposite4379-3-8-8-2-77-4-1-0-6-2"
         in2="SourceGraphic"
         in="flood"
         operator="in"
         result="composite1"
         baseFrequency="0.053999999999999999 0.053999999999999999" />
      <feMorphology
         id="feMorphology4393-1-0-49-8-9-3-0-1-9-3"
         operator="dilate"
         radius="6.2000000000000002"
         result="result3" />
      <feComposite
         id="feComposite4385-9-5-7-0-8-8-7-5-4-7"
         in2="result3"
         in="SourceGraphic"
         operator="over"
         result="fbSourceGraphic" />
      <feColorMatrix
         result="fbSourceGraphicAlpha"
         in="fbSourceGraphic"
         values="0 0 0 -1 0 0 0 0 -1 0 0 0 0 -1 0 0 0 0 1 0"
         id="feColorMatrix4544-9-4-5" />
      <feTurbulence
         id="feTurbulence4546-3-6-9"
         type="fractalNoise"
         numOctaves="5"
         seed="174"
         baseFrequency="0.053999999999999999 0.054054054054054057"
         result="turbulence" />
      <feDisplacementMap
         id="feDisplacementMap4548-8-0-2"
         in2="turbulence"
         in="fbSourceGraphic"
         scale="6.6"
         yChannelSelector="G"
         xChannelSelector="R"
         result="fbSourceGraphic" />
      <feColorMatrix
         result="fbSourceGraphicAlpha"
         in="fbSourceGraphic"
         values="0 0 0 -1 0 0 0 0 -1 0 0 0 0 -1 0 0 0 0 1 0"
         id="feColorMatrix4670-7-7-2" />
      <feFlood
         id="feFlood4672-4-4-8"
         flood-opacity="1"
         flood-color="rgb(103,29,0)"
         result="flood"
         in="fbSourceGraphic" />
      <feComposite
         id="feComposite4674-8-3-9"
         in2="fbSourceGraphic"
         in="flood"
         operator="in"
         result="composite1" />
      <feGaussianBlur
         id="feGaussianBlur4676-3-7-7"
         in="composite1"
         stdDeviation="0"
         result="blur" />
      <feOffset
         id="feOffset4678-6-9-3"
         dx="6"
         dy="6"
         result="offset" />
      <feComposite
         id="feComposite4680-4-0-6"
         in2="offset"
         in="fbSourceGraphic"
         operator="over"
         result="composite2" />
    </filter>
    <linearGradient
       inkscape:collect="always"
       xlink:href="#linearGradient4361"
       id="linearGradient4393"
       x1="754.64325"
       y1="1552.0063"
       x2="1186.035"
       y2="1552.0063"
       gradientUnits="userSpaceOnUse" />
    <linearGradient
       inkscape:collect="always"
       xlink:href="#linearGradient4361"
       id="linearGradient4401"
       x1="754.64325"
       y1="1552.0063"
       x2="1186.035"
       y2="1552.0063"
       gradientUnits="userSpaceOnUse" />
    <linearGradient
       inkscape:collect="always"
       xlink:href="#linearGradient4361"
       id="linearGradient4409"
       x1="754.64325"
       y1="1552.0063"
       x2="1186.035"
       y2="1552.0063"
       gradientUnits="userSpaceOnUse" />
    <filter
       style="color-interpolation-filters:sRGB"
       id="filter4375-4-1-1-1-9-5-8-8-5-2-7"
       inkscape:label="soundFX-fire"
       x="-0.014961965"
       y="-0.070228853"
       width="1.0444033"
       height="1.2084211">
      <feFlood
         id="feFlood4377-7-9-0-8-1-7-3-1-2-0-8"
         flood-opacity="1"
         flood-color="rgb(171,34,14)"
         result="flood" />
      <feComposite
         id="feComposite4379-3-8-8-2-77-4-1-0-6-2-4"
         in2="SourceGraphic"
         in="flood"
         operator="in"
         result="composite1"
         baseFrequency="0.053999999999999999 0.053999999999999999" />
      <feMorphology
         id="feMorphology4393-1-0-49-8-9-3-0-1-9-3-5"
         operator="dilate"
         radius="6.2000000000000002"
         result="result3" />
      <feComposite
         id="feComposite4385-9-5-7-0-8-8-7-5-4-7-0"
         in2="result3"
         in="SourceGraphic"
         operator="over"
         result="fbSourceGraphic" />
      <feColorMatrix
         result="fbSourceGraphicAlpha"
         in="fbSourceGraphic"
         values="0 0 0 -1 0 0 0 0 -1 0 0 0 0 -1 0 0 0 0 1 0"
         id="feColorMatrix4544-9-4-5-3" />
      <feTurbulence
         id="feTurbulence4546-3-6-9-6"
         type="fractalNoise"
         numOctaves="5"
         seed="174"
         baseFrequency="0.053999999999999999 0.054054054054054057"
         result="turbulence" />
      <feDisplacementMap
         id="feDisplacementMap4548-8-0-2-1"
         in2="turbulence"
         in="fbSourceGraphic"
         scale="6.6"
         yChannelSelector="G"
         xChannelSelector="R"
         result="fbSourceGraphic" />
      <feColorMatrix
         result="fbSourceGraphicAlpha"
         in="fbSourceGraphic"
         values="0 0 0 -1 0 0 0 0 -1 0 0 0 0 -1 0 0 0 0 1 0"
         id="feColorMatrix4670-7-7-2-0" />
      <feFlood
         id="feFlood4672-4-4-8-6"
         flood-opacity="1"
         flood-color="rgb(103,29,0)"
         result="flood"
         in="fbSourceGraphic" />
      <feComposite
         id="feComposite4674-8-3-9-3"
         in2="fbSourceGraphic"
         in="flood"
         operator="in"
         result="composite1" />
      <feGaussianBlur
         id="feGaussianBlur4676-3-7-7-2"
         in="composite1"
         stdDeviation="0"
         result="blur" />
      <feOffset
         id="feOffset4678-6-9-3-0"
         dx="6"
         dy="6"
         result="offset" />
      <feComposite
         id="feComposite4680-4-0-6-6"
         in2="offset"
         in="fbSourceGraphic"
         operator="over"
         result="composite2" />
    </filter>
    <linearGradient
       inkscape:collect="always"
       xlink:href="#linearGradient4361"
       id="linearGradient4507"
       x1="754.64325"
       y1="1552.0063"
       x2="1186.035"
       y2="1552.0063"
       gradientUnits="userSpaceOnUse" />
    <linearGradient
       inkscape:collect="always"
       xlink:href="#linearGradient4361"
       id="linearGradient4515"
       x1="754.64325"
       y1="1552.0063"
       x2="1186.035"
       y2="1552.0063"
       gradientUnits="userSpaceOnUse" />
    <linearGradient
       inkscape:collect="always"
       xlink:href="#linearGradient4361"
       id="linearGradient4523"
       x1="754.64325"
       y1="1552.0063"
       x2="1186.035"
       y2="1552.0063"
       gradientUnits="userSpaceOnUse" />
    <filter
       style="color-interpolation-filters:sRGB"
       id="filter4375-4-1-1-1-9-6-9-2-1-7"
       inkscape:label="deevad outline effect"
       x="-0.01369164"
       y="-0.079103282"
       width="1.0273833"
       height="1.1582066">
      <feFlood
         id="feFlood4377-7-9-0-8-1-0-2-2-06-6"
         flood-opacity="1"
         flood-color="rgb(0,0,0)"
         result="flood" />
      <feComposite
         id="feComposite4379-3-8-8-2-77-6-0-8-3-5"
         in2="SourceGraphic"
         in="flood"
         operator="in"
         result="composite1" />
      <feMorphology
         id="feMorphology4393-1-0-49-8-9-2-2-9-2-6"
         operator="dilate"
         radius="4"
         result="result3" />
      <feComposite
         id="feComposite4385-9-5-7-0-8-6-3-7-0-9"
         in2="result3"
         in="SourceGraphic"
         operator="over"
         result="composite2" />
    </filter>
    <filter
       inkscape:label="Magmah-FX"
       inkscape:menu="Distort"
       inkscape:menu-tooltip="Horizontal rippling of edges"
       style="color-interpolation-filters:sRGB"
       id="filter4265-7"
       y="0"
       x="0"
       width="1"
       height="1">
      <feTurbulence
         numOctaves="1"
         baseFrequency="0.002 0.107"
         id="feTurbulence4267-7" />
      <feColorMatrix
         values="5 0 0 0 0 0 0 0 0 0 0 0 0 0 0 0 0 0 4 0 "
         result="result91"
         id="feColorMatrix4269-1" />
      <feDisplacementMap
         yChannelSelector="A"
         xChannelSelector="R"
         scale="14.3"
         in="SourceGraphic"
         in2="result91"
         id="feDisplacementMap4271-2" />
    </filter>
    <filter
       style="color-interpolation-filters:sRGB;"
       inkscape:label="Magmah-spell-glow"
       id="filter4751"
       x="-0.063759217"
       y="-0.29230059"
       width="1.1275184"
       height="1.5846012">
      <feFlood
         flood-opacity="1"
         flood-color="rgb(255,255,255)"
         result="flood"
         id="feFlood4753" />
      <feComposite
         in="flood"
         in2="SourceGraphic"
         operator="in"
         result="composite1"
         id="feComposite4755" />
      <feGaussianBlur
         in="composite1"
         stdDeviation="5.4"
         result="blur"
         id="feGaussianBlur4757" />
      <feOffset
         dx="0"
         dy="0"
         result="offset"
         id="feOffset4759" />
      <feComposite
         in="SourceGraphic"
         in2="offset"
         operator="over"
         result="composite2"
         id="feComposite4761" />
    </filter>
    <radialGradient
       inkscape:collect="always"
       xlink:href="#linearGradient4763"
       id="radialGradient4769"
       cx="438.56332"
       cy="238.34987"
       fx="438.56332"
       fy="238.34987"
       r="324.33624"
       gradientTransform="matrix(1,0,0,0.36474659,0,151.41257)"
       gradientUnits="userSpaceOnUse" />
    <filter
       style="color-interpolation-filters:sRGB"
       id="filter4375-4-1-1-1-9-6-9-2-1-4"
       inkscape:label="deevad outline effect"
       x="-0.025560934"
       y="-0.10641788"
       width="1.0511219"
       height="1.2128358">
      <feFlood
         id="feFlood4377-7-9-0-8-1-0-2-2-06-5"
         flood-opacity="1"
         flood-color="rgb(0,0,0)"
         result="flood" />
      <feComposite
         id="feComposite4379-3-8-8-2-77-6-0-8-3-2"
         in2="SourceGraphic"
         in="flood"
         operator="in"
         result="composite1" />
      <feMorphology
         id="feMorphology4393-1-0-49-8-9-2-2-9-2-5"
         operator="dilate"
         radius="4"
         result="result3" />
      <feComposite
         id="feComposite4385-9-5-7-0-8-6-3-7-0-4"
         in2="result3"
         in="SourceGraphic"
         operator="over"
         result="composite2" />
    </filter>
    <filter
       style="color-interpolation-filters:sRGB"
       id="filter4375-4-1-1-1-9-6-9-2-1-7-4"
       inkscape:label="deevad outline effect"
       x="-0.041862405"
       y="-0.11555411"
       width="1.0837248"
       height="1.2311082">
      <feFlood
         id="feFlood4377-7-9-0-8-1-0-2-2-06-6-3"
         flood-opacity="1"
         flood-color="rgb(0,0,0)"
         result="flood" />
      <feComposite
         id="feComposite4379-3-8-8-2-77-6-0-8-3-5-0"
         in2="SourceGraphic"
         in="flood"
         operator="in"
         result="composite1" />
      <feMorphology
         id="feMorphology4393-1-0-49-8-9-2-2-9-2-6-7"
         operator="dilate"
         radius="6"
         result="result3" />
      <feComposite
         id="feComposite4385-9-5-7-0-8-6-3-7-0-9-8"
         in2="result3"
         in="SourceGraphic"
         operator="over"
         result="composite2" />
    </filter>
    <filter
       style="color-interpolation-filters:sRGB"
       id="filter4375-4-1-1-1-9-5-8-8-5-4"
       inkscape:label="soundFX-fire"
       x="-0.027161724"
       y="-0.070228853"
       width="1.080609"
       height="1.2084211">
      <feFlood
         id="feFlood4377-7-9-0-8-1-7-3-1-2-9"
         flood-opacity="1"
         flood-color="rgb(171,34,14)"
         result="flood" />
      <feComposite
         id="feComposite4379-3-8-8-2-77-4-1-0-6-20"
         in2="SourceGraphic"
         in="flood"
         operator="in"
         result="composite1"
         baseFrequency="0.053999999999999999 0.053999999999999999" />
      <feMorphology
         id="feMorphology4393-1-0-49-8-9-3-0-1-9-6"
         operator="dilate"
         radius="6.2000000000000002"
         result="result3" />
      <feComposite
         id="feComposite4385-9-5-7-0-8-8-7-5-4-8"
         in2="result3"
         in="SourceGraphic"
         operator="over"
         result="fbSourceGraphic" />
      <feColorMatrix
         result="fbSourceGraphicAlpha"
         in="fbSourceGraphic"
         values="0 0 0 -1 0 0 0 0 -1 0 0 0 0 -1 0 0 0 0 1 0"
         id="feColorMatrix4544-9-4-9" />
      <feTurbulence
         id="feTurbulence4546-3-6-2"
         type="fractalNoise"
         numOctaves="5"
         seed="174"
         baseFrequency="0.053999999999999999 0.054054054054054057"
         result="turbulence" />
      <feDisplacementMap
         id="feDisplacementMap4548-8-0-6"
         in2="turbulence"
         in="fbSourceGraphic"
         scale="6.6"
         yChannelSelector="G"
         xChannelSelector="R"
         result="fbSourceGraphic" />
      <feColorMatrix
         result="fbSourceGraphicAlpha"
         in="fbSourceGraphic"
         values="0 0 0 -1 0 0 0 0 -1 0 0 0 0 -1 0 0 0 0 1 0"
         id="feColorMatrix4670-7-7-6" />
      <feFlood
         id="feFlood4672-4-4-4"
         flood-opacity="1"
         flood-color="rgb(103,29,0)"
         result="flood"
         in="fbSourceGraphic" />
      <feComposite
         id="feComposite4674-8-3-95"
         in2="fbSourceGraphic"
         in="flood"
         operator="in"
         result="composite1" />
      <feGaussianBlur
         id="feGaussianBlur4676-3-7-0"
         in="composite1"
         stdDeviation="0"
         result="blur" />
      <feOffset
         id="feOffset4678-6-9-4"
         dx="6"
         dy="6"
         result="offset" />
      <feComposite
         id="feComposite4680-4-0-8"
         in2="offset"
         in="fbSourceGraphic"
         operator="over"
         result="composite2" />
    </filter>
    <linearGradient
       inkscape:collect="always"
       xlink:href="#linearGradient4361"
       id="linearGradient4869"
       x1="754.64325"
       y1="1552.0063"
       x2="1186.035"
       y2="1552.0063"
       gradientUnits="userSpaceOnUse" />
    <linearGradient
       inkscape:collect="always"
       xlink:href="#linearGradient4361"
       id="linearGradient4877"
       x1="754.64325"
       y1="1552.0063"
       x2="1186.035"
       y2="1552.0063"
       gradientUnits="userSpaceOnUse" />
    <linearGradient
       inkscape:collect="always"
       xlink:href="#linearGradient4361"
       id="linearGradient4885"
       x1="754.64325"
       y1="1552.0063"
       x2="1186.035"
       y2="1552.0063"
       gradientUnits="userSpaceOnUse" />
    <filter
       style="color-interpolation-filters:sRGB"
       id="filter4375-4-1-1-1-9-5-8-8-5-4-6"
       inkscape:label="soundFX-fire"
       x="-0.027161724"
       y="-0.070228853"
       width="1.080609"
       height="1.2084211">
      <feFlood
         id="feFlood4377-7-9-0-8-1-7-3-1-2-9-1"
         flood-opacity="1"
         flood-color="rgb(171,34,14)"
         result="flood" />
      <feComposite
         id="feComposite4379-3-8-8-2-77-4-1-0-6-20-0"
         in2="SourceGraphic"
         in="flood"
         operator="in"
         result="composite1"
         baseFrequency="0.053999999999999999 0.053999999999999999" />
      <feMorphology
         id="feMorphology4393-1-0-49-8-9-3-0-1-9-6-6"
         operator="dilate"
         radius="6.2000000000000002"
         result="result3" />
      <feComposite
         id="feComposite4385-9-5-7-0-8-8-7-5-4-8-1"
         in2="result3"
         in="SourceGraphic"
         operator="over"
         result="fbSourceGraphic" />
      <feColorMatrix
         result="fbSourceGraphicAlpha"
         in="fbSourceGraphic"
         values="0 0 0 -1 0 0 0 0 -1 0 0 0 0 -1 0 0 0 0 1 0"
         id="feColorMatrix4544-9-4-9-5" />
      <feTurbulence
         id="feTurbulence4546-3-6-2-9"
         type="fractalNoise"
         numOctaves="5"
         seed="174"
         baseFrequency="0.053999999999999999 0.054054054054054057"
         result="turbulence" />
      <feDisplacementMap
         id="feDisplacementMap4548-8-0-6-4"
         in2="turbulence"
         in="fbSourceGraphic"
         scale="6.6"
         yChannelSelector="G"
         xChannelSelector="R"
         result="fbSourceGraphic" />
      <feColorMatrix
         result="fbSourceGraphicAlpha"
         in="fbSourceGraphic"
         values="0 0 0 -1 0 0 0 0 -1 0 0 0 0 -1 0 0 0 0 1 0"
         id="feColorMatrix4670-7-7-6-9" />
      <feFlood
         id="feFlood4672-4-4-4-0"
         flood-opacity="1"
         flood-color="rgb(103,29,0)"
         result="flood"
         in="fbSourceGraphic" />
      <feComposite
         id="feComposite4674-8-3-95-9"
         in2="fbSourceGraphic"
         in="flood"
         operator="in"
         result="composite1" />
      <feGaussianBlur
         id="feGaussianBlur4676-3-7-0-1"
         in="composite1"
         stdDeviation="0"
         result="blur" />
      <feOffset
         id="feOffset4678-6-9-4-7"
         dx="6"
         dy="6"
         result="offset" />
      <feComposite
         id="feComposite4680-4-0-8-7"
         in2="offset"
         in="fbSourceGraphic"
         operator="over"
         result="composite2" />
    </filter>
    <linearGradient
       inkscape:collect="always"
       xlink:href="#linearGradient4361"
       id="linearGradient4982"
       x1="754.64325"
       y1="1552.0063"
       x2="1186.035"
       y2="1552.0063"
       gradientUnits="userSpaceOnUse" />
    <linearGradient
       inkscape:collect="always"
       xlink:href="#linearGradient4361"
       id="linearGradient4990"
       x1="754.64325"
       y1="1552.0063"
       x2="1186.035"
       y2="1552.0063"
       gradientUnits="userSpaceOnUse" />
    <linearGradient
       inkscape:collect="always"
       xlink:href="#linearGradient4361"
       id="linearGradient4998"
       x1="754.64325"
       y1="1552.0063"
       x2="1186.035"
       y2="1552.0063"
       gradientUnits="userSpaceOnUse" />
    <filter
       style="color-interpolation-filters:sRGB"
       id="filter4375-4-1-1-1-9-5-8-8-5-4-6-5"
       inkscape:label="soundFX-fire"
       x="-0.027161724"
       y="-0.070228853"
       width="1.080609"
       height="1.2084211">
      <feFlood
         id="feFlood4377-7-9-0-8-1-7-3-1-2-9-1-6"
         flood-opacity="1"
         flood-color="rgb(171,34,14)"
         result="flood" />
      <feComposite
         id="feComposite4379-3-8-8-2-77-4-1-0-6-20-0-3"
         in2="SourceGraphic"
         in="flood"
         operator="in"
         result="composite1"
         baseFrequency="0.053999999999999999 0.053999999999999999" />
      <feMorphology
         id="feMorphology4393-1-0-49-8-9-3-0-1-9-6-6-9"
         operator="dilate"
         radius="6.2000000000000002"
         result="result3" />
      <feComposite
         id="feComposite4385-9-5-7-0-8-8-7-5-4-8-1-4"
         in2="result3"
         in="SourceGraphic"
         operator="over"
         result="fbSourceGraphic" />
      <feColorMatrix
         result="fbSourceGraphicAlpha"
         in="fbSourceGraphic"
         values="0 0 0 -1 0 0 0 0 -1 0 0 0 0 -1 0 0 0 0 1 0"
         id="feColorMatrix4544-9-4-9-5-8" />
      <feTurbulence
         id="feTurbulence4546-3-6-2-9-1"
         type="fractalNoise"
         numOctaves="5"
         seed="174"
         baseFrequency="0.053999999999999999 0.054054054054054057"
         result="turbulence" />
      <feDisplacementMap
         id="feDisplacementMap4548-8-0-6-4-2"
         in2="turbulence"
         in="fbSourceGraphic"
         scale="6.6"
         yChannelSelector="G"
         xChannelSelector="R"
         result="fbSourceGraphic" />
      <feColorMatrix
         result="fbSourceGraphicAlpha"
         in="fbSourceGraphic"
         values="0 0 0 -1 0 0 0 0 -1 0 0 0 0 -1 0 0 0 0 1 0"
         id="feColorMatrix4670-7-7-6-9-9" />
      <feFlood
         id="feFlood4672-4-4-4-0-3"
         flood-opacity="1"
         flood-color="rgb(103,29,0)"
         result="flood"
         in="fbSourceGraphic" />
      <feComposite
         id="feComposite4674-8-3-95-9-9"
         in2="fbSourceGraphic"
         in="flood"
         operator="in"
         result="composite1" />
      <feGaussianBlur
         id="feGaussianBlur4676-3-7-0-1-0"
         in="composite1"
         stdDeviation="0"
         result="blur" />
      <feOffset
         id="feOffset4678-6-9-4-7-8"
         dx="6"
         dy="6"
         result="offset" />
      <feComposite
         id="feComposite4680-4-0-8-7-8"
         in2="offset"
         in="fbSourceGraphic"
         operator="over"
         result="composite2" />
    </filter>
    <linearGradient
       inkscape:collect="always"
       xlink:href="#linearGradient4361"
       id="linearGradient5130"
       x1="754.64325"
       y1="1552.0063"
       x2="1186.035"
       y2="1552.0063"
       gradientUnits="userSpaceOnUse" />
    <linearGradient
       inkscape:collect="always"
       xlink:href="#linearGradient4361"
       id="linearGradient5138"
       x1="754.64325"
       y1="1552.0063"
       x2="1186.035"
       y2="1552.0063"
       gradientUnits="userSpaceOnUse" />
    <linearGradient
       inkscape:collect="always"
       xlink:href="#linearGradient4361"
       id="linearGradient5146"
       x1="754.64325"
       y1="1552.0063"
       x2="1186.035"
       y2="1552.0063"
       gradientUnits="userSpaceOnUse" />
  </defs>
  <sodipodi:namedview
     pagecolor="#ffffff"
     bordercolor="#666666"
     borderopacity="1"
     objecttolerance="10"
     gridtolerance="10"
     guidetolerance="10"
     inkscape:pageopacity="0"
     inkscape:pageshadow="2"
     inkscape:window-width="1920"
     inkscape:window-height="1012"
     id="namedview4"
     showgrid="false"
     inkscape:zoom="0.34782609"
     inkscape:cx="1023.5"
     inkscape:cy="1336.875"
     inkscape:window-x="0"
     inkscape:window-y="0"
     inkscape:window-maximized="1"
     inkscape:current-layer="layer3"
     inkscape:showpageshadow="0"
     inkscape:pagecheckerboard="0"
     inkscape:deskcolor="#d1d1d1" />
  <g
     inkscape:groupmode="layer"
     id="layer2"
     inkscape:label="artwork"
     sodipodi:insensitive="true">
    <image
       xlink:href="../gfx_Pepper-and-Carrot_by-David-Revoy_E22P08.png"
       width="2481"
       height="3503"
       id="image10"
       x="0"
       y="0" />
  </g>
  <g
     inkscape:groupmode="layer"
     id="layer3"
     inkscape:label="speechbubbles"
     style="display:inline">
    <path
       style="color:#000000;display:inline;overflow:visible;visibility:visible;fill:#ffffff;fill-opacity:1;fill-rule:nonzero;stroke:none;stroke-width:1px;marker:none;enable-background:accumulate"
       d="m 1939.3294,164.7192 c -6.2283,17.21405 -41.3569,18.65751 -54.2887,15.15846 26.0675,19.25708 25.1587,31.22181 -10.2336,33.07955 59.3536,34.70629 10.8506,29.45441 1.2838,38.25494 46.6035,11.96054 31.1567,30.08821 1.2432,38.42125 53.5662,0.50897 40.5986,12.72552 20.3185,30.30476 23.7169,-11.50907 60.3026,-19.78538 61.6007,10.30549 34.3639,-26.28645 52.094,-25.77514 64.5206,3.95041 10.3801,-25.63219 45.7249,-30.56553 59.24,-2.92178 11.6424,-37.41178 53.1838,-32.14411 77.9119,-14.01296 -13.8812,-12.7968 -4.4155,-33.86624 42.9105,-29.60589 -3.8093,-11.72922 2.1812,-26.53422 26.0803,-24.57977 -27.5288,-7.08529 -32.6022,-14.3936 18.5125,-22.25847 -38.8953,-0.76075 -75.1655,-2.31938 -29.5328,-29.14088 -14.3162,-0.64901 -48.283,21.73159 -32.4464,-43.76572 -41.9291,19.31354 -85.9884,29.18578 -83.8207,-11.38174 -15.5881,21.94283 -42.6253,32.80104 -54.3879,5.39268 -9.71,25.60336 -39.203,14.88263 -54.5241,-2.593 -10.1234,17.34268 -25.267,29.05516 -54.3878,5.39267 z"
       id="path3549-3-7"
       inkscape:connector-curvature="0"
       sodipodi:nodetypes="ccccccccccccccccccc" />
    <path
       style="color:#000000;display:inline;overflow:visible;visibility:visible;fill:#ffffff;fill-opacity:1;fill-rule:nonzero;stroke:none;stroke-width:1px;marker:none;enable-background:accumulate"
       d="m 1718.5156,401.26753 c 48.9328,-23.69711 222.4427,-95.53733 227.3073,-135.37619 6.8766,-56.31559 0.2535,-31.22768 0.2535,-31.22768 l 28.5516,47.34069 c 4.6298,0.0649 -137.3086,93.19891 -256.1124,119.26318 z"
       id="path3072-1"
       inkscape:connector-curvature="0"
       sodipodi:nodetypes="csccc" />
    <path
       style="color:#000000;display:inline;overflow:visible;visibility:visible;fill:url(#radialGradient4769);fill-opacity:1;fill-rule:nonzero;stroke:none;stroke-width:1px;marker:none;filter:url(#filter4265-7);enable-background:accumulate"
       d="m 168.28312,242.56886 c 0,-59.7361 29.8086,-90.5375 118.2404,-96.1379 88.4319,-5.6002 342.7586,-13.9748 381.5097,5.6261 38.751,19.601 38.7901,48.5099 40.7774,87.7117 1.9872,39.2018 -86.4447,99.8714 -174.8765,97.0713 -88.4319,-2.8002 -252.71431,7.13546 -300.40791,-6.86524 -47.6936,-14.0007 -64.80526,-54.51924 -65.24309,-87.40596 z"
       id="path3986-3"
       inkscape:connector-curvature="0"
       sodipodi:nodetypes="csssssc"
       transform="matrix(0.05524901,-0.33523845,2.4104978,0.00712234,-1.7720839,1611.7007)" />
    <path
       style="color:#000000;display:inline;overflow:visible;visibility:visible;fill:#ffffff;fill-opacity:1;fill-rule:nonzero;stroke:none;stroke-width:1px;marker:none;enable-background:accumulate"
       d="m 1081.3751,2501.7988 c 3.2527,-11.3215 20.627,-46.387 25.7118,-9.2908 37.4381,-49.6727 83.6395,-32.1693 93.8806,-24.9317 -4.7258,-14.704 4.8022,-41.1365 32.0153,-34.6371 -5.1706,-14.2063 2.6362,-24.8732 22.022,-32.3819 -27.4731,-6.645 -33.2796,-15.2908 15.0553,-28.9371 -37.6389,2.0456 -72.8702,2.9007 -32.2408,-33.7574 -13.9008,0.2967 -43.8343,30.571 -36.8893,-51.6076 -21.0909,27.809 -44.9596,44.1275 -82.345,-7.6374 -7.5628,22.2148 -20.6761,37.8516 -51.7969,10.8375 -3.8196,21.7569 -37.5549,26.2154 -50.4824,22.8831 27.6128,21.8028 28.2717,36.6578 -5.6527,41.6714 61.708,38.3446 14.2263,35.6004 6.113,47.2134 46.5049,11.2067 28.2717,31.1822 22.1502,50.136 51.7672,-3.4832 37.8708,27.2285 42.4589,50.4396 z"
       id="path3549-3"
       inkscape:connector-curvature="0"
       sodipodi:nodetypes="ccccccccccccccc" />
    <path
       style="color:#000000;display:inline;overflow:visible;visibility:visible;fill:#ffffff;fill-opacity:1;fill-rule:nonzero;stroke:none;stroke-width:1px;marker:none;enable-background:accumulate"
       d="m 1131.712,2455.8179 c 6.2225,27.4825 16.5932,59.1133 19.7045,66.3728 6.2224,-7.2595 12.9634,-12.4449 18.1488,-16.5932 4.6668,14.0005 22.8156,80.3733 20.7414,97.485 6.741,-42.0015 -3.6297,-93.3367 -12.9634,-115.6338 -7.778,4.1483 -11.9263,7.778 -16.0746,9.8522 -5.1854,-10.8893 -14.5191,-49.7796 -14.5191,-49.7796 z"
       id="path5066"
       inkscape:connector-curvature="0" />
    <path
       style="fill:#ffffff;fill-rule:evenodd;stroke:none;stroke-width:1.03393px;stroke-linecap:butt;stroke-linejoin:miter;stroke-opacity:1"
       d="m 1877.761,3188.7346 c 35.2424,7.736 37.1389,18.0664 4.2649,31.1019 34.3842,-0.7606 27.9014,6.6533 11.8863,15.974 48.3775,31.9483 39.8088,62.5997 29.9006,93.2204 44.4173,-24.6021 49.2817,-1.0546 62.808,11.9482 6.33,-34.6844 13.8598,-15.483 21.7247,18.7544 5.4513,-44.0914 12.2862,-49.27 20.3834,-18.9639 6.7529,-28.7602 18.3462,-42.1592 35.5028,-37.9017 27.5956,-32.3785 43.0395,-1.9503 62.411,8.1776 4.2572,-29.3421 18.0927,-33.8128 34.9816,-30.354 6.4488,-13.6292 10.5447,-32.0743 33.2505,-12.426 2.4528,-23.9469 14.2175,-10.5347 23.1207,-8.6032 -11.6029,-10.1656 6.0295,-18.5249 57.2895,-24.8062 -20.2125,-1.606 -19.5335,-10.8993 5.8029,-29.2657 -30.573,-4.228 -31.6103,-18.3382 -17.1317,-37.6396 -35.7658,-13.7654 -4.155,-44.3783 10.6437,-70.7874 -33.1357,19.4286 -60.414,26.3266 -69.6791,-5.3119 -49.3911,39.5699 -42.9942,23.3256 -39.1408,9.6258 -29.2419,39.6906 -29.9053,11.7609 -39.0788,3.967 -84.5941,61.7411 -85.0006,21.5689 -105.1019,5.2385 -3.1753,46.9936 -23.2737,34.5736 -43.442,21.908 4.1088,37.9105 -8.1093,29.8419 -19.986,22.7345 0.067,16.8137 -10.4063,24.5299 -35.0874,19.9801 18.1345,8.9294 7.8885,14.0571 -45.3229,13.4292 z"
       id="path4289"
       inkscape:connector-curvature="0"
       sodipodi:nodetypes="cccccccccccccccccccccccc" />
    <path
       style="color:#000000;display:inline;overflow:visible;visibility:visible;fill:#ffffff;fill-opacity:1;fill-rule:nonzero;stroke:none;stroke-width:1px;marker:none;enable-background:accumulate"
       d="m 1887.3215,3381.0916 c 58.1864,-24.0464 81.2101,-45.1344 101.8154,-66.0111 9.6953,-9.8229 -19.046,-21.1368 -19.046,-21.1368 l -15.7859,22.4288 c 0,0 -19.7655,38.2932 -66.9835,64.7191 z"
       id="path4000"
       inkscape:connector-curvature="0"
       sodipodi:nodetypes="csccc"
       inkscape:transform-center-x="-312.46852"
       inkscape:transform-center-y="-2.166888" />
    <path
       style="fill:#d40000;fill-rule:evenodd;stroke:none;stroke-width:1px;stroke-linecap:butt;stroke-linejoin:miter;stroke-opacity:1"
       d="m 770.60065,1465.6323 c 4.61452,-4.8105 4.76031,-11.8487 5.17178,-18.0965 0.47655,-5.0179 2.33565,-10.5129 7.00775,-13.0915 4.48022,-3.18 9.91917,-5.2075 15.47201,-4.7025 2.90071,0.167 5.75898,0.7993 8.51783,1.6942 -1.969,-1.3535 -4.69984,-1.4407 -6.96121,-2.3306 -3.15319,-0.8753 -6.36837,-1.583 -9.40125,-2.8379 -0.50846,-2.4994 4.08235,-1.1969 5.90476,-1.4458 2.85531,0.1407 5.73597,0.4174 8.58083,-0.01 0.11895,-2.4585 1.81847,-5.3324 2.67408,-8.1496 3.01357,-8.9058 2.23767,-20.8749 8.63715,-26.8517 4.6652,-5.6225 13.91267,-8.9802 22.7853,-8.9528 7.67623,-0.3542 13.2568,-0.9119 19.04744,3.0528 8.41783,3.0903 4.00382,0.9894 9.66529,3.2722 3.27217,1.1436 11.50731,6.5162 14.22696,8.7368 -6.5847,-8.9636 -17.50852,-12.8466 -25.72027,-19.966 -2.04064,-1.4582 -6.47368,-3.18 -12.24755,-4.3885 -8.92568,-1.2722 -11.0277,-1.0183 -19.9542,-2.2803 -4.72078,1.2496 -9.44151,2.4994 -14.16227,3.7491 -7.16881,3.998 -11.8246,10.4516 -18.19072,15.0536 -5.28563,3.5806 -10.74021,7.2155 -14.68438,12.3156 -1.31995,3.1331 2.02042,5.6525 4.23483,7.2561 3.3693,1.8325 3.68207,5.5782 4.62164,8.5401 0.0307,2.0308 -1.88454,4.8978 0.5639,6.2205 -3.90116,0.6671 -5.45607,-5.6619 -9.4936,-3.7896 -2.8453,1.3062 -4.58766,4.1245 -7.25269,5.7019 -3.27007,2.7713 -7.04981,5.1 -9.341,8.8418 -2.81767,3.8288 -5.6354,7.6575 -8.45311,11.4863 6.26889,6.9734 12.37461,14.096 18.7507,20.9713 z"
       id="path4345"
       inkscape:connector-curvature="0"
       sodipodi:nodetypes="cccccccccccccccccccccccccccccc" />
    <path
       style="color:#000000;display:inline;overflow:visible;visibility:visible;fill:#ffffff;fill-opacity:1;fill-rule:nonzero;stroke:none;stroke-width:0.978462px;marker:none;enable-background:accumulate"
       d="m 703.54751,359.15935 c -15.9059,0.47025 -31.51964,-2.96942 -45.90119,-7.87402 -10.47538,-0.0649 -18.87824,6.10367 -29.31893,6.2529 -17.77356,1.29746 -35.83118,-3.12201 -49.94307,-11.28494 -1.76294,-1.08727 -3.76692,-2.04065 -6.14121,-1.80756 -6.31189,0.17018 -11.98404,3.09388 -18.39636,2.7056 -8.11119,0.1692 -16.09555,-1.66552 -23.26074,-4.44858 -16.30634,2.44246 -32.41448,7.2695 -49.305,6.10126 -11.18496,-0.69062 -22.00049,-3.14794 -32.61592,-5.78025 -13.04833,3.79346 -26.0566,8.95305 -40.38637,8.82376 -11.03773,-0.40354 -21.86986,-2.6801 -31.86827,-6.19742 -11.03691,10.31824 -33.27455,12.06459 -46.87373,3.68585 -8.29065,-0.80678 -15.07247,3.7234 -22.80523,5.05066 -19.32082,4.02865 -39.52273,2.29726 -59.27075,2.12029 -19.60342,-0.39003 -39.16894,-3.23035 -57.37865,-8.78469 -11.47132,-2.45272 -24.13426,-3.06645 -34.03969,-8.57138 -11.25642,-7.49246 -16.84061,-18.47008 -20.74142,-29.14596 -3.42472,-9.75337 -7.45498,-19.79809 -16.24299,-27.62557 -9.02671,-10.44705 -9.1469,-24.19974 -3.07917,-35.54607 2.31693,-4.92936 5.71666,-9.52562 9.55143,-13.86273 -0.91158,-6.72901 -8.53193,-12.08577 -7.69046,-19.06963 -0.2858,-16.14368 3.325,-32.47628 11.93313,-47.29774 5.70856,-8.25947 33.14507,-13.78046 42.23966,-12.1472 2.08181,-7.57617 11.30119,-14.48571 23.534,-20.21527 15.61489,-6.30069 42.16756,-0.58035 59.88034,0.77974 6.38595,-7.84334 20.16946,-6.68071 34.16337,-9.58127 11.16363,-1.63608 22.90841,-3.97488 34.15197,-1.40237 6.40548,1.69069 13.83556,3.02197 20.21665,0.55268 9.82463,-2.79042 20.37763,-5.94373 31.02797,-4.17107 8.23156,1.56431 16.59416,4.76739 25.2561,3.1331 13.05191,-2.8563 26.3918,-6.77062 40.22235,-5.40543 16.46736,1.29032 33.04602,4.84451 49.6465,2.50912 11.4869,-1.53084 23.6057,-3.48679 35.03183,-0.66366 7.10393,2.69382 15.90835,1.85234 22.41421,-1.43518 10.4912,-3.6287 21.92378,-7.23547 33.69938,-5.89683 9.44607,1.65413 18.06008,6.44509 28.1103,5.73027 11.46865,-0.29388 23.80369,-0.34638 33.92751,4.34783 7.39126,3.56281 16.53848,5.42615 25.21604,3.93319 18.71003,-0.87551 36.95406,5.21467 51.07048,14.20749 6.19907,3.59392 10.91846,8.46772 17.14836,12.00353 9.0581,3.18039 19.91201,1.65999 28.55997,5.73693 14.54655,5.18068 27.63224,14.10996 32.67146,25.94911 1.92655,5.29137 8.71521,8.1037 14.18569,11.10635 5.91987,2.91414 10.00184,7.56711 11.98436,12.65134 4.47277,9.63468 6.55983,20.0563 4.84303,30.22696 -1.9627,6.50301 -8.44104,12.14707 -7.68986,19.10026 0.56686,13.19415 5.48267,26.4008 2.28364,39.59625 -3.66815,13.87361 -17.20976,25.38875 -33.54436,31.75822 -7.97128,3.26994 -16.94008,4.52169 -25.55131,6.42853 -9.46913,2.17219 -15.7099,8.35563 -22.61174,13.3075 -10.0804,7.41883 -24.46701,10.69368 -38.31331,10.4161 z"
       id="path4043-4"
       inkscape:connector-curvature="0"
       sodipodi:nodetypes="ccccccccccccccccccccccccccccccccccccccccccccccccccc" />
    <path
       style="color:#000000;display:inline;overflow:visible;visibility:visible;fill:#ffffff;fill-opacity:1;fill-rule:nonzero;stroke:none;stroke-width:1px;marker:none;enable-background:accumulate"
       d="m 702.96616,398.0987 c -1.2969,-8.327 6.9164,-12.4905 6.9164,-12.4905 0,0 -8.2133,-6.4345 1.2968,-12.8691 9.51,-6.43448 18.1554,1.5141 18.1554,1.5141 0,0 12.1037,-12.49058 23.3427,1.8925 11.2392,14.383 0,22.3315 0,22.3315 0,0 6.4842,15.1401 -10.8068,18.5466 -17.2909,3.4065 -22.0459,1.1355 -26.3687,-7.9485 -12.1036,-3.0281 -12.5358,-10.9766 -12.5358,-10.9766 z"
       id="path5098"
       inkscape:connector-curvature="0" />
    <path
       style="color:#000000;display:inline;overflow:visible;visibility:visible;fill:#ffffff;fill-opacity:1;fill-rule:nonzero;stroke:none;stroke-width:1px;marker:none;enable-background:accumulate"
       d="m 712.81014,451.995 c -4.24238,-4.2985 -1.51511,-8.82321 2.12118,-9.72816 3.63636,-0.90494 11.21209,-0.22628 13.33335,4.29843 6.06056,-2.0361 9.99993,2.03617 10.30293,3.84606 0.30308,1.80988 -0.303,5.42966 -0.303,5.42966 0,0 4.84846,11.08553 -3.03035,14.25286 -7.87867,3.16734 -15.45447,-2.26239 -15.45447,-7.69204 -5.75755,2.26239 -11.5151,-0.45244 -10.90901,-3.61978 0.60608,-3.16726 3.93937,-6.78703 3.93937,-6.78703 z"
       id="path5106"
       inkscape:connector-curvature="0" />
    <text
       xml:space="preserve"
       style="font-style:normal;font-variant:normal;font-weight:normal;font-stretch:normal;line-height:0%;font-family:Lavi;-inkscape-font-specification:Lavi;text-align:center;letter-spacing:0px;word-spacing:0px;text-anchor:middle;display:inline;fill:#000000;fill-opacity:1;stroke:none"
       x="478.66129"
       y="199.12946"
       id="text4246-2-3-1-3-9-9-36"><tspan
         sodipodi:role="line"
         style="font-size:45px;line-height:1.25"
         x="478.66129"
         y="199.12946"
         id="tspan4161-53">¡Grrr! ¡No permitiré obtener </tspan><tspan
         sodipodi:role="line"
         style="font-size:45px;line-height:1.25"
         x="478.66129"
         y="255.37946"
         id="tspan3558">menos puntuación que Espirulina! </tspan><tspan
         sodipodi:role="line"
         style="font-size:45px;line-height:1.25"
         x="478.66129"
         y="311.62946"
         id="tspan3560">¡Voy a dar el todo por el todo!</tspan></text>
  </g>
  <g
     inkscape:groupmode="layer"
     id="layer1"
     inkscape:label="txt">
    <text
       xml:space="preserve"
       style="font-style:normal;font-variant:normal;font-weight:normal;font-stretch:normal;line-height:0%;font-family:Lavi;-inkscape-font-specification:Lavi;text-align:center;letter-spacing:0px;word-spacing:0px;text-anchor:middle;display:inline;fill:#000000;fill-opacity:1;stroke:none"
       x="2037.641"
       y="232.42725"
       id="text4246-2-3-1-3-9-9"><tspan
         sodipodi:role="line"
         style="font-size:45px;line-height:1.25"
         x="2037.641"
         y="232.42725"
         id="tspan4341">¡Apártate,</tspan><tspan
         sodipodi:role="line"
         style="font-size:45px;line-height:1.25"
         x="2037.641"
         y="288.67725"
         id="tspan4161">Trufa!</tspan></text>
    <text
       xml:space="preserve"
       style="font-style:normal;font-variant:normal;font-weight:normal;font-stretch:normal;line-height:0%;font-family:Lavi;-inkscape-font-specification:Lavi;letter-spacing:0px;word-spacing:0px;fill:url(#linearGradient4294-8);fill-opacity:1;stroke:none;stroke-width:0.763978;stroke-miterlimit:4;stroke-dasharray:none;stroke-opacity:0;filter:url(#filter4375-4-1-1-1-9-5-8-8-5-2)"
       x="787.65729"
       y="1584.5073"
       id="text4580-6-0-0-0-1"
       transform="matrix(0.44026207,-0.29244135,-0.02017909,0.64277664,888.07455,-395.35125)"
       inkscape:transform-center-x="-295.89005"
       inkscape:transform-center-y="124.68109"><tspan
         sodipodi:role="line"
         id="tspan4582-1-1-0-2-2"
         x="787.65729"
         y="1584.5073"
         style="font-size:70px;line-height:1.25;fill:url(#linearGradient4294-8);fill-opacity:1;stroke:none;stroke-width:0.763978;stroke-miterlimit:4;stroke-dasharray:none;stroke-opacity:0"><tspan
           style="font-size:93.1495px;fill:url(#linearGradient4294-8);fill-opacity:1;stroke:none;stroke-width:0.763978;stroke-miterlimit:4;stroke-dasharray:none;stroke-opacity:0"
           id="tspan4315-8-9-2-9">¡Fr<tspan
   style="font-size:69.3801px;fill:url(#linearGradient4294-8);fill-opacity:1"
   id="tspan4241-3">rrshh</tspan>!</tspan></tspan></text>
    <text
       xml:space="preserve"
       style="font-style:normal;font-variant:normal;font-weight:normal;font-stretch:normal;line-height:0%;font-family:Lavi;-inkscape-font-specification:Lavi;letter-spacing:0px;word-spacing:0px;fill:url(#linearGradient4294);fill-opacity:1;stroke:none;stroke-width:0.763978;stroke-miterlimit:4;stroke-dasharray:none;stroke-opacity:0;filter:url(#filter4375-4-1-1-1-9-5-8-8-5)"
       x="787.65729"
       y="1584.5073"
       id="text4580-6-0-0-0"
       transform="matrix(0.44026207,-0.29244135,-0.02017909,0.64277664,1394.0422,-113.78959)"><tspan
         sodipodi:role="line"
         id="tspan4582-1-1-0-2"
         x="787.65729"
         y="1584.5073"
         style="font-size:70px;line-height:1.25;fill:url(#linearGradient4294);fill-opacity:1;stroke:none;stroke-width:0.763978;stroke-miterlimit:4;stroke-dasharray:none;stroke-opacity:0"><tspan
           style="font-size:93.1495px;fill:url(#linearGradient4294);fill-opacity:1;stroke:none;stroke-width:0.763978;stroke-miterlimit:4;stroke-dasharray:none;stroke-opacity:0"
           id="tspan4315-8-9-2">¡Fr<tspan
   style="font-size:69.3801px;fill:url(#linearGradient4294);fill-opacity:1"
   id="tspan4241">rrshh</tspan>!</tspan></tspan></text>
    <text
       xml:space="preserve"
       style="font-style:normal;font-variant:normal;font-weight:normal;font-stretch:normal;line-height:0%;font-family:Lavi;-inkscape-font-specification:Lavi;letter-spacing:0px;word-spacing:0px;display:inline;fill:#ffffff;fill-opacity:1;stroke:#ffffff;stroke-width:6.33108;stroke-miterlimit:4;stroke-dasharray:none;stroke-opacity:1;filter:url(#filter4375-4-1-1-1-9-6-9-2-1-4)"
       x="787.65729"
       y="1584.5073"
       id="text4580-1-7-3-6-7"
       transform="matrix(0.33739004,-0.05008716,-0.20691278,0.42188934,1303.5349,348.33512)"><tspan
         sodipodi:role="line"
         id="tspan4582-8-5-6-1-4"
         x="787.65729"
         y="1584.5073"
         style="font-size:70px;line-height:1.25;letter-spacing:10.6282px;fill:#ffffff;fill-opacity:1;stroke:#ffffff;stroke-width:6.33108;stroke-miterlimit:4;stroke-dasharray:none;stroke-opacity:1">¡Krchh!</tspan></text>
    <text
       xml:space="preserve"
       style="font-style:normal;font-variant:normal;font-weight:normal;font-stretch:normal;line-height:0%;font-family:Lavi;-inkscape-font-specification:Lavi;letter-spacing:0px;word-spacing:0px;display:inline;fill:#ffffff;fill-opacity:1;stroke:#ffffff;stroke-width:4.67641;stroke-miterlimit:4;stroke-dasharray:none;stroke-opacity:1;filter:url(#filter4375-4-1-1-1-9-6-9-2-1)"
       x="787.65729"
       y="1584.5073"
       id="text4580-1-7-3-6"
       transform="matrix(0.41463955,-0.21651977,-0.07654858,0.57373717,2001.5427,63.146459)"><tspan
         sodipodi:role="line"
         id="tspan4582-8-5-6-1"
         x="787.65729"
         y="1584.5073"
         style="font-size:70px;line-height:1.25;letter-spacing:10.6282px;fill:#ffffff;fill-opacity:1;stroke:#ffffff;stroke-width:4.67641;stroke-miterlimit:4;stroke-dasharray:none;stroke-opacity:1">¡Miau!</tspan></text>
    <text
       transform="matrix(1.3677321,0,0,1.5597356,-237.98045,-783.62771)"
       id="text3586"
       y="1442.5577"
       x="604.64612"
       style="font-style:normal;font-variant:normal;font-weight:normal;font-stretch:normal;line-height:0%;font-family:Lavi;-inkscape-font-specification:Lavi;text-align:center;letter-spacing:0px;word-spacing:0px;text-anchor:middle;opacity:1;fill:#ffffff;fill-opacity:1;stroke:none;filter:url(#filter4751)"
       xml:space="preserve"><tspan
         id="tspan3590"
         style="font-style:normal;font-variant:normal;font-weight:normal;font-stretch:normal;font-size:50.4467px;line-height:1.25;font-family:'Drukaatie burti';-inkscape-font-specification:'Drukaatie burti'"
         y="1442.5577"
         x="604.64612"
         sodipodi:role="line">¡SPIRALIS</tspan></text>
    <text
       xml:space="preserve"
       style="font-style:normal;font-variant:normal;font-weight:normal;font-stretch:normal;line-height:0%;font-family:Lavi;-inkscape-font-specification:Lavi;text-align:center;letter-spacing:0px;word-spacing:0px;text-anchor:middle;opacity:1;fill:#ffffff;fill-opacity:1;stroke:none;filter:url(#filter4751)"
       x="604.64612"
       y="1442.5577"
       id="text4180-1"
       transform="matrix(0.99830099,0,0,1.0017019,-1.6437905,0)"><tspan
         sodipodi:role="line"
         id="tspan4182-2"
         x="604.64612"
         y="1442.5577"
         style="font-style:normal;font-variant:normal;font-weight:normal;font-stretch:normal;font-size:50.4467px;line-height:1.25;font-family:'Drukaatie burti';-inkscape-font-specification:'Drukaatie burti'"> </tspan><tspan
         sodipodi:role="line"
         x="604.64612"
         y="1514.0958"
         style="font-style:normal;font-variant:normal;font-weight:normal;font-stretch:normal;font-size:50.4467px;line-height:1.25;font-family:'Drukaatie burti';-inkscape-font-specification:'Drukaatie burti'"
         id="tspan4663">FLAMA<tspan
   style="font-size:60px"
   id="tspan4665">aaaa</tspan>aaah!</tspan></text>
    <text
       xml:space="preserve"
       style="font-style:normal;font-variant:normal;font-weight:normal;font-stretch:normal;line-height:0%;font-family:Lavi;-inkscape-font-specification:Lavi;letter-spacing:0px;word-spacing:0px;fill:url(#linearGradient4393);fill-opacity:1;stroke:none;stroke-width:0.763978;stroke-miterlimit:4;stroke-dasharray:none;stroke-opacity:0;filter:url(#filter4375-4-1-1-1-9-5-8-8-5-2-7)"
       x="787.65729"
       y="1584.5073"
       id="text4580-6-0-0-0-1-1"
       transform="matrix(0.96260424,-0.65489848,-0.03536691,1.3793666,-525.48092,310.2796)"
       inkscape:transform-center-x="-651.41186"
       inkscape:transform-center-y="248.5494"><tspan
         sodipodi:role="line"
         id="tspan4582-1-1-0-2-2-5"
         x="787.65729"
         y="1584.5073"
         style="font-size:70px;line-height:1.25;fill:url(#linearGradient4393);fill-opacity:1;stroke:none;stroke-width:0.763978;stroke-miterlimit:4;stroke-dasharray:none;stroke-opacity:0"><tspan
           style="font-size:93.1495px;fill:url(#linearGradient4393);fill-opacity:1;stroke:none;stroke-width:0.763978;stroke-miterlimit:4;stroke-dasharray:none;stroke-opacity:0"
           id="tspan4315-8-9-2-9-5">¡Fr<tspan
   style="font-size:69.3801px;fill:url(#linearGradient4393);fill-opacity:1"
   id="tspan4241-3-4">rrooo<tspan
   style="font-size:55.1531px;fill:url(#linearGradient4393)"
   id="tspan4773">oshh</tspan></tspan>!</tspan></tspan></text>
    <text
       xml:space="preserve"
       style="font-style:normal;font-variant:normal;font-weight:normal;font-stretch:normal;line-height:0%;font-family:Lavi;-inkscape-font-specification:Lavi;letter-spacing:0px;word-spacing:0px;display:inline;fill:#ffffff;fill-opacity:1;stroke:#ffffff;stroke-width:2.78456;stroke-miterlimit:4;stroke-dasharray:none;stroke-opacity:1;filter:url(#filter4375-4-1-1-1-9-6-9-2-1-7)"
       x="787.65729"
       y="1584.5073"
       id="text4580-1-7-3-6-3"
       transform="matrix(0.35846032,-0.60815828,0.29464439,1.2414789,790.20845,414.72153)"><tspan
         sodipodi:role="line"
         id="tspan4582-8-5-6-1-7"
         x="787.65729"
         y="1584.5073"
         style="font-size:70px;line-height:1.25;letter-spacing:10.6282px;fill:#ffffff;fill-opacity:1;stroke:#ffffff;stroke-width:2.78456;stroke-miterlimit:4;stroke-dasharray:none;stroke-opacity:1">¡Swwwiiip!</tspan></text>
    <text
       xml:space="preserve"
       style="font-style:normal;font-variant:normal;font-weight:normal;font-stretch:normal;line-height:0%;font-family:Lavi;-inkscape-font-specification:Lavi;letter-spacing:0px;word-spacing:0px;fill:url(#linearGradient4401);fill-opacity:1;stroke:none;stroke-width:0.763978;stroke-miterlimit:4;stroke-dasharray:none;stroke-opacity:0;filter:url(#filter4375-4-1-1-1-9-5-8-8-5-4)"
       x="787.65729"
       y="1584.5073"
       id="text4580-6-0-0-0-7"
       transform="matrix(0.79953711,-0.5103772,-0.0366462,1.1217926,132.99641,1216.9386)"><tspan
         sodipodi:role="line"
         id="tspan4582-1-1-0-2-1"
         x="787.65729"
         y="1584.5073"
         style="font-size:70px;line-height:1.25;fill:url(#linearGradient4401);fill-opacity:1;stroke:none;stroke-width:0.763978;stroke-miterlimit:4;stroke-dasharray:none;stroke-opacity:0"><tspan
           style="font-size:93.1495px;fill:url(#linearGradient4401);fill-opacity:1;stroke:none;stroke-width:0.763978;stroke-miterlimit:4;stroke-dasharray:none;stroke-opacity:0"
           id="tspan4315-8-9-2-7">¡Fr<tspan
   style="font-size:69.3801px;fill:url(#linearGradient4401);fill-opacity:1"
   id="tspan4241-2">rrh</tspan>!</tspan></tspan></text>
    <text
       xml:space="preserve"
       style="font-style:normal;font-variant:normal;font-weight:normal;font-stretch:normal;line-height:0%;font-family:Lavi;-inkscape-font-specification:Lavi;letter-spacing:0px;word-spacing:0px;display:inline;fill:#ffffff;fill-opacity:1;stroke:#ffffff;stroke-width:3.33236;stroke-miterlimit:4;stroke-dasharray:none;stroke-opacity:1;filter:url(#filter4375-4-1-1-1-9-6-9-2-1-7-4)"
       x="787.65729"
       y="1584.5073"
       id="text4580-1-7-3-6-3-6"
       transform="matrix(0.72752989,-0.6519553,0.08417536,0.9655441,-134.90783,2132.2771)"><tspan
         sodipodi:role="line"
         id="tspan4582-8-5-6-1-7-8"
         x="787.65729"
         y="1584.5073"
         style="font-size:70px;line-height:1.25;letter-spacing:10.6282px;fill:#ffffff;fill-opacity:1;stroke:#ffffff;stroke-width:3.33236;stroke-miterlimit:4;stroke-dasharray:none;stroke-opacity:1">¡Paf!</tspan></text>
    <text
       xml:space="preserve"
       style="font-style:normal;font-variant:normal;font-weight:normal;font-stretch:normal;line-height:0%;font-family:Lavi;-inkscape-font-specification:Lavi;text-align:center;letter-spacing:0px;word-spacing:0px;text-anchor:middle;display:inline;fill:#000000;fill-opacity:1;stroke:none"
       x="1723.3469"
       y="2172.8474"
       id="text4246-2-3-1-3-9-9-7"
       transform="matrix(0.89365156,0,-0.19329856,1.1190044,0,0)"><tspan
         sodipodi:role="line"
         style="font-size:104.296px;line-height:1.25"
         x="1723.3469"
         y="2172.8474"
         id="tspan4161-6">?!!</tspan></text>
    <text
       xml:space="preserve"
       style="font-style:normal;font-variant:normal;font-weight:normal;font-stretch:normal;line-height:0%;font-family:Lavi;-inkscape-font-specification:Lavi;letter-spacing:0px;word-spacing:0px;fill:url(#linearGradient4409);fill-opacity:1;stroke:none;stroke-width:0.763978;stroke-miterlimit:4;stroke-dasharray:none;stroke-opacity:0;filter:url(#filter4375-4-1-1-1-9-5-8-8-5-4-6)"
       x="787.65729"
       y="1584.5073"
       id="text4580-6-0-0-0-7-1"
       transform="matrix(0.93910536,-0.7621869,0.18588011,1.2291386,186.99961,1958.4197)"><tspan
         sodipodi:role="line"
         id="tspan4582-1-1-0-2-1-1"
         x="787.65729"
         y="1584.5073"
         style="font-size:70px;line-height:1.25;fill:url(#linearGradient4409);fill-opacity:1;stroke:none;stroke-width:0.763978;stroke-miterlimit:4;stroke-dasharray:none;stroke-opacity:0"><tspan
           style="font-size:93.1495px;fill:url(#linearGradient4409);fill-opacity:1;stroke:none;stroke-width:0.763978;stroke-miterlimit:4;stroke-dasharray:none;stroke-opacity:0"
           id="tspan4315-8-9-2-7-5">¡Fr<tspan
   style="font-size:69.3801px;fill:url(#linearGradient4409);fill-opacity:1"
   id="tspan4241-2-9">rrh</tspan>!</tspan></tspan></text>
    <text
       xml:space="preserve"
       style="font-style:normal;font-variant:normal;font-weight:normal;font-stretch:normal;line-height:0%;font-family:Lavi;-inkscape-font-specification:Lavi;letter-spacing:0px;word-spacing:0px;fill:url(#linearGradient4507);fill-opacity:1;stroke:none;stroke-width:0.763978;stroke-miterlimit:4;stroke-dasharray:none;stroke-opacity:0;filter:url(#filter4375-4-1-1-1-9-5-8-8-5-4-6-5)"
       x="787.65729"
       y="1584.5073"
       id="text4580-6-0-0-0-7-1-5"
       transform="matrix(0.78023356,-0.73773231,0.12940894,0.99375194,1311.919,1729.8661)"><tspan
         sodipodi:role="line"
         id="tspan4582-1-1-0-2-1-1-0"
         x="787.65729"
         y="1584.5073"
         style="font-size:70px;line-height:1.25;fill:url(#linearGradient4507);fill-opacity:1;stroke:none;stroke-width:0.763978;stroke-miterlimit:4;stroke-dasharray:none;stroke-opacity:0"><tspan
           style="font-size:93.1495px;fill:url(#linearGradient4507);fill-opacity:1;stroke:none;stroke-width:0.763978;stroke-miterlimit:4;stroke-dasharray:none;stroke-opacity:0"
           id="tspan4315-8-9-2-7-5-9">¡Fr<tspan
   style="font-size:69.3801px;fill:url(#linearGradient4507);fill-opacity:1"
   id="tspan4241-2-9-6">rrh</tspan>!</tspan></tspan></text>
    <text
       xml:space="preserve"
       style="font-style:normal;font-variant:normal;font-weight:normal;font-stretch:normal;line-height:0%;font-family:Lavi;-inkscape-font-specification:Lavi;text-align:center;letter-spacing:0px;word-spacing:0px;text-anchor:middle;display:inline;fill:#000000;fill-opacity:1;stroke:none"
       x="1610.6255"
       y="4462.6211"
       id="text4246-2-3-1-3-9-9-3"
       transform="matrix(1.0998012,-0.42939082,0.07173635,0.88124754,0,0)"><tspan
         sodipodi:role="line"
         style="font-size:70.1639px;line-height:1.25"
         x="1610.6255"
         y="4462.6211"
         id="tspan4161-5"><tspan
   style="font-size:95.8375px"
   id="tspan3579">¡</tspan>¡Hiiiiiiiii!<tspan
   style="font-size:95.8453px"
   id="tspan5246">!</tspan></tspan></text>
  </g>
</svg>
