{
  "published": "2011-08-01",
  "original-language": "fr",
  "pluxmlID": 0,
  "mastodonID": 0,
  "background-color": "#FFFFFF",
  "license": "cc-by",
  "public": 1,
   "related-urls": [
        ""
  ],
  "credits": {
    "art":[
      "David Revoy <https://framagit.org/Deevad>"
    ],
    "scenario":[
      "David Revoy <https://framagit.org/Deevad>"
    ],
    "inspiration":[
      "ILoveStupidCats <https://www.viedemerde.fr/article/aujourd-hui-fier-de-lui-mon-chat-a-ramene-son-dernier-trophee-de-chasse-dans-la-maison-sauf-que_31729.html>"
    ]
  }
}
