<?xml version="1.0" encoding="UTF-8" standalone="no"?>
<!-- Created with Inkscape (http://www.inkscape.org/) -->

<svg
   id="svg2"
   version="1.1"
   inkscape:version="1.1.1 (3bf5ae0d25, 2021-09-20)"
   width="2481"
   height="3503"
   sodipodi:docname="E37P01.svg"
   xmlns:inkscape="http://www.inkscape.org/namespaces/inkscape"
   xmlns:sodipodi="http://sodipodi.sourceforge.net/DTD/sodipodi-0.dtd"
   xmlns:xlink="http://www.w3.org/1999/xlink"
   xmlns="http://www.w3.org/2000/svg"
   xmlns:svg="http://www.w3.org/2000/svg"
   xmlns:rdf="http://www.w3.org/1999/02/22-rdf-syntax-ns#"
   xmlns:cc="http://creativecommons.org/ns#"
   xmlns:dc="http://purl.org/dc/elements/1.1/">
  <metadata
     id="metadata8">
    <rdf:RDF>
      <cc:Work
         rdf:about="">
        <dc:format>image/svg+xml</dc:format>
        <dc:type
           rdf:resource="http://purl.org/dc/dcmitype/StillImage" />
      </cc:Work>
    </rdf:RDF>
  </metadata>
  <defs
     id="defs6" />
  <sodipodi:namedview
     pagecolor="#ffffff"
     bordercolor="#666666"
     borderopacity="1"
     objecttolerance="10"
     gridtolerance="10"
     guidetolerance="10"
     inkscape:pageopacity="0"
     inkscape:pageshadow="2"
     inkscape:window-width="1536"
     inkscape:window-height="795"
     id="namedview4"
     showgrid="false"
     inkscape:zoom="0.64658238"
     inkscape:cx="1677.2805"
     inkscape:cy="2627.6621"
     inkscape:window-x="0"
     inkscape:window-y="32"
     inkscape:window-maximized="1"
     inkscape:current-layer="layer1"
     inkscape:pagecheckerboard="0"
     inkscape:showpageshadow="0"
     inkscape:deskcolor="#d1d1d1"
     showguides="false" />
  <g
     inkscape:groupmode="layer"
     id="layer2"
     inkscape:label="artwork"
     sodipodi:insensitive="true">
    <image
       xlink:href="../gfx_Pepper-and-Carrot_by-David-Revoy_E37P01.png"
       y="0"
       x="0"
       id="image10"
       height="3503"
       width="2481" />
  </g>
  <g
     inkscape:groupmode="layer"
     id="layer3"
     inkscape:label="speechbubbles">
    <path
       style="color:#000000;display:inline;overflow:visible;visibility:visible;fill:#ffffff;fill-opacity:1;fill-rule:nonzero;stroke:none;stroke-width:0.999998px;marker:none;enable-background:accumulate"
       d="m 1957.6629,2315.1087 c 15.8896,4.7552 27.218,-10.2594 36.5884,-10.1737 9.3705,0.085 20.4858,-1.4767 31.5776,-11.7728 11.8207,-15.5362 46.6253,-47.4088 4.9039,-39.2982 -15.2177,1.3778 -15.6011,25.3088 -21.9093,33.4823 -6.3081,8.1734 -14.6485,3.6312 -21.2243,9.0949 -6.5758,5.4636 -12.6894,16.2295 -29.9363,18.6675 z"
       id="path4538-0"
       inkscape:connector-curvature="0"
       sodipodi:nodetypes="ccccccc" />
    <path
       style="color:#000000;display:inline;overflow:visible;visibility:visible;fill:#ffffff;fill-opacity:1;fill-rule:nonzero;stroke:none;stroke-width:1px;marker:none;enable-background:accumulate"
       d="m 2249.24,3145.8561 c 34.555,29.8645 38.7386,62.8188 5.9526,98.2544 -21.168,42.3886 0.4462,38.3212 0.4462,38.3212 l 34.145,-19.6238 c 0,0 46.2012,-75.3554 -40.5438,-116.9518 z"
       id="path3072-56-6"
       inkscape:connector-curvature="0"
       sodipodi:nodetypes="ccccc" />
    <path
       style="color:#000000;display:inline;overflow:visible;visibility:visible;fill:#ffffff;fill-opacity:1;fill-rule:nonzero;stroke:none;stroke-width:1.29731px;marker:none;enable-background:accumulate"
       d="m 844.6473,2234.3704 c -30.62299,0.667 -61.83487,0.5678 -90.82914,10.1173 -17.02049,5.5745 -33.0919,16.2146 -42.46019,33.3187 -10.95474,19.5988 -10.61453,46.2069 -2.43641,68.9801 3.83497,10.567 9.14214,20.6616 15.83527,29.4264 7.26935,9.3324 16.81157,16.4797 27.17865,19.6119 30.0503,11.5633 61.31005,14.3241 91.97805,15.485 32.07108,0.8973 64.00485,-0.3057 95.68229,-3.0891 26.70793,-2.7804 53.53669,-7.7974 77.27078,-20.6774 14.3306,-8.1013 27.5409,-20.3565 33.2972,-37.8994 8.0334,-24.2539 2.8162,-55.3961 -14.5065,-75.8136 -13.8452,-15.6635 -32.6072,-23.2508 -50.68269,-27.8613 -29.85059,-7.4778 -60.01207,-8.8065 -89.96859,-10.5704 -16.81267,-0.8334 -33.64422,-1.5798 -50.35872,-1.0282 z"
       id="path4546-6-21-1"
       inkscape:connector-curvature="0"
       sodipodi:nodetypes="cssssc" />
    <path
       style="color:#000000;display:inline;overflow:visible;visibility:visible;fill:#ffffff;fill-opacity:1;fill-rule:nonzero;stroke:none;stroke-width:1.07063px;marker:none;enable-background:accumulate"
       d="m 853.34482,2151.1293 c -13.36157,0.3855 -26.95191,0.3282 -39.92448,5.8465 -7.61414,3.2213 -14.99765,9.3697 -19.69487,19.2536 -5.47816,11.3254 -6.28981,26.7013 -3.5494,39.861 1.28912,6.1063 3.23644,11.9396 5.8354,17.0045 2.82944,5.3928 6.72761,9.5229 11.12988,11.3329 12.67091,6.682 26.18614,8.2774 39.50133,8.9483 13.93579,0.5184 27.88754,-0.1767 41.78467,-1.7852 11.73262,-1.6067 23.59851,-4.5058 34.4002,-11.9486 6.53385,-4.6815 12.72948,-11.7632 15.86934,-21.9007 4.37372,-14.0154 3.22475,-32.0113 -3.58334,-43.8099 -5.46519,-9.0513 -13.36309,-13.4357 -21.06919,-16.0999 -12.73144,-4.3212 -25.81996,-5.089 -38.80354,-6.1083 -7.29249,-0.4816 -14.59633,-0.9129 -21.896,-0.5942 z"
       id="path4546-6-21-1-7"
       inkscape:connector-curvature="0"
       sodipodi:nodetypes="cssssc" />
    <path
       style="color:#000000;display:inline;overflow:visible;visibility:visible;fill:#ffffff;fill-opacity:1;fill-rule:nonzero;stroke:none;stroke-width:0.999999px;marker:none;enable-background:accumulate"
       d="m 1112.0298,2244.6942 c -36.4729,-14.2248 -66.2411,-6.7142 -86.7414,26.8513 -30.09489,27.8109 -33.25183,11.7546 -33.25183,11.7546 l 6.41738,-29.5186 c 0,0 50.85485,-55.2993 113.57585,-9.0873 z"
       id="path3072-56"
       inkscape:connector-curvature="0"
       sodipodi:nodetypes="ccccc" />
    <path
       style="fill:#ffffff;stroke:none;stroke-width:0.997301"
       d="m 2113.5231,2130.2227 c -25.2775,0.7098 -51.5907,3.8196 -74.0178,18.0493 -27.9628,20.1271 -38.1243,65.6376 -22.1259,98.4221 6.99,14.9187 19.1996,26.1644 33.1733,31.8566 17.0183,7.3377 35.321,9.1734 53.1563,12.5354 46.5981,7.0828 94.6053,5.6916 140.2108,-7.8795 13.3169,-3.8228 27.5034,-11.3204 33.3231,-26.3501 6.9519,-18.7115 6.6346,-39.9925 2.5867,-59.4746 -4.3131,-19.0215 -13.2553,-37.3975 -27.2924,-49.3502 -15.946,-11.7846 -35.584,-12.6888 -53.9365,-15.0401 -28.2799,-2.9007 -56.7084,-2.8165 -85.0776,-2.7689 z"
       id="path3280-10"
       inkscape:connector-curvature="0"
       sodipodi:nodetypes="csssc" />
    <path
       style="color:#000000;display:inline;overflow:visible;visibility:visible;fill:#ffffff;fill-opacity:1;fill-rule:nonzero;stroke:none;stroke-width:1.18533px;marker:none;enable-background:accumulate"
       d="m 2136.9997,2518.166 c -31.4344,0.9363 -63.4017,1.7668 -93.7223,12.0113 -21.3779,6.8578 -41.4599,20.7208 -54.2013,41.2543 -15.6764,23.5737 -26.7983,51.5852 -28.532,81.0407 -1.385,23.694 2.4266,47.952 11.9482,69.295 6.7294,14.9518 17.2719,28.0601 30.8103,35.7008 14.6117,8.629 31.1926,11.8881 47.5355,13.3455 21.0454,2.3581 42.1266,4.3135 63.1587,6.8204 48.8271,5.2663 97.95,9.2286 147.0208,6.4035 32.9479,-1.3068 65.9112,-2.0736 98.872,-2.801 17.0917,-0.7449 34.4296,-1.8946 50.8586,-7.5533 10.9026,-5.4078 17.3573,-18.7912 17.1232,-31.7639 1.7272,-24.2364 -4.9396,-48.1727 -14.3437,-69.7861 -8.7351,-20.2484 -18.5514,-39.9024 -27.1389,-60.2308 -8.8005,-19.2648 -19.5571,-38.313 -35.6042,-51.1448 -19.4217,-15.8932 -43.0697,-23.6852 -66.5098,-28.6034 -39.3193,-8.3198 -79.364,-11.0345 -119.2641,-13.459 -9.3319,-0.4069 -18.6719,-0.5958 -28.011,-0.5292 z"
       id="path4546-6-21-1-2"
       inkscape:connector-curvature="0"
       sodipodi:nodetypes="cssssccccccccc" />
    <path
       style="color:#000000;display:inline;overflow:visible;visibility:visible;fill:#ffffff;fill-opacity:1;fill-rule:nonzero;stroke:none;stroke-width:0.999994px;marker:none;enable-background:accumulate"
       d="m 2072.4015,2461.8063 c 23.2757,17.8081 28.2898,43.1252 10.979,76.5719 -9.716,36.9964 3.1402,30.1775 3.1402,30.1775 l 19.3218,-21.1913 c 0,0 22.491,-67.2 -33.441,-85.5581 z"
       id="path3072-56-7"
       inkscape:connector-curvature="0"
       sodipodi:nodetypes="ccccc" />
    <path
       style="color:#000000;display:inline;overflow:visible;visibility:visible;fill:#ffffff;fill-opacity:1;fill-rule:nonzero;stroke:none;stroke-width:0.911218px;marker:none;enable-background:accumulate"
       d="m 2193.2252,3221.6447 c -32.6073,0.8969 -65.7947,5.9031 -94.8783,19.6335 -21.4325,9.6608 -37.1762,27.9981 -43.4943,48.4978 -8.0576,23.0221 -9.4623,48.6774 0.7013,71.3727 8.4561,18.7117 26.3021,33.1483 46.708,41.3679 27.4425,11.6076 57.3789,17.6647 87.3016,21.5819 44.2003,5.3987 89.2595,5.3301 133.43,-0.256 24.998,-3.6883 50.2154,-10.9734 69.8203,-25.7609 21.2218,-16.0986 32.5838,-41.5616 30.2668,-66.2288 -1.6844,-28.3039 -15.5829,-56.3979 -39.8694,-75.0584 -19.5808,-15.4701 -44.8371,-24.1007 -70.3868,-28.0085 -39.3708,-6.7074 -79.6577,-7.0468 -119.5992,-7.1412 z"
       id="path4040-40"
       inkscape:connector-curvature="0"
       sodipodi:nodetypes="zssssz" />
  </g>
  <g
     inkscape:groupmode="layer"
     id="layer1"
     inkscape:label="txt"
     style="display:inline">
    <text
       xml:space="preserve"
       style="font-style:normal;font-variant:normal;font-weight:normal;font-stretch:normal;font-size:57.9456px;line-height:100%;font-family:'Nanum Pen Script OTF';-inkscape-font-specification:'Nanum Pen Script OTF';text-align:center;letter-spacing:0px;word-spacing:0px;text-anchor:middle;fill:#000000;fill-opacity:1;stroke:none;stroke-width:1.27821"
       x="874.66345"
       y="2311.5012"
       id="text7405"><tspan
         sodipodi:role="line"
         style="font-style:normal;font-variant:normal;font-weight:normal;font-stretch:normal;font-size:57.9456px;font-family:'Nanum Pen Script OTF';-inkscape-font-specification:'Nanum Pen Script OTF';stroke-width:1.27821"
         x="874.66345"
         y="2311.5012"
         id="tspan9547">여기 오게 되니까</tspan><tspan
         sodipodi:role="line"
         style="font-style:normal;font-variant:normal;font-weight:normal;font-stretch:normal;font-size:57.9456px;font-family:'Nanum Pen Script OTF';-inkscape-font-specification:'Nanum Pen Script OTF';stroke-width:1.27821"
         x="874.66345"
         y="2369.4468"
         id="tspan2483">기분이 좋네!</tspan></text>
    <text
       xml:space="preserve"
       style="font-style:normal;font-variant:normal;font-weight:normal;font-stretch:normal;font-size:66.7497px;line-height:100%;font-family:'Nanum Pen Script OTF';-inkscape-font-specification:'Nanum Pen Script OTF';text-align:center;letter-spacing:0px;word-spacing:0px;text-anchor:middle;fill:#000000;fill-opacity:1;stroke:none;stroke-width:1.47242"
       x="871.9212"
       y="2221.269"
       id="text852"><tspan
         sodipodi:role="line"
         style="font-style:normal;font-variant:normal;font-weight:normal;font-stretch:normal;font-size:66.7497px;font-family:'Nanum Pen Script OTF';-inkscape-font-specification:'Nanum Pen Script OTF';stroke-width:1.47242"
         x="871.9212"
         y="2221.269"
         id="tspan850">휴...</tspan></text>
    <text
       xml:space="preserve"
       style="font-style:normal;font-variant:normal;font-weight:normal;font-stretch:normal;font-size:61.3709px;line-height:100%;font-family:'Nanum Pen Script OTF';-inkscape-font-specification:'Nanum Pen Script OTF';text-align:center;letter-spacing:0px;word-spacing:0px;text-anchor:middle;fill:#000000;fill-opacity:1;stroke:none;stroke-width:1.35377"
       x="2151.3718"
       y="2197.3914"
       id="text864"><tspan
         sodipodi:role="line"
         style="font-style:normal;font-variant:normal;font-weight:normal;font-stretch:normal;font-size:61.3709px;font-family:'Nanum Pen Script OTF';-inkscape-font-specification:'Nanum Pen Script OTF';stroke-width:1.35377"
         x="2151.3718"
         y="2197.3914"
         id="tspan862">오, 오늘</tspan><tspan
         sodipodi:role="line"
         style="font-style:normal;font-variant:normal;font-weight:normal;font-stretch:normal;font-size:61.3709px;font-family:'Nanum Pen Script OTF';-inkscape-font-specification:'Nanum Pen Script OTF';stroke-width:1.35377"
         x="2151.3718"
         y="2258.7622"
         id="tspan885">장날인가 봐.</tspan></text>
    <text
       xml:space="preserve"
       style="font-style:normal;font-variant:normal;font-weight:normal;font-stretch:normal;font-size:56.1785px;line-height:100%;font-family:'Nanum Pen Script OTF';-inkscape-font-specification:'Nanum Pen Script OTF';text-align:center;letter-spacing:0px;word-spacing:0px;text-anchor:middle;fill:#000000;fill-opacity:1;stroke:none;stroke-width:1.23923"
       x="2166.8584"
       y="2600.8538"
       id="text872"><tspan
         sodipodi:role="line"
         style="font-style:normal;font-variant:normal;font-weight:normal;font-stretch:normal;font-size:56.1785px;font-family:'Nanum Pen Script OTF';-inkscape-font-specification:'Nanum Pen Script OTF';stroke-width:1.23923"
         x="2166.8584"
         y="2600.8538"
         id="tspan870">등산하기 전에</tspan><tspan
         sodipodi:role="line"
         style="font-style:normal;font-variant:normal;font-weight:normal;font-stretch:normal;font-size:56.1785px;font-family:'Nanum Pen Script OTF';-inkscape-font-specification:'Nanum Pen Script OTF';stroke-width:1.23923"
         x="2166.8584"
         y="2657.0322"
         id="tspan1601">먹을 거를 챙겨서</tspan><tspan
         sodipodi:role="line"
         style="font-style:normal;font-variant:normal;font-weight:normal;font-stretch:normal;font-size:56.1785px;font-family:'Nanum Pen Script OTF';-inkscape-font-specification:'Nanum Pen Script OTF';stroke-width:1.23923"
         x="2166.8584"
         y="2713.2107"
         id="tspan1603">올라가자.</tspan></text>
    <text
       xml:space="preserve"
       style="font-style:normal;font-variant:normal;font-weight:normal;font-stretch:normal;font-size:57.4721px;line-height:100%;font-family:'Nanum Pen Script OTF';-inkscape-font-specification:'Nanum Pen Script OTF';text-align:center;letter-spacing:0px;word-spacing:0px;text-anchor:middle;fill:#000000;fill-opacity:1;stroke:none;stroke-width:1.26777"
       x="2232.6348"
       y="3307.9221"
       id="text880"><tspan
         sodipodi:role="line"
         style="font-style:normal;font-variant:normal;font-weight:normal;font-stretch:normal;font-size:57.4721px;font-family:'Nanum Pen Script OTF';-inkscape-font-specification:'Nanum Pen Script OTF';stroke-width:1.26777"
         x="2232.6348"
         y="3307.9221"
         id="tspan878">네가 좋아할 줄</tspan><tspan
         sodipodi:role="line"
         style="font-style:normal;font-variant:normal;font-weight:normal;font-stretch:normal;font-size:57.4721px;font-family:'Nanum Pen Script OTF';-inkscape-font-specification:'Nanum Pen Script OTF';stroke-width:1.26777"
         x="2232.6348"
         y="3365.3943"
         id="tspan4294">알았어!</tspan></text>
  </g>
</svg>
