<?xml version="1.0" encoding="UTF-8" standalone="no"?>
<!-- Created with Inkscape (http://www.inkscape.org/) -->

<svg
   id="svg2"
   version="1.1"
   inkscape:version="1.1.1 (3bf5ae0d25, 2021-09-20)"
   width="2481"
   height="3503"
   sodipodi:docname="E37P07.svg"
   xmlns:inkscape="http://www.inkscape.org/namespaces/inkscape"
   xmlns:sodipodi="http://sodipodi.sourceforge.net/DTD/sodipodi-0.dtd"
   xmlns:xlink="http://www.w3.org/1999/xlink"
   xmlns="http://www.w3.org/2000/svg"
   xmlns:svg="http://www.w3.org/2000/svg"
   xmlns:rdf="http://www.w3.org/1999/02/22-rdf-syntax-ns#"
   xmlns:cc="http://creativecommons.org/ns#"
   xmlns:dc="http://purl.org/dc/elements/1.1/">
  <metadata
     id="metadata8">
    <rdf:RDF>
      <cc:Work
         rdf:about="">
        <dc:format>image/svg+xml</dc:format>
        <dc:type
           rdf:resource="http://purl.org/dc/dcmitype/StillImage" />
      </cc:Work>
    </rdf:RDF>
  </metadata>
  <defs
     id="defs6">
    <filter
       style="color-interpolation-filters:sRGB"
       id="filter4375-4-1-1-1-9-6-9-2-1-5-4"
       inkscape:label="deevad outline effect"
       x="-0.007108724"
       y="-0.012620398"
       width="1.0142174"
       height="1.0252408">
      <feFlood
         id="feFlood4377-7-9-0-8-1-0-2-2-06-5-3"
         flood-opacity="1"
         flood-color="rgb(0,0,0)"
         result="flood" />
      <feComposite
         id="feComposite4379-3-8-8-2-77-6-0-8-3-8-64"
         in2="SourceGraphic"
         in="flood"
         operator="in"
         result="composite1" />
      <feMorphology
         id="feMorphology4393-1-0-49-8-9-2-2-9-2-7-3"
         operator="dilate"
         radius="4"
         result="result3" />
      <feComposite
         id="feComposite4385-9-5-7-0-8-6-3-7-0-1-1"
         in2="result3"
         in="SourceGraphic"
         operator="over"
         result="composite2" />
    </filter>
  </defs>
  <sodipodi:namedview
     pagecolor="#ffffff"
     bordercolor="#666666"
     borderopacity="1"
     objecttolerance="10"
     gridtolerance="10"
     guidetolerance="10"
     inkscape:pageopacity="0"
     inkscape:pageshadow="2"
     inkscape:window-width="1536"
     inkscape:window-height="795"
     id="namedview4"
     showgrid="false"
     inkscape:zoom="0.28284272"
     inkscape:cx="1012.9304"
     inkscape:cy="3054.7012"
     inkscape:window-x="0"
     inkscape:window-y="32"
     inkscape:window-maximized="1"
     inkscape:current-layer="layer1"
     inkscape:pagecheckerboard="0"
     inkscape:showpageshadow="0"
     inkscape:deskcolor="#d1d1d1" />
  <g
     inkscape:groupmode="layer"
     id="layer2"
     inkscape:label="artwork"
     sodipodi:insensitive="true">
    <image
       xlink:href="../gfx_Pepper-and-Carrot_by-David-Revoy_E37P07.png"
       y="0"
       x="0"
       id="image10"
       height="3503"
       width="2481" />
  </g>
  <g
     inkscape:groupmode="layer"
     id="layer3"
     inkscape:label="speechbubbles">
    <path
       style="display:inline;fill:#ffffff;fill-rule:evenodd;stroke:none;stroke-width:1.11956px;stroke-linecap:butt;stroke-linejoin:miter;stroke-opacity:1"
       d="m 1921.7927,1520.1844 c -35.9251,-2.1925 -88.0218,13.4421 -57.8055,58.5611 -65.9732,-29.567 -202.9817,-48.1547 -224.7658,1.0987 -3.6662,-60.2413 -39.3862,-51.5044 -75.8826,-36.998 34.734,-24.7327 6.7781,-21.3252 -27.4203,-21.8573 70.8688,-53.3939 32.4763,-68.9295 3.4743,-87.7194 71.4105,12.7179 53.4447,-16.055 61.4812,-32.7562 61.9363,35.9406 106.0033,26.017 140.0668,-9.5823 18.8186,18.4744 25.6222,57.4177 91.4864,-4.2556 -23.4149,52.4495 8.9678,46.2344 60.9433,19.421 -7.7763,17.8595 -56.1072,45.885 26.4484,41.1043 -51.1595,18.0168 -61.3678,41.0217 1.9738,72.9837 z"
       id="path4584-8"
       inkscape:connector-curvature="0"
       sodipodi:nodetypes="cccccccccccc" />
    <path
       style="fill:#ffffff;stroke:none;stroke-width:0.92936"
       d="m 1644.3359,1547.2026 c -49.801,1.029 -101.3235,10.3376 -142.504,36.3791 -30.9028,23.2004 -40.5175,63.0029 -30.8675,96.9129 7.4706,27.6127 31.3052,50.485 60.6082,61.4014 42.8509,18.0679 91.3147,19.4828 137.9056,20.1708 50.6854,0.3815 101.4554,0.3847 152.0371,-2.791 37.9406,-3.0928 76.9077,-9.1799 110.0228,-26.7476 29.2547,-19.3892 40.716,-53.7709 38.1025,-85.0261 -2.4716,-33.2347 -25.9117,-64.4671 -59.7152,-79.1566 -38.3119,-18.6427 -83.2646,-21.3289 -126.1077,-20.122 -42.3392,0.7766 -84.6946,0.363 -127.0105,-0.9994 -4.1569,-0.052 -8.3142,-0.049 -12.4713,-0.021 z"
       id="path3280-8-0-3"
       inkscape:connector-curvature="0"
       sodipodi:nodetypes="csssc" />
    <path
       style="fill:#ffffff;fill-rule:evenodd;stroke:none;stroke-width:1px;stroke-linecap:butt;stroke-linejoin:miter;stroke-opacity:1"
       d="m 1911.0443,1735.5185 c 19.1204,15.4627 39.0722,32.1803 63.6123,29.0086 -15.036,6.0295 -43.8148,9.8246 -66.282,-5.5838 -35.0644,-24.0476 0.2146,-23.9396 0.2146,-23.9396 z"
       id="path4248"
       inkscape:connector-curvature="0"
       sodipodi:nodetypes="ccscc" />
    <path
       style="fill:#ffffff;fill-rule:evenodd;stroke:none;stroke-width:0.84259px;stroke-linecap:butt;stroke-linejoin:miter;stroke-opacity:1"
       d="m 209.18843,2520.692 c 13.91687,18.6091 30.69058,26.056 55.768,1.0613 20.456,6.0403 20.31799,24.7701 87.33472,2.1218 -38.46395,28.588 -22.32998,30.9026 0,30.236 -32.44044,37.0364 -4.7759,31.2953 7.36561,36.6022 -39.75751,22.3704 -34.5481,32.8673 -15.78336,39.7846 -13.40496,13.5521 -22.77006,26.6965 5.26103,36.0712 -21.92211,3.6978 -52.96264,2.0329 -43.14122,24.4014 -34.8096,-14.1518 -59.10343,-10.2794 -79.96913,-0.5309 -18.00279,-12.9686 -32.62185,-29.3494 -83.12584,-9.548 27.96981,-21.9401 16.90362,-32.9472 -5.26117,-40.8458 41.64075,-21.2391 9.13426,-28.6347 -23.14898,-36.0712 58.36414,-2.5541 41.77684,-26.0994 26.30571,-49.3332 27.32733,4.6669 54.75149,9.6745 68.39463,-33.9494 z"
       id="path4489"
       inkscape:connector-curvature="0"
       sodipodi:nodetypes="cccccccccccccc" />
    <path
       style="color:#000000;display:inline;overflow:visible;visibility:visible;fill:#ffffff;fill-opacity:1;fill-rule:nonzero;stroke:none;stroke-width:1px;marker:none;enable-background:accumulate"
       d="m 194.15137,2627.0953 c 14.3116,13.119 20.5898,27.322 21.7824,31.497 1.1926,4.174 -2.1039,30.52 2.0703,35.291 4.1742,4.77 19.6785,5.366 21.4675,8.944 1.7889,3.578 -3.5779,22.064 0,25.642 3.5779,3.578 28.6232,13.119 29.8159,16.101 1.1926,2.981 7.7521,19.082 19.6784,31.604 -11.33,-31.604 -7.7521,-38.164 -11.9263,-42.934 -4.1742,-4.771 -15.9274,-10.181 -18.3127,-15.548 -2.3853,-5.367 6.711,-25.728 0.086,-28.027 -4.7705,-4.77 -19.8083,-10.267 -19.8083,-10.267 4.1743,-4.771 18.356,-27.854 -1.3225,-55.881 -19.6785,-28.027 -43.5312,3.578 -43.5312,3.578 z"
       id="path5050-8"
       inkscape:connector-curvature="0"
       sodipodi:nodetypes="csccscccccccc" />
    <path
       style="color:#000000;display:inline;overflow:visible;visibility:visible;fill:#ffffff;fill-opacity:1;fill-rule:nonzero;stroke:none;stroke-width:1.17207px;marker:none;enable-background:accumulate"
       d="m 1048.8494,2698.1663 c 2.3295,-50.3777 45.2836,-84.1254 150.9858,-75.284 56.6197,4.7367 120.8645,7.6801 118.1079,81.4762 -2.7567,73.7962 -95.0416,72.4521 -114.0522,74.2916 -19.0104,1.8394 -118.8633,-0.49 -136.6954,-25.4802 -11.1625,-15.6437 -18.3547,-39.4049 -18.3461,-55.0036 z"
       id="path4546-6-89"
       inkscape:connector-curvature="0"
       sodipodi:nodetypes="cssssc" />
    <path
       style="color:#000000;display:inline;overflow:visible;visibility:visible;fill:#ffffff;fill-opacity:1;fill-rule:nonzero;stroke:none;stroke-width:1px;marker:none;enable-background:accumulate"
       d="m 1112.3939,2718.8111 c -36.5658,59.4022 -50.7173,145.4159 26.0841,179.4136 -60.0157,-38.5902 -23.0543,-135.4959 8.3656,-161.6817 21.2953,-14.4935 -34.4497,-17.7319 -34.4497,-17.7319 z"
       id="path3978-4"
       inkscape:connector-curvature="0"
       sodipodi:nodetypes="cccc" />
    <path
       style="color:#000000;display:inline;overflow:visible;visibility:visible;fill:#ffffff;fill-opacity:1;fill-rule:nonzero;stroke:none;stroke-width:1.69256px;marker:none;enable-background:accumulate"
       d="m 259.53916,827.03615 c -53.02557,0.97742 -106.71598,5.72739 -157.20867,22.57106 -30.755874,10.08691 -57.543574,31.61628 -73.509608,59.33441 -6.423462,14.18608 -6.075977,30.02322 -8.414281,45.10562 -1.638643,17.58227 1.687417,36.45858 13.337987,50.42266 14.535811,18.7597 35.226158,31.619 55.899683,42.9704 27.531779,14.1333 58.433139,20.7635 89.251349,22.9277 47.14699,5.424 94.81663,7.4891 142.18819,3.7811 28.30189,-2.033 56.76536,-4.6551 84.28226,-11.7673 15.97335,-4.1637 31.06918,-10.9626 45.44203,-18.8892 14.45602,-7.9208 28.67304,-16.4204 41.72085,-26.4498 17.08774,-13.9381 30.20615,-33.51411 33.05645,-55.44391 4.87408,-31.00456 -7.6809,-64.52501 -33.23869,-83.74013 -26.29389,-21.81902 -59.79808,-32.8221 -92.9805,-39.82018 -45.86355,-9.79844 -93.05355,-11.34543 -139.82705,-11.00243 z"
       id="path3365-9"
       inkscape:connector-curvature="0"
       sodipodi:nodetypes="csszcsc"
       inkscape:transform-center-x="-458.17804"
       inkscape:transform-center-y="149.04249" />
    <path
       style="fill:#ffffff;fill-rule:evenodd;stroke:none;stroke-width:0.977223px;stroke-linecap:butt;stroke-linejoin:miter;stroke-opacity:1"
       d="m 1104.6778,920.64705 c 8.668,-65.50225 80.129,-92.81872 156.1733,-86.01322 35.6447,3.18999 95.1971,-3.04759 114.5504,11.64251 21.9351,16.64965 4.1454,62.88484 4.872,82.82731 0.2956,31.1419 -9.5819,78.95915 -87.8018,88.82865 -78.22,9.8696 -194.7545,-2.882 -187.7939,-97.28525 z"
       id="path912"
       inkscape:connector-curvature="0"
       sodipodi:nodetypes="csscsc" />
    <path
       style="color:#000000;display:inline;overflow:visible;visibility:visible;fill:#ffffff;fill-opacity:1;fill-rule:nonzero;stroke:none;stroke-width:0.989872px;marker:none;enable-background:accumulate"
       d="m 473.4959,1110.2215 c -40.3937,1.8691 -54.77121,0.1547 -74.36032,-43.9141 -19.5892,-44.0678 -35.24613,-35.3212 -35.24613,-35.3212 l -26.14855,14.5263 c 0,0 69.82372,109.5525 135.755,64.709 z"
       id="path3072-5-5"
       inkscape:connector-curvature="0"
       sodipodi:nodetypes="ccccc" />
    <path
       style="color:#000000;display:inline;overflow:visible;visibility:visible;fill:#ffffff;fill-opacity:1;fill-rule:nonzero;stroke:none;stroke-width:1.18666px;marker:none;enable-background:accumulate"
       d="m 1238.4789,978.3037 c 6.1098,35.65 -0.6324,117.9014 -118.1167,120.6282 67.0346,-18.7772 84.3388,-47.5207 79.194,-93.2904 -3.3137,-29.47951 9.6095,-29.94973 9.6095,-29.94973 z"
       id="path4440-1"
       inkscape:connector-curvature="0"
       sodipodi:nodetypes="ccscc" />
    <path
       style="display:inline;fill:#ffffff;fill-rule:evenodd;stroke:none;stroke-width:1.01877px;stroke-linecap:butt;stroke-linejoin:miter;stroke-opacity:1"
       d="m 1585.1681,834.10016 c 26.3605,1.43741 22.5722,30.2986 -7.7879,32.52833 28.0864,11.07394 20.719,16.55772 5.0825,20.73654 30.1077,49.96334 14.4282,78.92487 -2.3285,107.39244 43.0121,-10.29071 40.2449,15.90833 47.5031,34.11683 15.0142,-33.93418 15.6457,-11.3404 12.2643,27.0265 16.9832,-44.0327 23.998,-47.0666 21.9255,-12.7143 13.6687,-27.6181 26.8834,-37.5698 39.5761,-27.2159 31.5935,-24.19393 50.6906,-7.4248 36.1982,25.824 35.7363,-36.4952 44.1511,-36.5499 49.0609,-15.3076 5.9072,-15.7172 10.2227,-38.49762 30.4914,-1.4653 5.4474,-43.91327 14.4338,-6.6044 21.1914,-0.9801 3.3136,-42.1807 47.9092,-24.67207 51.3068,-5.0224 -2.3606,-8.6471 -1.8865,-18.0901 1.9332,-28.47237 -3.4945,-14.95333 -3.0232,-30.00482 -0.4686,-45.10804 -3.7153,-26.67646 1.3753,-47.64662 4.2686,-70.04025 -4.8014,8.79645 -8.0169,-36.83532 -7.7937,-39.40497 -7.6052,1.71777 -51.138,-0.36731 -44.1109,-1.28703 -35.0113,2.22104 -27.5902,0.137 -32.8049,-0.66509 -76.0477,-8.26292 -75.0416,-0.48864 -86.6808,-2.19083 -15.965,3.40129 -28.7159,1.98864 -41.4539,0.55613 -7.4728,2.90754 -15.0766,2.0104 -22.6779,1.19283 -4.7376,1.24643 -15.4245,1.56075 -34.1327,0.61834 12.1542,1.10599 2.3884,1.23425 -40.5622,-0.11776 z"
       id="path4289-9"
       inkscape:connector-curvature="0"
       sodipodi:nodetypes="cccccccccccccccccccccccc" />
    <path
       style="color:#000000;display:inline;overflow:visible;visibility:visible;fill:#ffffff;fill-opacity:1;fill-rule:nonzero;stroke:none;stroke-width:1px;marker:none;enable-background:accumulate"
       d="m 1669.8183,1095.0591 c 52.9673,-34.0351 71.8625,-58.8898 88.416,-83.1049 7.7887,-11.3942 -22.5092,-17.40291 -22.5092,-17.40291 l -11.5344,24.88391 c 0,0 -12.622,41.2034 -54.3724,75.6239 z"
       id="path4000-2"
       inkscape:connector-curvature="0"
       sodipodi:nodetypes="csccc"
       inkscape:transform-center-x="-308.61774"
       inkscape:transform-center-y="-55.962808" />
    <path
       style="color:#000000;display:inline;overflow:visible;visibility:visible;fill:#ffffff;fill-opacity:1;fill-rule:nonzero;stroke:none;stroke-width:0.999997px;marker:none;enable-background:accumulate"
       d="m 2170.571,904.03926 c -16.097,3.14561 -32.5505,0.63413 -48.5155,5.35703 -11.3625,2.8156 -23.0725,5.10696 -34.547,2.86631 -8.1132,-1.11144 -16.807,0.059 -23.9449,5.61905 -10.0322,7.00839 -18.9445,16.38853 -26.7544,26.89538 -3.7625,5.46121 -7.1464,12.047 -7.3094,19.38683 0.1042,7.51594 3.6049,14.13124 7.8204,19.0879 8.4216,10.81727 20.278,16.84734 32.3315,18.18114 13.7213,2.5717 26.8288,9.1178 40.8267,9.7192 7.6773,0.1317 15.3467,-2.7831 22.999,-1.4161 5.847,1.0945 11.1207,4.5286 16.7345,6.5683 5.0172,1.6681 10.4834,1.6242 15.4368,-0.7077 6.3114,-2.3847 12.8172,-5.4223 19.4661,-4.2908 10.9798,1.0722 22.0479,-0.066 32.981,-1.9702 7.7524,-1.0714 15.7863,-1.4755 23.0472,-5.5698 8.8534,-6.5439 15.9266,-16.04456 23.4684,-24.64025 3.36,-4.33179 5.9584,-10.43444 4.9524,-16.51588 -0.9425,-7.09545 -5.1529,-12.71634 -9.9645,-16.22189 -8.9141,-8.19555 -17.8014,-16.59216 -25.3674,-26.72066 -5.7145,-5.42411 -13.3094,-6.50281 -20.3659,-5.76243 -10.1415,0.41892 -20.1934,-2.16947 -29.572,-6.60063 -4.4558,-1.66413 -9.0224,-3.11542 -13.723,-3.2648 z"
       id="path3365-8"
       inkscape:connector-curvature="0"
       sodipodi:nodetypes="cssccsc" />
    <path
       style="display:inline;fill:#ffffff;fill-opacity:1;fill-rule:evenodd;stroke:none;stroke-width:1px;stroke-linecap:butt;stroke-linejoin:miter;stroke-opacity:1"
       d="m 2214.3795,960.14643 c -1.4297,8.459 7.6905,12.502 13.3057,16.588 7.0937,5.072 5.0374,15.927 -2.8535,18.922 -6.6614,2.438 -9.0687,9.33897 -9.5278,15.82497 0.6979,7.757 3.662,13.46 2.8543,19.998 0.7758,9.959 11.0423,12.466 10.1091,22.941 -0.9566,6.951 -5.9088,9.739 -12.2778,13.752 2.1992,4.9978 -11.1367,21.6776 -16.8896,25.4794 7.8261,-4.4494 22.2841,-11.4819 25.4378,-21.2415 12.9454,-6.0505 22.9576,-18.2077 12.7096,-32.1719 -7.4268,-8.207 -10.2366,-22.295 -1.8919,-30.861 6.0058,-4.627 13.7043,-10.08597 12.902,-18.73797 -2.3975,-11.731 -3.0261,-25.609 -12.9899,-33.83 -5.6468,-3.884 -8.5965,-13.223 -16.3596,-12.996 -6.7189,2.442 -5.6829,10.787 -4.5284,16.333 z"
       id="path4396-1"
       inkscape:connector-curvature="0"
       sodipodi:nodetypes="ccccccccccccccc" />
    <path
       style="color:#000000;display:inline;overflow:visible;visibility:visible;fill:#ffffff;fill-opacity:1;fill-rule:nonzero;stroke:none;stroke-width:0.58297px;marker:none;enable-background:accumulate"
       d="m 1925.1424,869.40511 c 9.7784,-12.51422 117.4695,-21.42748 145.3353,6.87679 19.4198,19.72576 18.3957,55.40763 1.7504,65.25521 -16.6451,9.84672 -97.0072,12.61998 -119.8474,7.60573 -20.5392,-4.50995 -42.0981,-14.21594 -43.2348,-40.05023 -0.4639,-10.54418 6.218,-27.17241 15.9965,-39.6875 z"
       id="path4040-3"
       inkscape:connector-curvature="0"
       sodipodi:nodetypes="zssssz" />
    <path
       style="color:#000000;display:inline;overflow:visible;visibility:visible;fill:#ffffff;fill-opacity:1;fill-rule:nonzero;stroke:none;stroke-width:0.999998px;marker:none;enable-background:accumulate"
       d="m 189.82826,1379.8767 c -6.61016,24.314 -43.89296,26.3529 -57.61779,21.4114 27.66598,27.2004 26.70152,44.1006 -10.86128,46.7242 62.99339,49.023 11.51606,41.6049 1.36256,54.0355 49.4615,16.8949 27.33186,37.9196 18.52597,58.8502 56.85112,0.7194 38.24636,34.2706 40.64254,60.9912 4.8196,-12.5383 27.71603,-50.7126 29.09366,-8.2089 37.60372,-40.55 82.89635,-66.7436 86.49279,4.2203 15.15114,-35.7003 41.29632,-50.2858 40.13333,-7.7067 37.53972,-55.3803 60.23483,-35.9478 94.16952,-20.2953 -9.11029,-20.0809 -28.29904,-49.5367 38.7861,-36.3768 -37.3192,-23.6587 -8.29092,-30.9155 11.35477,-36.0393 -15.88479,-10.0078 -18.81229,-20.331 10.68219,-31.4395 -22.44361,-1.0753 -43.37242,-3.2771 -17.04117,-41.1617 -8.26086,-0.9176 -40.25615,32.0157 -23.44838,-60.4998 -26.12721,29.6177 -54.00264,45.964 -88.96095,-16.0771 -16.54397,30.9951 -45.23915,46.3321 -57.72309,7.6174 -4.4869,16.504 -23.09218,22.7118 -38.88672,23.4638 -6.10779,-6.5556 -12.40727,-15.4598 -18.98094,-27.1263 -10.74432,24.4961 -26.81658,41.0404 -57.72311,7.6174 z"
       id="path3549-3-7-3"
       inkscape:connector-curvature="0"
       sodipodi:nodetypes="cccccccccccccccccccc" />
    <path
       style="color:#000000;display:inline;overflow:visible;visibility:visible;fill:#ffffff;fill-opacity:1;fill-rule:nonzero;stroke:none;stroke-width:1px;marker:none;enable-background:accumulate"
       d="m 287.3927,1556.3317 c -6.75576,12.853 -43.26253,45.4194 -53.2553,55.6175 4.16934,1.1193 18.49163,-0.6612 23.70885,-0.424 -28.18696,30.3633 -75.14135,49.9921 -114.1922,49.1115 24.25327,-6.1985 48.19266,-15.9707 67.33595,-32.4693 1.27157,-1.27 2.94318,-2.2742 3.93941,-3.7153 0.44585,-1.5091 -1.22772,-1.1492 -2.12241,-1.2189 -6.48954,-0.5288 -13.00655,-0.3703 -19.51056,-0.3998 15.86642,-14.3214 47.17809,-46.8583 52.52599,-64.6698 4.97614,-0.092 37.13148,-4.0317 41.79442,-2.4536 3.48254,-1.6486 2.08311,1.2448 2.00837,1.4519 z"
       id="path5066-7"
       inkscape:connector-curvature="0"
       sodipodi:nodetypes="cccccccccccc" />
    <path
       style="fill:#ffffff;fill-rule:evenodd;stroke:none;stroke-width:1px;stroke-linecap:butt;stroke-linejoin:miter;stroke-opacity:1"
       d="m 157.8069,2096.6973 c 7.4959,18.2948 15.02654,35.498 39.34133,-13.5676 -2.74445,14.6793 0.45019,39.1305 36.25433,16.6856 -20.31902,28.0034 -11.79607,30.2706 0,29.6177 -17.13704,36.279 -2.52293,30.6553 3.89097,35.8536 -21.00237,21.913 -18.25044,32.1952 -8.33775,38.971 -7.08132,13.275 -12.02854,26.1506 2.7792,35.3336 -11.5806,3.6221 -27.97812,1.9913 -22.78984,23.9024 -18.38857,-13.8625 -31.22207,-10.0693 -42.24461,-0.5201 -9.51018,-12.7034 -17.23287,-28.7492 -43.91219,-9.3527 14.77538,-21.4914 8.92954,-32.2734 -2.77927,-40.0105 21.99721,-20.8048 4.82528,-28.0492 -12.22871,-35.3336 30.83153,-2.5019 22.0691,-25.5657 13.89629,-48.3243 14.43598,4.5714 28.92311,9.4767 36.13025,-33.2551 z"
       id="path4489-0"
       inkscape:connector-curvature="0"
       sodipodi:nodetypes="cccccccccccccc" />
    <path
       style="fill:#ffffff;stroke:none;stroke-width:0.933431"
       d="m 1377.5834,1371.5877 c -13.3368,6.381 -27.4254,10.8062 -42.3626,9.5819 -3.6428,0.096 -7.2794,0.3094 -10.773,1.2285 -6.3934,7.8856 -9.675,20.8381 -11.0559,34.4348 -2.5708,15.7614 -5.3501,31.3768 -7.3656,47.5502 1.6758,23.5788 14.7302,47.7214 29.1488,53.9051 12.881,3.4522 25.9592,6.2884 38.7442,15.1086 9.101,5.5146 18.7465,8.4292 27.1606,5.1687 12.8632,-3.5956 25.3357,-9.7364 39.1719,-8.3517 17.0106,2.4448 34.4278,14.462 51.3038,14.736 11.601,0.2322 22.1316,-5.0887 32.2343,-10.9974 8.0683,-3.4326 17.1786,-1.591 26.0381,0.4494 8.3444,0.5818 15.3755,-6.2876 19.4348,-16.4907 6.5963,-14.0324 10.4649,-32.3818 9.4163,-52.476 -1.2629,-19.4629 -6.8836,-40.3688 -16.616,-55.51 -6.9083,-11.0029 -16.1486,-17.1811 -24.5713,-17.4812 -11.6011,-1.7593 -23.3489,-2.261 -35.093,-9.3256 -14.6853,-8.4096 -29.9483,-12.7802 -43.865,-9.4822 -14.5125,2.5618 -29.1863,5.5091 -44.6132,1.5967 -10.5686,-2.3276 -21.2038,-5.2065 -31.6269,-5.7133 -1.57,0.6894 -3.1401,1.3788 -4.7103,2.0682 z"
       id="path3280-1"
       inkscape:connector-curvature="0"
       sodipodi:nodetypes="csssc" />
    <path
       style="fill:#ffffff;fill-opacity:1;stroke:none;stroke-width:0.92532"
       d="m 620.66886,1488.0259 c 20.11409,3.6326 25.48907,14.8095 4.50629,23.6108 26.34784,5.8333 7.54079,39.6407 -0.54623,43.1247 12.07086,-4.0904 22.94196,4.1568 22.94196,4.1568 3.23599,5.5367 -13.67952,34.2518 -12.76749,34.8256 1.85785,0.5361 12.88206,-1.9372 14.78096,0.4954 1.89892,2.4339 -15.76307,39.4339 -13.27684,40.5702 2.48636,1.1373 58.52175,-25.8381 66.63632,-20.5639 8.11466,5.2742 -1.51083,28.0714 0.96181,28.5754 2.47248,0.504 30.77271,-12.505 33.86013,-12.033 3.08717,0.472 1.11334,25.3019 4.20068,25.7738 3.08741,0.472 24.95161,-15.2673 27.42417,-14.7633 2.47263,0.504 1.58516,16.375 4.67251,16.847 3.08742,0.4719 16.31042,-14.142 18.16837,-13.6061 1.85778,0.536 9.30413,31.7973 12.41876,33.5334 3.11477,1.7365 21.99249,-35.9599 23.82307,-36.6883 1.83038,-0.7295 14.45449,42.2893 16.92714,42.7932 2.47264,0.5039 14.11036,-30.4862 15.96831,-29.9502 1.85785,0.5361 13.92086,17.632 16.40711,18.7679 2.48632,1.1363 17.59364,-40.1622 20.05252,-40.2902 2.45904,-0.1283 23.72931,15.8536 25.64193,18.9182 1.9127,3.066 3.33262,-16.6312 5.79149,-16.7595 2.45895,-0.128 30.98291,9.7797 31.58414,9.1153 0.60096,-0.6641 -4.57699,-12.4215 -2.73281,-12.5176 1.84423,-0.097 31.07869,14.2045 32.23989,10.9796 -3.41871,-24.0558 65.67785,2.4388 67.29305,9.7855 0,0 -28.7851,-50.405 -25.7936,-54.3595 2.9915,-3.9533 14.1528,-0.1047 14.7264,-2.0334 0.5736,-1.9285 -6.981,-9.7635 -5.1917,-12.3883 1.7896,-2.6262 22.4715,-13.8316 24.2473,-17.0886 1.7757,-3.2581 -9.4674,-10.901 -7.0495,-12.9256 -3.932,-6.1086 34.9452,-21.7131 38.9735,-19.1232 -1.913,0.7116 -22.5839,-15.9812 -16.4757,-21.9275 2.3632,-4.5548 5.0981,-6.3975 8.401,-9.9338 -3.5119,-1.4068 -12.4452,-6.3144 -11.8989,-9.5072 0.5465,-3.1929 6.3516,-19.3214 8.141,-21.9462 1.7896,-2.6249 -12.9367,-0.5915 -12.9914,-3.1202 -0.055,-2.53 0.209,-40.5636 21.5517,-64.6809 -11.9477,5.4304 -44.3073,10.0569 -44.3073,10.0569 l 7.257,-21.8857 c 0,0 -27.081,20.5368 -37.4525,18.5027 -20.39578,-4 -16.203,-37.7678 -16.203,-37.7678 0,0 -24.14838,16.677 -27.31776,12.4121 -3.16952,-4.2664 -7.56524,-12.4747 -8.47362,-16.8766 -1.62513,2.7916 -16.21461,18.5685 -19.30186,18.0966 -9.30817,2.2801 -35.29031,-25.5885 -36.89871,-27.1946 -8.10831,10.2061 -17.08392,18.562 -22.51754,19.2168 -2.82268,1.328 -12.18614,-14.3911 -11.96214,-19.9511 -1.34782,4.631 -17.60591,21.9439 -21.34889,19.6277 -3.10112,-1.1055 -10.4856,-12.178 -13.08819,-16.2761 -3.09573,8.233 -11.29619,19.5854 -11.29619,19.5854 0,0 -21.72231,-7.7339 -26.9216,-24.5154 -2.53078,18.395 -14.60844,35.8777 -17.65482,37.3022 -3.04629,1.4246 -48.58604,-34.4243 -46.82395,-38.3134 -0.2923,20.2003 -2.84959,36.9011 -6.92035,37.8514 -4.26198,2.1221 -37.94595,-37.5877 -39.13423,-35.627 -1.18852,1.9605 3.77221,38.1358 0.0975,38.9603 -3.67467,0.8244 -10.55459,-2.8873 -10.55459,-2.8873 l -0.36012,10.4192 c 0,0 -30.5824,-37.9796 -33.73824,-41.6123 -3.15568,-3.6342 9.7599,38.7896 11.71356,43.7522 -11.17464,-4.482 -29.27882,-18.301 -31.80605,-21.335 -2.16638,-3.1105 11.13318,33.5275 9.60038,38.9074 -4.52898,8.0113 -21.85351,1.3877 -21.87567,0.8901 l 14.4673,14.4377 c 4.20544,5.0947 4.32971,4.2879 5.16413,11.1241 3.4432,14.6885 -17.47721,27.5727 -14.47223,23.4599 23.98532,8.2851 20.70482,7.694 -1.48763,13.9733 z"
       id="path5888-3"
       inkscape:connector-curvature="0"
       sodipodi:nodetypes="cccccccsscccccccsccscscsccscccccccccscccscsccccccccccccccccscccccccc" />
    <path
       style="color:#000000;display:inline;overflow:visible;visibility:visible;fill:#ffffff;fill-opacity:1;fill-rule:nonzero;stroke:none;stroke-width:1px;marker:none;enable-background:accumulate"
       d="m 1032.7385,2506.0538 c -7.0167,15.6506 -46.59208,16.9629 -61.16088,13.7817 29.36728,17.508 28.3435,28.3861 -11.52901,30.075 66.86699,31.5541 12.22415,26.7792 1.44622,34.7804 52.50307,10.8742 29.01265,24.4075 19.66527,37.8796 60.3469,0.4628 40.5981,22.0581 43.1416,39.2574 5.116,-8.0707 29.4206,-32.6414 30.883,-5.2836 39.9161,-26.1008 87.9938,-42.9607 91.8113,2.7159 16.083,-22.9786 32.1173,-32.6903 30.883,-5.2835 39.8482,-35.6461 75.6572,-22.8152 111.6787,-12.7403 9.4607,-10.7588 10.5632,-27.2874 41.1711,-23.414 -4.2915,-10.6639 6.043,-17.9942 29.3819,-22.3473 -31.0136,-6.4418 -36.7293,-13.0863 20.8559,-20.2368 -43.8191,-0.6917 -84.6806,-2.1087 -33.2713,-26.4941 -16.1285,-0.5901 -54.395,19.7578 -36.5538,-39.7907 -27.7338,19.0635 -57.3233,29.5852 -94.4312,-10.348 -17.5615,19.9499 -48.0213,29.8219 -61.2729,4.9029 -4.7628,10.6234 -24.5122,14.6187 -41.278,15.1032 -6.4833,-4.2198 -13.1701,-9.9514 -20.148,-17.4607 -11.405,15.7675 -28.4656,26.4162 -61.2729,4.9029 z"
       id="path3549-3-7"
       inkscape:connector-curvature="0"
       sodipodi:nodetypes="cccccccccccccccccccc" />
    <path
       style="color:#000000;display:inline;overflow:visible;visibility:visible;fill:#ffffff;fill-opacity:1;fill-rule:nonzero;stroke:none;stroke-width:0.999999px;marker:none;enable-background:accumulate"
       d="m 816.63784,1756.6297 c -53.77145,-23.5695 -66.64315,-43.3978 -72.53669,-59.3997 4.92832,-2.8264 19.90718,-12.2286 19.90718,-12.2286 -16.13101,-13.5035 -22.74289,-67.3125 -10.60035,-69.1694 13.12461,-2.0071 37.10425,-0.6792 37.10425,-0.6792 -15.10667,5.504 -31.61267,72.6481 3.53791,74.6731 -13.86907,7.2537 -15.94917,12.9369 -22.14538,13.688 0.0252,10.0268 26.00335,44.2425 44.73308,53.1158 z"
       id="path4456-3"
       inkscape:connector-curvature="0"
       sodipodi:nodetypes="cccscccc" />
    <path
       style="fill:#ffffff;fill-rule:evenodd;stroke:none;stroke-width:1px;stroke-linecap:butt;stroke-linejoin:miter;stroke-opacity:1"
       d="m 167.70136,2121.0977 c -3.69503,-24.293 -4.22495,-65.7807 10.34503,-85.4357 -12.3556,9.997 -31.21448,52.6878 -29.1892,79.8508 3.16086,42.393 20.17148,17.9256 20.17148,17.9256 z"
       id="path4248-7"
       inkscape:connector-curvature="0"
       sodipodi:nodetypes="ccscc" />
  </g>
  <g
     inkscape:groupmode="layer"
     id="layer1"
     inkscape:label="txt">
    <text
       xml:space="preserve"
       style="font-style:normal;font-variant:normal;font-weight:normal;font-stretch:normal;font-size:6.87975px;line-height:0%;font-family:Lavi;-inkscape-font-specification:Lavi;text-align:center;letter-spacing:0px;word-spacing:0px;text-anchor:middle;fill:#000000;fill-opacity:1;stroke:none;stroke-width:0.87182"
       x="-341.33691"
       y="2062.9126"
       id="text4246-4-9-8-0-3"
       transform="matrix(0.86354336,-0.84725955,0.23030923,0.93205314,0,0)"><tspan
         sodipodi:role="line"
         style="font-size:80.8612px;line-height:1.25;stroke-width:0.87182"
         x="-341.33691"
         y="2062.9126"
         id="tspan4205-3-3"><tspan
           style="font-size:69.6307px;stroke-width:0.87182"
           id="tspan4438">!!</tspan></tspan></text>
    <text
       xml:space="preserve"
       style="font-style:normal;font-variant:normal;font-weight:normal;font-stretch:normal;font-size:56.9124px;line-height:100%;font-family:'Nanum Pen Script OTF';-inkscape-font-specification:'Nanum Pen Script OTF';text-align:center;letter-spacing:0px;word-spacing:0px;text-anchor:middle;fill:#000000;fill-opacity:1;stroke:none;stroke-width:1.25542"
       x="301.72015"
       y="939.23407"
       id="text900"><tspan
         sodipodi:role="line"
         style="font-style:normal;font-variant:normal;font-weight:normal;font-stretch:normal;font-size:56.9124px;font-family:'Nanum Pen Script OTF';-inkscape-font-specification:'Nanum Pen Script OTF';stroke-width:1.25542"
         x="301.72015"
         y="939.23407"
         id="tspan3215">으으! 생각해, 후추야!</tspan><tspan
         sodipodi:role="line"
         style="font-style:normal;font-variant:normal;font-weight:normal;font-stretch:normal;font-size:56.9124px;font-family:'Nanum Pen Script OTF';-inkscape-font-specification:'Nanum Pen Script OTF';stroke-width:1.25542"
         x="301.72015"
         y="996.14648"
         id="tspan3217">슬픈 이야기를 떠올려.</tspan></text>
    <text
       xml:space="preserve"
       style="font-style:normal;font-variant:normal;font-weight:normal;font-stretch:normal;font-size:59.978px;line-height:100%;font-family:'Nanum Pen Script OTF';-inkscape-font-specification:'Nanum Pen Script OTF';text-align:center;letter-spacing:0px;word-spacing:0px;text-anchor:middle;fill:#000000;fill-opacity:1;stroke:none;stroke-width:1.32305"
       x="1248.5691"
       y="923.46307"
       id="text906"><tspan
         sodipodi:role="line"
         style="font-style:normal;font-variant:normal;font-weight:normal;font-stretch:normal;font-size:59.978px;font-family:'Nanum Pen Script OTF';-inkscape-font-specification:'Nanum Pen Script OTF';stroke-width:1.32305"
         x="1248.5691"
         y="923.46307"
         id="tspan904">넌 할 수</tspan><tspan
         sodipodi:role="line"
         style="font-style:normal;font-variant:normal;font-weight:normal;font-stretch:normal;font-size:59.978px;font-family:'Nanum Pen Script OTF';-inkscape-font-specification:'Nanum Pen Script OTF';stroke-width:1.32305"
         x="1248.5691"
         y="983.4411"
         id="tspan8295">있어.</tspan></text>
    <text
       xml:space="preserve"
       style="font-style:normal;font-variant:normal;font-weight:normal;font-stretch:normal;font-size:67.075px;line-height:100%;font-family:'Nanum Pen Script OTF';-inkscape-font-specification:'Nanum Pen Script OTF';text-align:center;letter-spacing:0px;word-spacing:0px;text-anchor:middle;fill:#000000;fill-opacity:1;stroke:none;stroke-width:1.89108391"
       x="1735.2943"
       y="912.16943"
       id="text912"><tspan
         sodipodi:role="line"
         style="font-style:normal;font-variant:normal;font-weight:normal;font-stretch:normal;font-size:67.075px;font-family:'Nanum Pen Script OTF';-inkscape-font-specification:'Nanum Pen Script OTF';stroke:#000000;stroke-width:1.89108391;stroke-opacity:1"
         x="1735.2943"
         y="912.16943"
         id="tspan910">넌 할 수</tspan><tspan
         sodipodi:role="line"
         style="font-style:normal;font-variant:normal;font-weight:normal;font-stretch:normal;font-size:67.075px;font-family:'Nanum Pen Script OTF';-inkscape-font-specification:'Nanum Pen Script OTF';stroke:#000000;stroke-width:1.89108391;stroke-opacity:1"
         x="1735.2943"
         y="979.24445"
         id="tspan13885">있어.</tspan></text>
    <text
       xml:space="preserve"
       style="font-style:normal;font-variant:normal;font-weight:normal;font-stretch:normal;font-size:58.9973px;line-height:100%;font-family:'Nanum Pen Script OTF';-inkscape-font-specification:'Nanum Pen Script OTF';text-align:center;letter-spacing:0px;word-spacing:0px;text-anchor:middle;fill:#000000;fill-opacity:1;stroke:none;stroke-width:1.30141"
       x="2000.1216"
       y="920.72339"
       id="text916"><tspan
         sodipodi:role="line"
         style="font-style:normal;font-variant:normal;font-weight:normal;font-stretch:normal;font-size:58.9973px;font-family:'Nanum Pen Script OTF';-inkscape-font-specification:'Nanum Pen Script OTF';stroke-width:1.30141"
         x="2000.1216"
         y="920.72339"
         id="tspan914">아냐...</tspan></text>
    <text
       xml:space="preserve"
       style="font-style:normal;font-variant:normal;font-weight:normal;font-stretch:normal;font-size:44.0636px;line-height:100%;font-family:'Nanum Pen Script OTF';-inkscape-font-specification:'Nanum Pen Script OTF';text-align:center;letter-spacing:0px;word-spacing:0px;text-anchor:middle;fill:#000000;fill-opacity:1;stroke:none;stroke-width:1.22147"
       x="2211.908"
       y="947.51074"
       id="text920"
       transform="scale(0.972094,1.0287071)"><tspan
         sodipodi:role="line"
         style="font-style:normal;font-variant:normal;font-weight:normal;font-stretch:normal;font-size:44.0636px;font-family:'Nanum Pen Script OTF';-inkscape-font-specification:'Nanum Pen Script OTF';stroke-width:1.22147"
         x="2211.908"
         y="947.51074"
         id="tspan918">생각이 안 나.</tspan></text>
    <text
       xml:space="preserve"
       style="font-style:normal;font-variant:normal;font-weight:normal;font-stretch:normal;font-size:19.0699px;line-height:1;font-family:'Nanum Pen Script OTF';-inkscape-font-specification:'Nanum Pen Script OTF';text-align:center;letter-spacing:0px;word-spacing:0px;text-anchor:middle;display:inline;fill:#000000;fill-opacity:1;stroke:#000000;stroke-width:2.64286;stroke-miterlimit:4;stroke-dasharray:none;stroke-opacity:1"
       x="566.89453"
       y="1429.1742"
       id="text926"
       transform="matrix(0.96995835,0,-0.17070021,1.0309721,0,0)"><tspan
         sodipodi:role="line"
         style="font-style:normal;font-variant:normal;font-weight:normal;font-stretch:normal;font-size:71.5117px;font-family:'Nanum Pen Script OTF';-inkscape-font-specification:'Nanum Pen Script OTF';stroke:#000000;stroke-width:2.64286;stroke-miterlimit:4;stroke-dasharray:none;stroke-opacity:1"
         x="566.89453"
         y="1429.1742"
         id="tspan924">어이! 야!</tspan><tspan
         sodipodi:role="line"
         style="font-style:normal;font-variant:normal;font-weight:normal;font-stretch:normal;font-size:71.5117px;font-family:'Nanum Pen Script OTF';-inkscape-font-specification:'Nanum Pen Script OTF';stroke:#000000;stroke-width:2.64286;stroke-miterlimit:4;stroke-dasharray:none;stroke-opacity:1"
         x="566.89453"
         y="1500.6859"
         id="tspan21081">저리 가!</tspan></text>
    <text
       xml:space="preserve"
       style="font-style:normal;font-variant:normal;font-weight:normal;font-stretch:normal;font-size:16.907px;line-height:1;font-family:'Nanum Pen Script OTF';-inkscape-font-specification:'Nanum Pen Script OTF';text-align:center;letter-spacing:0px;word-spacing:0px;text-anchor:middle;display:inline;fill:#000000;fill-opacity:1;stroke:#000000;stroke-width:2.48873;stroke-miterlimit:4;stroke-dasharray:none;stroke-opacity:1"
       x="1135.4592"
       y="1437.6007"
       id="text940"
       transform="matrix(0.97850393,0,-0.17220413,1.0219683,0,0)"><tspan
         sodipodi:role="line"
         style="font-style:normal;font-variant:normal;font-weight:normal;font-stretch:normal;font-size:63.4005px;font-family:'Nanum Pen Script OTF';-inkscape-font-specification:'Nanum Pen Script OTF';stroke:#000000;stroke-width:2.48873;stroke-miterlimit:4;stroke-dasharray:none;stroke-opacity:1"
         x="1135.4592"
         y="1437.6007"
         id="tspan938">돈 낼 거 아니면</tspan><tspan
         sodipodi:role="line"
         style="font-style:normal;font-variant:normal;font-weight:normal;font-stretch:normal;font-size:63.4005px;font-family:'Nanum Pen Script OTF';-inkscape-font-specification:'Nanum Pen Script OTF';stroke:#000000;stroke-width:2.48873;stroke-miterlimit:4;stroke-dasharray:none;stroke-opacity:1"
         x="1135.4592"
         y="1501.0012"
         id="tspan22562">당장 내 물건에서</tspan><tspan
         sodipodi:role="line"
         style="font-style:normal;font-variant:normal;font-weight:normal;font-stretch:normal;font-size:63.4005px;font-family:'Nanum Pen Script OTF';-inkscape-font-specification:'Nanum Pen Script OTF';stroke:#000000;stroke-width:2.48873;stroke-miterlimit:4;stroke-dasharray:none;stroke-opacity:1"
         x="1135.4592"
         y="1564.4017"
         id="tspan22564">발 떼!</tspan></text>
    <text
       xml:space="preserve"
       style="font-style:normal;font-variant:normal;font-weight:normal;font-stretch:normal;font-size:57.0732px;line-height:100%;font-family:'Nanum Pen Script OTF';-inkscape-font-specification:'Nanum Pen Script OTF';text-align:center;letter-spacing:0px;word-spacing:0px;text-anchor:middle;fill:#000000;fill-opacity:1;stroke:none;stroke-width:1.25897"
       x="1807.6664"
       y="1443.6688"
       id="text946"
       transform="skewX(-14.1651)"><tspan
         sodipodi:role="line"
         style="font-style:normal;font-variant:normal;font-weight:normal;font-stretch:normal;font-size:57.0732px;font-family:'Nanum Pen Script OTF';-inkscape-font-specification:'Nanum Pen Script OTF';stroke-width:1.25897"
         x="1807.6664"
         y="1443.6688"
         id="tspan944">아이고,</tspan><tspan
         sodipodi:role="line"
         style="font-style:normal;font-variant:normal;font-weight:normal;font-stretch:normal;font-size:57.0732px;font-family:'Nanum Pen Script OTF';-inkscape-font-specification:'Nanum Pen Script OTF';stroke-width:1.25897"
         x="1807.6664"
         y="1500.7421"
         id="tspan22928">  얘가 또...</tspan></text>
    <text
       xml:space="preserve"
       style="font-style:normal;font-variant:normal;font-weight:normal;font-stretch:normal;font-size:22.1346px;line-height:100%;font-family:'Nanum Pen Script OTF';-inkscape-font-specification:'Nanum Pen Script OTF';text-align:center;letter-spacing:2.88877px;word-spacing:0px;text-anchor:middle;display:inline;fill:#000000;fill-opacity:1;stroke:#000000;stroke-width:2.91074;stroke-miterlimit:4;stroke-dasharray:none;stroke-opacity:1"
       x="2107.4226"
       y="1407.5323"
       id="text950"
       transform="matrix(0.92840736,0,-0.16338778,1.0771134,0,0)"><tspan
         sodipodi:role="line"
         style="font-style:normal;font-variant:normal;font-weight:normal;font-stretch:normal;font-size:83.0047px;font-family:'Nanum Pen Script OTF';-inkscape-font-specification:'Nanum Pen Script OTF';stroke:#000000;stroke-width:2.91074;stroke-miterlimit:4;stroke-dasharray:none;stroke-opacity:1"
         x="2108.8669"
         y="1407.5323"
         id="tspan948">당근!</tspan></text>
    <text
       xml:space="preserve"
       style="font-style:normal;font-variant:normal;font-weight:normal;font-stretch:normal;font-size:55.9971px;line-height:100%;font-family:'Nanum Pen Script OTF';-inkscape-font-specification:'Nanum Pen Script OTF';text-align:center;letter-spacing:0px;word-spacing:0px;text-anchor:middle;fill:#000000;fill-opacity:1;stroke:none;stroke-width:1.23523"
       x="1723.0574"
       y="1648.0587"
       id="text958"><tspan
         sodipodi:role="line"
         style="font-style:normal;font-variant:normal;font-weight:normal;font-stretch:normal;font-size:55.9971px;font-family:'Nanum Pen Script OTF';-inkscape-font-specification:'Nanum Pen Script OTF';stroke-width:1.23523"
         x="1723.0574"
         y="1648.0587"
         id="tspan32381">네 뱃속 걱정할 시간에</tspan><tspan
         sodipodi:role="line"
         style="font-style:normal;font-variant:normal;font-weight:normal;font-stretch:normal;font-size:55.9971px;font-family:'Nanum Pen Script OTF';-inkscape-font-specification:'Nanum Pen Script OTF';stroke-width:1.23523"
         x="1723.0574"
         y="1704.0558"
         id="tspan32383">나를 도와주지 그래!</tspan></text>
    <text
       xml:space="preserve"
       style="font-style:normal;font-variant:normal;font-weight:normal;font-stretch:normal;font-size:21.5843px;line-height:100%;font-family:'Nanum Pen Script OTF';-inkscape-font-specification:'Nanum Pen Script OTF';text-align:center;letter-spacing:0px;word-spacing:0px;text-anchor:middle;display:inline;fill:#000000;fill-opacity:1;stroke:#000000;stroke-width:2.83837;stroke-miterlimit:4;stroke-dasharray:none;stroke-opacity:1"
       x="687.24963"
       y="2446.8315"
       id="text962"
       transform="matrix(0.92840736,0,-0.16338778,1.0771134,0,0)"><tspan
         sodipodi:role="line"
         style="font-style:normal;font-variant:normal;font-weight:normal;font-stretch:normal;font-size:80.941px;font-family:'Nanum Pen Script OTF';-inkscape-font-specification:'Nanum Pen Script OTF';stroke:#000000;stroke-width:2.83837;stroke-miterlimit:4;stroke-dasharray:none;stroke-opacity:1"
         x="687.24963"
         y="2446.8315"
         id="tspan960">어?!</tspan></text>
    <text
       xml:space="preserve"
       style="font-style:normal;font-variant:normal;font-weight:normal;font-stretch:normal;font-size:75.9477px;line-height:100%;font-family:'Nanum Pen Script OTF';-inkscape-font-specification:'Nanum Pen Script OTF';text-align:center;letter-spacing:0px;word-spacing:0px;text-anchor:middle;fill:#000000;fill-opacity:1;stroke:#000000;stroke-width:1.35927;stroke-opacity:1"
       x="1152.6241"
       y="2600.5588"
       id="text966"><tspan
         sodipodi:role="line"
         style="font-style:normal;font-variant:normal;font-weight:normal;font-stretch:normal;font-size:75.9477px;font-family:'Nanum Pen Script OTF';-inkscape-font-specification:'Nanum Pen Script OTF';stroke-width:1.35927;stroke:#000000;stroke-opacity:1"
         x="1152.6241"
         y="2600.5588"
         id="tspan964">오, 그래...</tspan></text>
    <text
       xml:space="preserve"
       style="font-style:normal;font-variant:normal;font-weight:normal;font-stretch:normal;font-size:56.229px;line-height:100%;font-family:'Nanum Pen Script OTF';-inkscape-font-specification:'Nanum Pen Script OTF';text-align:center;letter-spacing:0px;word-spacing:0px;text-anchor:middle;fill:#000000;fill-opacity:1;stroke:none;stroke-width:1.24035"
       x="1181.6096"
       y="2691.2661"
       id="text972"><tspan
         sodipodi:role="line"
         style="font-style:normal;font-variant:normal;font-weight:normal;font-stretch:normal;font-size:56.229px;font-family:'Nanum Pen Script OTF';-inkscape-font-specification:'Nanum Pen Script OTF';stroke-width:1.24035"
         x="1181.6096"
         y="2691.2661"
         id="tspan970">이거면</tspan><tspan
         sodipodi:role="line"
         style="font-style:normal;font-variant:normal;font-weight:normal;font-stretch:normal;font-size:56.229px;font-family:'Nanum Pen Script OTF';-inkscape-font-specification:'Nanum Pen Script OTF';stroke-width:1.24035"
         x="1181.6096"
         y="2747.4951"
         id="tspan36781">먹히겠군.</tspan></text>
  </g>
</svg>
