<?xml version="1.0" encoding="UTF-8" standalone="no"?>
<svg
   xmlns:dc="http://purl.org/dc/elements/1.1/"
   xmlns:cc="http://creativecommons.org/ns#"
   xmlns:rdf="http://www.w3.org/1999/02/22-rdf-syntax-ns#"
   xmlns:svg="http://www.w3.org/2000/svg"
   xmlns="http://www.w3.org/2000/svg"
   xmlns:xlink="http://www.w3.org/1999/xlink"
   xmlns:sodipodi="http://sodipodi.sourceforge.net/DTD/sodipodi-0.dtd"
   xmlns:inkscape="http://www.inkscape.org/namespaces/inkscape"
   sodipodi:docname="E38P01.svg"
   height="3503"
   width="2481"
   inkscape:version="1.0 (4035a4fb49, 2020-05-01)"
   version="1.1"
   id="svg2">
  <metadata
     id="metadata8">
    <rdf:RDF>
      <cc:Work
         rdf:about="">
        <dc:format>image/svg+xml</dc:format>
        <dc:type
           rdf:resource="http://purl.org/dc/dcmitype/StillImage" />
        <dc:title />
      </cc:Work>
    </rdf:RDF>
  </metadata>
  <defs
     id="defs6" />
  <sodipodi:namedview
     inkscape:document-rotation="0"
     inkscape:deskcolor="#d1d1d1"
     inkscape:pagecheckerboard="0"
     inkscape:showpageshadow="0"
     inkscape:current-layer="layer3"
     inkscape:window-maximized="1"
     inkscape:window-y="-9"
     inkscape:window-x="-9"
     inkscape:cy="2702.9512"
     inkscape:cx="1272.7724"
     inkscape:zoom="0.45"
     showgrid="false"
     id="namedview4"
     inkscape:window-height="701"
     inkscape:window-width="1366"
     inkscape:pageshadow="2"
     inkscape:pageopacity="0"
     guidetolerance="10"
     gridtolerance="10"
     objecttolerance="10"
     borderopacity="1"
     bordercolor="#666666"
     pagecolor="#ffffff" />
  <g
     sodipodi:insensitive="true"
     inkscape:label="artwork"
     id="layer2"
     inkscape:groupmode="layer">
    <image
       sodipodi:absref="C:\Users\ZR\Desktop\new-ep38_WIP\lang\gfx_Pepper-and-Carrot_by-David-Revoy_E38P01.png"
       xlink:href="../gfx_Pepper-and-Carrot_by-David-Revoy_E38P01.png"
       y="0"
       x="0"
       id="image10"
       height="3503"
       width="2481" />
  </g>
  <g
     inkscape:label="speechbubbles"
     id="layer3"
     inkscape:groupmode="layer">
    <path
       sodipodi:nodetypes="ccccccccccccccccccccccccc"
       id="path1058"
       d="m 1858.0267,2842.277 c 12.1241,-14.0176 19.9968,-30.3378 9.6548,-38.6354 l -2.4462,-5.3366 -33.0614,-62.8273 c 37.0735,14.2887 76.7978,32.649 53.0521,-46.4752 34.812,39.4127 63.2772,59.1913 67.2073,3.0706 14.2523,24.9285 28.0297,64.2839 43.9667,38.0476 7.183,12.8431 13.9352,7.7401 20.2361,-16.1624 9.4089,29.3024 23.8045,11.1943 39.6097,-20.3142 14.9816,31.9899 30.8653,58.5185 58.4597,14.1454 -2.3535,32.9432 13.483,31.3019 37.5415,14.0286 -2.7773,14.3298 1.8292,19.0311 30.8234,7.286 -6.9301,13.9111 -19.7764,15.2623 11.3848,17.8709 -2.7047,13.5445 -22.0371,24.6282 16.3296,44.2501 -38.3485,-5.0326 -9.7326,18.9927 -8.1071,31.3061 -24.9753,-7.1355 -36.0578,-3.811 -9.2551,28.0372 -12.7306,-0.3828 -48.7602,-35.1687 -30.1753,10.6885 -21.2915,-25.6088 -40.8608,5.694 -29.6932,6.7658 l -45.4843,9.6451 -72.8054,-8.0434 -51.3819,0.4798 -42.7146,6.0105 c 5.6054,-20.1052 -8.7678,-12.9923 -20.156,-9.9459 -3.8591,-5.879 3.9284,-20.155 -20.6982,-11.0609 0.3308,-14.539 -11.8054,-12.5908 -22.287,-12.8309 z"
       style="display:inline;fill:#ffffff;fill-rule:evenodd;stroke:none;stroke-width:0.883032px;stroke-linecap:butt;stroke-linejoin:miter;stroke-opacity:1" />
    <path
       sodipodi:nodetypes="cccccccccccccccccccccccc"
       id="path961"
       d="m 1891.7552,2899.5261 c 39.9449,0.9503 34.6525,18.5194 20.2675,39.429 11.0662,-1.4064 36.9479,-20.7755 21.6012,9.8423 33.5096,-11.1236 12.8652,11.383 10.1423,22.7 13.5078,-2.3822 21.7767,7.8683 5.3481,45.9945 16.5895,-8.9725 41.9403,-42.6586 40.0509,0.4951 13.4303,-5.3565 31.0759,-25.9949 33.3155,9.2175 17.7533,-17.3835 41.7399,-32.2142 42.1841,22.3235 9.2427,-46.6858 43.5623,-61.7436 48.4974,5.2828 6.6421,-60.8654 36.9605,-41.5684 56.7117,2.9551 -5.7661,-35.2688 2.9873,-57.149 67.6027,-27.5201 -0.4687,-31.0504 13.0145,-44.9406 66.8984,-9.1381 -11.4523,-20.6658 -39.1405,-53.5679 25.3146,-17.026 -33.8984,-43.9934 2.8813,-71.0919 31.1071,-100.2353 -34.3694,20.3233 -38.0099,12.3889 -25.0606,-10.8009 -54.6534,27.1553 -57.0839,-15.0216 -20.7744,-49.3208 -49.0896,12.0668 -47.8833,-4.6459 -38.2889,-19.0617 -71.1295,28.4832 -41.4637,-16.5984 -34.8957,-34.1717 -51.526,78.9525 -36.3768,30.1995 -30.689,-0.4314 -29.252,47.0613 -51.4015,78.7904 -45.8197,32.5087 l -48.8783,-8.0512 -185.4194,31.8766 -26.5773,33.9807 c 61.3501,-4.1002 24.0465,14.3842 -12.6382,19.1514 z"
       style="display:inline;fill:#ffffff;fill-rule:evenodd;stroke:none;stroke-width:1.0363px;stroke-linecap:butt;stroke-linejoin:miter;stroke-opacity:1" />
    <path
       sodipodi:nodetypes="cccccccccccc"
       id="path957"
       d="m 2000.6694,2716.7252 c -31.651,13.0747 -66.0394,18.8224 -102.4949,19.037 l 17.6113,45.3908 c -18.364,3.6732 -29.918,0.9666 -70.6388,2.2181 l 6.282,21.8742 -102.3938,-5.104 121.1041,21.825 -4.8924,-18.0382 86.3709,-1.8936 -21.7145,-39.3473 c 30.9126,-19.0725 69.7849,-11.308 104.7266,-16.7953 z"
       style="display:inline;fill:#ffffff;fill-rule:evenodd;stroke:none;stroke-width:0.954738px;stroke-linecap:butt;stroke-linejoin:miter;stroke-opacity:1" />
    <path
       inkscape:connector-curvature="0"
       id="path3533-6"
       d="m 118.44028,2746.3221 c 17.09715,-16.9283 53.06001,-31.1634 100.22461,-36.9339 47.16451,-5.7713 134.41902,-4.2327 149.74749,-2.3084 15.32847,1.9235 99.63502,8.8486 117.91125,18.467 18.27644,9.6175 43.03767,21.5442 48.34369,33.8558 5.30612,12.3116 0.58959,41.9355 -16.50756,48.4757 -17.09714,6.5403 -94.91859,20.7754 -140.31462,21.5451 -45.39583,0.7689 -150.92647,-5.3865 -180.99392,-9.6184 -30.06736,-4.2318 -61.90349,-9.6183 -71.33625,-23.0836 -9.43296,-13.4654 -27.11971,-31.1634 -7.07469,-50.3993 z"
       style="color:#000000;display:inline;overflow:visible;visibility:visible;fill:#ffffff;fill-opacity:1;fill-rule:nonzero;stroke:none;stroke-width:1px;marker:none;enable-background:accumulate" />
    <path
       sodipodi:nodetypes="cccccccccccccccccccc"
       inkscape:connector-curvature="0"
       id="path3549-3-7-3"
       d="m 458.97357,2694.176 c -6.3654,18.044 -42.26765,19.557 -55.48431,15.89 26.64157,20.186 25.71283,32.728 -10.45908,34.675 60.66083,36.381 11.08964,30.876 1.31211,40.101 47.63,12.538 26.31981,28.141 17.83997,43.674 54.74602,0.534 36.83015,25.433 39.1376,45.263 4.64115,-9.305 26.68976,-37.635 28.01638,-6.092 36.2113,-30.093 79.82682,-49.532 83.29008,3.132 14.5901,-26.494 29.13642,-37.691 28.01648,-6.092 36.1497,-41.099 68.63519,-26.305 101.31333,-14.689 8.58269,-12.405 9.58281,-31.462 37.34991,-26.996 -3.89323,-12.295 5.48204,-20.747 26.65474,-25.766 -28.1351,-7.427 -33.32028,-15.088 18.92025,-23.332 -39.75205,-0.798 -76.82109,-2.432 -30.18327,-30.547 -14.6316,-0.681 -49.34646,22.78 -33.16106,-45.878 -25.15974,21.98 -52.00298,34.111 -85.66684,-11.931 -15.93137,23.002 -43.56401,34.384 -55.58569,5.653 -4.32075,12.248 -22.23711,16.855 -37.44679,17.413 -5.88162,-4.865 -11.94785,-11.473 -18.27812,-20.131 -10.34647,18.179 -25.8236,30.457 -55.58569,5.653 z"
       style="color:#000000;display:inline;overflow:visible;visibility:visible;fill:#ffffff;fill-opacity:1;fill-rule:nonzero;stroke:none;stroke-width:1.07883px;marker:none;enable-background:accumulate" />
    <path
       sodipodi:nodetypes="csssssssc"
       inkscape:connector-curvature="0"
       id="path3286-6"
       d="m 639.00896,2837.0847 c -6.60022,-40.922 13.31901,-87.3367 27.63912,-101.9791 14.32012,-14.6424 39.95393,-23.6943 63.76261,-32.0964 19.72303,-6.9614 107.49018,-6.7219 169.80751,-5.755 52.19787,0.8104 108.1292,27.1143 120.7912,69.1168 12.662,42.0011 8.9036,116.9928 -6.5695,141.4687 -15.47297,24.4769 -30.68581,51.0238 -121.28889,60.6891 -90.60311,9.664 -202.88073,-5.6607 -229.60043,-54.9244 -15.06301,-27.7726 -24.54162,-76.5197 -24.54162,-76.5197 z"
       style="fill:#ffffff;stroke:none;stroke-width:1.03216" />
    <path
       sodipodi:nodetypes="cscssc"
       inkscape:connector-curvature="0"
       id="path4186-80"
       d="m 770.17916,2905.8157 c -37.0534,20.4212 33.28706,75.895 22.46288,93.9658 -7.4722,12.4745 -47.82201,-4.0185 -75.22579,52.2357 35.72049,-40.0521 72.16531,-14.9218 89.72928,-30.2585 33.3584,-29.127 -11.25452,-70.4044 -14.74009,-81.3044 -4.66176,-14.5778 -22.22628,-34.6386 -22.22628,-34.6386 z"
       style="display:inline;fill:#ffffff;fill-rule:evenodd;stroke:none;stroke-width:1px;stroke-linecap:butt;stroke-linejoin:miter;stroke-opacity:1" />
    <path
       sodipodi:nodetypes="csssssssc"
       inkscape:connector-curvature="0"
       id="path3286-6-3"
       d="m 1728.5312,1814.0137 c -4.7534,-33.3674 9.5916,-71.2135 19.9048,-83.1528 10.3127,-11.9391 28.7735,-19.3199 45.9198,-26.1709 14.2036,-5.6763 77.4108,-5.4809 122.2898,-4.6927 37.5911,0.6609 77.871,22.1087 86.9898,56.3571 9.1188,34.2472 6.4121,95.3947 -4.731,115.352 -11.1433,19.9584 -22.099,41.6045 -87.3484,49.4854 -65.2493,7.88 -146.1082,-4.6157 -165.3508,-44.7848 -10.8479,-22.6455 -17.674,-62.3933 -17.674,-62.3933 z"
       style="fill:#ffffff;stroke:none;stroke-width:0.875006" />
    <path
       sodipodi:nodetypes="csssssssc"
       inkscape:connector-curvature="0"
       id="path3286-6-3-2"
       d="m 1752.1989,1696.7319 c -3.5095,-14.3811 7.0817,-30.6925 14.696,-35.8382 7.6141,-5.1456 21.2439,-8.3267 33.9033,-11.2795 10.4869,-2.4464 57.1537,-2.3622 90.2885,-2.0225 27.7542,0.2848 57.4934,9.5287 64.2259,24.2895 6.7327,14.7603 4.7343,41.1144 -3.4929,49.7158 -8.2272,8.602 -16.316,17.9312 -64.4907,21.328 -48.1745,3.3961 -107.8739,-1.9894 -122.0811,-19.3021 -8.0093,-9.7599 -13.049,-26.891 -13.049,-26.891 z"
       style="fill:#ffffff;stroke:none;stroke-width:1" />
    <path
       sodipodi:nodetypes="cscsccc"
       inkscape:connector-curvature="0"
       id="path3365-7"
       d="m 1773.0815,2306.5516 c -2.3356,-15.0298 33.8048,-81.8506 176.2904,-71.8305 142.4854,10.0201 162.751,45.8404 164.1712,79.0615 -2.462,34.235 -31.029,59.2129 -52.0515,64.2233 -21.0224,5.0096 -52.6215,11.9635 -110.9519,13.0254 -67.3884,0.045 -107.1139,-2.0569 -149.7853,-29.3454 -40.7033,-24.2044 -25.337,-51.1264 -27.6729,-55.1343 z"
       style="color:#000000;display:inline;overflow:visible;visibility:visible;fill:#ffffff;fill-opacity:1;fill-rule:nonzero;stroke:none;stroke-width:1.176px;marker:none;enable-background:accumulate" />
    <path
       sodipodi:nodetypes="csssc"
       inkscape:connector-curvature="0"
       id="path3280-8-0-3"
       d="m 1876.0961,2049.8176 c -37.7215,0.2232 -75.4415,8.0412 -105.7316,22.6177 -17.9228,9.0803 -32.0369,22.0285 -35.5444,36.7655 -2.8319,10.8187 -2.8891,21.8251 -4.1604,32.7417 -1.4532,20.0555 1.548,40.5368 12.6247,59.4175 12.4548,19.3925 40.6597,34.3591 72.8626,37.8863 26.0588,3.448 52.8125,3.0212 79.164,4.877 41.8338,2.1388 84.0029,3.2459 125.8258,0.403 32.5602,-1.6074 65.7212,-2.8999 96.7938,-9.9142 22.6332,-5.4903 43.9296,-14.8831 56.3376,-28.5452 12.1611,-13.3537 15.5782,-29.1336 15.8779,-44.3878 0.9197,-19.7766 -2.6321,-40.1221 -15.876,-58.1783 -13.1492,-15.9497 -36.3641,-27.5855 -61.6998,-34.7323 -39.3646,-11.4925 -82.2466,-18.2916 -125.5446,-18.5957 -33.8549,-0.6651 -67.7287,-0.085 -101.5908,-0.3556 -3.1129,-0.01 -6.2259,-0.01 -9.3388,4e-4 z"
       style="fill:#ffffff;stroke:none;stroke-width:0.898286" />
    <path
       inkscape:connector-curvature="0"
       id="path3072-6"
       d="m 2043.5678,2501.161 c -35.0529,-23.7474 -46.172,-34.2743 -37.5356,-84.9721 8.6364,-50.6978 -9.5224,-52.9142 -9.5224,-52.9142 l -22.7877,26.3611 c 0,0 -11.1894,109.1725 69.8457,111.5252 z"
       style="color:#000000;display:inline;overflow:visible;visibility:visible;fill:#ffffff;fill-opacity:1;fill-rule:nonzero;stroke:none;stroke-width:1px;marker:none;enable-background:accumulate" />
    <path
       inkscape:connector-curvature="0"
       id="path3072-6-3"
       d="m 2020.2543,1993.5216 c -38.4707,-17.6819 -51.1646,-26.2444 -50.9531,-77.6721 0.2114,-51.4277 -18.0652,-50.6383 -18.0652,-50.6383 l -18.1596,29.7391 c 0,0 6.8528,109.5303 87.1779,98.5713 z"
       style="color:#000000;display:inline;overflow:visible;visibility:visible;fill:#ffffff;fill-opacity:1;fill-rule:nonzero;stroke:none;stroke-width:1px;marker:none;enable-background:accumulate" />
  </g>
  <g
     inkscape:label="txt"
     id="layer1"
     inkscape:groupmode="layer">
    <text
       xml:space="preserve"
       style="font-style:normal;font-variant:normal;font-weight:normal;font-stretch:normal;line-height:0%;font-family:'Xiaolai SC';-inkscape-font-specification:'Xiaolai SC';text-align:start;letter-spacing:0px;word-spacing:0px;text-anchor:start;fill:#000000;fill-opacity:1;stroke:none"
       x="1767.1522"
       y="1700.8147"
       id="text4178-3"><tspan
         id="tspan646"
         sodipodi:role="line"
         style="font-style:normal;font-variant:normal;font-weight:normal;font-stretch:normal;font-size:40.6767px;line-height:1.25;font-family:'Xiaolai SC';-inkscape-font-specification:'Xiaolai SC';text-align:start;text-anchor:start"
         x="1767.1522"
         y="1700.8147">这下…….</tspan></text>
    <text
       xml:space="preserve"
       style="font-style:normal;font-variant:normal;font-weight:normal;font-stretch:normal;line-height:0%;font-family:'Xiaolai SC';-inkscape-font-specification:'Xiaolai SC';text-align:start;letter-spacing:0px;word-spacing:0px;text-anchor:start;fill:#000000;fill-opacity:1;stroke:none"
       x="1768.942"
       y="1778.9541"
       id="text4178-3-36"><tspan
         id="tspan646-6"
         sodipodi:role="line"
         style="font-style:normal;font-variant:normal;font-weight:normal;font-stretch:normal;font-size:40.6767px;line-height:1.25;font-family:'Xiaolai SC';-inkscape-font-specification:'Xiaolai SC';text-align:start;text-anchor:start"
         x="1768.942"
         y="1778.9541">我们总算是</tspan><tspan
         id="tspan134"
         sodipodi:role="line"
         style="font-style:normal;font-variant:normal;font-weight:normal;font-stretch:normal;font-size:40.6767px;line-height:1.25;font-family:'Xiaolai SC';-inkscape-font-specification:'Xiaolai SC';text-align:start;text-anchor:start"
         x="1768.942"
         y="1829.7999">和它把帐</tspan><tspan
         id="tspan140"
         sodipodi:role="line"
         style="font-style:normal;font-variant:normal;font-weight:normal;font-stretch:normal;font-size:40.6767px;line-height:1.25;font-family:'Xiaolai SC';-inkscape-font-specification:'Xiaolai SC';text-align:start;text-anchor:start"
         x="1768.942"
         y="1880.6459">算清了。</tspan></text>
    <text
       xml:space="preserve"
       style="font-style:normal;font-variant:normal;font-weight:normal;font-stretch:normal;line-height:0%;font-family:'Xiaolai SC';-inkscape-font-specification:'Xiaolai SC';text-align:start;letter-spacing:0px;word-spacing:0px;text-anchor:start;fill:#000000;fill-opacity:1;stroke:none"
       x="1960.4072"
       y="2113.6885"
       id="text4178-3-3"><tspan
         id="tspan441"
         sodipodi:role="line"
         style="font-style:normal;font-variant:normal;font-weight:normal;font-stretch:normal;font-size:40.6767px;line-height:1.25;font-family:'Xiaolai SC';-inkscape-font-specification:'Xiaolai SC';text-align:center;text-anchor:middle"
         x="1960.4072"
         y="2113.6885">对！过程还挺艰难。</tspan><tspan
         id="tspan148"
         sodipodi:role="line"
         style="font-style:normal;font-variant:normal;font-weight:normal;font-stretch:normal;font-size:40.6767px;line-height:1.25;font-family:'Xiaolai SC';-inkscape-font-specification:'Xiaolai SC';text-align:center;text-anchor:middle"
         x="1960.4072"
         y="2164.5344">难怪之前那么多人</tspan><tspan
         id="tspan150"
         sodipodi:role="line"
         style="font-style:normal;font-variant:normal;font-weight:normal;font-stretch:normal;font-size:40.6767px;line-height:1.25;font-family:'Xiaolai SC';-inkscape-font-specification:'Xiaolai SC';text-align:center;text-anchor:middle"
         x="1960.4072"
         y="2215.3801">都垮在这里。</tspan></text>
    <text
       xml:space="preserve"
       style="font-style:normal;font-variant:normal;font-weight:normal;font-stretch:normal;line-height:0%;font-family:'Xiaolai SC';-inkscape-font-specification:'Xiaolai SC';text-align:start;letter-spacing:0px;word-spacing:0px;text-anchor:start;fill:#000000;fill-opacity:1;stroke:none"
       x="1808.8904"
       y="2294.5156"
       id="text4178-3-3-8"><tspan
         id="tspan875-2"
         sodipodi:role="line"
         style="font-style:normal;font-variant:normal;font-weight:normal;font-stretch:normal;font-size:40.6767px;line-height:1.25;font-family:'Xiaolai SC';-inkscape-font-specification:'Xiaolai SC';text-align:start;text-anchor:start"
         x="1808.8904"
         y="2294.5156">布拉斯克，</tspan><tspan
         id="tspan152"
         sodipodi:role="line"
         style="font-style:normal;font-variant:normal;font-weight:normal;font-stretch:normal;font-size:40.6767px;line-height:1.25;font-family:'Xiaolai SC';-inkscape-font-specification:'Xiaolai SC';text-align:start;text-anchor:start"
         x="1808.8904"
         y="2345.3616">你还撑得住么？</tspan></text>
    <text
       xml:space="preserve"
       style="font-style:normal;font-variant:normal;font-weight:normal;font-stretch:normal;font-size:16.0044px;line-height:0%;font-family:'Xiaolai SC';-inkscape-font-specification:'Xiaolai SC';text-align:start;letter-spacing:0px;word-spacing:0px;text-anchor:start;fill:#000000;fill-opacity:1;stroke:none;stroke-width:1"
       x="134.07756"
       y="2790.9871"
       id="text4178-3-3-8-3"><tspan
         id="tspan875-2-7"
         sodipodi:role="line"
         style="font-style:normal;font-variant:normal;font-weight:normal;font-stretch:normal;font-size:54.2508px;line-height:1.25;font-family:'Xiaolai SC';-inkscape-font-specification:'Xiaolai SC';text-align:start;text-anchor:start;stroke-width:1"
         x="134.07756"
         y="2790.9871">布拉斯克？…布拉斯克！ </tspan></text>
    <text
       xml:space="preserve"
       style="font-style:normal;font-variant:normal;font-weight:normal;font-stretch:normal;font-size:12.743px;line-height:0%;font-family:'Xiaolai SC';-inkscape-font-specification:'Xiaolai SC';text-align:start;letter-spacing:0px;word-spacing:0px;text-anchor:start;fill:#000000;fill-opacity:1;stroke:none;stroke-width:1"
       x="869.03766"
       y="2763.3433"
       id="text4178-3-3-8-5"><tspan
         id="tspan454"
         sodipodi:role="line"
         style="font-style:normal;font-variant:normal;font-weight:normal;font-stretch:normal;font-size:43.1951px;line-height:1.25;font-family:'Xiaolai SC';-inkscape-font-specification:'Xiaolai SC';text-align:center;text-anchor:middle;stroke-width:1"
         x="869.03766"
         y="2763.3433">糟糕，</tspan><tspan
         id="tspan160"
         sodipodi:role="line"
         style="font-style:normal;font-variant:normal;font-weight:normal;font-stretch:normal;font-size:43.1951px;line-height:1.25;font-family:'Xiaolai SC';-inkscape-font-specification:'Xiaolai SC';text-align:center;text-anchor:middle;stroke-width:1"
         x="869.03766"
         y="2817.3372">我刚才没注意</tspan><tspan
         id="tspan162"
         sodipodi:role="line"
         style="font-style:normal;font-variant:normal;font-weight:normal;font-stretch:normal;font-size:43.1951px;line-height:1.25;font-family:'Xiaolai SC';-inkscape-font-specification:'Xiaolai SC';text-align:center;text-anchor:middle;stroke-width:1"
         x="869.03766"
         y="2871.3311">你竟然伤的</tspan><tspan
         id="tspan164"
         sodipodi:role="line"
         style="font-style:normal;font-variant:normal;font-weight:normal;font-stretch:normal;font-size:43.1951px;line-height:1.25;font-family:'Xiaolai SC';-inkscape-font-specification:'Xiaolai SC';text-align:center;text-anchor:middle;stroke-width:1"
         x="869.03766"
         y="2925.325">这么严重！</tspan></text>
    <text
       xml:space="preserve"
       style="font-style:normal;font-variant:normal;font-weight:normal;font-stretch:normal;font-size:17.5168px;line-height:0%;font-family:'Xiaolai SC';-inkscape-font-specification:'Xiaolai SC';text-align:start;letter-spacing:0px;word-spacing:0px;text-anchor:start;fill:#000000;fill-opacity:1;stroke:none;stroke-width:1"
       x="1918.531"
       y="2809.6079"
       id="text4178-3-3-8-3-2"><tspan
         id="tspan875-2-7-2"
         sodipodi:role="line"
         style="font-style:normal;font-variant:normal;font-weight:normal;font-stretch:normal;font-size:59.3774px;line-height:1.25;font-family:'Xiaolai SC';-inkscape-font-specification:'Xiaolai SC';text-align:start;text-anchor:start;stroke-width:1"
         x="1918.531"
         y="2809.6079"><tspan
           id="tspan1258-8"
           style="font-style:normal;font-variant:normal;font-weight:normal;font-stretch:normal;font-family:'Xiaolai SC';-inkscape-font-specification:'Xiaolai SC';stroke-width:1">愈疗师！</tspan></tspan></text>
    <text
       xml:space="preserve"
       style="font-style:normal;font-variant:normal;font-weight:normal;font-stretch:normal;font-size:15.6623px;line-height:0%;font-family:'Xiaolai SC';-inkscape-font-specification:'Xiaolai SC';text-align:start;letter-spacing:0px;word-spacing:0px;text-anchor:start;fill:#000000;fill-opacity:1;stroke:none;stroke-width:1"
       x="2130.3899"
       y="2902.3738"
       id="text4178-3-3-8-3-2-9"><tspan
         id="tspan1366"
         sodipodi:role="line"
         style="font-style:normal;font-variant:normal;font-weight:normal;font-stretch:normal;font-size:53.0911px;line-height:1.25;font-family:'Xiaolai SC';-inkscape-font-specification:'Xiaolai SC';text-align:center;text-anchor:middle;stroke-width:1"
         x="2130.3899"
         y="2902.3738">这里有伤员，</tspan><tspan
         id="tspan168"
         sodipodi:role="line"
         style="font-style:normal;font-variant:normal;font-weight:normal;font-stretch:normal;font-size:53.0911px;line-height:1.25;font-family:'Xiaolai SC';-inkscape-font-specification:'Xiaolai SC';text-align:center;text-anchor:middle;stroke-width:1"
         x="2130.3899"
         y="2968.7375">快！</tspan></text>
    <text
       id="text126"
       y="0"
       x="0"
       style="font-size:40px;line-height:125%;font-family:sans-serif;letter-spacing:0px;word-spacing:0px;fill:none;stroke:#000000;stroke-width:1px;stroke-linecap:butt;stroke-linejoin:miter;stroke-opacity:1"
       xml:space="preserve"><tspan
         y="0"
         x="0"
         id="tspan124"
         sodipodi:role="line">x</tspan></text>
  </g>
</svg>
