{
   "id": 29,
   "original-language": "fr",
   "supporters": 960,
   "published": "2019-04-25",
   "pluxmlID": 462,
   "background-color": "#FFFFFF",
   "public": 1,
   "related-urls": [
        "https://www.davidrevoy.com/article706/production-report-episode-29-part-1",
        "https://www.davidrevoy.com/article715/production-report-episode-29-part-2",
        "https://www.davidrevoy.com/article718/production-report-ep29-part-3-coloring-and-shading"
  ],
   "credits": {
      "art":[
         "David Revoy <https://framagit.org/Deevad>"
      ],
      "scenario":[
         "David Revoy <https://framagit.org/Deevad>"
      ],
      "beta-readers":[
         "Craig Maloney <https://framagit.org/craigmaloney>",
         "CalimeroTeknik <https://framagit.org/calimeroteknik>",
         "Martin Disch <https://framagit.org/martindisch>",
         "Nicolas Artance <https://framagit.org/Nartance>",
         "Valvin <https://framagit.org/valvin>"
      ]
   },
   "software":[
      {
         "name": "Krita",
         "version": "4.1.5"
      },
      {
         "name": "Inkscape",
         "version": "0.92.3"
      },
      {
         "name": "Kubuntu",
         "version": "18.04.1"
      }
   ],
   "notes":[
      {
         "author": "David Revoy <https://framagit.org/Deevad>",
         "text":[
            "For this new episode, I tried an original take on the classic 'a hero saves the world from the attack of a large creature'. This chapter closes the trilogy about Coriander's coronation and now Pepper is offially accepted and part of Chaosah. This is also the end of a sort of 'Season 3' in my mind. Under the story of this episode hides a deeper thinking about our small daily actions to make this world a better place. Sometime we don't notice any direct effect but as part of the bigger picture they can certainly have very large, hidden, effects. Maybe we all already saved the world twice today without even noticing it!"
         ]
      }
   ]
}
