<?xml version="1.0" encoding="UTF-8" standalone="no"?>
<!-- Created with Inkscape (http://www.inkscape.org/) -->

<svg
   xmlns:dc="http://purl.org/dc/elements/1.1/"
   xmlns:cc="http://creativecommons.org/ns#"
   xmlns:rdf="http://www.w3.org/1999/02/22-rdf-syntax-ns#"
   xmlns:svg="http://www.w3.org/2000/svg"
   xmlns="http://www.w3.org/2000/svg"
   xmlns:xlink="http://www.w3.org/1999/xlink"
   xmlns:sodipodi="http://sodipodi.sourceforge.net/DTD/sodipodi-0.dtd"
   xmlns:inkscape="http://www.inkscape.org/namespaces/inkscape"
   id="svg2"
   version="1.1"
   inkscape:version="0.92.4 (5da689c313, 2019-01-14)"
   width="2481"
   height="3503"
   sodipodi:docname="E32P05.svg">
  <metadata
     id="metadata8">
    <rdf:RDF>
      <cc:Work
         rdf:about="">
        <dc:format>image/svg+xml</dc:format>
        <dc:type
           rdf:resource="http://purl.org/dc/dcmitype/StillImage" />
        <dc:title />
      </cc:Work>
    </rdf:RDF>
  </metadata>
  <defs
     id="defs6">
    <filter
       style="color-interpolation-filters:sRGB"
       id="filter4375-4-1-1-1-9-6-9-2-1-7-1"
       inkscape:label="deevad outline effect">
      <feFlood
         id="feFlood4377-7-9-0-8-1-0-2-2-06-3-9"
         flood-opacity="1"
         flood-color="rgb(0,0,0)"
         result="flood" />
      <feComposite
         id="feComposite4379-3-8-8-2-77-6-0-8-3-6-4"
         in2="SourceGraphic"
         in="flood"
         operator="in"
         result="composite1" />
      <feMorphology
         id="feMorphology4393-1-0-49-8-9-2-2-9-2-1-7"
         operator="dilate"
         radius="4"
         result="result3" />
      <feComposite
         id="feComposite4385-9-5-7-0-8-6-3-7-0-2-8"
         in2="result3"
         in="SourceGraphic"
         operator="over"
         result="composite2" />
    </filter>
    <filter
       style="color-interpolation-filters:sRGB"
       id="filter4375-4-1-1-1-9-6-9-2-1-7-1-2"
       inkscape:label="deevad outline effect">
      <feFlood
         id="feFlood4377-7-9-0-8-1-0-2-2-06-3-9-7"
         flood-opacity="1"
         flood-color="rgb(0,0,0)"
         result="flood" />
      <feComposite
         id="feComposite4379-3-8-8-2-77-6-0-8-3-6-4-0"
         in2="SourceGraphic"
         in="flood"
         operator="in"
         result="composite1" />
      <feMorphology
         id="feMorphology4393-1-0-49-8-9-2-2-9-2-1-7-9"
         operator="dilate"
         radius="4"
         result="result3" />
      <feComposite
         id="feComposite4385-9-5-7-0-8-6-3-7-0-2-8-3"
         in2="result3"
         in="SourceGraphic"
         operator="over"
         result="composite2" />
    </filter>
    <filter
       style="color-interpolation-filters:sRGB"
       id="filter4375-4-1-1-1-9"
       inkscape:label="deevad outline effect">
      <feFlood
         id="feFlood4377-7-9-0-8-1"
         flood-opacity="1"
         flood-color="rgb(0,0,0)"
         result="flood" />
      <feComposite
         id="feComposite4379-3-8-8-2-77"
         in2="SourceGraphic"
         in="flood"
         operator="in"
         result="composite1" />
      <feMorphology
         id="feMorphology4393-1-0-49-8-9"
         operator="dilate"
         radius="4"
         result="result3" />
      <feComposite
         id="feComposite4385-9-5-7-0-8"
         in2="result3"
         in="SourceGraphic"
         operator="over"
         result="composite2" />
    </filter>
    <filter
       inkscape:collect="always"
       style="color-interpolation-filters:sRGB"
       id="filter1101"
       x="-0.12972304"
       width="1.2594461"
       y="-0.36928496"
       height="1.7385699">
      <feGaussianBlur
         inkscape:collect="always"
         stdDeviation="22.559027"
         id="feGaussianBlur1103" />
    </filter>
  </defs>
  <sodipodi:namedview
     pagecolor="#ffffff"
     bordercolor="#666666"
     borderopacity="1"
     objecttolerance="10"
     gridtolerance="10"
     guidetolerance="10"
     inkscape:pageopacity="0"
     inkscape:pageshadow="2"
     inkscape:window-width="1920"
     inkscape:window-height="1017"
     id="namedview4"
     showgrid="false"
     inkscape:zoom="0.52900001"
     inkscape:cx="1109.3684"
     inkscape:cy="740.88949"
     inkscape:window-x="-8"
     inkscape:window-y="-8"
     inkscape:window-maximized="1"
     inkscape:current-layer="layer1"
     inkscape:snap-global="false" />
  <g
     inkscape:groupmode="layer"
     id="layer2"
     inkscape:label="artwork"
     sodipodi:insensitive="true">
    <image
       sodipodi:absref="C:\Users\Xan\Documents\git\webcomics\ep32_The-Battlefield\lang\pt\../gfx_Pepper-and-Carrot_by-David-Revoy_E32P05.png"
       xlink:href="../gfx_Pepper-and-Carrot_by-David-Revoy_E32P05.png"
       width="2481"
       height="3503"
       id="image10"
       x="0"
       y="0" />
  </g>
  <g
     inkscape:groupmode="layer"
     id="layer3"
     inkscape:label="speechbubbles"
     style="display:inline">
    <path
       style="display:inline;fill:#ffffff;fill-rule:evenodd;stroke:none;stroke-width:0.92778838px;stroke-linecap:butt;stroke-linejoin:miter;stroke-opacity:1"
       d="m 1193.4864,1463.957 c -0.8383,10.9428 -0.275,22.5718 -4.8014,32.5871 -5.9218,10.9342 -17.151,16.623 -27.992,17.0951 -10.2215,0.5421 -20.5128,-1.3381 -30.1469,-5.3189 -2.8167,1.8776 -2.1031,6.844 0.2498,8.8192 5.5009,9.2679 11.0185,19.4396 11.3759,31.0363 0.6424,8.0174 -2.6342,17.061 -9.3335,20.2527 -5.0702,2.5551 -10.7272,2.0176 -16.1036,1.6848 1.4307,3.2226 4.3551,4.9871 6.1775,7.8619 3.8347,4.5439 7.6444,10.4496 6.9217,17.1846 -1.0528,9.2375 -7.7617,16.5786 -15.3239,18.8827 -2.8411,1.6961 -5.6822,3.3923 -8.5234,5.0884 14.0276,-0.8155 28.4181,-2.7152 42.162,1.7226 7.7173,3.3543 9.7655,16.9548 3.5071,23.1699 -4.6869,6.3539 -10.5392,11.3083 -15.918,16.8125 20.1421,-3.4291 40.2585,-9.3587 60.7648,-7.7721 5.5527,0.3856 11.4707,1.4594 15.7852,5.9033 3.5923,3.3093 6.4377,7.6649 8.3405,12.5017 6.408,2.6087 13.0858,-0.3538 19.2278,-2.5664 14.1498,-5.4376 27.7448,-12.9953 42.4248,-16.4376 3.0888,0.7788 5.6702,3.5474 6.7904,6.9493 6.8994,2.2412 13.7588,-1.3097 20.4817,-2.7571 5.3716,-1.3461 10.7873,-2.7699 16.3104,-2.8015 2.6681,3.638 6.2379,7.4776 10.6809,6.9019 13.281,0.835 26.9878,-0.6599 39.7952,4.3807 7.9654,4.1195 14.1743,11.8812 18.3738,20.6256 13.6079,-8.9909 25.2915,-22.0493 40.3143,-28.0098 10.327,-4.3383 22.9743,-2.6979 31.1621,6.2522 2.3087,2.5261 4.297,5.411 6.1798,8.3669 6.0023,-5.1811 11.148,-12.4992 18.7491,-14.5117 11.0651,-3.9962 22.8163,-1.6573 33.8903,1.0176 9.7969,2.161 19.5334,4.68 29.2181,7.4375 -5.2642,-5.1788 -9.6739,-12.5211 -9.6788,-20.8125 1.4128,-6.7253 7.4193,-11.6557 13.349,-10.9355 -1.6965,-4.2752 -2.4912,-10.1594 0.6859,-13.7996 5.0437,-5.6264 12.3679,-6.5322 18.9993,-7.2891 1.7508,-0.2719 3.5017,-0.5438 5.2525,-0.8156 -11.7475,-7.597 -14.9616,-28.2054 -6.1954,-40.0703 5.7648,-7.0826 12.9395,-12.34 20.2842,-16.9258 -10.5417,-0.6773 -21.2312,2.2892 -31.6543,-0.584 -5.8205,-4.2904 -8.2448,-12.2299 -12.6553,-18.0419 -2.4434,-5.7999 0.069,-13.0044 4.4365,-16.5283 9.4215,-11.0312 18.4348,-22.641 25.7725,-35.6784 4.2589,-7.1868 8.179,-14.6358 11.9553,-22.1752 -12.4662,19.6818 -29.8668,35.769 -50.2411,42.6724 -6.7579,2.4632 -13.7032,5.5553 -20.9155,4.5815 -3.597,-1.9666 -6.6591,-5.992 -10.928,-5.7344 -7.6008,3.3561 -15.2016,6.7122 -22.8025,10.0683 -2.241,-2.0256 -3.916,-4.8843 -4.6991,-8.0566 -7.3307,0.411 -14.931,-1.0989 -21.2508,-5.6133 -3.1297,-5.9477 -3.5627,-13.616 -1.2945,-20.0469 -10.2248,8.4929 -19.07,18.932 -28.6247,28.3672 -9.7489,-2.193 -17.7998,-10.7951 -27.979,-10.9922 -27.4633,-2.6757 -55.0893,-5.4418 -82.6457,-3.0677 -13.3157,2.452 -26.7335,6.9416 -40.3182,4.6844 -13.3008,-1.6019 -26.9449,-4.4384 -40.1752,-0.6881 -6.6172,1.796 -14.1696,2.7429 -20.2195,-1.6373 -9.646,-6.4628 -15.7649,-17.6313 -22.9353,-27.1508 -1.9704,-2.7756 -3.9949,-5.4987 -6.0526,-8.1873 -0.07,0.6992 -0.1402,1.3984 -0.2102,2.0976 z"
       id="path4508-9"
       inkscape:connector-curvature="0"
       sodipodi:nodetypes="cccccccccccccccccccccccccccccccccccccccccccccccccccc" />
    <path
       style="display:inline;fill:#ffffff;fill-rule:evenodd;stroke:none;stroke-width:0.94150746px;stroke-linecap:butt;stroke-linejoin:miter;stroke-opacity:1"
       d="m 1246.8958,1551.6001 c -0.5396,14.9763 -2.8952,30.4744 -10.336,43.1992 -13.1938,9.9032 -32.1339,8.0436 -43.8214,-3.9336 -3.1259,1.0549 -2.5312,5.9619 -0.5827,7.9977 4.0469,13.7745 8.1929,27.5385 11.2216,41.6546 -3.9793,4.279 -11.3915,2.8847 -13.9267,-2.6171 1.2117,8.6577 8.066,15.0735 8.229,24.0527 -2.8743,6.8509 -8.0234,8.5402 -17.8372,10.7721 4.7091,6.4634 10.3076,13.6119 9.9243,22.5472 -0.3219,10.3506 -7.9541,18.5756 -16.2033,21.838 -1.0842,0.4177 -0.6098,1.3365 0.3728,1.0804 14.4478,2.5904 29.7763,0.1279 43.4855,6.9673 9.7719,3.8318 18.1633,14.403 17.7548,26.5313 -0.1615,2.4172 -1.0995,4.6955 -1.1202,7.1289 8.8508,-3.685 17.5715,-8.7143 27.18,-9.1211 3.8182,2.217 4.6387,8.9238 1.4284,12.1739 10.9663,-0.8761 18.6316,-12.6591 29.7917,-12.661 3.6059,-0.2209 7.0071,3.728 6.2964,7.7668 1.6907,2.4778 5.0653,-3.4752 7.2972,-3.6732 6.3389,-1.7096 5.346,-2.3202 11.9638,-2.6628 2.3623,1.0566 5.3572,1.9214 8.1558,6.7575 4.6844,-1.6599 6.8257,-3.2964 9.8172,-3.2618 9.6949,-1.9429 15.8161,-9.5681 29.4144,-4.0373 9.054,2.6901 13.6407,11.4501 18.7101,16.5363 2.8481,-4.9904 6.2298,-8.3773 9.1641,-11.6886 5.2823,-9.0484 15.1185,-11.7554 24.474,-13.0204 8.0154,-2.4924 16.3036,1.1364 24.4127,4.914 4.9577,2.837 9.3638,6.8716 14.6339,9.009 4.1305,-2.9935 8.6191,-7.6176 13.9257,-5.8788 5.4877,1.2629 10.293,4.7237 15.6002,6.6014 -3.1224,-5.2749 -8.0012,-9.9378 -8.3381,-16.6953 2.0392,-4.1426 6.3025,-5.7219 10.1092,-6.8906 -0.1752,-5.8386 3.9977,-10.7273 8.6324,-12.6035 0.9758,-4.2932 -3.4343,-6.3524 -4.855,-9.6772 -3.4959,-6.1856 -2.0112,-16.333 4.593,-18.9876 3.8031,-1.6863 8.1069,-1.1902 11.822,-3.2024 -0.1596,-3.6135 -4.0939,-3.559 -6.3764,-4.4551 -6.6258,-2.3525 -14.0669,-5.8666 -16.9277,-13.6003 -1.1439,-4.5717 2.194,-8.5977 2.2856,-12.9751 -1.6794,-3.1602 -5.7769,-5.5187 -4.7819,-9.8157 2.447,-12.6493 11.112,-21.8467 17.2133,-32.3092 9.1252,-14.1637 18.2503,-28.3274 27.3754,-42.4911 -14.9365,16.7767 -29.8162,33.8856 -47.2253,47.4531 -4.1844,-0.2747 -6.5519,-6.8783 -3.7136,-10.3574 -6.2641,1.8352 -10.5512,7.7663 -16.1515,11.041 -2.2252,-3.2623 -1.9283,-8.188 0.3791,-11.2968 -2.9125,-2.8821 -6.8878,2.6571 -9.6503,-0.7012 -3.6547,-4.4836 -1.9007,-10.9601 -1.0816,-16.2618 0.9482,-5.1539 2.347,-10.1858 3.3254,-15.332 -9.7318,12.8442 -16.5567,28.756 -28.8572,38.929 -2.0825,1.8328 -5.2078,2.7874 -7.3744,0.5686 -2.0552,-1.538 -3.5082,-4.1363 -3.6874,-6.9312 -7.4645,0.8047 -14.0594,7.2402 -21.794,5.5059 -8.1535,-4.4956 -17.8257,-2.5912 -25.7742,1.5215 -7.6677,-0.014 -13.4423,-8.2277 -21.2743,-7.1392 -4.8842,-0.9398 -8.0137,-5.8572 -10.6908,-9.9732 -4.8238,-0.6012 -7.3628,5.1911 -11.4254,6.9807 -9.9273,5.829 -22.429,2.6338 -30.8859,-4.9761 -1.9652,-2.1426 -4.8437,-4.8476 -7.6446,-2.7953 -3.1814,1.7483 -4.4239,6.6255 -8.0467,7.4051 -5.8952,0.772 -10.9349,-5.2245 -11.6674,-11.485 -6.3891,-15.108 -11.3567,-30.9005 -16.8841,-46.4174 -0.018,0.9974 -0.035,1.9948 -0.054,2.9922 z"
       id="path4508-9-6"
       inkscape:connector-curvature="0"
       sodipodi:nodetypes="cccccccccccccccccccccccccccccccccccccccccccccccccccccccccccccccc" />
    <path
       style="color:#000000;display:inline;overflow:visible;visibility:visible;fill:#ffffff;fill-opacity:1;fill-rule:nonzero;stroke:none;stroke-width:0.99999994px;marker:none;enable-background:accumulate"
       d="m 1322.5586,1728.1016 c -11.0094,9.9702 -17.1146,23.8053 -25.197,35.9928 -5.7365,9.1028 -17.9114,24.8135 -26.046,32.2016 7.6812,0.2097 5.7344,0.8326 10.9478,2.0534 3.3706,1.3513 7.7807,2.3941 9.3038,6.0235 -1.4478,7.677 -8.2527,12.4101 -13.2117,17.8317 -21.2393,19.7738 -50.3466,30.4414 -79.2715,30.188 30.5673,5.5836 63.676,0.269 89.5548,-17.4158 15.5847,-11.4657 31.0045,-29.6098 44.4036,-43.4287 -3.8521,-0.6581 -8.7325,-0.5391 -12.6274,-0.7071 -7.2015,-0.9549 -9.1708,-6.0664 -6.2213,-10.4154 3.8653,-10.2383 12.9809,-16.9751 20.7567,-24.1405 4.6114,-3.9349 9.2499,-7.8384 13.8074,-11.8359 -7.5773,-6.8137 -16.4342,-11.9448 -25.0566,-17.289 -0.3809,0.3138 -0.7617,0.6276 -1.1426,0.9414 z"
       id="path5066-6"
       inkscape:connector-curvature="0"
       sodipodi:nodetypes="ccccccccccccccc" />
    <path
       style="color:#000000;display:inline;overflow:visible;visibility:visible;fill:#ffffff;fill-opacity:1;fill-rule:nonzero;stroke:none;stroke-width:1.07503676px;marker:none;enable-background:accumulate"
       d="m 1438.3881,355.47571 c -46.641,1.56885 -93.7485,9.04093 -135.0727,26.42932 -16.6557,7.72462 -31.0585,19.97094 -35.0152,35.07399 -1.4879,14.86684 7.4204,29.5407 20.9,39.81667 13.6215,9.68135 31.9061,13.94957 49.7318,16.32272 62.4582,11.04226 126.6639,15.05977 190.6219,15.05427 38.2314,1.1268 76.8884,1.52522 114.5976,-4.25109 25.7248,-2.77574 51.5888,-7.29498 74.597,-16.97571 18.297,-7.2199 33.836,-19.95299 39.0393,-35.62661 3.4216,-11.99215 0.5328,-24.79439 -6.4972,-35.6868 -6.49,-9.0593 -17.9692,-15.62515 -30.7593,-18.38008 -22.9131,-6.23528 -47.1411,-8.50314 -70.9128,-11.8868 -69.8639,-8.17039 -140.6916,-9.72031 -211.2304,-9.88988 z"
       id="path3365-74"
       inkscape:connector-curvature="0"
       sodipodi:nodetypes="csssssc" />
    <path
       style="display:inline;fill:#ffffff;fill-rule:evenodd;stroke:none;stroke-width:1.05369806px;stroke-linecap:butt;stroke-linejoin:miter;stroke-opacity:1"
       d="m 1464.883,124.9505 c -32.3014,0.38599 -65.1812,-1.22989 -96.7424,6.98826 -21.067,5.52943 -40.726,19.43318 -49.979,39.54702 -6.5002,15.81305 -1.1266,34.66567 10.523,46.63739 6.452,6.76206 13.616,13.60859 22.7495,16.42522 8.4353,2.54143 17.3002,0.99986 25.9455,1.29424 15.8623,-0.14066 31.7217,0.44407 47.5443,1.51249 62.685,2.41748 125.437,1.62733 188.1418,0.57368 20.6846,-0.7183 41.9984,-1.89015 61.2357,-10.24833 12.2976,-5.74789 22.6829,-16.63156 25.6092,-30.14875 3.9505,-14.82251 1.0544,-32.22842 -10.3128,-43.13396 -10.6302,-10.48285 -24.6723,-16.54769 -38.5813,-21.35899 -18.3747,-5.79725 -37.8452,-6.40673 -56.9555,-6.02763 -25.1829,-0.37607 -50.3627,-0.89413 -75.538,-1.61992 -17.877,-0.44807 -35.7586,-0.48431 -53.64,-0.44072 z"
       id="path1297"
       inkscape:connector-curvature="0" />
    <path
       style="display:inline;fill:#ffffff;fill-rule:evenodd;stroke:none;stroke-width:1.18019247px;stroke-linecap:butt;stroke-linejoin:miter;stroke-opacity:1"
       d="m 1613.1894,208.38604 c -71.8966,2.36382 -143.8166,4.31977 -215.6778,7.3593 -18.4439,0.93053 -36.9896,1.35654 -55.2094,4.11747 -20.9018,3.01229 -41.7111,7.62554 -60.6878,15.60331 -16.8202,8.42151 -28.1023,22.23959 -38.6501,35.57617 -5.2814,6.6825 -8.8839,14.37755 -9.04,22.43246 -0.7745,13.87734 4.1169,27.43167 9.3607,40.45484 4.8263,11.01406 12.9861,21.14699 24.348,28.26521 13.4362,8.98912 28.6207,16.62526 45.3679,20.4878 11.5007,2.67817 23.5242,2.98826 35.3898,2.68808 29.0159,-0.0612 58.0309,0.0476 87.046,0.12782 80.6001,-0.009 161.3467,0.0867 241.7104,-5.67886 17.004,-1.26073 33.9635,-4.26979 49.718,-9.79302 12.9488,-4.42698 23.8827,-11.97797 33.5658,-20.20679 8.9967,-7.83016 15.929,-17.65192 17.4771,-28.51841 2.9389,-15.53143 1.1394,-31.30416 2.0625,-46.93465 -0.8324,-12.50531 -9.6429,-23.83333 -21.3417,-31.44112 -17.4043,-13.0573 -38.463,-23.27715 -61.7031,-27.05856 -18.2342,-3.31752 -36.8227,-5.09184 -55.3676,-6.72014 -9.4343,-0.63527 -18.9048,-0.87333 -28.3687,-0.76091 z"
       id="path1299"
       inkscape:connector-curvature="0" />
    <path
       style="display:inline;fill:#ffffff;fill-rule:evenodd;stroke:none;stroke-width:1px;stroke-linecap:butt;stroke-linejoin:miter;stroke-opacity:1"
       d="m 1516.8322,467.18878 c -6.6131,0.47706 -14.4131,0.53134 -19.0606,6.05273 -9.2681,15.84095 -16.7496,33.90699 -15.1611,52.61768 2.1917,20.11622 13.9704,37.89228 28.3815,51.53834 8.5346,8.09616 15.6793,18.09456 18.3938,29.69937 4.3317,16.40289 0.7816,35.11834 -10.8279,47.78415 -2.1207,2.52133 -4.4197,4.88481 -6.7453,7.21593 17.3235,-9.37091 31.4532,-26.25408 34.2349,-46.13162 1.2634,-15.92483 -6.122,-31.08454 -15.4694,-43.50249 -9.5013,-13.2266 -21.135,-25.79068 -25.2403,-41.97989 -3.1205,-17.66298 3.3092,-35.58183 12.9847,-50.18689 1.9316,-3.08666 4.9581,-6.76026 3.4836,-10.5888 -1.0225,-1.66362 -3.0088,-2.74768 -4.9739,-2.51851 z"
       id="path1303"
       inkscape:connector-curvature="0"
       sodipodi:nodetypes="cccccccc" />
    <path
       style="color:#000000;display:inline;overflow:visible;visibility:visible;fill:#ffffff;fill-opacity:1;fill-rule:nonzero;stroke:none;stroke-width:1px;marker:none;filter:url(#filter1101);enable-background:accumulate"
       d="m 2064.5541,245.38398 c -39.6392,1.7245 -79.6747,9.93788 -114.7951,29.05136 -14.1553,8.49097 -26.3959,21.95224 -29.7587,38.55366 -1.2644,16.34177 6.3065,32.47141 17.7626,43.76686 11.5765,10.64183 27.1161,15.33349 42.2658,17.94208 53.0817,12.13776 107.6486,16.55384 162.005,16.5478 32.4919,1.23859 65.3456,1.67653 97.3937,-4.67284 21.8628,-3.05112 43.8441,-8.01871 63.3983,-18.65986 15.5501,-7.93618 28.7562,-21.93251 33.1784,-39.16111 2.9079,-13.18188 0.453,-27.25422 -5.5218,-39.22726 -5.5156,-9.95807 -15.2715,-17.17531 -26.1416,-20.20356 -19.4733,-6.85388 -40.064,-9.34673 -60.267,-13.06608 -59.3757,-8.98097 -119.5704,-10.68466 -179.5196,-10.87105 z"
       id="path3365-74-3"
       inkscape:connector-curvature="0"
       sodipodi:nodetypes="csssssc" />
  </g>
  <g
     inkscape:groupmode="layer"
     id="layer1"
     inkscape:label="txt"
     style="display:inline">
    <text
       xml:space="preserve"
       style="font-style:normal;font-variant:normal;font-weight:normal;font-stretch:normal;line-height:0%;font-family:Lavi;-inkscape-font-specification:Lavi;text-align:center;letter-spacing:0px;word-spacing:0px;text-anchor:middle;fill:#000000;fill-opacity:1;stroke:none"
       x="1509.0961"
       y="197.70142"
       id="text4246-86"><tspan
         sodipodi:role="line"
         style="font-size:45px;line-height:1.20000005"
         x="1509.0961"
         y="197.70142"
         id="tspan1167">Sério, Carrot?</tspan></text>
    <text
       xml:space="preserve"
       style="font-style:normal;font-variant:normal;font-weight:normal;font-stretch:normal;line-height:0%;font-family:Lavi;-inkscape-font-specification:Lavi;text-align:center;letter-spacing:0px;word-spacing:0px;text-anchor:middle;fill:#000000;fill-opacity:1;stroke:none"
       x="1510.4191"
       y="292.72693"
       id="text4246-86-3"><tspan
         sodipodi:role="line"
         style="font-size:45px;line-height:1.20000005"
         x="1510.4191"
         y="292.72693"
         id="tspan857">Espero que essa comida</tspan><tspan
         sodipodi:role="line"
         style="font-size:45px;line-height:1.20000005"
         x="1510.4191"
         y="346.72693"
         id="tspan855">tenha valido a pena.</tspan></text>
    <text
       xml:space="preserve"
       style="font-style:normal;font-variant:normal;font-weight:normal;font-stretch:normal;line-height:0%;font-family:Lavi;-inkscape-font-specification:Lavi;text-align:center;letter-spacing:0px;word-spacing:0px;text-anchor:middle;fill:#000000;fill-opacity:1;stroke:none"
       x="1521.1128"
       y="437.07376"
       id="text4246-86-3-7"><tspan
         sodipodi:role="line"
         style="font-size:45px;line-height:1.20000005"
         x="1521.1128"
         y="437.07376"
         id="tspan855-5">Você está horrível...</tspan></text>
    <text
       xml:space="preserve"
       style="font-style:normal;font-variant:normal;font-weight:normal;font-stretch:normal;line-height:0%;font-family:Lavi;-inkscape-font-specification:Lavi;letter-spacing:0px;word-spacing:0px;display:inline;fill:#ffffff;fill-opacity:1;stroke:#ffffff;stroke-width:1.14998245;stroke-miterlimit:4;stroke-dasharray:none;stroke-opacity:1;filter:url(#filter4375-4-1-1-1-9-6-9-2-1-7-1)"
       x="787.65729"
       y="1584.5073"
       id="text4580-1-7-3-6-9-4"
       transform="matrix(0.8084187,0.00200213,-0.18183537,0.93491494,1593.3651,-1147.577)"><tspan
         sodipodi:role="line"
         id="tspan4582-8-5-6-1-3-5"
         x="787.65729"
         y="1584.5073"
         style="font-size:70px;line-height:1.25;letter-spacing:3.44994736px;fill:#ffffff;fill-opacity:1;stroke:#ffffff;stroke-width:1.14998245;stroke-miterlimit:4;stroke-dasharray:none;stroke-opacity:1">...Você está...</tspan></text>
    <text
       xml:space="preserve"
       style="font-style:normal;font-variant:normal;font-weight:normal;font-stretch:normal;font-size:13.85896969px;line-height:0%;font-family:Lavi;-inkscape-font-specification:Lavi;text-align:center;letter-spacing:0px;word-spacing:0px;text-anchor:middle;display:inline;fill:#000000;fill-opacity:1;stroke:none;stroke-width:3.5999999;stroke-miterlimit:4;stroke-dasharray:none"
       x="1771.8191"
       y="1411.5159"
       id="text4246-2-3-1-3-9-0-5-3-3-6-9-3-7-3-9-4"
       transform="matrix(0.87552816,0,-0.14342897,1.1421677,0,0)"><tspan
         sodipodi:role="line"
         style="font-style:normal;font-variant:normal;font-weight:bold;font-stretch:normal;font-size:64.97789001px;line-height:1.25;font-family:Lavi;-inkscape-font-specification:'Lavi Bold';stroke:none;stroke-width:3.5999999;stroke-miterlimit:4;stroke-dasharray:none;stroke-opacity:1"
         x="1771.8191"
         y="1411.5159"
         id="tspan4579-4">A aparência!</tspan></text>
    <text
       xml:space="preserve"
       style="font-style:normal;font-variant:normal;font-weight:normal;font-stretch:normal;font-size:12.51824951px;line-height:0%;font-family:Lavi;-inkscape-font-specification:Lavi;text-align:center;letter-spacing:0px;word-spacing:0px;text-anchor:middle;display:inline;fill:#000000;fill-opacity:1;stroke:none;stroke-width:3.5999999;stroke-miterlimit:4;stroke-dasharray:none"
       x="1618.0042"
       y="1589.5555"
       id="text4246-2-3-1-3-9-0-5-3-3-6-9-3-7-3-9-4-6"
       transform="matrix(0.92759422,0,-0.09976132,1.0780576,0,0)"><tspan
         sodipodi:role="line"
         style="font-style:normal;font-variant:normal;font-weight:bold;font-stretch:normal;font-size:58.69190979px;line-height:1.25;font-family:Lavi;-inkscape-font-specification:'Lavi Bold';stroke:none;stroke-width:3.5999999;stroke-miterlimit:4;stroke-dasharray:none;stroke-opacity:1"
         x="1618.0042"
         y="1589.5555"
         id="tspan4579-4-2">É claro!</tspan></text>
    <text
       xml:space="preserve"
       style="font-style:normal;font-variant:normal;font-weight:normal;font-stretch:normal;line-height:0%;font-family:Lavi;-inkscape-font-specification:Lavi;letter-spacing:0px;word-spacing:0px;fill:#000000;fill-opacity:1;stroke:#000000;stroke-width:1.19005191;stroke-miterlimit:4;stroke-dasharray:none;stroke-opacity:1;filter:url(#filter4375-4-1-1-1-9)"
       x="787.65729"
       y="1584.5073"
       id="text4580"
       transform="matrix(0.81821305,-0.33688634,-0.15105419,1.1716012,481.86174,1568.9719)"><tspan
         sodipodi:role="line"
         id="tspan4582"
         x="787.65729"
         y="1584.5073"
         style="font-size:70px;line-height:1.25;fill:#ffffff;stroke-width:1.19005191">Creq<tspan
   style="font-size:80.40014648px;stroke-width:1.19005191"
   id="tspan4617">!</tspan></tspan></text>
  </g>
</svg>
