<?xml version="1.0" encoding="UTF-8" standalone="no"?>
<!-- Created with Inkscape (http://www.inkscape.org/) -->

<svg
   xmlns:dc="http://purl.org/dc/elements/1.1/"
   xmlns:cc="http://creativecommons.org/ns#"
   xmlns:rdf="http://www.w3.org/1999/02/22-rdf-syntax-ns#"
   xmlns:svg="http://www.w3.org/2000/svg"
   xmlns="http://www.w3.org/2000/svg"
   xmlns:xlink="http://www.w3.org/1999/xlink"
   xmlns:sodipodi="http://sodipodi.sourceforge.net/DTD/sodipodi-0.dtd"
   xmlns:inkscape="http://www.inkscape.org/namespaces/inkscape"
   id="svg2"
   version="1.1"
   inkscape:version="0.92.3 (2405546, 2018-03-11)"
   width="2481"
   height="663"
   sodipodi:docname="E14P00_092.svg">
  <sodipodi:namedview pagecolor="#ffffff" bordercolor="#666666" inkscape:pageopacity="0" inkscape:pageshadow="2" inkscape:window-width="1813" inkscape:window-height="955" id="namedview70" showgrid="false" inkscape:zoom="0.4" inkscape:cx="1284.4231" inkscape:cy="2618.6204" inkscape:current-layer="layer1" /><metadata
     id="metadata8">
    <rdf:RDF>
      <cc:Work
         rdf:about="">
        <dc:format>image/svg+xml</dc:format>
        <dc:type
           rdf:resource="http://purl.org/dc/dcmitype/StillImage" />
        <dc:title />
      </cc:Work>
    </rdf:RDF>
  </metadata>
  <defs
     id="defs6" />
  <sodipodi:namedview
     pagecolor="#ffffff"
     bordercolor="#666666"
     borderopacity="1"
     objecttolerance="10"
     gridtolerance="10"
     guidetolerance="10"
     inkscape:pageopacity="0"
     inkscape:pageshadow="2"
     inkscape:window-width="1920"
     inkscape:window-height="1025"
     id="namedview4"
     showgrid="false"
     inkscape:zoom="0.60944264"
     inkscape:cx="1306.7429"
     inkscape:cy="204.08709"
     inkscape:window-x="0"
     inkscape:window-y="26"
     inkscape:window-maximized="1"
     inkscape:current-layer="layer1" />
  <g
     inkscape:groupmode="layer"
     id="layer2"
     inkscape:label="artwork"
     sodipodi:insensitive="true">
    <image
       sodipodi:absref="/home/deevad/peppercarrot/webcomics/ep14_The-Dragon-s-Tooth/lang/vi/../gfx_Pepper-and-Carrot_by-David-Revoy_E14P00.png"
       xlink:href="../gfx_Pepper-and-Carrot_by-David-Revoy_E14P00.png"
       y="0"
       x="0"
       id="image10"
       height="663"
       width="2481" />
  </g>
  <g
     inkscape:groupmode="layer"
     id="layer1"
     inkscape:label="txt"
     style="display:inline">
    <text
       xml:space="preserve"
       style="font-style:normal;font-variant:normal;font-weight:normal;font-stretch:normal;line-height:0%;font-family:Arial;-inkscape-font-specification:Arial;letter-spacing:0px;word-spacing:0px;display:inline;fill:#2b1100;fill-opacity:1;stroke:#000000;stroke-width:2;stroke-miterlimit:4;stroke-dasharray:none;stroke-opacity:1"
       x="1266.1166"
       y="582.47577"
       id="episode-title"><tspan
         sodipodi:role="line"
         id="tspan4180"
         style="font-style:normal;font-variant:normal;font-weight:500;font-stretch:normal;font-size:72.5px;line-height:1.25;font-family:ComicSpice;-inkscape-font-specification:'ComicSpice Medium';text-align:center;text-anchor:middle;fill:#2b1100;stroke:none"
         x="1266.1166"
         y="582.47577">Tập 14: Răng Rồng</tspan></text>
    <image
       y="125.39467"
       x="378.01999"
       id="image4146"
       xlink:href="data:image/png;base64,iVBORw0KGgoAAAANSUhEUgAABngAAAGwCAYAAACKHWv8AAAAGXRFWHRTb2Z0d2FyZQBBZG9iZSBJ bWFnZVJlYWR5ccllPAAAA2ZpVFh0WE1MOmNvbS5hZG9iZS54bXAAAAAAADw/eHBhY2tldCBiZWdp bj0i77u/IiBpZD0iVzVNME1wQ2VoaUh6cmVTek5UY3prYzlkIj8+IDx4OnhtcG1ldGEgeG1sbnM6 eD0iYWRvYmU6bnM6bWV0YS8iIHg6eG1wdGs9IkFkb2JlIFhNUCBDb3JlIDUuMy1jMDExIDY2LjE0 NTY2MSwgMjAxMi8wMi8wNi0xNDo1NjoyNyAgICAgICAgIj4gPHJkZjpSREYgeG1sbnM6cmRmPSJo dHRwOi8vd3d3LnczLm9yZy8xOTk5LzAyLzIyLXJkZi1zeW50YXgtbnMjIj4gPHJkZjpEZXNjcmlw dGlvbiByZGY6YWJvdXQ9IiIgeG1sbnM6eG1wTU09Imh0dHA6Ly9ucy5hZG9iZS5jb20veGFwLzEu MC9tbS8iIHhtbG5zOnN0UmVmPSJodHRwOi8vbnMuYWRvYmUuY29tL3hhcC8xLjAvc1R5cGUvUmVz b3VyY2VSZWYjIiB4bWxuczp4bXA9Imh0dHA6Ly9ucy5hZG9iZS5jb20veGFwLzEuMC8iIHhtcE1N Ok9yaWdpbmFsRG9jdW1lbnRJRD0ieG1wLmRpZDpCQjYwQzBBOTVGMTVFNTExQkJFQTkwQTBCRTA0 NzBBNyIgeG1wTU06RG9jdW1lbnRJRD0ieG1wLmRpZDozODM0OTRERkM0NkMxMUU1QkM0QkVCODY5 Q0Y5QzE0NCIgeG1wTU06SW5zdGFuY2VJRD0ieG1wLmlpZDozODM0OTRERUM0NkMxMUU1QkM0QkVC ODY5Q0Y5QzE0NCIgeG1wOkNyZWF0b3JUb29sPSJBZG9iZSBQaG90b3Nob3AgQ1M2IChXaW5kb3dz KSI+IDx4bXBNTTpEZXJpdmVkRnJvbSBzdFJlZjppbnN0YW5jZUlEPSJ4bXAuaWlkOjc5NEU2QTA4 QjI0RUU1MTE5Nzc1RjIwQzFDQTk2RjgwIiBzdFJlZjpkb2N1bWVudElEPSJ4bXAuZGlkOkJCNjBD MEE5NUYxNUU1MTFCQkVBOTBBMEJFMDQ3MEE3Ii8+IDwvcmRmOkRlc2NyaXB0aW9uPiA8L3JkZjpS REY+IDwveDp4bXBtZXRhPiA8P3hwYWNrZXQgZW5kPSJyIj8+gqFB0gAAjBNJREFUeNrs3Qu4XkV9 9/1/OIWEQ4KAcgrHUECFBsSKgZYdRDygryQlULXlUMCKjwb7gG8Br+ojjwaeV20hetUqWA6tIIYn iVpaVCQbRTCKgFCVmHAMEhQs4WDCIcl+58fMIjubfbgPM+tes9b3c11zQZK9132vude91sz8Z/4z bmBgwAAAAAAAAAAAAJCPTagCAAAAAAAAAACAvBDgAQAAAAAAAAAAyAwBHgAAAAAAAAAAgMwQ4AEA AAAAAAAAAMgMAR4AAAAAAAAAAIDMEOABAAAAAAAAAADIDAEeAAAAAAAAAACAzBDgAQAAAAAAAAAA yAwBHgAAAAAAAAAAgMwQ4AEAAAAAAAAAAMgMAR4AAAAAAAAAAIDMEOABAAAAAAAAAADIDAEeAAAA AAAAAACAzBDgAQAAAAAAAAAAyAwBHgAAAAAAAAAAgMwQ4AEAAAAAAAAAAMgMAR4AAAAAAAAAAIDM EOABAAAAAAAAAADIDAEeAAAAAAAAAACAzBDgAQAAAAAAAAAAyAwBHgAAAAAAAAAAgMwQ4AEAAAAA AAAAAMgMAR4AAAAAAAAAAIDMEOABAAAAAAAAAADIDAEeAAAAAAAAAACAzBDgAQAAAAAAAAAAyAwB HgAAAAAAAAAAgMwQ4AEAAAAAAAAAAMgMAR4AAAAAAAAAAIDMEOABAAAAAAAAAADIDAEeAAAAAAAA AACAzBDgAQAAAAAAAAAAyAwBHgAAAAAAAAAAgMwQ4AEAAAAAAAAAAMgMAR4AAAAAAAAAAIDMEOAB AAAAAAAAAADIDAEeAAAAAAAAAACAzBDgAQAAAAAAAAAAyAwBHgAAAAAAAAAAgMwQ4AEAAAAAAAAA AMgMAR4AAAAAAAAAAIDMEOABAAAAAAAAAADIDAEeAAAAAAAAAACAzBDgAQAAAAAAAAAAyAwBHgAA AAAAAAAAgMwQ4AEAAAAAAAAAAMgMAR4AAAAAAAAAAIDMEOABAAAAAAAAAADIDAEeAAAAAAAAAACA zBDgAQAAAAAAAAAAyAwBHgAAAAAAAAAAgMwQ4AEAAAAAAAAAAMgMAR4AAAAAAAAAAIDMEOABAAAA AAAAAADIDAEeAAAAAAAAAACAzBDgAQAAAAAAAAAAyAwBHgAAAAAAAAAAgMwQ4AEAAAAAAAAAAMgM AR4AAAAAAAAAAIDMEOABAAAAAAAAAADIDAEeAAAAAAAAAACAzBDgAQAAAAAAAAAAyAwBHgAAAAAA AAAAgMwQ4AEAAAAAAAAAAMgMAR4AAAAAAAAAAIDMEOABAAAAAAAAAADIDAEeAAAAAAAAAACAzBDg AQAAAAAAAAAAyAwBHgAAAAAAAAAAgMwQ4AEAAAAAAAAAAMgMAR4AAAAAAAAAAIDMEOABAAAAAAAA AADIDAEeAAAAAAAAAACAzBDgAQAAAAAAAAAAyAwBHgAAAAAAAAAAgMwQ4AEAAAAAAAAAAMgMAR4A AAAAAAAAAIDMEOABAAAAAAAAAADIDAEeAAAAAAAAAACAzBDgAQAAAAAAAAAAyAwBHgAAAAAAAAAA gMwQ4AEAAAAAAAAAAMgMAR4AAAAAAAAAAIDMEOABAAAAAAAAAADIDAEeAAAAAAAAAACAzBDgAQAA AAAAAAAAyAwBHgAAAAAAAAAAgMwQ4AEAAAAAAAAAAMgMAR4AAAAAAAAAAIDMEOABAAAAAAAAAADI DAEeAAAAAAAAAACAzBDgAQAAAAAAAAAAyAwBHgAAAAAAAAAAgMwQ4AEAAAAAAAAAAMgMAR4AAAAA AAAAAIDMEOABAAAAAAAAAADIDAEeAAAAAAAAAACAzBDgAQAAAAAAAAAAyAwBHgAAAAAAAAAAgMwQ 4AEAAAAAAAAAAMgMAR4AAAAAAAAAAIDMEOABAAAAAAAAAADIDAEeAAAAAAAAAACAzBDgAQAAAAAA AAAAyAwBHgAAAAAAAAAAgMwQ4AEAAAAAAAAAAMgMAR4AAAAAAAAAAIDMbEYVAAAAAOWZNmUylQAA 8RU312nhv292Zafw/zu7MrvN461wZeGgP/e78qQrT7nygCvPu7KGagdqeR8ZC9//zNy1YhWVgNoa NzAwQC0AAAAAJSHAAwBd0U10L1f2dKXPlZmuTOnh+7nVldvNB4MeceU3xsAvUMX7xkvNsPDfIgDc SfB3qCIY/Jgrt4X7wBOuEFGoEAI8qDMCPAAAAECJCPAAQMvGmR+EPcyV91r3A7Flmmd+1c+PzQ/8 MviCulLDRoGTqa4cOMrP3ePK8vD/S80HQp+K9N0YGsCZGf47p8d1M9+V74Z7wYOurOVy6Q0CPKh1 Y4kAz4gdbzUk93Flt2H+uYjGSy/uEHpvk0b4t2dr9sCYPOgB/Yr7c4/PeaTRGZbqggYKAGC0diaV AAAjm+DKm1z5kOUV0BmLBnqvcWWxMbMf9dDnylUWZwXdvPDffvOpEGXw2NtLTajw3+3Ca8uczOpM K/4ud+V6V1ZyCZWH8RPUGQGeV3a4FTw5zpUFHTyMhi7H7HQmgvZG2tr8snMFctqdeaAHxsm2YWZE jiaHB970Nh+Ut4cGgXIi/9qV1Z1+N0Ld72A+yFcs3211+b+W6J7kys3GTC1guO+XGuenUBWlWcj9 CAAAVLz/d7wrp7bZB8yV+osXGIO8yLc/d63VKwDby/vAdUbQNzkCPKj1TZkAzwYhuJPiITV/UKOt 3zbMRpDBS1gPjdyYnWUbbwqZC9XJsi6Psd6V77tyovlA2/oRfm4TV94Yfm5Ti5N/dTAF/s7i2wW8 TDMyb2xIx71qfuTKW40VhgAAoBo0sfHdrpzT8LYhwR7kps/8SjTEownLHzafqYaB2gQI8KDOCPAM Mm3K5NPdfy6t2WltbnmlbFMj/8VIx9IqnjNc+UGog6EXu4I7Wvp/mSsHmJ+FksK+lvdqKiDaM8eV h6y3m+A2lYLcWln6RVc+TacBAAD0kCb0fcTyS61UBgV7NEHw28ZeHaiuh+nTJb0HkA0mAQI8qLNN qIKNXFrDczows/d7RMRj7eLKma7sbj7QNW5Q0Z+1Wkd5nfe0dMEdYdky4J1LR6An1DH4rSuLXPmh +UA6AABAmdTfOtj8imJlayC4Mzy1lZUuXpMeLzEfDAOqeJ0iXd1qdZQmRvZZ2rEqADVBgKf+JjX4 3Me7cowr/194ML461Mf25lMA/B9X3unKxMTvYycuQ+ClvOpzqYae0F5kmgGmSQy3WLxVkgAAAGMZ F/piGqy8w0jT2w4FwRQMU1BsqjHQCzTJ4EAPgV4Ao2IW78ZWGDMR6mYbV4515RDzadK0/5GCPPuY X+EzgSoCSnE8VdATWr3zuCvfceXXRqoPAABQDgUjjnTlKvrYXVNQTIEeUjehKrTPNJlKyjElfP+1 v/PZ9OcADIcVPBv7Ug3P6anM3u+SBMfUSp49XXmLK7NcOdp8gIfgDlBeB/9SqqFnfmd+T7JnqQoA AFACzTbXrHPNPie4E08xo/8WY0Y/eussqqB0WtF3v/lUlwCwEVbwbEwBnrqlELo3s/e7xtLNBtEg 86Y9OKcr+Gqh4fahCnpGszuVkm2tMdMTAACkpZS8X7HqzuyfN+j/7zGf4WE4M4f8uWr7BRUretRv /oAr7ByOsq10Zd9wHaI8CvIq1eX5rlxE/w5AYdzAAPeDwaZNmTy1Rg+pM1y5LMP3rZU1S60es720 jH4PHrxouPOM/Xd6RfeeX4bP4LuuPE+VAACAyDSR7jhXFlTgvSjocacrt7lyV2j7rInYT1V2iGnm V9Bov9cqBLOUpWIRfU70gCaNn+LKJyyP8ZtbXbnclZ+Zz3AgTw3z3dF5bR3+fwdXdnPlza68y6qz j5jO5eiI97fau2sFsXDUuCFGgOeVpk2ZrJlHn7LqzdRpVZGbtz/zhsLnM/4MRLMqPmvkSAUeNtJz 9NLvXfmy+YC/0qWsp0oAAEAkO5tPs92rtp4COte48mNXHrPeBDk0fqCgz4esdwGfb4fXZjIPekUB 0F3NB0NEQdADXTnUeh8U0djMxRYnGKKA9k6uHObKOT0+N439HWUjr0bEIAR4UGcEeEYxbcpkBRmO 6HFDrZ0b+wXmgzr3WX1m76iR8H7LY0ZIMRtEn8GDRmAHKL7Dq6mGnlpnPg3JP7tyg/mUCi+Gf6MR AAAAOhpLcOU0680+iwrqXBjaN2srWC/7hPGDslawq133HVfONb9ym/YdjO/FSzRO9qbQ/0nZ3+31 mJXS5RHkGQMBHtT6JkuApzUh2LNnDx5Iozk/NG4ftGYEEzQ7rAqzJAY3FhRUuz5xgwHI2V6u/NrS 7vmm7+LCIX83h6rfiGZz/sr87M4fufKEK5uYT0lKSxcAALRDA5o3ltwnU3vvrNCWyaXvq/avVjB8 MXFdabX2/zY/2fBpLk9k8L34mJUzrjbRykthpiDWtBK+7yMhyDMGAjyoMwI8HRi0sucq602EntRf PtijGUq9GsQlzzHQmr3Cd2U/8znLY9z/tApFOZOfauE7qAEIpc2oUnB4KAXqFSQeutmv8jxr+f/M SM+ataHOHnXlv13Z3JV/Nb+yBwAAoBUHm9/kuyzKknCy5T9wqXRVVyZqi95rfjXVT23DKm0gh+9E yv2ve7UntQI9R1pvxgsJ8oyCAA/qjABPF0Kgp8x9Ysiv+UoauP2KlZdCT5/BQcaMd6BVr3LlBFdO Dd+dLbvo2MdIP1mFPdY6Wf1XrCLts+6X/w8MqsffuLI7lykAABhr7MDKTclWl8DOULEDPWrT/SC0 tR80JiAiL+rbLE507F2st5lWylypNBhBnhEQ4EGtG2kEeLozbYrGCu30Ehq6GhDUDPg11HpPOxsT +QyAtr+frzG/6u1vXHmttZeubYb5fa1SdK5vsvJnVel8bu6y813ksI41OKCVPOwZBgAARmt7XGvl TKpTv/c9rtxZ8zrtszgD29pr8T9c+aD5VdpAbn5kaVa2bWLVCHiWvepRtjMmJb8CAR7U2SZUQRRa 9nlr4tdQI5fAwvAGwmdwfuLXmcFnAHT0/fyd+bRq/2k+NVirnXs1TPsTvS/NatovvE4ZBp/PQIQ6 1fs/PNyXurU1lykAABiB0t0+ZOUEd9Sf28PqH9yx0CbU5MH5EY41blABcvO5hP3QKrgzfNdXlPia d1vaPXABVAwBnnhOTnjsFQ1p5HbrosQPzVuoYqAj6115JHRklSO8ldUiZaRCVMD2PSXVwX6Jzqc/ QodhGpcoAAAYhoI7Sy39ime1Y5RO6UJrVooxtUWVynhWF8fQmM4k83tdEuBBjlKkaJtfwe/63iW+ L92zr+bSApqDiG48mk2tVTwplpZeQPW2ZCDUVYpUbXoQk8II6NwLYYDgdlf+OHRER6JVKWWtn74z 4b178PmkXP2nY+9nnQ/AKF1dP5coAAAY0j5YVsLraNXORdbsvWMWmt83o5P0wUU6ZAXIHgltbiAn TyU45soKnqfGk04M/1/Giki9Rh/9vA3CFhs50hs/3pUDbeO9hOeF/+ozvsf8Pmy1Hbckxd7oWMET 1+WJjns9VduyVJvJXUPVAl1TqrZfjdGIv7UHjdCUKzDLOp9uViMdyKUJAAAGiRHcUcBG+8OsH+Vn NAmmaat2RuvHdpo+eAdX3mR+xRWQm4GGnev7rJx0bS+6cpUrW3CJZWtn83tUPWl+IvucIf8+J5QF 4Zmtz/wS8wEhNAwBnrj6Ex33caq2ZXclOu49VC3QtefMB3lWjdKQ/3AP3teDCY/98RLPQ6uR5nXY cAQAAJBugzsaYPqNK7eZ34PxZlfuc2X1oPZfkZKtn+reSLEqu93B321cOdqV3Y0sLciT7jl/sGYE e9Za+r1gdS/5iSufttEzZ6CatDLzPFcetfYzjSjg82T4fdJ2NggP/7ieSPgAQD0/W6BJNIPzuVAG Rmhw3NWD95XyHlv23l1n2ytn9oxlNpcmAAAwP+mjm+COgjhavfxv5tPyPmt+zEGDmX/hyjGuPO/K /pY2fW3OOkm9u7krB7vybld+G/qu66lKZGRO6JO8w3zKwU0a8D3XqrtHEx1bfVBN/FOA/Q9cXlnR SswbrfsU8nPDc0FpAVkl2wCs4ImLhIAAMLpxozx7zu9h42NegmNqgKPsAL1e7wwuMwAA0CYNKi3p 4vdfDG0fzRhfZD4t78Ou3G9+b5n/7cqV5oMXBHdGp/o5qM3fUZo2DZAryDPZGOtBXvrNp2vUflS/ b8g5a5+gGQn6gpow+c+uLDYfZCfYm9dzWMH9WPsD65lwHNXaDDz0q28eVVAJBO+A7m1qPoXE1jb8 6p0bana+t/foda/jUgMAAG0oBpWmdHEMpeHVfg9KGfu0+UHFgVC0eluBnvPC/6O1/uchbbaztTJK E300Y7tu6dp0jfaFa+gbg66twUV7TxxsZKrJke4LD5hf/afg8AsNOe9+izvmp/uwgmTat2VwWkw0 4zk8nEuo2mYgwIM6NoQBVNO2ruxhflbhcAGee2t2vgt7eB+8lcsNAAC0QG0ypYPpZlBJwZwHze/5 MNI+GuuMmeTtUrDs/DZ+fktXprnyIfP7Wr7Tlb1dmWh5jv3o2uyzDYPVWpGgtEMjpRdWmq87XHnI /B5PyIvuET83H+BZ3aDz/qjF2Y9HqyjvCt+Xx43gTk5SBXcsHHMCVVx/zGwAAJRlV1f+2Ibf6FGN WtJ1xPPh0MFFs2mjbA2C7OTKY67Md2U51QIAGORa6z4djAYSlVaJdEDxXeTKu9r4jMa7ckB49h/m yt3m91XSvjza/+gbmZx3N/tQKPXVVuZXNa3jEsrKmnCtvtigc9b98yjrbv8zecaVn5pfCcV9OB8a l08V3Bn8XGCspQEXEuLS0tItqQYA2IjSsh0Syvhh/v1LNTznpT187bu45BpNm2QrVd/QQRHNetXq ruPND34AAJptpo28GqJdxYA64tLg77GuPNnG7+hz0J48WjWvvXyUMk+Dvxo0zyHA081sdtWX0lQ9 ZQxy50jX7sQG3ks0AUup2uZ0cYwnw/fmv7mMsqFVildb2uCOPEtV1x8p2uK7nS8PAGxEkwkOND/7 cI8Rnj112n9HHUttcLm6x+/hjBZ/lnRu9eokKDf9ozbyjNfp4d/Ps+FTJQIAmkGTARZEOpYGY7Xn y76ubEHVRqf0u7M6bINr/0utot/Plddncr7dpAxcH9rgxR5QyIvuI/tYM1NKfbLLvp+CmgruvMBl lI3TLN4ki5EoU8paqrr+CPDEp6j7z6xZOUMBYLSOpTqTf+XK4eZndw7nnpqcrxrUmjX48wo0pK5o 8ecu5zKtBXWElWZnbos/r5+7xhiIA4Cmts+WRD6m9jx5n/nAESt54ltk3U3K0aSO2zI4T10/3aYM 3CKcLxNZ8qKVOwpkamLg+AaevwK587r4faVg1Co9Apt5UCrtS0t4nQuo6uY07BDXt8wPYGozcQ1q bk6VAGgodar+1JX3uvI2V149QkdLm8fmPqukmDWlZfH95jeB7XWeW9XpGS00HK/jUs2eUrAox367 s11PMB8YUooe0pgAQHOkSAmjwdl3mE9ZfrF1v58EXtnWVIrVR7s4xu0ZnOd+Xf6+JjHvGK7HccZg dy72duXPzQeJd7HmTkbXKp45Hd4fNPa4Gdd9FtT/uqmE19HqnSuo7mZgBU98ipor1dD3zefA5Maa f0P6OaoB6Pj7o4DH/2M+NcSmIzQ6PluD89RmoN915TPmN8P9jlVjwPyrNvpsT80SW8WlmrWpob3R yUCdOoB/7MpbjFmuANAUfZYmJYyeI68xv2L7Yao5iZXW3Qz/JtB1uFNoHzGhOR+6rj/kygHWzNU7 BfXL5nd43WuS+SSu+yxcaen33dE4y1FGerbGIMCTxmOu/MCV+1xZR3VkS4OzGjT7KVUBdEyzDHcL Awm3DmlwaHXJ3jVodCjX8fdcucR8gL9KARMFn44cYTBAK6c+yiWaNQ1edDtDenvzAZ5JVCcA1J5m DS9OPL5wqvlJj0jjbKpgTDuEts2WVEU29Hlp/53xVIVd2MHvKMDzqtC3nkwVVlqftTfJYmBQaZX6 /loNuZzqbg4iu+loP4lfmU/Ttg3VkR0Fd34XOkBXUx1AVxTAWRhK3SgN209c+RfzweAXK1r/Z4UB ga3D3z1rzObJXYzgjmiw762ufNP8HoJszAoA9XVl4uNrUOlOqjl5u66VFLy5WhqpbfO20La5o6Lt c2yMYNwGne5Nq37eoa7c6MrjVGMltTrJYl3ok/0hjDfoHrZJ+P2J4fui8fwvDPodjbU84sqD9POb iQBPOivDF0tfSAI8eVFk/PfmZ+T/s7GCB8DI94rfuPLv5gfGq955VEOPdGz1ECu4I0qd+Eeu/LX5 lDpqv7AfDwDUT5+lSc1W0OpsVpeU4wrrLMCTw2Srx8K11E36oqJtc1o41mO0bZAR9dnmd3C/1uqn N7jyRvPZhOj3Vc9Ykyx0n3rGlYdc+bUr95ufeK5tIzR+r1VaGl/+N/OTKdgSBC8jwJOOoq1K77U6 fOnIbZ8PRci1AeVVVt0Z+QB6T+lHfm5+BQ8NaJQlZnCnsJUr7wrtln905bfGQAgA1K3ff1Xi1zjJ mDVclk5X8bzZlf6Kn9tAuJa6TSU4uG3zD+ZXNNC2QS6usfYDPBpz3MWVWeaDAz80xrKq5OAxPlN9 VivC53aT+TFJTb5bHe5d+ny1iodtQDBiQw/pvEgjoieUGmBOh7+rz0t7hvxHuKHyQAQwEs2u0cyZ h6gKlETL8pclOK46DK925f3m0ztowEjpIRioA4B6OMXSbuisfRb7qeZSXWHtB3gOzuTcbrbOVjAM bdu8Zkjb5hf075GJTtO0aRXPn7jyQfOTEX/CNV8JGnv/5ij/rs9I6SkV2Pu/5ldgDe2HKfhdxeCO +qdvGvTnp1y51/zEeZR8kSENNSiKvIis3snHC+Fhyox8AKMZCI2XB7lXoMR2xdKEx9eMsJ1cOdGV 17nyHVcWufJLqh4AsqYNt1Pv13Is1Vy6TlbxzA7tiaqn9RkI7RENdi7osm2zsyt/YX5v5Btc+b75 wUftR1lMxtW4zfNGuiNUxxNd/O62rhxtfuBd+8Qupr/acx+zkSdZ6D6kVGyXu/Kv5reLyGWhwGiZ JTTx/lwj0FMaAjzpqJGwg/mlwciHGnp3u/IAVYGaYEZFOlrB87QxKwrluNjSzr4WDYRs58phruzn yp+7Mtf8TDIAQJ4+lfj4GsRh8LA3rrD2g3eazLEyg3NTsEV7Bm3uyhGuzLTOsnQMbdscbz7t0WOh P7SFKzu68mPzaWqBKni2i99VEFeB/Rmu7Gl+RZyCm3eYT1VI37VcO4f+1EiURlKB7Kstr+CO4gmj ZZbQ/fpQVw7nEijvA0Eau7uytysTqYpsFDPyH6KTgppgRkXa+8W6UHKYCYm89VnnqUc76RRqsEMp 2zRRRTPJlpvfbwoAkJfJJTw/zqWae6aTVTxabXVZZufYH8pZg/5eY1l7uvKRFq7xoW2bA8Jxi30t FESaGV7jTi4rVOS677Y9v1W41jVB7Bjz+7toO4Jnwr+f48ofqOrkrhvl3zSWcE/4mScsry0+3t3C z0w3Pya1nMsgvU2ogiQ2NZ/fdn/zK3mQDz3gmJGPOmhlRsWNVFNXjebx4R5PGk6kpMG5xT26xtWe 0SrAu8J/AQB5uT7x8RVcYLJQb13X5s+fWpPz1gC4Bg0V9NEKnflttm22cWWS+XRW+rOCPN80JkGj XjYN1/k+5lfCaXX+X4XCtZ5en/kgx0i0Uut75lO0rc3w3GL+HLpEgCc+NRr2NL8ccq9wQ0UeNAN/ vW2YyQPkrJ0ZFejsXq/GsmYBjqc6kIg6Xnd38fvnu3KI+YGPQ8KfO3Ujz0YAyMpUG31gKYYrqOae U+aJeW38/PQaPs9VByeYH4PphlY6fJ5LCjWksV+tYlMwc2vzq3to16cfL7hqjJ9RyrxbXVmd4fm1 ujr4GC6F8r7kiEszbY9z5Ujzg3/I6wZczMjnu4Hc9UX+ObyS7vF/ZD7dA5DimaRczJ3su6MZ1ZqJ eqH5VCOrwn8vDM+3TgZANCB0MR8LAGRjbuLjK6iwlmquhE920Iato35XdjGfiqpTGrRkAhx6jdU1 +TtyjH6cJphrL7CHa/4snc2lUA4GseN7nyt/aX4VD/WbFw2maYm2BmtJRYPcMaMiPe2x9gbz6Thp hCO20zpoEGsGmFbrXDZKR0GdiX7zAaD5bR5f95WZfDQAUHmTLf2gyiep5spodxVPna10ZT/rLshz k7G6Ab21NVWQtVZW7wyEe7fSnK6nytAtAhDxnWl+I7MtqIosKcCjGfk7URVoCGZUdE4D5K915c9c 2ZWOICLSPn6Xtvk7CtYcEToKrVAASOlMzmjzdRYYM1sBoOo+lfj489t43qAc51IFL9OAaTdBHs26 P45qBNChsVbvSLFFhDGOgBgI8MSnmdzsx5AvrdzRwNrrjCAdgLG9ypV3unK0+ZUTNM7QrZ1duaPN 31GQ5oTQUWiXVvsc0ubvLDNWugJAlfszcxK/xvlUc+UoqDGrxZ99viH10U2QZwFtHfTQXlRB1j7T ws9o3EArtbbosA8HbIQAT3ybUgVZU5olreDpc2UPviMAWrhnKLD/166823yKR9K1oVMaSFjS5u8o uHNZl6+r/Xn2bfN3lnKtA0AlvT/x8TVgfh/VXEmLbOz0q0rltqYh9dFtkOciLin0SBn7ZD1LNSeh FKnTW/g5jTW+xpU/UGWIgcFrYPgbsvYleYf5wVq+JwBGs6X5FRCaLXuqK683v5oHaIdmcd1oYy/n HyxGcKew3NoL8uh9Xm2sWgOAqj1LPpH4NS4wZhtXlT6XE23k/Xj09x9tWJ10E+SZE8YGgLKVsefl Wqo5iRlt/KyCyE9QZYiBgWvglbQKax9X/sr8MvfdqBIAY1CQ5yBXzjK/JPs0Y3UD2nOttTbbqxAz uFNoN8ijPbzI+Q8A1aE+zJTEr/E1qrnSBkJ7VJONZgwqE8PfNzE4102Q53ouKfRA6gDPrVRxMn1t 9OX+jepCLAR4gOFpH6UDXfmgtb8BNYBmUkBnJ1fe6sp5oSMNtOJ088GSVqUI7hTaDfLMDe8fANB7 cxMfX4OCa6jmLKxypX9Qafrn1mmQR5NvpnI5oeQ+ZepA/e1UczKt7IE3I2FfrqxrFBVDgAcYmYI8 r3Xlb6gKAG3Y3JVX8YztivIRH2DNSItxsCuXtvHzKYM7hXaDPHr/DH4AQG9pH7fZiV/jc1QzMqYg z0Ed/N6VVB1KtGcJr7GQak5m3hj/rj5Wf+bnuDUfc/Uw+ASMTunadqQakBlmVCBnCpApPaZSYjzp ysPmV4jU8bre2ZU72vj5MoI7hXaDPMuMPPUA0EtvL+E1bqCakblVbbZvZDptHJRodgmvcRfVnMwX Rvj7+eYzfCynipACAR7U0RyqAA3HjArkbFtXdhl0HStFgVaIvGg+H/W4mpynAlZL2vh5dQq+WvJ7 VAeknTSldxsBZgDolXMSH5/0bKiLdiexyJlUG0qgfs7cEl5nFVWd/P5yvvmUkPPCn0/gGYqUCPCg jg9EAEC+9nJlfxs+ULnAlWutHkGEq631/NoK7pxovdkYWSuGWg3yTAnnBQAol9KzTU/8GqRnQ510 sucgYw1IbVoJr3E+1VzK/eVCV3Z35Sxj1Q5KQIAHdbMPVQAA2VJQ5w3m9z8bP8LPKG3B/eYHs3I1 01pPv9DL4E6hnSDP7HB+AIDylJGe7cdUM2qm3SAPYw1I7YslvMZ8qhmoHwI8qBMN9t1ENQBAlrQq 549dOdr8SpDR2ij6d214m+NMSuVwX9BGB6zXwZ2CgjytzvhbYOSqB4AynVPCazxGNaOG2gny9FFd SGiqpV+JucJYTYLu7UAVVA950uv5mTZp/w3dWHYzP1uYvXcAIN9n1+vM5yY+rMXnmFaK3Gl++XtO rm+jA3ayVSO4U7jIlYOttdVHOs/DubQBoJRnaOpBwXkVex4BMRVBnmVj/NyBVBUSurKE1ziJakYE u1EF1WwMIm+aIXu8K8dY6+leANQbMyqQEwVzDjK/UuVdruxkra/MUT70L1k+G4W2OjOvSit3BtP7 URDudFcuHeNnp4fzZZYgAKRVxqDzQqoZNaf2yi6uLLHW90gEYumzclbv3ExVA/VEirZ8afDrElee ND/IQnAHQIEZFaiSbc1PRth00N9pgsn2rhziynvNbz45y/xGlO1OPvlURnXRyrO6qsGdwVrdk4e2 CQCk97YSXmMp1YwGWOnKfjbyHiX3UEXJPOfKWmvmSkFtNbC4hNc5yViJiTi2owqqhxU8+brYSEkG AKi+s0KHTZ3m1eHvtGpHgcjXmp95rJmSW1lnE0/0LDw7vEbV7TTGv2uPm4sy6XwpyLN8jA7pTlz+ AJDcO8wPjm6Z8DXYfwdNscb8amWtQlbKrOmD2mhfpXqSuT70DXY1PwlM97NxDTjvcVZOarZbjdU7 sejeMDv0c/RsnG/Ny1jQx2VQPQR48qSZ0AR3AIyEGRWoUjvj71x5JpTnwt9PdGWbUMZb9yuKFSS6 M4P66B/h+a2UCe/J5ByGns92oVM+XFoJZroCQFoaHNSg8zpXDg3P1dg0MMisbzSNBmzZS7A8f+XK nq78mStvd+WNrrzalc1rft6nWTkr3o/lPt61nV25bpg+z9zwnNTWGSupJvQKKdryNI0qADCKPqoA FaGVOlqZoxlOmu30+lD2CZ22CZHaIm/PpD4W2capzVaEP+9t+QV3Ctr/6AhXZoTOTUHnxUxXAEhL A3Zfd+WzrvzIlWcTvMa/U80AEtPKqV+58mXzq///yXxqyOdqfM6t7GkZwyzLZ7/SKtJEivNcedRG 3idpevj386wZK89mcllUDyt4AABAWY3jVHJJBaaBuMtCqROdV78x0xUAeuEFV75vftKE9r3TSp4t Ih7/NqoYQIkeduUfzQcl/saV/SPf06qgrODOPFcWckl1TM9VpdBrdZWVVvMc5MqpVu/g5BQujeph BQ8A1A8zKgAAAJpDQZ4fmF9t87jFTcVzF9ULoGRa0XO5K1e78htX1tfkvDThrazgjvaG+SiXUse0 NYZWkbWTQk/P4te58tdW3/H2CVwa1USAJ09LqQIAo2BGBQAAQLM8YX61zS9cWRvxuM9StQB6QEGe a1xZ4sofanA+yqB0rZUX3DnR2HenU0ot/qS1N66iIOQD5jM1XGn1CUoONZnLo5oI8ORpZbhhA8BQ zKhAlZSV7/kxqhoAAPu1+RU3MYMya6lWAD2idG3fc+W3lveA+cGu3G/trQbpFMGd7ii4s6yD31MQ UsHIb1k9ApIj2Y9LpJoI8OTrZNt4M2MAEGZUoGrmlfAaN1DNAAC8tIpHg4hPRzoekwoB9JrGvbQy 4sVM++aXuHKHdZdlQ8Et7emiVSW/d+Up8+nAhgZxzjeCO93oNLgzED6Te11ZUfM6YjuAitqMKsiW lqse4co0V05xZQ5VAsCYUYHq+UIJz6h7qGYAAF4aANXq2WfMDziN6/J4K6lSAD32kPmVPApojM/k PSuwc7zFScemVZTKVvBf5ldp6v7+KlcOcOW1ruxgfvL+DFf6uVw61mlwZ/DzV5/N+prXE2PPFUWA J29qtN8ZylmhAT+p5uesh9du4f8VOT7UlelcCsDLmFGBqllufuZdqnv1PCN9DAAABT0T10U6Vj/V CaDHtHJFqxOfd2WbCr9Pja8e6Mp5Fi8Vm4IGWr30b658Pfy/7u8KdL3Olfe7crgrxxkB+W50G9zR WOwWrmwbroMXa1pPZIup+A0I9aGAz6qan6POb/mQDoeuY61musrYXB5gRgWqSDPYHk107HOpXgAA XlIMMm1m3a/ekSepUgAVMFw6sm7vlTvZxtkvlGJLARTtYdbK5DHtfbur+aDOey3+/jo6X6Vju8aV f7CN93VR0EsTvZeGvyclW+f0OS6LcBxNtlfQbU/zY5YDw1xzCpA8Y/lOTpzB5VJdBHhQB7o59oeH sx5wBHnQVMyoQFVpRtksVxZEPu6+5lOWAgAAH9xR6p5tIx3vEaoUQI9pYFyD8LH2ED/YlW/a2ONG ykBw+zB/X9aESo1zKSXb1bZxcKegVGDPcnl0fW0tjXSsrVx5k/mMKl+2DalSC1uaz0Ck1VYftjyD cudwyVQXAR7UiQb5jrI40XcgR8yoQJUtdOUMi5OLWhTcWU61AgDwslebTzUTK8DzBFUKoMc0cP4a i7P/jgbfW51wNt16ux2A0nzd58r9XALJXGzxJogrWLSHK6eGa/Za8/tHKZCznStvMb9/uoJAmjxx YWZ1NdnYHqPSCPCgblLv9QBUGTMqUHWXhfv04i6OscJ8MJ/gDgAAG2h2+/6uTDM/uAQAdaBJXRo4 36LL42j8c0FG5629dlZbvD3VsLE+i78aS9fYH7nyEVfeYz7Ao/SCClDu48qOrmzuylxXbjCfZi8X x3PJVBsBHtTR5zJ7cAMxMKMCueg3P4vp+g6uWa0AusLyzVsMAEAKxX4Sf+rKARH7+U9RtQB6aLNw X1OAZ/Muj3VghudeBARe4FKISmMnixMde5PQ190uXHMD4e+G7ot3hysTLY9047oWL+WyqbZNqALU 0D1UARqIGRXIySpXDndlF1fON78qZyRalTkrdG60AojgDgAAG2jQSCt2jnblWFd2iHhsNu4G0Mt7 m/ZZfqv59JPjujzepMzOX/u4nG4Ed2JTsOLuLn5ffddDzAdwDgl/HonG3Dcd5dq9McJ1XYaPcdnk cWEDdUOuaDTxXs6MCuRopfn8wyraPHVobm3NHGZwCQCA4WnwSMGdd5ofCNTqnU2pFgCZ06D39q6c 7MobQj+hKZSx4GuWx8qOHK+rq62zfXeGyyRxZygXuXKktb8qSNkstA/QWRWuM612msulU30EeAAg f8yoQB2soSMDAEBLNEil/Sh2duXdrvyl+VQwW1I1ADKnccpXuXKm+SwVOzbgnJXN4CRXbjGyFaR0 miuz2/wdZZPQ6thVo/yMJiT2m884cXWbrzEn/O7CirY17uKyyefGCQDIFzMqAAAAmkWrdt7nyjtc +RPz6Yvo2wPI1bhwD9Nqfm1Sr5U72qR+V4u3KnFpBc97vvkUX8u5BJI72NrPeqLP50RrPaOEgnMn mF9R285raQ/xfSt4HcwJ7Y0ByyOVXKPRCEQd6eazzkhPgGY0hO+mGgAAABpFqdg0wWdb637j8ZHM o5oBlESBnH1c6XPlba68NtzfYg4qKzW00mz1OrW5VusoJdcNRvaCsmi16x1t/o6ulcs6fD393s/a fM1lrkys0DWhFLAKOGmPc6WSG89lVG2bUAWooRfCzVRLKNdTHagpNXavtc7yxwIAACBfmlGr/Sk2 pyoA1MDXXfkXV842vypxkqVZMaCB9+3Mr5rpBb3uHubTcRHcKYf2b1rS5u90E9wpaG+efdv8Ha0y q8pCDI2l/th8kOoZLqPqI8CDOnrelQvMD34/6MqLVAlqqJP8sQAAAAAAVIlWCOztyjaWPhOLJgJf aH61RNkrFfW6A3zcpVGQ8EZrb1JsjOBOQStg2gny6H1ebdVJh/akK4+48izXbfUR4EEdKdJ8U3hY f82VB4yN6lAv7eZ0RfloAAEAAADA2HoxoK0VNEqVdkiJrzmZj7pUmvQ9vY2fjxncKbQb5NEk3nMr VIdkRcoEe/CgrvSw1vLGK13ZwpX3urKbEdRE/jrZHBDlNX40u+V3rjxhBJYBAACAXlFqJg2o72c+ LVdf+PtDrbVBX22wrn1btAeFBmk1vvA4bfzauTNcH9rbNnX686+4cgJVXgpNim0n40mK4E6hCPIs a/Hn54Z7zWU9rkOlStzF/Gq3cVxS1UaAB3W2znyKNjXM9nTlHeY36gNybqQQ3KkmdfQeNr8EvN+V 37jyHNUCAAAAJLdZ6PP3uXKMxUllPdIxVrjyJVduMB/8IeCTP6VtUyBQQbyUQZ7Z4Rrtp8qTandS bMrgTqHdIM+l4TpZnuj9KGCzg/lJ8Jqcum7Iv2uPv0NCXW4T4bXIcJIYqxlQd7pJ/dKVxeZzR66j SpAhzTz7hhHcqar1oaOnzUG/4Mq3XLmFzh4AAACQzM7mJ8D9yPy+u8tCfyn1PqUKAGiG/R3hddVP m2rMcM+dssDsF/p1KWlsagLVnfS+cEcbP19GcKfQbro23dNipvVTIFwBm0vMj1X80PzezgeEa1L3 sE3Cax7myl+4cpArW3b5uqdxzafHCh405UH9U/OzMfbixoJM6OG6jysfcWVOCa/FjIrO/cGVW11Z 4MqvjEAyekMNcc3CUjrSmeHvWk1Boo7swvD/j7lymytPmd/D7lkjWAkAAKpBg7fHuvIJS59Oq1Wz Q1F7Snu6fJu2U7aKIE/qlTzaSoBUbfFpjHtJGz+vbD9fLfk9KsijoFKrk3eVOnDvLu8p6ieeaT4w PZiOe5Iru7vyE/Np4RTg2dOVI80HeXa07oPXl1qEycrTprwc69LYy+dcWXTXilWMYw26+IEmuD/c SFcbAZ5UyHEc5558oCunWPqgzmCaUfG10KBF+5505WfhmiW4gzKokb1TaHS/17qfqTpljHtOEQDq d+XH5oNANKYBoN4OpQpQoXaPBhs/Y+1tmF42tacWhP+f4crNtJeyVAR5Vid8DVK1pXG1tR6Y0/jT iT36jhYrhloJekwJ59VpQFDX2eIR/k1p2LT6UIHzo1152nyAZ3tXXmUbVvVUzfRwr7112pTJRxDk 8QjwoCmeceW35mfab091RLl37GnkOI5lpBkVZYkyo2KQl2dUNKBTo/PTCoffJe4EAMWqvtk9uFcU AaA5QzpF/2R+lhzBYQAo1yMlvMZ0qhkVaPsosHOVVWe1TqsWh37sm8xPYkRe1LZtZ7+UTq+RibSj o5lprY9L9TK4U2gnyDM7nN/CNl9jMxs5uFPY1Pxe5duE+hhn+aSbVDvlNCsvxV6lsQcPmkJ7ZCi4 84Ixi6ZT5DhOo8/8CpC5NbpWihkVt1gzclFvYs2eMFHk8u0bVHS/YLVkvHvveeE5tqxC94rZocOw OjwX+oyJQwBQlieoAtSc+nsPhbbGlEzPQe/70dCHZn+e/CiryKzEr3El1RyFJswuaPFnqxDcKSgw cX6LP7vA2t+P54g2frbYfye3e9UnuPw9Ajxokk255ttWBHUeDo1TBXR6PZtPg4rLQoNfsxhyHlBs ZUZFzooZFXU2LjS09jCfmrBJxoX7gwKvd4RruSi6X6wODWdt4tgX6mncKN8F/XsRKLoklIEhRX83 oSF1q4GNH4W6nJvBd31xuBbOs7ibgQIAgGa1L88L/b0pNTkn9aGvNSY/5UgrJuYnPH6Rqg3dub7F n9OqupOtWpO+L2rjGruej/oVplAF4eE5MMBihm4M2uSpELtC55nfqA/d2cKVs135sCu7dNjQbFKj Ooccx4PlmuNYjbnFNb+e1IjaPYP3qcBBp/sePReuv38Mn+cLDblPXGudr+CbF/47s4NGma6pbjea rPp9IcdUJMN9xp90ZRVNkKSKvdvebn5fpoL2SbrNmrmfHdCU7/6LJT3vgVzalzn0i7S3Cym5XqnK 42gTQnsqZdt8c9pqHdOkuFZS6cVYuaN71KRh/v7ZCJ+fJk62kq5NqQOXt9GvXFyT+0Pxub1i0v5d K1bRVjFSaaA5dggP5K2oilEfVuQ4RmxNmFEx3pVDzM8G0nNVm9Ar7d76Gp/zkV12vud0eU19zJUL a9g5UZqGuux5UOzZo7QDn61Ap7XYO263QX+nzroGWWIGoTTzZ1r4/1sSnree2cdZ6+koiv3sFPS5 y5WnOuzgTgj3PDOCd0AvlXVP3cwYdER5Lrb6BneKNqzaHgR58qLP6j3mMxak8nljYnenWrlntBLc KYI3ascrM0dfh/1W7Ud8u/n9o5e30e5udU+e2W30gx/J/LPVxFntpX6/+dS0E0N/rhjbHRfqG0aA B81xQGhIsSx6eBpYvMnyHowvchyf4cpXjb2WUB41LLZ35a3m0xreERpT2oD++Zqe81U9fn2lLLuo Jt/zCeFc5tT0WtFndWboGN/Zo+/naS10lhQAWTioM/ZI6Eg8b6MPwujz29/8CprhUumpg5giENJO cKd4Rs4d4ZyL1T6jtREOHOYarVIOcwBpbG0Ec1GOg2vcFhr6PCbIkx+1YeclvEZ13C9Y6yszsMFO Y/z7+SP0Gwevgn+XxZtkN32EY6ndfI35yckjPVcvC9fA4i7Od7D7Qns/x3E+7aH+Q1f+JfRTtEpK 2278kSvvD31Ljb2czFcgdHpJ0dYdUrRl4VXmU7OdFm5snSzfq+uSP53XuVb9/R3aNT/c6KveaG51 OXHONKPi8AzeZzcp2gbf/18IjQ+Vg1x5uqafaxUaD6kGzsvUZ/VP0zi0TfPRkq+fb1i82cBFQGRw Z7wX98CyUjO14gzbMOMQQH5tlyY8a5EH7TuYahWznsWX24bZ9GavTKlUDOzsZX7A90xLOyha95TD ve5bpBhH06Se1YmviT2MiTPtUsrvBSPU59AJZhPC9/sc623WBL23C1z5mg0/ZqX70fUjvMd22945 jjlpgl2/+XTfd4c/F98LBXk0ufb/deWOu1as+hpfAY8N51F3ymX6Z64c5cqrjTzSgxU5jufW8Nw0 mLfUqr9iq5hRUWcnN+w7NT40OHbnGZvctIzfu+5NCjwsbthnpoHIh0q8N0+1uKleptiG1HOtDqqq Y7Zz5PPaukKf6aW0rYCeeayE19iBakZJ7aLYg62atb9vGA/QRAsNiPabD1iqDA2sFH+vweALQ1te e/fOS3TOalNczUefFQ3Ez0h4fF0Tp1HNbVtkPuhRWBH+vHf4Po8LfQL1vRSgW2C9T4k9JbShV4f3 NXWY+9ER4XobnIKsyFbTjuXhXpZTKrPfufKvrvzS/H7HSn0/cNeKVSprw7+fS3BnY6RoQ50VwR0t 39PSyy2pko2Q47j3NAtBwce6ruI5w5q7zLzuA563Wn32iilbL1JialWj9idbOOTvZ4b/7lzi86C4 Nx9Vwv1ht4p85ocNU/d1MsmY4Q/0wm0lvMZuRsogpDc+Yvv04xZvDzy1nbQKRLPIv5KgrTQ7tMUW cglkoz9xP0iD/tfRrmqLxlQus1eualF/vM+qv8f07FB0XZ086Jk7EK63GJkAVobjKJiu1UH7jfHz ui/FXCFcnNsTLf687t8aw1s33D8q0GPVyWZQGQR4UFdKy6ZNwBXc+VPbsOQaHjmOq6OYUXGd1WfA XDPmrggNCdSTOs+LqYa2nWI+RUhqakR/zkbP8Vx0Uoe2C3c0H5B4r6UL+ujerMD2vtaMgUN1LmMO 3jxbsfObNsy1lLvJtmGV4Mwh/6b2k9Jx/jIMGuj5/YiNnVJFA+V/7spJrrzO4g1o9lKxkbCu7yXG fhJlK2Pz5O2oZmRyLzo5YZtCbSntOfddG3tPv3ZpNcFE7p9ZOdaVJxMeX6m5DqeaO6bAzpFW/cDO UNND/0j3s+MtzVjKmlDGOnZ/aP/Gqr/LjckiyRHgQV2v6781P6CiDrRmlpIqaWNfTNzArlKO4yLI U+Ucx7nNqBirA4T6u9n8qpDZVEXL3ujKpxO/hlbNdTPrb61tWOmzMDxPlR7gM5YmAJ06yHNXRT57 3a9j5oHX5zTLhs83ju7sbK1NuNgitDE/FP77ffOBDg24K5VEEezZMrRDDjW/ak0DDkr7M74m9VVs JFy0SUbayBhpPFHCa/QZqwuQ3lMd/t5we2ykUqwSkNhBnouMfZdzsiq0uS9NdPzp4d7bT1W3bbS9 a3JqWz1qPj3k2da7MayFFm/MieBOCQjwoI7UmT7VfM5odcDJDb+xVDmONdj7YIsPoGLw8U7bkOdY gyrnWpqVRTr2F8wHkqqMGRXIhTq5msn4T5Zu8L9ONMlAgW7tl7BLgueSOplXJOgArLUNqQGUWu7K BJ91yiDPqnDsKqTBHGdxB70XJR5caOqgwKNt/LxSAWvyiFa9KYDza1ceMD/o/kL4d7VFNZlFEzcU 2NnW/OawdVXs63ghl1MpyphUszPVjJLale0+03oVUE4R5FH/95PGRLmcaB+UT1i6SaqLQztiLVXd cjv7tJq1i3Vf0JhPWUFs1GDAAagbBS41gDbeCO4MJ2aO4xmh4aGO/PIuGyBFjmOlgpgf8Xz1nu4z vxHb1jX6HGPOpiS4g0474/3mB/+VWuKQ0Nm+laoZtq6eceVx85tExjI/3DMvK6EDuDx81ik2l9We RBMSvm9dn2f0+BqYlOCauiyc2yy+d1FM67Avpc/29eZTtvx16JB/NPz3tPD3rw/f1U0bUI8K8kzl cirN/MTHZ6UuyvLVFq/nFaGvf6H1brXgZQm+e2dyCWTXtj8q8Wt8nmpuifoQ2nerjpOeFEC8w5VL jLFNtNApAeqIm186GkTSjGgN9PVb/EHFIsdxjME4DaQ+FDoM/+DKH/j4hm2ckkoF3dLKs2I1XhHw mRU64ak8kuF37YWIx1Og5QQrf7Znf/h8YwYUilSa4xJen5eF428X6m5ejb57C8P3bpNB56fv33xD O5Z28bubhu+FVuxor509wn/1562sGYGdwa7kcirNd0t4DbJ+oKx20gnhGTZS+3FWuL9WYZ/PD0Q+ 3ly+a9lZnrg9qYkirKIc3dTQfqt7NgldCxrXmsBHjpEQ4AGap5scx5qhf7ilX/FRzEw+I8K5Kpe+ ZnM8bQQyhlpnfoPIZ6kKRFYMOu9haVZ8yBMZ1ce40OaKsbJUgRUNJPf3+PPV3jwxAwgK8lxbwntf FerurPCZ7GvlBHt2KOE1Bgadn75/Jww6R1b4jG1lxHoaZ82ebDSdQYjS/KyE19iaakaJ9AxTSstd QhtyRuiDbh6ebVXpz+l5e37kYx7Ix5+dcxMf/zpj8vJIFNxZZunS5FWNznO1sUoaIyDAAzRPkeO4 HWq8aqC27Nyf3QR5FLy4x/ws0meM4M5Qz5vfL+DrrjxMdSDh/UYd9X0bXg/qmGnvjR27bHvpXqzA ypqKfLZabRkzyKNUQDNLPgdNWFCwZ3NLm8Zttx5+TkV6vUO4JY3pZKogmv2pglLcW8JrTKOa0QMr QxuyP/RBq7gXyRWRj/d2PvbsqE0+I+HxNWHiSKr5FYrgTkorQt9Ln69WyE+0DRN4hpbNw88cEvoT KSdW6bz7uAQwFAEeoJmakONY6diud+V+88EebKDgjoJfXzSfDuBxqgSJLbdmp4vSyp0DXNmpi2PM 6vG9eDgpgjwLzG92X7a14XmzndV3tYsGyJoebG3lXnU+1RDFG6iCUqyxtOlQhdnCwPBWRv7+sQ9P nm5O3HZcbKyKHfpMShXc0fdZARqNge0e+l795lfsrRmjH7EqtLXVn0idslzXxOlcChiMAA/QTE3I cfzb8OBby8f9isaHZnsquPMvrvyGKnnJi8Yqr9QubOh5a1bXNuY3Yt2uw2NoUH5hhZ8nJ0fuvFzf w/NR5yx2+rkqWR6e7xjZRZZ+wLwJSDVUni8lPv4xVDFQyvdvCtWZJbWFjy+hbYJ0wR21+zQ2pvEv BWhijIEVKct3tzTpkrUNAUEevIwAD9Bs/VbPHMd634+aX72zno95I9q35N/M73XxHNXxsuWhbljt lc4DDTxnBXe0ekfpbRTg2bKDY+xr6fc9i9GBOSri8ZSOoq/HHfU6p+paxO1ozM//IKqha4dSBaW5 IfHxZ1PFwIhui3y8yVRplhQQSLmn4xxjNaVWMaUI7micaW/zY2Opxr+KdMmjTbDuBEEevGwzqgBA aJCsrPh7vMJ8OrFW6MGswfo1xqqMwbRK5XZXrjGCO0OpQacBkqNdeY0xASKFpxp2vuPCdaSZYB90 ZU9rf5PUHII7gzsu57dxnx7LVaGz1atVmHp+aBVPHQc2ByJ/VnWkiSVa6bSAqujYdKqgNGXswzM5 fC+AKtGAbzGRRjQAPtrqwXtCe2Wp+RTVMdoYj/AxIDjb/F6SqVZi3RT6FU0c3xgXvrexaXJzmftM 94f+zdUR+xiXhvtaP1/BZiPAAyAXRY7jVhpMA4Ma7OOMIE/haVe+ZaRlG45mA33Z/ID821zZ3tof jMfY38smdUI2dWUvV84zP1trfJvHmGH5BHcKSh9xZqSOrY5xivk0Cb3yT1bfmeu3GcailczzjdUL qD4FpJX6JWVQTc+zO6lq9JCCOfub39/rmEj3Zn1vPufKj63zyY5P8NEg0PjDSebTxKegtvFxVt20 zSldbHEDZxpX2s9G31cn5XWi7RK08ubSSMfUNZfTxEAkwAxlADlpNcexBle3NoLYgw2EjsvNVMWw lJrtJ+Zn09xtrHBC+8bZhsDOVub3cVHA4z2uTGrzWErx0J/pfeakiMe7lPt4MkupgpbE3l8KSOVz iY//NqoYPbCz+UHQH7my2pU7QtsgVuBdQVGt1Hw0vMZM2h3oktrvtyY8vq7XCQ2r0z7zKepi6WVw ZzBNYjsk4vFuauC1gUEI8FSbIrsMMgIbtDrjeJPQIXiVsQqjoIFXpRB4mKoY0YuhQa4ZMI8bK7/Q Gu1ZtoX5FTpK76c0f0p99c+uHGvt51JXp+OjGdfHzRZ3QPzdXGJJrKEKWq6n91ANyMCPE7chZ1HF KIkCLDNDn0WBFwV0ykj5WAR71B84z9gLB507NvHxL2pQXU6w+CuiDqpQO1grY/eNdCytcLrRqjf+ NWCMq5T28ET1aCa59irQ7MolVAcq9HDNKcfxTuG9Kh3Zej6+l+rgv42g8ViUX14z+I4K19AWVAlG oXvMx8NgwMRwzezqyg7hftlJA/uozBvBxSqeWJ2xS1xZRMcAPe58s2cRqq6dVMbt0kDYA+YnUNGm RioKqHzK4s7U79TcULSi+lwrZzBY7Zznae/Upj+Zst2g78gXrBnpuK6MfLxDrHr7yelznBGp7zQ9 3LMu7PE5aUz7uVDXGoN6httCegR4queF0ID+rivfM3KkozfqkONYq3fe6coPw0Ol6Y3lgdApZ0+i sf3K/J48agAS4MFI9F1S4GG3QX/udmX0vJp01m6JeCwNVu5j5JRGb8XcXwpI5QKLl89/aPv7B8aq eKRRpcDOUHNCmWVpJ5toIFSTEpcYk/FoN7RG6bj2qHm//mCLuw+igm5V3Uuu35UzIj3DFVi8wjof c+uGrsdnXbkv3M+UVvPh8GckRoq2alFw597wZdReI98zNu1DeeqW41iz5zUT4nDzg/RN75Tqfr+t Edhvxe9DJ4sURhjNkaFjtWkoMdpUn6xJ3WjF5vyIx/sIlxt6TB3Wg6gGVNz1CY5ZrABfYazeQVzq mykV2pNWzeDOYOrDXpugH6Vni2a4a+b+p83Pun+BS6M27YaUKV4VODqu5veHb0Y8np5hn634OX/V 4u3ftMTKH//Sqh2NoSgY/hlX/iHcNzWu/RS3hPQI8FSHvgwPuvL1UH5tzN5AenXOcawH2u6ufMCV 15rfJ6PJQR7d73dxZUcu+zFpcPppI00CRveZyMebZ9VLGdCNf4p4rDmWZ3Ba94/VoVP5LF+Z7On7 yT4kqLIiTVuKexnBHcS0lflBwP+V0XvWpMf7I7ZHiuDODeZn3Ktv/F/0PWpFq0XmJzz+Aqvv5E1N pIu5+uk9FmfLgNT9hqMjHavsAKDGszWm+A1X/tGV/zQ/pv1U+DeUgABPdWgw8fuufCs0zPkSICUF VLSvwYuhYdDLlCNq0D4Z3s+EyMfWyp0/NZ+H9I9DZ6KpQR6dtwI8b+Tyb6uRBQxHKx5jB8PrtmHq XZGPt2dm56/B0N+58h1X/o/59LvcK/OnAcn5BlTXWQnaj5NceY35veaAGCaEZ+TqzN63+sxXRzqW zl2pDzUYqhTmT3NZ1NIHEh//8zWsMz13rop4PK2KuTOTc1cGkViTicoKAA6E+/m/m1+FdLcrf+Cr Xz4CPNWgYI72e1CA5z4juIN0isBOFZfCzwkN3ZkWNwijtGTvMJ/bWXvy7GXNTVW2nSvvDh11jEzX hoKBpPbDSI6NfDx1PFbWrI5ir0aandG5q6OjVI//GTreXzOf4qiO1liz0lnqsz2ZWyAq7NuRj6d2 0A6uHGZ+PzTaRYhBz0Sl8nnO8pskoPbIzl0eQ+M9Wg2kwVClRV/LJVFbqVf/zolwPVbNNIs7ATm3 dpsmE8VajXtKCe9XY3g/M5+Obakxnt0zBHiq0zlWRPm/jLRsSKPpOY63ceUt5vMaf8KVPze/kmXT hl0HW7rSF+qCvXhGpkCoVjsxUxUj+UTk432OKh3TmRm9V+XP/4Ur17jyk9C5r9sqF52PBuj+w/wg VdPa7YckOK4CvdpgV/sHbleBoufg+V2eD8qngeJ5kY+5dWg/apDy9VQxYPt1+fua3d7vys1GcKcJ Yg7YD0dpseoUfP9ixGOp3u/LsI19UqRjaQuGzRK/18dcucl89gaCOz3EAF81KC/hL61+s3dRDVPD DXdKRu9ZM6M0U3DviI3eLcLxNGDxdld+68rh1qx9EdTw2838UnHdb35Kp2JYfxS+NxOoCgxjQoL7 6Q01rSsNMsaaVDAltFtzuGfpuXJ3uMe+WMPPtQjuaMDiYvOTR5rmzsjX9yFWvfQhCkxqYoxS0i3r 4Pdv53HRM1+wuBO6NCl0T1feb36m+DmuPEM1owuvcmVX85PPYg5MazB3ofngiZ5Nmk2+ZlD7TYEZ BbD7rHeTHot0RlrlS1q2ZtBnflSHz9KxrAv35/1d+VUN6koTLWOmwT7L8pxkdXO4n8Xocx4R7okp PB+ua03qIS1bj7GCpxo3ez3YH+MLgciKVTvLLK/gTiFmjuPB1JFQHvEDrZlB7vGh0fSx8F/StW1M s1TfbD7AswXVgWHsH/l4K6xZKa66aS/tkMn71GpsBdGfqulnofbq98yvPPuVNXe23kctzoxcrdqp cm745dbdSh705jOLPVtcbWZNlPqLcO0DnSr2SFVfLMZqeQ0szgrH2t38gG4R5NGzeFUoK8PfLQw/ o7GwfTu8vy3t4v2uC9/Pu7gUGndfjr26Um1OTVrVhJsta1JPx0c+Xq6T6PTZXhDpWFclfJ/q82gl /zK+4r1HgKcaivzlLGdDLJqhpDRnczM/jxg5jkfS5BziCmK81XyaKTWituIr8xINXhxqfobVTkae eQzv7ZGP96Ua11Ws+7dmh90b7l1VNy6UuqYAVVtVgxRfCZ25Jrdd1fl+U4TjXJ/BuV5k7QcMFvK4 6KmTEhxTYwfax/JTRiYQjE39iwNswyodXT/bh3a2VoNpxfzmXRxfg+VajXN4uN+0O1lmIDzPLgzv 44wW73P6uW4yr6wLv/84l0jjnBv5eBpcV6BQ4z731KSOYqbBvtXynkT3tUjHmWLpxtRUv1qs8BRf 794jwFONzmHR4GEwETFoWatmFc2uyfnsx0cane41GijV7Lm/d2UPquSle7BmEmpmqlLlkJ4NIzk4 8vHqmp5tXKTnkDoM33LlQ+Y3ZM5BMYt4xxp+rko/p9U7S4yJSaJBum43T85hkoX6K2e1+TuPcHn0 1C2J7+/vpooxCrWjv20+DZqCjdr/9ERXPujK/zSfIm2SdTb+oUHbXcI9aVWk96v0r5eFPpH6AfNH eN0Z4ee6oWfn00aa7CZaE6HNMJiuI6UE/nlNrqfYabAvr8H1Ems/w2MTvccXQt+APkEFMPOm98aF jt3W4fN4kSpBF5RWqqzlkTnkOMbolCJBg5A7UBUv1cNp5ldn7GAE3DGy2MHzB2ratjktwnEU3NEg i1ajPho6ETlQu26aK3/myjczet9jWW8+FYiCkqu5FbxsUbhOO703qJ20PIPz/La1lw/+N1waPaXB Pq00uDTR8S8J1/4AVY1h2gA3ml/hqGDJMeYHADXWob13NBlxfIdtbaVTuyjhdafjKmXmCeH9FiuH n7e4KwGKyb18f5rZZtCg/fQI1+qa0C6ry57Cb4p8vP4a1MnlFmdPIq2Muizyexu6WIH7WY8R4KlG A0izV7Tx+TbmN60FOlFGcEeNEeXcv2GMRm6R51gUBFKu7n3MD360mzZuKR9t8nsQqzn9jLyZ5vdn 2pTqwCjfl9ieauO1dR/VSrO+CtfRoZE6IhpM+Y4rnza/EmB9Rh0HpXpR6hmloHkxPDsfr0HHZ134 LO7hVvCKDu7J1nmAR53ur2ZwfShgoJn4i1tsL7K3WO9dYekCPFPCM2k51Ywhzh3UDtA4x7a2YSCw m3aU2ur9Jd/zViU4rvoZCnQpyPUcl0sj2wxKkf5opGtps9CXr8MKCt03/jvcM2KMVddhokmse56e 2RMit83GhfvYpND3eYGvd28R4KkGBXZeH750BHjQCeXUTBncUY7jT3bRyB2c4/izrpxifkBjrFmg 3eY4Blp1QPgesXIHo5mUqKPXyj1+icVNW1B194VnT27BnYI6p1rBo5Wsh4VzeTTzz2R9eCbTVn0l dZg1U/2ODjvd54Y2Ug4DDa2sVjqeS6ISUq/iudL8/idAQRMOh07m6zawI/tafYKJGoPT5N5dQ1sH zbMytAu7yXJSpFzfy3xK4MdqUC/fCG3Md7nyRvN7dnUz8bIOE00ejHis/c2vUIxpYrif6Rpk5XaP MWu7GrTx4LTQMdyG6kCbFIlfkujYuec4BlrVaaoIoBvzWvgZBXcUGGhScEczWv/TlZ9ZnsGdoo2t NDRKN3FaTT4/zQ4lz/bI7mzxOz2cuZZuA9zYThyh7SZK4aaBWCbnVMcVCY+t2dZTqWIEakfflOC4 2rOkTivFNGCt4A7B0WY7O8IxFOB5gytHhr5s7hTw/LL5vbqUNeYX5lf0d2J+Ta6TmHsrvSHB+9sy tPtez1e6Gp1PVONz0GD328IXg5VVaKchrRzHKQaOlOP4iISd9ME5jrWkc7tQJoYGbz8fLwC8tM9B 0yid2fXml/rnnNasSF2gfb0m1KTNsZkRDB+NUtKu6PB3l2RStwOh7aYO/bxBRRNz9jZSdlVNsYon lSupYgRHJuiT6t6ysIZ1pRRt77R8AvtIc2+e0eUxNIaiVRlKn3qcbUg1rvHFbSy/ccWBULQS5Iuu /KMr/2Wdpf6q00STeZGOc2CC96ZrTKvIlLVge77WvUUgoToUfdegtjZJ08a1v7C40VrU0+AcxzHV JccxAORudgPPudjnhc06q0WDBkrBoNl67K8yPF2zWrXVSTo+DYxebH7VdA6WZ/Re69BnP8WVUwe1 +xVIvMBa27/pCkuXpq1YxUNgr9kUnF4c+Zi6xs+uaX1NCM+KPzefsYK9eJqp33zmkm7Gc5QSWOOI GlzXIPtD5vd/fLUrT1se6V+Ha0vpO3GtK1u58mHze1tu0mbdYmMzE7TbdO/XRDYF+JWm+NvGXjw9 wwqeajWKdnLl3a6c7sqbzQd9gJEMl+M4hn15IAJAKRZSBcN26pRH/CmqonKKfQP2oCpGpVmjna6Y UD7+g6lCDKKB4PvNB2gGDwJOCX/3kI29QlATqWYlfI9XGiv7mu7IBMc8yeo74VXjcFq985fmB123 5BKKan0oOTi2y9/XvVd7hCr1/Xtd+Yj5Qfy/duXvM25TFEGeReZTP7bbL3iS/uIrpEoXvYUrr3Xl /eaDjFtwC+rdgwXV6jhPCQ3w/2l+lhadaIz0ICfHMQDU34qGna865Kst37136t5v0IBUH1UxJq2q uLXD3/2m1SOlH+L4qI0+KKN/ayXAsijh80SBpyP5qBrtMwnaPjfXvM6UwlXp+T9kPtCzE5dR17Ry 5bHw/P15Ju9ZWUzOj3CcIuW9JuLsbn4Fz4TQpsg1AK9+gFZE97vygOUTtKuycYmOqSCjtnc403zQ knRtPeqooVo2C53no135H64cQ5VgGOQ4BoBmuKCB57xF6CwwI7x6JpvfN2B3qmJUA6Et34liwB6Q Vlbrz7axAyy6Jt+T8H1eZaR/byoNIsdOGX6BNWOSh/ae1cbnWnXxd+E7yhhdZ543v7/vp82vZMnp OXqRxQ3AjxvSpjgt8/aUPtdfGumBY5iU6Li6bymoo60e/jbc09QO3sVY0VMaHh7VpBuy0rMpVdZ+ VAeGuT7IcQwAzXCFNWsVj9qmxaxDVI/SyGgw6i/5jMa0xjrfQFkD9n1UIdpwlY0dFNcg2fxEr69B xI/xMWTXp9R95pJQlCa+kyDdmxK8t6816DPQs/S14bl6npGurRNK5acAwBfMr6DVXo45BQhTB+Av zbzN9hvzK3hWc6lXvg+niWB/Yj6o+HFXPhHaBrtSPeV8AKj257M51YAhyHEMAL2xKvLx3txip3Vv 86ssm0CDHUovsS+XW2U/nx3Nz4492QjyjKW/i+/u4tBRBlqhAMs+LfzcBxK+B6022pmPIgv6nB4K 95k5oWgQ+P4OPsOZkd+bJrU0baa+AmvaqFwTKBj/ad/Trnw/XM/PZXoOKQPwclHGn69WZ/3elT9w qWfRT1D6SQV0tLLzL8ynoZxC1ZTzIAGQF3IcA0A9tJpvXUEebZiqlZZ7mg+A1Nm60JFjD55q0uDT VFc+6Mo25gcFV1EtI9L3dmaHndvrzec057vQXGeE71grtPLrwjF+Rt9V7bm5INH7XWJ+D1mu2eo6 fZRrSvep61w5vI3jzYn8/pqcMlzjc6SnbY/uNU+YX8HzWObncnK4j6eg76lWOC3P9DN+IfQPBviO ZEGf0RahbGusTCztAQIgH+Q4BoDemh+x83Vomz+/NnTMlvMxoMfUUTvAfJBHAyr/SpWM+r1VCqNH O/hdtfmU5uIyqrGxNNjeaoBHK2gubOHnFpnfhHx6gverAMG5Lb4PlGtc+GzG2tdJ18XUFtsaKQZa 2RMW7dIKD63uWJ/5eWjlWsoA/E2WbwBek4vIQBXnu9KLZw9KwBcEyAs5jgGgt+6MeKzpNHqRMc3K 29OV11MVY1ppfiVGJzS4T9qr5tKKm3bS/LWSNlGDe8cmfM8KIBzMR1cpamtca2MHdwofafHnJlG1 qMC1rUkn2sO6DuObRQA+BQXgj8uwTpTya3tXtmqj3zS1Rtf4dhGPtcZQWwR4gLyQ4xgAeuu2yMfb iSpF5n0J0i60Rhs/dzpoo7RXBIOb65Nt/Oz4Fn+uSNWWyjeNPbqqQllbFNxpZ/VxL1Nd3cVHhjZp /6LXubJLDZ6VCsAfn/D4Cyy/TE7az2UvVya28TsH1uj67uMrjlY7ZQDyQY5jAOitpZGPdxhVWlmP UAWISIM2R3f4u5p1ezFV2FgKxqSY0a1+QKpNvXXN3mgEJntNQbb7rf3UsvOpOmREe3y8JZSJ4b6T 871Hq37nJTz+5zOrj2nm0wK3M6GoTiufY53LCm4V9UaAB8gHOY4BoPdiz2o9hyqtrCeoAkSmVdMz OvxdTfIh7VVz3Z7ouO+zdIM+SkNKYLJ3lKJIk1KmtPl7uh7uo/qQkU3NBwA+7Mrp5tPH5j7WeXbC e7PaE7kEQHYJ7aa9w+fcqtk1ur67PZcXzE8UuZxbRb0R4AHyQY5jAOg9zcKPObNVA2CTqVagMfqt 85m5pL1qrpmJjrvW0uzxWdBA4ul8fKXrc2WZtR/ckaOst5uwc49DJ7QvoFZ6fNyVr7tycubno3vz SQmPf51Vf5WTVuwcF+5Jkzp4v3W4l3RzDrqPK7BzhyvXmE/PhxojwAM0GzmOAaB910Q+3vFUKdAo nc7M1WDtlVRf42xmrQ/UP9vB8ZUO6JCE7/9SYw+BsmgA9DxXFnf4+wo+L+/xOezHx4gOaYXHjq78 iSsH1eB8+i1dukRNMDuywueu4M6Jrpxq7a/eKexag2ugm3NQcOeHrvyDK//Llbu5RdQbAR4AAID2 LI58PA1+bUa1Ao2hmblHdfi7StXRRxU2yp4t/tyKcG114k5Xzkj83JzKR5mUZnrf4srcDn9f189H qca27UAVVFJd9v/6QOL7chX7H0rLpnR7f+vK610Z3+Fx6tBW6vQclJbtF65c4cq3XPmd9XZlJkpA gAcAAKA9mhEVOy/2KVQr0CiaJX9+h7+rQRlSOzZHqwP2X+rydS6zdLPFRSnDCPKkof25Vpufld8p rXhodwBwVYJzmZlZ3e/G5YfEfY5ZCY//+QqdqwI5Cmh92fwepa8zv5KnU6fW4PPv9ByeduUnrvzI lef5GjUDAR6g2chxDACdOSvy8S7lngw0zkWu3Nrh715v9ZmhjJFpI+xWN1i+IcLrKSUOQZ586B5w ifk9Frqxr6UJ1nTi0Mw+A65npLbI4k8sK8wJz5kq0ApUTWh4myuvtu5XF03PvG81wToL2itQ/4wr D7jyBF+f5iDAAzQbOY4BoDM3JDgme2sAzaJO+LEd/q46/adRhbWmwfslbfz8PZGuyTKCPH18vF3T oOxD5gdouzHDutt3Z17k89K9Lae0tcdwKaKEtsKbEh7/OqvGhJF1rix1ZfOI7+ftGX/ub++yLhUw W1+Rc5nJ1zg9AjxAXtYPKk1EjmMAVbHG4g9qsLcGcjSHKuiKZs3P6PB3tfJvZ6qwljS4da0rU1r8 eaX7WxvptYsgz4qE56c0g6fzMXd8bZznyqNtXB8j0b5L/V0e454E53hgJp/FZtb6CjugGysT9DsK CqoeWZHz/Hjk452T8Wd+SRfPiImu7OjKVnX6EkybMnmcK1Nd6XPlYFfYw3YQAjxAXgMA2jjzh+aX 4d8f/q6bzlwTcxwPDCrI8zoAquILCY6pQS9StQHN0m+dr5hYYqRqq5siuNPOwPGXIr8HtZO10v/W hOepAOU3uH7bor12tGpnboRjKbhzWYTj/CzBeZ6XyedxIJckSnS2pQu8q/9RhcHyWyIfT8GrHNMo 6j13E8Cf5Mo08/sYbVqT678vPP+Whev1pTFRBXy4NXgEeOJKMSBzKNXatr0SdbSq8lDXLIS/deXv zA8u3uzKb62zQE+Tchyrfv7blXtd+an52Wbr+bpE/55MDQ/fgy2v9ApAJ5TSJMXg11JjwKsK2JQU ZXpfh7+nAYCLqb7aKNJutRPc0azuFPunaKXqEZY2XdvscL5MbBjdZPPBsDus+1U7Eiu4Y6FvleK6 mJzB5/JFLk2USOMZ70l4/M9X5BzPj3zMuRl+1t2m7dYzVWN9x1vnAZ7+itTFhPD8WzzM809/XjZt ymTaEEaAJ7bxCY45nWpt26RMjtmJ283PktKAojbX/WdXLnDlK6780pXnOri+mpDjWIN0d4f6+qQr fx8Kg3fx9NkwMyosnxkzBNPRqZMTHFONVc3eJsjTW2uoApRoa+t8IF1p8g6mCrOm9ninabfOTfi+ ytiTR+e72khROtJ1oVR2T1q8VGAxgzvFszLFZJdPVfyzmWppxmr24rLHKO5MeD9WW6IKaV9jr0id bXmt4olxb9FY/y6uHO7Kix0e48mI59Rpxpi+0D4Y6/n3fm4NBHhiS7U/CLm1278h1rmhpY7W+tCY Vifwx658NTwIf27tBy3qnuNYs0C0WkezG7/syiJXvufKv7vyQsbXeX9F3seYMyosj1mZBNPRqeWW Jie27ncEeYB6mWwbVrpeEkqRNrbbAdxvGqsgcqTPTAP4GoDpZJbxLEsfjC6CPPMSv87i0KbkOt4Q 2NF1cWnE4x5icYM7hcsTHLMqg83DUdvsykTHfgOXfxR1nrx3csJjX1eBvseqBM+bKzPpU+k93hTx OXKedb41wVMRz2tKB/VwSWgXtOIT3PII8MS2W6LjHkvVtuWYBMesch5gBSmUi3VReHAptc/ampzb YJ0Gop4MnUWteHokdJSKIFnO+/AwoyIeBhKo5259MtFxCfLUB/mhm0ff253DM7YI5OjZXax0nRNK zM5zLgMYTadBl4ND+1TtqE4H8G8N7f8y6Po9y/zqj5Rm24bVPOMaem20EthZ30FfZl/zs/9TuC7R cau6x9hplm5y2KncIqPILVNJOxTUn5Gw3o6rwDmeW9PzauXeMiXSsTRG+IMufv+ByOfWatrNIlVt O23kKQYCPJF9KNFxLzX2sminMz07wXFnV/wzUAP/d658x5X/sPYG/+uc41idnoddudH8TJA67bnD jIp49k90XAJHGxtf43PT/WVWomMT5KkHNmJuhmLg/pLQ5tBK6wUWN5DD/SJPamv3mQ/qaPD+jgh9 lqOt/MlKWv2xbwmvozamNtue2qDr4zwbPbCje8rTrvzaldvMB/juDf2+daMcW4N8E82vOE7ZDkqR pq2KKWunWtxVVUNNNyaFxHJEjc/t5kTfOQvtll73Y9ck6FstsGqPe+0c+d5yUpdthGcjn9+0Mf59 nHWeqhZGgCd2h252wuN/nipuyT4Jj/2xip+7Gv1aodLvyq+svVU8dc1xrDr5rfng17qaXevMqIgn 1Qaph3FLTmqHir2fRQk7WsWgbe6TPXT/6AtlquUxCL0i0nHmWL0H3Zsc0B4XrmcFdYqB+zk9fD8E eapxTRQBncGrtxZH7C8qyNKrfcIUKJgY8f44ErX9teLtG5bHZLROxg8UEP5RuD5GS9G3NrT9v2Z+ AOzsUDTLXam677Xh91nQXh17lHStpEobpe/MaRXqky4r4XVuatg9PFUqvqtq3D7RcyVlpp8rK3CO ixI8Z+6uaH9K1+mSiMdTn7S/y2OsjVz/V41wX9vMNuznPLfDY59hIMAT0SmJj6+O4ulU85idqZQP orlW/dk0StemFG0/NZ/eoJ3rq645jut6n2NGRRyTLV2KhXO4Lbd1jbVrt4qdX+qOlgY47rf8BrnG hUb7w+H+sTiUZaEhX/WO98KIx9qnxt/vOq/QG0mRSumhcD3PqdB7K4I8SN+GKAI5RSo+3es0wagI 6KS4LjSQ8f+zdy/Qlh1lgYCrk86jYzK5vEngEh6BgBpsgo6SoDYgrjiIEqRBwJEwEBx8RBzQIXGW joyGOOpIwoyoiRJ0AQNhEaOyQEZJqyEQDdBDHCWTDiQ0EBA0HU3Sefad+mfXtm9u7uucs/c+e5/z fWvV6tvd97zq7EdV/VV/7ZnyZ4+AQQQOLuzoeI76/Gga/sqG5av86oDwRu3QOJ5ikO3dubw1lw/m 8lelv/fhVO0xekk5JpZPaIvZ7y9O3a3yuiG1F/S7qNTZNIMeXQV3UurnyqU2vbHFerwuzW6Qp+0M AtMef4xr17e2cEy8q2fnVj3e1eQYS1N90ssarvsryz2wbjvVK1evmPDzX6JJKsDT5M3+og5eJ17j vUm6trW0mQu3dv0AOhZfTdUKnn0jPm4WcxzHNe74VA0EHzZjx7sZFc00pj7Q4vNLsfDAe2Wfn6/v Ha26YXxLOSf7bsuya8dajfa64z0v7Zp3uAzMhJWplPo66WFn6UTP8/c0TnlaOrjSsC4xyHVBKRFk WEoHV+XUgZw6FV/bx0O0qS7uSR3X+/Kc0tHr1St6Pl++l6HcO7alg3sujbPKLybtxWzsGGiL9Gz7 lx2Dd6ZqZc8fp2rVxz+X/sGDUrMDc5s9Hr6/xeePOrsydT9Yv6VcA67v+HXnZTXmq1O7EyTqtuas 3g/bzCBwUZp+YP3mFvpWfTq3tpT30mQ2qBem0ccC19L0feTUcg+s207nNfCcp+zeu+/eRNqytLSk Fsa0fXEhTsZXpW6CO6s17i9Jo6XhmlXbyqDJzg5f89xcfqWn9X9oLt+Tyy/m8tQRb1yxjP8lqft8 3mtpYqZU3Dx+I5f/kap0bQdWuakO9UJ4QcMN4mgc/njpKMZqi2c0dNM9rKfnyqs7uH5HJ/ukNL00 Kn3y0dRsED7q9jFzcm6uJmZNv76H51ZcU78zVUHjzQ50vjB1PxA1retEbIq7q4P3HQOfR5efb13l PreQRtuvb8POVWpv8+4+tTfPT/1aqbOZ+/ppM1D39fEcqTnr1ZvRRnlk+fmbU/uTvPqgb+30affH 6jp5cy7X9uh+uKUcmzGD+pUNHJufL/f838zl9nXq/8Xlz9+a8jHy3g6Og67upXGv/MCUry/R3o1V DDfP2PUs6va3O75m1H3dPl0vmqrLWzo4DiOg/6Ep9WvbuK7E/eNlUzwW2gjuNN1O6OLYmsRZu/fu uzhRHVACPKPbvrgQnYxnjjh40ZZzy0l8QxruIPUkF5sXpdEHXqKeDqSDM58OKWWcCH4E2t6Z+jV4 G5/jOakK8HxLGn2lXl9mBja1DD6+65i187upmt0WwYu7S708PJd/ncsfDvT82ZGqmQ991sdBv7iG v6vDDkU0iL8/zf7gZxfn80qxB8GeHn7euA5f2dGAQAxy/HkPrmHjBHZqF5ZOYx/FjM9PNvycMbN6 X0vfQQTnz1lxfYtr0ONXdGCb7rDNSiBhrXqd1oSupt7/UN7nsbk8LpfHljbOvARuNnudfN0A2qvT bJtGn/jd5fX3dfzaC+X6+6MNty/j+479dSK4/PvrfP9bSvv2nh4cAxFkuqOD14n7zitaagdGXZ7Z s+t+XAN+fgrHdpN1enS5xp+Tug8Gr3b8XJOqYM/KY+jWMmZwWxpOICjShL5/2fhHPc61paW66zpQ 1lbfKtrIT53CeRXXyT9NzU9+bGNi6edTP1erC+6sPEkEeDa2fXGhbrDFTLHv7XFHI4I9l6TZm91R Nwiis/focvM6Y4yLTOQkjllPf18ufpHK7M5ycX1keb6YGfh1Y9wI4yb39lTN8PnylDtf8d6fm6oA z9PTeKkYp92JbHow+J7SSPvL0hCJG/iRuTwpVcHaz5RG/NAuiL2fUZH6k0akD521NjuifRbX2Ota ahj2eYVUm5+7T8dWE5Ne+hzgaWOgqunjdjPBtZXX4zbuH9EOPT/N1oSjCPBdnoa999yWHp9bT87l 9J73r7Snxrsv/Fqa/mq3OuBzY+kH3NrQ9SmO3UflcnIuL03tDlQvlT7RL5d+/oGBHAM7UpUy7r50 cLA5HJoOTq5sug3UxITX+G5fnvod0O/jKpQTy/kQ3/usBeYvLe2bvvff4l4fE1pj/OeL5dx7WKr2 Sntwai9dfZeZhdrsW0U2gT/oqA0b50kbEyHamkDWRdaTkY87wZ1VLgICPKvbvrgwhJv7egMHP5z6 MaO3icbCeRM2nKMOYvbF35VO+p+kakD/9nIjjHJ0aZT8m1Qtp39Smiy/b72yalqDbd+Xyy+lagBp 3I59NB6/K3U7cNrmLNkD5TiIAa0YrDu83ASPKQ2ePqe9WE9vZ1T0ZDBiazm3+zBTbPk1+k2pHwHh tuv+zI7uo9Eo/6PUv1l2XQZ5lnf6d3dwXJ1Yzqkm0jh2lWplXE2nF6w1scIxvoePbOIYWxlEa2uC wKwEsqeVbqppfQqe1pO1ok5fm4YdNOtSn1NYbuS4XN6X+jfYe2H5c9ey62A9Y3/ldeCk8nNM9Hza lK4JMTkxUllF+tevDej7/7nSl7y59MEiuBMDzo8qx8ZC6Y812b5+W+nT3ThCm7Ct1Vddtft+NlUr G6bRBm5jFYL76fhiTCMCPDeVvz+ktLF/sLQ5j2zxtbtqy7fZt2q7Ddtmysc2s1p0tSpzswR31iDA s4rtiwvR4PjSDHyUoacFaiLPZgzqx74rsVz1reVmsJ5oeMYSzZ9KVaAnAgCTzHysB9u6/A4eVG5M /zEdzE0+hJt1lzmO6wvfllXOmaHlOO7ljIo03eBOfK9PSJMHh7syzYBw0+fw40rH4pVpOp296HzF QNju1J+0CtNqFDedwrU+r3akatCmqY5VXHdPSP0OdMbqmJgcUs9EDltLOXTCdsK4eymNmrt+tYGJ Nut8yHnu4xjvS/rTeiD6shXtvB3L/n72GudVTCT4nSmfW32cZDGkftyz02ys+o3jtQ+pzYfqrlRN NPj1XD6cqlTTQ3FsaY/dV+6VR5a24o7S144240PKtaLNa2j0ZW9ZcQ09bsauS9OYLNPWBBh1PFl7 vXZIOQefU9qaT2/xXIv28WtKu6OLvlWbE+ianDDXxbhEFynLu9hfdjMEd9Y72AR4Hmj74sJQb1T1 3jJ3l870gXJB+Y5c/vfAPksTKbrq4E7cZCJlyO0jXIQjVVsMYL28NAInvhCl7ga8vzGXN5QbyFEN 3uTkOO6n3s2oSNMN7gw5nc4QV182uYqjrTqtV0tNM3Abg/GfnuJxWQe+rivXtY1WZtZ7YcS9sO0U NG2lE2i6sxxpWO8r19uYIRmzkCNtbMxEjsGpI9JkgZ7NpNmtB8v/+xjt1NUGJbq6zkSg8TdKR3lf z7/nt0y5AxvHQWxg/JnUz9STowxm/ERPBgOG6NLS7t4/Q59pkn3aSOkfcvmZVO3Dc8+MfKbF0u59 WblmHOFrHlQ/bFYmRY/ar3jMAK+9Mek3Jt+9rrRf23JvOa+/3NEYSBcrrZdPHtxsG7ae9Hh6B33k rvaj7cPWAE/cvXffvKW6H+1kF+C5v5Ka7Y6Bve34Eu8uF5wvpCpl01dKp+DwchF/WRmYGIpzGrgY 7iuN4Hiu20c9N0q9Rf7oSI3QRKCki0GsSDX3glSt3vn61Gx+4yDHcT/9cmnQh0PLeX9Yam9jxT50 KlazI/Vn1vWknYe+7iuz3KvTsNKYTntvsa7TtW1GDCIuDyh0mTd9aCsmI7hyIB2cPBOzkB9frjvR gXt6aTdsbeh7iZW/Hyt/nzQ1UNzLnrnKsT+Nc2F5Cp0+ddKmGYTtMrVi2+fI81M1y9MA/vi63Adg KuMPSaBnnPbLUCaejdM2OjNVaRtPSs2mbJtXh3XUb52VfteoHjTAczGOie8qYwbf2OL4QBx3/6m8 Tlf3k/ekblfiRTt2rbSp4+wTPqR+VBNjtON+1siytG/33lm8DTZ4Qgjw3N/2xYW+b1q+0oFyg4kB 6A+Vm2zsNXPbikGI+KLvHNDnmnQJYMxs+qtU7edy3ZjPEQPlMaASs3abCJbErMw3t9yxjgGmOr3c 0S1fZOU47o8IQL6pnOf/KpfjUzW7KP48NrW3qeJyXc0eWa+BdyDNjji3Xtzj9zfpKss4Vpenuzok tZcyYLlpp1boY5BnWsf3LM1Of2yqBqhiH7cI+vRpgGq9gPFSD95bH1IJR1vvk1N43VkZtI223YvS MPct7Vs783lpNgfx12tLxAzsU339q4qJU++bg2Mi2kax4u9Hyv30EF/9RJrY328zdiQBnqGIfnJM 9ImxqGe0eI7dW8q2jj9fBFbeP2ftha73yq6Po5s67sdGn/Fl5bhKAjzr26oKBi0GxiJiG7O8Ig3Z 36QHLtleSrO1vH+z/ilVG25fN8FzxODj3+bywVQN2Ey6iueRLX/mSBPzQ7l8ey5f1/JrxUX9vHT/ CP6s5zg+dVkjtm/5d2PV4RvKTbdOHfRNqcq3G7Mkn5SqgF8bs3X+ZUbFlOvg2Bm7hu0sjeO+Xr9/ YoLHxmSDSOkQAaJYwn946dBHeo4Ht9w2+aVcTptivcX3GfvNdD3brE9mcXb6jamarRjXwR8px/Jh PXhfG60GvCpNd2A12hKfLO2raV3rprEScZYCO7+QpGFrQrQrh5SetSl7yj1ZkPD+1+1IW9bHCWVt to3eXfoTDxlYm74OwvXpWnis04gV6q0cjuzgtaYRoI0VNTGx9eo0+5PoYtL4+VNqLyyV6/Qtm/i9 +8o9LH4+tPTvRz02XpjWXi3FKgR4HuiuAV2kIw3bO3P5b7l8Nc3W7PVJ8nbGxSQCXx9u4H1E6rsI 8MSs3L7nW40OQaTXeXjqNi1X7ewVf86yK9L005GtdV2IY/aLpcTg3V+maqZ8zNp5cMONrvvNqBig uFbckw5u/HpYuS9u6cn7OyLNXoD+n8sxGSsjd+Xyj6W+TyjX2R/M5cmpvRUQp/bkPI3VWfM22ywG td+YZnfSSXyu30rVKsrXlI7mNK8lm7k+X9OTc+LlU7ifTiOtR9yTX5SGk5Zwvf7jmclgfFPXxden +RnIX8u+cg2ICYvzun/Tual/qSu77sf+r1Rlozgm9X8Vz8pA/WVzeMxePYV2zc3p4IDvpOlrawdK fzAmoN21rF8Y/bAjS5/k0GW/f+tAv6/YZzzSp32wpec/sOxcnoY4NmJS9q/N6LnYl1Xvcc2LzC1r ZfK4t/Tvbygl+kcx+TgmnMV46mYmos/jiuZmOjdStD3Q9sWFj6b+LxWPFGwx0+U/pyoYcmDGvoZJ 0v/EAPefpmoA7fZJz5FcHlEaEt+aJhusOb6DTr30P93qKsfxJA4vx27k939uqlZVNaFvMypG2T8t bnwRaPhcOV8iQH5UGVSI1U6xsXwfJkD0OQXAOGk049ocM5R/MVV7i6xccRoNvphN/6PlHtBW535L j+rxuDT7s83qvdvmZdDqsbm8pVxvj5rSe9jsKtNp5dKe9nk5jeDOLKzQqPdOmceUPE2b5T1VmrK1 XE939ug61bQYsI6USX3f67MrMQD4q6nKQLCtp+9xrTZNtOe+1JP32GXa7EnT6q8nBrQjBfkHUjXe td79c6HcZ186wr09nu/28tyfK+XvUxXo2Vr6gzEgHUGDR6cq8PjvU/8meI5zbW0jCFLvUxkr2X93 yp8xAn+Xb6J/tdTDvuFqYgLAr/TsPrFaHzb69p/N5X+maiFCnFP3lXMnArL/Lm08HrVupgcp2jY+ uXmgyGfY5iB5NAyuKT+Ps6HxgfL+YpbTrK3cqUWjJFZIjDM7MOrjK2ny4E6tvvHH8x465nPEhaqL GZv7SyPkXWl+0/906eQ0/VkUG7m73Hy3lZtppPCbZHl2X2dU7E+bTzcUs0o+WK6h15Rz/NBy7sSM 91hJ0ocUS7f1+Li6ZIyOwddStWLl2vTA4E59rY3G+Cml0XhMS53FPon7QqxeelWavdnw8xbYqd2Y y5+UzuVix53GUVdJfaxHx0pXug7uzMp+UzF49oE0O3ulTGtQJ87R89PwV3F14d5y/3hzqbNIdf1t abQB3L4Zdw/TefH5Uu5K/QvwbNSmuXnMsYt6XGhXqtIe1enNxxkjSuU9dNnuijZHkxvLLw/qjHKd jH7pZaXEGOfzU5W+fK06jEHnGN+JPZv/tHwPN5S+SL2P9RHlc31LqsYHjyp9x1m4tv5kqiYZNJ1a MK5tb+/BZ/zUGv2rerVWtMnuLOMk8V0fXq45R5b+f18CPlGfr0n9nAyycsVU1G1kkPm9VAV+l4/F xvYZf1YeE3X9PeX8WnntusR9ccJOjhU8q9u+uLCtNCbHueDtLTeXXaXx9rnSUNm/QYcz8qXGTIGY IbDektPby0nzy+VkmWU7ykVilEZDzOKPDTt/LE0+UzK+l9i7JGZq/EAaPcAzrXQcW0qDa5ZmvPUx x3Hf9uLZaHAm9mj6qVweN2bDpe97Z2xm9lxcH2J/rp8rDfn7Vvx/rCJ5fTneHjXFBl5cO07r8fEU 9XLlCJ3PaPR9onS2rkxrT0yIa+zPlOv3o+bsnI1z9LfT8IPz8xrYWe4bcvnNVK2e7CJQHO3OZ49R 56OsfGxTFyuc6+tWl8GdWcgdHnX2gjT8dJJ1Pvg7Sz/qznIfioHAo0o5PI0/kWsjMfs2BvZNPW3u uIyAT6z4OCP1Nx1PPSYQZbfvf1Pfa7TPY5XEI1I/BlkjKPvWEe6vMXZxRUPHQ32cbyawOc30TU2s CGkrRWH0DZ9Xjqt6PCnuBZ8trxeTYv9vWn3i2XKR5vwfZ/S8a2o/vVi9/h96OE4Qx+evlr79V0r/ /7NlzOC2dHAcNvqdTyjjJA8vbYItA7nu9OEY+tlUZUJ5/TrvO8ZVI7gTq5FOSAcDupekTQZ2rODZ 4KYhwLO+7YsLcUGIWfpPL3+utCtVsy1iRc3+lhpu28pJE43YE8vFJ2Y1fDpVUed5cNyyRvxKMfsi ZqFGPtTPlQt105Hf6PDFbPLt6eDMmrTGjTAaCx9Oo888acN6jcyhWJnGok+faUgBnhCDjW9Mq8+a WM+QZlSsl95xqVwjYtbSn6W1g+7ROLmgHGtHTulzHJ/6P8M37k0x620zQZ4YSIu9dyJ489cbNP4f XcpLl/1bE7MDhzLYGsfwO9JkM+WXVhkk6OJabWZ6JQaLLy6DLW2maas3454k9ddm06usnGWclrXJ xj0/95b70qwFd7r8XG132Gdh1U6dD/7G0l+7qfz9vtIWitzwjy/3/hPKAMQhDR0H0d74o2RGahe2 poN5/k8s/fYmVxZs9hoZ7YwvpGom835fy8ji/HtluTdNa3C1Pnc/NOZ3WI8fHVv+3tTxUA9EP27Z c6dyXevD/Sb6Baenza2yi/GS2G7g4x2+9xhPimDZc8prxsqOr6XZzIYz7jX0+eXcG+W6OZSJXRGw eUqqxvSuK23Ze8t5Vd8/vj5V+xbHGM83lnZQl/uB1ROahxrFOKT0R5bWuYZF0DrG1j8xzrkvwLPB TUKAZzLbFxdUAn03yWq0aZLjuHkxGyVmxcXmtQ/dROdmpBkVAzjmowH/F6XxdMM6jY9onMTgXAR2 v1wa/2lFY2vLss5VvfKyqQGFIc36rvdk2Gil5XvLwMdFEzZal9f79mX/fsYav39taUAOMb99HE/n pdFyid9dBhBiosOd5d8OKwMmEWg4IjU7Qz2u0zErzgDmA4/Tt5R72LEt3R9jX7XdqZmVynEO/1I6 OJC/fJbxdWnj3PfLr73LJyTF9XC1NDMXlntLE+9/s5+xq+BODFq9bAbOhx1pNvbaub200+Kz7ErV 5LhoQ95VjotDynF7QjlWYyXct5d7+jir78ZNL0T77cIjyp8nLfv3yJjxyBGe59pl7f4vlPbhRlk6 GE8dJDmno2t33Z75uHO38fNuOefLMNTBsPWCdW2tupq2aMd+R2nLfWcZP2kzyFPX4w1p2Ps0dkKA Z4MOjwDPZAR4GJAmZoV3YTOzQGIj9j7kOB7aJosxmBGzUSKX64+lB86Mu7B0XmdlYKLuHJ5eOvAR 4Pm70oja10EjamHZYEI92BlWC7bWg0JDnrWzWkfuVo3VRur15en+6SWWWyod5tgYNtJMfKYcT7eW Y35bOf4j7cCTUzWQecwEnZW4lr49GcDc6Fr7X8u9qqmGYl3v7zQ4MvJ30VVwZ4jtgtXqa1ZS/Eag OwL8MQHhg5u4XkVAJ1byRGrlGNR6UtpckMfAMLTfnn9s6be9sqG+bJ1xI/qFNyaTVGCUPt6s9+/i 3h8TAGJi7HNzeUhqbkVh3Z6Pa4+gzogEeDZoxAvwTEaAhwHqa6BHjmOA9dW5xOsBjgPl+haB2XqT 2Ahixqzie9LBGeqxgicCO7EkPmaox/5Oo8xQv7BcT69OggujdA4juPxv03jBhfgu/zhVKWI+o97H Ns6EkHEMbUXvakZJu9l3cb58orQrL09VEHwz4noZAzmR+vA1pc28MhhuYBima2tp16xMnb6aOpV7 Kn1CK0iAzV5nvjuX16Uqbdu2ER9fj0fVKz/j+mPi44QEeNYnwDMhAR4GLAYKz0zTnaUpxzHA+B2P WNHzsHLNi2vfRhvAxp5SsYon0gD+QKoGpVcGeeqVfDE4GntWaUk30N4u95I6neNq6n0EkzpvzI7U TZqxWQjuRJvw6tTdfiVtir11Ylbsr6dqluxdIz4+AjqRkuUFuTwmVfvG3eh6SM0AE8AwjTF+G/2t o0rbYOXY0L/cFpb9LIjs/ju9DqcAT+cXCOgbOY4B5qjtl6o0C48of7+1/KnFzCzpar++WQjuxCqV 62fou/+nVM2aPUc7kzYYYAIA+marKoC5F6klIt3Yi5McxzqYwKyLmT135nKTqpgeE4Ra799c3cHr zEpw5xMdvVa0B1cGXKJteEsDz718BdyBco2726kAAMC8dIAAahF82VPKxUmOYwBgWN6V2k81dkoa fnCnTkUW6XK/ocHnrdPvRqrH2A/MbBQAAGiRAA+wnntLx3xX+ftlqgQA6Kkdqf10s2elauXz0MVq vlj1EvsXPiVVAZ9JRAreV6ThB74AAGBQBHgAAICh25bLFS2/RqQZ+50ZqrNIZxapzJrYlPWLuTy6 lHBdqiYJWc0NAAAtEuABAACG7vwOXiNWqCzNSH3Fip1Iv/vwNPnqnbAzrb56KlK2vSmXD6QH7sED AAA00LAHAAAYqhNzObvl13hWmp3VKFtyOSaX78jlMeXvbYn9kC7K5Uu5fLR8VwAAQEMEeAAAgKGK 4MRHWn6N2F/mz2egnqJEBoeH5vLMXH4ol4d1+B5OzeX6VAV6jnPoAgDA5KRoAwAAhuo7U7VKpE1D T822I5c7c7knVSt3tufyA7k8fUr9wQj0xIqec1OVWm/JYQwAAOMR4AEAAIYoVqT8XsuvEat39gy4 jr4vl7emav+bO3JZyOX4XB7Sg77gebm8NpeT0uykvwMAgE4J8AAAAEPU1eqdodqWy+Xl50eXP+tU bX0R318Enp6Yhh1IAwCAqbAHD9CmGFg4I5cLUpV+Y3l5b/m/BdUEAIzI6p2Nnb+i33dI6ldwZ7nY m+dEhzUAAIxGgAdoQwRtIqgTMzLfn8vZq/zOzvJ/t5TfFegBADbrCan91Ts/O+D6OXGN9lefCfIA AMCIBHiApu1IVdBmlEGFs8tjdqg+AGATzuvgNa4ccP28o+Hni9VMF5ZyVYvvW5AHAABGIMADNOnV uVwxweOvKM8BALCWSAG7s+XXODeXewdaP8flcuqEzxGBnFNyOSpVad1Oy+UnSzmt/Nthqdo756xc 9jb4/gV5AABgkwR4gKbEfjoXNfA88RxPU50AwBpO7+A1Lh1w/bxxgsdGsCYCNxHI+VQu+9f53QiA xR5FF+dyQqqCPU2t7vlIqgJ5AADAOgR4gCbETNH3N/h8n8xlq2oFAFbxhg5e48aB1k20n8bZeycC WrFaJ4I146xcWkpVsCdW98TKn0lX9MT+StelaqUQAACwBgEeoAnva+E5f1q1AgArxKqOU1t+jQh2 DDU928ljPCZW7bwkrb9aZxSx8idW9Jw74fNEkOctDnkAAFibAA8wqciR3sZAS2yebBUPALDckzt4 jXcPuH7OGfH3I7gTq3aWGn4f8XxvTlXatknEaiSpewEAYA0CPMCk2tzk+GTVCwAs08X+Ox8faN1s HbFdFitsLm75PUXatkj9NknKtsuTST8AALAqAR5gUue1+Nxnql4AYJnXdvAaXx5o3Tx2hN+NgMv5 Hb2vSP12Uho/yBOp2qTuBQCAVQjwAJPY1vLzn6GKAYAiVnEstvwaV6Xm05V1ZZSVz8/u+HNOGuSJ CUULTgEAALg/AR5gEke0/PyLqhgAKB7WwWtcM+D62bHJ34sg1p4pvL9Jgzy/4BQAAID7E+ABAACG 4KQOXuOyAdfP2Zv8vR+f4nuMIM9TJ/h8VvEAAMAyAjwAAMAQnNjBa9w6B/V47ZRff18uzxrzsS9y GgAAwEECPMAkbmv5+a9SxQBAcXIHr/G5gdbNZle2RHq0e3vwfnflcukYj7soVXsxAQAASYAHmEwM EIySR30pjbah7x+rYgCgOE4VTKxPKeheM+bjTvY1AgBARYAHmNTb1vm/+1KVa/0fcvlCLjelKiD0 96la/bPRDNIPqV4AoNjZwWvsm/E6vLZH7yXq+sIxHneOUwEAACqWtwOTuiSX81b824FUBXAimHN9 Ljfk8tVc7szl0FwenMsJuTwxl8enKq3IYas897WqFwCgMXt69n5+PpezR3zMztKPvdfXCQDAvBPg ASZ1c6r2yjm1/P2eXL5Y/u3PcvnrXG7M5fZUBX625HJ4qtKsfFMuO0qJYM9R5f/DWTruAAAzLVbx xF48o67OijRtn1J9AADMOwEeoAnPy+WWVAV3YsXOe3J5X/n5nhW/G3vw3JWqoE+Uj+fy6Vx+OJen 53JMqlb+XKJaAYAO7Z2Dz3hGLrt69p7OTaMHeE5PAjwAAGAPHqARMfsyBgxuzOUdufxWLp9JDwzu rOYrubwrl98oHfU7cnl2snoHALi/2MvvH1M1UeRAC89/2YDr5q5N/t4ZPXzvN4zxmNc6HQAAwAoe oDl/kKp0bTH7NfbbGWXgJQYl/jCXB+XyX1L/8sMDANP3q7k8JpenlHJ8Lkemg+ld59n+Tf7eYi4n 9qytFau7R03TtpjswwMAAAI8QKOuTtXKwHFm1UaQ53dyuU81AgCriBXCD05VgOLbcnluqtK7xgSR Q1XP/fZEXE+stn5mqgIrfREruUdN0/awVE0uAgCAuSXAM6Hde/epBLi/SVKmCO4AAGuJ1K9fKeX/ 5PI3ufxQLs/J5RFJ+um3p80FeOJ3XpXLxX3qVo3xmJOSAA8AAHNOgAcAABiamGX1kVxuT1Vg57tz eUia73Rtu0b43YvKn30J8tw6xmNOHPEzAwDAzBHgAQAAhihW9ER62GNzOS5Vadu2TfB8xw28Pm5I 1V6Ii5v8/TrIEylyp52ubZzXP9kpAADAvDtEFQAAAAMVQZ6Ppmolx1fTZIGKnQOvi/jsbxrxMRHk eU/qx8qnC0f8/eMc/gAAzDsBHgAAYMgiXVsEeT6bqoDPPLtkjMdEYOvKNLz0djsd+gAAzDsBHgAA YOj+Npc9udw54fMMfQ+fe3N51hiPOzWXV035vX/ZYQwAAKMR4AEAAIbua7l8MZf9Ez7PsTNQF7ty uXSMx017T5uPOYwBAGA0AjwAAMDQxcqVf8rlrjTZPjzbZqQ+XpbL3hEfc63DCAAAhkWABwAAmBVL Ez7+pBmph3vLZxklyHOJwwcAAIZFgAcAABi6rbkcncvhabJ9dJ4xQ3US6eoiyLOZdG1PTFVQCAAA GBABHgAAYOgWcjk+TZ5i7XtnrF4iyPPiXJ6Vy1Wr/P+FuRyVy54evNdnOIwBAGA0W1UBAAAwcLFS 5fFp8gDPqalaAbQ0Y/WzK5fTSv0cUf7tttSvVTuPdBgDAMBoBHgAAIAhOyZVgZknpCpF26Qi0HDz jNbV/lL66LgRf/8qhz4AAPNOijYAAGCoYsLaN6cqBVkEZrY08JzPU61TsXPE379GlQEAMO8EeAAA gCGK4M7JufxgLk9Lk6dnq71S1XZunO/uWtUGAIBOEQAAwLBEWrYI7rw8l9NzeWhqZvVOiHRvEXDY r5o786gxHrNHtQEAMO+s4AEAAIYkAjkvyuV1uZyRquDAoQ2/xumquVM7xnjMbtUGAMC8E+ABAACG ZClVq3e+J1X77hzawmu8QTV3apy0eLeqNgAA5p0ADwAAMDS/n8vRqbm0bCtFmrYF1dyJbaW+R3Fp qgJ9AAAw1wR4AACAoekiPdeLVHMnxkmH927VBgAAAjwAAMDwxOqNc1t+jYty2aqqWzdOOryPqzYA ABDgAQAAhultHbzG81Vzq05Mo6dn25vLzaoOAAAEeAAAgGHal6q9WNp0QWpvnx9S+okxHvMm1QYA ABUBHgAAYKjaTtO2mMsLVHMrFnI5e4zHvVPVAQBARYAHAAAYqj25XNXya7w/2YunDb89xmMuzGW/ qgMAgIoADwAAMGSv6OA1flo1N+ppuewc43FvVXUAAHCQAA8AADBksYrnwpZf47xUpRRjcrEa6vIx HndV+a4BAIBCgAcAABi6n+/gNT6QyxZVPbFfS9XeRqN6haoDAID7E+ABAACGbl8uZ7X8Gqfm8gJV PZFIzXb2GI+LFVpW7wAAwApblpaW1AIAAHRk+6JMX231bXK5KY23OmQUD0pVQInRbMvlDnXOkO3e 6zAEAPrFCh4AAGAWxMy1b+3gdT6dpGobVQR3rhvzsS9MgjsAALAqAR4AAGBW3JzLuS2/RqwQeouq 3rQIhr0jjbey6qpc/kAVAgDA6gR4AACAWXJ+qgIDbYp9ZM5Q1RuK4M57ctk55uOfl6qVWQAAwCoE eAAAgFkSAYHv6uB13p/Liap7TZMGd56VpGYDAIB1CfAAAACzZn8uT+zgda5P1f4y3N+kwZ1Is7dL NQIAwPoEeAAAgFm0J5ezOnid65Igz3JRFzel8YM7l6YqzR4AALABAR4AAGBWXZyq1SBtWkyCPLXj Sl0sjvn4vbm8Itl3BwAANkWABwAAmGWxGuTSll9DkCelHbl8KU0W3DkpVen1AACATRDgAQAAZlms BnlJEuRpy9ZcLsjligmeQ3AHAADGbIwDAADMsjrIE3a2+Dp1kOepueybg3qNlGxXp/FX7QTBHQAA GNOWpSXpjQEAgNm3fXFhS/7jPandIE/tibnsmdV+ZC5vzOW8CZ/n/wd3du/dJ7gDAABjkKINAACY C7v37usqXVu4PpdXpyoYMkuelstNSXAHAACmToAHAACYJ3WQ58IOXuuiVK0YmoV9eRZStdfOJ9Nk KdlCBNhOENwBAIDJCPAAAADzJoI8P5nLWR28VqSDuyOXHQOtq9i3NVYi3ZLL2Q08X9T5S8pqKgAA YAL24AEAAObG9sWFlf8UKcc+2dHLx8qV1+SybwBVFYGdM1O1Cqkpp+zeu+9TjkIAAGiGFTwAAMA8 i4DDg1K1J0zbYjVPrIQ5J1UBlD5aKO/vntRccOeqXI4qdQ0AADREgAcAAJh3saLmhNTNvjzhvFQF UCL12UIPPn8Em2Il00dTFYA6r8HnfmEuz8zFfjsAANAwAR4AAICD+/KcMuJjDpQyTu7rWCETAZX3 pirAsqXDz1sHdeK1I9gUaepObfD5Y9VOrIy6bMy6AQAANiDAAwAAcFCkEYt0Yuut5rk7ly/m8rFc PpTLX+TyuVStUhknmBGp2yLAEoGiC1IVeNnW8OeKgM6JuZyRqpU6dVBnZ8OvE6nunpXLaWkYew0B AMBgbVlaMpkKAACYD9sXR8qIFoGWy3NZXPZvt6cqQPKuXD5R/h7Bk6fk8tJcnpPLQ1Nzq3Ei0LQr VSt9dpd/uys9MOVZvIejy88RHDopVQGdk1MV1FnsoHrPyuWSXO5d6xd27xXzAQCApgjwAAAAc2PE AM//7zPl8qpUpVOLVS+7cnlTLp/O5bZ0cMXOkanax+eNubwgl2PnqFrPzeVX0jqBnZoADwAANEeK NgAAgLVFAOfiXA7L5RWpWqESK2n+OR3ceydKrKi5Ppe357InbSLYMQNixU6ks3vznHxeAADola2q AAAAYEMRwHh3Oph6bbVUCPflck0u16UqZdss9rdij51YwXRJEtQBAICpEuABAADYvI1yXN+Ry9dS lc5tllyVy4+navWSPN8AANADAjwAAADNiTTY23I5dAY+S71a53252DwHAAB6RoAHAACgOUfmcmcu hw/4M5yby6W53JCs1gEAgN46RBUAAAA05vZczs5lIZdTcrlwAO85VuqclcvxpY/45lz2JMEdAADo tS1LS9rsAADAfNi+uDCtl44X3p7LGaUsTrEaIqDztlw+lMtnctnf1Qvv3ivTGwAANEWABwAAmBtT DPCsFOmyH5bLSbk8I5dHpnYCP5Fq7VO5fCyX63L5ai73TutDC/AAAEBzBHgAAIC50aMAz3oi+HN0 +fmhuTx6k4/7Qi5fKz/fmnqYYk2ABwAAmiPAAwAAAAAAMDCHqAIAAAAAAIBhEeABAAAAAAAYGAEe AAAAAACAgRHgAQAAAAAAGBgBHgAAAAAAgIER4AEAAAAAABgYAR4AAAAAAICBEeABAAAAAAAYGAEe AAAAAACAgRHgAQAAAAAAGBgBHgAAAAAAgIER4AEAAAAAABgYAR4AAAAAAICBEeABAAAAAAAYGAEe AAAAAACAgRHgAQAAAAAAGBgBHgAAAAAAgIER4AEAAAAAABgYAR4AAAAAAICBEeABAAAAAAAYGAEe AAAAAACAgRHgAQAAAAAAGBgBHgAAAAAAgIER4AEAAAAAABgYAR4AAAAAAICBEeABAAAAAAAYGAEe AAAAAACAgRHgAQAAAAAAGBgBHgAAAAAAgIER4AEAAAAAABgYAR4AAAAAAICBEeABAAAAAAAYGAEe AAAAAACAgRHgAQAAAAAAGBgBHgAAAAAAgIER4AEAAAAAABgYAR4AAAAAAICBEeABAAAAAAAYGAEe AAAAAACAgRHgAQAAAAAAGBgBHgAAAAAAgIER4AEAAAAAABgYAR4AAAAAAICBEeABAAAAAAAYGAEe AAAAAACAgRHgAQAAAAAAGBgBHgAAAAAAgIER4AEAAAAAABgYAR4AAAAAAICBEeABAAAAAAAYGAEe AAAAAACAgRHgAQAAAAAAGBgBHgAAAAAAgIER4AEAAAAAABgYAR4AAAAAAICB+X8CDABXFdgrdgAf dwAAAABJRU5ErkJggg== "
       preserveAspectRatio="none"
       height="432"
       width="1656" />
  </g>
</svg>
