<?xml version="1.0" encoding="UTF-8" standalone="no"?>
<!-- Created with Inkscape (http://www.inkscape.org/) -->

<svg
   xmlns:dc="http://purl.org/dc/elements/1.1/"
   xmlns:cc="http://creativecommons.org/ns#"
   xmlns:rdf="http://www.w3.org/1999/02/22-rdf-syntax-ns#"
   xmlns:svg="http://www.w3.org/2000/svg"
   xmlns="http://www.w3.org/2000/svg"
   xmlns:xlink="http://www.w3.org/1999/xlink"
   xmlns:sodipodi="http://sodipodi.sourceforge.net/DTD/sodipodi-0.dtd"
   xmlns:inkscape="http://www.inkscape.org/namespaces/inkscape"
   id="svg2"
   version="1.1"
   inkscape:version="0.92.3 (2405546, 2018-03-11)"
   width="2481"
   height="3503"
   sodipodi:docname="E32P04.svg">
  <metadata
     id="metadata8">
    <rdf:RDF>
      <cc:Work
         rdf:about="">
        <dc:format>image/svg+xml</dc:format>
        <dc:type
           rdf:resource="http://purl.org/dc/dcmitype/StillImage" />
        <dc:title />
      </cc:Work>
    </rdf:RDF>
  </metadata>
  <defs
     id="defs6">
    <filter
       style="color-interpolation-filters:sRGB"
       id="filter4375-4-1-1-1-9-5-8-4"
       inkscape:label="Drop Shadow">
      <feFlood
         id="feFlood4377-7-9-0-8-1-7-3-3"
         flood-opacity="1"
         flood-color="rgb(108,125,133)"
         result="flood" />
      <feComposite
         id="feComposite4379-3-8-8-2-77-4-1-07"
         in2="SourceGraphic"
         in="flood"
         operator="in"
         result="composite1" />
      <feMorphology
         id="feMorphology4393-1-0-49-8-9-3-0-8"
         operator="dilate"
         radius="6.2000000000000002"
         result="result3" />
      <feComposite
         id="feComposite4385-9-5-7-0-8-8-7-6"
         in2="result3"
         in="SourceGraphic"
         operator="over"
         result="fbSourceGraphic" />
      <feColorMatrix
         result="fbSourceGraphicAlpha"
         in="fbSourceGraphic"
         values="0 0 0 -1 0 0 0 0 -1 0 0 0 0 -1 0 0 0 0 1 0"
         id="feColorMatrix4544-8" />
      <feTurbulence
         id="feTurbulence4546-8"
         type="fractalNoise"
         numOctaves="3"
         seed="37"
         baseFrequency="0.129 0.0050000000000000001"
         result="turbulence" />
      <feDisplacementMap
         id="feDisplacementMap4548-4"
         in2="turbulence"
         in="fbSourceGraphic"
         scale="6.6"
         yChannelSelector="G"
         xChannelSelector="R"
         result="fbSourceGraphic" />
      <feColorMatrix
         result="fbSourceGraphicAlpha"
         in="fbSourceGraphic"
         values="0 0 0 -1 0 0 0 0 -1 0 0 0 0 -1 0 0 0 0 1 0"
         id="feColorMatrix4670-3" />
      <feFlood
         id="feFlood4672-1"
         flood-opacity="1"
         flood-color="rgb(17,52,65)"
         result="flood"
         in="fbSourceGraphic" />
      <feComposite
         id="feComposite4674-4"
         in2="fbSourceGraphic"
         in="flood"
         operator="in"
         result="composite1" />
      <feGaussianBlur
         id="feGaussianBlur4676-92"
         in="composite1"
         stdDeviation="0"
         result="blur" />
      <feOffset
         id="feOffset4678-0"
         dx="6"
         dy="6"
         result="offset" />
      <feComposite
         id="feComposite4680-68"
         in2="offset"
         in="fbSourceGraphic"
         operator="over"
         result="composite2" />
    </filter>
    <filter
       style="color-interpolation-filters:sRGB"
       id="filter4375-4-1-1-1-9-5-8-4-3"
       inkscape:label="Drop Shadow">
      <feFlood
         id="feFlood4377-7-9-0-8-1-7-3-3-6"
         flood-opacity="1"
         flood-color="rgb(108,125,133)"
         result="flood" />
      <feComposite
         id="feComposite4379-3-8-8-2-77-4-1-07-7"
         in2="SourceGraphic"
         in="flood"
         operator="in"
         result="composite1" />
      <feMorphology
         id="feMorphology4393-1-0-49-8-9-3-0-8-5"
         operator="dilate"
         radius="6.2000000000000002"
         result="result3" />
      <feComposite
         id="feComposite4385-9-5-7-0-8-8-7-6-3"
         in2="result3"
         in="SourceGraphic"
         operator="over"
         result="fbSourceGraphic" />
      <feColorMatrix
         result="fbSourceGraphicAlpha"
         in="fbSourceGraphic"
         values="0 0 0 -1 0 0 0 0 -1 0 0 0 0 -1 0 0 0 0 1 0"
         id="feColorMatrix4544-8-5" />
      <feTurbulence
         id="feTurbulence4546-8-6"
         type="fractalNoise"
         numOctaves="3"
         seed="37"
         baseFrequency="0.129 0.0050000000000000001"
         result="turbulence" />
      <feDisplacementMap
         id="feDisplacementMap4548-4-2"
         in2="turbulence"
         in="fbSourceGraphic"
         scale="6.6"
         yChannelSelector="G"
         xChannelSelector="R"
         result="fbSourceGraphic" />
      <feColorMatrix
         result="fbSourceGraphicAlpha"
         in="fbSourceGraphic"
         values="0 0 0 -1 0 0 0 0 -1 0 0 0 0 -1 0 0 0 0 1 0"
         id="feColorMatrix4670-3-9" />
      <feFlood
         id="feFlood4672-1-1"
         flood-opacity="1"
         flood-color="rgb(17,52,65)"
         result="flood"
         in="fbSourceGraphic" />
      <feComposite
         id="feComposite4674-4-2"
         in2="fbSourceGraphic"
         in="flood"
         operator="in"
         result="composite1" />
      <feGaussianBlur
         id="feGaussianBlur4676-92-7"
         in="composite1"
         stdDeviation="0"
         result="blur" />
      <feOffset
         id="feOffset4678-0-0"
         dx="6"
         dy="6"
         result="offset" />
      <feComposite
         id="feComposite4680-68-9"
         in2="offset"
         in="fbSourceGraphic"
         operator="over"
         result="composite2" />
    </filter>
  </defs>
  <sodipodi:namedview
     pagecolor="#ffffff"
     bordercolor="#666666"
     borderopacity="1"
     objecttolerance="10"
     gridtolerance="10"
     guidetolerance="10"
     inkscape:pageopacity="0"
     inkscape:pageshadow="2"
     inkscape:window-width="1920"
     inkscape:window-height="1022"
     id="namedview4"
     showgrid="false"
     inkscape:zoom="0.46000001"
     inkscape:cx="1510.2862"
     inkscape:cy="878.72966"
     inkscape:window-x="0"
     inkscape:window-y="0"
     inkscape:window-maximized="1"
     inkscape:current-layer="layer1"
     inkscape:snap-global="false" />
  <g
     inkscape:groupmode="layer"
     id="layer2"
     inkscape:label="artwork"
     sodipodi:insensitive="true">
    <image
       sodipodi:absref="/home/peppercarrot/webcomics/"
       xlink:href="../gfx_Pepper-and-Carrot_by-David-Revoy_E32P04.png"
       y="0"
       x="0"
       id="image10"
       height="3503"
       width="2481" />
  </g>
  <g
     inkscape:groupmode="layer"
     id="layer3"
     inkscape:label="speechbubbles"
     style="display:inline">
    <path
       style="display:inline;fill:#ffffff;fill-rule:evenodd;stroke:none;stroke-width:1px;stroke-linecap:butt;stroke-linejoin:miter;stroke-opacity:1"
       d="m 728.53516,1005.5762 c -1.92058,9.9596 -3.84115,19.9192 -5.76172,29.8789 -10.80737,8.0485 -26.19912,8.9685 -38.09571,2.7969 2.95248,10.774 5.90495,21.5481 8.85743,32.3222 -2.6147,2.3963 -6.53775,3.2792 -9.91211,2.1563 1.85416,6.1146 3.70833,12.2291 5.5625,18.3437 -4.60855,3.9098 -10.8439,5.8756 -16.85938,5.166 3.32366,10.876 6.94789,21.7483 8.42969,33.0684 -2.69535,8.8182 -6.9408,17.0399 -10.98633,25.291 13.53684,2.5798 27.2168,4.6738 40.41602,8.7363 9.70337,7.7913 15.693,20.1419 15.39062,32.625 11.19531,-5.0175 22.39063,-10.0351 33.58594,-15.0527 5.38253,1.0402 8.31471,8.1481 5.29883,12.7051 12.74289,-6.3253 25.41724,-12.787 38.10351,-19.2246 4.10695,2.1699 7.25533,6.098 8.41211,10.6035 7.45058,-1.4847 14.79433,-3.4424 22.14063,-5.3652 1.38991,2.271 2.04524,4.8978 2.42187,7.5097 10.60391,0.9457 21.58735,0.9276 31.58008,5.0703 4.01547,2.9934 6.77262,7.2703 9.39648,11.4551 10.30576,-11.2732 20.59177,-23.2941 34.52245,-30.19 8.04197,-3.8577 16.69346,-7.888 25.84363,-7.0031 5.1118,1.3632 10.22306,2.7506 15.41908,3.7615 7.7336,-4.2749 16.99388,-6.9352 25.76758,-4.6172 0.94432,1.3929 3.06508,-0.7749 1.73346,-1.7646 -1.69221,-5.6282 -4.40669,-10.9116 -5.7862,-16.6397 3.84166,-7.5915 8.33112,-15.2491 9.01368,-23.918 -2.11143,-6.4451 -5.95768,-12.127 -8.47371,-18.402 -0.54086,-1.0714 -1.57845,-2.4403 -0.36473,-3.4386 2.25665,-3.1945 5.47795,-5.6678 9.08844,-7.1496 -5.34212,-6.6253 -14.70363,-8.9827 -18.87891,-16.6973 -3.82635,-6.2451 -6.10995,-14.08 -3.77344,-21.2734 7.67771,-11.6944 17.57826,-21.6898 25.76758,-33.002 -11.26896,6.5431 -22.48484,13.1768 -33.71094,19.793 -2.96548,-1.4359 -5.15193,-4.2916 -5.89843,-7.4863 -4.01375,0.6991 -7.95756,1.7351 -11.90625,2.7265 -0.55665,-3.0406 -0.11976,-6.1505 -0.52735,-9.2051 -2.19664,-0.4083 -4.4545,-0.4031 -6.63281,-0.9218 -0.61341,-8.7815 0.7975,-17.5194 1.90625,-26.2032 -8.68034,8.0521 -17.36068,16.1042 -26.04102,24.1563 -4.02357,-1.1135 -7.5707,-3.8491 -9.65429,-7.4687 -14.58906,1.1103 -29.45648,0.5653 -43.71094,4.3574 -8.11108,-0.5667 -14.38532,-6.3136 -21.45313,-9.6465 -2.40563,-1.457 -5.33844,-3.6981 -8.22923,-2.1161 -9.24456,3.4798 -16.80936,11.0234 -26.87428,12.3387 -5.8653,0.9271 -11.90452,0.6148 -17.67188,-0.7734 -6.42457,2.458 -10.73119,8.6276 -17.45898,10.4727 -8.80823,-0.9361 -15.87924,-7.76 -19.55078,-15.4805 -3.16586,-5.5209 -6.32099,-11.0481 -9.55859,-16.5273 -0.29558,1.4108 -0.59115,2.8216 -0.88672,4.2324 z"
       id="path4508-2"
       inkscape:connector-curvature="0"
       sodipodi:nodetypes="cccccccccccccccccccccccccccc" />
    <path
       style="display:inline;opacity:1;fill:#ffffff;fill-rule:evenodd;stroke:none;stroke-width:1px;stroke-linecap:butt;stroke-linejoin:miter;stroke-opacity:1"
       d="m 1232.4018,1041.2127 c -50.2716,5.6942 -99.4961,17.7102 -149.0566,27.4906 -16.2443,3.0274 -32.4856,6.4771 -49.0334,7.3138 -27.8674,1.7997 -55.81752,0.5765 -83.70319,1.8779 -31.70373,1.116 -63.45592,2.4021 -94.96073,6.3059 -12.00129,1.5369 -23.8923,4.0749 -35.32968,8.0574 -14.69956,4.8219 -28.95873,11.1539 -44.13898,14.3919 -8.25968,1.6756 -16.87794,1.7222 -25.07509,-0.3374 -10.7596,-2.4958 -20.93572,-6.8981 -31.28412,-10.666 -13.71759,-5.23 -27.87124,-9.9766 -42.63207,-10.8825 -17.52114,-1.6165 -35.20254,-2.0954 -52.74398,-0.5311 -14.1515,1.5758 -28.28924,6.1786 -39.51262,15.1684 -12.84906,9.8693 -22.82322,24.1414 -25.65265,40.2688 -1.27746,9.6884 1.31912,19.7672 6.8849,27.7728 0.67219,-10.5849 -2.17144,-21.4525 1.0625,-31.8106 4.3372,-15.0701 16.29647,-27.1362 30.36748,-33.5682 11.89389,-5.571 25.40408,-6.3815 38.3065,-5.114 19.64653,0.787 39.52891,0.029 58.88579,4.0577 18.62559,4.5312 35.23728,14.582 53.3582,20.5503 10.41976,3.2102 21.70042,4.3166 32.36695,1.64 19.04553,-4.0346 36.58663,-12.9001 55.30192,-18.0596 12.43504,-3.5706 25.3649,-5.5175 38.31511,-5.3097 37.76726,-1.0812 75.53995,-2.1833 113.32462,-2.3508 32.59244,0.08 65.21724,1.5823 97.78584,-0.2844 34.3956,-1.6839 68.688,-6.4713 103.1848,-5.2917 8.1876,0.3248 16.7783,0.3919 24.2138,4.3017 5.7439,2.8127 10.051,8.1503 11.8047,14.2786 1.4492,4.1969 1.4605,8.6884 2.352,12.9932 0.6018,2.1839 3.7128,2.0534 5.1858,0.8257 1.3359,-0.8313 1.5858,-2.4429 1.5437,-3.865 4.0897,-23.3572 8.874,-46.6096 11.8375,-70.1495 -0.345,-4.8848 -5.0077,-8.1954 -9.5346,-8.8976 -1.1287,-0.2017 -2.2808,-0.247 -3.4244,-0.1766 z"
       id="path4316-3"
       inkscape:connector-curvature="0"
       sodipodi:nodetypes="ccsccscccccccccccccccccccccccc" />
    <path
       style="display:inline;fill:#ffffff;stroke:none;stroke-width:1.12601137"
       d="m 1219.473,960.415 c -48.9319,0.76807 -98.453,8.66499 -144.1132,31.05894 -26.365,13.63156 -50.7158,35.54756 -65.5734,65.91436 -13.22214,30.018 -15.49174,65.9964 -9.5399,98.9631 9.403,45.4871 41.1066,82.3224 78.3821,92.8106 31.6514,10.8864 64.6231,13.3514 97.0971,18.4125 69.6934,8.3446 139.685,0.8725 209.4444,-1.8108 27.3003,-1.2862 54.6984,-2.6423 81.7138,-7.9083 32.9451,-7.7889 64.7579,-26.7487 87.68,-57.1234 12.7495,-17.2362 21.4791,-39.3675 22.6727,-62.7352 2.4767,-28.7185 -0.8181,-59.0486 -13.0488,-84.1527 -12.4421,-24.3717 -32.4337,-41.5665 -53.7854,-52.6858 -32.3199,-17.92378 -67.3739,-27.0861 -102.4077,-32.74573 -51.7686,-7.54509 -103.9968,-5.7301 -156.0062,-7.75215 -10.8375,-0.21533 -21.6767,-0.2693 -32.5155,-0.24542 z"
       id="path3280-8-2-3"
       inkscape:connector-curvature="0"
       sodipodi:nodetypes="csssc" />
    <path
       style="display:inline;fill:#ffffff;fill-rule:evenodd;stroke:none;stroke-width:1.11441839px;stroke-linecap:butt;stroke-linejoin:miter;stroke-opacity:1"
       d="m 1888.5359,2207.5293 c 5.5693,9.7034 -6.0263,22.199 -19.1495,20.761 -11.7052,0.1495 -21.7679,-5.5472 -30.614,-11.085 -2.7514,-1.4556 -5.563,-2.837 -8.4349,-4.133 -3.5881,7.4007 -3.9609,16.2749 -11.432,22.1015 -10.3921,8.4241 -26.4537,11.5245 -40.6538,8.7735 -3.4563,1.4957 -2.1016,5.8433 1.0382,7.0273 2.7288,3.9092 -1.8324,8.6017 -6.7859,9.2457 -11.4443,4.1681 -24.5534,2.7482 -36.228,6.266 11.7858,4.5102 24.6032,6.863 36.5714,11.0078 1.5497,6.32 -4.4064,12.2449 -11.2841,14.6602 2.7831,2.8626 6.7814,4.732 9.9667,7.2771 0.8713,0.7656 3.0175,1.493 2.7151,2.5756 -6.5868,9.3853 -19.3703,15.3269 -32.5186,16.4578 13.1526,5.4628 29.3992,4.6995 41.3814,12.2129 5.7327,4.3891 5.4474,11.3683 4.4807,17.1955 -0.5223,4.1564 -1.1545,8.3069 -1.4317,12.4803 3.7686,-0.7709 5.6834,-3.9702 9.2969,-5.0288 9.1535,-4.8687 20.6676,-8.3394 31.6545,-5.9523 5.9969,1.8296 10.567,5.6907 15.7343,8.5073 15.6665,0.9628 32.0188,-0.068 46.8479,4.8859 6.1062,3.3619 10.641,8.3792 13.2901,13.9063 13.2821,-3.7874 25.9842,-10.2761 40.5225,-10.0543 12.9062,1.1633 26.5719,3.5294 39.0777,-0.5424 14.5361,-4.2294 30.0283,-8.6601 45.6967,-6.3872 13.068,1.795 25.7673,4.933 38.7128,7.1831 10.6687,-3.499 18.8425,-11.5049 30.7815,-12.4785 12.1503,-1.1197 24.5742,1.4068 35.0626,6.3652 -5.605,-9.9039 0.9352,-23.4105 14.202,-26.5868 6.4569,-1.9874 13.3075,-2.9228 19.8782,-4.6163 -4.9176,-4.3204 -12.794,-6.2968 -16.0165,-11.8613 -0.5637,-6.3288 7.049,-11.0727 6.103,-17.4434 -2.7913,-4.0033 -9.6185,-5.5539 -10.8354,-10.3691 2.0147,-8.844 11.0933,-15.1112 20.0112,-19.7566 1.7625,-0.9285 3.7521,-1.5881 5.327,-2.7376 -4.1439,-2.9536 -10.0545,-2.7414 -15.0509,-4.1065 -6.607,-1.1528 -14.1285,-2.292 -18.5045,-6.8512 -2.9678,-4.6891 -2.4525,-10.5032 0.6733,-15.054 -5.8786,-3.3547 -13.2678,-1.0714 -19.8541,-1.5069 -11.3543,0.2878 -23.7361,0.5666 -33.6214,-4.6559 -7.8886,-5.9255 -9.8995,-14.9001 -12.2526,-22.977 0.1143,-1.1529 -1.677,-2.4391 -2.738,-1.1919 -12.5405,6.3366 -25.2459,13.7338 -40.3966,15.0544 -14.3123,0.173 -27.4851,-7.4183 -34.0389,-17.3829 -3.0271,-2.2142 -7.1757,0.052 -9.318,2.0777 -10.8589,6.6815 -22.4039,13.9851 -36.4772,15.1545 -15.6744,0.356 -29.9377,-5.7717 -43.5889,-11.2076 -6.0236,-2.5401 -12.0248,-5.1144 -18.0428,-7.6632 0.081,0.151 0.1618,0.3021 0.2426,0.4531 z"
       id="path4582"
       inkscape:connector-curvature="0"
       sodipodi:nodetypes="ccccccccccccccccccccccccccccccccccccccccccccccc" />
    <path
       style="display:inline;fill:#ffffff;fill-rule:evenodd;stroke:none;stroke-width:1px;stroke-linecap:butt;stroke-linejoin:miter;stroke-opacity:1"
       d="m 1982.1328,2325.6113 c -12.8691,7.4955 -25.7383,14.9909 -38.6074,22.4864 0.7954,19.5281 2.2328,39.6275 -3.7131,58.5597 -1.442,4.7665 -2.884,9.5331 -4.326,14.2996 -1.6554,-3.8605 -5.4614,-7.4211 -9.9258,-6.9336 -6.7867,4.7357 -9.0295,13.3509 -9.9231,21.1392 -2.0838,11.9256 -2.8847,24.0205 -3.8503,36.0737 3.8713,-15.6614 7.4521,-31.5035 13.7676,-46.4082 3.8906,4.0568 6.8647,9.3231 12.1582,11.7598 6.004,-2.9668 8.1205,-9.8641 10.0033,-15.7846 11.8101,-31.5596 23.2778,-63.2456 34.8385,-94.8971 0,-0.1943 -0.2322,-0.3937 -0.4219,-0.2949 z"
       id="path891"
       inkscape:connector-curvature="0"
       inkscape:transform-center-x="1.787008"
       inkscape:transform-center-y="33.226638"
       sodipodi:nodetypes="ccccccccc" />
  </g>
  <g
     inkscape:groupmode="layer"
     id="layer1"
     inkscape:label="txt"
     style="display:inline">
    <path
       style="fill:#ffffff;fill-opacity:1;fill-rule:evenodd;stroke:none;stroke-width:1.07654965px;stroke-linecap:butt;stroke-linejoin:miter;stroke-opacity:1"
       d="m 178.33434,2245.5098 c -3.80201,-4.412 -7.58536,-8.8363 -11.47189,-13.1934 2.17003,4.9701 4.34006,9.9401 6.51009,14.9102 -3.30636,-2.3366 -6.61271,-4.6732 -9.91907,-7.0098 1.14425,14.5749 -6.53208,28.266 -15.11852,40.375 -3.93336,10.4616 -7.86674,20.9232 -11.8001,31.3848 -3.53151,1.4837 -7.58833,2.0287 -11.4719,1.5039 2.86872,3.4505 5.73748,6.901 8.6062,10.3515 -2.89763,1.7264 -6.51121,2.5405 -10.0164,2.2285 2.57973,3.75 5.15948,7.5 7.73922,11.25 -7.69849,-0.6464 -15.39695,-1.2929 -23.09543,-1.9394 9.94865,8.2032 21.41106,16.3063 25.5537,28.1074 4.11931,24.9963 10.11679,49.7219 16.20051,74.4063 -6.74575,13.6373 -15.33675,26.5046 -23.62059,39.4707 12.07175,-6.849 24.14348,-13.6979 36.21522,-20.5469 -0.53384,4.0289 -2.17188,7.9431 -4.74223,11.3379 5.09611,-1.4688 10.1922,-2.9375 15.2883,-4.4063 -0.9543,9.5473 -4.98479,18.7343 -10.81771,26.8418 8.91286,-5.534 14.92714,-13.7196 23.3965,-19.6816 37.77743,18.3268 79.40899,31.5785 122.74773,35.1479 37.9198,4.0253 77.11581,3.6244 113.95992,-5.8467 19.85819,-6.6006 37.32021,-17.7281 52.21723,-30.7055 9.70876,0.3926 17.0861,6.7009 26.07594,9.0886 2.13139,0.8039 5.08027,2.4596 6.85311,2.4657 -7.15615,-7.2388 -14.31231,-14.4776 -21.46848,-21.7164 4.52723,-3.4577 9.09158,-6.9256 14.23573,-9.6953 3.73114,1.8216 7.4623,3.6432 11.19346,5.4648 -9.32176,-15.757 -7.767,-34.7203 -0.71304,-50.8926 2.24398,-8.4231 4.48795,-16.8463 6.73194,-25.2695 6.04247,-3.0724 12.35331,-5.722 18.6384,-8.3984 -6.10491,-0.944 -12.20982,-1.8881 -18.31473,-2.8321 4.58204,-4.3484 11.04475,-7.0772 17.76242,-7.8711 -5.12553,-1.4505 -10.25105,-2.901 -15.37658,-4.3515 -0.62986,-26.92 -12.23203,-52.4138 -24.56726,-76.7546 -3.8748,-7.642 -9.76326,-15.6345 -7.56695,-24.3372 4.31837,-10.546 16.91413,-16.1747 22.72898,-25.9434 -14.47369,4.3733 -28.16587,10.3837 -42.15034,15.7617 -1.70943,-3.7625 -1.47189,-8.1342 0.60891,-11.7519 -22.86281,2.4352 -45.20231,-3.8087 -67.15,-8.3768 -61.99489,-9.6011 -126.41028,-7.0798 -187.20251,7.0934 -8.57947,1.6914 -18.89109,2.2611 -25.82524,-3.3051 -3.28706,-2.4318 -5.84462,-5.5636 -7.53159,-8.9974 -1.68232,3.2489 -0.67553,6.8724 0.14939,10.1894 -8.04212,-8.276 -13.25349,-18.211 -20.48776,-26.9726 5.67181,14.472 11.34361,28.944 17.01542,43.416 z"
       id="path4212-3"
       inkscape:connector-curvature="0"
       sodipodi:nodetypes="ccccccccccccccccccccccscccccccccccccccccccccccccccc" />
    <path
       style="display:inline;fill:#ffffff;fill-rule:evenodd;stroke:none;stroke-width:1px;stroke-linecap:butt;stroke-linejoin:miter;stroke-opacity:1"
       d="m 310.70312,2463.291 c -8.21398,3.1565 -12.9353,11.3236 -16.15302,19.0514 -5.6045,14.1172 -7.86723,29.361 -8.43367,44.4712 -0.18011,11.5779 2.49004,23.9731 10.804,32.5225 8.55381,9.0353 21.00841,13.3258 33.20607,14.111 26.62301,3.0258 53.74718,6.7941 78.25045,18.258 2.11816,1.0078 4.24122,2.0052 6.36914,2.9922 -25.92997,-17.4348 -55.94738,-27.1336 -85.46519,-36.5491 -9.15309,-1.9188 -16.58306,-10.2666 -16.96924,-19.6885 -0.54779,-8.5768 2.64096,-16.755 4.47368,-25.0023 3.19319,-12.494 6.66713,-25.528 4.31784,-38.4807 -1.16255,-5.1466 -4.54264,-11.2602 -10.40006,-11.6857 z"
       id="path4186-80"
       inkscape:connector-curvature="0"
       sodipodi:nodetypes="cscssc" />
    <text
       xml:space="preserve"
       style="font-style:normal;font-variant:normal;font-weight:normal;font-stretch:normal;line-height:0%;font-family:Lavi;-inkscape-font-specification:Lavi;text-align:center;letter-spacing:0px;word-spacing:0px;text-anchor:middle;display:inline;fill:#000000;fill-opacity:1;stroke:none"
       x="823.83612"
       y="1090.9447"
       id="text4246-7-6-1-7-6-6"><tspan
         sodipodi:role="line"
         style="font-size:45px;line-height:1.25"
         x="830.86737"
         y="1090.9447"
         id="tspan846">Cha chreid </tspan><tspan
         sodipodi:role="line"
         style="font-size:45px;line-height:1.25"
         x="823.83612"
         y="1147.1947"
         id="tspan70">mi e!</tspan></text>
    <text
       xml:space="preserve"
       style="font-style:normal;font-variant:normal;font-weight:normal;font-stretch:normal;line-height:0%;font-family:Lavi;-inkscape-font-specification:Lavi;text-align:center;letter-spacing:0px;word-spacing:0px;text-anchor:middle;display:inline;fill:#000000;fill-opacity:1;stroke:none"
       x="1289.5938"
       y="1055.46"
       id="text4246-7-6-1-7-6-6-6"><tspan
         sodipodi:role="line"
         style="font-size:45px;line-height:1.25"
         x="1296.625"
         y="1055.46"
         id="tspan873">Às dèidh bliadhnaichean </tspan><tspan
         sodipodi:role="line"
         style="font-size:45px;line-height:1.25"
         x="1296.625"
         y="1111.71"
         id="tspan79">mòra ag ionnsachadh, </tspan><tspan
         sodipodi:role="line"
         style="font-size:45px;line-height:1.25"
         x="1296.625"
         y="1167.96"
         id="tspan83">cha ghabh duine beò gu </tspan><tspan
         sodipodi:role="line"
         style="font-size:45px;line-height:1.25"
         x="1289.5938"
         y="1224.21"
         id="tspan89">da-rìribh mi…</tspan></text>
    <text
       xml:space="preserve"
       style="font-style:normal;font-variant:normal;font-weight:normal;font-stretch:normal;font-size:13.49506664px;line-height:0%;font-family:Lavi;-inkscape-font-specification:Lavi;text-align:center;letter-spacing:0px;word-spacing:0px;text-anchor:middle;fill:#000000;fill-opacity:1;stroke:none;stroke-width:0.99999994"
       x="323.4809"
       y="2299.4802"
       id="text4246-1-3-1"
       transform="scale(0.99789912,1.0021053)"><tspan
         sodipodi:role="line"
         style="font-style:normal;font-variant:normal;font-weight:normal;font-stretch:normal;font-size:45px;line-height:1.25;font-family:Lavi;-inkscape-font-specification:Lavi;stroke-width:0.99999994"
         x="330.51215"
         y="2299.4802"
         id="tspan902">…air sgàth ’s </tspan><tspan
         sodipodi:role="line"
         style="font-style:normal;font-variant:normal;font-weight:normal;font-stretch:normal;font-size:45px;line-height:1.25;font-family:Lavi;-inkscape-font-specification:Lavi;stroke-width:0.99999994"
         x="330.51215"
         y="2355.7302"
         id="tspan96">nach eil riochd an </tspan><tspan
         sodipodi:role="line"
         style="font-style:normal;font-variant:normal;font-weight:normal;font-stretch:normal;font-size:45px;line-height:1.25;font-family:Lavi;-inkscape-font-specification:Lavi;stroke-width:0.99999994"
         x="330.51215"
         y="2411.9802"
         id="tspan98">t-seana-chinn </tspan><tspan
         sodipodi:role="line"
         style="font-style:normal;font-variant:normal;font-weight:normal;font-stretch:normal;font-size:45px;line-height:1.25;font-family:Lavi;-inkscape-font-specification:Lavi;stroke-width:0.99999994"
         x="323.4809"
         y="2468.2302"
         id="tspan100">orm!</tspan></text>
    <text
       xml:space="preserve"
       style="font-style:normal;font-variant:normal;font-weight:normal;font-stretch:normal;line-height:0%;font-family:Lavi;-inkscape-font-specification:Lavi;letter-spacing:0px;word-spacing:0px;opacity:0.85700001;fill:#ffffff;fill-opacity:1;stroke:#98b9ca;stroke-width:0.95450699;stroke-miterlimit:4;stroke-dasharray:none;stroke-opacity:1;filter:url(#filter4375-4-1-1-1-9-5-8-4)"
       x="787.65729"
       y="1584.5073"
       id="text4580-6-0-9"
       transform="matrix(0.45385441,-0.55441241,0.42180805,1.1015917,506.31624,1607.76)"><tspan
         sodipodi:role="line"
         id="tspan4582-1-1-26"
         x="787.65729"
         y="1584.5073"
         style="font-size:70px;line-height:1.25;fill:#ffffff;fill-opacity:1;stroke:#98b9ca;stroke-width:0.95450699;stroke-opacity:1"><tspan
           style="font-size:93.14950562px;fill:#ffffff;fill-opacity:1;stroke:#98b9ca;stroke-width:0.95450699;stroke-opacity:1"
           id="tspan4315-8-64">SÈID<tspan
   style="font-size:82.64876556px;stroke-width:0.95450699"
   id="tspan1133">!</tspan></tspan><tspan
           style="font-size:114.73223114px;fill:#ffffff;fill-opacity:1;stroke:#98b9ca;stroke-width:0.95450699;stroke-opacity:1"
           id="tspan4313-2-9">!</tspan></tspan></text>
    <text
       xml:space="preserve"
       style="font-style:normal;font-variant:normal;font-weight:normal;font-stretch:normal;font-size:15.67466736px;line-height:0%;font-family:Lavi;-inkscape-font-specification:Lavi;text-align:center;letter-spacing:0px;word-spacing:0px;text-anchor:middle;display:inline;fill:#000000;fill-opacity:1;stroke:#000000;stroke-width:1.79999995;stroke-miterlimit:4;stroke-dasharray:none;stroke-opacity:1"
       x="2792.7676"
       y="2023.4807"
       id="text4246-3-7-9-5-1-6-2"
       transform="matrix(0.87277155,0,-0.23842397,1.1457752,0,0)"><tspan
         sodipodi:role="line"
         style="font-size:58.77999878px;line-height:1.25;stroke:#000000;stroke-width:1.79999995;stroke-miterlimit:4;stroke-dasharray:none;stroke-opacity:1"
         x="2792.7676"
         y="2023.4807"
         id="tspan1222">A CHURRAIN !</tspan></text>
    <text
       xml:space="preserve"
       style="font-style:normal;font-variant:normal;font-weight:normal;font-stretch:normal;line-height:0%;font-family:Lavi;-inkscape-font-specification:Lavi;letter-spacing:0px;word-spacing:0px;display:inline;opacity:0.85700001;fill:#ffffff;fill-opacity:1;stroke:#98b9ca;stroke-width:1.4887538;stroke-miterlimit:4;stroke-dasharray:none;stroke-opacity:1;filter:url(#filter4375-4-1-1-1-9-5-8-4-3)"
       x="787.65729"
       y="1584.5073"
       id="text4580-6-0-9-3"
       transform="matrix(0.33769447,-0.30629363,0.31385009,0.60859124,1407.0816,1753.5904)"><tspan
         sodipodi:role="line"
         id="tspan4582-1-1-26-6"
         x="787.65729"
         y="1584.5073"
         style="font-size:70px;line-height:1.25;fill:#ffffff;fill-opacity:1;stroke:#98b9ca;stroke-width:1.4887538;stroke-opacity:1"><tspan
           style="font-size:93.14950562px;fill:#ffffff;fill-opacity:1;stroke:#98b9ca;stroke-width:1.4887538;stroke-opacity:1"
           id="tspan4315-8-64-0">Sgleog<tspan
   style="font-size:82.64876556px;stroke-width:1.4887538"
   id="tspan1133-2">!</tspan></tspan><tspan
           style="font-size:114.73223114px;fill:#ffffff;fill-opacity:1;stroke:#98b9ca;stroke-width:1.4887538;stroke-opacity:1"
           id="tspan4313-2-9-6">!</tspan></tspan></text>
  </g>
</svg>
