<?xml version="1.0" encoding="UTF-8" standalone="no"?>
<!-- Created with Inkscape (http://www.inkscape.org/) -->

<svg
   xmlns:dc="http://purl.org/dc/elements/1.1/"
   xmlns:cc="http://creativecommons.org/ns#"
   xmlns:rdf="http://www.w3.org/1999/02/22-rdf-syntax-ns#"
   xmlns:svg="http://www.w3.org/2000/svg"
   xmlns="http://www.w3.org/2000/svg"
   xmlns:xlink="http://www.w3.org/1999/xlink"
   xmlns:sodipodi="http://sodipodi.sourceforge.net/DTD/sodipodi-0.dtd"
   xmlns:inkscape="http://www.inkscape.org/namespaces/inkscape"
   id="svg2"
   version="1.1"
   inkscape:version="0.92.4 (5da689c313, 2019-01-14)"
   width="2481"
   height="3503"
   sodipodi:docname="E11P04.svg">
  <sodipodi:namedview
     pagecolor="#ffffff"
     bordercolor="#666666"
     inkscape:pageopacity="0"
     inkscape:pageshadow="2"
     inkscape:window-width="1600"
     inkscape:window-height="900"
     id="namedview70"
     showgrid="false"
     inkscape:zoom="0.4"
     inkscape:cx="1284.4231"
     inkscape:cy="455.49158"
     inkscape:current-layer="layer3"
     inkscape:window-x="0"
     inkscape:window-y="0"
     inkscape:window-maximized="0" />
  <metadata
     id="metadata8">
    <rdf:RDF>
      <cc:Work
         rdf:about="">
        <dc:format>image/svg+xml</dc:format>
        <dc:type
           rdf:resource="http://purl.org/dc/dcmitype/StillImage" />
        <dc:title />
      </cc:Work>
    </rdf:RDF>
  </metadata>
  <defs
     id="defs6" />
  <sodipodi:namedview
     pagecolor="#ffffff"
     bordercolor="#666666"
     borderopacity="1"
     objecttolerance="10"
     gridtolerance="10"
     guidetolerance="10"
     inkscape:pageopacity="0"
     inkscape:pageshadow="2"
     inkscape:window-width="1920"
     inkscape:window-height="1025"
     id="namedview4"
     showgrid="false"
     inkscape:zoom="0.30245748"
     inkscape:cx="1130.7463"
     inkscape:cy="1434.1737"
     inkscape:window-x="0"
     inkscape:window-y="26"
     inkscape:window-maximized="1"
     inkscape:current-layer="layer1" />
  <g
     inkscape:groupmode="layer"
     id="layer2"
     inkscape:label="artwork"
     sodipodi:insensitive="true">
    <image
       sodipodi:absref="D:\Pepper&amp;Carrot\ep11_The-Witches-of-Chaosah_lang-pack\lang\ro\../gfx_Pepper-and-Carrot_by-David-Revoy_E11P04.png"
       xlink:href="../gfx_Pepper-and-Carrot_by-David-Revoy_E11P04.png"
       y="0"
       x="0"
       id="image10"
       height="3503"
       width="2481" />
  </g>
  <g
     inkscape:groupmode="layer"
     id="layer3"
     inkscape:label="speechbubbles">
    <path
       style="color:#000000;display:inline;overflow:visible;visibility:visible;fill:#ffffff;fill-opacity:1;fill-rule:nonzero;stroke:none;stroke-width:0.9522236px;marker:none;enable-background:accumulate"
       d="m 940.33175,2019.1437 c -3.88212,-21.352 6.7505,-19.6471 11.52233,-23.3041 -7.35883,-17.7639 1.84563,-38.6759 45.05952,-47.7771 10.0215,-14.1475 45.193,-25.0913 70.0014,-13.9268 16.9048,-11.1089 44.2367,-11.4249 55.6863,-2.9553 11.8612,-9.7067 28.7628,0.7429 30.3302,2.9289 14.9959,-5.3344 36.2608,-1.9243 44.712,3.3002 19.9036,-7.864 62.9784,3.4656 62.2947,19.3868 23.5133,11.2333 25.1471,24.7621 18.3301,33.0664 18.0609,9.2532 28.5513,52.9475 -21.6824,57.8829 -13.6345,16.6084 -51.8046,24.3073 -69.8653,15.054 -24.1972,4.688 -39.329,8.8951 -45.5985,0.1507 -11.8609,9.7067 -43.0779,10.2287 -34.6237,-6.1051 -14.7796,10.9301 -32.8059,14.7195 -46.9901,8.3362 -23.0331,12.8996 -53.3512,2.4129 -53.3497,-9.9131 -32.8527,5.6359 -38.89048,-13.5058 -37.52516,-20.7141 -5.33917,-1.0143 -18.08224,-1.6354 -28.30169,-15.4105 z"
       id="path4043"
       inkscape:connector-curvature="0"
       sodipodi:nodetypes="ccccccccccccccccc" />
    <path
       style="color:#000000;display:inline;overflow:visible;visibility:visible;fill:#ffffff;fill-opacity:1;fill-rule:nonzero;stroke:none;stroke-width:1.07974112px;marker:none;enable-background:accumulate"
       d="m 1041.8384,2140.1353 c -4.4364,-25.0195 7.7142,-23.0216 13.1674,-27.3069 -8.4095,-20.815 2.1091,-45.3188 51.4926,-55.9832 11.4522,-16.5776 51.6451,-29.401 79.9955,-16.319 19.3183,-13.017 50.5523,-13.3872 63.6366,-3.463 13.5545,-11.3738 32.8692,0.8705 34.6604,3.4321 17.1369,-6.2507 41.4377,-2.2549 51.0955,3.8671 22.7452,-9.2149 71.9698,4.0608 71.1884,22.7167 26.8704,13.1627 28.7374,29.0153 20.9471,38.7459 20.6394,10.8426 32.6275,62.0419 -24.778,67.8249 -15.581,19.4611 -59.2007,28.4825 -79.8398,17.6398 -27.6519,5.4933 -44.9441,10.4229 -52.1086,0.1766 -13.5545,11.3739 -49.2281,11.9855 -39.567,-7.1537 -16.8896,12.8075 -37.4895,9.916 -53.6989,2.4362 -26.3216,15.1153 -60.968,10.1592 -60.9663,-4.284 -37.543,6.604 -44.4428,-15.8255 -42.8826,-24.272 -6.1015,-1.1884 -20.6639,-1.9163 -32.3423,-18.0575 z"
       id="path4043-2"
       inkscape:connector-curvature="0" />
    <path
       style="color:#000000;display:inline;overflow:visible;visibility:visible;fill:#ffffff;fill-opacity:1;fill-rule:nonzero;stroke:none;stroke-width:0.9691844px;marker:none;enable-background:accumulate"
       d="m 2449.1438,2656.4884 c 6.1235,30.3522 15.1405,29.346 8.5523,34.63 10.8945,25.1867 33.7072,55.1171 -26.7076,68.7573 -13.6325,20.3084 -121.7836,35.1913 -156.9814,19.6777 -23.3966,16.0879 -61.7785,16.9662 -78.1271,5.082 -16.3561,14.0113 -40.4252,-0.6078 -42.6954,-3.6969 -20.8966,7.833 -50.8735,3.3091 -62.9084,-4.0004 -27.7108,11.5133 -88.572,-3.9495 -88.1113,-26.6378 -33.3809,-15.6319 -36.1007,-34.8763 -26.7858,-46.8114 -25.6597,-12.8969 -41.7671,-74.9691 28.6388,-82.7856 18.6303,-23.87 72.0044,-35.4341 97.6638,-22.537 33.8415,-7.0566 54.9648,-13.2858 64.0453,-0.929 16.3562,-14.0116 60.1887,-15.2441 48.8264,8.1534 20.417,-15.7999 45.8151,-12.5676 65.9396,-3.6974 31.9485,-18.7347 74.6676,-13.185 75.0525,4.3717 45.9696,-8.5423 55.0519,18.6277 53.3604,28.9166 7.5314,1.3609 25.4506,2.046 40.2379,21.5068 z"
       id="path4043-2-3"
       inkscape:connector-curvature="0"
       sodipodi:nodetypes="ccccccccccccccccc" />
    <path
       style="color:#000000;display:inline;overflow:visible;visibility:visible;fill:#ffffff;fill-opacity:1;fill-rule:nonzero;stroke:none;stroke-width:0.89291555px;marker:none;enable-background:accumulate"
       d="m 516.40089,3158.0504 c -14.22758,29.8304 -94.4732,32.3319 -124.01384,26.2682 59.54708,33.3708 57.47113,54.1046 -23.37704,57.3239 135.58376,60.1428 24.78655,51.0418 2.93256,66.2922 106.45834,20.7266 58.82779,46.5213 39.8745,72.1993 122.36334,0.8821 82.3194,42.0433 87.47678,74.8257 10.37347,-15.383 59.65491,-62.2154 62.62014,-10.0705 80.93622,-49.749 178.42186,-81.8841 186.16252,5.1765 32.61056,-43.7978 65.12325,-62.3087 62.62012,-10.0706 80.79862,-67.9421 153.40749,-43.4863 226.44687,-24.2832 19.1834,-20.5066 21.4186,-52.0107 83.4811,-44.6277 -8.7017,-20.3257 12.253,-34.2975 59.5764,-42.5944 -62.8851,-12.2782 -74.4747,-24.9429 42.2889,-38.572 -88.8503,-1.3183 -171.7035,-4.0193 -67.4629,-50.4985 -32.7033,-1.1247 -110.2952,37.659 -74.1188,-75.8419 -56.2348,36.3356 -116.23252,56.3905 -191.47488,-19.7236 -35.60857,38.025 -97.37083,56.8413 -124.24043,9.3451 -9.65749,20.2484 -49.70261,27.8635 -83.69791,28.787 -13.14605,-8.043 -26.70465,-18.9676 -40.85367,-33.2803 -23.12547,30.0532 -57.71858,50.3499 -124.24042,9.3448 z"
       id="path3549-3-7"
       inkscape:connector-curvature="0"
       sodipodi:nodetypes="cccccccccccccccccccc" />
    <path
       style="color:#000000;display:inline;overflow:visible;visibility:visible;fill:#ffffff;fill-opacity:1;fill-rule:nonzero;stroke:none;stroke-width:1px;marker:none;enable-background:accumulate"
       d="m 713.9685,3068.6785 c 59.98272,22.9665 72.40603,51.7648 83.09037,71.7564 -3.96986,4.3889 -9.50747,13.9597 -9.50747,13.9597 0,0 23.841,37.6333 29.26881,54.6234 5.42777,16.99 -11.14554,22.2846 -11.14554,22.2846 0,0 -47.75233,-72.1235 -61.50191,-84.8945 11.38696,-11.4395 15.42716,-18.9715 21.27652,-20.8402 -3.09592,-13.0541 -30.38419,-48.0256 -51.48078,-56.8894 z"
       id="path4456"
       inkscape:connector-curvature="0" />
  </g>
  <g
     inkscape:groupmode="layer"
     id="layer1"
     inkscape:label="txt">
    <path
       style="color:#000000;display:inline;overflow:visible;visibility:visible;fill:#ffffff;fill-opacity:1;fill-rule:nonzero;stroke:none;stroke-width:1px;marker:none;enable-background:accumulate"
       d="m 1410.1656,2224.4746 c -0.824,-5.3715 4.3942,-8.0572 4.3942,-8.0572 0,0 -5.2182,-4.1506 0.8239,-8.3014 6.0421,-4.1506 11.5348,0.9767 11.5348,0.9767 0,0 7.69,-8.0572 14.8306,1.2208 7.1407,9.2779 0,14.4052 0,14.4052 0,0 4.1196,9.7664 -6.866,11.9638 -10.9856,2.1974 -14.0066,0.7324 -16.7531,-5.1273 -7.6898,-1.9533 -7.9644,-7.0806 -7.9644,-7.0806 z"
       id="path5098"
       inkscape:connector-curvature="0" />
    <path
       style="color:#000000;display:inline;overflow:visible;visibility:visible;fill:#ffffff;fill-opacity:1;fill-rule:nonzero;stroke:none;stroke-width:1px;marker:none;enable-background:accumulate"
       d="m 1333.0902,2204.0312 c 4.0416,-10.1338 13.0576,-10.7479 13.0576,-10.7479 0,0 -0.3109,-7.6772 5.907,-11.9763 6.218,-4.2992 13.6795,0.3071 13.6795,0.3071 0,0 10.2596,-1.5355 15.2339,7.9841 4.9744,9.5196 8.3942,14.1259 3.7308,23.6455 3.4199,5.2204 0,16.2754 -4.9743,18.425 -4.9744,2.1496 -17.0993,5.8345 -23.9391,-5.2205 -5.5962,1.8426 -22.6954,3.0709 -22.6954,-22.417 z"
       id="path5090"
       inkscape:connector-curvature="0" />
    <flowRoot
       xml:space="preserve"
       id="flowRoot2987-4-9-3-5-9-8-3-5-4"
       style="font-style:normal;font-variant:normal;font-weight:normal;font-stretch:normal;line-height:0.01%;font-family:Lavi;-inkscape-font-specification:Lavi;text-align:center;letter-spacing:0px;word-spacing:0px;text-anchor:middle;fill:#000000;fill-opacity:1;stroke:none"
       transform="translate(753.04179,1697.0696)"><flowRegion
         id="flowRegion2989-5-4-5-8-9-5-4-2-2"><rect
           id="rect2991-7-9-6-5-7-5-4-9-5"
           width="497.70953"
           height="358.25998"
           x="120.55251"
           y="265.53046"
           style="font-style:normal;font-variant:normal;font-weight:normal;font-stretch:normal;font-family:Lavi;-inkscape-font-specification:Lavi;text-align:center;text-anchor:middle" /></flowRegion><flowPara
         style="font-size:45px;line-height:1.25;text-align:center;text-anchor:middle"
         id="flowPara3030-8-1-8-7-8-3-5">Regele?...</flowPara></flowRoot>    <flowRoot
       xml:space="preserve"
       id="flowRoot2987-4-9-3-5-9-8-3-5-4-0"
       style="font-style:normal;font-variant:normal;font-weight:normal;font-stretch:normal;line-height:0.01%;font-family:Lavi;-inkscape-font-specification:Lavi;text-align:center;letter-spacing:0px;word-spacing:0px;text-anchor:middle;fill:#000000;fill-opacity:1;stroke:none"
       transform="translate(869.66915,1817.2426)"><flowRegion
         id="flowRegion2989-5-4-5-8-9-5-4-2-2-5"><rect
           id="rect2991-7-9-6-5-7-5-4-9-5-4"
           width="497.70953"
           height="358.25998"
           x="120.55251"
           y="265.53046"
           style="font-style:normal;font-variant:normal;font-weight:normal;font-stretch:normal;font-family:Lavi;-inkscape-font-specification:Lavi;text-align:center;text-anchor:middle" /></flowRegion><flowPara
         style="font-size:45px;line-height:1.25;text-align:center;text-anchor:middle"
         id="flowPara4229">...așa de tânăr?!</flowPara></flowRoot>    <flowRoot
       xml:space="preserve"
       id="flowRoot2987-4-9-3-5-9-8-3-5-4-0-5"
       style="font-style:normal;font-variant:normal;font-weight:normal;font-stretch:normal;line-height:0.01%;font-family:Lavi;-inkscape-font-specification:Lavi;text-align:center;letter-spacing:0px;word-spacing:0px;text-anchor:middle;fill:#000000;fill-opacity:1;stroke:none"
       transform="translate(1832.8381,2374.4537)"><flowRegion
         id="flowRegion2989-5-4-5-8-9-5-4-2-2-5-0"><rect
           id="rect2991-7-9-6-5-7-5-4-9-5-4-3"
           width="497.70953"
           height="358.25998"
           x="120.55251"
           y="265.53046"
           style="font-style:normal;font-variant:normal;font-weight:normal;font-stretch:normal;font-family:Lavi;-inkscape-font-specification:Lavi;text-align:center;text-anchor:middle" /></flowRegion><flowPara
         style="font-size:45px;line-height:1.25;text-align:center;text-anchor:middle"
         id="flowPara3360">Cred că avem aceeași vârstă...</flowPara></flowRoot>    <path
       style="color:#000000;display:inline;overflow:visible;visibility:visible;fill:#ffffff;fill-opacity:1;fill-rule:nonzero;stroke:none;stroke-width:1px;marker:none;enable-background:accumulate"
       d="m 2210.6349,2528.6131 c 2.0696,-13.9994 -8.3532,-20.0368 -8.3532,-20.0368 0,0 5.6241,-8.6102 1.0865,-17.2136 -4.5378,-8.6035 -16.6613,-7.7412 -16.6613,-7.7412 0,0 -11.2882,-7.8287 -23.7806,0.1332 -12.4925,7.9618 -19.7553,11.2152 -20.6573,24.8788 -7.6828,3.9568 -11.1303,18.6435 -6.6181,24.0487 4.5121,5.4054 16.5736,16.7998 32.3596,8.1827 5.4699,5.4216 25.1937,16.9447 42.6244,-12.2518 z"
       id="path5090-2"
       inkscape:connector-curvature="0" />
    <path
       style="color:#000000;display:inline;overflow:visible;visibility:visible;fill:#ffffff;fill-opacity:1;fill-rule:nonzero;stroke:none;stroke-width:1px;marker:none;enable-background:accumulate"
       d="m 2115.1571,2425.2289 c 5.9597,0.3755 7.5527,6.7768 7.5527,6.7768 0,0 5.7336,-4.7662 8.6939,2.8948 2.9601,7.6609 -3.8878,12.4964 -3.8878,12.4964 0,0 6.7409,10.4141 -4.9613,16.0754 -11.7021,5.6615 -15.4383,-3.4455 -15.4383,-3.4455 0,0 -11.4816,2.2104 -11.1307,-10.4391 0.3508,-12.6495 2.6649,-15.6332 9.6214,-17.2627 3.9875,-8.0194 9.5501,-7.0961 9.5501,-7.0961 z"
       id="path5098-4"
       inkscape:connector-curvature="0"
       inkscape:transform-center-x="27.255435"
       inkscape:transform-center-y="-31.014805" />
    <flowRoot
       xml:space="preserve"
       id="flowRoot2987-4-9-3-5-9-8-3-5-4-0-5-5"
       style="font-style:normal;font-variant:normal;font-weight:normal;font-stretch:normal;line-height:0.01%;font-family:Lavi;-inkscape-font-specification:Lavi;text-align:center;letter-spacing:0px;word-spacing:0px;text-anchor:middle;fill:#000000;fill-opacity:1;stroke:none"
       transform="translate(372.87547,2928.2834)"><flowRegion
         id="flowRegion2989-5-4-5-8-9-5-4-2-2-5-0-8"><rect
           id="rect2991-7-9-6-5-7-5-4-9-5-4-3-2"
           width="745.54956"
           height="234.83037"
           x="22.802517"
           y="277.03046"
           style="font-style:normal;font-variant:normal;font-weight:normal;font-stretch:normal;font-family:Lavi;-inkscape-font-specification:Lavi;text-align:center;text-anchor:middle" /></flowRegion><flowPara
         style="font-size:45px;line-height:1.25;text-align:center;text-anchor:middle"
         id="flowPara3337">Ce tot aștepți?!</flowPara><flowPara
         style="font-size:45px;line-height:1.25;text-align:center;text-anchor:middle"
         id="flowPara3343">Hai odată! Trezește-l, </flowPara><flowPara
         style="font-size:45px;line-height:1.25;text-align:center;text-anchor:middle"
         id="flowPara37">intimidează-l, înfricoșează-l!</flowPara></flowRoot>  </g>
</svg>
