<?xml version="1.0" encoding="UTF-8" standalone="no"?>
<!-- Created with Inkscape (http://www.inkscape.org/) -->

<svg
   xmlns:dc="http://purl.org/dc/elements/1.1/"
   xmlns:cc="http://creativecommons.org/ns#"
   xmlns:rdf="http://www.w3.org/1999/02/22-rdf-syntax-ns#"
   xmlns:svg="http://www.w3.org/2000/svg"
   xmlns="http://www.w3.org/2000/svg"
   xmlns:xlink="http://www.w3.org/1999/xlink"
   xmlns:sodipodi="http://sodipodi.sourceforge.net/DTD/sodipodi-0.dtd"
   xmlns:inkscape="http://www.inkscape.org/namespaces/inkscape"
   id="svg2"
   version="1.1"
   inkscape:version="0.92.4 (5da689c313, 2019-01-14)"
   width="2481"
   height="3503"
   sodipodi:docname="E29P08.svg">
  <metadata
     id="metadata8">
    <rdf:RDF>
      <cc:Work
         rdf:about="">
        <dc:format>image/svg+xml</dc:format>
        <dc:type
           rdf:resource="http://purl.org/dc/dcmitype/StillImage" />
        <dc:title />
      </cc:Work>
    </rdf:RDF>
  </metadata>
  <defs
     id="defs6">
    <filter
       style="color-interpolation-filters:sRGB"
       id="filter3018-3-2-2-7-8"
       inkscape:label="Lapping"
       inkscape:menu="Distort"
       inkscape:menu-tooltip="Something like a water noise"
       height="1.3"
       y="-0.15000001"
       width="1.3"
       x="-0.15000001">
      <feTurbulence
         id="feTurbulence3020-6-9-0-4-8"
         numOctaves="5"
         seed="0"
         type="fractalNoise"
         baseFrequency="0.1"
         result="result1" />
      <feGaussianBlur
         id="feGaussianBlur3022-7-1-2-4-4"
         stdDeviation="2"
         result="result2" />
      <feDisplacementMap
         id="feDisplacementMap3024-5-2-3-3-3"
         in2="result2"
         scale="55.299999999999997"
         yChannelSelector="B"
         xChannelSelector="R"
         in="SourceGraphic" />
    </filter>
    <filter
       style="color-interpolation-filters:sRGB"
       id="filter4375-4-1-1-1-9-5-8"
       inkscape:label="Drop Shadow">
      <feFlood
         id="feFlood4377-7-9-0-8-1-7-3"
         flood-opacity="1"
         flood-color="rgb(108,125,133)"
         result="flood" />
      <feComposite
         id="feComposite4379-3-8-8-2-77-4-1"
         in2="SourceGraphic"
         in="flood"
         operator="in"
         result="composite1" />
      <feMorphology
         id="feMorphology4393-1-0-49-8-9-3-0"
         operator="dilate"
         radius="6.2000000000000002"
         result="result3" />
      <feComposite
         id="feComposite4385-9-5-7-0-8-8-7"
         in2="result3"
         in="SourceGraphic"
         operator="over"
         result="fbSourceGraphic" />
      <feColorMatrix
         result="fbSourceGraphicAlpha"
         in="fbSourceGraphic"
         values="0 0 0 -1 0 0 0 0 -1 0 0 0 0 -1 0 0 0 0 1 0"
         id="feColorMatrix4544" />
      <feTurbulence
         id="feTurbulence4546"
         type="fractalNoise"
         numOctaves="3"
         seed="37"
         baseFrequency="0.129 0.0050000000000000001"
         result="turbulence" />
      <feDisplacementMap
         id="feDisplacementMap4548"
         in2="turbulence"
         in="fbSourceGraphic"
         scale="6.6"
         yChannelSelector="G"
         xChannelSelector="R"
         result="fbSourceGraphic" />
      <feColorMatrix
         result="fbSourceGraphicAlpha"
         in="fbSourceGraphic"
         values="0 0 0 -1 0 0 0 0 -1 0 0 0 0 -1 0 0 0 0 1 0"
         id="feColorMatrix4670" />
      <feFlood
         id="feFlood4672"
         flood-opacity="1"
         flood-color="rgb(17,52,65)"
         result="flood"
         in="fbSourceGraphic" />
      <feComposite
         id="feComposite4674"
         in2="fbSourceGraphic"
         in="flood"
         operator="in"
         result="composite1" />
      <feGaussianBlur
         id="feGaussianBlur4676"
         in="composite1"
         stdDeviation="0"
         result="blur" />
      <feOffset
         id="feOffset4678"
         dx="6"
         dy="6"
         result="offset" />
      <feComposite
         id="feComposite4680"
         in2="offset"
         in="fbSourceGraphic"
         operator="over"
         result="composite2" />
    </filter>
  </defs>
  <sodipodi:namedview
     pagecolor="#ffffff"
     bordercolor="#666666"
     borderopacity="1"
     objecttolerance="10"
     gridtolerance="10"
     guidetolerance="10"
     inkscape:pageopacity="0"
     inkscape:pageshadow="2"
     inkscape:window-width="993"
     inkscape:window-height="1012"
     id="namedview4"
     showgrid="false"
     inkscape:zoom="0.22802082"
     inkscape:cx="985.57295"
     inkscape:cy="1780.6952"
     inkscape:window-x="11"
     inkscape:window-y="41"
     inkscape:window-maximized="0"
     inkscape:current-layer="layer1"
     inkscape:snap-global="false" />
  <g
     inkscape:groupmode="layer"
     id="layer2"
     inkscape:label="artwork"
     sodipodi:insensitive="true">
    <image
       sodipodi:absref="/felles/omsetting/pepper-carrot/webcomics/ep29_Destroyer-of-Worlds/lang/nn/../gfx_Pepper-and-Carrot_by-David-Revoy_E29P08.png"
       xlink:href="../gfx_Pepper-and-Carrot_by-David-Revoy_E29P08.png"
       y="0"
       x="0"
       id="image10"
       height="3503"
       width="2481" />
  </g>
  <g
     inkscape:groupmode="layer"
     id="layer3"
     inkscape:label="speechbubbles">
    <path
       style="color:#000000;display:inline;overflow:visible;visibility:visible;fill:#0f0f0f;fill-opacity:1;fill-rule:nonzero;stroke:none;stroke-width:1px;marker:none;enable-background:accumulate"
       d="m 1741.9308,2432.7908 c -4.8178,19.668 -0.7688,33.3874 2.4416,37.3592 3.2104,3.9717 10.8983,14.3119 13.7655,19.7718 2.3453,4.527 7.2978,10.3012 2.8751,12.116 -4.4228,1.8149 -34.8116,2.5003 -39.1041,15.4478 -4.2926,12.9476 1.2261,18.1 11.372,24.4541 10.1458,6.3542 23.2871,14.8228 21.1091,24.7749 -2.1781,9.9521 -13.1171,14.2585 -19.1504,14.6671 -6.0333,0.4087 -42.6524,-2.0129 -51.9597,1.3807 -9.3072,3.3936 -58.5684,13.2614 -54.7449,26.2831 11.9469,-13.1095 41.9984,-13.9815 50.8227,-15.2923 8.8245,-1.3108 24.7392,-5.003 34.6806,-1.6655 9.9416,3.3375 30.3591,2.6969 38.2813,-1.4051 7.9224,-4.102 22.577,-9.4024 22.9084,-20.299 0.3315,-10.8966 1.9829,-23.0056 -14.1751,-31.2699 -10.1458,-6.3541 -9.9405,-8.4674 -8.9855,-11.4734 0.9551,-3.0061 6.7542,-4.5088 18.3379,-3.2435 11.5838,1.2654 21.8199,-5.163 22.8068,-11.6474 0.9868,-6.4843 -4.6686,-27.4261 -5.0774,-33.4595 -0.4086,-6.0333 -15.9072,-37.41 -15.9072,-37.41 z"
       id="path5058"
       inkscape:connector-curvature="0"
       sodipodi:nodetypes="cscsssssscssssccscccc" />
    <path
       style="color:#000000;display:inline;overflow:visible;visibility:visible;fill:#ffffff;fill-opacity:1;fill-rule:nonzero;stroke:none;stroke-width:0.96873879px;marker:none;enable-background:accumulate"
       d="m 180.39698,1197.5875 c 80.91223,-28.0684 425.26712,-27.5985 476.00157,9.2632 43.28455,31.4489 92.66842,206.8329 6.94177,231.151 -62.95213,17.8576 -406.52513,25.38 -488.9885,8.0881 -84.321876,-13.2006 -62.81215,-224.8503 6.04516,-248.5023 z"
       id="path4040-4"
       inkscape:connector-curvature="0"
       sodipodi:nodetypes="csscc" />
    <path
       style="color:#000000;display:inline;overflow:visible;visibility:visible;fill:#ffffff;fill-opacity:1;fill-rule:nonzero;stroke:none;stroke-width:0.99999994px;marker:none;enable-background:accumulate"
       d="m 311.87959,1615.1816 c -40.60124,-32.4674 -74.36032,-115.1853 -33.91931,-172.8839 3.17292,-61.055 -34.82399,-40.9983 -34.82399,-40.9983 -17.62319,2.576 -45.4318,163.5125 68.7433,213.8822 z"
       id="path3984"
       inkscape:connector-curvature="0"
       sodipodi:nodetypes="cccc" />
    <path
       style="color:#000000;display:inline;overflow:visible;visibility:visible;fill:#ffffff;fill-opacity:1;fill-rule:nonzero;stroke:none;stroke-width:1px;marker:none;enable-background:accumulate"
       d="m 1326.0996,1299.3115 c 1.8854,-18.5026 6.1361,-33.1811 29.5221,-41.3203 23.386,-8.1393 65.9072,-9.7393 119.8533,-6.5375 28.8965,1.715 69.9555,4.2124 92.9837,11.9439 23.0282,7.7314 28.0253,20.6966 25.5989,47.7999 -2.4265,27.1032 -10.9126,41.5411 -37.5497,48.2608 -26.6371,6.7198 -71.4253,5.7215 -81.1748,6.4052 -25.4923,-2.1528 -74.6465,0.9004 -105.8946,-4.7972 -31.2482,-5.6977 -44.5902,-20.1462 -43.3389,-61.7548 z"
       id="path4546-6-0"
       inkscape:connector-curvature="0"
       sodipodi:nodetypes="cssssscsc" />
    <path
       style="color:#000000;display:inline;overflow:visible;visibility:visible;fill:#ffffff;fill-opacity:1;fill-rule:nonzero;stroke:none;stroke-width:1px;marker:none;enable-background:accumulate"
       d="m 1431.7617,1468.491 c 59.9751,-44.8956 60.0722,-122.3075 31.5594,-145.6457 -9.4981,-43.7555 40.3171,-10.9043 40.3171,-10.9043 0,0 13.3413,2.4791 15.0637,12.6745 5.1327,30.38 8.6371,103.3566 -86.9402,143.8755 z"
       id="path3072"
       inkscape:connector-curvature="0"
       sodipodi:nodetypes="cccsc" />
    <path
       style="color:#000000;display:inline;overflow:visible;visibility:visible;fill:#ffffff;fill-opacity:1;fill-rule:nonzero;stroke:none;stroke-width:0.973983px;marker:none;enable-background:accumulate"
       d="m 1791.8006,1302.4938 c 3.4668,-36.4943 -2.2761,-75.0164 43.5771,-96.4376 45.8527,-21.4213 132.8739,-24.0627 234.3396,-18.7419 54.3507,2.85 132.179,4.4984 175.5192,19.3113 43.3404,14.8129 52.1925,42.79 47.745,96.242 -4.4475,53.4519 -28.4486,76.8054 -78.514,90.5349 -50.0656,13.7297 -126.196,17.836 -144.5281,19.3616 -18.3319,1.5258 -75.1899,0.2112 -131.6012,-5.962 -56.4113,-6.1732 -94.9964,-10.4892 -111.5421,-28.3984 -25.9379,-22.6803 -36.5727,-49.3472 -34.9955,-75.9099 z"
       id="path4546-6-2"
       inkscape:connector-curvature="0"
       sodipodi:nodetypes="cssssssscc" />
    <path
       style="fill:#ffffff;fill-rule:evenodd;stroke:none;stroke-width:1px;stroke-linecap:butt;stroke-linejoin:miter;stroke-opacity:1"
       d="m 1862.7031,1340.7927 c 37.0537,46.6722 -66.2999,66.1608 -59.716,93.6787 4.5451,18.9962 58.4627,25.3981 71.4513,107.1142 -28.5867,-68.3515 -80.8708,-62.3973 -96.4536,-91.0083 -29.5953,-54.3394 38.0899,-73.6875 46.0667,-84.002 10.6687,-13.7955 38.6516,-25.7826 38.6516,-25.7826 z"
       id="path4186"
       inkscape:connector-curvature="0"
       sodipodi:nodetypes="cscssc" />
    <path
       style="color:#000000;display:inline;overflow:visible;visibility:visible;opacity:1;fill:#0f0f0f;fill-opacity:1;fill-rule:nonzero;stroke:none;stroke-width:1.0516063px;marker:none;filter:url(#filter3018-3-2-2-7-8);enable-background:accumulate"
       d="m 358.47331,252.02591 c 0.0466,-13.96188 7.39186,-41.05615 31.52516,-45.9295 24.82592,-5.01323 22.83162,-7.42647 50.82871,1.2048 18.17701,5.60381 27.31738,23.75479 27.84434,32.90879 0.26348,4.577 1.82858,62.61405 1.08046,81.43083 -0.74813,18.81679 -10.39305,52.60598 -22.33297,55.32455 -18.0305,4.10531 -7.61044,7.48563 -26.2623,6.88865 -18.65186,-0.59699 -37.41469,-2.83341 -48.54882,-7.63934 -7.64142,-3.29834 -16.92567,-32.34767 -16.38912,-47.99723 0.53656,-15.64955 2.79353,-70.6371 2.25454,-76.19155 z"
       id="path3986-3-7-0-1"
       inkscape:connector-curvature="0"
       sodipodi:nodetypes="cssssssssc"
       transform="matrix(-0.02464833,-0.97640344,1.0670645,-0.01858366,1464.8343,2836.9044)" />
  </g>
  <g
     inkscape:groupmode="layer"
     id="layer1"
     inkscape:label="txt">
    <text
       xml:space="preserve"
       style="font-style:normal;font-variant:normal;font-weight:normal;font-stretch:normal;line-height:0%;font-family:Lavi;-inkscape-font-specification:Lavi;text-align:center;letter-spacing:0px;word-spacing:0px;text-anchor:middle;fill:#000000;fill-opacity:1;stroke:none"
       x="410.8031"
       y="1251.4841"
       id="text4246"><tspan
         sodipodi:role="line"
         style="font-size:45px;line-height:1.20000005"
         x="410.8031"
         y="1251.4841"
         id="tspan883">Verkeleg? Klarte ho å</tspan><tspan
         sodipodi:role="line"
         style="font-size:45px;line-height:1.20000005"
         x="410.8031"
         y="1305.4841"
         id="tspan872">utløysa ein så enorm</tspan><tspan
         sodipodi:role="line"
         style="font-size:45px;line-height:1.20000005"
         x="410.8031"
         y="1359.4841"
         id="tspan874">kjedereaksjon utan å</tspan><tspan
         sodipodi:role="line"
         style="font-size:45px;line-height:1.20000005"
         x="410.8031"
         y="1413.4841"
         id="tspan875">vera klar over det sjølv?!</tspan></text>
    <text
       xml:space="preserve"
       style="font-style:normal;font-variant:normal;font-weight:normal;font-stretch:normal;line-height:0%;font-family:Lavi;-inkscape-font-specification:Lavi;text-align:center;letter-spacing:0px;word-spacing:0px;text-anchor:middle;fill:#000000;fill-opacity:1;stroke:none"
       x="1462.9857"
       y="1325.2301"
       id="text4246-3"><tspan
         sodipodi:role="line"
         style="font-size:45px;line-height:1.20000005"
         x="1462.9857"
         y="1325.2301"
         id="tspan890">Utan tvil.</tspan></text>
    <text
       xml:space="preserve"
       style="font-style:normal;font-variant:normal;font-weight:normal;font-stretch:normal;line-height:0%;font-family:Lavi;-inkscape-font-specification:Lavi;text-align:center;letter-spacing:0px;word-spacing:0px;text-anchor:middle;fill:#000000;fill-opacity:1;stroke:none"
       x="2041.6422"
       y="1258.4749"
       id="text4246-6"><tspan
         sodipodi:role="line"
         style="font-size:45px;line-height:1.20000005"
         x="2041.6422"
         y="1258.4749"
         id="tspan899">Mine damer, no trur</tspan><tspan
         sodipodi:role="line"
         style="font-size:45px;line-height:1.20000005"
         x="2041.6422"
         y="1312.4749"
         id="tspan893">eg vår kjære Pepar</tspan><tspan
         sodipodi:role="line"
         style="font-size:45px;line-height:1.20000005"
         x="2041.6422"
         y="1366.4749"
         id="tspan891">endeleg er klar!</tspan></text>
    <text
       xml:space="preserve"
       style="color:#000000;font-style:normal;font-variant:normal;font-weight:normal;font-stretch:normal;font-size:13.80589771px;line-height:0.01%;font-family:Arial;-inkscape-font-specification:Arial;letter-spacing:0px;word-spacing:0px;display:inline;overflow:visible;visibility:visible;fill:#000000;fill-opacity:1;fill-rule:nonzero;stroke:#ffffff;stroke-width:12.78199959;stroke-miterlimit:4;stroke-dasharray:none;stroke-opacity:0.85350318;marker:none;paint-order:stroke markers fill;enable-background:accumulate"
       x="1402.5764"
       y="3015.6167"
       id="text1522"
       transform="matrix(0.73325907,-0.42022078,0.28304438,1.2015656,0,0)"><tspan
         sodipodi:role="line"
         x="1402.5764"
         y="3015.6167"
         id="tspan1520"
         style="fill:#000000;fill-opacity:1;stroke:#ffffff;stroke-width:12.78199959;stroke-miterlimit:4;stroke-dasharray:none;stroke-opacity:0.85350318;paint-order:stroke markers fill"><tspan
           x="1402.5764"
           y="3015.6167"
           style="color:#000000;font-style:normal;font-variant:normal;font-weight:normal;font-stretch:normal;font-size:73.6314621px;line-height:1.25;font-family:Lavi;-inkscape-font-specification:Lavi;text-align:center;text-anchor:middle;display:inline;overflow:visible;visibility:visible;fill:#000000;fill-opacity:1;fill-rule:nonzero;stroke:#ffffff;stroke-width:12.78199959;stroke-miterlimit:4;stroke-dasharray:none;stroke-opacity:0.85350318;marker:none;paint-order:stroke markers fill;enable-background:accumulate"
           id="tspan1518">Fvip!</tspan></tspan></text>
    <flowRoot
       xml:space="preserve"
       id="flowRoot2987-4-9-3-6-6-2-8-6-5-4"
       style="font-style:normal;font-variant:normal;font-weight:normal;font-stretch:normal;font-size:48.95590973px;line-height:0.01%;font-family:Lavi;-inkscape-font-specification:Lavi;text-align:center;letter-spacing:0px;word-spacing:0px;text-anchor:middle;opacity:1;fill:#000000;fill-opacity:1;stroke:none;stroke-width:0.72300833"
       transform="matrix(1.5214741,0,0,1.6400559,1119.1272,1930.0913)"><flowRegion
         id="flowRegion2989-5-4-5-0-1-8-4-1-2-9"
         style="font-size:48.95590973px;stroke-width:0.72300833"><rect
           id="rect2991-7-9-6-6-8-9-5-5-5-2"
           width="615.85046"
           height="407.77811"
           x="120.55251"
           y="265.53046"
           style="font-style:normal;font-variant:normal;font-weight:normal;font-stretch:normal;font-size:48.95590973px;font-family:Lavi;-inkscape-font-specification:Lavi;text-align:center;text-anchor:middle;stroke-width:0.72300833" /></flowRegion><flowPara
         style="font-style:normal;font-variant:normal;font-weight:normal;font-stretch:normal;font-size:48.95590973px;line-height:1.25;font-family:'Drukaatie burti';-inkscape-font-specification:'Drukaatie burti';text-align:center;text-anchor:middle;fill:#ffffff;fill-opacity:1;stroke-width:0.72300833"
         id="flowPara883">...</flowPara></flowRoot>    <text
       xml:space="preserve"
       style="font-style:normal;font-variant:normal;font-weight:normal;font-stretch:normal;line-height:0%;font-family:Lavi;-inkscape-font-specification:Lavi;letter-spacing:0px;word-spacing:0px;opacity:0.85700001;fill:#ffffff;fill-opacity:1;stroke:#98b9ca;stroke-width:0.95450699;stroke-miterlimit:4;stroke-dasharray:none;stroke-opacity:1;filter:url(#filter4375-4-1-1-1-9-5-8)"
       x="787.65729"
       y="1584.5073"
       id="text4580-6-0"
       transform="matrix(0.71047992,-0.09260253,-0.44793099,1.0912306,1024.5003,622.48095)"><tspan
         sodipodi:role="line"
         id="tspan4582-1-1"
         x="787.65729"
         y="1584.5073"
         style="font-size:70px;line-height:1.25;fill:#ffffff;fill-opacity:1;stroke:#98b9ca;stroke-width:0.95450699;stroke-opacity:1"><tspan
           style="font-size:93.14950562px;fill:#ffffff;fill-opacity:1;stroke:#98b9ca;stroke-width:0.95450699;stroke-opacity:1"
           id="tspan4315-8">Fsjj<tspan
   style="font-size:72.14802551px;stroke-width:0.95450699"
   id="tspan1131">jj</tspan><tspan
   style="font-size:82.64876556px;stroke-width:0.95450699"
   id="tspan1133">!</tspan></tspan><tspan
           style="font-size:114.73223114px;fill:#ffffff;fill-opacity:1;stroke:#98b9ca;stroke-width:0.95450699;stroke-opacity:1"
           id="tspan4313-2" /></tspan></text>
    <text
       xml:space="preserve"
       style="font-style:normal;font-variant:normal;font-weight:normal;font-stretch:normal;font-size:43.85733414px;line-height:0%;font-family:Lavi;-inkscape-font-specification:'Lavi, Normal';font-variant-ligatures:normal;font-variant-caps:normal;font-variant-numeric:normal;font-feature-settings:normal;text-align:center;letter-spacing:0px;word-spacing:0px;writing-mode:lr-tb;text-anchor:middle;display:inline;fill:#241c1c;fill-opacity:1;stroke:#000000;stroke-width:0.82200003;stroke-miterlimit:4;stroke-dasharray:none;stroke-opacity:1"
       x="2414.4771"
       y="3318.4402"
       id="text4213"
       transform="matrix(0.96049651,0,-0.32716292,1.0411282,0,0)"><tspan
         sodipodi:role="line"
         id="tspan3562"
         x="2414.4771"
         y="3318.4402"
         style="font-style:normal;font-variant:normal;font-weight:normal;font-stretch:normal;font-size:43.85733414px;line-height:1.25;font-family:Lavi;-inkscape-font-specification:'Lavi, Normal';font-variant-ligatures:normal;font-variant-caps:normal;font-variant-numeric:normal;font-feature-settings:normal;text-align:center;writing-mode:lr-tb;text-anchor:middle;stroke-width:0.82200003">– SISTE DEL AV TRILOGIEN OM KRONINGA AV KORIANDER –</tspan></text>
  </g>
</svg>
