<?xml version="1.0" encoding="UTF-8" standalone="no"?>
<!-- Created with Inkscape (http://www.inkscape.org/) -->

<svg
   xmlns:dc="http://purl.org/dc/elements/1.1/"
   xmlns:cc="http://creativecommons.org/ns#"
   xmlns:rdf="http://www.w3.org/1999/02/22-rdf-syntax-ns#"
   xmlns:svg="http://www.w3.org/2000/svg"
   xmlns="http://www.w3.org/2000/svg"
   xmlns:xlink="http://www.w3.org/1999/xlink"
   xmlns:sodipodi="http://sodipodi.sourceforge.net/DTD/sodipodi-0.dtd"
   xmlns:inkscape="http://www.inkscape.org/namespaces/inkscape"
   id="svg2"
   version="1.1"
   inkscape:version="0.92.2 2405546, 2018-03-11"
   width="2481"
   height="3503"
   sodipodi:docname="E27P03.svg">
  <metadata
     id="metadata8">
    <rdf:RDF>
      <cc:Work
         rdf:about="">
        <dc:format>image/svg+xml</dc:format>
        <dc:type
           rdf:resource="http://purl.org/dc/dcmitype/StillImage" />
        <dc:title></dc:title>
      </cc:Work>
    </rdf:RDF>
  </metadata>
  <defs
     id="defs6">
    <filter
       style="color-interpolation-filters:sRGB"
       id="filter4375-4-1-1-1-9"
       inkscape:label="deevad outline effect">
      <feFlood
         id="feFlood4377-7-9-0-8-1"
         flood-opacity="1"
         flood-color="rgb(0,0,0)"
         result="flood" />
      <feComposite
         id="feComposite4379-3-8-8-2-77"
         in2="SourceGraphic"
         in="flood"
         operator="in"
         result="composite1" />
      <feMorphology
         id="feMorphology4393-1-0-49-8-9"
         operator="dilate"
         radius="4"
         result="result3" />
      <feComposite
         id="feComposite4385-9-5-7-0-8"
         in2="result3"
         in="SourceGraphic"
         operator="over"
         result="composite2" />
    </filter>
    <filter
       style="color-interpolation-filters:sRGB"
       id="filter4375-4-1-1-1-9-5"
       inkscape:label="deevad outline effect">
      <feFlood
         id="feFlood4377-7-9-0-8-1-8"
         flood-opacity="1"
         flood-color="rgb(0,0,0)"
         result="flood" />
      <feComposite
         id="feComposite4379-3-8-8-2-77-0"
         in2="SourceGraphic"
         in="flood"
         operator="in"
         result="composite1" />
      <feMorphology
         id="feMorphology4393-1-0-49-8-9-0"
         operator="dilate"
         radius="4"
         result="result3" />
      <feComposite
         id="feComposite4385-9-5-7-0-8-0"
         in2="result3"
         in="SourceGraphic"
         operator="over"
         result="composite2" />
    </filter>
  </defs>
  <sodipodi:namedview
     pagecolor="#ffffff"
     bordercolor="#666666"
     borderopacity="1"
     objecttolerance="10"
     gridtolerance="10"
     guidetolerance="10"
     inkscape:pageopacity="0"
     inkscape:pageshadow="2"
     inkscape:window-width="1858"
     inkscape:window-height="1057"
     id="namedview4"
     showgrid="false"
     inkscape:zoom="0.42773946"
     inkscape:cx="877.93889"
     inkscape:cy="1454.9854"
     inkscape:window-x="1912"
     inkscape:window-y="-8"
     inkscape:window-maximized="1"
     inkscape:current-layer="layer1"
     inkscape:snap-global="false" />
  <g
     inkscape:groupmode="layer"
     id="layer2"
     inkscape:label="artwork"
     sodipodi:insensitive="true">
    <image
       sodipodi:absref="/home/midgard/git/peppercarrot/comics/new-ep27_Coriander-s-Invention/lang/ja/../gfx_Pepper-and-Carrot_by-David-Revoy_E27P03.png"
       xlink:href="../gfx_Pepper-and-Carrot_by-David-Revoy_E27P03.png"
       y="0"
       x="0"
       id="image10"
       height="3503"
       width="2481" />
  </g>
  <g
     inkscape:groupmode="layer"
     id="layer3"
     inkscape:label="speechbubbles">
    <path
       style="fill:#ffffff;fill-rule:evenodd;stroke:none;stroke-width:1.06538737px;stroke-linecap:butt;stroke-linejoin:miter;stroke-opacity:1"
       d="m 1139.973,1575.3738 c 3.0625,-55.8541 1.1477,-94.0323 25.6596,-107.5615 24.5121,-13.529 210.748,-13.9309 225.7717,-12.9046 15.0237,1.0264 46.8834,7.3205 60.095,4.1053 13.2114,-3.2151 51.4792,-4.2434 71.5932,-0.4937 20.1141,3.7496 106.9919,4.2495 117.3705,15.4109 10.3785,11.1616 36.3066,41.8742 35.83,76.2082 -0.4768,34.3339 -12.3894,52.3394 -25.0568,71.2705 -12.6675,18.931 -58.1852,46.1505 -84.8556,45.4371 -26.6704,-0.7134 -115.6688,2.3795 -130.6431,2.7819 -14.9743,0.4024 -107.9991,7.1922 -139.6116,8.0417 -31.6123,0.8494 -79.8124,-12.5504 -112.1174,-31.7029 -32.3048,-19.1526 -44.0355,-70.5929 -44.0355,-70.5929 z"
       id="path263"
       inkscape:connector-curvature="0"
       sodipodi:nodetypes="ccccccccssccc" />
    <path
       style="fill:#ffffff;fill-rule:evenodd;stroke:none;stroke-width:1px;stroke-linecap:butt;stroke-linejoin:miter;stroke-opacity:1"
       d="m 1252.6692,1467.8179 c 0,0 -14.7372,-14.1832 -28.1318,-24.3459 -13.1591,-9.9839 -23.1743,-37.0399 -19.4243,-57.7963 -18.1089,29.447 -5.815,53.6299 11.889,81.0614 15.1315,24.8588 35.6671,1.0808 35.6671,1.0808 z"
       id="path265"
       inkscape:connector-curvature="0"
       sodipodi:nodetypes="csccc" />
    <path
       style="fill:#ffffff;fill-rule:evenodd;stroke:none;stroke-width:0.92811328px;stroke-linecap:butt;stroke-linejoin:miter;stroke-opacity:1"
       d="m 1945.4741,1849.4773 c 23.778,-33.5165 76.1784,-51.0494 117.2496,-51.9804 41.0711,-0.931 149.153,9.3101 184.82,25.1374 35.667,15.8271 68.6513,34.2911 65.4089,79.9105 -3.2425,45.6197 -12.9699,93.1011 -19.4548,109.8595 -6.4849,16.7581 -27.0204,42.8265 -47.556,57.7226 -20.5356,14.8962 -90.7888,18.6203 -115.6476,18.6203 -24.8589,0 -111.3244,-11.1722 -129.6983,-25.1374 -18.3739,-13.9651 -56.2026,-37.2404 -62.6875,-79.1359 -6.4849,-41.8955 -3.2425,-109.8593 7.5657,-134.9966 z"
       id="path267"
       inkscape:connector-curvature="0"
       sodipodi:nodetypes="csccccscsc" />
    <path
       style="fill:#ffffff;fill-rule:evenodd;stroke:none;stroke-width:1px;stroke-linecap:butt;stroke-linejoin:miter;stroke-opacity:1"
       d="m 1825.1743,1897.7489 c 53.571,-19.7367 111.3904,-9.3727 131.1271,16.0031 19.7367,25.3757 16.4282,45.0866 16.4282,45.0866 l -21.6164,9.3985 c 0,14.3171 5.8835,-17.1392 -7.2743,-30.7446 -12.9359,-13.376 -35.6882,-34.1046 -57.3046,-37.8639 -21.6164,-3.7594 -50.0819,-2.8196 -61.36,-1.8797 z"
       id="path269"
       inkscape:connector-curvature="0"
       sodipodi:nodetypes="ccccscc" />
    <path
       style="fill:#ffffff;fill-rule:evenodd;stroke:none;stroke-width:1px;stroke-linecap:butt;stroke-linejoin:miter;stroke-opacity:1"
       d="m 273.4472,2427.5851 c 21.61638,-18.3739 71.33405,-23.778 92.95043,-30.2629 21.61638,-6.4849 50.79849,-1.0808 64.84914,-2.1616 14.05064,-1.0809 52.96012,-6.4849 63.76831,-5.4041 10.80819,1.0808 79.98061,6.4849 94.03125,7.5657 14.05065,1.0808 74.57651,6.4849 81.06143,27.0205 6.48491,20.5355 25.93965,60.5258 16.21228,79.9806 -9.72737,19.4547 -21.61638,52.9601 -49.71767,64.8491 -28.1013,11.889 -71.33405,31.3438 -122.13254,33.5054 -50.7985,2.1616 -121.05173,-6.4849 -131.85992,-6.4849 -10.80819,0 -68.09159,1.0808 -90.78879,-25.9397 -22.6972,-27.0204 -38.90948,-57.2834 -35.66703,-84.3038 3.24246,-27.0205 17.29311,-58.3643 17.29311,-58.3643 z"
       id="path271"
       inkscape:connector-curvature="0" />
    <path
       style="fill:#ffffff;fill-rule:evenodd;stroke:none;stroke-width:1px;stroke-linecap:butt;stroke-linejoin:miter;stroke-opacity:1"
       d="m 549.40558,2567.868 c 0,0 -6.17962,40.1675 -4.9437,48.819 1.23593,8.6515 12.35924,48.201 19.77478,58.0884 -19.15682,-22.2466 -31.51605,-51.2908 -33.9879,-61.1782 -2.47184,-9.8874 -1.23592,-50.0549 -1.23592,-50.0549 z"
       id="path273"
       inkscape:connector-curvature="0" />
    <path
       style="fill:#ffffff;fill-rule:evenodd;stroke:none;stroke-width:1px;stroke-linecap:butt;stroke-linejoin:miter;stroke-opacity:1"
       d="m 992.16941,2397.2192 c 36.95409,-5.6852 28.42629,7.8173 60.40579,7.1066 31.9795,-0.7106 97.3598,-7.8172 112.9943,-14.2131 8.5278,-3.5533 9.2385,2.132 9.2385,2.132 0,0 26.2943,1.4213 31.2689,2.8426 4.9745,1.4213 24.1623,10.6598 31.2688,8.5279 7.1066,-2.132 19.1877,-5.6853 19.1877,-5.6853 0,0 -0.7106,47.614 -1.4213,51.1672 -0.7106,3.5533 -5.6852,30.5582 -5.6852,39.7968 0,9.2385 4.2639,23.4516 3.5532,27.7156 -0.7106,4.2639 9.2386,14.9237 9.2386,14.9237 l -27.005,0.7107 -18.477,2.132 -7.8172,-2.132 -33.4009,2.8426 -19.1877,0.7107 1.4213,-4.264 -82.436,4.264 3.5533,-6.3959 -28.4263,1.4213 -10.6598,6.3959 -3.5533,-5.6853 -24.1623,0.7107 -12.79183,6.3959 7.10653,-13.5025 -10.65981,-7.8172 -2.13196,-104.4664 6.3959,-4.264 z"
       id="path275"
       inkscape:connector-curvature="0" />
    <path
       style="fill:#ffffff;fill-rule:evenodd;stroke:none;stroke-width:1px;stroke-linecap:butt;stroke-linejoin:miter;stroke-opacity:1"
       d="m 1209.7513,2437.016 c 32.7805,-4.9746 54.6342,9.2385 62.6473,7.8172 73.4153,-7.064 61.1316,-13.7337 128.0888,-19.1877 6.5561,0 17.4829,6.3959 41.5221,-9.2385 -10.1985,18.477 -16.0261,31.2688 -16.0261,31.2688 0,0 25.496,-7.1065 35.6943,-7.1065 10.1985,0 18.2116,3.5532 23.3107,1.4213 63.375,-5.1361 22.1893,-7.3359 86.0921,-9.2386 6.5561,0 36.4229,2.132 48.8068,-2.8426 1.4568,14.2131 -2.9139,48.3246 -2.9139,56.1418 0,7.8173 0.7284,17.7664 0.7284,24.1624 -10.9268,7.1065 -18.94,21.3196 -18.94,21.3196 0,0 18.2116,3.5533 23.3107,0.7107 5.0992,-2.8426 2.1854,52.5885 2.9139,63.2484 0.7285,10.6598 -8.7415,0.7106 -8.7415,0.7106 0,0 -1.4569,7.8172 -7.2846,9.2386 -82.0744,6.5035 -77.396,-5.8187 -154.5671,9.2385 l -10.1983,-2.8426 -50.2637,0.7106 c -54.3921,-8.9207 -24.7728,-2.247 -107.6919,0 l -48.0782,6.3959 -9.4699,-22.741 -5.0993,-49.0352 c 0,0 -2.9138,-13.5026 5.0993,-15.6345 8.013,-2.1319 -5.8277,-4.2639 -7.2846,-17.0557 -1.457,-12.7918 -5.8276,-45.482 -5.8276,-45.482 l 9.4699,-2.8426 -11.6553,-7.1066 z"
       id="path277"
       inkscape:connector-curvature="0"
       sodipodi:nodetypes="cccccscccscccsccccccccccccccc" />
    <path
       style="fill:#ffffff;fill-rule:evenodd;stroke:none;stroke-width:0.99999994px;stroke-linecap:butt;stroke-linejoin:miter;stroke-opacity:1"
       d="m 1327.3521,2751.2587 c 32.6788,-36.3054 55.3539,-80.3905 55.3539,-94.0051 8.6697,12.9662 8.0028,10.373 8.0028,10.373 0,0 14.6721,-38.8987 14.0051,-62.8862 -0.6667,-23.9875 26.6766,-24.6358 30.0111,-19.4493 3.3345,5.1864 9.47,23.9875 9.47,23.9875 l -4.1347,13.6145 -4.0015,-3.2415 c 0,0 -15.3389,40.1952 -17.3397,44.7334 -2.0008,4.5382 -10.6705,23.9876 -10.6705,23.9876 l -2.6677,-11.6696 -14.6721,10.373 0.6669,16.2077 -8.003,-7.1314 c 0,0 -0.6667,9.7247 -4.0014,14.9112 -3.3346,5.1864 -24.0089,27.8774 -26.6765,31.1189 -2.6676,3.2415 -25.3427,9.0763 -25.3427,9.0763 z"
       id="path279"
       inkscape:connector-curvature="0" />
    <path
       style="fill:#ffffff;fill-rule:evenodd;stroke:none;stroke-width:0.9504419px;stroke-linecap:butt;stroke-linejoin:miter;stroke-opacity:1"
       d="m 1862.0808,2410.7942 7.2398,6.6468 36.7802,-3.9038 7.3553,-7.5578 c 0,0 16.3451,7.5578 21.2486,5.0386 4.9035,-2.5194 24.5176,-4.1988 24.5176,-4.1988 l 7.3553,6.718 17.9796,-2.5192 c 0,0 41.68,6.718 51.487,5.8782 9.8071,-0.8397 26.9694,-9.2372 26.9694,-9.2372 0,0 33.5075,9.2372 38.411,7.5577 4.9035,-1.6795 13.8933,-2.5192 13.8933,-2.5192 l 10.6243,18.4747 c 0,0 21.2486,-17.635 21.2486,-26.0325 13.8934,-0.8399 32.6902,0 35.9592,-1.6796 3.2691,-1.6795 4.9036,10.0771 4.9036,10.0771 l 9.807,5.8783 c 0,0 24.5176,-18.4747 26.9694,-21.8336 2.4518,-3.3591 18.7969,-2.5194 18.7969,-2.5194 0,0 22.8831,0.8398 26.1521,0 3.269,-0.8397 17.1623,0.8398 29.4212,1.6794 12.2588,0.84 24.5176,0.84 33.5074,-2.5191 2.4518,14.2758 0,65.5012 -0.8173,71.3795 -8.9898,14.2758 -17.9796,41.1482 -25.3348,46.1867 19.6141,-10.0772 19.6141,-13.4361 26.9693,-20.1542 -0.8172,20.9941 -7.3552,65.5012 -8.1725,70.5398 13.0761,-10.9168 11.4416,-8.3976 9.8071,-4.1988 -1.6346,4.1988 -6.5381,16.7952 -8.1726,26.8722 -1.6345,10.0771 0,22.6736 -1.6345,29.3916 -1.6345,6.7182 -3.269,15.9555 -3.269,15.9555 0,0 -32.6902,10.0771 -38.411,11.7566 -5.7208,1.6795 -56.3905,1.6795 -69.4666,1.6795 -13.0761,0 -32.6902,2.5193 -41.68,1.6795 4.9036,-9.2373 8.1726,-15.9554 8.1726,-15.9554 0,0 -40.8627,4.1988 -50.6698,5.8784 -9.8071,1.6795 -50.6698,-7.5579 -59.6596,-6.7181 -8.9898,0.8397 -58.8423,2.5192 -71.9184,3.359 -13.076,0.8397 -45.7662,2.5193 -58.025,5.0386 -12.2588,2.5192 -49.0353,4.1987 -57.2078,4.1987 -8.1726,0 -23.7004,0.8398 -23.7004,0.8398 0,0 -1.6345,-30.2312 -1.6345,-41.1482 0,-10.9168 -4.0863,-64.6614 -0.8173,-70.5397 3.269,-5.8784 5.7208,-47.0266 5.7208,-51.2253 0,-4.1989 -7.7109,-36.502 -7.7109,-36.502 z"
       id="path283"
       inkscape:connector-curvature="0"
       sodipodi:nodetypes="ccccscccccsccccccccccccccccccccscccccsscssscc" />
    <path
       style="fill:#ffffff;fill-rule:evenodd;stroke:none;stroke-width:0.99999994px;stroke-linecap:butt;stroke-linejoin:miter;stroke-opacity:1"
       d="m 1928.0456,2804.6478 c -13.1433,-30.6118 9.2927,-109.1953 20.1114,-126.6745 0,-10.6243 -4.641,-22.8831 -4.641,-22.8831 0,0 -11.6028,4.9035 -14.6968,10.6243 -3.0941,5.7208 13.1497,-34.3247 22.4319,-40.8627 9.2823,-6.538 -6.9616,-37.5937 -6.9616,-37.5937 0,0 -31.7143,26.1521 -33.2613,37.5937 -1.547,11.4416 -10.0557,70.2839 -6.1881,80.9082 3.8676,10.6243 6.1881,4.9035 9.2821,0.8172 3.0942,-4.0862 11.6029,-12.2588 16.244,-15.5278 -7.7353,19.6141 -20.1115,84.1772 -2.3206,113.5984 z"
       id="path285"
       inkscape:connector-curvature="0"
       sodipodi:nodetypes="ccccccssccc" />
  </g>
  <g
     inkscape:groupmode="layer"
     id="layer1"
     inkscape:label="txt">
    <text
       xml:space="preserve"
       style="font-style:normal;font-variant:normal;font-weight:normal;font-stretch:normal;line-height:0%;font-family:'Rounded M+ 1c';-inkscape-font-specification:'Rounded M+ 1c, Medium';text-align:center;letter-spacing:0px;word-spacing:0px;text-anchor:middle;fill:#000000;fill-opacity:1;stroke:none"
       x="1407.3555"
       y="1524.687"
       id="text4246"><tspan
         sodipodi:role="line"
         style="font-size:45px;line-height:1.20000005"
         x="1407.3555"
         y="1524.687"
         id="tspan794">どうしてこんな</tspan><tspan
         sodipodi:role="line"
         style="font-size:45px;line-height:1.20000005"
         x="1407.3555"
         y="1578.687"
         id="tspan114">ものを作ろうとしたか</tspan><tspan
         sodipodi:role="line"
         style="font-size:45px;line-height:1.20000005"
         x="1407.3555"
         y="1632.687"
         id="tspan116">すぐにわかるはず</tspan></text>
    <text
       xml:space="preserve"
       style="font-style:normal;font-variant:normal;font-weight:normal;font-stretch:normal;line-height:0%;font-family:'Rounded M+ 1c';-inkscape-font-specification:'Rounded M+ 1c, Medium';text-align:center;letter-spacing:0px;word-spacing:0px;text-anchor:middle;fill:#000000;fill-opacity:1;stroke:none"
       x="2123.2803"
       y="1882.3798"
       id="text4246-3"><tspan
         sodipodi:role="line"
         style="font-size:45px;line-height:1.20000005"
         x="2123.2803"
         y="1882.3798"
         id="tspan66">戴冠式への</tspan><tspan
         sodipodi:role="line"
         style="font-size:45px;line-height:1.20000005"
         x="2123.2803"
         y="1936.3798"
         id="tspan132">心配に</tspan><tspan
         sodipodi:role="line"
         style="font-size:45px;line-height:1.20000005"
         x="2123.2803"
         y="1990.3798"
         id="tspan134">関係している</tspan><tspan
         sodipodi:role="line"
         style="font-size:45px;line-height:1.20000005"
         x="2123.2803"
         y="2044.3798"
         id="tspan136">から</tspan></text>
    <text
       xml:space="preserve"
       style="font-style:normal;font-variant:normal;font-weight:normal;font-stretch:normal;line-height:0%;font-family:'Rounded M+ 1c';-inkscape-font-specification:'Rounded M+ 1c, Medium';text-align:center;letter-spacing:0px;word-spacing:0px;text-anchor:middle;fill:#000000;fill-opacity:1;stroke:none"
       x="474.53574"
       y="2461.4622"
       id="text4246-3-3"><tspan
         sodipodi:role="line"
         style="font-size:45px;line-height:1.20000005"
         x="474.53574"
         y="2461.4622"
         id="tspan113">見て これが</tspan><tspan
         sodipodi:role="line"
         style="font-size:45px;line-height:1.20000005"
         x="474.53574"
         y="2515.4622"
         id="tspan100">私の最新の</tspan><tspan
         sodipodi:role="line"
         style="font-size:45px;line-height:1.20000005"
         x="474.53574"
         y="2569.4622"
         id="tspan106">作品...</tspan></text>
    <text
       xml:space="preserve"
       style="font-style:normal;font-variant:normal;font-weight:normal;font-stretch:normal;line-height:0%;font-family:'Rounded M+ 1c';-inkscape-font-specification:'Rounded M+ 1c, Medium';text-align:center;letter-spacing:0px;word-spacing:0px;text-anchor:middle;fill:#000000;fill-opacity:1;stroke:none"
       x="1131.402"
       y="2454.7529"
       id="text4246-3-3-2"><tspan
         sodipodi:role="line"
         style="font-style:normal;font-variant:normal;font-weight:500;font-stretch:normal;font-size:32px;line-height:1.39999998;font-family:'Rounded M+ 1c';-inkscape-font-specification:'Rounded M+ 1c, Medium';font-variant-ligatures:normal;font-variant-caps:normal;font-variant-numeric:normal;font-feature-settings:normal;text-align:center;writing-mode:lr-tb;text-anchor:middle"
         x="1131.402"
         y="2454.7529"
         id="tspan144">ハロー</tspan><tspan
         sodipodi:role="line"
         style="font-style:normal;font-variant:normal;font-weight:500;font-stretch:normal;font-size:32px;line-height:1.39999998;font-family:'Rounded M+ 1c';-inkscape-font-specification:'Rounded M+ 1c, Medium';font-variant-ligatures:normal;font-variant-caps:normal;font-variant-numeric:normal;font-feature-settings:normal;text-align:center;writing-mode:lr-tb;text-anchor:middle"
         x="1131.402"
         y="2499.553"
         id="tspan93">ワールド</tspan></text>
    <text
       xml:space="preserve"
       style="font-style:normal;font-variant:normal;font-weight:normal;font-stretch:normal;line-height:0%;font-family:'Rounded M+ 1c';-inkscape-font-specification:'Rounded M+ 1c, Medium';text-align:center;letter-spacing:0px;word-spacing:0px;text-anchor:middle;fill:#000000;fill-opacity:1;stroke:none"
       x="1425.948"
       y="2493.7439"
       id="text4246-3-3-2-2"><tspan
         sodipodi:role="line"
         style="font-style:normal;font-variant:normal;font-weight:500;font-stretch:normal;font-size:32px;line-height:1.39999998;font-family:'Rounded M+ 1c';-inkscape-font-specification:'Rounded M+ 1c, Medium';font-variant-ligatures:normal;font-variant-caps:normal;font-variant-numeric:normal;font-feature-settings:normal;text-align:center;writing-mode:lr-tb;text-anchor:middle"
         x="1425.948"
         y="2493.7439"
         id="tspan171">ワタシハ</tspan><tspan
         sodipodi:role="line"
         style="font-style:normal;font-variant:normal;font-weight:500;font-stretch:normal;font-size:32px;line-height:1.39999998;font-family:'Rounded M+ 1c';-inkscape-font-specification:'Rounded M+ 1c, Medium';font-variant-ligatures:normal;font-variant-caps:normal;font-variant-numeric:normal;font-feature-settings:normal;text-align:center;writing-mode:lr-tb;text-anchor:middle"
         x="1425.948"
         y="2538.5439"
         id="tspan87">シンリ シンダン</tspan><tspan
         sodipodi:role="line"
         style="font-style:normal;font-variant:normal;font-weight:500;font-stretch:normal;font-size:32px;line-height:1.39999998;font-family:'Rounded M+ 1c';-inkscape-font-specification:'Rounded M+ 1c, Medium';font-variant-ligatures:normal;font-variant-caps:normal;font-variant-numeric:normal;font-feature-settings:normal;text-align:center;writing-mode:lr-tb;text-anchor:middle"
         x="1425.948"
         y="2583.344"
         id="tspan89">ロボット デス</tspan></text>
    <text
       xml:space="preserve"
       style="font-style:normal;font-variant:normal;font-weight:normal;font-stretch:normal;line-height:0%;font-family:'Rounded M+ 1c';-inkscape-font-specification:'Rounded M+ 1c, Medium';text-align:center;letter-spacing:0px;word-spacing:0px;text-anchor:middle;fill:#000000;fill-opacity:1;stroke:none"
       x="2101.0667"
       y="2471.8889"
       id="text4246-3-3-2-2-7"><tspan
         sodipodi:role="line"
         style="font-style:normal;font-variant:normal;font-weight:500;font-stretch:normal;font-size:32px;line-height:1.29999995;font-family:'Rounded M+ 1c';-inkscape-font-specification:'Rounded M+ 1c, Medium';font-variant-ligatures:normal;font-variant-caps:normal;font-variant-numeric:normal;font-feature-settings:normal;text-align:center;writing-mode:lr-tb;text-anchor:middle"
         x="2101.0667"
         y="2471.8889"
         id="tspan208">ムリョウデ</tspan><tspan
         sodipodi:role="line"
         style="font-style:normal;font-variant:normal;font-weight:500;font-stretch:normal;font-size:32px;line-height:1.29999995;font-family:'Rounded M+ 1c';-inkscape-font-specification:'Rounded M+ 1c, Medium';font-variant-ligatures:normal;font-variant-caps:normal;font-variant-numeric:normal;font-feature-settings:normal;text-align:center;writing-mode:lr-tb;text-anchor:middle"
         x="2101.0667"
         y="2513.489"
         id="tspan76">シンダン イタシマス</tspan><tspan
         sodipodi:role="line"
         style="font-style:normal;font-variant:normal;font-weight:500;font-stretch:normal;font-size:32px;line-height:1.29999995;font-family:'Rounded M+ 1c';-inkscape-font-specification:'Rounded M+ 1c, Medium';font-variant-ligatures:normal;font-variant-caps:normal;font-variant-numeric:normal;font-feature-settings:normal;text-align:center;writing-mode:lr-tb;text-anchor:middle"
         x="2101.0667"
         y="2555.0889"
         id="tspan78">ソファー ニ</tspan><tspan
         sodipodi:role="line"
         style="font-style:normal;font-variant:normal;font-weight:500;font-stretch:normal;font-size:32px;line-height:1.29999995;font-family:'Rounded M+ 1c';-inkscape-font-specification:'Rounded M+ 1c, Medium';font-variant-ligatures:normal;font-variant-caps:normal;font-variant-numeric:normal;font-feature-settings:normal;text-align:center;writing-mode:lr-tb;text-anchor:middle"
         x="2101.0667"
         y="2596.689"
         id="tspan80">オスワリクダサイ</tspan></text>
    <text
       xml:space="preserve"
       style="font-style:normal;font-variant:normal;font-weight:500;font-stretch:normal;font-size:80.40130615px;line-height:0%;font-family:'Rounded M+ 1c';-inkscape-font-specification:'Rounded M+ 1c, Medium';font-variant-ligatures:normal;font-variant-caps:normal;font-variant-numeric:normal;font-feature-settings:normal;text-align:start;letter-spacing:0px;word-spacing:0px;writing-mode:lr-tb;text-anchor:start;fill:#000000;fill-opacity:1;stroke:#000000;stroke-width:2.15795588;stroke-miterlimit:4;stroke-dasharray:none;stroke-opacity:1;filter:url(#filter4375-4-1-1-1-9)"
       x="787.65729"
       y="1584.5073"
       id="text4580"
       transform="matrix(0.46879428,-0.12606586,-0.08654633,0.61214652,623.13411,2085.4411)"><tspan
         sodipodi:role="line"
         id="tspan4582"
         x="787.65729"
         y="1584.5073"
         style="font-style:normal;font-variant:normal;font-weight:500;font-stretch:normal;font-size:80.40130615px;line-height:1.25;font-family:'Rounded M+ 1c';-inkscape-font-specification:'Rounded M+ 1c, Medium';font-variant-ligatures:normal;font-variant-caps:normal;font-variant-numeric:normal;font-feature-settings:normal;text-align:start;writing-mode:lr-tb;text-anchor:start;fill:#ffffff;stroke-width:2.15795588">クリック!</tspan></text>
    <text
       xml:space="preserve"
       style="font-style:normal;font-variant:normal;font-weight:500;font-stretch:normal;line-height:0%;font-family:'Rounded M+ 1c';-inkscape-font-specification:'Rounded M+ 1c, Medium';letter-spacing:0px;word-spacing:0px;fill:#000000;fill-opacity:1;stroke:#000000;stroke-width:2.15795588;stroke-miterlimit:4;stroke-dasharray:none;stroke-opacity:1;filter:url(#filter4375-4-1-1-1-9-5);font-size:80.40130605px;text-anchor:start;text-align:start;writing-mode:lr;font-variant-ligatures:normal;font-variant-caps:normal;font-variant-numeric:normal;font-feature-settings:normal;"
       x="787.65729"
       y="1584.5073"
       id="text4580-4"
       transform="matrix(0.46879428,-0.12606586,-0.08654633,0.61214652,2027.5227,1975.6976)"><tspan
         sodipodi:role="line"
         id="tspan4582-7"
         x="787.65729"
         y="1584.5073"
         style="font-style:normal;font-variant:normal;font-weight:500;font-stretch:normal;font-size:80.40130605px;line-height:1.25;font-family:'Rounded M+ 1c';-inkscape-font-specification:'Rounded M+ 1c, Medium';fill:#ffffff;stroke-width:2.15795588;text-anchor:start;text-align:start;writing-mode:lr;font-variant-ligatures:normal;font-variant-caps:normal;font-variant-numeric:normal;font-feature-settings:normal;">ポンッ!</tspan></text>
  </g>
</svg>
