<?xml version="1.0" encoding="UTF-8" standalone="no"?>
<!-- Created with Inkscape (http://www.inkscape.org/) -->

<svg
   id="svg2"
   version="1.1"
   inkscape:version="1.2.1 (9c6d41e410, 2022-07-14)"
   width="2481"
   height="3503"
   sodipodi:docname="E37P06.svg"
   xmlns:inkscape="http://www.inkscape.org/namespaces/inkscape"
   xmlns:sodipodi="http://sodipodi.sourceforge.net/DTD/sodipodi-0.dtd"
   xmlns:xlink="http://www.w3.org/1999/xlink"
   xmlns="http://www.w3.org/2000/svg"
   xmlns:svg="http://www.w3.org/2000/svg"
   xmlns:rdf="http://www.w3.org/1999/02/22-rdf-syntax-ns#"
   xmlns:cc="http://creativecommons.org/ns#"
   xmlns:dc="http://purl.org/dc/elements/1.1/">
  <metadata
     id="metadata8">
    <rdf:RDF>
      <cc:Work
         rdf:about="">
        <dc:format>image/svg+xml</dc:format>
        <dc:type
           rdf:resource="http://purl.org/dc/dcmitype/StillImage" />
        <dc:title />
      </cc:Work>
    </rdf:RDF>
  </metadata>
  <defs
     id="defs6" />
  <sodipodi:namedview
     pagecolor="#ffffff"
     bordercolor="#666666"
     borderopacity="1"
     objecttolerance="10"
     gridtolerance="10"
     guidetolerance="10"
     inkscape:pageopacity="0"
     inkscape:pageshadow="2"
     inkscape:window-width="1366"
     inkscape:window-height="703"
     id="namedview4"
     showgrid="false"
     inkscape:zoom="0.49469369"
     inkscape:cx="1210.8503"
     inkscape:cy="2933.1282"
     inkscape:window-x="0"
     inkscape:window-y="0"
     inkscape:window-maximized="1"
     inkscape:current-layer="layer1"
     inkscape:pagecheckerboard="0"
     inkscape:showpageshadow="0"
     inkscape:deskcolor="#d1d1d1" />
  <g
     inkscape:groupmode="layer"
     id="layer2"
     inkscape:label="artwork"
     sodipodi:insensitive="true">
    <image
       xlink:href="../gfx_Pepper-and-Carrot_by-David-Revoy_E37P06.png"
       y="0"
       x="0"
       id="image10"
       height="3503"
       width="2481" />
  </g>
  <g
     inkscape:groupmode="layer"
     id="layer3"
     inkscape:label="speechbubbles">
    <path
       style="fill:#ffffff;fill-rule:evenodd;stroke:none;stroke-width:1.66364px;stroke-linecap:butt;stroke-linejoin:miter;stroke-opacity:1"
       d="m 111.30224,225.83961 c -1.79972,-72.93109 39.27781,-80.86415 66.45083,-89.20669 25.19804,-4.2887 144.7224,-22.43619 184.3192,11.88369 39.59681,34.31991 44.54071,90.98206 31.34932,115.68215 -27.27737,51.07522 -81.45775,48.3249 -117.45486,50.46925 -35.9969,2.14432 -108.61697,-4.1423 -137.16213,-24.02625 -30.70908,-18.89574 -27.50236,-64.80215 -27.50236,-64.80215 z"
       id="path1365"
       inkscape:connector-curvature="0"
       sodipodi:nodetypes="ccssscc" />
    <path
       style="fill:#ffffff;fill-rule:evenodd;stroke:none;stroke-width:1.18625px;stroke-linecap:butt;stroke-linejoin:miter;stroke-opacity:1"
       d="m 276.57128,286.65867 c 0,0 -8.31854,14.71485 -3.94644,34.32306 4.3721,19.60821 13.90542,39.57744 34.7933,54.14841 -41.89702,-20.22752 -65.69947,-37.55159 -66.67128,-74.5854 -0.97218,-37.03494 35.82442,-13.88607 35.82442,-13.88607 z"
       id="path1357"
       inkscape:connector-curvature="0" />
    <path
       style="fill:#ffffff;fill-rule:evenodd;stroke:none;stroke-width:0.785071px;stroke-linecap:butt;stroke-linejoin:miter;stroke-opacity:1"
       d="m 961.8636,149.05704 c -38.78029,1.4414 -78.01396,-5.49844 -116.0612,1.83995 -17.11239,3.61138 -38.90838,10.53231 -52.04841,20.84776 -14.14086,11.9761 -22.88077,58.02708 -27.32551,74.23968 -6.30169,39.62357 2.02991,94.09745 33.67998,112.88464 15.88487,8.45655 39.47282,8.40681 61.9736,8.92651 31.19968,0.72061 62.31255,5.81233 93.51786,4.62181 27.78834,-1.12403 57.11698,3.40386 83.02468,-5.67408 14.3292,-4.89354 28.533,-11.10656 39.1806,-20.77087 11.379,-11.01551 16.089,-32.43229 19.3904,-46.56716 5.411,-24.17822 3.6074,-49.03172 -0.5276,-73.24241 -1.8499,-12.08415 -3.3315,-24.74165 -10.8508,-35.43751 -7.456,-10.11805 -19.9161,-16.52921 -32.2396,-21.76503 -28.3083,-12.16894 -59.71918,-20.24495 -91.714,-19.90329 z"
       id="path1353"
       inkscape:connector-curvature="0"
       sodipodi:nodetypes="cssccscsscsccc" />
    <path
       style="color:#000000;display:inline;overflow:visible;visibility:visible;fill:#ffffff;fill-opacity:1;fill-rule:nonzero;stroke:none;stroke-width:0.861851px;marker:none;enable-background:accumulate"
       d="m 953.70508,340.64258 c -7.89156,5.93196 -11.59104,16.28682 -10.73276,25.94957 0.42223,4.4898 2.07058,8.76171 2.48862,13.25746 1.01197,7.55227 1.05293,15.42171 -1.40821,22.71484 -1.20442,1.72882 -3.79048,1.05453 -5.01568,-0.29626 -10.07465,-6.60916 -20.06188,-13.83162 -31.69135,-17.45527 -3.79347,-0.92218 -7.49599,1.78526 -9.23632,5.00153 -1.4402,2.77657 -2.01316,5.92993 -2.32924,9.01606 -0.55273,6.5806 1.28554,13.1049 3.96106,19.05818 3.14714,8.05533 6.31422,16.4571 5.93458,25.25193 -0.84545,6.13098 -8.24835,10.22802 -13.88693,7.6472 -6.28697,-1.87961 -10.73205,-6.98767 -15.56562,-11.11151 -8.86497,-7.84865 -17.5953,-16.18188 -28.30526,-21.49467 -7.38254,-2.49937 -15.71863,0.24411 -21.23633,5.4668 -3.28278,2.9805 -6.07223,6.44058 -8.94141,9.80664 5.8814,-4.02407 11.87998,-8.29236 18.92579,-9.9668 5.92728,0.27474 10.83062,3.99283 15.65346,7.04174 9.22342,6.01627 16.39972,14.65414 22.20637,23.90936 3.76567,5.4691 7.51953,11.12941 12.67093,15.3981 3.2658,1.63675 6.90342,2.34098 10.46142,3.03947 5.33481,0.86184 10.93374,1.00049 16.1436,-0.58041 5.05084,-2.68449 7.63974,-8.48655 7.90731,-14.00736 1.31557,-10.50648 -1.34041,-20.96489 -4.32747,-30.9597 -1.34044,-4.77497 -2.55206,-9.60437 -3.14531,-14.53651 1.14339,-2.41987 4.68319,-2.64674 6.56055,-0.98047 7.59492,3.4498 13.00439,10.01681 19.08789,15.47852 8.59672,6.12612 21.82202,3.74033 27.89071,-4.84806 5.2193,-6.70376 6.94821,-15.35423 7.43486,-23.65494 0.82894,-10.02392 1.61175,-20.28559 5.5879,-29.65192 1.16442,-3.02572 2.64205,-5.92432 4.30918,-8.70251 -0.35144,-1.98682 -2.65366,-2.40619 -4.00685,-3.52799 -9.0205,-5.41384 -18.041,-10.82769 -27.06151,-16.24154 l -0.16601,-0.0293 z m 33.15039,19.79687 c -0.62158,0.68067 0.23902,-0.002 0,0 z"
       id="path5058-2"
       inkscape:connector-curvature="0"
       sodipodi:nodetypes="cscsssssscssssccscccc" />
    <path
       style="display:inline;fill:#ffffff;fill-rule:evenodd;stroke:none;stroke-width:1.00035px;stroke-linecap:butt;stroke-linejoin:miter;stroke-opacity:1"
       d="m 1173.1445,85.396117 c 44.9453,-0.459739 60.0909,0.341998 70.4996,1.344236 -1.9326,-2.450884 61.5065,-1.406266 132.8018,0.05844 -21.2124,-1.794781 103.1617,-9.358108 173.541,-8.354308 21.7902,-7.227097 -9.4477,71.336415 65.5411,35.493865 -0.9948,29.52044 -69.2325,67.67751 38.2856,48.35059 -47.6435,30.56482 -125.6526,57.99634 -21.6902,85.05921 -93.6198,11.93016 -78.2291,46.08406 -53.8087,72.55621 -44.6019,-53.57657 -81.0466,-51.1551 -63.6642,34.31525 -44.8638,-40.58002 -101.5669,-61.60007 -110.1113,-15.42397 -17.6878,-25.95775 -59.5979,-27.21158 -80.4616,29.40999 -31.7772,-54.26533 -66.4919,-67.06534 -101.526,1.94792 -0.4956,-44.2798 -17.7092,-75.90569 -50.8253,-53.17206 z"
       id="path1100"
       inkscape:connector-curvature="0"
       sodipodi:nodetypes="cccccccccccccc" />
    <path
       style="display:inline;fill:#ffffff;fill-rule:evenodd;stroke:none;stroke-width:1.02035px;stroke-linecap:butt;stroke-linejoin:miter;stroke-opacity:1"
       d="m 2393.9032,802.66902 c -49.8568,0.57491 -66.6574,-0.42767 -78.2036,-1.68097 2.1438,3.06484 -68.2278,1.75854 -147.314,-0.0731 23.5303,2.24438 -153.7949,11.92587 -231.865,10.67062 7.0594,-10.18279 -3.2454,-34.49564 -51.9398,-46.43751 59.6616,-16.35982 78.5341,-43.00986 24.2864,-74.07007 52.2806,-4.26217 87.0299,-43.943 9.5436,-67.81245 81.6647,-24.50474 97.5148,-54.94325 27.8531,-102.58805 81.6907,29.93175 98.335,21.35919 73.2176,-43.38126 62.3402,35.31915 115.687,76.17588 112.0605,-21.60668 66.3232,74.78739 90.4081,84.93972 113.5519,14.13424 35.2497,67.85899 83.457,59.05285 103.5004,15.25449 -3.7151,45.57622 12.4213,72.74359 49.1562,44.31509 z"
       id="path1100-1"
       inkscape:connector-curvature="0"
       sodipodi:nodetypes="cccccccccccccc" />
    <path
       style="display:inline;fill:#ffffff;fill-rule:evenodd;stroke:none;stroke-width:1.21129px;stroke-linecap:butt;stroke-linejoin:miter;stroke-opacity:1"
       d="m 1418.7386,299.99278 c 32.8791,33.53516 56.7879,77.06946 103.0231,108.5417 l -39.4041,4.85315 c 33.1236,33.29864 86.1701,72.49084 86.1701,72.49084 0,0 -36.1582,-9.1905 -137.95,-87.08512 l 35.6661,-4.58596 c -28.5603,-35.78999 -82.3648,-65.49689 -123.704,-98.20746 z"
       id="path957"
       sodipodi:nodetypes="cccccccc" />
    <path
       style="display:inline;fill:#ffffff;fill-rule:evenodd;stroke:none;stroke-width:1.15094px;stroke-linecap:butt;stroke-linejoin:miter;stroke-opacity:1"
       d="m 2092.905,648.49752 c -94.5252,-53.78313 -255.9511,-97.55437 -255.9511,-97.55437 0,0 30.8361,-7.14437 136.3682,19.77436 l 147.9944,28.48852 c 276.9342,105.20644 -79.315,87.53799 -28.4115,49.29149 z"
       id="path957-2"
       sodipodi:nodetypes="ccccc" />
    <path
       style="fill:#ffffff;fill-rule:evenodd;stroke:none;stroke-width:2.0077px;stroke-linecap:butt;stroke-linejoin:miter;stroke-opacity:1"
       d="m 1344.4209,982.24085 c 10.1826,-54.88618 53.4588,-82.32837 112.0091,-88.21 58.5501,-5.87982 310.5704,-1.95873 343.6638,11.76145 33.0939,13.722 101.8264,45.08528 71.2788,109.7723 -30.5482,64.6872 -137.4659,54.8863 -190.9249,54.8863 -53.4586,0 -257.1703,3.809 -295.2066,-13.7331 -34.5726,-15.9446 -38.2743,-11.7486 -40.8202,-74.47695 z"
       id="path1297"
       inkscape:connector-curvature="0"
       sodipodi:nodetypes="cccsssc" />
    <path
       style="fill:#ffffff;fill-rule:evenodd;stroke:none;stroke-width:0.989485px;stroke-linecap:butt;stroke-linejoin:miter;stroke-opacity:1"
       d="m 1771.1833,1016.1875 c -45.8504,0.5078 -91.5571,4.7545 -137.3399,6.8039 -18.5084,3.4667 -37.0981,9.0637 -52.8452,19.8313 -12.3744,12.6363 -19.5906,29.2925 -26.2912,45.4959 -5.8828,19.128 -1.733,39.3829 2.1938,58.4521 3.2172,14.3011 9.8431,28.1105 20.7103,37.9877 9.3852,9.6563 21.0077,18.2275 34.6774,19.5518 12.94,1.8762 26.0093,2.6779 38.9228,4.7651 26.5534,3.127 53.2509,7.7575 80.0588,5.6812 36.5512,-3.6948 72.8805,-9.6173 108.8517,-17.1451 9.5425,-2.234 19.1946,-7.102 24.076,-16.1709 5.2048,-8.2897 9.8107,-17.0283 13.6581,-26.0389 4.6159,-14.5583 2.4302,-30.0413 2.9172,-45.0516 -0.1991,-12.4059 0.2252,-25.7379 -6.5114,-36.6634 -6.5724,-11.3072 -16.1843,-20.3426 -25.5192,-29.2432 -10.1275,-9.0262 -22.3686,-15.1272 -35.0262,-19.5295 -13.5671,-5.229 -27.9165,-9.1236 -42.533,-8.7264 z"
       id="path1299"
       inkscape:connector-curvature="0"
       sodipodi:nodetypes="ccssssssscscc" />
    <path
       style="display:inline;fill:#ffffff;fill-rule:evenodd;stroke:none;stroke-width:1.41701px;stroke-linecap:butt;stroke-linejoin:miter;stroke-opacity:1"
       d="m 1636.551,1110.3376 c 42.7609,26.7075 82.1796,19.7454 81.4456,-39.6058 20.401,64.6794 34.5582,79.4106 42.9545,48.0532 27.0096,27.8998 43.8793,20.7498 57.2727,1.5849 4.9921,25.2625 15.6976,15.4205 24.9627,14.4285 3.0514,5.7695 -7.4291,19.6011 34.9132,1.9574 2.7429,7.5991 6.4375,14.1808 31.2395,-1.8135 6.4257,30.7158 27.0414,-0.9446 48.1613,-34.8196 -13.1583,42.0008 -7.7021,48.1362 9.1116,32.388 -7.6871,17.2334 -12.2848,30.6118 16.9215,1.8067 -9.9988,31.9255 16.2328,10.5482 58.5742,-34.5313 -31.6348,38.1584 -60.2281,95.6848 12.3728,76.4166 -20.291,13.1987 -54.428,54.7231 0.3719,72.1924 -10.2304,6.5569 -41.4635,-4.3023 -15.4093,25.3768 3.4906,3.4816 -8.1955,5.2255 14.1077,14.7569 -13.1658,-0.9713 -21.24,0.9723 -9.1116,14.4759 -24.0325,-1.3764 -34.6379,30.0889 -16.9939,48.2378 -34.8025,-23.6177 -36.7177,-15.437 -37.7481,-6.3999 -43.6176,-32.0934 -46.178,-22.4398 -52.066,-16.1697 -21.2603,-0.3477 -42.5206,-4.825 -63.781,29.0312 -5.5678,-21.5776 -16.7306,-38.3774 -63.781,-24.5271 20.6588,-26.6838 -8.7309,-10.1324 -31.2395,0.474 12.3261,-33.707 2.8508,7.8611 -36.7675,39.8908 22.186,-36.9846 -24.819,-44.1883 -62.1581,-18.5269 12.4081,-54.5452 2.0869,-78.1859 -63.7809,-58.0023 26.2829,-12.5955 43.1611,-61.9501 15.8697,-92.8682 30.7653,9.7324 41.5781,-17.1386 6.7879,-34.501 46.0831,13.3182 30.7691,-32.0489 -2.2299,-59.3058 z"
       id="path4508-2"
       inkscape:connector-curvature="0"
       sodipodi:nodetypes="cccccccccccccccccccccccccccc" />
    <path
       style="display:inline;fill:#ffffff;fill-rule:evenodd;stroke:none;stroke-width:1.41701px;stroke-linecap:butt;stroke-linejoin:miter;stroke-opacity:1"
       d="m 1723.1348,1235.0677 c 47.6698,27.5102 91.6137,20.3389 90.7954,-40.7962 22.7432,66.6234 38.5256,81.7973 47.8857,49.4975 30.1104,28.7383 48.9167,21.3734 63.8477,1.6325 5.5652,26.0218 17.4996,15.884 27.8283,14.8622 3.4019,5.9429 -8.2819,20.1902 38.9213,2.0162 3.0577,7.8275 7.1766,14.607 34.8258,-1.868 7.1634,31.639 30.1457,-0.973 53.6902,-35.8661 -14.6689,43.2631 -8.5864,49.5829 10.1576,33.3614 -8.5697,17.7514 -13.6951,31.5319 18.8641,1.861 -11.1467,32.885 18.0963,10.8652 65.2985,-35.5691 -35.2664,39.3052 -67.1422,98.5606 13.7932,78.7133 -22.6204,13.5954 -60.6764,56.3678 0.4145,74.3621 -11.4047,6.754 -46.2235,-4.4316 -17.1783,26.1396 3.8914,3.5862 -9.1361,5.3825 15.7274,15.2004 -14.6773,-1.0005 -23.6784,1.0015 -10.1577,14.911 -26.7914,-1.4178 -38.6144,30.9932 -18.9448,49.6875 -38.7979,-24.3275 -40.9329,-15.9009 -42.0816,-6.5922 -48.6249,-33.058 -51.4792,-23.1142 -58.043,-16.6557 -23.7011,-0.3581 -47.4021,-4.97 -71.1032,29.9038 -6.2069,-22.2262 -18.6513,-39.5309 -71.1029,-25.2643 23.0303,-27.4858 -9.7333,-10.4369 -34.8258,0.4882 13.7411,-34.72 -21.1322,-12.5946 -65.2987,20.3978 24.7331,-38.0962 -3.3579,-24.8244 -44.9836,1.6082 16.0554,-57.4494 2.3264,-80.5358 -71.103,-59.7455 29.3004,-12.9741 48.1161,-63.8121 17.6916,-95.6594 34.2971,10.0249 46.3513,-17.6537 7.5672,-35.5379 51.3734,13.7184 34.3014,-33.0122 -2.4859,-61.0883 z"
       id="path4508-2-3"
       inkscape:connector-curvature="0"
       sodipodi:nodetypes="cccccccccccccccccccccccccccc" />
    <path
       style="color:#000000;display:inline;overflow:visible;visibility:visible;fill:#ffffff;fill-opacity:1;fill-rule:nonzero;stroke:none;stroke-width:0.969926px;marker:none;enable-background:accumulate"
       d="m 1246.2312,1001.9329 c 22.2211,-34.14103 39.9857,-36.59103 52.6492,-39.61603 1.7643,3.396 6.1135,8.794 6.1135,8.794 1.3611,-5.44434 56.7367,-23.68633 64.0338,-12.39927 10.1747,-0.224 10.4078,17.98503 10.4078,17.98503 -1.59,-7.94978 -77.0372,12.13063 -85.791,20.76224 -4.4313,-9.518 -7.9052,-13.563 -7.9875,-17.682 -7.6447,-0.519 -31.1799,10.299 -39.4258,22.15603 z"
       id="path4456-5"
       inkscape:connector-curvature="0"
       sodipodi:nodetypes="cccccccc" />
    <path
       style="display:inline;fill:#ffffff;fill-rule:evenodd;stroke:none;stroke-width:0.805781px;stroke-linecap:butt;stroke-linejoin:miter;stroke-opacity:1"
       d="m 268.01077,2049.9977 c 39.64804,1.9562 96.7744,5.8779 51.76492,-1.6857 29.1605,1.8313 66.44945,5.4214 77.04165,2.504 10.30943,1.0885 16.43804,0.7184 11.26817,-1.5634 28.14926,2.8416 42.30546,1.7361 59.00317,1.3475 19.01291,2.0346 32.70112,1.6171 41.42237,-1.0877 -6.34008,5.6406 44.89604,1.5728 85.37703,-0.7951 -2.74546,1.2879 -27.14265,4.8783 14.44645,1.4514 -3.92576,1.8574 -3.51985,3.3811 89.39855,-2.2207 -41.03635,5.0275 -21.67837,3.8873 -0.0107,2.5113 -34.65817,5.4257 26.58599,9.4415 49.84486,8.9116 -69.54776,15.1943 -101.4452,42.3338 10.93137,88.4165 -43.79102,0.2837 -110.39627,-22.422 -88.38027,77.9462 -65.68605,-54.7599 -97.25447,-5.4464 -83.74317,40.6583 -39.24433,-62.393 -63.96721,-62.0197 -72.2494,9.4158 -22.61989,-60.767 -46.60651,-72.9244 -72.62135,-12.945 9.78288,-89.6863 -50.52432,-63.2022 -79.86898,-23.7851 22.98778,-41.6566 -18.14088,-48.5646 -64.79482,-9.3964 57.05314,-63.2583 16.55117,-58.536 -50.38404,-35.3941 79.80297,-46.0158 68.0804,-65.3801 -13.20455,-64.4883 99.16946,-6.0948 79.74717,-76.0106 34.75878,-79.8011 z"
       id="path740849"
       sodipodi:nodetypes="cccccccccccccccccccccc" />
    <path
       style="color:#000000;display:inline;overflow:visible;visibility:visible;fill:#ffffff;fill-opacity:1;fill-rule:nonzero;stroke:none;stroke-width:1px;marker:none;enable-background:accumulate"
       d="m 623.17576,2198.464 c 32.4119,11.8493 68.59806,43.3077 68.15392,52.5243 2.57923,-9.5085 6.6039,-17.4308 9.62749,-23.6657 13.04254,7.2714 43.8298,44.5047 61.80037,65.0819 -15.05247,-42.9 -51.67758,-88.1131 -70.34793,-102.0634 -0.43359,10.3146 -2.88747,18.5199 -5.87724,22.4034 -19.74556,7.9495 -28.17774,-60.2326 -25.11612,-64.3964 z"
       id="path5066-6"
       inkscape:connector-curvature="0"
       sodipodi:nodetypes="cccccccc" />
    <path
       style="color:#000000;display:inline;overflow:visible;visibility:visible;fill:#ffffff;fill-opacity:1;fill-rule:nonzero;stroke:none;stroke-width:1.71778px;marker:none;enable-background:accumulate"
       d="m 1920.6098,2268.1362 c 10.795,76.7939 -74.0714,46.5565 -102.6717,31.507 57.8767,40.8155 86.7439,69.9248 -20.7446,68.0358 106.1589,58.0789 18.9864,60.3091 0.6515,78.5943 86.2814,11.6338 48.2508,93.5064 32.0618,96.2133 100.594,0.03 66.5737,2.1424 69.9443,3.8204 8.938,-0.789 50.7047,-3.1932 51.7586,-0.5235 67.873,-2.5576 148.8868,-4.2154 152.9406,0.2415 27.9778,-2.2467 90.068,0.9233 51.7587,-0.5235 68.243,-3.4891 127.2986,-2.246 186.8477,-1.2719 16.3184,-1.0525 18.9929,-2.6659 69.8298,-2.2956 -6.6159,-1.0397 -11.6801,-66.3049 -7.2953,-76.2806 -5.7573,-14.3738 -6.7873,-29.3556 4.0108,-45.8568 -8.1821,-1.3044 -15.8074,-4.2642 -6.0652,-59.6777 -13.4086,2.9472 -96.3315,10.7526 -18.99,-87.0778 -58.5236,45.3282 -172.6239,81.096 -156.9228,-22.8262 -32.7056,61.4705 -84.6432,88.3576 -102.4088,11.4433 -34.5779,69.8993 -77.1784,43.9845 -102.2969,-4.9652 -19.9919,36.7737 -53.7967,89.9323 -102.4085,11.4432 z"
       id="path3549-3-7-5"
       inkscape:connector-curvature="0"
       sodipodi:nodetypes="ccccccccccccccccccc" />
    <path
       style="display:inline;fill:#ffffff;fill-rule:evenodd;stroke:none;stroke-width:1.21419px;stroke-linecap:butt;stroke-linejoin:miter;stroke-opacity:1"
       d="m 1617.8446,2849.8085 c 26.3743,-18.5047 24.6756,-59.3693 -7.6333,-72.3963 70.102,-7.1777 15.7751,-38.2764 -19.9078,-74.5392 53.3379,22.092 118.6983,62.3694 91.3188,-46.5604 37.837,30.9359 68.7404,57.9037 92.4447,11.5708 12.0309,21.6566 36.7086,41.8195 63.7953,6.0634 9.5001,17.7316 20.3161,10.8329 32.5107,-21.8681 11.0739,40.3498 37.3957,39.803 64.8612,-3.1892 19.2431,44.1223 40.4556,80.765 87.2403,20.3006 -7.1918,45.1662 17.0422,43.1556 55.4807,19.8215 -5.7919,19.6198 0.6889,26.1407 46.0169,10.4673 -12.0533,18.9819 -28.373,30.3906 15.3301,24.6946 -19.4208,17.2548 -40.7302,55.4231 25.4433,45.9606 -51.9164,29.1688 -21.1643,34.3016 -20.0474,51.2217 -37.1511,-10.1715 -55.5516,0.8359 -18.3384,44.9441 -19.2943,-0.7193 -70.1996,-48.9991 -47.0062,14.2059 -29.5275,-35.4629 -62.6878,7.1897 -45.8431,8.8305 l -70.1443,12.5407 -109.6991,-12.1468 -78.0957,-0.1254 -65.5382,7.596 c 10.7214,-27.5015 -11.8907,-17.9608 -29.5224,-13.9545 -5.2162,-8.1256 8.1797,-27.5951 -30.2236,-15.4924 2.0988,-19.9442 -16.5484,-17.4562 -32.4425,-17.9454 z"
       id="path1058"
       sodipodi:nodetypes="cccccccccccccccccccccccc" />
    <path
       style="display:inline;fill:#ffffff;fill-rule:evenodd;stroke:none;stroke-width:1.67942px;stroke-linecap:butt;stroke-linejoin:miter;stroke-opacity:1"
       d="m 1768.8075,2953.4493 c 49.8075,21.0895 16.2705,26.1609 -8.5588,47.6253 15.0031,-2.6295 28.9438,-5.326 8.1375,40.6459 44.7155,-11.4232 10.2748,17.561 6.5832,34.4055 18.3128,-4.1923 21.58,-14.1617 -0.6929,42.9498 22.4912,-14.0765 48.194,-41.1668 40.4976,23.1149 19.1772,-19.9557 42.3102,-46.3972 45.1669,11.9434 30.3871,-45.1988 108.0355,-54.5745 114.0507,26.4644 22.3676,-53.1011 41.8452,-63.5627 57.1431,-12.3458 21.3009,-35.1446 51.6907,-45.2183 78.4683,19.5297 -7.8174,-51.7832 10.7699,-79.4617 98.3719,-38.947 -0.6354,-45.8201 23.8332,-48.1145 88.7955,-9.4416 -15.5261,-29.9388 -37.6591,-72.1262 32.0305,-57.8248 -45.9576,-63.2583 -21.7689,-38.2509 27.3012,-106.287 -46.5962,31.7239 -39.1885,-4.1023 -21.6323,-38.9876 -74.0961,42.8247 -66.3249,-18.3453 -46.6087,-94.6891 -54.2571,42.0181 -46.4738,18.4435 -33.4662,-3.3198 -96.4334,45.6089 -49.8243,-15.4225 -40.9198,-41.6964 -68.8038,95.2054 -54.9807,47.6205 -47.2694,2.1121 -39.6583,70.9445 -57.1025,63.2616 -49.535,-5.3485 -66.5066,85.8726 -37.0678,6.7664 -58.7807,10.6075 l -227.5639,64.353 -44.7396,43.7813 c 27.8866,10.2356 32.9559,32.4826 -16.7791,41.3548 z"
       id="path961"
       sodipodi:nodetypes="cccccccccccccccccccccccc" />
    <path
       style="display:inline;fill:#ffffff;fill-rule:evenodd;stroke:none;stroke-width:1px;stroke-linecap:butt;stroke-linejoin:miter;stroke-opacity:1"
       d="m 1487.7373,2719.1203 100.518,94.2706 6.505,-33.2379 70.6075,62.6158 11.5455,-27.2884 -90.5705,-67.709 -8.6863,37.6437 z"
       id="path4667-2"
       inkscape:connector-curvature="0" />
  </g>
  <g
     inkscape:groupmode="layer"
     id="layer1"
     inkscape:label="txt"
     style="display:inline">
    <text
       xml:space="preserve"
       style="font-style:normal;font-variant:normal;font-weight:normal;font-stretch:normal;font-size:45.3333px;line-height:125%;font-family:Lavi;-inkscape-font-specification:Lavi;text-align:center;letter-spacing:0px;word-spacing:0px;text-anchor:middle;fill:#000000;fill-opacity:1;stroke:none"
       x="254.76903"
       y="202.27623"
       id="text4246-70-2-2-2-7-4-9-9-6-1-2-3-9-2-7-9"><tspan
         sodipodi:role="line"
         style="font-size:45.3333px"
         x="254.76903"
         y="202.27623"
         id="tspan1721">No, kva</tspan><tspan
         sodipodi:role="line"
         style="font-size:45.3333px"
         x="254.76903"
         y="258.94287"
         id="tspan326">vert det til?</tspan></text>
    <text
       xml:space="preserve"
       style="font-style:normal;font-variant:normal;font-weight:normal;font-stretch:normal;font-size:45.3333px;line-height:125%;font-family:Lavi;-inkscape-font-specification:Lavi;text-align:center;letter-spacing:0px;word-spacing:0px;text-anchor:middle;fill:#000000;fill-opacity:1;stroke:none"
       x="930.65039"
       y="218.97073"
       id="text4246-70-2-2-2-7-4-9-9-6-1-2-3-9-2-7-9-3"><tspan
         sodipodi:role="line"
         style="font-size:45.3333px"
         x="930.65039"
         y="218.97073"
         id="tspan1018">Kjenner du</tspan><tspan
         sodipodi:role="line"
         style="font-size:45.3333px"
         x="930.65039"
         y="275.63736"
         id="tspan458">ikkje tårene</tspan><tspan
         sodipodi:role="line"
         style="font-size:45.3333px"
         x="930.65039"
         y="332.30399"
         id="tspan1164">pressa på?</tspan></text>
    <text
       xml:space="preserve"
       style="font-style:normal;font-variant:normal;font-weight:normal;font-stretch:normal;font-size:62.7287px;line-height:125%;font-family:Lavi;-inkscape-font-specification:Lavi;text-align:center;letter-spacing:0px;word-spacing:0px;text-anchor:middle;fill:#000000;fill-opacity:1;stroke:none;stroke-width:0.807928"
       x="1376.2051"
       y="189.3369"
       id="text4246-70-2-2-2-7-4-9-9-6-1-2-3-9-2-7-9-3-7"><tspan
         sodipodi:role="line"
         style="font-style:normal;font-variant:normal;font-weight:bold;font-stretch:normal;font-size:62.7287px;font-family:Lavi;-inkscape-font-specification:'Lavi Bold';stroke-width:0.807928"
         x="1376.2051"
         y="189.3369"
         id="tspan1088">MEINER DU</tspan><tspan
         sodipodi:role="line"
         style="font-style:normal;font-variant:normal;font-weight:bold;font-stretch:normal;font-size:62.7287px;font-family:Lavi;-inkscape-font-specification:'Lavi Bold';stroke-width:0.807928"
         x="1376.2051"
         y="267.74777"
         id="tspan462">ALVOR?!</tspan></text>
    <text
       xml:space="preserve"
       style="font-style:normal;font-variant:normal;font-weight:normal;font-stretch:normal;font-size:62.2419px;line-height:125%;font-family:Lavi;-inkscape-font-specification:Lavi;text-align:center;letter-spacing:0px;word-spacing:0px;text-anchor:middle;fill:#000000;fill-opacity:1;stroke:none;stroke-width:0.83075"
       x="2172.9949"
       y="611.21252"
       id="text4246-70-2-2-2-7-4-9-9-6-1-2-3-9-2-7-9-3-7-6"><tspan
         sodipodi:role="line"
         style="font-style:normal;font-variant:normal;font-weight:bold;font-stretch:normal;font-size:62.2419px;font-family:Lavi;-inkscape-font-specification:'Lavi Bold';stroke-width:0.83075"
         x="2172.9949"
         y="611.21252"
         id="tspan1163">ER DETTE</tspan><tspan
         sodipodi:role="line"
         style="font-style:normal;font-variant:normal;font-weight:bold;font-stretch:normal;font-size:62.2419px;font-family:Lavi;-inkscape-font-specification:'Lavi Bold';stroke-width:0.83075"
         x="2172.9949"
         y="689.01489"
         id="tspan473">DET BESTE</tspan><tspan
         sodipodi:role="line"
         style="font-style:normal;font-variant:normal;font-weight:bold;font-stretch:normal;font-size:62.2419px;font-family:Lavi;-inkscape-font-specification:'Lavi Bold';stroke-width:0.83075"
         x="2172.9949"
         y="766.81726"
         id="tspan475">DU FÅR TIL?!</tspan></text>
    <text
       xml:space="preserve"
       style="font-style:normal;font-variant:normal;font-weight:normal;font-stretch:normal;font-size:49.902px;line-height:125%;font-family:Lavi;-inkscape-font-specification:Lavi;text-align:center;letter-spacing:0px;word-spacing:0px;text-anchor:middle;fill:#000000;fill-opacity:1;stroke:none;stroke-width:1.10078"
       x="1606.3612"
       y="964.03656"
       id="text4246-70-2-2-2-7-4-9-9-6-1-2-3-9-2-7-9-3-2"><tspan
         sodipodi:role="line"
         style="font-style:normal;font-variant:normal;font-weight:normal;font-stretch:normal;font-size:49.902px;font-family:Lavi;-inkscape-font-specification:Lavi;stroke-width:1.10078"
         x="1606.3612"
         y="964.03656"
         id="tspan1229">Dei der prøvde i</tspan><tspan
         sodipodi:role="line"
         style="font-style:normal;font-variant:normal;font-weight:normal;font-stretch:normal;font-size:49.902px;font-family:Lavi;-inkscape-font-specification:Lavi;stroke-width:1.10078"
         x="1606.3612"
         y="1026.4141"
         id="tspan541">det minste med dikt!</tspan></text>
    <text
       xml:space="preserve"
       style="font-style:normal;font-variant:normal;font-weight:normal;font-stretch:normal;font-size:49.902px;line-height:125%;font-family:Lavi;-inkscape-font-specification:Lavi;text-align:center;letter-spacing:0px;word-spacing:0px;text-anchor:middle;fill:#000000;fill-opacity:1;stroke:none;stroke-width:1.10078"
       x="1714.4965"
       y="1101.7063"
       id="text4246-70-2-2-2-7-4-9-9-6-1-2-3-9-2-7-9-3-2-3"><tspan
         sodipodi:role="line"
         style="font-style:normal;font-variant:normal;font-weight:normal;font-stretch:normal;font-size:49.902px;font-family:Lavi;-inkscape-font-specification:Lavi;stroke-width:1.10078"
         x="1714.4965"
         y="1101.7063"
         id="tspan1237">Dei skreiv</tspan><tspan
         sodipodi:role="line"
         style="font-style:normal;font-variant:normal;font-weight:normal;font-stretch:normal;font-size:49.902px;font-family:Lavi;-inkscape-font-specification:Lavi;stroke-width:1.10078"
         x="1714.4965"
         y="1164.0837"
         id="tspan545">tragediar!</tspan></text>
    <text
       xml:space="preserve"
       style="font-style:normal;font-variant:normal;font-weight:normal;font-stretch:normal;font-size:83.9231px;line-height:125%;font-family:Lavi;-inkscape-font-specification:Lavi;text-align:center;letter-spacing:0px;word-spacing:0px;text-anchor:middle;fill:#000000;fill-opacity:1;stroke:none;stroke-width:1.5433"
       x="1842.3158"
       y="1274.1646"
       id="text4246-70-2-2-2-7-4-9-9-6-1-2-3-9-2-7-9-3-2-3-6-1"><tspan
         sodipodi:role="line"
         style="font-style:normal;font-variant:normal;font-weight:bold;font-stretch:normal;font-size:83.9231px;font-family:Lavi;-inkscape-font-specification:'Lavi Bold';stroke-width:1.5433"
         x="1842.3158"
         y="1274.1646"
         id="tspan37654-7">KUNST!</tspan></text>
    <text
       xml:space="preserve"
       style="font-style:normal;font-variant:normal;font-weight:normal;font-stretch:normal;font-size:85.7143px;line-height:125%;font-family:Lavi;-inkscape-font-specification:Lavi;text-align:center;letter-spacing:0px;word-spacing:0px;text-anchor:middle;fill:#000000;fill-opacity:1;stroke:none;stroke-width:1.57622"
       x="1951.1381"
       y="1397.4756"
       id="text4246-70-2-2-2-7-4-9-9-6-1-2-3-9-2-7-9-3-2-3-6-1-9"><tspan
         sodipodi:role="line"
         style="font-style:normal;font-variant:normal;font-weight:bold;font-stretch:normal;font-size:85.7143px;font-family:Lavi;-inkscape-font-specification:'Lavi Bold';stroke-width:1.57622"
         x="1951.1381"
         y="1397.4756"
         id="tspan37654-7-2">DRAMA!</tspan></text>
    <text
       xml:space="preserve"
       style="font-style:normal;font-variant:normal;font-weight:normal;font-stretch:normal;font-size:63.2403px;line-height:125%;font-family:Lavi;-inkscape-font-specification:Lavi;text-align:center;letter-spacing:0px;word-spacing:0px;text-anchor:middle;fill:#000000;fill-opacity:1;stroke:none;stroke-width:1.39501"
       x="495.4584"
       y="2156.6296"
       id="text4246-70-2-2-2-7-4-9-9-6-1-2-3-9-2-7-9-3-2-3-0-7"><tspan
         sodipodi:role="line"
         style="font-style:normal;font-variant:normal;font-weight:bold;font-stretch:normal;font-size:63.2403px;font-family:Lavi;-inkscape-font-specification:'Lavi Bold';stroke-width:1.39501"
         x="495.4584"
         y="2156.6296"
         id="tspan100735-9">MEN DU?!</tspan></text>
    <text
       xml:space="preserve"
       style="font-style:normal;font-variant:normal;font-weight:normal;font-stretch:normal;font-size:63.2403px;line-height:125%;font-family:Lavi;-inkscape-font-specification:Lavi;text-align:center;letter-spacing:0px;word-spacing:0px;text-anchor:middle;fill:#000000;fill-opacity:1;stroke:none;stroke-width:1.39501"
       x="2111.4734"
       y="2397.3088"
       id="text4246-70-2-2-2-7-4-9-9-6-1-2-3-9-2-7-9-3-2-3-0"><tspan
         sodipodi:role="line"
         style="font-style:normal;font-variant:normal;font-weight:bold;font-stretch:normal;font-size:63.2403px;font-family:Lavi;-inkscape-font-specification:'Lavi Bold';stroke-width:1.39501"
         x="2111.4734"
         y="2397.3088"
         id="tspan1360">MØTER OPP</tspan><tspan
         sodipodi:role="line"
         style="font-style:normal;font-variant:normal;font-weight:bold;font-stretch:normal;font-size:63.2403px;font-family:Lavi;-inkscape-font-specification:'Lavi Bold';stroke-width:1.39501"
         x="2111.4734"
         y="2476.3591"
         id="tspan673">HEILT UBUDD!</tspan></text>
    <text
       xml:space="preserve"
       style="font-style:normal;font-variant:normal;font-weight:normal;font-stretch:normal;font-size:51.0809px;line-height:125%;font-family:Lavi;-inkscape-font-specification:Lavi;text-align:center;letter-spacing:0px;word-spacing:0px;text-anchor:middle;fill:#000000;fill-opacity:1;stroke:none;stroke-width:1.01681"
       x="1883.5743"
       y="2775.1357"
       id="text4246-70-2-2-2-7-4-9-9-6-1-2-3-9-2-7-9-3-2-3-0-2"><tspan
         sodipodi:role="line"
         style="font-style:normal;font-variant:normal;font-weight:bold;font-stretch:normal;font-size:51.0809px;font-family:Lavi;-inkscape-font-specification:'Lavi Bold';stroke-width:1.01681"
         x="1883.5743"
         y="2775.1357"
         id="tspan1430">JA, NETTOPP –</tspan><tspan
         sodipodi:role="line"
         style="font-style:normal;font-variant:normal;font-weight:bold;font-stretch:normal;font-size:51.0809px;font-family:Lavi;-inkscape-font-specification:'Lavi Bold';stroke-width:1.01681"
         x="1883.5743"
         y="2838.9868"
         id="tspan739">HUSJ MED SEG!</tspan></text>
    <text
       xml:space="preserve"
       style="font-style:normal;font-variant:normal;font-weight:normal;font-stretch:normal;font-size:49.6865px;line-height:125%;font-family:Lavi;-inkscape-font-specification:Lavi;text-align:center;letter-spacing:0px;word-spacing:0px;text-anchor:middle;fill:#000000;fill-opacity:1;stroke:none;stroke-width:0.946337"
       x="2048.8911"
       y="2945.627"
       id="text4246-70-2-2-2-7-4-9-9-6-1-2-3-9-2-7-9-3-2-3-0-2-9"><tspan
         sodipodi:role="line"
         style="font-style:normal;font-variant:normal;font-weight:bold;font-stretch:normal;font-size:49.6865px;font-family:Lavi;-inkscape-font-specification:'Lavi Bold';stroke-width:0.946337"
         x="2048.8911"
         y="2945.627"
         id="tspan1505">DRA HEIM OG</tspan><tspan
         sodipodi:role="line"
         style="font-style:normal;font-variant:normal;font-weight:bold;font-stretch:normal;font-size:49.6865px;font-family:Lavi;-inkscape-font-specification:'Lavi Bold';stroke-width:0.946337"
         x="2048.8911"
         y="3007.7351"
         id="tspan808">KOM IKKJE ATT</tspan><tspan
         sodipodi:role="line"
         style="font-style:normal;font-variant:normal;font-weight:bold;font-stretch:normal;font-size:49.6865px;font-family:Lavi;-inkscape-font-specification:'Lavi Bold';stroke-width:0.946337"
         x="2048.8911"
         y="3069.8433"
         id="tspan810">FØR DU ER KLAR!</tspan></text>
  </g>
</svg>
