<?xml version="1.0" encoding="UTF-8" standalone="no"?>
<!-- Created with Inkscape (http://www.inkscape.org/) -->

<svg
   id="svg2"
   version="1.1"
   inkscape:version="1.2.2 (b0a8486541, 2022-12-01, custom)"
   width="2481"
   height="3503"
   sodipodi:docname="E36P11.svg"
   xmlns:inkscape="http://www.inkscape.org/namespaces/inkscape"
   xmlns:sodipodi="http://sodipodi.sourceforge.net/DTD/sodipodi-0.dtd"
   xmlns:xlink="http://www.w3.org/1999/xlink"
   xmlns="http://www.w3.org/2000/svg"
   xmlns:svg="http://www.w3.org/2000/svg"
   xmlns:rdf="http://www.w3.org/1999/02/22-rdf-syntax-ns#"
   xmlns:cc="http://creativecommons.org/ns#"
   xmlns:dc="http://purl.org/dc/elements/1.1/">
  <metadata
     id="metadata8">
    <rdf:RDF>
      <cc:Work
         rdf:about="">
        <dc:format>image/svg+xml</dc:format>
        <dc:type
           rdf:resource="http://purl.org/dc/dcmitype/StillImage" />
        <dc:title />
      </cc:Work>
    </rdf:RDF>
  </metadata>
  <defs
     id="defs6" />
  <sodipodi:namedview
     pagecolor="#1e1e1e"
     bordercolor="#111111"
     borderopacity="1"
     objecttolerance="10"
     gridtolerance="10"
     guidetolerance="10"
     inkscape:pageopacity="0"
     inkscape:pageshadow="2"
     inkscape:window-width="1832"
     inkscape:window-height="1016"
     id="namedview4"
     showgrid="false"
     inkscape:zoom="0.4665165"
     inkscape:cx="1206.8169"
     inkscape:cy="1342.9321"
     inkscape:window-x="88"
     inkscape:window-y="27"
     inkscape:window-maximized="1"
     inkscape:current-layer="layer1"
     inkscape:pagecheckerboard="0"
     inkscape:snap-global="false"
     inkscape:showpageshadow="2"
     inkscape:deskcolor="#1e1e1e" />
  <g
     inkscape:groupmode="layer"
     id="layer2"
     inkscape:label="artwork"
     sodipodi:insensitive="true">
    <image
       xlink:href="../gfx_Pepper-and-Carrot_by-David-Revoy_E36P11.png"
       y="0"
       x="0"
       id="image10"
       height="3503"
       width="2481" />
  </g>
  <g
     inkscape:groupmode="layer"
     id="layer3"
     inkscape:label="speechbubbles"
     style="display:inline">
    <path
       style="color:#000000;display:inline;overflow:visible;visibility:visible;fill:#ffffff;fill-opacity:1;fill-rule:nonzero;stroke:none;stroke-width:0.652463px;marker:none;enable-background:accumulate"
       d="m 383.90605,282.95177 c -36.86109,21.41551 -81.84056,17.53589 -122.94078,16.52247 -42.91653,-3.44423 -93.93475,-16.67254 -113.34573,-58.54734 -18.12864,-38.78476 2.11973,-87.11707 40.82989,-105.22628 35.51624,-16.98124 76.35439,-18.66814 115.16376,-19.46171 50.38915,1.16875 105.73765,32.33519 113.54754,84.58625 4.25169,30.58574 -9.60265,62.20135 -33.25468,82.12661 z"
       id="path4040-40"
       inkscape:connector-curvature="0"
       sodipodi:nodetypes="zssssz" />
    <path
       style="color:#000000;display:inline;overflow:visible;visibility:visible;fill:#ffffff;fill-opacity:1;fill-rule:nonzero;stroke:none;stroke-width:0.850535px;marker:none;enable-background:accumulate"
       d="m 599.04045,113.10322 c -27.59819,0.43136 -55.82722,1.782 -81.77092,9.42673 -19.45763,5.61422 -36.95191,15.71699 -47.33107,29.37522 -10.88926,13.50222 -15.38963,29.18333 -18.16859,44.62897 -3.78798,18.39381 -5.51023,37.54442 1.16069,55.69469 10.23758,25.93064 40.69074,46.39379 75.86626,52.2494 46.02375,9.71993 95.39043,11.94888 142.15827,3.80255 26.81815,-5.03989 52.86382,-13.82797 73.64081,-27.65711 14.00889,-10.64555 20.61599,-25.57529 22.11012,-40.21215 3.00518,-22.35156 3.60531,-45.38189 -4.87752,-67.15103 -8.07644,-20.41823 -29.70133,-37.16639 -55.95801,-45.12418 -20.37842,-6.4377 -42.18712,-9.82556 -63.91136,-12.60583 -14.18511,-1.67934 -28.55332,-2.54612 -42.91868,-2.42726 z"
       id="path3365-90"
       inkscape:connector-curvature="0"
       sodipodi:nodetypes="csssssc" />
    <path
       style="color:#000000;display:inline;overflow:visible;visibility:visible;fill:#ffffff;fill-opacity:1;fill-rule:nonzero;stroke:none;stroke-width:0.944496px;marker:none;enable-background:accumulate"
       d="m 845.88509,248.73921 c 0.56728,-53.37318 11.61767,-103.84716 109.57707,-102.10038 73.45044,1.30895 93.01074,42.43199 94.63804,96.38138 1.1469,38.01967 -38.5903,73.2116 -101.69685,71.34686 -60.31774,-1.78194 -98.1071,-24.9245 -102.51826,-65.62786 z"
       id="path5026-3"
       inkscape:connector-curvature="0"
       sodipodi:nodetypes="csssc" />
    <path
       style="color:#000000;display:inline;overflow:visible;visibility:visible;fill:#ffffff;fill-opacity:1;fill-rule:nonzero;stroke:none;stroke-width:1.06703px;marker:none;enable-background:accumulate"
       d="m 958.1944,309.83323 c -43.34053,0.0194 -52.18434,75.22752 -14.63328,128.2568 -16.5114,-21.59304 -72.61174,-61.13455 -7.77479,-172.66812 29.32893,-50.45175 14.74185,29.39163 14.74185,29.39163 z"
       id="path4035-4"
       inkscape:connector-curvature="0"
       sodipodi:nodetypes="ccscc" />
    <path
       style="color:#000000;display:inline;overflow:visible;visibility:visible;fill:#ffffff;fill-opacity:1;fill-rule:nonzero;stroke:none;stroke-width:1.08324px;marker:none;enable-background:accumulate"
       d="m 995.74913,1065.3711 c -32.18397,1.1488 -64.82345,7.7555 -92.86555,23.5398 -19.96658,12.3828 -32.79429,33.4568 -37.97549,55.4838 -9.67074,38.6274 -13.02459,79.1402 -6.26824,118.4904 2.86969,16.0572 7.20953,32.0597 14.81882,46.6726 5.06281,9.2371 12.80695,17.1277 22.38764,22.0738 12.99254,7.4442 27.05737,12.9358 41.10375,18.2124 27.7868,9.5487 57.32327,13.0078 86.60394,14.9499 13.8366,0.8284 27.7067,-0.7566 41.1693,-3.8258 17.5883,-3.9613 34.6815,-9.849 51.1883,-16.8818 21.7774,-9.938 42.1715,-24.547 54.4491,-44.9202 11.9988,-19.8308 15.8672,-43.0007 17.6493,-65.5782 2.5306,-29.3333 1.5838,-59.6154 -8.7008,-87.6098 -9.3944,-24.7384 -29.0049,-45.8033 -53.8496,-56.8813 -28.9347,-13.5435 -61.0956,-18.4888 -92.7374,-22.1396 -12.2718,-1.2496 -24.6331,-1.8997 -36.97307,-1.586 z"
       id="path3365-90-4"
       inkscape:connector-curvature="0"
       sodipodi:nodetypes="csssssc" />
    <path
       style="fill:#ffffff;fill-rule:evenodd;stroke:none;stroke-width:1.18884px;stroke-linecap:butt;stroke-linejoin:miter;stroke-opacity:1"
       d="m 1048.455,1075.2666 c 1.6237,-24.8303 2.7154,-51.2197 28.6113,-64.146 -20.0938,4.5574 -50.5407,19.6541 -55.3048,46.5586 -7.4355,41.9896 24.9637,19.5655 24.9637,19.5655 z"
       id="path4248"
       inkscape:connector-curvature="0"
       sodipodi:nodetypes="ccscc" />
    <path
       style="color:#000000;display:inline;overflow:visible;visibility:visible;fill:#ffffff;fill-opacity:1;fill-rule:nonzero;stroke:none;stroke-width:1.53433px;marker:none;enable-background:accumulate"
       d="m 1748.0877,1155.6973 c -52.7408,1.3208 -105.3022,6.2384 -157.7087,11.8932 -22.9479,2.8596 -46.7868,6.4438 -66.6416,18.7435 -30.2928,18.7332 -50.2704,52.7773 -49.7603,87.7649 -1.1095,26.0057 3.2022,53.365 18.6118,75.2595 16.6726,23.288 44.1451,37.7869 72.5865,42.7339 39.3042,7.9415 79.5007,10.2213 119.0801,16.4892 62.7572,8.1647 125.3679,17.9809 188.5754,22.3388 61.4449,2.4707 122.7753,-8.8549 180.8119,-27.8862 24.7493,-7.3529 50.1643,-15.738 69.9646,-32.5279 19.0328,-15.9297 29.9655,-39.8834 31.0985,-64.0644 2.4819,-24.0265 0.6606,-49.0447 -9.1931,-71.4521 -8.9905,-18.5893 -25.6239,-33.2448 -45.0669,-41.1906 -27.4876,-12.5285 -57.5938,-17.9378 -87.1682,-23.7034 -52.372,-9.2148 -105.7008,-11.4577 -158.8197,-12.3341 -35.4514,-0.8984 -70.9014,-2.151 -106.3703,-2.0643 z"
       id="path4546-6-5"
       inkscape:connector-curvature="0"
       sodipodi:nodetypes="cssssc" />
    <path
       style="color:#000000;display:inline;overflow:visible;visibility:visible;fill:#ffffff;fill-opacity:1;fill-rule:nonzero;stroke:none;stroke-width:1.12524px;marker:none;enable-background:accumulate"
       d="m 1675.7812,1378.7198 c -18.8883,0.7686 -38.0131,1.5531 -56.4413,6.4878 -23.2538,6.7228 -45.1102,21.5376 -57.1265,43.0811 -8.3065,15.3973 -8.7587,34.7592 -0.5696,49.9925 8.9159,17.3844 25.4653,29.2546 42.694,37.5218 28.0884,13.303 59.5719,17.0248 90.4059,19.2006 37.3571,2.4153 74.8724,1.7256 112.3148,2.3266 70.8101,0.3822 141.6774,1.051 212.4956,-2.7314 27.1702,-1.8246 54.5035,-4.3611 81.0083,-11.3215 19.6286,-5.5469 39.235,-14.8541 52.5318,-30.9849 14.5935,-18.2228 17.6026,-44.8387 7.115,-65.318 -8.8169,-18.297 -26.0348,-31.6625 -45.3932,-37.2899 -41.2822,-14.7003 -86.0796,-19.0046 -129.9028,-14.3817 -26.9579,2.5405 -54.0068,6.3149 -81.0639,4.5964 -30.4502,-1.2172 -60.8602,-3.4825 -91.3834,-3.1143 -43.9937,-0.3109 -88.0077,0.9637 -132.0105,1.7698 -1.558,0.055 -3.1161,0.1102 -4.6742,0.1654 z"
       id="path4546-6-5-7-9"
       inkscape:connector-curvature="0"
       sodipodi:nodetypes="cssssc" />
    <path
       style="color:#000000;display:inline;overflow:visible;visibility:visible;fill:#ffffff;fill-opacity:1;fill-rule:nonzero;stroke:none;stroke-width:1.16782px;marker:none;enable-background:accumulate"
       d="m 1834.6759,1063.9074 c -58.4661,16.7056 -74.2086,55.188 -42.9987,96.676 31.21,41.487 10.2962,43.1429 10.2962,43.1429 l -38.5277,-15.376 c 0,0 -61.7873,-122.5503 71.2302,-124.4429 z"
       id="path3072-56"
       inkscape:connector-curvature="0"
       sodipodi:nodetypes="ccccc" />
    <path
       style="color:#000000;display:inline;overflow:visible;visibility:visible;fill:#ffffff;fill-opacity:1;fill-rule:nonzero;stroke:none;stroke-width:0.592925px;marker:none;enable-background:accumulate"
       d="m 126.58488,1627.5134 c 16.24533,-13.7787 216.64551,-23.5914 262.94014,7.571 32.26279,21.7169 19.81677,63.3637 -7.83656,74.2047 -27.65333,10.8417 -161.16169,13.8952 -199.10707,8.3737 -34.12248,-4.9645 -69.93911,-15.6511 -71.82742,-44.0939 -0.77066,-11.6083 -0.41442,-32.2773 15.83091,-46.0555 z"
       id="path4040-5"
       inkscape:connector-curvature="0"
       sodipodi:nodetypes="zssssz" />
    <path
       style="color:#000000;display:inline;overflow:visible;visibility:visible;fill:#ffffff;fill-opacity:1;fill-rule:nonzero;stroke:none;stroke-width:0.874288px;marker:none;enable-background:accumulate"
       d="m 197.10449,1712.5896 c 21.61401,-22.517 288.24142,-38.5528 349.83526,12.3724 42.92484,35.4896 26.36572,103.5483 -10.42633,121.2646 -36.79207,17.7174 -214.4216,22.7074 -264.90698,13.6842 -45.3991,-8.1128 -93.05224,-25.5768 -95.56458,-72.0577 -1.02534,-18.9703 -0.55137,-52.7473 21.06263,-75.2635 z"
       id="path4040-5-3"
       inkscape:connector-curvature="0"
       sodipodi:nodetypes="zssssz" />
    <path
       style="color:#000000;display:inline;overflow:visible;visibility:visible;fill:#ffffff;fill-opacity:1;fill-rule:nonzero;stroke:none;stroke-width:0.855677px;marker:none;enable-background:accumulate"
       d="m 481.26449,1942.4649 c 13.3495,-41.5666 52.33232,-60.4288 7.51958,-104.8642 -33.47159,-33.1897 12.91326,-29.7973 12.91326,-29.7973 0,0 5.02259,-41.3782 24.01835,27.0751 18.99576,68.4534 -9.8869,64.3755 -44.45119,107.5864 z"
       id="path3072-6"
       inkscape:connector-curvature="0"
       sodipodi:nodetypes="csczc" />
    <path
       style="fill:#ffffff;stroke:none;stroke-width:1.05124"
       d="m 639.10817,1723.5023 c -11.63516,-72.2006 73.42268,-108.7175 135.98475,-106.3869 92.05602,-8.2117 185.18432,-5.0415 276.93748,4.2183 68.9509,10.1723 113.122,88.9444 74.5331,147.5334 -43.7417,60.72 -129.57003,53.4392 -197.17638,59.4325 -78.66497,1.6499 -160.88675,-0.033 -234.6728,-28.7339 -29.14495,-15.7465 -48.25944,-45.09 -55.60615,-76.0634 z"
       id="path3286-6"
       inkscape:connector-curvature="0"
       sodipodi:nodetypes="csssssssc" />
    <path
       style="fill:#ffffff;stroke:none;stroke-width:1.04759"
       d="m 692.1728,1885.3358 c -9.56393,-87.2309 60.35231,-131.3495 111.77737,-128.5337 75.66864,-9.9212 152.21869,-6.0912 227.63823,5.0964 56.6766,12.2899 92.9846,107.4603 61.2652,178.2458 -35.9551,73.3602 -106.50446,64.5637 -162.07596,71.8047 -64.66137,1.9934 -132.24646,-0.04 -192.89743,-34.7156 -23.9567,-19.0244 -39.66853,-54.4763 -45.70741,-91.8976 z"
       id="path3286-6-7"
       inkscape:connector-curvature="0"
       sodipodi:nodetypes="csssssssc" />
    <path
       style="fill:#ffffff;stroke:none;stroke-width:0.753805"
       d="m 1151.8347,2022.5675 c 3.8605,-40.0056 -78.5793,-60.2392 -136.4115,-58.9478 -86.21463,-4.55 -172.33076,-2.7934 -256.58567,2.3373 -63.0075,5.6363 -96.4294,49.2832 -54.991,81.7467 46.4249,33.6444 125.3719,29.6101 188.68466,32.931 73.15765,0.9141 149.29581,-0.019 215.01001,-15.9212 25.533,-8.7249 40.4517,-24.9839 44.2935,-42.146 z"
       id="path3286-6-7-4"
       inkscape:connector-curvature="0"
       sodipodi:nodetypes="csssssssc" />
    <path
       style="fill:#ffffff;stroke:none;stroke-width:0.732372"
       d="m 1580.0068,2236.0028 c -29.3449,1.2807 -58.9904,1.8562 -87.7606,10.6776 -16.9828,6.5812 -33.6393,19.0462 -43.6236,39.4848 -8.7055,19.5882 -7.5461,45.0237 0.024,64.9078 6.2468,18.8714 19.3136,33.1367 34.1713,37.3802 33.5103,14.0493 68.9134,15.3946 103.6993,15.3907 31.8689,-0.2709 63.7404,-2.7522 95.3997,-7.7418 17.57,-3.4597 35.681,-10.4694 49.0974,-27.1122 16.2367,-20.0187 23.3146,-53.8222 15.2492,-81.9885 -5.5741,-19.2764 -18.309,-33.5333 -32.5998,-39.7571 -15.0801,-6.7087 -31.1334,-6.2307 -46.7754,-7.9242 -28.6741,-2.3991 -57.4117,-4.1933 -86.1442,-3.3494 -0.2454,0.014 -0.4908,0.021 -0.7363,0.033 z"
       id="path3286-6-7-4-2-5"
       inkscape:connector-curvature="0"
       sodipodi:nodetypes="csssssssc" />
    <path
       style="display:inline;fill:#ffffff;stroke:none;stroke-width:1.04409"
       d="m 1575.734,2575.924 c -43.2545,-1.7659 -86.9522,-2.5593 -129.3599,-14.7227 -25.0329,-9.0742 -49.5847,-26.2616 -64.3017,-54.4429 -12.832,-27.0089 -11.123,-62.0803 0.034,-89.4972 9.2078,-26.0206 28.4683,-45.69 50.3688,-51.541 49.3944,-19.3717 101.5791,-21.2267 152.8538,-21.2214 46.9752,0.3736 93.954,3.795 140.6201,10.6747 25.8985,4.7703 52.5942,14.4355 72.3702,37.3833 23.9331,27.6025 34.3661,74.2119 22.4775,113.0486 -8.2164,26.5789 -26.9876,46.2369 -48.0525,54.8185 -22.2282,9.2502 -45.8909,8.5912 -68.9474,10.926 -42.2659,3.3081 -84.6255,5.782 -126.9774,4.6184 -0.3617,-0.02 -0.7236,-0.029 -1.0853,-0.045 z"
       id="path3286-6-7-4-2-5-3"
       inkscape:connector-curvature="0"
       sodipodi:nodetypes="csssssssc" />
    <path
       style="color:#000000;display:inline;overflow:visible;visibility:visible;fill:#ffffff;fill-opacity:1;fill-rule:nonzero;stroke:none;stroke-width:1.03365px;marker:none;enable-background:accumulate"
       d="m 1109.0561,1984.7544 c -8.1997,41.8065 59.3043,70.6591 115.2035,48.7714 -22.9931,10.09 -81.6027,63.8105 -171.9044,-28.8625 -40.8476,-41.9203 41.4313,-16.5735 41.4313,-16.5735 z"
       id="path4035-4-5"
       inkscape:connector-curvature="0"
       sodipodi:nodetypes="ccscc" />
    <path
       style="color:#000000;display:inline;overflow:visible;visibility:visible;fill:#ffffff;fill-opacity:1;fill-rule:nonzero;stroke:none;stroke-width:1.14715px;marker:none;enable-background:accumulate"
       d="m 1640.0206,2360.0065 c 85.321,-69.4317 155.0537,-160.9776 126.0876,-275.9291 50.0818,114.8531 -29.8722,233.4391 -50.2498,258.0963 -21.5049,26.0213 -75.8378,17.8328 -75.8378,17.8328 z"
       id="path4008-7"
       inkscape:connector-curvature="0"
       sodipodi:nodetypes="ccsc" />
    <path
       style="color:#000000;display:inline;overflow:visible;visibility:visible;fill:#ffffff;fill-opacity:1;fill-rule:nonzero;stroke:none;stroke-width:0.967224px;marker:none;enable-background:accumulate"
       d="m 1980.0912,2479.444 c 2.6179,-52.9884 47.4051,-91.9961 166.1933,-82.6965 63.6294,4.9822 135.8277,8.0781 132.7297,85.6986 -3.0981,77.6207 -106.8078,76.2069 -128.1719,78.1417 -21.3639,1.9348 -132.9986,-5.5768 -153.0381,-31.8622 -12.5444,-16.4544 -17.7227,-32.8745 -17.713,-49.2816 z"
       id="path4546-6-89"
       inkscape:connector-curvature="0"
       sodipodi:nodetypes="cssssc" />
    <path
       style="fill:#ffffff;fill-rule:evenodd;stroke:none;stroke-width:1px;stroke-linecap:butt;stroke-linejoin:miter;stroke-opacity:1"
       d="m 2127.4405,2420.4639 c 0,0 -20.8561,-32.9672 -21.8804,-43.1562 -1.0243,-10.189 2.4576,-31.6896 11.9397,-43.6552 -22.2118,19.0145 -28.0641,35.9803 -27.9104,44.0276 0.1532,8.0482 12.5159,40.8376 12.5159,40.8376 z"
       id="path1367"
       inkscape:connector-curvature="0"
       inkscape:transform-center-x="-1.8067567"
       inkscape:transform-center-y="-52.12792"
       sodipodi:nodetypes="cscscc" />
    <path
       style="color:#000000;display:inline;overflow:visible;visibility:visible;fill:#ffffff;fill-opacity:1;fill-rule:nonzero;stroke:none;stroke-width:1.05679px;marker:none;enable-background:accumulate"
       d="m 355.3955,2986.8839 c -55.07699,-0.6593 -111.04048,-2.6648 -164.254,-23.4513 -26.25808,-10.7648 -51.18983,-31.619 -65.84495,-63.0921 -13.18083,-28.3126 -16.67771,-65.4356 -5.90537,-96.0375 9.52718,-28.3487 30.05791,-48.9912 52.80721,-55.4273 30.59336,-11.7929 62.17661,-18.1878 93.67516,-24.0103 84.90838,-14.325 171.59468,-13.7896 255.91323,6.668 23.7815,5.9783 47.71641,15.7042 67.23938,35.329 15.69397,15.3506 28.34727,37.3459 32.38452,62.9883 6.8888,39.1525 -2.81295,83.9828 -26.98294,109.2725 -17.51472,18.1637 -39.68015,25.408 -61.13372,30.6987 -35.84398,8.459 -72.25619,11.2209 -108.52162,14.5758 -23.10224,1.6608 -46.23923,2.6008 -69.3769,2.4862 z"
       id="path4546-7"
       inkscape:connector-curvature="0"
       sodipodi:nodetypes="cssssc" />
    <path
       style="color:#000000;display:inline;overflow:visible;visibility:visible;fill:#ffffff;fill-opacity:1;fill-rule:nonzero;stroke:none;stroke-width:1.268px;marker:none;enable-background:accumulate"
       d="m 404.40985,2935.7821 c 45.61556,0.7421 92.15711,5.5907 134.39105,23.3836 25.94717,11.223 49.94814,28.8853 63.86685,53.3618 13.22513,22.749 18.44787,50.6894 10.44929,75.9925 -5.03326,16.655 -14.00266,32.4446 -26.92048,44.5375 -13.34001,10.5332 -30.06449,15.6396 -46.23978,20.4967 -35.22975,9.8473 -71.77601,14.114 -108.16365,17.5665 -28.44512,2.4742 -56.98136,4.3432 -85.54773,4.501 -24.84285,-0.4953 -49.68053,-1.957 -74.3817,-4.5883 -33.83337,-3.9202 -67.9178,-11.3377 -97.9226,-27.5561 -20.9569,-11.5613 -39.45361,-28.9989 -47.84646,-51.3301 -8.23894,-21.6096 -8.63657,-45.6146 -3.22742,-67.9105 5.28951,-20.1622 18.68032,-38.0824 36.65785,-49.3709 25.33575,-16.5428 55.74674,-23.1654 85.44168,-27.8686 37.02204,-5.6914 74.50242,-7.5726 111.84439,-10.2061 15.84982,-0.8248 31.72653,-1.2004 47.59871,-1.009 z"
       id="path4546-6-5-4"
       inkscape:connector-curvature="0"
       sodipodi:nodetypes="cssssc" />
    <path
       style="color:#000000;display:inline;overflow:visible;visibility:visible;fill:#ffffff;fill-opacity:1;fill-rule:nonzero;stroke:none;stroke-width:0.94912px;marker:none;enable-background:accumulate"
       d="m 597.94043,2853.7282 c 0.70291,-20.5931 2.79564,-98.204 79.29359,-67.917 -12.96153,-15.3177 -101.3034,-57.4847 -117.55274,67.9555 -4.05901,31.3344 6.93857,21.4416 13.2428,23.8225 6.30431,2.3809 25.01635,-23.861 25.01635,-23.861 z"
       id="path4064-5"
       inkscape:connector-curvature="0"
       sodipodi:nodetypes="ccszc" />
    <path
       style="fill:#ffffff;stroke:none;stroke-width:0.81482"
       d="m 1418.3205,2649.8376 c -55.6515,1.0843 -111.5465,3.5316 -166.5158,16.1912 -20.7471,4.9736 -41.9573,11.3599 -59.9501,26.8397 -10.3854,8.9436 -19.0734,21.4708 -24.6164,36.3484 -9.4035,24.0537 -12.9013,51.8419 -11.6585,78.8365 1.4827,26.5959 9.2329,53.2823 23.9435,71.6296 15.5093,19.9129 35.9465,30.9118 56.3221,38.3671 27.2867,9.6811 55.5842,12.3708 83.6634,14.2142 40.7332,2.1657 81.5068,0.6993 122.2421,-0.5596 45.6987,-1.9921 91.7629,-6.0328 136.1616,-21.7055 21.0535,-7.8026 42.1406,-18.4301 59.2237,-37.2615 11.0085,-12.5554 19.5773,-30.1037 20.9835,-49.7922 1.7989,-18.9364 0.413,-38.1939 -2.3116,-56.8399 -4.5714,-26.4552 -16.0871,-50.8564 -32.6186,-66.592 -20.1375,-20.2799 -44.7112,-30.2649 -69.0368,-36.9657 -36.2253,-9.7092 -73.2619,-12.0732 -110.1085,-12.8186 -8.575,-0.1392 -17.1493,-0.086 -25.7236,0.1083 z"
       id="path3280-8-0"
       inkscape:connector-curvature="0"
       sodipodi:nodetypes="csssc" />
    <path
       style="color:#000000;display:inline;overflow:visible;visibility:visible;fill:#ffffff;fill-opacity:1;fill-rule:nonzero;stroke:none;stroke-width:1px;marker:none;enable-background:accumulate"
       d="m 1202.4146,2978.9707 c 74.1686,10.5665 125.3056,-20.8953 125.9336,-99.1299 24.1747,-37.6874 37.9622,-13.5927 37.9622,-13.5927 0,0 11.7636,14.3466 12.7847,24.636 3.9766,40.0726 -80.3955,126.8937 -176.6805,88.0866 z"
       id="path3072-7"
       inkscape:connector-curvature="0"
       sodipodi:nodetypes="cccsc" />
    <path
       style="fill:#ffffff;fill-rule:evenodd;stroke:none;stroke-width:1px;stroke-linecap:butt;stroke-linejoin:miter;stroke-opacity:1"
       d="m 611.87816,457.91854 c -12.3953,-22.626 4.8341,-35.579 4.6846,-49.244 -0.1543,-14.107 -33.2797,-25.956 -34.0153,-39.032 -0.7356,-13.076 20.5032,-26.957 19.032,-47.388 -1.4712,-20.432 -25.011,-24.518 -22.8041,-0.818 2.2069,23.701 -15.6571,27.839 -11.7699,46.584 6.483,31.261 30.8848,30.638 38.523,39.431 5.057,5.822 -4.6847,18.594 -2.4778,32.487 2.2069,13.894 8.8275,17.98 8.8275,17.98 z"
       id="path4272-2"
       inkscape:connector-curvature="0"
       sodipodi:nodetypes="csssssssc" />
    <path
       style="display:inline;fill:#ffffff;stroke:none;stroke-width:0.877336"
       d="M 395.5572,452.67668 C 407.56611,407.77396 413.32098,333.81277 360.54542,296.86263 333.08948,277.6397 320.11233,262.96148 320.11233,262.96148 l 22.24546,-19.14958 c 105.35115,77.35453 72.21397,163.85407 53.19941,208.86478 z"
       id="path3063-1-0"
       inkscape:connector-curvature="0"
       sodipodi:nodetypes="csccc" />
  </g>
  <g
     inkscape:groupmode="layer"
     id="layer1"
     inkscape:label="txt">
    <text
       id="text4246-4-2-7"
       y="193.54773"
       x="279.27112"
       style="font-style:normal;font-variant:normal;font-weight:normal;font-stretch:normal;line-height:0%;font-family:Lavi;-inkscape-font-specification:Lavi;text-align:center;letter-spacing:0px;word-spacing:0px;text-anchor:middle;fill:#000000;fill-opacity:1;stroke:none"
       xml:space="preserve"><tspan
         y="193.54773"
         x="279.27112"
         style="font-size:45px;line-height:1.25;fill:#000000"
         sodipodi:role="line"
         id="tspan1639">Wat is er</tspan><tspan
         y="249.79773"
         x="279.27112"
         style="font-size:45px;line-height:1.25;fill:#000000"
         sodipodi:role="line"
         id="tspan229">met haar?</tspan></text>
    <text
       id="text4246-4-2-7-3"
       y="176.02751"
       x="614.8924"
       style="font-style:normal;font-variant:normal;font-weight:normal;font-stretch:normal;line-height:0%;font-family:Lavi;-inkscape-font-specification:Lavi;text-align:center;letter-spacing:0px;word-spacing:0px;text-anchor:middle;fill:#000000;fill-opacity:1;stroke:none"
       xml:space="preserve"><tspan
         y="176.02751"
         x="614.8924"
         style="font-size:45px;line-height:1.25;fill:#000000"
         sodipodi:role="line"
         id="tspan1639-7">Pepper?</tspan><tspan
         y="232.27751"
         x="614.8924"
         style="font-size:45px;line-height:1.25;fill:#000000"
         sodipodi:role="line"
         id="tspan233">Gaat het een</tspan><tspan
         y="288.5275"
         x="614.8924"
         style="font-size:45px;line-height:1.25;fill:#000000"
         sodipodi:role="line"
         id="tspan235">beetje?</tspan></text>
    <text
       id="text4246-4-2-7-3-5"
       y="216.69748"
       x="952.75238"
       style="font-style:normal;font-variant:normal;font-weight:normal;font-stretch:normal;line-height:0%;font-family:Lavi;-inkscape-font-specification:Lavi;text-align:center;letter-spacing:0px;word-spacing:0px;text-anchor:middle;fill:#000000;fill-opacity:1;stroke:none"
       xml:space="preserve"><tspan
         y="216.69748"
         x="952.75238"
         style="font-size:45px;line-height:1.25;fill:#000000"
         sodipodi:role="line"
         id="tspan6111">Ja,</tspan><tspan
         y="272.94748"
         x="952.75238"
         style="font-size:45px;line-height:1.25;fill:#000000"
         sodipodi:role="line"
         id="tspan399">prima.</tspan></text>
    <text
       id="text4246-4-2-7-3-5-2"
       y="1139.4252"
       x="1022.4485"
       style="font-style:normal;font-variant:normal;font-weight:normal;font-stretch:normal;line-height:0%;font-family:Lavi;-inkscape-font-specification:Lavi;text-align:center;letter-spacing:0px;word-spacing:0px;text-anchor:middle;fill:#000000;fill-opacity:1;stroke:none"
       xml:space="preserve"><tspan
         y="1139.4252"
         x="1022.4485"
         style="font-size:45px;line-height:1.25;fill:#000000"
         sodipodi:role="line"
         id="tspan9293">Ik heb</tspan><tspan
         y="1195.6752"
         x="1022.4485"
         style="font-size:45px;line-height:1.25;fill:#000000"
         sodipodi:role="line"
         id="tspan410">me net iets</tspan><tspan
         y="1251.9252"
         x="1022.4485"
         style="font-size:45px;line-height:1.25;fill:#000000"
         sodipodi:role="line"
         id="tspan412">gerealiseerd,</tspan><tspan
         y="1308.1752"
         x="1022.4485"
         style="font-size:45px;line-height:1.25;fill:#000000"
         sodipodi:role="line"
         id="tspan414">dat is alles.</tspan></text>
    <text
       id="text4246-4-2-7-3-5-2-2"
       y="1236.2395"
       x="1815.4186"
       style="font-style:normal;font-variant:normal;font-weight:normal;font-stretch:normal;line-height:0%;font-family:Lavi;-inkscape-font-specification:Lavi;text-align:center;letter-spacing:0px;word-spacing:0px;text-anchor:middle;fill:#000000;fill-opacity:1;stroke:none"
       xml:space="preserve"><tspan
         y="1236.2395"
         x="1815.4186"
         style="font-size:45px;line-height:1.25;fill:#000000"
         sodipodi:role="line"
         id="tspan480">Al deze gebeurtenissen,</tspan><tspan
         y="1292.4895"
         x="1815.4186"
         style="font-size:45px;line-height:1.25;fill:#000000"
         sodipodi:role="line"
         id="tspan476">de directe of indirecte gevolgen</tspan><tspan
         y="1348.7395"
         x="1815.4186"
         style="font-size:45px;line-height:1.25;fill:#000000"
         sodipodi:role="line"
         id="tspan584">van mijn acties en keuzes...</tspan></text>
    <text
       id="text4246-4-2-7-3-5-2-2-6"
       y="1437.9536"
       x="1860.6394"
       style="font-style:normal;font-variant:normal;font-weight:normal;font-stretch:normal;line-height:0%;font-family:Lavi;-inkscape-font-specification:Lavi;text-align:center;letter-spacing:0px;word-spacing:0px;text-anchor:middle;fill:#000000;fill-opacity:1;stroke:none"
       xml:space="preserve"><tspan
         y="1437.9536"
         x="1860.6394"
         style="font-style:normal;font-variant:normal;font-weight:bold;font-stretch:normal;font-size:45px;line-height:1.25;font-family:Lavi;-inkscape-font-specification:'Lavi Bold';fill:#000000"
         sodipodi:role="line"
         id="tspan224893"><tspan
   style="font-style:normal;font-variant:normal;font-weight:normal;font-stretch:normal;font-family:Lavi;-inkscape-font-specification:Lavi"
   id="tspan306302">...zijn onbedoeld</tspan> </tspan><tspan
         y="1494.2036"
         x="1867.6707"
         style="font-style:normal;font-variant:normal;font-weight:normal;font-stretch:normal;font-size:45px;line-height:1.25;font-family:Lavi;-inkscape-font-specification:Lavi;fill:#000000"
         sodipodi:role="line"
         id="tspan269298"><tspan
   style="font-style:normal;font-variant:normal;font-weight:bold;font-stretch:normal;font-family:Lavi;-inkscape-font-specification:'Lavi Bold'"
   id="tspan301576">mijn kettingreactie!</tspan> </tspan></text>
    <text
       id="text4246-4-2-7-3-5-2-2-6-7-2"
       y="1679.4132"
       x="256.14807"
       style="font-style:normal;font-variant:normal;font-weight:normal;font-stretch:normal;line-height:0%;font-family:Lavi;-inkscape-font-specification:Lavi;text-align:center;letter-spacing:0px;word-spacing:0px;text-anchor:middle;fill:#000000;fill-opacity:1;stroke:none"
       xml:space="preserve"><tspan
         y="1679.4132"
         x="256.14807"
         style="font-style:normal;font-variant:normal;font-weight:normal;font-stretch:normal;font-size:45px;line-height:1.25;font-family:Lavi;-inkscape-font-specification:Lavi;fill:#000000"
         sodipodi:role="line"
         id="tspan104696-2-8">Echt waar?</tspan></text>
    <text
       id="text4246-4-2-7-3-5-2-2-6-7-2-9"
       y="1767.0973"
       x="374.07385"
       style="font-style:normal;font-variant:normal;font-weight:normal;font-stretch:normal;line-height:0%;font-family:Lavi;-inkscape-font-specification:Lavi;text-align:center;letter-spacing:0px;word-spacing:0px;text-anchor:middle;fill:#000000;fill-opacity:1;stroke:none"
       xml:space="preserve"><tspan
         y="1767.0973"
         x="374.07385"
         style="font-style:normal;font-variant:normal;font-weight:normal;font-stretch:normal;font-size:45px;line-height:1.25;font-family:Lavi;-inkscape-font-specification:Lavi;fill:#000000"
         sodipodi:role="line"
         id="tspan168035">Dat moet je me</tspan><tspan
         y="1823.3473"
         x="374.07385"
         style="font-style:normal;font-variant:normal;font-weight:normal;font-stretch:normal;font-size:45px;line-height:1.25;font-family:Lavi;-inkscape-font-specification:Lavi;fill:#000000"
         sodipodi:role="line"
         id="tspan592">even uitleggen.</tspan></text>
    <text
       id="text4246-4-2-7-3-5-2-2-6-7-2-9-3"
       y="1675.7516"
       x="889.07532"
       style="font-style:normal;font-variant:normal;font-weight:normal;font-stretch:normal;line-height:0%;font-family:Lavi;-inkscape-font-specification:Lavi;text-align:center;letter-spacing:0px;word-spacing:0px;text-anchor:middle;fill:#000000;fill-opacity:1;stroke:none"
       xml:space="preserve"><tspan
         y="1675.7516"
         x="889.07532"
         style="font-style:normal;font-variant:normal;font-weight:normal;font-stretch:normal;font-size:45px;line-height:1.25;font-family:Lavi;-inkscape-font-specification:Lavi;fill:#000000"
         sodipodi:role="line"
         id="tspan171941">Genoeg gekletst,</tspan><tspan
         y="1732.0016"
         x="889.07532"
         style="font-style:normal;font-variant:normal;font-weight:normal;font-stretch:normal;font-size:45px;line-height:1.25;font-family:Lavi;-inkscape-font-specification:Lavi;fill:#000000"
         sodipodi:role="line"
         id="tspan307">we staan midden in</tspan><tspan
         y="1788.2516"
         x="889.07532"
         style="font-style:normal;font-variant:normal;font-weight:normal;font-stretch:normal;font-size:45px;line-height:1.25;font-family:Lavi;-inkscape-font-specification:Lavi;fill:#000000"
         sodipodi:role="line"
         id="tspan402">het slagveld.</tspan></text>
    <text
       id="text4246-4-2-7-3-5-2-2-6-7-2-9-3-2"
       y="1852.1797"
       x="897.90985"
       style="font-style:normal;font-variant:normal;font-weight:normal;font-stretch:normal;line-height:0%;font-family:Lavi;-inkscape-font-specification:Lavi;text-align:center;letter-spacing:0px;word-spacing:0px;text-anchor:middle;fill:#000000;fill-opacity:1;stroke:none"
       xml:space="preserve"><tspan
         y="1852.1797"
         x="897.90985"
         style="font-style:normal;font-variant:normal;font-weight:normal;font-stretch:normal;font-size:45px;line-height:1.25;font-family:Lavi;-inkscape-font-specification:Lavi;fill:#000000"
         sodipodi:role="line"
         id="tspan184397">We hebben in de</tspan><tspan
         y="1908.4297"
         x="897.90985"
         style="font-style:normal;font-variant:normal;font-weight:normal;font-stretch:normal;font-size:45px;line-height:1.25;font-family:Lavi;-inkscape-font-specification:Lavi;fill:#000000"
         sodipodi:role="line"
         id="tspan469">lucht alle tijd om</tspan><tspan
         y="1964.6797"
         x="897.90985"
         style="font-style:normal;font-variant:normal;font-weight:normal;font-stretch:normal;font-size:45px;line-height:1.25;font-family:Lavi;-inkscape-font-specification:Lavi;fill:#000000"
         sodipodi:role="line"
         id="tspan569">bij te praten.</tspan></text>
    <text
       id="text4246-4-2-7-3-5-2-2-6-7-2-9-3-2-9"
       y="2034.8523"
       x="916.95648"
       style="font-style:normal;font-variant:normal;font-weight:normal;font-stretch:normal;line-height:0%;font-family:Lavi;-inkscape-font-specification:Lavi;text-align:center;letter-spacing:0px;word-spacing:0px;text-anchor:middle;fill:#000000;fill-opacity:1;stroke:none"
       xml:space="preserve"><tspan
         y="2034.8523"
         x="916.95648"
         style="font-style:normal;font-variant:normal;font-weight:normal;font-stretch:normal;font-size:45px;line-height:1.25;font-family:Lavi;-inkscape-font-specification:Lavi;fill:#000000"
         sodipodi:role="line"
         id="tspan184397-7">Spring achterop!</tspan></text>
    <text
       id="text4246-4-2-7-3-5-2-2-6-7-2-9-3-2-9-8"
       y="2297.7698"
       x="1605.5995"
       style="font-style:normal;font-variant:normal;font-weight:normal;font-stretch:normal;line-height:0%;font-family:Lavi;-inkscape-font-specification:Lavi;text-align:center;letter-spacing:0px;word-spacing:0px;text-anchor:middle;fill:#000000;fill-opacity:1;stroke:none"
       xml:space="preserve"><tspan
         y="2297.7698"
         x="1605.5995"
         style="font-style:normal;font-variant:normal;font-weight:normal;font-stretch:normal;font-size:45px;line-height:1.25;font-family:Lavi;-inkscape-font-specification:Lavi;fill:#000000"
         sodipodi:role="line"
         id="tspan189870">Torreya</tspan><tspan
         y="2354.0198"
         x="1605.5995"
         style="font-style:normal;font-variant:normal;font-weight:normal;font-stretch:normal;font-size:45px;line-height:1.25;font-family:Lavi;-inkscape-font-specification:Lavi;fill:#000000"
         sodipodi:role="line"
         id="tspan675">heeft gelijk.</tspan></text>
    <text
       id="text4246-4-2-7-3-5-2-2-6-7-2-9-3-2-9-8-3"
       y="2425.5793"
       x="1599.3679"
       style="font-style:normal;font-variant:normal;font-weight:normal;font-stretch:normal;line-height:0%;font-family:Lavi;-inkscape-font-specification:Lavi;text-align:center;letter-spacing:0px;word-spacing:0px;text-anchor:middle;fill:#000000;fill-opacity:1;stroke:none"
       xml:space="preserve"><tspan
         y="2425.5793"
         x="1599.3679"
         style="font-style:normal;font-variant:normal;font-weight:normal;font-stretch:normal;font-size:45px;line-height:1.25;font-family:Lavi;-inkscape-font-specification:Lavi;fill:#000000"
         sodipodi:role="line"
         id="tspan33972">We moeten hoe</tspan><tspan
         y="2481.8293"
         x="1599.3679"
         style="font-style:normal;font-variant:normal;font-weight:normal;font-stretch:normal;font-size:45px;line-height:1.25;font-family:Lavi;-inkscape-font-specification:Lavi;fill:#000000"
         sodipodi:role="line"
         id="tspan671">dan ook in Kwalistad</tspan><tspan
         y="2538.0793"
         x="1599.3679"
         style="font-style:normal;font-variant:normal;font-weight:normal;font-stretch:normal;font-size:45px;line-height:1.25;font-family:Lavi;-inkscape-font-specification:Lavi;fill:#000000"
         sodipodi:role="line"
         id="tspan673">zien te komen.</tspan></text>
    <text
       id="text4246-4-2-7-3-5-2-2-6-7-2-9-3-2-9-8-5"
       y="2455.429"
       x="2136.4399"
       style="font-style:normal;font-variant:normal;font-weight:normal;font-stretch:normal;line-height:0%;font-family:Lavi;-inkscape-font-specification:Lavi;text-align:center;letter-spacing:0px;word-spacing:0px;text-anchor:middle;fill:#000000;fill-opacity:1;stroke:none"
       xml:space="preserve"><tspan
         y="2455.429"
         x="2136.4399"
         style="font-style:normal;font-variant:normal;font-weight:normal;font-stretch:normal;font-size:45px;line-height:1.25;font-family:Lavi;-inkscape-font-specification:Lavi;fill:#000000"
         sodipodi:role="line"
         id="tspan194276">Nee,</tspan><tspan
         y="2511.679"
         x="2136.4399"
         style="font-style:normal;font-variant:normal;font-weight:normal;font-stretch:normal;font-size:45px;line-height:1.25;font-family:Lavi;-inkscape-font-specification:Lavi;fill:#000000"
         sodipodi:role="line"
         id="tspan822">wacht even.</tspan></text>
    <text
       id="text4246-4-2-7-3-5-2-2-6-7-2-9-3-2-9-8-5-1"
       y="2814.5117"
       x="366.66379"
       style="font-style:normal;font-variant:normal;font-weight:normal;font-stretch:normal;line-height:0%;font-family:Lavi;-inkscape-font-specification:Lavi;text-align:center;letter-spacing:0px;word-spacing:0px;text-anchor:middle;fill:#000000;fill-opacity:1;stroke:none"
       xml:space="preserve"><tspan
         y="2814.5117"
         x="366.66379"
         style="font-style:normal;font-variant:normal;font-weight:normal;font-stretch:normal;font-size:45px;line-height:1.25;font-family:Lavi;-inkscape-font-specification:Lavi;fill:#000000"
         sodipodi:role="line"
         id="tspan199194">Het leger van Wasabi</tspan><tspan
         y="2870.7617"
         x="366.66379"
         style="font-style:normal;font-variant:normal;font-weight:normal;font-stretch:normal;font-size:45px;line-height:1.25;font-family:Lavi;-inkscape-font-specification:Lavi;fill:#000000"
         sodipodi:role="line"
         id="tspan826">maakt zich klaar voor</tspan><tspan
         y="2927.0117"
         x="366.66379"
         style="font-style:normal;font-variant:normal;font-weight:normal;font-stretch:normal;font-size:45px;line-height:1.25;font-family:Lavi;-inkscape-font-specification:Lavi;fill:#000000"
         sodipodi:role="line"
         id="tspan828">de tegenaanval.</tspan></text>
    <text
       id="text4246-4-2-7-3-5-2-2-6-7-2-9-3-2-9-8-5-1-3"
       y="3017.3503"
       x="371.22986"
       style="font-style:normal;font-variant:normal;font-weight:normal;font-stretch:normal;line-height:0%;font-family:Lavi;-inkscape-font-specification:Lavi;text-align:center;letter-spacing:0px;word-spacing:0px;text-anchor:middle;fill:#000000;fill-opacity:1;stroke:none"
       xml:space="preserve"><tspan
         y="3017.3503"
         x="371.22986"
         style="font-style:normal;font-variant:normal;font-weight:normal;font-stretch:normal;font-size:45px;line-height:1.25;font-family:Lavi;-inkscape-font-specification:Lavi;fill:#000000"
         sodipodi:role="line"
         id="tspan207740">We kunnen hen </tspan><tspan
         y="3073.6003"
         x="371.22986"
         style="font-style:normal;font-variant:normal;font-weight:normal;font-stretch:normal;font-size:45px;line-height:1.25;font-family:Lavi;-inkscape-font-specification:Lavi;fill:#000000"
         sodipodi:role="line"
         id="tspan841">elkaar niet zomaar uit</tspan><tspan
         y="3129.8503"
         x="371.22986"
         style="font-style:normal;font-variant:normal;font-weight:normal;font-stretch:normal;font-size:45px;line-height:1.25;font-family:Lavi;-inkscape-font-specification:Lavi;fill:#000000"
         sodipodi:role="line"
         id="tspan845">laten moorden.</tspan></text>
    <text
       id="text4246-4-2-7-3-5-2-2-6-7-2-9-3-2-9-8-5-1-3-6"
       y="2722.2998"
       x="1403.8872"
       style="font-style:normal;font-variant:normal;font-weight:normal;font-stretch:normal;line-height:0%;font-family:Lavi;-inkscape-font-specification:Lavi;text-align:center;letter-spacing:0px;word-spacing:0px;text-anchor:middle;fill:#000000;fill-opacity:1;stroke:none"
       xml:space="preserve"><tspan
         y="2722.2998"
         x="1403.8872"
         style="font-style:normal;font-variant:normal;font-weight:normal;font-stretch:normal;font-size:45px;line-height:1.25;font-family:Lavi;-inkscape-font-specification:Lavi;fill:#000000"
         sodipodi:role="line"
         id="tspan955">Ik voel me</tspan><tspan
         y="2778.5498"
         x="1403.8872"
         style="font-style:normal;font-variant:normal;font-weight:normal;font-stretch:normal;font-size:45px;line-height:1.25;font-family:Lavi;-inkscape-font-specification:Lavi;fill:#000000"
         sodipodi:role="line"
         id="tspan959">verantwoordelijk om</tspan><tspan
         y="2834.7998"
         x="1403.8872"
         style="font-style:normal;font-variant:normal;font-weight:normal;font-stretch:normal;font-size:45px;line-height:1.25;font-family:Lavi;-inkscape-font-specification:Lavi;fill:#000000"
         sodipodi:role="line"
         id="tspan362">dit gevecht ten einde</tspan><tspan
         y="2891.0498"
         x="1403.8872"
         style="font-style:normal;font-variant:normal;font-weight:normal;font-stretch:normal;font-size:45px;line-height:1.25;font-family:Lavi;-inkscape-font-specification:Lavi;fill:#000000"
         sodipodi:role="line"
         id="tspan967">te brengen.</tspan></text>
  </g>
</svg>
