<?xml version="1.0" encoding="UTF-8" standalone="no"?>
<!-- Created with Inkscape (http://www.inkscape.org/) -->

<svg
   id="svg2"
   version="1.1"
   inkscape:version="1.2.2 (b0a8486541, 2022-12-01, custom)"
   width="2481"
   height="3503"
   sodipodi:docname="E36P15.svg"
   xmlns:inkscape="http://www.inkscape.org/namespaces/inkscape"
   xmlns:sodipodi="http://sodipodi.sourceforge.net/DTD/sodipodi-0.dtd"
   xmlns:xlink="http://www.w3.org/1999/xlink"
   xmlns="http://www.w3.org/2000/svg"
   xmlns:svg="http://www.w3.org/2000/svg"
   xmlns:rdf="http://www.w3.org/1999/02/22-rdf-syntax-ns#"
   xmlns:cc="http://creativecommons.org/ns#"
   xmlns:dc="http://purl.org/dc/elements/1.1/">
  <metadata
     id="metadata8">
    <rdf:RDF>
      <cc:Work
         rdf:about="">
        <dc:format>image/svg+xml</dc:format>
        <dc:type
           rdf:resource="http://purl.org/dc/dcmitype/StillImage" />
      </cc:Work>
    </rdf:RDF>
  </metadata>
  <defs
     id="defs6" />
  <sodipodi:namedview
     pagecolor="#1e1e1e"
     bordercolor="#111111"
     borderopacity="1"
     objecttolerance="10"
     gridtolerance="10"
     guidetolerance="10"
     inkscape:pageopacity="0"
     inkscape:pageshadow="2"
     inkscape:window-width="1832"
     inkscape:window-height="1016"
     id="namedview4"
     showgrid="false"
     inkscape:zoom="0.43852551"
     inkscape:cx="1267.8852"
     inkscape:cy="1134.4836"
     inkscape:window-x="88"
     inkscape:window-y="27"
     inkscape:window-maximized="1"
     inkscape:current-layer="layer1"
     inkscape:pagecheckerboard="0"
     inkscape:snap-global="false"
     inkscape:showpageshadow="2"
     inkscape:deskcolor="#1e1e1e" />
  <g
     inkscape:groupmode="layer"
     id="layer2"
     inkscape:label="artwork"
     sodipodi:insensitive="true">
    <image
       xlink:href="../gfx_Pepper-and-Carrot_by-David-Revoy_E36P15.png"
       y="0"
       x="0"
       id="image10"
       height="3503"
       width="2481" />
  </g>
  <g
     inkscape:groupmode="layer"
     id="layer3"
     inkscape:label="speechbubbles"
     style="display:inline">
    <path
       sodipodi:nodetypes="zssssz"
       inkscape:connector-curvature="0"
       id="path4040-4-9-3"
       d="m 300.86224,1276.9038 c -36.87941,-0.5348 -74.11768,-8.0202 -106.94009,-25.0742 -16.54345,-9.4558 -30.95278,-23.6891 -37.82197,-41.5884 -6.34829,-20.6995 -6.99419,-43.5798 0.69386,-64.0208 8.7875,-21.7078 28.79035,-38.2707 51.62136,-43.8668 21.00234,-5.5807 42.91004,-3.0217 64.32413,-2.3157 17.58426,0.778 35.22568,1.0893 52.78723,-0.3023 35.71298,-1.2994 71.47581,0.7615 106.99042,4.4534 16.13372,2.1415 32.5202,7.2943 44.80739,18.2764 14.1399,12.5577 21.23291,31.3912 22.23965,49.8809 1.21666,16.7528 -1.44349,34.4346 -11.00271,48.6358 -8.69966,12.7166 -22.07019,21.0817 -34.79447,29.3667 -18.73301,11.8426 -39.91789,20.4327 -62.1635,22.5947 -28.6171,3.6306 -57.52382,3.7182 -86.32654,3.9666 -1.47159,0 -2.94318,0 -4.41476,-0.01 z"
       style="color:#000000;display:inline;overflow:visible;visibility:visible;fill:#ffffff;fill-opacity:1;fill-rule:nonzero;stroke:none;stroke-width:1.00107px;marker:none;enable-background:accumulate" />
    <path
       sodipodi:nodetypes="zssssz"
       inkscape:connector-curvature="0"
       id="path4040-4-9-3-0"
       d="m 1118.7475,1104.2748 c 57.3412,0.6452 115.7529,5.7225 169.7253,27.2362 17.8682,7.1074 34.6518,21.0634 40.0208,40.8274 6.5321,23.5475 -3.5633,49.2855 -20.8676,64.9858 -15.3558,14.2208 -35.5174,20.8677 -55.0618,26.1281 -35.7549,8.7248 -72.658,10.0899 -109.2111,11.6213 -78.6324,2.5795 -157.25192,-2.5414 -235.63045,-8.6252 -32.66837,-2.8393 -66.41178,-9.1366 -94.24047,-28.2133 -25.0766,-19.2428 -34.06014,-59.0686 -17.25405,-86.9357 11.44886,-19.0725 31.88179,-30.425 52.73274,-34.4716 33.32792,-7.0561 67.48366,-7.8082 101.35645,-9.3 40.85797,-1.5299 81.74308,-2.1286 122.61858,-2.9692 15.2694,-0.2288 30.5405,-0.3939 45.8116,-0.2838 z"
       style="color:#000000;display:inline;overflow:visible;visibility:visible;fill:#ffffff;fill-opacity:1;fill-rule:nonzero;stroke:none;stroke-width:1.26767px;marker:none;enable-background:accumulate" />
    <path
       sodipodi:nodetypes="zssssz"
       inkscape:connector-curvature="0"
       id="path4040-4-9-3-0-9"
       d="m 1445.7999,1146.2716 c -43.4188,0.9418 -87.6745,7.9091 -125.608,26.0636 -22.4953,11.5176 -34.6676,33.6874 -34.5639,55.1371 -1.1181,26.0096 10.8407,53.1573 35.4402,70.0462 21.9984,14.7179 50.146,20.9775 77.5808,24.7412 37.4779,4.8585 75.4981,5.9478 113.3771,6.2378 49.0559,-0.042 98.3054,-2.7642 146.4572,-10.773 27.999,-5.8343 55.3449,-17.7587 72.5851,-37.3826 18.7403,-21.7956 24.2764,-51.9144 10.5444,-76.5307 -11.8119,-21.8065 -37.3672,-37.7553 -65.6886,-42.1196 -41.3054,-8.8531 -84.1736,-9.7386 -126.51,-12.1933 -34.4802,-1.9835 -69.0416,-3.3854 -103.6143,-3.2267 z"
       style="color:#000000;display:inline;overflow:visible;visibility:visible;fill:#ffffff;fill-opacity:1;fill-rule:nonzero;stroke:none;stroke-width:1.20823px;marker:none;enable-background:accumulate" />
    <path
       style="fill:#ffffff;fill-rule:evenodd;stroke:none;stroke-width:1.00106px;stroke-linecap:butt;stroke-linejoin:miter;stroke-opacity:1"
       d="m 308.60074,1240.117 c -32.97922,1.1022 -66.14332,-0.3365 -98.91057,5.3751 -10.43583,2.0506 -20.46979,7.221 -28.9199,15.2198 -16.49611,15.1349 -27.45921,39.2218 -29.76051,64.7117 -2.58256,21.5495 -2.33196,43.906 2.32624,64.9882 4.38772,17.5623 14.19483,33.106 27.33723,41.456 14.68542,10.0321 31.31075,14.0131 47.57697,17.7885 31.41549,6.6918 63.4087,7.3724 95.19037,6.4253 22.64487,-0.8977 45.17354,-4.1447 67.79053,-5.6484 20.82668,-1.6913 41.88973,-4.5226 61.60369,-13.6401 9.49078,-4.1393 19.51982,-8.9776 26.01305,-19.1166 7.32858,-11.8634 9.36892,-27.2517 10.33554,-41.8378 1.48173,-25.0991 -0.44972,-50.6377 -6.38014,-74.7121 -2.46328,-9.4948 -5.47741,-18.9716 -10.21772,-27.0523 -6.58267,-9.8046 -16.38497,-14.8595 -26.01858,-18.0555 -23.60918,-9.8133 -48.69559,-10.7566 -73.30942,-12.2429 -21.54227,-1.4391 -43.06332,-3.992 -64.65678,-3.6589 z"
       id="path4430-0"
       inkscape:connector-curvature="0"
       sodipodi:nodetypes="cccc" />
    <path
       style="fill:#ffffff;fill-rule:evenodd;stroke:none;stroke-width:0.994835px;stroke-linecap:butt;stroke-linejoin:miter;stroke-opacity:1"
       d="m 492.73176,1624.6635 c 35.8435,-75.0596 29.27963,-94.5713 28.30936,-110.3154 -16.52174,13.049 -24.86604,17.1296 -24.65914,16.0987 3.00972,-14.9956 -37.0191,-160.0643 -46.02432,-155.6225 l 25.72144,3.5806 c 0,0 17.88665,28.959 23.68535,50.3037 5.37124,19.7714 9.79616,68.3744 9.79616,68.3744 0,0 11.77629,-10.107 19.5645,-13.9247 2.56416,14.0835 32.14557,54.8133 -36.39335,141.5052 z"
       id="path891"
       inkscape:connector-curvature="0"
       sodipodi:nodetypes="ccsccsccc" />
    <path
       id="path889"
       style="fill:#ffffff;fill-rule:evenodd;stroke:none;stroke-width:1.25625px;stroke-linecap:butt;stroke-linejoin:miter;stroke-opacity:1"
       d="m 1986.1693,1087.207 c -7.0943,7.1006 -13.1123,15.3334 -17.9857,23.8555 -16.6861,29.3584 -27.5595,61.6835 -33.7801,94.6309 -6.5599,36.848 -4.3887,74.567 0.4827,111.4726 5.9877,42.5712 17.816,85.3983 42.4095,121.5488 15.763,19.7527 40.7008,30.0526 65.3346,34.584 31.9489,6.7098 64.364,12.0772 97.0775,13.1582 36.885,0.3123 73.6247,-5.4405 109.2342,-14.5234 30.7933,-8.8832 60.9534,-24.1174 81.2172,-49.0352 14.4968,-18.542 20.5222,-41.5774 25.7097,-63.9179 16.1446,-64.8069 20.1868,-133.4847 3.9079,-198.6739 -3.7288,-14.3174 -7.7575,-28.8357 -15.1893,-41.8046 -7.4288,-12.3882 -17.5471,-22.8685 -29.2832,-31.295 z" />
    <path
       style="display:inline;fill:#ffffff;stroke:none;stroke-width:0.912419"
       d="m 2024.0972,1656.5295 c -36.2076,-29.4781 -50.7799,-119.2023 -15.5488,-162.3147 20.7862,-25.4361 31.6921,-40.9014 31.6921,-40.9014 l -27.6324,-16.4993 c -85.537,95.2453 -31.5876,190.6132 11.4891,219.7154 z"
       id="path3063-1-0"
       inkscape:connector-curvature="0"
       sodipodi:nodetypes="csccc" />
    <path
       style="fill:#ffffff;fill-rule:evenodd;stroke:none;stroke-width:0.983173px;stroke-linecap:butt;stroke-linejoin:miter;stroke-opacity:1"
       d="m 1434.282,2281.4559 c -40.2792,0.7026 -81.097,4.8115 -119.1504,18.7637 -18.1024,6.8429 -35.417,17.8775 -46.0488,34.418 -10.2583,21.8242 -9.4933,48.9944 3.5166,69.5221 7.1656,11.4098 17.9569,20.106 29.8547,26.2099 16.2675,8.5056 34.1854,13.2898 52.1055,16.8475 29.8501,5.4982 60.306,6.629 90.595,6.5874 39.7438,-0.3752 79.5003,-3.6878 118.6612,-10.529 24.9582,-5.3052 50.2611,-12.4171 71.4106,-27.2299 10.5121,-10.5331 14.823,-25.4002 17.4725,-39.6487 4.344,-23.2257 -4.641,-49.0226 -23.983,-63.0629 -13.687,-9.5068 -30.0912,-13.7746 -46.0136,-17.8978 -26.4076,-6.1271 -53.4695,-8.5654 -80.3781,-11.3709 -22.6239,-1.9326 -45.3386,-2.7215 -68.0422,-2.6094 z"
       id="path4430-0-7"
       inkscape:connector-curvature="0"
       sodipodi:nodetypes="cccc" />
    <path
       style="display:inline;fill:#ffffff;fill-rule:evenodd;stroke:none;stroke-width:0.693785px;stroke-linecap:butt;stroke-linejoin:miter;stroke-opacity:1"
       d="m 1102.6016,2911.2658 c -26.8278,0.5523 -54.4026,5.9365 -77.157,20.6199 -17.117,11.9646 -25.44562,33.6236 -23.78,53.9178 0.6616,20.3498 10.4888,40.9412 28.0281,52.2325 16.6196,10.8907 36.2599,16.1547 55.7106,19.5 28.614,4.6057 58.0865,6.9564 86.7842,1.6718 17.6021,-3.395 35.2827,-9.2041 49.5198,-20.3056 8.9874,-6.9276 15.8817,-16.492 19.0911,-27.3378 6.2362,-18.9661 6.1541,-40.3619 -2.0957,-58.7248 -6.9018,-14.1411 -20.6531,-24.3914 -35.9432,-28.2086 -22.262,-7.0573 -45.6183,-9.6786 -68.7544,-12.2527 -10.4414,-0.8724 -20.9254,-1.2574 -31.4035,-1.1125 z"
       id="path4430-0-7-3"
       inkscape:connector-curvature="0"
       sodipodi:nodetypes="cccc" />
    <path
       style="color:#000000;display:inline;overflow:visible;visibility:visible;fill:#ffffff;fill-opacity:1;fill-rule:nonzero;stroke:none;stroke-width:0.933879px;marker:none;enable-background:accumulate"
       d="m 1510.6073,2424.7097 c 95.8683,30.7313 27.8183,159.8015 -2.9543,189.2123 50.4373,-43.5579 100.0481,-123.5802 33.0541,-217.2104 -31.2156,-43.6267 -19.8493,18.5629 -19.8493,18.5629 z"
       id="path4035-4"
       inkscape:connector-curvature="0"
       sodipodi:nodetypes="ccscc" />
    <path
       style="color:#000000;display:inline;overflow:visible;visibility:visible;fill:#ffffff;fill-opacity:1;fill-rule:nonzero;stroke:none;stroke-width:1.46848px;marker:none;enable-background:accumulate"
       d="m 1009.2678,2343.4407 c -77.25655,-1.1389 -154.7003,-1.5053 -231.35278,-5.6166 -45.27226,-2.8725 -90.99142,-8.5136 -129.75972,-27.2749 -27.42147,-13.7559 -51.35302,-35.1354 -60.33097,-64.5296 -5.57344,-18.8515 -1.9468,-41.0631 9.75475,-60.0886 13.80411,-23.3825 38.57666,-42.0375 65.18975,-47.9335 34.85851,-9.7675 70.0535,-11.8964 105.06051,-17.6306 111.15368,-13.7574 220.50542,-9.8032 328.97766,-5.1773 42.1662,2.0296 84.7755,4.5026 123.8529,16.0484 27.0594,8.5607 52.5995,23.5599 64.9884,48.1943 16.8937,35.1122 2.9523,85.8406 -34.0776,114.2498 -28.174,21.4504 -62.526,30.3428 -95.2545,37.2027 -49.2418,9.7207 -98.5563,12.8201 -147.0484,12.5559 z"
       id="path4546-6-5-5"
       inkscape:connector-curvature="0"
       sodipodi:nodetypes="cssssc" />
    <path
       style="color:#000000;display:inline;overflow:visible;visibility:visible;fill:#ffffff;fill-opacity:1;fill-rule:nonzero;stroke:none;stroke-width:0.511885px;marker:none;enable-background:accumulate"
       d="m 1198.7358,2292.3553 c -58.4517,90.8359 85.6046,288.3485 132.7428,310.3129 -51.7175,-3.6213 -215.024,-222.6528 -167.3541,-289.5926 16.3894,-23.014 93.063,-111.5562 34.6113,-20.7203 z"
       id="path4480-6"
       inkscape:connector-curvature="0"
       sodipodi:nodetypes="zcsz" />
    <path
       style="fill:#ffffff;stroke:none;stroke-width:1.22863"
       d="m 1132.3337,2836.1319 c 6.9881,13.1882 16.9513,18.3851 13.6567,35.0595 -18.6808,32.3624 -3.398,71.476 20.2436,84.4218 3.4934,10.3144 -10.2432,41.0229 -10.2432,41.0229 -31.6711,-50.3948 -47.4892,-83.1315 -25.5958,-126.3842 3.8504,-6.927 -8.3872,-14.7062 -12.2361,-26.3855 -3.8491,-11.6793 -4.7084,-20.1125 -0.097,-40.9935 3.9527,-17.898 39.9891,-41.3608 39.9891,-41.3608 -27.433,31.2471 -35.5926,52.7621 -25.7173,74.6198 z"
       id="path3023-4"
       inkscape:connector-curvature="0"
       sodipodi:nodetypes="cccccsscc" />
    <path
       style="display:inline;color:#000000;overflow:visible;visibility:visible;fill:#ffffff;fill-opacity:1;fill-rule:nonzero;stroke:none;stroke-width:1.24837px;marker:none;enable-background:accumulate"
       d="m 1376.3349,1458.4408 c 65.8497,-28.0462 73.8682,-93.2932 85.6163,-133.8532 16.6063,-57.3342 4.4593,-31.0509 4.4593,-31.0509 l 17.674,-21.5326 c 11.5377,-2.8141 18.9907,153.1862 -107.7496,186.4367 z"
       id="path3072-1-3"
       inkscape:connector-curvature="0"
       sodipodi:nodetypes="csccc" />
  </g>
  <g
     inkscape:groupmode="layer"
     id="layer1"
     inkscape:label="txt"
     style="display:inline">
    <text
       id="text4246-4-2-7"
       y="1159.6787"
       x="326.35803"
       style="font-style:normal;font-variant:normal;font-weight:normal;font-stretch:normal;line-height:0%;font-family:Lavi;-inkscape-font-specification:Lavi;text-align:center;letter-spacing:0px;word-spacing:0px;text-anchor:middle;fill:#000000;fill-opacity:1;stroke:none"
       xml:space="preserve"><tspan
         y="1159.6787"
         x="326.35803"
         style="font-size:45px;line-height:1.25"
         sodipodi:role="line"
         id="tspan1999">Maar wat </tspan><tspan
         y="1215.9287"
         x="326.35803"
         style="font-size:45px;line-height:1.25"
         sodipodi:role="line"
         id="tspan266">doen ze nu?</tspan></text>
    <text
       id="text4246-4-2-7-3"
       y="1304.6447"
       x="330.63736"
       style="font-style:normal;font-variant:normal;font-weight:normal;font-stretch:normal;line-height:0%;font-family:Lavi;-inkscape-font-specification:Lavi;text-align:center;letter-spacing:0px;word-spacing:0px;text-anchor:middle;fill:#000000;fill-opacity:1;stroke:none"
       xml:space="preserve"><tspan
         y="1304.6447"
         x="330.63736"
         style="font-size:45px;line-height:1.25"
         sodipodi:role="line"
         id="tspan14801">Sommigen</tspan><tspan
         y="1360.8947"
         x="330.63736"
         style="font-size:45px;line-height:1.25"
         sodipodi:role="line"
         id="tspan270">zijn aan het  </tspan><tspan
         y="1417.1447"
         x="330.63736"
         style="font-style:normal;font-variant:normal;font-weight:bold;font-stretch:normal;font-size:45px;line-height:1.25;font-family:Lavi;-inkscape-font-specification:'Lavi Bold'"
         sodipodi:role="line"
         id="tspan48107">zoenen...?!</tspan></text>
    <text
       id="text4246-4-2-7-3-6"
       y="1174.3734"
       x="1059.2391"
       style="font-style:normal;font-variant:normal;font-weight:normal;font-stretch:normal;line-height:0%;font-family:Lavi;-inkscape-font-specification:Lavi;text-align:center;letter-spacing:0px;word-spacing:0px;text-anchor:middle;fill:#000000;fill-opacity:1;stroke:none"
       xml:space="preserve"><tspan
         y="1174.3734"
         x="1059.2391"
         style="font-size:45px;line-height:1.25"
         sodipodi:role="line"
         id="tspan67460">Uhm... dat zijn flink</tspan><tspan
         y="1230.6234"
         x="1059.2391"
         style="font-size:45px;line-height:1.25"
         sodipodi:role="line"
         id="tspan328">wat nieuwe stelletjes!</tspan></text>
    <text
       id="text4246-4-2-7-3-6-3"
       y="1221.4115"
       x="1526.1987"
       style="font-style:normal;font-variant:normal;font-weight:normal;font-stretch:normal;line-height:0%;font-family:Lavi;-inkscape-font-specification:Lavi;text-align:center;letter-spacing:0px;word-spacing:0px;text-anchor:middle;fill:#000000;fill-opacity:1;stroke:none"
       xml:space="preserve"><tspan
         y="1221.4115"
         x="1526.1987"
         style="font-size:45px;line-height:1.25"
         sodipodi:role="line"
         id="tspan67460-0">Was dit je</tspan><tspan
         y="1277.6615"
         x="1526.1987"
         style="font-size:45px;line-height:1.25"
         sodipodi:role="line"
         id="tspan72570">bedoeling,Pepper?</tspan></text>
    <text
       id="text4246-4-2-7-3-6-3-6"
       y="1160.7395"
       x="2150.7542"
       style="font-style:normal;font-variant:normal;font-weight:normal;font-stretch:normal;line-height:0%;font-family:Lavi;-inkscape-font-specification:Lavi;text-align:center;letter-spacing:0px;word-spacing:0px;text-anchor:middle;fill:#000000;fill-opacity:1;stroke:none"
       xml:space="preserve"><tspan
         y="1160.7395"
         x="2150.7542"
         style="font-size:45px;line-height:1.25"
         sodipodi:role="line"
         id="tspan77915">Nee, niet echt!</tspan><tspan
         y="1216.9895"
         x="2150.7542"
         style="font-size:45px;line-height:1.25"
         sodipodi:role="line"
         id="tspan409">Ik geloof dat de</tspan><tspan
         y="1273.2395"
         x="2150.7542"
         style="font-size:45px;line-height:1.25"
         sodipodi:role="line"
         id="tspan411">Drakenrea de liefde</tspan><tspan
         y="1329.4895"
         x="2150.7542"
         style="font-size:45px;line-height:1.25"
         sodipodi:role="line"
         id="tspan419">in mijn spreuk wat</tspan><tspan
         y="1385.7395"
         x="2150.7542"
         style="font-size:45px;line-height:1.25"
         sodipodi:role="line"
         id="tspan421">sterker heeft</tspan><tspan
         y="1441.9895"
         x="2150.7542"
         style="font-size:45px;line-height:1.25"
         sodipodi:role="line"
         id="tspan484">gemaakt.</tspan></text>
    <text
       id="text4246-4-2-7-3-6-3-6-1"
       y="2191.1624"
       x="938.38312"
       style="font-style:normal;font-variant:normal;font-weight:normal;font-stretch:normal;line-height:0%;font-family:Lavi;-inkscape-font-specification:Lavi;text-align:center;letter-spacing:0px;word-spacing:0px;text-anchor:middle;fill:#000000;fill-opacity:1;stroke:none"
       xml:space="preserve"><tspan
         y="2191.1624"
         x="938.38312"
         style="font-size:45px;line-height:1.25"
         sodipodi:role="line"
         id="tspan11317">Haha, dit gevecht zal</tspan><tspan
         y="2247.4124"
         x="938.38312"
         style="font-size:45px;line-height:1.25"
         sodipodi:role="line"
         id="tspan603">zéker in de geschiedenisboeken</tspan><tspan
         y="2303.6624"
         x="938.38312"
         style="font-size:45px;line-height:1.25"
         sodipodi:role="line"
         id="tspan605">terecht komen!</tspan></text>
    <text
       id="text4246-4-2-7-3-6-3-6-1-3"
       y="2350.5242"
       x="1456"
       style="font-style:normal;font-variant:normal;font-weight:normal;font-stretch:normal;line-height:0%;font-family:Lavi;-inkscape-font-specification:Lavi;text-align:center;letter-spacing:0px;word-spacing:0px;text-anchor:middle;fill:#000000;fill-opacity:1;stroke:none"
       xml:space="preserve"><tspan
         y="2350.5242"
         x="1456"
         style="font-size:45px;line-height:1.25"
         sodipodi:role="line"
         id="tspan83228-9">Hihi!</tspan></text>
    <text
       id="text4246-4-2-7-3-6-3-6-1-3-2"
       y="2400.8943"
       x="1464.8267"
       style="font-style:normal;font-variant:normal;font-weight:normal;font-stretch:normal;line-height:0%;font-family:Lavi;-inkscape-font-specification:Lavi;text-align:center;letter-spacing:0px;word-spacing:0px;text-anchor:middle;fill:#000000;fill-opacity:1;stroke:none"
       xml:space="preserve"><tspan
         y="2400.8943"
         x="1464.8267"
         style="font-size:45px;line-height:1.25"
         sodipodi:role="line"
         id="tspan83228-9-2">Ongetwijfeld!</tspan></text>
    <text
       id="text4246-4-2-7-3-6-3-6-1-3-2-8"
       y="2970.5569"
       x="1129.4034"
       style="font-style:normal;font-variant:normal;font-weight:normal;font-stretch:normal;font-size:42px;line-height:0%;font-family:Lavi;-inkscape-font-specification:Lavi;text-align:center;letter-spacing:0px;word-spacing:0px;text-anchor:middle;fill:#000000;fill-opacity:1;stroke:none"
       xml:space="preserve"><tspan
         y="2970.5569"
         x="1129.4034"
         style="font-size:42px;line-height:1.25"
         sodipodi:role="line"
         id="tspan92338">Oooh,wat</tspan><tspan
         y="3023.0569"
         x="1129.4034"
         style="font-size:42px;line-height:1.25"
         sodipodi:role="line"
         id="tspan611">gênant!</tspan></text>
    <text
       transform="matrix(0.85852879,0,-0.29243083,1.1647833,0,0)"
       id="text4213-7"
       y="2982.4719"
       x="2454.0139"
       style="font-style:normal;font-variant:normal;font-weight:normal;font-stretch:normal;font-size:10.7631px;line-height:0%;font-family:Lavi;-inkscape-font-specification:Lavi;text-align:center;letter-spacing:0px;word-spacing:0px;text-anchor:middle;display:inline;fill:#d97041;fill-opacity:1;stroke:#000000;stroke-width:0;stroke-miterlimit:4;stroke-dasharray:none;stroke-opacity:1"
       xml:space="preserve"><tspan
         style="font-style:normal;font-variant:normal;font-weight:bold;font-stretch:normal;font-size:64.7408px;line-height:1.25;font-family:Lavi;-inkscape-font-specification:'Lavi Bold';fill:#d97041;fill-opacity:1;stroke:none;stroke-width:0;stroke-miterlimit:4;stroke-dasharray:none"
         y="2982.4719"
         x="2454.0139"
         id="tspan3562-5"
         sodipodi:role="line">- EINDE -</tspan></text>
  </g>
</svg>
