<?xml version="1.0" encoding="UTF-8" standalone="no"?>
<!-- Created with Inkscape (http://www.inkscape.org/) -->

<svg
   id="svg2"
   version="1.1"
   inkscape:version="1.2.2 (b0a8486541, 2022-12-01, custom)"
   width="2481"
   height="3503"
   sodipodi:docname="E36P05.svg"
   xmlns:inkscape="http://www.inkscape.org/namespaces/inkscape"
   xmlns:sodipodi="http://sodipodi.sourceforge.net/DTD/sodipodi-0.dtd"
   xmlns:xlink="http://www.w3.org/1999/xlink"
   xmlns="http://www.w3.org/2000/svg"
   xmlns:svg="http://www.w3.org/2000/svg"
   xmlns:rdf="http://www.w3.org/1999/02/22-rdf-syntax-ns#"
   xmlns:cc="http://creativecommons.org/ns#"
   xmlns:dc="http://purl.org/dc/elements/1.1/">
  <metadata
     id="metadata8">
    <rdf:RDF>
      <cc:Work
         rdf:about="">
        <dc:format>image/svg+xml</dc:format>
        <dc:type
           rdf:resource="http://purl.org/dc/dcmitype/StillImage" />
        <dc:title />
      </cc:Work>
    </rdf:RDF>
  </metadata>
  <defs
     id="defs6">
    <filter
       inkscape:collect="always"
       style="color-interpolation-filters:sRGB"
       id="filter71410"
       x="-0.017062446"
       y="-0.056154443"
       width="1.0341249"
       height="1.1123089">
      <feGaussianBlur
         inkscape:collect="always"
         stdDeviation="2.9583482"
         id="feGaussianBlur71412" />
    </filter>
    <filter
       style="color-interpolation-filters:sRGB"
       id="filter4375-4-1-1-1-9-5-8-8-53"
       inkscape:label="soundFX1-Hippiah"
       x="-0.0014349399"
       y="-0.0055581411"
       width="1.0206821"
       height="1.0801105">
      <feFlood
         id="feFlood4377-7-9-0-8-1-7-3-1-4"
         flood-opacity="1"
         flood-color="rgb(43,143,96)"
         result="flood" />
      <feComposite
         id="feComposite4379-3-8-8-2-77-4-1-0-9"
         in2="SourceGraphic"
         in="flood"
         operator="in"
         result="composite1"
         baseFrequency="0.053999999999999999 0.053999999999999999" />
      <feMorphology
         id="feMorphology4393-1-0-49-8-9-3-0-1-0"
         operator="dilate"
         radius="6.2000000000000002"
         result="result3" />
      <feComposite
         id="feComposite4385-9-5-7-0-8-8-7-5-20"
         in2="result3"
         in="SourceGraphic"
         operator="over"
         result="fbSourceGraphic" />
      <feColorMatrix
         result="fbSourceGraphicAlpha"
         in="fbSourceGraphic"
         values="0 0 0 -1 0 0 0 0 -1 0 0 0 0 -1 0 0 0 0 1 0"
         id="feColorMatrix4544-9-1" />
      <feTurbulence
         id="feTurbulence4546-3-96"
         type="fractalNoise"
         numOctaves="5"
         seed="174"
         baseFrequency="0.053999999999999999 0.054054054054054057"
         result="turbulence" />
      <feDisplacementMap
         id="feDisplacementMap4548-8-21"
         in2="turbulence"
         in="fbSourceGraphic"
         scale="6.6"
         yChannelSelector="G"
         xChannelSelector="R"
         result="fbSourceGraphic" />
      <feColorMatrix
         result="fbSourceGraphicAlpha"
         in="fbSourceGraphic"
         values="0 0 0 -1 0 0 0 0 -1 0 0 0 0 -1 0 0 0 0 1 0"
         id="feColorMatrix4670-7-2" />
      <feFlood
         id="feFlood4672-4-0"
         flood-opacity="1"
         flood-color="rgb(39,84,60)"
         result="flood"
         in="fbSourceGraphic" />
      <feComposite
         id="feComposite4674-8-73"
         in2="fbSourceGraphic"
         in="flood"
         operator="in"
         result="composite1" />
      <feGaussianBlur
         id="feGaussianBlur4676-3-1"
         in="composite1"
         stdDeviation="0"
         result="blur" />
      <feOffset
         id="feOffset4678-6-1"
         dx="6"
         dy="6"
         result="offset" />
      <feComposite
         id="feComposite4680-4-90"
         in2="offset"
         in="fbSourceGraphic"
         operator="over"
         result="composite2" />
    </filter>
    <filter
       style="color-interpolation-filters:sRGB"
       id="filter4375-4-1-1-1-9-5-8-8-53-3"
       inkscape:label="soundFX1-Hippiah"
       x="-0.023900678"
       y="-0.07417535"
       width="1.0692582"
       height="1.2149418">
      <feFlood
         id="feFlood4377-7-9-0-8-1-7-3-1-4-1"
         flood-opacity="1"
         flood-color="rgb(47,114,125)"
         result="flood" />
      <feComposite
         id="feComposite4379-3-8-8-2-77-4-1-0-9-9"
         in2="SourceGraphic"
         in="flood"
         operator="in"
         result="composite1"
         baseFrequency="0.053999999999999999 0.053999999999999999" />
      <feMorphology
         id="feMorphology4393-1-0-49-8-9-3-0-1-0-4"
         operator="dilate"
         radius="6.2000000000000002"
         result="result3" />
      <feComposite
         id="feComposite4385-9-5-7-0-8-8-7-5-20-7"
         in2="result3"
         in="SourceGraphic"
         operator="over"
         result="fbSourceGraphic" />
      <feColorMatrix
         result="fbSourceGraphicAlpha"
         in="fbSourceGraphic"
         values="0 0 0 -1 0 0 0 0 -1 0 0 0 0 -1 0 0 0 0 1 0"
         id="feColorMatrix4544-9-1-8" />
      <feTurbulence
         id="feTurbulence4546-3-96-4"
         type="fractalNoise"
         numOctaves="5"
         seed="174"
         baseFrequency="0.053999999999999999 0.054054054054054057"
         result="turbulence" />
      <feDisplacementMap
         id="feDisplacementMap4548-8-21-5"
         in2="turbulence"
         in="fbSourceGraphic"
         scale="6.6"
         yChannelSelector="G"
         xChannelSelector="R"
         result="fbSourceGraphic" />
      <feColorMatrix
         result="fbSourceGraphicAlpha"
         in="fbSourceGraphic"
         values="0 0 0 -1 0 0 0 0 -1 0 0 0 0 -1 0 0 0 0 1 0"
         id="feColorMatrix4670-7-2-0" />
      <feFlood
         id="feFlood4672-4-0-3"
         flood-opacity="1"
         flood-color="rgb(39,84,60)"
         result="flood"
         in="fbSourceGraphic" />
      <feComposite
         id="feComposite4674-8-73-6"
         in2="fbSourceGraphic"
         in="flood"
         operator="in"
         result="composite1" />
      <feGaussianBlur
         id="feGaussianBlur4676-3-1-1"
         in="composite1"
         stdDeviation="0"
         result="blur" />
      <feOffset
         id="feOffset4678-6-1-0"
         dx="6"
         dy="6"
         result="offset" />
      <feComposite
         id="feComposite4680-4-90-6"
         in2="offset"
         in="fbSourceGraphic"
         operator="over"
         result="composite2" />
    </filter>
    <filter
       style="color-interpolation-filters:sRGB"
       id="filter5561-7-8-9"
       inkscape:label="Roughen"
       x="-0.017430782"
       y="-0.066391358"
       width="1.0348616"
       height="1.1327827">
      <feFlood
         id="feFlood5563-4-9-0"
         flood-opacity="1"
         flood-color="rgb(88,149,175)"
         result="flood" />
      <feComposite
         id="feComposite5565-6-3-0"
         in2="SourceGraphic"
         in="flood"
         operator="in"
         result="composite1" />
      <feMorphology
         id="feMorphology5567-3-48-3"
         operator="dilate"
         radius="5.2907629363257902"
         result="result3" />
      <feComposite
         id="feComposite5569-6-6-5"
         in2="result3"
         in="SourceGraphic"
         operator="over"
         result="fbSourceGraphic" />
      <feColorMatrix
         result="fbSourceGraphicAlpha"
         in="fbSourceGraphic"
         values="0 0 0 -1 0 0 0 0 -1 0 0 0 0 -1 0 0 0 0 1 0"
         id="feColorMatrix4681-5-3" />
      <feTurbulence
         id="feTurbulence4683-3-9"
         type="fractalNoise"
         numOctaves="1"
         seed="33"
         baseFrequency="0.016687459970111018 0.019900000000000001"
         result="turbulence" />
      <feDisplacementMap
         id="feDisplacementMap4685-0-6"
         in2="turbulence"
         in="fbSourceGraphic"
         scale="37.8"
         yChannelSelector="G"
         xChannelSelector="R" />
    </filter>
    <filter
       style="color-interpolation-filters:sRGB"
       id="filter5561-7-8-9-6"
       inkscape:label="Roughen"
       x="-0.01045755"
       y="-0.081698771"
       width="1.0209151"
       height="1.1633975">
      <feFlood
         id="feFlood5563-4-9-0-9"
         flood-opacity="1"
         flood-color="rgb(145,96,23)"
         result="flood" />
      <feComposite
         id="feComposite5565-6-3-0-3"
         in2="SourceGraphic"
         in="flood"
         operator="in"
         result="composite1" />
      <feMorphology
         id="feMorphology5567-3-48-3-7"
         operator="dilate"
         radius="5.2907629363257902"
         result="result3" />
      <feComposite
         id="feComposite5569-6-6-5-4"
         in2="result3"
         in="SourceGraphic"
         operator="over"
         result="fbSourceGraphic" />
      <feColorMatrix
         result="fbSourceGraphicAlpha"
         in="fbSourceGraphic"
         values="0 0 0 -1 0 0 0 0 -1 0 0 0 0 -1 0 0 0 0 1 0"
         id="feColorMatrix4681-5-3-5" />
      <feTurbulence
         id="feTurbulence4683-3-9-2"
         type="fractalNoise"
         numOctaves="3"
         seed="33"
         baseFrequency="0.025919978584009393 0.010629603437233135"
         result="turbulence" />
      <feDisplacementMap
         id="feDisplacementMap4685-0-6-5"
         in2="turbulence"
         in="fbSourceGraphic"
         scale="37.8"
         yChannelSelector="G"
         xChannelSelector="R" />
    </filter>
    <filter
       style="color-interpolation-filters:sRGB"
       id="filter5561-7-8-9-4"
       inkscape:label="Roughen"
       x="-0.012824792"
       y="-0.066730866"
       width="1.0256496"
       height="1.1334617">
      <feFlood
         id="feFlood5563-4-9-0-3"
         flood-opacity="1"
         flood-color="rgb(88,149,175)"
         result="flood" />
      <feComposite
         id="feComposite5565-6-3-0-0"
         in2="SourceGraphic"
         in="flood"
         operator="in"
         result="composite1" />
      <feMorphology
         id="feMorphology5567-3-48-3-78"
         operator="dilate"
         radius="5.2907629363257902"
         result="result3" />
      <feComposite
         id="feComposite5569-6-6-5-6"
         in2="result3"
         in="SourceGraphic"
         operator="over"
         result="fbSourceGraphic" />
      <feColorMatrix
         result="fbSourceGraphicAlpha"
         in="fbSourceGraphic"
         values="0 0 0 -1 0 0 0 0 -1 0 0 0 0 -1 0 0 0 0 1 0"
         id="feColorMatrix4681-5-3-8" />
      <feTurbulence
         id="feTurbulence4683-3-9-8"
         type="fractalNoise"
         numOctaves="1"
         seed="33"
         baseFrequency="0.016687459970111018 0.019900000000000001"
         result="turbulence" />
      <feDisplacementMap
         id="feDisplacementMap4685-0-6-4"
         in2="turbulence"
         in="fbSourceGraphic"
         scale="37.8"
         yChannelSelector="G"
         xChannelSelector="R" />
    </filter>
    <filter
       style="color-interpolation-filters:sRGB"
       id="filter4375-4-1-1-1-9-5-8-3-4"
       inkscape:label="Drop Shadow"
       x="-0.01586154"
       y="-0.080310818"
       width="1.0463089"
       height="1.2344733">
      <feFlood
         id="feFlood4377-7-9-0-8-1-7-3-6"
         flood-opacity="1"
         flood-color="rgb(39,39,39)"
         result="flood" />
      <feComposite
         id="feComposite4379-3-8-8-2-77-4-1-7"
         in2="SourceGraphic"
         in="flood"
         operator="in"
         result="composite1" />
      <feMorphology
         id="feMorphology4393-1-0-49-8-9-3-0-5"
         operator="dilate"
         radius="6.2000000000000002"
         result="result3" />
      <feComposite
         id="feComposite4385-9-5-7-0-8-8-7-3"
         in2="result3"
         in="SourceGraphic"
         operator="over"
         result="fbSourceGraphic" />
      <feColorMatrix
         result="fbSourceGraphicAlpha"
         in="fbSourceGraphic"
         values="0 0 0 -1 0 0 0 0 -1 0 0 0 0 -1 0 0 0 0 1 0"
         id="feColorMatrix4544-5" />
      <feTurbulence
         id="feTurbulence4546-6"
         type="fractalNoise"
         numOctaves="3"
         seed="37"
         baseFrequency="0.129 0.0050000000000000001"
         result="turbulence" />
      <feDisplacementMap
         id="feDisplacementMap4548-2"
         in2="turbulence"
         in="fbSourceGraphic"
         scale="6.6"
         yChannelSelector="G"
         xChannelSelector="R"
         result="fbSourceGraphic" />
      <feColorMatrix
         result="fbSourceGraphicAlpha"
         in="fbSourceGraphic"
         values="0 0 0 -1 0 0 0 0 -1 0 0 0 0 -1 0 0 0 0 1 0"
         id="feColorMatrix4670-9-3" />
      <feFlood
         id="feFlood4672-1-0"
         flood-opacity="0.40999999999999998"
         flood-color="rgb(34,52,102)"
         result="flood"
         in="fbSourceGraphic" />
      <feComposite
         id="feComposite4674-2-3"
         in2="fbSourceGraphic"
         in="flood"
         operator="in"
         result="composite1" />
      <feGaussianBlur
         id="feGaussianBlur4676-7"
         in="composite1"
         stdDeviation="0"
         result="blur" />
      <feOffset
         id="feOffset4678-0-0"
         dx="6"
         dy="6"
         result="offset" />
      <feComposite
         id="feComposite4680-9"
         in2="offset"
         in="fbSourceGraphic"
         operator="over"
         result="composite2" />
    </filter>
    <filter
       style="color-interpolation-filters:sRGB"
       id="filter4375-4-1-1-1-9-5-8-3-4-2"
       inkscape:label="Drop Shadow"
       x="-0.014565335"
       y="-0.080310818"
       width="1.0425246"
       height="1.2344733">
      <feFlood
         id="feFlood4377-7-9-0-8-1-7-3-6-0"
         flood-opacity="1"
         flood-color="rgb(39,39,39)"
         result="flood" />
      <feComposite
         id="feComposite4379-3-8-8-2-77-4-1-7-6"
         in2="SourceGraphic"
         in="flood"
         operator="in"
         result="composite1" />
      <feMorphology
         id="feMorphology4393-1-0-49-8-9-3-0-5-8"
         operator="dilate"
         radius="6.2000000000000002"
         result="result3" />
      <feComposite
         id="feComposite4385-9-5-7-0-8-8-7-3-9"
         in2="result3"
         in="SourceGraphic"
         operator="over"
         result="fbSourceGraphic" />
      <feColorMatrix
         result="fbSourceGraphicAlpha"
         in="fbSourceGraphic"
         values="0 0 0 -1 0 0 0 0 -1 0 0 0 0 -1 0 0 0 0 1 0"
         id="feColorMatrix4544-5-2" />
      <feTurbulence
         id="feTurbulence4546-6-6"
         type="fractalNoise"
         numOctaves="3"
         seed="37"
         baseFrequency="0.129 0.0050000000000000001"
         result="turbulence" />
      <feDisplacementMap
         id="feDisplacementMap4548-2-6"
         in2="turbulence"
         in="fbSourceGraphic"
         scale="6.6"
         yChannelSelector="G"
         xChannelSelector="R"
         result="fbSourceGraphic" />
      <feColorMatrix
         result="fbSourceGraphicAlpha"
         in="fbSourceGraphic"
         values="0 0 0 -1 0 0 0 0 -1 0 0 0 0 -1 0 0 0 0 1 0"
         id="feColorMatrix4670-9-3-4" />
      <feFlood
         id="feFlood4672-1-0-9"
         flood-opacity="0.40999999999999998"
         flood-color="rgb(34,52,102)"
         result="flood"
         in="fbSourceGraphic" />
      <feComposite
         id="feComposite4674-2-3-5"
         in2="fbSourceGraphic"
         in="flood"
         operator="in"
         result="composite1" />
      <feGaussianBlur
         id="feGaussianBlur4676-7-0"
         in="composite1"
         stdDeviation="0"
         result="blur" />
      <feOffset
         id="feOffset4678-0-0-4"
         dx="6"
         dy="6"
         result="offset" />
      <feComposite
         id="feComposite4680-9-8"
         in2="offset"
         in="fbSourceGraphic"
         operator="over"
         result="composite2" />
    </filter>
    <filter
       style="color-interpolation-filters:sRGB"
       id="filter4375-4-1-1-1-9-5-8-3-4-2-2"
       inkscape:label="Drop Shadow"
       x="-0.015293586"
       y="-0.079944181"
       width="1.0446507"
       height="1.2334029">
      <feFlood
         id="feFlood4377-7-9-0-8-1-7-3-6-0-2"
         flood-opacity="1"
         flood-color="rgb(39,39,39)"
         result="flood" />
      <feComposite
         id="feComposite4379-3-8-8-2-77-4-1-7-6-6"
         in2="SourceGraphic"
         in="flood"
         operator="in"
         result="composite1" />
      <feMorphology
         id="feMorphology4393-1-0-49-8-9-3-0-5-8-1"
         operator="dilate"
         radius="6.2000000000000002"
         result="result3" />
      <feComposite
         id="feComposite4385-9-5-7-0-8-8-7-3-9-0"
         in2="result3"
         in="SourceGraphic"
         operator="over"
         result="fbSourceGraphic" />
      <feColorMatrix
         result="fbSourceGraphicAlpha"
         in="fbSourceGraphic"
         values="0 0 0 -1 0 0 0 0 -1 0 0 0 0 -1 0 0 0 0 1 0"
         id="feColorMatrix4544-5-2-6" />
      <feTurbulence
         id="feTurbulence4546-6-6-1"
         type="fractalNoise"
         numOctaves="3"
         seed="37"
         baseFrequency="0.129 0.0050000000000000001"
         result="turbulence" />
      <feDisplacementMap
         id="feDisplacementMap4548-2-6-5"
         in2="turbulence"
         in="fbSourceGraphic"
         scale="6.6"
         yChannelSelector="G"
         xChannelSelector="R"
         result="fbSourceGraphic" />
      <feColorMatrix
         result="fbSourceGraphicAlpha"
         in="fbSourceGraphic"
         values="0 0 0 -1 0 0 0 0 -1 0 0 0 0 -1 0 0 0 0 1 0"
         id="feColorMatrix4670-9-3-4-9" />
      <feFlood
         id="feFlood4672-1-0-9-4"
         flood-opacity="0.40999999999999998"
         flood-color="rgb(34,52,102)"
         result="flood"
         in="fbSourceGraphic" />
      <feComposite
         id="feComposite4674-2-3-5-9"
         in2="fbSourceGraphic"
         in="flood"
         operator="in"
         result="composite1" />
      <feGaussianBlur
         id="feGaussianBlur4676-7-0-0"
         in="composite1"
         stdDeviation="0"
         result="blur" />
      <feOffset
         id="feOffset4678-0-0-4-9"
         dx="6"
         dy="6"
         result="offset" />
      <feComposite
         id="feComposite4680-9-8-1"
         in2="offset"
         in="fbSourceGraphic"
         operator="over"
         result="composite2" />
    </filter>
    <filter
       style="color-interpolation-filters:sRGB"
       id="filter4375-4-1-1-1-9-5-8-3-4-2-2-9"
       inkscape:label="Drop Shadow"
       x="-0.01586154"
       y="-0.080310818"
       width="1.0463089"
       height="1.2344733">
      <feFlood
         id="feFlood4377-7-9-0-8-1-7-3-6-0-2-7"
         flood-opacity="1"
         flood-color="rgb(39,39,39)"
         result="flood" />
      <feComposite
         id="feComposite4379-3-8-8-2-77-4-1-7-6-6-7"
         in2="SourceGraphic"
         in="flood"
         operator="in"
         result="composite1" />
      <feMorphology
         id="feMorphology4393-1-0-49-8-9-3-0-5-8-1-6"
         operator="dilate"
         radius="6.2000000000000002"
         result="result3" />
      <feComposite
         id="feComposite4385-9-5-7-0-8-8-7-3-9-0-7"
         in2="result3"
         in="SourceGraphic"
         operator="over"
         result="fbSourceGraphic" />
      <feColorMatrix
         result="fbSourceGraphicAlpha"
         in="fbSourceGraphic"
         values="0 0 0 -1 0 0 0 0 -1 0 0 0 0 -1 0 0 0 0 1 0"
         id="feColorMatrix4544-5-2-6-3" />
      <feTurbulence
         id="feTurbulence4546-6-6-1-6"
         type="fractalNoise"
         numOctaves="3"
         seed="37"
         baseFrequency="0.129 0.0050000000000000001"
         result="turbulence" />
      <feDisplacementMap
         id="feDisplacementMap4548-2-6-5-5"
         in2="turbulence"
         in="fbSourceGraphic"
         scale="6.6"
         yChannelSelector="G"
         xChannelSelector="R"
         result="fbSourceGraphic" />
      <feColorMatrix
         result="fbSourceGraphicAlpha"
         in="fbSourceGraphic"
         values="0 0 0 -1 0 0 0 0 -1 0 0 0 0 -1 0 0 0 0 1 0"
         id="feColorMatrix4670-9-3-4-9-6" />
      <feFlood
         id="feFlood4672-1-0-9-4-3"
         flood-opacity="0.40999999999999998"
         flood-color="rgb(34,52,102)"
         result="flood"
         in="fbSourceGraphic" />
      <feComposite
         id="feComposite4674-2-3-5-9-9"
         in2="fbSourceGraphic"
         in="flood"
         operator="in"
         result="composite1" />
      <feGaussianBlur
         id="feGaussianBlur4676-7-0-0-4"
         in="composite1"
         stdDeviation="0"
         result="blur" />
      <feOffset
         id="feOffset4678-0-0-4-9-8"
         dx="6"
         dy="6"
         result="offset" />
      <feComposite
         id="feComposite4680-9-8-1-1"
         in2="offset"
         in="fbSourceGraphic"
         operator="over"
         result="composite2" />
    </filter>
    <filter
       style="color-interpolation-filters:sRGB"
       id="filter4375-4-1-1-1-9-5-8-3-4-2-2-9-8"
       inkscape:label="Drop Shadow"
       x="-0.01586154"
       y="-0.080310818"
       width="1.0463089"
       height="1.2344733">
      <feFlood
         id="feFlood4377-7-9-0-8-1-7-3-6-0-2-7-8"
         flood-opacity="1"
         flood-color="rgb(39,39,39)"
         result="flood" />
      <feComposite
         id="feComposite4379-3-8-8-2-77-4-1-7-6-6-7-5"
         in2="SourceGraphic"
         in="flood"
         operator="in"
         result="composite1" />
      <feMorphology
         id="feMorphology4393-1-0-49-8-9-3-0-5-8-1-6-0"
         operator="dilate"
         radius="6.2000000000000002"
         result="result3" />
      <feComposite
         id="feComposite4385-9-5-7-0-8-8-7-3-9-0-7-9"
         in2="result3"
         in="SourceGraphic"
         operator="over"
         result="fbSourceGraphic" />
      <feColorMatrix
         result="fbSourceGraphicAlpha"
         in="fbSourceGraphic"
         values="0 0 0 -1 0 0 0 0 -1 0 0 0 0 -1 0 0 0 0 1 0"
         id="feColorMatrix4544-5-2-6-3-6" />
      <feTurbulence
         id="feTurbulence4546-6-6-1-6-3"
         type="fractalNoise"
         numOctaves="3"
         seed="37"
         baseFrequency="0.129 0.0050000000000000001"
         result="turbulence" />
      <feDisplacementMap
         id="feDisplacementMap4548-2-6-5-5-8"
         in2="turbulence"
         in="fbSourceGraphic"
         scale="6.6"
         yChannelSelector="G"
         xChannelSelector="R"
         result="fbSourceGraphic" />
      <feColorMatrix
         result="fbSourceGraphicAlpha"
         in="fbSourceGraphic"
         values="0 0 0 -1 0 0 0 0 -1 0 0 0 0 -1 0 0 0 0 1 0"
         id="feColorMatrix4670-9-3-4-9-6-5" />
      <feFlood
         id="feFlood4672-1-0-9-4-3-6"
         flood-opacity="0.40999999999999998"
         flood-color="rgb(34,52,102)"
         result="flood"
         in="fbSourceGraphic" />
      <feComposite
         id="feComposite4674-2-3-5-9-9-1"
         in2="fbSourceGraphic"
         in="flood"
         operator="in"
         result="composite1" />
      <feGaussianBlur
         id="feGaussianBlur4676-7-0-0-4-1"
         in="composite1"
         stdDeviation="0"
         result="blur" />
      <feOffset
         id="feOffset4678-0-0-4-9-8-5"
         dx="6"
         dy="6"
         result="offset" />
      <feComposite
         id="feComposite4680-9-8-1-1-9"
         in2="offset"
         in="fbSourceGraphic"
         operator="over"
         result="composite2" />
    </filter>
  </defs>
  <sodipodi:namedview
     pagecolor="#1e1e1e"
     bordercolor="#111111"
     borderopacity="1"
     objecttolerance="10"
     gridtolerance="10"
     guidetolerance="10"
     inkscape:pageopacity="0"
     inkscape:pageshadow="2"
     inkscape:window-width="1832"
     inkscape:window-height="1016"
     id="namedview4"
     showgrid="false"
     inkscape:zoom="0.4665165"
     inkscape:cx="1187.525"
     inkscape:cy="687.00678"
     inkscape:window-x="88"
     inkscape:window-y="27"
     inkscape:window-maximized="1"
     inkscape:current-layer="layer1"
     inkscape:pagecheckerboard="0"
     inkscape:snap-global="false"
     inkscape:showpageshadow="2"
     inkscape:deskcolor="#1e1e1e" />
  <g
     inkscape:groupmode="layer"
     id="layer2"
     inkscape:label="artwork"
     sodipodi:insensitive="true">
    <image
       xlink:href="../gfx_Pepper-and-Carrot_by-David-Revoy_E36P05.png"
       y="0"
       x="0"
       id="image10"
       height="3503"
       width="2481" />
  </g>
  <g
     inkscape:groupmode="layer"
     id="layer4"
     inkscape:label="speechbubbles-whisper"
     style="display:inline;opacity:0.7;mix-blend-mode:screen;filter:url(#filter71410)">
    <path
       style="fill:#cdf0ff;fill-opacity:1;stroke:none;stroke-width:0.681054"
       d="m 1525.4766,758.75704 c -47.4527,0.44182 -95.2345,0.93354 -142.0631,12.99765 -20.4396,5.18095 -40.277,18.01323 -54.9514,38.98071 -12.0491,18.39577 -17.74,43.41689 -19.0312,67.99527 -0.898,17.44494 0.2495,35.23241 4.0229,51.93564 3.9787,16.21783 11.7731,30.96667 22.629,39.19785 14.3954,11.83787 31.1375,15.78185 47.4235,18.94436 36.7003,6.73842 73.7895,4.97139 110.6993,6.11019 45.5027,0.63232 90.9931,-1.42637 136.489,-2.06037 13.9682,-0.55874 28.3224,-1.92742 41.3294,-9.72981 10.3681,-6.11951 19.6431,-16.39394 25.4298,-30.08153 6.5086,-14.80069 9.0716,-32.34005 9.4148,-49.55887 1.3042,-24.26721 0.5342,-49.56617 -6.5727,-72.12466 -6.7188,-20.3665 -19.5502,-35.8505 -34.0752,-44.6183 -16.58,-10.59525 -34.4639,-16.41947 -52.3462,-20.71443 -29.2022,-6.66412 -58.8799,-7.38457 -88.3979,-7.2737 z"
       id="path3280-8-0"
       inkscape:connector-curvature="0"
       sodipodi:nodetypes="csssc" />
    <path
       style="display:inline;opacity:1;mix-blend-mode:normal;fill:#cdf0ff;fill-opacity:1;stroke:none;stroke-width:0.640728;filter:url(#filter71410)"
       d="m 1510.5889,648.50693 c -57.9256,0.32037 -116.2529,0.67687 -173.4167,9.42412 -24.9506,3.75651 -49.1663,13.06071 -67.0794,28.26344 -14.7083,13.33809 -21.6553,31.47996 -23.2313,49.30083 -1.0962,12.64866 0.3045,25.54568 4.9107,37.65657 4.8569,11.75895 14.3714,22.45277 27.6234,28.42089 17.5723,8.58321 38.0095,11.44282 57.8897,13.73586 44.8003,4.88577 90.0751,3.60455 135.1312,4.43026 55.5452,0.45847 111.0753,-1.03421 166.6123,-1.49391 17.0511,-0.40512 34.5732,-1.39749 50.4508,-7.05471 12.6564,-4.43702 23.9784,-11.88663 31.0422,-21.81098 7.9453,-10.73144 11.0738,-23.44857 11.4929,-35.93328 1.5918,-17.59524 0.6519,-35.93857 -8.0235,-52.29489 -8.2017,-14.76698 -23.865,-25.99384 -41.5956,-32.35105 -20.2391,-7.68221 -42.0703,-11.90514 -63.8991,-15.01926 -35.6474,-4.8319 -71.8749,-5.35427 -107.9076,-5.27389 z"
       id="path3280-8-0-5"
       inkscape:connector-curvature="0"
       sodipodi:nodetypes="csssc"
       transform="matrix(1.2519389,0,0,0.81229317,-357.22859,140.903)" />
    <path
       style="color:#000000;display:inline;overflow:visible;visibility:visible;fill:#cdf0ff;fill-opacity:1;fill-rule:nonzero;stroke:none;stroke-width:1.58328px;marker:none;enable-background:accumulate"
       d="m 326.90207,376.07864 c -39.68681,1.17869 -79.43452,3.92552 -118.66618,11.13978 -15.97403,3.21353 -32.14362,7.34426 -46.48384,16.32603 -13.44778,9.04994 -23.30998,24.08802 -28.8633,40.593 -3.33482,10.31525 -5.3028,21.13179 -7.0603,31.91933 -3.38673,22.37605 -4.31436,45.12702 -4.71488,67.79364 0.25831,20.06957 2.65323,40.74906 11.14499,58.61843 10.59746,21.82607 27.82638,39.78602 48.48621,48.27733 23.3156,8.98136 48.15983,10.12237 72.54152,10.86465 90.07943,2.76251 180.32486,1.38772 270.18619,-6.65828 23.00304,-2.21656 46.14952,-4.03692 68.7431,-9.73634 11.03807,-2.88234 22.02808,-6.61065 32.10305,-12.6051 9.18092,-5.90543 16.35063,-15.44098 20.63608,-26.38948 7.1177,-16.94329 10.30998,-35.57469 12.97125,-53.99302 4.1722,-33.44036 2.28034,-68.41102 -8.68878,-100.00802 -5.7025,-16.50204 -14.68693,-32.17644 -27.90837,-41.95705 -10.60408,-8.10533 -23.15958,-12.04972 -35.67129,-14.06585 -23.79756,-4.72151 -47.96211,-6.05682 -71.96102,-8.83543 -56.42836,-5.27247 -112.93554,-9.92183 -169.5489,-11.4526 -5.75025,-0.0875 -11.4974,-0.0244 -17.24553,0.16898 z"
       id="path3365-7"
       inkscape:connector-curvature="0"
       sodipodi:nodetypes="cscsccc" />
    <path
       style="color:#000000;display:inline;overflow:visible;visibility:visible;fill:#cdf0ff;fill-opacity:1;fill-rule:nonzero;stroke:none;stroke-width:1.09113px;marker:none;enable-background:accumulate"
       d="m 133.62351,288.91454 c 4.62129,-67.38839 51.50262,-115.63409 171.66179,-100.01436 64.36381,8.36579 137.49028,14.60432 131.46817,113.34081 -6.0222,98.73651 -111.17778,93.63916 -132.92214,95.42251 -21.74449,1.78473 -134.71311,-11.33 -154.06727,-45.43725 -12.11529,-21.34991 -16.75903,-42.42177 -16.14055,-63.31171 z"
       id="path4546-6-21"
       inkscape:connector-curvature="0"
       sodipodi:nodetypes="cssssc" />
    <path
       style="color:#000000;display:inline;overflow:visible;visibility:visible;fill:#cdf0ff;fill-opacity:1;fill-rule:nonzero;stroke:none;stroke-width:1.16605px;marker:none;enable-background:accumulate"
       d="m 671.82297,815.61592 c 14.20538,41.64223 72.80893,79.82704 140.54241,43.45444 -32.92118,40.55438 -124.53586,65.24089 -171.50403,-17.32961 -18.24642,-32.07739 1.78122,-26.52969 8.86289,-31.46294 7.08181,-4.9333 22.09873,5.33811 22.09873,5.33811 z"
       id="path4064-5"
       inkscape:connector-curvature="0"
       sodipodi:nodetypes="ccszc" />
    <path
       style="color:#000000;display:inline;overflow:visible;visibility:visible;fill:#cdf0ff;fill-opacity:1;fill-rule:nonzero;stroke:none;stroke-width:1.07449px;marker:none;enable-background:accumulate"
       d="m 472.81274,638.04149 c -46.13776,1.53878 -92.35232,2.73774 -138.54604,1.7722 -50.36833,0.52909 -101.1438,7.55747 -146.18084,23.18264 -23.5866,8.89723 -41.73979,24.18814 -49.32537,41.77232 -8.24724,18.1661 -7.06693,37.46831 -5.04481,56.19229 1.65806,14.37235 4.24095,28.71126 8.06911,42.89135 6.6651,18.7415 24.80691,35.14824 48.30096,45.80477 21.68004,10.03955 47.13153,15.43817 72.54791,19.22912 38.81489,6.52156 78.54701,10.9362 118.58577,11.49391 47.87202,1.34089 95.95697,0.12562 143.41646,-4.45298 29.5945,-2.57977 59.28863,-4.75547 88.70111,-8.19556 26.70269,-3.73542 52.4429,-11.76112 72.50078,-24.43982 27.67674,-16.89856 46.49909,-40.90658 48.93948,-66.273 0.82758,-17.07509 1.54869,-34.18003 0.37802,-51.25508 -0.98357,-12 -3.39017,-24.35232 -12.13772,-35.01103 -10.54959,-13.35854 -28.04975,-23.88259 -48.20708,-30.25848 -26.25576,-8.62077 -55.16652,-12.34531 -83.62682,-15.95766 -39.0426,-4.6842 -78.73957,-6.67614 -118.37092,-6.49499 z"
       id="path4546-6-2"
       inkscape:connector-curvature="0"
       sodipodi:nodetypes="cssssssscc" />
    <path
       inkscape:connector-curvature="0"
       style="color:#000000;display:inline;overflow:visible;visibility:visible;fill:#cdf0ff;fill-opacity:1;fill-rule:nonzero;stroke:none;stroke-width:0.7127px;marker:none;enable-background:accumulate"
       d="m 1536.8016,101.80337 -20.2247,27.04329 -0.6317,-6.75989 -7.5882,5.21811 c -31.8933,-6.60013 -72.5002,-5.22468 -104.2808,-0.48508 l -8.8491,-4.73303 -1.2838,6.41047 c -1.449,0.26529 -2.8819,0.53528 -4.2774,0.8137 l -9.6075,-5.87295 1.2016,7.70679 c -0.1738,0.041 -0.3449,0.083 -0.5174,0.12463 l -13.324,-6.47893 2.4623,9.48193 c -0.6222,0.19862 -1.2314,0.39791 -1.825,0.59876 l -17.0703,-14.13681 6.903,18.46172 c -1.0058,0.57189 -1.8739,1.14514 -2.612,1.71905 l -8.7156,-6.6598 4.275,11.1778 c -0.9685,1.06818 -1.8834,2.1119 -2.7606,3.13868 l -10.994,-1.46981 6.1035,7.6176 c -7.2138,9.91765 -9.8716,18.31754 -9.3484,28.05866 0.105,1.95526 0.3022,3.84951 0.5802,5.68962 l -2.3916,4.60721 3.8284,2.04767 c 0.6178,2.17072 1.3653,4.25591 2.2363,6.2578 l -9.8577,12.65364 h 12.0084 l -10.1125,10.81735 18.8805,-7.57239 c 0.2396,0.24201 0.4854,0.47956 0.7298,0.71837 l -6.3376,12.93953 13.2727,-4.05738 -12.64,14.87473 25.9126,-8.78922 -3.7918,15.55037 16.4329,-10.1417 1.5019,-0.0254 c 4.5177,1.74068 9.2237,3.35241 14.0858,4.85646 25.6478,7.93381 73.569,2.68289 107.7953,-5.66279 l 16.9274,7.59314 -5.5222,-10.63164 c 0.3612,-0.10577 0.7036,-0.21383 1.0598,-0.32011 l 17.7349,11.62732 -3.7919,-9.46479 17.0647,8.11238 -10.7441,-16.22602 9.4796,4.73302 -6.6813,-8.16854 c 0.782,-0.47867 1.5603,-0.97994 2.3344,-1.50284 l 8.7717,2.23465 -5.4344,-4.65001 c 1.2876,-0.99449 2.553,-2.04544 3.785,-3.15329 l 13.6576,3.74585 -7.4729,-10.12462 c 0.7471,-0.88589 1.4728,-1.79237 2.1689,-2.72086 h 10.3603 l -4.7445,-9.22657 c 6.7409,-14.16969 6.5833,-31.28727 -8.6366,-47.65425 l 2.637,-5.99512 -7.5849,0.67564 0.6329,-18.92972 -12.0095,6.7599 3.7929,-14.19789 -7.5849,6.76115 0.6316,-25.0153 z"
       id="path4040-0" />
    <path
       style="color:#000000;display:inline;overflow:visible;visibility:visible;fill:#cdf0ff;fill-opacity:1;fill-rule:nonzero;stroke:none;stroke-width:1.0095px;marker:none;enable-background:accumulate"
       d="m 1555.5293,187.06396 c -30.0498,0.11683 -60.6481,4.85061 -87.1444,16.97028 -21.9823,10.84887 -36.6351,31.29585 -37.0815,52.51254 -0.6183,9.54938 1.1798,19.84255 8.7388,27.44604 7.6146,7.9071 17.9613,13.6889 28.704,18.32386 18.867,7.35179 40.0732,8.07668 60.5185,9.34063 52.3494,3.08134 104.9162,1.90588 157.2542,-0.71092 15.9432,-0.98614 32.4245,-3.29892 46.0738,-10.60708 11.6881,-6.36267 19.8672,-16.81831 22.2456,-28.21042 2.6957,-12.19992 0.2547,-24.83182 -4.5774,-36.45127 -3.5252,-8.05689 -8.3279,-15.9164 -15.3958,-22.25491 -7.1182,-6.10138 -16.6958,-9.9721 -26.7027,-11.57556 -15.4223,-3.1774 -31.2306,-4.79219 -46.7564,-7.56221 -34.9269,-5.08354 -70.4235,-7.3591 -105.8767,-7.22098 z"
       id="path3525"
       inkscape:connector-curvature="0" />
    <path
       style="color:#000000;display:inline;overflow:visible;visibility:visible;opacity:1;mix-blend-mode:normal;fill:#cdf0ff;fill-opacity:1;fill-rule:nonzero;stroke:none;stroke-width:1.1427px;marker:none;filter:url(#filter71410);enable-background:accumulate"
       d="m 1558.7077,251.21979 c -38.5028,0.11683 -77.7085,4.85061 -111.6582,16.97028 -28.166,10.84887 -46.9406,31.29585 -47.5126,52.51254 -0.7922,9.54938 1.5117,19.84255 11.1971,27.44604 9.7566,7.9071 23.0138,13.6889 36.7784,18.32386 24.1743,7.35179 51.3458,8.07668 77.5425,9.34063 67.0753,3.08134 134.4293,1.90588 201.49,-0.71092 20.428,-0.98614 41.5455,-3.29892 59.0344,-10.60708 14.9759,-6.36267 25.4559,-16.81831 28.5034,-28.21042 3.4539,-12.19992 0.3262,-24.83182 -5.8651,-36.45127 -4.5169,-8.05689 -10.6705,-15.9164 -19.7266,-22.25491 -9.1206,-6.10138 -21.3924,-9.9721 -34.2142,-11.57556 -19.7606,-3.1774 -40.0159,-4.79219 -59.909,-7.56221 -44.752,-5.08354 -90.2339,-7.3591 -135.6601,-7.22098 z"
       id="path3525-3"
       inkscape:connector-curvature="0"
       transform="matrix(1.1327308,0,0,1.0389355,-223.53206,-7.8474403)" />
    <path
       style="color:#000000;display:inline;overflow:visible;visibility:visible;fill:#cdf0ff;fill-opacity:1;fill-rule:nonzero;stroke:none;stroke-width:1.01303px;marker:none;enable-background:accumulate"
       d="m 1597.2558,371.70754 c 10.4512,19.41838 40.774,81.79773 50.6468,88.07436 2.8896,-9.82512 5.7473,-17.90146 11.17,-24.35407 7.0349,9.03181 16.3243,42.36729 48.0374,59.29587 -29.3145,-31.82897 -38.9085,-82.28038 -41.2774,-102.11115 -7.0014,10.53422 -13.5965,22.36641 -19.0054,34.45882 -8.2948,-14.89318 -25.007,-65.72521 -25.007,-65.72521 z"
       id="path5066"
       inkscape:connector-curvature="0"
       inkscape:transform-center-x="-84.299102"
       inkscape:transform-center-y="74.621182"
       sodipodi:nodetypes="cccccccc" />
    <path
       style="color:#000000;display:inline;overflow:visible;visibility:visible;fill:#cdf0ff;fill-opacity:1;fill-rule:nonzero;stroke:none;stroke-width:1.57616px;marker:none;enable-background:accumulate"
       d="m 1984.5052,791.60927 c -77.3298,1.00541 -157.6883,-1.78029 -230.5266,30.44791 -18.7582,8.58283 -38.3333,17.50709 -51.9011,34.48099 -23.1203,27.93682 -27.0335,70.1823 -14.0788,104.1032 9.6763,26.57648 29.8597,48.67933 55.033,58.60073 60.3594,32.5037 129.636,29.7181 195.2427,36.155 119.3774,5.702 240.398,5.1767 357.5473,-22.9009 41.2303,-14.9192 69.0089,-60.8592 67.8722,-106.79397 1.9264,-36.58148 -11.6431,-76.28649 -41.2287,-96.89947 -15.2206,-9.83992 -32.891,-14.24187 -50.0562,-18.52648 -38.0607,-8.32447 -77.0701,-9.03695 -115.5734,-13.69272 -57.3571,-4.01316 -114.8601,-5.21745 -172.3304,-4.97429 z"
       id="path4546"
       inkscape:connector-curvature="0"
       sodipodi:nodetypes="cssssc" />
    <path
       style="color:#000000;display:inline;overflow:visible;visibility:visible;fill:#cdf0ff;fill-opacity:1;fill-rule:nonzero;stroke:none;stroke-width:0.842081px;marker:none;enable-background:accumulate"
       d="m 1506.5532,595.26091 c 75.4519,60.39743 56.9468,85.78975 35.0694,108.60088 -9.7816,43.4519 27.8915,11.49337 27.8915,11.49337 0,0 16.3645,5.723 18.2949,-4.40932 5.7529,-30.19196 13.8625,-84.43858 -81.2558,-115.68493 z"
       id="path3072-7"
       inkscape:connector-curvature="0"
       sodipodi:nodetypes="cccsc" />
    <path
       style="color:#000000;display:inline;overflow:visible;visibility:visible;fill:#cdf0ff;fill-opacity:1;fill-rule:nonzero;stroke:none;stroke-width:0.8711px;marker:none;enable-background:accumulate"
       d="m 277.34097,1145.215 c 24.46978,-15.7636 277.03686,-30.9961 336.55916,3.7944 46.37331,27.1049 25.61101,105.0589 -10.12789,124.2324 -35.73893,19.1743 -208.28392,29.4293 -257.32418,21.6731 -44.09959,-6.9737 -90.38866,-23.4385 -92.82911,-70.8683 -0.99598,-19.3575 -0.74775,-63.0679 23.72202,-78.8316 z"
       id="path4040-5"
       inkscape:connector-curvature="0"
       sodipodi:nodetypes="zssssz" />
    <path
       style="color:#000000;display:inline;overflow:visible;visibility:visible;fill:#cdf0ff;fill-opacity:1;fill-rule:nonzero;stroke:none;stroke-width:0.872516px;marker:none;enable-background:accumulate"
       d="m 406.87389,1255.1023 c 7.94954,36.9036 7.20414,99.0576 -50.66037,104.8276 39.14102,-0.7724 74.40634,-0.2804 77.3845,-97.7159 0.96501,-31.5719 -10.96916,-19.1536 -16.68888,-19.9997 -5.7198,-0.8461 -10.03525,12.888 -10.03525,12.888 z"
       id="path4064-5-1"
       inkscape:connector-curvature="0"
       sodipodi:nodetypes="ccszc" />
    <path
       style="color:#000000;display:inline;overflow:visible;visibility:visible;fill:#cdf0ff;fill-opacity:1;fill-rule:nonzero;stroke:none;stroke-width:1.31264px;marker:none;enable-background:accumulate"
       d="m 730.74522,1249.4441 c 6.47179,-5.9701 34.9189,-24.0438 31.83381,-3.5846 45.88114,-26.1636 79.62975,-16.1529 114.06795,-8.1987 11.27502,-7.9276 15.15378,-20.2625 45.1963,-17.006 -2.52844,-8.0185 9.02715,-13.3723 33.15048,-16.349 -30.02175,-5.1804 -34.62217,-10.2131 24.30121,-14.8745 -43.81689,-1.0346 -84.57577,-2.5806 -28.97702,-20.1937 -16.07219,-0.6313 -57.82112,14.121 -30.0272,-30.1635 -30.97678,13.9167 -62.38245,21.4274 -92.94277,-8.8505 -14.05743,11.6469 -32.919,19.4006 -62.23177,2.9372 -9.63843,11.6112 -49.54359,12.1106 -63.62076,9.5613 26.53043,13.43 23.70968,21.5438 -16.54671,22.3337 61.7901,24.3693 7.79754,20.168 -4.33923,26.0185 50.82923,8.7464 25.02912,18.5677 13.41633,28.5233 60.42563,1.0597 37.0306,16.9649 36.71938,29.8465 z"
       id="path3549-3-3"
       inkscape:connector-curvature="0"
       sodipodi:nodetypes="ccccccccccccccc" />
    <path
       style="color:#000000;display:inline;overflow:visible;visibility:visible;fill:#cdf0ff;fill-opacity:1;fill-rule:nonzero;stroke:none;stroke-width:1.08739px;marker:none;enable-background:accumulate"
       d="m 1054.0353,1170.931 c -24.851,0.2708 -49.6928,1.211 -74.50805,2.4878 -24.56339,1.3563 -49.41799,3.7376 -72.7716,11.5415 -23.56239,8.0952 -42.85009,27.0548 -50.24732,49.9052 -3.35682,11.2062 -4.53423,22.9559 -4.2848,34.5846 0.45204,14.2167 3.32853,28.4791 9.24409,41.566 8.15367,15.0396 22.3983,25.9849 37.06098,35.0061 23.49956,13.841 51.07907,19.859 78.34636,22.0393 30.10834,2.7158 60.37004,3.1277 90.56604,4.3876 40.1853,0.7775 81.0385,-4.4352 118.2369,-19.4654 17.1565,-6.9954 33.8212,-16.8252 44.6777,-31.6302 10.0288,-13.787 13.8294,-31.0838 12.2338,-47.6591 -1.1337,-11.7161 -3.8424,-23.3993 -8.8104,-34.2011 -5.3619,-11.6292 -13.8291,-21.9757 -24.672,-29.4115 -17.4017,-12.5171 -38.1432,-19.7597 -58.7091,-26.0582 -31.151,-9.1288 -63.7955,-13.3493 -96.3626,-13.0926 z"
       id="path3525-0"
       inkscape:connector-curvature="0" />
    <path
       style="color:#000000;display:inline;overflow:visible;visibility:visible;fill:#cdf0ff;fill-opacity:1;fill-rule:nonzero;stroke:none;stroke-width:0.826729px;marker:none;enable-background:accumulate"
       d="m 857.93027,1278.1338 c -25.84472,-12.074 -72.33153,-26.7304 -120.7757,37.9223 2.50649,-13.8385 51.01915,-90.6993 133.13792,-64.4425 23.82869,7.6191 8.70285,12.8385 5.48327,18.4333 -3.21963,5.5949 -17.84549,8.0869 -17.84549,8.0869 z"
       id="path4064-5-5"
       inkscape:connector-curvature="0"
       sodipodi:nodetypes="ccszc" />
  </g>
  <g
     inkscape:groupmode="layer"
     id="layer3"
     inkscape:label="speechbubbles"
     style="display:inline">
    <path
       style="fill:#ffffff;fill-rule:evenodd;stroke:none;stroke-width:1.12112px;stroke-linecap:butt;stroke-linejoin:miter;stroke-opacity:1"
       d="m 1769.7468,2272.4595 c 1.1285,-22.1113 -9.6724,-63.1783 -48.4987,-20.2826 20.8633,-51.1394 6.264,-57.6216 -11.5917,-60.0028 16.9868,-18.4342 32.2701,-37.5994 18.3461,-69.2988 25.6249,-10.3624 35.0645,-36.1309 32.2911,-73.5246 20.0636,29.2108 39.5648,45.3444 55.5127,-21.1279 0.3918,52.0385 28.0473,61.4392 50.5536,5.9159 -8.3861,43.3235 -1.8397,54.4 15.8506,41.4104 -13.145,27.2641 -13.5592,47.9501 -0.5367,61.693 -30.034,28.839 -28.9937,46.3692 -3.3138,54.932 -44.3667,7.5195 -43.7153,43.308 -49.4378,70.1441 -14.905,-41.7496 -62.9392,-0.094 -59.1754,10.1413 z"
       id="path1087"
       inkscape:connector-curvature="0"
       sodipodi:nodetypes="cccccccccccc" />
    <path
       style="fill:#ffffff;fill-rule:evenodd;stroke:none;stroke-width:1.06373px;stroke-linecap:butt;stroke-linejoin:miter;stroke-opacity:1"
       d="m 1770.2493,2231.6638 c -19.0777,43.0082 -23.2758,54.3372 -25.8221,64.7397 -2.5463,10.4023 5.6859,6.8223 12.1263,2.8326 4.2084,-2.5888 21.9688,-21.8087 3.3636,9.5674 -18.6054,31.376 -43.0605,75.0078 -50.224,88.7479 16.3572,-24.1323 43.1378,-61.7395 51.3165,-73.8057 8.1784,-12.066 21.9004,-34.2199 25.6816,-40.8795 4.5995,-8.1013 6.3566,-16.4311 -2.0206,-15.2185 -13.6412,3.4217 -32.7515,33.0786 -0.2047,-18.3826 32.5467,-51.461 43.1335,-129.6409 43.1335,-129.6409 z"
       id="path1089"
       inkscape:connector-curvature="0"
       sodipodi:nodetypes="csccccscccc" />
    <path
       style="fill:#ffffff;fill-rule:evenodd;stroke:none;stroke-width:0.831706px;stroke-linecap:butt;stroke-linejoin:miter;stroke-opacity:1"
       d="m 2089.1948,2042.5405 c 9.4166,21.5114 20.7662,29.1104 37.7343,-3.7245 2.3125,14.6705 13.7478,28.4717 59.0934,-5.2702 -26.0259,38.4364 -15.1091,39.8147 0,36.9882 -21.9503,48.2289 -6.7376,48.3526 4.9838,44.1126 -26.9012,30.947 -23.3763,43.3188 -10.6795,50.0906 -9.0703,17.7859 -15.4069,34.7091 3.5597,43.6527 -14.8331,6.4979 -35.836,7.2569 -29.1906,33.7361 -19.617,-30.1872 -29.9942,-12.4155 -45.3597,6.4619 -12.1812,-14.2433 -30.8229,-32.8743 -64.9953,-4.1024 18.9252,-29.3587 11.4374,-41.8271 -3.5599,-49.4934 28.1754,-29.7325 6.1806,-35.852 -15.6633,-42.0415 39.4909,-8.3812 28.2675,-35.6906 17.7993,-62.7193 18.4904,3.2477 37.0465,6.9038 46.2778,-47.6908 z"
       id="path4489"
       inkscape:connector-curvature="0"
       sodipodi:nodetypes="cccccccccccccc" />
    <path
       style="display:inline;fill:#ffffff;fill-rule:evenodd;stroke:none;stroke-width:0.613269px;stroke-linecap:butt;stroke-linejoin:miter;stroke-opacity:1"
       d="m 2050.4839,2346.9651 c 30.4226,-62.3404 57.7024,-138.4267 45.1473,-145.322 l 45.6441,-4.5536 c 12.2842,-6.1841 -67.8344,105.652 -90.7914,149.8756 z"
       id="path1881"
       sodipodi:nodetypes="cccc" />
    <path
       style="fill:#ffffff;fill-rule:evenodd;stroke:none;stroke-width:0.706701px;stroke-linecap:butt;stroke-linejoin:miter;stroke-opacity:1"
       d="m 437.08718,2783.4913 c 38.64323,20.7317 95.68182,64.6268 45.22566,-26.8357 28.90546,20.2385 67.40738,61.9894 73.48981,23.7923 10.76301,12.7623 15.90719,7.4172 8.36948,-21.0537 29.22703,33.1891 40.80027,17.6559 55.57989,10.9718 19.88297,23.8822 31.87685,17.1455 36.51176,-18.1525 1.1607,72.3742 42.96614,15.308 77.03921,-19.0223 -0.92099,16.6602 -18.78898,64.8544 14.99108,16.945 -1.29748,24.0233 0.95207,43.3527 78.9565,-37.567 -31.30144,68.202 -15.01741,51.6854 3.08643,31.929 -24.98192,72.5991 49.39551,20.8012 69.99664,11.6358 -51.21143,39.8258 -96.92648,77.9724 3.69749,71.4097 -47.83892,25.5349 -48.04995,23.4186 -47.95748,37.8952 -22.10658,9.2217 -47.28384,27.7579 -56.45747,60.9096 -40.96085,-17.8323 -52.10342,2.5852 -50.73607,39.05 -41.22031,-51.1525 -63.78061,-48.2409 -65.21463,15.8807 -25.88889,-51.4483 -48.85245,-59.7096 -67.47477,-3.8812 -7.32638,-66.5615 -38.21771,-36.8846 -62.56766,-33.9225 -9.4387,-24.7391 -40.1441,-4.2797 -72.479,19.6428 46.7043,-61.9722 10.09816,-53.5621 -49.08156,-26.0816 68.97431,-49.079 56.59906,-65.0024 -17.60448,-55.7266 90.10003,-15.7503 68.41406,-54.3244 22.62917,-97.8188 z"
       id="path740849"
       sodipodi:nodetypes="cccccccccccccccccccccc" />
    <path
       style="fill:#ffffff;fill-rule:evenodd;stroke:none;stroke-width:0.910911px;stroke-linecap:butt;stroke-linejoin:miter;stroke-opacity:1"
       d="m 110.50303,3153.0574 c 84.69398,-61.6506 132.62721,-87.9244 220.79142,-142.6081 -8.43608,1.2231 -18.13823,0.5884 -36.54819,2.6486 47.80013,-34.1815 137.75272,-90.287 190.8497,-119.8511 l 42.30723,9.305 c -36.48936,23.0725 -107.8233,53.0522 -155.56427,84.5405 14.38575,1.1855 48.76877,-7.3758 55.37684,-3.8537 -117.74974,69.6321 -207.64929,108.2225 -317.21273,169.8188 z"
       id="path743009"
       sodipodi:nodetypes="cccccccc" />
    <path
       style="fill:#ffffff;fill-rule:evenodd;stroke:none;stroke-width:1.00961px;stroke-linecap:butt;stroke-linejoin:miter;stroke-opacity:1"
       d="m 969.29403,2814.1682 c 52.73427,34.419 90.95047,49.6883 39.81887,-52.8939 48.2758,32.8277 81.6196,35.587 66.4956,-59.2517 62.6279,65.7766 89.5646,62.9578 99.9402,28.31 64.7113,48.4731 115.4269,-0.5939 129.7334,-31.0677 30.5324,32.283 95.1172,35.1752 145.4304,-17.2822 -5.9151,31.3357 -26.9048,77.4885 88.7156,-10.6346 -47.5425,69.3282 -9.2925,74.9442 65.1158,47.4431 -45.1454,45.4774 -78.0911,88.6536 -11.4814,89.8307 -34.3941,19.2762 -21.9742,30.6099 -13.7603,33.9358 -29.2386,13.0132 -5.8868,21.6154 18.1942,30.1563 -68.4497,40.0865 -48.458,56.6219 -51.7307,79.3524 -56.1337,9.0944 -50.5471,26.4001 -53.3464,42.5902 -54.125,-65.7696 -59.6231,13.2563 -56.0299,33.2131 -23.7412,-64.3737 -69.1394,-25.7231 -101.2309,20.2685 23.9877,-65.6298 -8.8483,-99.773 -71.8613,-20.1748 5.2807,-29.3996 -15.6671,-82.9692 -82.7391,-4.4867 8.4836,-35.6684 -3.2421,-31.7758 -25.3599,-7.5399 21.9996,-63.7722 -44.1987,-38.0662 -80.848,-11.0928 5.5947,-31.2935 4.6584,-28.8325 -18.6017,-29.9753 -4.7358,-48.7182 -35.7402,-76.2056 -60.17075,-102.0676 18.37695,-15.5992 -18.68549,-45.5188 -26.28372,-58.6329 z"
       id="path745117"
       sodipodi:nodetypes="cccccccccccccccccccccc" />
    <path
       style="display:inline;fill:#ffffff;fill-rule:evenodd;stroke:none;stroke-width:1.08288px;stroke-linecap:butt;stroke-linejoin:miter;stroke-opacity:1"
       d="m 177.01783,2697.2946 c 46.94704,21.6368 73.68876,8.3633 72.88291,-52.5065 22.39813,63.6753 37.94144,76.888 47.1596,43.5373 29.65364,24.9975 48.17485,15.3651 62.87943,-6.1391 5.4808,25.2745 17.23438,13.7119 27.40645,11.4366 3.35028,5.5123 -8.15651,21.143 38.33107,-2.7246 3.01129,7.4349 7.06772,13.6947 34.29784,-6.0995 7.05448,30.6817 29.68849,-4.6372 52.87596,-42.3005 -14.44646,44.9309 -8.45607,50.4931 10.00358,32.0347 -8.43965,18.7461 -13.48737,33.1127 18.57791,-0.4382 -10.97749,34.1522 17.82206,8.6341 64.30858,-43.4165 -23.25327,37.3908 -84.91571,102.6042 -44.30142,93.7312 -5.66391,10.9066 -25.86678,21.9 34.29784,32.4137 -11.23192,8.1225 -45.52266,1.2036 -16.91797,28.1581 3.83242,3.1031 -8.99767,6.4792 15.48893,13.2457 -14.45472,0.7883 -23.31939,3.8794 -10.00357,16.107 -26.38516,1.8446 -16.51298,15.1053 2.85818,31.3568 -38.20942,-19.5416 -40.31218,-10.8782 -41.44335,-1.4556 -47.88759,-27.0523 -50.69861,-16.7885 -57.16297,-9.5492 -23.34165,2.5265 -46.6833,0.8099 -70.02494,38.4728 -6.11288,-21.411 -18.36842,-37.1548 -70.02473,-16.5463 22.68107,-30.2123 -9.58576,-9.2244 -34.29785,4.724 13.53284,-36.2974 -20.81174,-9.9894 -64.30857,28.2865 24.35805,-41.0019 -3.30695,-24.3491 -44.30143,7.0762 15.48894,-39.456 -9.73633,-55.3433 -70.02483,-50.9333 28.85594,-16.504 45.68309,-35.3714 15.71994,-63.4312 33.77703,5.8259 43.85224,-3.6324 20.00705,-34.9648 36.84173,24.0313 20.09119,-14.4067 5.71636,-50.0753 z"
       id="path4508"
       inkscape:connector-curvature="0"
       sodipodi:nodetypes="cccccccccccccccccccccccccccc" />
  </g>
  <g
     inkscape:groupmode="layer"
     id="layer1"
     inkscape:label="txt"
     style="display:inline">
    <text
       id="text4246-4-2"
       y="243.63316"
       x="286.25485"
       style="font-style:normal;font-variant:normal;font-weight:normal;font-stretch:normal;line-height:0%;font-family:Lavi;-inkscape-font-specification:Lavi;text-align:center;letter-spacing:0px;word-spacing:0px;text-anchor:middle;fill:#000000;fill-opacity:1;stroke:none"
       xml:space="preserve"><tspan
         y="243.63316"
         x="286.25485"
         style="font-size:45px;line-height:1.25"
         sodipodi:role="line"
         id="tspan907">Het is</tspan><tspan
         y="299.88318"
         x="286.25485"
         style="font-size:45px;line-height:1.25"
         sodipodi:role="line"
         id="tspan514">afschuwelijk, </tspan><tspan
         y="356.13318"
         x="286.25485"
         style="font-size:45px;line-height:1.25"
         sodipodi:role="line"
         id="tspan2721">Pepper.</tspan></text>
    <text
       id="text4246-4-2-3"
       y="457.0589"
       x="391.83981"
       style="font-style:normal;font-variant:normal;font-weight:normal;font-stretch:normal;line-height:0%;font-family:Lavi;-inkscape-font-specification:Lavi;text-align:center;letter-spacing:0px;word-spacing:0px;text-anchor:middle;fill:#000000;fill-opacity:1;stroke:none"
       xml:space="preserve"><tspan
         y="457.0589"
         x="391.83981"
         style="font-size:45px;line-height:1.25"
         sodipodi:role="line"
         id="tspan536142">Wasabi wil gewoon</tspan><tspan
         y="513.3089"
         x="391.83981"
         style="font-weight:bold;font-size:45px;line-height:1.25"
         sodipodi:role="line"
         id="tspan783">alle andere Scholen van</tspan><tspan
         y="569.5589"
         x="391.83981"
         style="font-size:45px;line-height:1.25"
         sodipodi:role="line"
         id="tspan787"><tspan
   id="tspan1615"
   style="font-weight:bold;font-size:45px;line-height:1.25">Magie </tspan>volledig aan haar</tspan><tspan
         y="625.8089"
         x="391.83981"
         style="font-size:45px;line-height:1.25"
         sodipodi:role="line"
         id="tspan1602"><tspan
   style="font-weight:bold"
   id="tspan1604">onderwerpen</tspan>...</tspan></text>
    <text
       id="text4246-4-2-3-2-0"
       y="715.5484"
       x="435.677"
       style="font-style:normal;font-variant:normal;font-weight:normal;font-stretch:normal;line-height:0%;font-family:Lavi;-inkscape-font-specification:Lavi;text-align:center;letter-spacing:0px;word-spacing:0px;text-anchor:middle;fill:#000000;fill-opacity:1;stroke:none"
       xml:space="preserve"><tspan
         y="715.5484"
         x="435.677"
         style="font-size:45px;line-height:1.25"
         sodipodi:role="line"
         id="tspan558833">Ze vertrekt morgen bij</tspan><tspan
         y="771.7984"
         x="435.677"
         style="font-size:45px;line-height:1.25"
         sodipodi:role="line"
         id="tspan806">zonsopgang met een leger</tspan><tspan
         y="828.0484"
         x="435.677"
         style="font-size:45px;line-height:1.25"
         sodipodi:role="line"
         id="tspan808">heksen naar Kwalistad...</tspan></text>
    <text
       id="text4246-4-2-3-2-8-2"
       y="200.74683"
       x="1447.0979"
       style="font-style:normal;font-variant:normal;font-weight:normal;font-stretch:normal;line-height:0%;font-family:Lavi;-inkscape-font-specification:Lavi;text-align:center;letter-spacing:0px;word-spacing:0px;text-anchor:middle;fill:#000000;fill-opacity:1;stroke:none"
       xml:space="preserve"><tspan
         y="200.74683"
         x="1454.1292"
         style="font-size:45px;line-height:1.25"
         sodipodi:role="line"
         id="tspan397614-2">Oh nee! </tspan></text>
    <text
       id="text4246-4-2-3-2-8"
       y="265.43832"
       x="1596.2267"
       style="font-style:normal;font-variant:normal;font-weight:normal;font-stretch:normal;font-size:12.7131px;line-height:0%;font-family:Lavi;-inkscape-font-specification:Lavi;text-align:center;letter-spacing:0px;word-spacing:0px;text-anchor:middle;fill:#000000;fill-opacity:1;stroke:none;stroke-width:1.05942"
       xml:space="preserve"><tspan
         y="265.43832"
         x="1596.2267"
         style="font-style:normal;font-variant:normal;font-weight:bold;font-stretch:normal;font-size:47.674px;line-height:1.25;font-family:Lavi;-inkscape-font-specification:'Lavi Bold';stroke-width:1.05942"
         sodipodi:role="line"
         id="tspan397614">Koriander.</tspan></text>
    <text
       id="text4246-4-2-3-2-8-2-6"
       y="339.30331"
       x="1601.3971"
       style="font-style:normal;font-variant:normal;font-weight:normal;font-stretch:normal;line-height:0%;font-family:Lavi;-inkscape-font-specification:Lavi;text-align:center;letter-spacing:0px;word-spacing:0px;text-anchor:middle;display:inline;fill:#000000;fill-opacity:1;stroke:none"
       xml:space="preserve"><tspan
         y="339.30331"
         x="1601.3971"
         style="font-size:45px;line-height:1.25"
         sodipodi:role="line"
         id="tspan397614-2-7">En haar koninkrijk!</tspan></text>
    <text
       id="text4246-4-2-3-2-89-3"
       y="750.87787"
       x="1514.1812"
       style="font-style:normal;font-variant:normal;font-weight:normal;font-stretch:normal;line-height:0%;font-family:Lavi;-inkscape-font-specification:Lavi;text-align:center;letter-spacing:0px;word-spacing:0px;text-anchor:middle;display:inline;fill:#000000;fill-opacity:1;stroke:none"
       xml:space="preserve"><tspan
         y="750.87787"
         x="1514.1812"
         style="font-size:45px;line-height:1.25"
         sodipodi:role="line"
         id="tspan437866-6">En de magie van Zombiah!</tspan></text>
    <text
       id="text4246-4-2-3-2-89"
       y="846.60956"
       x="1508.962"
       style="font-style:normal;font-variant:normal;font-weight:normal;font-stretch:normal;line-height:0%;font-family:Lavi;-inkscape-font-specification:Lavi;text-align:center;letter-spacing:0px;word-spacing:0px;text-anchor:middle;fill:#000000;fill-opacity:1;stroke:none"
       xml:space="preserve"><tspan
         y="846.60956"
         x="1508.962"
         style="font-size:45px;line-height:1.25"
         sodipodi:role="line"
         id="tspan437866">We moeten haar</tspan><tspan
         y="902.85956"
         x="1508.962"
         style="font-size:45px;line-height:1.25"
         sodipodi:role="line"
         id="tspan1068">zo snel mogelijk</tspan><tspan
         y="959.10956"
         x="1508.962"
         style="font-size:45px;line-height:1.25"
         sodipodi:role="line"
         id="tspan1074">waarschuwen.</tspan></text>
    <text
       id="text4246-4-2-3-2-89-1"
       y="857.03857"
       x="2015.7201"
       style="font-style:normal;font-variant:normal;font-weight:normal;font-stretch:normal;line-height:0%;font-family:Lavi;-inkscape-font-specification:Lavi;text-align:center;letter-spacing:0px;word-spacing:0px;text-anchor:middle;fill:#000000;fill-opacity:1;stroke:none"
       xml:space="preserve"><tspan
         y="857.03857"
         x="2015.7201"
         style="font-size:45px;line-height:1.25"
         sodipodi:role="line"
         id="tspan589172">Een drakenrijder en</tspan><tspan
         y="913.28857"
         x="2015.7201"
         style="font-size:45px;line-height:1.25"
         sodipodi:role="line"
         id="tspan1334">haar draak wachten ons op het</tspan><tspan
         y="969.53857"
         x="2015.7201"
         style="font-size:45px;line-height:1.25"
         sodipodi:role="line"
         id="tspan1336">dak op om ons hier vandaan</tspan><tspan
         y="1025.7885"
         x="2015.7201"
         style="font-size:45px;line-height:1.25"
         sodipodi:role="line"
         id="tspan1338">te brengen.</tspan></text>
    <text
       id="text4246-4-2-3-2-89-1-3"
       y="1199.1016"
       x="444.24368"
       style="font-style:normal;font-variant:normal;font-weight:normal;font-stretch:normal;font-size:42px;line-height:0%;font-family:Lavi;-inkscape-font-specification:Lavi;text-align:center;letter-spacing:0px;word-spacing:0px;text-anchor:middle;fill:#000000;fill-opacity:1;stroke:none"
       xml:space="preserve"><tspan
         y="1199.1016"
         x="444.24368"
         style="font-size:42px;line-height:1.25"
         sodipodi:role="line"
         id="tspan601787">Gelukt! Het slot</tspan><tspan
         y="1251.6016"
         x="444.24368"
         style="font-size:42px;line-height:1.25"
         sodipodi:role="line"
         id="tspan1874">is eindelijk open!</tspan></text>
    <text
       xml:space="preserve"
       style="font-style:normal;font-variant:normal;font-weight:normal;font-stretch:normal;line-height:0%;font-family:Lavi;-inkscape-font-specification:Lavi;letter-spacing:0px;word-spacing:0px;opacity:1;fill:#c6fffd;fill-opacity:1;stroke:#ffffff;stroke-width:0.966714;stroke-miterlimit:4;stroke-dasharray:none;stroke-opacity:1;filter:url(#filter4375-4-1-1-1-9-5-8-8-53-3)"
       x="787.65729"
       y="1584.5073"
       id="text4580-6-0-0-5"
       transform="matrix(0.38167106,-0.131018,-0.06124078,0.5210622,213.83481,667.63947)"><tspan
         sodipodi:role="line"
         id="tspan4582-1-1-0-67"
         x="787.65729"
         y="1584.5073"
         style="font-size:70px;line-height:1.25;fill:#c6fffd;fill-opacity:1;stroke:#ffffff;stroke-width:0.966714;stroke-miterlimit:4;stroke-dasharray:none;stroke-opacity:1"><tspan
           style="font-size:93.1495px;fill:#c6fffd;fill-opacity:1;stroke:#ffffff;stroke-width:0.966714;stroke-miterlimit:4;stroke-dasharray:none;stroke-opacity:1"
           id="tspan4315-8-9-7">Dzjing!</tspan></tspan></text>
    <text
       id="text4246-4-2-3-2-89-1-3-5"
       y="1197.2087"
       x="804.57953"
       style="font-style:normal;font-variant:normal;font-weight:normal;font-stretch:normal;font-size:42px;line-height:0%;font-family:Lavi;-inkscape-font-specification:Lavi;text-align:center;letter-spacing:0px;word-spacing:0px;text-anchor:middle;fill:#000000;fill-opacity:1;stroke:none;stroke-width:0.892381"
       xml:space="preserve"><tspan
         y="1197.2087"
         x="804.57953"
         style="font-size:42px;line-height:1.25;stroke-width:0.892381"
         sodipodi:role="line"
         id="tspan601787-4">Bravo!</tspan></text>
    <text
       id="text4246-4-2-3-2-89-1-3-5-7"
       y="1229.6305"
       x="1052.0912"
       style="font-style:normal;font-variant:normal;font-weight:normal;font-stretch:normal;font-size:42px;line-height:0%;font-family:Lavi;-inkscape-font-specification:Lavi;text-align:center;letter-spacing:0px;word-spacing:0px;text-anchor:middle;fill:#000000;fill-opacity:1;stroke:none;stroke-width:0.892381"
       xml:space="preserve"><tspan
         y="1229.6305"
         x="1052.0912"
         style="font-size:42px;line-height:1.25;stroke-width:0.892381"
         sodipodi:role="line"
         id="tspan2638">Ik ga snel </tspan><tspan
         y="1282.1305"
         x="1052.0912"
         style="font-size:42px;line-height:1.25;stroke-width:0.892381"
         sodipodi:role="line"
         id="tspan2892">Carrot oppakken.</tspan><tspan
         y="1334.6305"
         x="1052.0912"
         style="font-size:42px;line-height:1.25;stroke-width:0.892381"
         sodipodi:role="line"
         id="tspan2894">En mijn hoed.</tspan></text>
    <text
       xml:space="preserve"
       style="color:#000000;font-style:normal;font-variant:normal;font-weight:normal;font-stretch:normal;font-size:99.4313px;line-height:0%;font-family:Arial;-inkscape-font-specification:Arial;letter-spacing:9.01069px;word-spacing:0px;clip-rule:nonzero;display:inline;overflow:visible;visibility:visible;isolation:auto;mix-blend-mode:normal;color-interpolation:sRGB;color-interpolation-filters:linearRGB;solid-color:#000000;solid-opacity:1;fill:#d7e3f4;fill-opacity:1;fill-rule:nonzero;stroke:#ffffff;stroke-width:1.1156;stroke-linecap:butt;stroke-linejoin:miter;stroke-miterlimit:4;stroke-dasharray:none;stroke-dashoffset:0;stroke-opacity:1;marker:none;filter:url(#filter5561-7-8-9);color-rendering:auto;image-rendering:auto;shape-rendering:auto;text-rendering:auto;enable-background:accumulate"
       x="1705.2566"
       y="1742.2045"
       id="text4251-9-3"
       transform="matrix(0.46605294,-0.42399792,0.36516967,0.87774403,-33.337748,673.92331)"><tspan
         sodipodi:role="line"
         id="tspan4253-3-7"
         x="1705.2566"
         y="1742.2045"
         style="font-style:normal;font-variant:normal;font-weight:normal;font-stretch:normal;font-size:99.4313px;line-height:1.25;font-family:Lavi;-inkscape-font-specification:Lavi;fill:#d7e3f4;fill-opacity:1">pieeep</tspan></text>
    <text
       xml:space="preserve"
       style="color:#000000;font-style:normal;font-variant:normal;font-weight:normal;font-stretch:normal;line-height:0%;font-family:Arial;-inkscape-font-specification:Arial;letter-spacing:9.01069px;word-spacing:0px;clip-rule:nonzero;display:inline;overflow:visible;visibility:visible;isolation:auto;mix-blend-mode:normal;color-interpolation:sRGB;color-interpolation-filters:linearRGB;solid-color:#000000;solid-opacity:1;fill:#eaeab1;fill-opacity:1;fill-rule:nonzero;stroke:#ffffff;stroke-width:1.1156;stroke-linecap:butt;stroke-linejoin:miter;stroke-miterlimit:4;stroke-dasharray:none;stroke-dashoffset:0;stroke-opacity:1;marker:none;filter:url(#filter5561-7-8-9-6);color-rendering:auto;image-rendering:auto;shape-rendering:auto;text-rendering:auto;enable-background:accumulate"
       x="1705.2566"
       y="1742.2045"
       id="text4251-9-3-4"
       transform="matrix(0.38674208,-0.29679826,0.72566441,0.90119606,145.36064,473.61438)"><tspan
         sodipodi:role="line"
         id="tspan4253-3-7-7"
         x="1705.2566"
         y="1742.2045"
         style="font-style:normal;font-variant:normal;font-weight:normal;font-stretch:normal;font-size:160.12px;line-height:1.25;font-family:Lavi;-inkscape-font-specification:Lavi;fill:#eaeab1;fill-opacity:1"><tspan
           style="font-size:90px;fill:#eaeab1;fill-opacity:1"
           id="tspan4349-9-9-4">chchchchch!</tspan></tspan></text>
    <text
       xml:space="preserve"
       style="color:#000000;font-style:normal;font-variant:normal;font-weight:normal;font-stretch:normal;line-height:0%;font-family:Arial;-inkscape-font-specification:Arial;letter-spacing:9.01069px;word-spacing:0px;clip-rule:nonzero;display:inline;overflow:visible;visibility:visible;isolation:auto;mix-blend-mode:normal;color-interpolation:sRGB;color-interpolation-filters:linearRGB;solid-color:#000000;solid-opacity:1;fill:#d7e3f4;fill-opacity:1;fill-rule:nonzero;stroke:#ffffff;stroke-width:1.1156;stroke-linecap:butt;stroke-linejoin:miter;stroke-miterlimit:4;stroke-dasharray:none;stroke-dashoffset:0;stroke-opacity:1;marker:none;filter:url(#filter5561-7-8-9-4);color-rendering:auto;image-rendering:auto;shape-rendering:auto;text-rendering:auto;enable-background:accumulate"
       x="1705.2566"
       y="1742.2045"
       id="text4251-9-3-3"
       transform="matrix(0.45234231,-0.40915268,0.35442689,0.84701199,774.29606,888.05157)"><tspan
         sodipodi:role="line"
         id="tspan4253-3-7-1"
         x="1705.2566"
         y="1742.2045"
         style="font-style:normal;font-variant:normal;font-weight:normal;font-stretch:normal;font-size:160.12px;line-height:1.25;font-family:Lavi;-inkscape-font-specification:Lavi;fill:#d7e3f4;fill-opacity:1"><tspan
           style="font-size:90px;fill:#d7e3f4;fill-opacity:1"
           id="tspan4349-9-9-49">pieeeeep!</tspan></tspan></text>
    <g
       id="text4251-g894"
       transform="translate(-294.71653,-1245.0637)">
      <text
         xml:space="preserve"
         style="font-style:normal;font-variant:normal;font-weight:normal;font-stretch:normal;line-height:0%;font-family:Lavi;-inkscape-font-specification:Lavi;letter-spacing:0px;word-spacing:0px;display:inline;fill:#ffffff;fill-opacity:1;stroke:#000000;stroke-width:0.649528;stroke-miterlimit:4;stroke-dasharray:none;stroke-opacity:1;filter:url(#filter4375-4-1-1-1-9-5-8-3-4)"
         x="787.65729"
         y="1584.5073"
         id="text4580-6-0-3"
         transform="matrix(0.56396936,0.29200899,-0.49083985,0.74440634,2281.3949,1535.2837)"
         inkscape:transform-center-x="-5.9254429"
         inkscape:transform-center-y="0.58615246"><tspan
           sodipodi:role="line"
           id="tspan4582-1-1-6"
           x="787.65729"
           y="1584.5073"
           style="font-style:normal;font-variant:normal;font-weight:normal;font-stretch:normal;font-size:70px;line-height:1.25;font-family:Combah;-inkscape-font-specification:Combah;fill:#ffffff;fill-opacity:1;stroke:#000000;stroke-width:0.649528;stroke-opacity:1"><tspan
             style="font-style:normal;font-variant:normal;font-weight:normal;font-stretch:normal;font-size:93.1495px;font-family:Combah;-inkscape-font-specification:Combah;fill:#ffffff;fill-opacity:1;stroke:#000000;stroke-width:0.649528;stroke-opacity:1"
             id="tspan4315-8-0">KLING</tspan><tspan
             style="font-style:normal;font-variant:normal;font-weight:normal;font-stretch:normal;font-size:114.732px;font-family:Combah;-inkscape-font-specification:Combah;fill:#ffffff;fill-opacity:1;stroke:#000000;stroke-width:0.649528;stroke-opacity:1"
             id="tspan4313-2-6">!</tspan></tspan></text>
    </g>
    <g
       id="text4251-g894-7-7-2-8"
       transform="matrix(0.08279068,-0.70073798,0.69675909,0.08896039,-1012.5833,3236.9208)">
      <text
         xml:space="preserve"
         style="font-style:normal;font-variant:normal;font-weight:normal;font-stretch:normal;line-height:0%;font-family:Lavi;-inkscape-font-specification:Lavi;letter-spacing:0px;word-spacing:0px;display:inline;fill:#ffffff;fill-opacity:1;stroke:#000000;stroke-width:0.649528;stroke-miterlimit:4;stroke-dasharray:none;stroke-opacity:1;filter:url(#filter4375-4-1-1-1-9-5-8-3-4-2-2-9-8)"
         x="787.65729"
         y="1584.5073"
         id="text4580-6-0-3-1-7-9-4"
         transform="matrix(0.56396936,0.29200899,-0.49083985,0.74440634,2281.3949,1535.2837)"
         inkscape:transform-center-x="-5.9254429"
         inkscape:transform-center-y="0.58615246"><tspan
           sodipodi:role="line"
           id="tspan4582-1-1-6-7-1-3-8"
           x="787.65729"
           y="1584.5073"
           style="font-style:normal;font-variant:normal;font-weight:normal;font-stretch:normal;font-size:70px;line-height:1.25;font-family:Combah;-inkscape-font-specification:Combah;fill:#ffffff;fill-opacity:1;stroke:#000000;stroke-width:0.649528;stroke-opacity:1"><tspan
             style="font-style:normal;font-variant:normal;font-weight:normal;font-stretch:normal;font-size:93.1495px;font-family:Combah;-inkscape-font-specification:Combah;fill:#ffffff;fill-opacity:1;stroke:#000000;stroke-width:0.649528;stroke-opacity:1"
             id="tspan4315-8-0-2-1-9-1">KLING</tspan><tspan
             style="font-style:normal;font-variant:normal;font-weight:normal;font-stretch:normal;font-size:114.732px;font-family:Combah;-inkscape-font-specification:Combah;fill:#ffffff;fill-opacity:1;stroke:#000000;stroke-width:0.649528;stroke-opacity:1"
             id="tspan4313-2-6-7-5-0-0">!</tspan></tspan></text>
    </g>
    <g
       id="text4251-g894-7"
       transform="matrix(0.2660753,-0.65352272,0.64804701,0.27096543,-962.9723,2539.9528)">
      <text
         xml:space="preserve"
         style="font-style:normal;font-variant:normal;font-weight:normal;font-stretch:normal;line-height:0%;font-family:Lavi;-inkscape-font-specification:Lavi;letter-spacing:0px;word-spacing:0px;display:inline;fill:#ffffff;fill-opacity:1;stroke:#000000;stroke-width:0.649528;stroke-miterlimit:4;stroke-dasharray:none;stroke-opacity:1;filter:url(#filter4375-4-1-1-1-9-5-8-3-4-2)"
         x="787.65729"
         y="1584.5073"
         id="text4580-6-0-3-1"
         transform="matrix(0.56396936,0.29200899,-0.49083985,0.74440634,2281.3949,1535.2837)"
         inkscape:transform-center-x="-5.9254429"
         inkscape:transform-center-y="0.58615246"><tspan
           sodipodi:role="line"
           id="tspan4582-1-1-6-7"
           x="787.65729"
           y="1584.5073"
           style="font-style:normal;font-variant:normal;font-weight:normal;font-stretch:normal;font-size:70px;line-height:1.25;font-family:Combah;-inkscape-font-specification:Combah;fill:#ffffff;fill-opacity:1;stroke:#000000;stroke-width:0.649528;stroke-opacity:1"><tspan
             style="font-style:normal;font-variant:normal;font-weight:normal;font-stretch:normal;font-size:93.1495px;font-family:Combah;-inkscape-font-specification:Combah;fill:#ffffff;fill-opacity:1;stroke:#000000;stroke-width:0.649528;stroke-opacity:1"
             id="tspan4315-8-0-2">KLANG</tspan><tspan
             style="font-style:normal;font-variant:normal;font-weight:normal;font-stretch:normal;font-size:114.732px;font-family:Combah;-inkscape-font-specification:Combah;fill:#ffffff;fill-opacity:1;stroke:#000000;stroke-width:0.649528;stroke-opacity:1"
             id="tspan4313-2-6-7">!</tspan></tspan></text>
    </g>
    <g
       id="text4251-g894-7-7"
       transform="matrix(0.45457311,-0.53967703,0.53296055,0.45753715,-1047.5736,1867.716)">
      <text
         xml:space="preserve"
         style="font-style:normal;font-variant:normal;font-weight:normal;font-stretch:normal;line-height:0%;font-family:Lavi;-inkscape-font-specification:Lavi;letter-spacing:0px;word-spacing:0px;display:inline;fill:#ffffff;fill-opacity:1;stroke:#000000;stroke-width:0.649528;stroke-miterlimit:4;stroke-dasharray:none;stroke-opacity:1;filter:url(#filter4375-4-1-1-1-9-5-8-3-4-2-2)"
         x="787.65729"
         y="1584.5073"
         id="text4580-6-0-3-1-7"
         transform="matrix(0.56396936,0.29200899,-0.49083985,0.74440634,2281.3949,1535.2837)"
         inkscape:transform-center-x="-5.9254429"
         inkscape:transform-center-y="0.58615246"><tspan
           sodipodi:role="line"
           id="tspan4582-1-1-6-7-1"
           x="787.65729"
           y="1584.5073"
           style="font-style:normal;font-variant:normal;font-weight:normal;font-stretch:normal;font-size:70px;line-height:1.25;font-family:Combah;-inkscape-font-specification:Combah;fill:#ffffff;fill-opacity:1;stroke:#000000;stroke-width:0.649528;stroke-opacity:1"><tspan
             style="font-style:normal;font-variant:normal;font-weight:normal;font-stretch:normal;font-size:93.1495px;font-family:Combah;-inkscape-font-specification:Combah;fill:#ffffff;fill-opacity:1;stroke:#000000;stroke-width:0.649528;stroke-opacity:1"
             id="tspan4315-8-0-2-1">KLONG</tspan><tspan
             style="font-style:normal;font-variant:normal;font-weight:normal;font-stretch:normal;font-size:114.732px;font-family:Combah;-inkscape-font-specification:Combah;fill:#ffffff;fill-opacity:1;stroke:#000000;stroke-width:0.649528;stroke-opacity:1"
             id="tspan4313-2-6-7-5">!</tspan></tspan></text>
    </g>
    <g
       id="text4251-g894-7-7-2"
       transform="matrix(0.23227068,-0.66628698,0.66106879,0.23743471,-795.20186,2810.7658)">
      <text
         xml:space="preserve"
         style="font-style:normal;font-variant:normal;font-weight:normal;font-stretch:normal;line-height:0%;font-family:Lavi;-inkscape-font-specification:Lavi;letter-spacing:0px;word-spacing:0px;display:inline;fill:#ffffff;fill-opacity:1;stroke:#000000;stroke-width:0.649528;stroke-miterlimit:4;stroke-dasharray:none;stroke-opacity:1;filter:url(#filter4375-4-1-1-1-9-5-8-3-4-2-2-9)"
         x="787.65729"
         y="1584.5073"
         id="text4580-6-0-3-1-7-9"
         transform="matrix(0.56396936,0.29200899,-0.49083985,0.74440634,2281.3949,1535.2837)"
         inkscape:transform-center-x="-5.9254429"
         inkscape:transform-center-y="0.58615246"><tspan
           sodipodi:role="line"
           id="tspan4582-1-1-6-7-1-3"
           x="787.65729"
           y="1584.5073"
           style="font-style:normal;font-variant:normal;font-weight:normal;font-stretch:normal;font-size:70px;line-height:1.25;font-family:Combah;-inkscape-font-specification:Combah;fill:#ffffff;fill-opacity:1;stroke:#000000;stroke-width:0.649528;stroke-opacity:1"><tspan
             style="font-style:normal;font-variant:normal;font-weight:normal;font-stretch:normal;font-size:93.1495px;font-family:Combah;-inkscape-font-specification:Combah;fill:#ffffff;fill-opacity:1;stroke:#000000;stroke-width:0.649528;stroke-opacity:1"
             id="tspan4315-8-0-2-1-9">KLING</tspan><tspan
             style="font-style:normal;font-variant:normal;font-weight:normal;font-stretch:normal;font-size:114.732px;font-family:Combah;-inkscape-font-specification:Combah;fill:#ffffff;fill-opacity:1;stroke:#000000;stroke-width:0.649528;stroke-opacity:1"
             id="tspan4313-2-6-7-5-0">!</tspan></tspan></text>
    </g>
    <text
       xml:space="preserve"
       style="font-style:normal;font-variant:normal;font-weight:normal;font-stretch:normal;font-size:27.2915px;line-height:0%;font-family:Lavi;-inkscape-font-specification:Lavi;text-align:center;letter-spacing:0px;word-spacing:0px;text-anchor:middle;display:inline;fill:#000000;fill-opacity:1;stroke:none;stroke-width:1.12112"
       x="2884.5964"
       y="1786.5194"
       id="text4246-3-5"
       transform="matrix(0.81263366,0,-0.31508537,1.2305668,0,0)"><tspan
         sodipodi:role="line"
         style="font-style:normal;font-variant:normal;font-weight:bold;font-stretch:normal;font-size:102.343px;line-height:1.2;font-family:Lavi;-inkscape-font-specification:'Lavi Bold';stroke-width:1.12112"
         x="2884.5964"
         y="1786.5194"
         id="tspan872-2"><tspan
   id="tspan714918"
   style="font-style:normal;font-variant:normal;font-weight:bold;font-stretch:normal;font-size:70.343px;font-family:Lavi;-inkscape-font-specification:'Lavi Bold'">!</tspan><tspan
   style="font-style:normal;font-variant:normal;font-weight:bold;font-stretch:normal;font-size:82.343px;font-family:Lavi;-inkscape-font-specification:'Lavi Bold'"
   id="tspan706548">!</tspan>!</tspan></text>
    <text
       xml:space="preserve"
       style="font-style:normal;font-variant:normal;font-weight:normal;font-stretch:normal;font-size:27.2915px;line-height:0%;font-family:Lavi;-inkscape-font-specification:Lavi;text-align:center;letter-spacing:0px;word-spacing:0px;text-anchor:middle;fill:#000000;fill-opacity:1;stroke:none;stroke-width:1.12112"
       x="3270.3779"
       y="1775.1808"
       id="text4246-3-5-3"
       transform="matrix(0.81263366,0,-0.31508537,1.2305668,0,0)"><tspan
         sodipodi:role="line"
         style="font-style:normal;font-variant:normal;font-weight:bold;font-stretch:normal;font-size:102.343px;line-height:1.2;font-family:Lavi;-inkscape-font-specification:'Lavi Bold';stroke-width:1.12112"
         x="3270.3779"
         y="1775.1808"
         id="tspan872-2-0"><tspan
   id="tspan714918-4"
   style="font-style:normal;font-variant:normal;font-weight:bold;font-stretch:normal;font-size:70.343px;font-family:Lavi;-inkscape-font-specification:'Lavi Bold'">!</tspan><tspan
   style="font-style:normal;font-variant:normal;font-weight:bold;font-stretch:normal;font-size:82.343px;font-family:Lavi;-inkscape-font-specification:'Lavi Bold'"
   id="tspan706548-4">!</tspan>!</tspan></text>
    <text
       id="text4246-4-2-3-2-89-1-3-5-7-4-36"
       y="2632.1199"
       x="926.40302"
       style="font-style:normal;font-variant:normal;font-weight:normal;font-stretch:normal;font-size:77.051px;line-height:0%;font-family:Lavi;-inkscape-font-specification:Lavi;text-align:center;letter-spacing:2.03292px;word-spacing:0px;text-anchor:middle;display:inline;fill:#000000;fill-opacity:1;stroke:none;stroke-width:1.14598"
       xml:space="preserve"
       transform="matrix(0.93037166,-0.07161155,-0.19071907,1.0895191,0,0)"><tspan
         y="2632.1199"
         x="927.41949"
         style="font-style:normal;font-variant:normal;font-weight:bold;font-stretch:normal;font-size:77.051px;font-family:Lavi;-inkscape-font-specification:'Lavi Bold';stroke-width:1.14598"
         sodipodi:role="line"
         id="tspan719137-75">PORTIER!</tspan></text>
    <text
       id="text4246-4-2-3-2-89-1-3-5-7-4"
       y="2701.9705"
       x="1311.5276"
       style="font-style:normal;font-variant:normal;font-weight:normal;font-stretch:normal;font-size:82.9794px;line-height:0%;font-family:Lavi;-inkscape-font-specification:Lavi;text-align:center;letter-spacing:2px;word-spacing:0px;text-anchor:middle;fill:#000000;fill-opacity:1;stroke:none;stroke-width:1.23414"
       xml:space="preserve"
       transform="matrix(0.91868264,-0.07375478,-0.20298419,1.1048114,0,0)"><tspan
         y="2701.9705"
         x="1312.5276"
         style="font-style:normal;font-variant:normal;font-weight:bold;font-stretch:normal;font-size:82.9794px;line-height:1.25;font-family:Lavi;-inkscape-font-specification:'Lavi Bold';stroke-width:1.23414"
         sodipodi:role="line"
         id="tspan719137">ALARM!</tspan></text>
    <text
       id="text4246-4-2-3-2-89-1-3-5-7-4-3"
       y="2859.4604"
       x="1565.3584"
       style="font-style:normal;font-variant:normal;font-weight:normal;font-stretch:normal;font-size:48.9104px;line-height:0%;font-family:Lavi;-inkscape-font-specification:Lavi;text-align:center;letter-spacing:0px;word-spacing:0px;text-anchor:middle;fill:#000000;fill-opacity:1;stroke:none;stroke-width:0.727446"
       xml:space="preserve"
       transform="matrix(0.97563945,-0.08959889,-0.08011561,1.0323263,0,0)"><tspan
         y="2859.4604"
         x="1565.3584"
         style="font-style:normal;font-variant:normal;font-weight:bold;font-stretch:normal;font-size:48.9104px;line-height:1.25;font-family:Lavi;-inkscape-font-specification:'Lavi Bold';stroke-width:0.727446"
         sodipodi:role="line"
         id="tspan733263">EEN INDRINGER</tspan><tspan
         y="2920.5984"
         x="1565.3584"
         style="font-style:normal;font-variant:normal;font-weight:bold;font-stretch:normal;font-size:48.9104px;line-height:1.25;font-family:Lavi;-inkscape-font-specification:'Lavi Bold';stroke-width:0.727446"
         sodipodi:role="line"
         id="tspan4207">WIL DE GEVANGENE</tspan><tspan
         y="2981.7363"
         x="1565.3584"
         style="font-style:normal;font-variant:normal;font-weight:bold;font-stretch:normal;font-size:48.9104px;line-height:1.25;font-family:Lavi;-inkscape-font-specification:'Lavi Bold';stroke-width:0.727446"
         sodipodi:role="line"
         id="tspan4205">BEVRIJDEN!</tspan></text>
  </g>
</svg>
