<?xml version="1.0" encoding="UTF-8" standalone="no"?>
<!-- Created with Inkscape (http://www.inkscape.org/) -->

<svg
   xmlns:dc="http://purl.org/dc/elements/1.1/"
   xmlns:cc="http://creativecommons.org/ns#"
   xmlns:rdf="http://www.w3.org/1999/02/22-rdf-syntax-ns#"
   xmlns:svg="http://www.w3.org/2000/svg"
   xmlns="http://www.w3.org/2000/svg"
   xmlns:xlink="http://www.w3.org/1999/xlink"
   xmlns:sodipodi="http://sodipodi.sourceforge.net/DTD/sodipodi-0.dtd"
   xmlns:inkscape="http://www.inkscape.org/namespaces/inkscape"
   id="svg2"
   version="1.1"
   inkscape:version="0.92.4 (5da689c313, 2019-01-14)"
   width="2481"
   height="3503"
   sodipodi:docname="E36P07.svg">
  <metadata
     id="metadata8">
    <rdf:RDF>
      <cc:Work
         rdf:about="">
        <dc:format>image/svg+xml</dc:format>
        <dc:type
           rdf:resource="http://purl.org/dc/dcmitype/StillImage" />
        <dc:title />
      </cc:Work>
    </rdf:RDF>
  </metadata>
  <defs
     id="defs6" />
  <sodipodi:namedview
     pagecolor="#1e1e1e"
     bordercolor="#111111"
     borderopacity="1"
     objecttolerance="10"
     gridtolerance="10"
     guidetolerance="10"
     inkscape:pageopacity="0"
     inkscape:pageshadow="2"
     inkscape:window-width="1600"
     inkscape:window-height="847"
     id="namedview4"
     showgrid="false"
     inkscape:zoom="0.52900001"
     inkscape:cx="1272.6982"
     inkscape:cy="480.15124"
     inkscape:window-x="-8"
     inkscape:window-y="-8"
     inkscape:window-maximized="1"
     inkscape:current-layer="layer1"
     inkscape:pagecheckerboard="0"
     inkscape:snap-global="false" />
  <g
     inkscape:groupmode="layer"
     id="layer2"
     inkscape:label="artwork"
     sodipodi:insensitive="true">
    <image
       sodipodi:absref="D:\Pepper&amp;Carrot\code\ep36_The-Surprise-Attack\lang\ro\../gfx_Pepper-and-Carrot_by-David-Revoy_E36P07.png"
       xlink:href="../gfx_Pepper-and-Carrot_by-David-Revoy_E36P07.png"
       width="2481"
       height="3503"
       id="image10"
       x="0"
       y="0" />
  </g>
  <g
     inkscape:groupmode="layer"
     id="layer3"
     inkscape:label="speechbubbles"
     style="display:inline">
    <path
       style="color:#000000;display:inline;overflow:visible;visibility:visible;fill:#ffffff;fill-opacity:1;fill-rule:nonzero;stroke:none;stroke-width:0.76999748px;marker:none;enable-background:accumulate"
       d="m 1384.0809,2369.9277 c -36.1028,0.6342 -72.2122,5.4468 -106.6745,15.0258 -25.0473,8.688 -42.822,30.7195 -45.2008,54.2435 -2.1709,16.8841 -0.6468,34.1137 3.8349,50.6168 3.7818,13.1635 9.5419,26.1425 18.7197,37.1211 13.3591,12.9121 32.7813,18.5793 51.1518,23.6607 62.1037,16.9245 129.2523,15.5872 192.0035,2.0661 18.658,-4.2263 37.4489,-8.9592 54.4476,-17.1082 18.6963,-11.3662 28.7874,-31.2418 30.4024,-50.8347 2.9468,-18.0217 5.7318,-37.0875 -1.653,-54.5955 -8.4423,-18.9097 -27.148,-32.666 -47.2313,-41.6628 -31.1049,-13.8223 -66.4765,-17.0638 -100.8195,-17.7767 -16.3247,-0.3376 -32.6488,-0.8758 -48.9808,-0.7561 z"
       id="path4546-6-3"
       inkscape:connector-curvature="0"
       sodipodi:nodetypes="cssssssc" />
    <path
       style="color:#000000;display:inline;overflow:visible;visibility:visible;fill:#ffffff;fill-opacity:1;fill-rule:nonzero;stroke:none;stroke-width:1.12849px;marker:none;enable-background:accumulate"
       d="m 1276.0008,3121.2879 c -50.3615,1.1115 -101.3781,9.9281 -147.4747,32.2546 -19.4781,9.4515 -36.9081,25.2017 -45.4273,46.022 -19.0846,42.2639 -14.6555,95.2993 13.0019,131.8953 10.9868,14.7764 28.9282,21.8102 46.3623,24.1535 37.4701,7.2537 75.3709,12.6341 113.5615,14.0039 51.8647,2.5609 103.845,1.5026 155.7728,0.5792 27.2476,-0.7393 54.6512,-3.5221 81.013,-11.3152 15.5284,-3.9627 32.0154,-8.2447 44.0787,-19.9145 13.7545,-14.1624 19.3936,-34.4628 21.0086,-53.9016 3.311,-37.7405 -6.1432,-77.1641 -28.9505,-106.8383 -14.6557,-18.5268 -35.5181,-30.6292 -57.3183,-37.9464 -33.0684,-11.4935 -68.1366,-14.955 -102.8239,-17.5359 -30.873,-1.9635 -61.8619,-1.9402 -92.8041,-1.4566 z"
       id="path3330-0"
       inkscape:connector-curvature="0"
       sodipodi:nodetypes="zsssssz" />
    <path
       style="color:#000000;display:inline;overflow:visible;visibility:visible;fill:#ffffff;fill-opacity:1;fill-rule:nonzero;stroke:none;stroke-width:1px;marker:none;enable-background:accumulate"
       d="m 1415.0769,2516.9442 c 13.078,48.3092 -10.2417,132.5122 -94.8507,157.2445 61.4826,-42.714 67.542,-99.1938 51.107,-143.1634 -14.1878,-37.9586 -18.9368,-56.3084 -18.9368,-56.3084 z"
       id="path4440-3"
       inkscape:connector-curvature="0"
       sodipodi:nodetypes="ccscc" />
    <path
       style="color:#000000;display:inline;overflow:visible;visibility:visible;fill:#ffffff;fill-opacity:1;fill-rule:nonzero;stroke:none;stroke-width:1.05023px;marker:none;enable-background:accumulate"
       d="m 1880.5202,3245.1068 c 2.2085,-31.7629 12.1073,-31.4913 46.1902,-2.7607 -8.9937,-56.6463 36.7658,-59.3247 79.4131,-65.0705 -4.8912,-15.916 -11.6693,-38.2895 36.129,-53.5443 -45.7166,-2.1974 -47.656,-17.2553 -33.086,-32.6716 -34.0385,7.3462 -58.3861,14.6762 -18.1274,-19.5049 -37.997,19.4188 -60.9707,29.4286 -46.6405,-20.4338 -14.3883,6.7868 -58.5903,35.1678 -78.7695,-25.9462 -0.638,33.2488 -57.184,60.6052 -84.9534,17.683 14.0583,35.7635 3.0629,71.3915 -53.6329,48.0907 54.4907,39.0305 2.2272,39.6552 -13.9489,42.9402 45.9271,5.3047 36.7135,17.4578 4.9221,37.6185 94.5952,3.1469 42.5371,23.176 43.0006,36.7345 57.5862,-12.4701 53.8853,12.8638 62.1299,31.6447 54.8403,-57.2852 38.1795,-47.0534 57.3737,5.2204 z"
       id="path3549-3-1"
       inkscape:connector-curvature="0"
       sodipodi:nodetypes="ccccccccccccccc" />
    <path
       style="fill:#ffffff;fill-rule:evenodd;stroke:none;stroke-width:1.29754138px;stroke-linecap:butt;stroke-linejoin:miter;stroke-opacity:1"
       d="m 1967.9765,3144.1288 c -70.2093,1.7872 -140.1557,9.1519 -210.2561,13.2117 -30.8969,4.169 -61.384,18.4811 -82.771,43.4418 -10.8955,15.0315 -16.2482,33.5895 -21.5871,51.5241 -10.11,38.0255 -3.7741,81.4012 18.6833,112.9375 9.9022,13.9922 23.4435,24.9586 38.8651,30.7231 16.6567,6.3737 34.1207,9.7977 51.4682,13.1433 19.7813,3.6444 39.7312,6.0893 59.7439,7.6123 45.9818,3.9545 92.1915,6.4578 138.2944,3.5616 29.997,-1.7395 60.021,-2.8409 90.0563,-3.4006 15.0138,-0.5822 30.1687,0.1014 45.0011,-2.9445 32.7512,-6.1801 63.769,-24.7376 84.5358,-53.0992 11.9409,-16.0726 20.0941,-36.0254 20.315,-56.8798 0.8243,-23.1834 -3.5967,-46.2371 -10.0636,-68.2243 -9.7159,-29.0649 -29.3568,-55.1621 -55.949,-67.4779 -22.4612,-10.4669 -47.0315,-13.1468 -70.9086,-17.5462 -31.5828,-4.9213 -63.5262,-7.0542 -95.4277,-6.5829 z"
       id="path1289"
       inkscape:connector-curvature="0"
       sodipodi:nodetypes="csssssssscc" />
    <path
       style="color:#000000;display:inline;overflow:visible;visibility:visible;fill:#ffffff;fill-opacity:1;fill-rule:nonzero;stroke:none;stroke-width:1.20459px;marker:none;enable-background:accumulate"
       d="m 383.31528,3178.3461 c 7.90371,-15.2948 41.23452,-13.2985 53.03054,-8.8438 -22.34304,-20.2401 -20.07815,-31.1953 13.55035,-29.5557 -51.94808,-37.6508 -6.77936,-28.2088 3.28665,-35.4235 -42.58695,-15.4528 -21.1535,-27.2125 -11.57865,-40.1001 -50.50627,-5.5458 -31.16513,-25.8031 -31.07193,-43.4742 -5.33057,7.7618 -28.87377,30.6558 -26.56078,2.7654 -36.82225,23.1348 -79.28833,36.2037 -76.5794,-10.4783 -16.44817,21.9701 -31.13994,30.479 -26.56087,2.7653 -38.00001,32.8282 -66.34575,16.7937 -95.22577,3.5382 -9.31894,10.1245 -12.38041,26.8076 -37.5265,20.3017 2.21677,11.1849 -7.39088,17.7561 -27.51003,20.2115 25.15381,9.1464 29.08375,16.3708 -20.09307,18.7855 36.62748,4.3877 70.68295,9.2622 24.45208,29.6889 13.43801,1.9557 48.13423,-15.4784 25.4826,43.4614 25.70449,-17.0164 51.85913,-25.2072 77.78773,18.4447 17.29535,-18.7712 44.0951,-26.2298 51.97588,0.1768 5.36489,-10.3819 22.43004,-12.7755 36.5411,-11.8575 4.88673,4.8286 9.74845,11.2082 14.62425,19.4168 11.59583,-15.0441 27.26853,-24.4177 51.97582,0.1769 z"
       id="path3549-3-7-5"
       inkscape:connector-curvature="0"
       sodipodi:nodetypes="cccccccccccccccccccc" />
    <path
       style="color:#000000;display:inline;overflow:visible;visibility:visible;fill:#ffffff;fill-opacity:1;fill-rule:nonzero;stroke:none;stroke-width:1.04204px;marker:none;enable-background:accumulate"
       d="m 367.15199,3119.1259 c -57.07353,0.8869 -114.81826,12.1999 -166.39331,39.3464 -32.90774,20.281 -50.27564,63.0309 -47.32658,103.0838 0.94057,24.5664 6.96859,51.6174 25.90465,67.3162 20.7036,17.0439 45.92368,26.2094 70.95105,32.7563 52.06484,12.5958 105.76184,9.9362 158.73028,10.478 47.18316,-0.1388 94.52787,1.4082 141.54607,-3.7365 21.94665,-2.4792 44.74721,-7.8495 62.107,-23.5242 20.7489,-17.5376 34.35852,-44.8883 35.00327,-73.5141 3.53366,-49.5273 -24.04848,-100.9155 -67.50372,-118.8182 -45.96658,-21.6058 -96.62659,-25.4501 -145.89222,-30.7378 -22.32638,-1.9162 -44.72659,-2.9936 -67.12649,-2.6499 z"
       id="path3970-3"
       inkscape:connector-curvature="0"
       sodipodi:nodetypes="cccscsc" />
    <path
       style="color:#000000;display:inline;overflow:visible;visibility:visible;fill:#ffffff;fill-opacity:1;fill-rule:nonzero;stroke:none;stroke-width:1.35295px;marker:none;enable-background:accumulate"
       d="m 655.60209,3020.9694 c 36.37209,56.4559 22.81983,82.4225 15.3529,101.9191 -8.64995,-2.3738 -25.16043,-4.9757 -25.16043,-4.9757 0,0 -35.04306,58.5581 -44.82978,72.5197 -9.78688,13.9616 -38.13341,-23.0686 -38.13341,-23.0686 0,0 68.63867,-58.196 66.88456,-75.5935 13.71733,3.6481 17.96983,3.6232 26.02992,4.8839 8.53279,-9.9614 11.95899,-55.362 -0.14376,-75.6849 z"
       id="path4456-8"
       inkscape:connector-curvature="0"
       sodipodi:nodetypes="cccscccc" />
    <path
       style="color:#000000;display:inline;overflow:visible;visibility:visible;fill:#ffffff;fill-opacity:1;fill-rule:nonzero;stroke:none;stroke-width:0.979134px;marker:none;enable-background:accumulate"
       d="m 1279.5978,3141.166 c 37.0189,-51.8094 10.4316,-107.7029 -22.8129,-123.0094 56.1643,10.3304 79.8618,67.0698 67.3523,120.7861 -6.1858,26.5623 -44.5394,2.2233 -44.5394,2.2233 z"
       id="path5010-4"
       inkscape:connector-curvature="0"
       sodipodi:nodetypes="ccsc"
       inkscape:transform-center-x="-17.477815"
       inkscape:transform-center-y="-10.798976" />
    <path
       style="color:#000000;display:inline;overflow:visible;visibility:visible;fill:#ffffff;fill-opacity:1;fill-rule:nonzero;stroke:none;stroke-width:1.49141px;marker:none;enable-background:accumulate"
       d="m 1912.7642,3104.2315 c -3.1414,-3.557 32.154,-46.7146 32.154,-46.7146 0,0 1.8091,-18.6763 2.2497,-22.5415 7.8248,-6.4155 25.8113,-4.3144 25.8113,-4.3144 l -34.365,-47.8529 16.512,38.7245 -25.6669,-0.2625 -0.1009,31.7053 c -10.1565,5.7069 -22.8946,9.8614 -42.2141,10.0585 z"
       id="path4448"
       inkscape:connector-curvature="0"
       sodipodi:nodetypes="cccccccccc" />
  </g>
  <g
     inkscape:groupmode="layer"
     id="layer1"
     inkscape:label="txt"
     style="display:inline">
    <text
       xml:space="preserve"
       style="font-style:normal;font-variant:normal;font-weight:normal;font-stretch:normal;font-size:14.5145998px;line-height:0%;font-family:Lavi;-inkscape-font-specification:Lavi;text-align:center;letter-spacing:0px;word-spacing:0px;text-anchor:middle;fill:#000000;fill-opacity:1;stroke:none;stroke-width:1.20955002"
       x="284.33972"
       y="3110.5491"
       id="text4246-3-3"><tspan
         sodipodi:role="line"
         x="284.33972"
         y="3110.5491"
         id="tspan852"
         style="font-style:normal;font-variant:normal;font-weight:bold;font-stretch:normal;font-size:54.42979813px;line-height:1.25;font-family:Lavi;-inkscape-font-specification:'Lavi Bold';stroke-width:1.20955002">Ofițer!</tspan></text>
    <text
       xml:space="preserve"
       style="font-style:normal;font-variant:normal;font-weight:normal;font-stretch:normal;line-height:0%;font-family:Lavi;-inkscape-font-specification:Lavi;text-align:center;letter-spacing:0px;word-spacing:0px;text-anchor:middle;fill:#000000;fill-opacity:1;stroke:none"
       x="406.04767"
       y="3213.5732"
       id="text4246-3-5-9"><tspan
         sodipodi:role="line"
         style="font-size:45px;line-height:1.25"
         x="413.07892"
         y="3213.5732"
         id="tspan9617">Poți să confirmi </tspan><tspan
         sodipodi:role="line"
         style="font-size:45px;line-height:1.25"
         x="413.07892"
         y="3270.0088"
         id="tspan48">că acela este templul </tspan><tspan
         sodipodi:role="line"
         style="font-size:45px;line-height:1.25"
         x="406.04767"
         y="3326.2588"
         id="tspan50">acelei vrăjitoare?</tspan></text>
    <text
       xml:space="preserve"
       style="font-style:normal;font-variant:normal;font-weight:normal;font-stretch:normal;line-height:0%;font-family:Lavi;-inkscape-font-specification:Lavi;text-align:center;letter-spacing:0px;word-spacing:0px;text-anchor:middle;fill:#000000;fill-opacity:1;stroke:none"
       x="1413.2664"
       y="2451.6616"
       id="text4246-3-5-9-3"><tspan
         sodipodi:role="line"
         style="font-size:45px;line-height:1.25"
         x="1413.2664"
         y="2451.6616"
         id="tspan10620">Foarte probabil,</tspan><tspan
         sodipodi:role="line"
         style="font-size:45px;line-height:1.25"
         x="1413.2664"
         y="2507.9116"
         id="tspan25784">domnul meu!</tspan></text>
    <text
       xml:space="preserve"
       style="font-style:normal;font-variant:normal;font-weight:normal;font-stretch:normal;line-height:0%;font-family:Lavi;-inkscape-font-specification:Lavi;text-align:center;letter-spacing:0px;word-spacing:0px;text-anchor:middle;fill:#000000;fill-opacity:1;stroke:none"
       x="1315.355"
       y="3202.9702"
       id="text4246-3-5-9-3-3-6"><tspan
         sodipodi:role="line"
         style="font-size:45px;line-height:1.25"
         x="1322.3862"
         y="3202.9702"
         id="tspan36535">Câțiva din spionii </tspan><tspan
         sodipodi:role="line"
         style="font-size:45px;line-height:1.25"
         x="1315.355"
         y="3259.4058"
         id="tspan61">noștrii au reperat-o</tspan><tspan
         sodipodi:role="line"
         style="font-size:45px;line-height:1.25"
         x="1315.355"
         y="3315.8413"
         id="tspan63">pe aici recent.</tspan></text>
    <text
       xml:space="preserve"
       style="font-style:normal;font-variant:normal;font-weight:normal;font-stretch:normal;line-height:0%;font-family:Lavi;-inkscape-font-specification:Lavi;text-align:center;letter-spacing:0px;word-spacing:0px;text-anchor:middle;fill:#000000;fill-opacity:1;stroke:none"
       x="1883.0886"
       y="3134.877"
       id="text4246-3-3-7"><tspan
         sodipodi:role="line"
         style="font-style:normal;font-variant:normal;font-weight:bold;font-stretch:normal;font-size:45px;line-height:1.25;font-family:Lavi;-inkscape-font-specification:'Lavi Bold'"
         x="1883.0886"
         y="3134.877"
         id="tspan67-0">GRrrr...</tspan><tspan
         sodipodi:role="line"
         x="1883.0886"
         y="3153.7966"
         id="tspan852-9" /></text>
    <text
       xml:space="preserve"
       style="font-style:normal;font-variant:normal;font-weight:normal;font-stretch:normal;line-height:0%;font-family:Lavi;-inkscape-font-specification:Lavi;text-align:center;letter-spacing:0px;word-spacing:0px;text-anchor:middle;fill:#000000;fill-opacity:1;stroke:none"
       x="1919.5736"
       y="3222.498"
       id="text4246-3-5-9-3-3-6-3"><tspan
         sodipodi:role="line"
         style="font-size:45px;line-height:1.25;fill:#000000"
         x="1919.5736"
         y="3222.498"
         id="tspan13482">Așadar, acel <tspan
   style="font-weight:bold"
   id="tspan73147">pericol</tspan></tspan><tspan
         sodipodi:role="line"
         style="font-size:45px;line-height:1.25;fill:#000000"
         x="1926.6049"
         y="3278.9336"
         id="tspan47689">al <tspan
   style="font-weight:bold"
   id="tspan76605">modului nostru de luptă </tspan></tspan><tspan
         sodipodi:role="line"
         style="font-size:45px;line-height:1.25;fill:#000000"
         x="1926.6049"
         y="3335.1836"
         id="tspan61151"><tspan
   style="font-weight:bold"
   id="tspan76607">și al tradițiilor noastre</tspan> </tspan><tspan
         sodipodi:role="line"
         style="font-size:45px;line-height:1.25;fill:#000000"
         x="1919.5736"
         y="3391.6191"
         id="tspan65">locuiește aici!</tspan></text>
  </g>
</svg>
