<?xml version="1.0" encoding="UTF-8" standalone="no"?>
<svg
   xmlns:dc="http://purl.org/dc/elements/1.1/"
   xmlns:cc="http://creativecommons.org/ns#"
   xmlns:rdf="http://www.w3.org/1999/02/22-rdf-syntax-ns#"
   xmlns:svg="http://www.w3.org/2000/svg"
   xmlns="http://www.w3.org/2000/svg"
   xmlns:xlink="http://www.w3.org/1999/xlink"
   xmlns:sodipodi="http://sodipodi.sourceforge.net/DTD/sodipodi-0.dtd"
   xmlns:inkscape="http://www.inkscape.org/namespaces/inkscape"
   sodipodi:docname="E26P07.svg"
   height="5350"
   width="2481"
   inkscape:version="1.0 (4035a4fb49, 2020-05-01)"
   version="1.1"
   id="svg2">
  <metadata
     id="metadata8">
    <rdf:RDF>
      <cc:Work
         rdf:about="">
        <dc:format>image/svg+xml</dc:format>
        <dc:type
           rdf:resource="http://purl.org/dc/dcmitype/StillImage" />
        <dc:title />
      </cc:Work>
    </rdf:RDF>
  </metadata>
  <defs
     id="defs6">
    <filter
       style="color-interpolation-filters:sRGB"
       id="filter5546"
       inkscape:label="Drop Shadow">
      <feFlood
         id="feFlood5548"
         result="flood"
         flood-color="rgb(0,0,0)"
         flood-opacity="1" />
      <feComposite
         id="feComposite5550"
         result="composite1"
         operator="in"
         in2="SourceGraphic"
         in="flood" />
      <feGaussianBlur
         id="feGaussianBlur5552"
         result="blur"
         stdDeviation="1"
         in="composite1" />
      <feOffset
         id="feOffset5554"
         result="offset"
         dy="2.5"
         dx="2.5" />
      <feComposite
         id="feComposite5556"
         result="composite2"
         operator="over"
         in2="offset"
         in="SourceGraphic" />
    </filter>
  </defs>
  <sodipodi:namedview
     inkscape:document-rotation="0"
     inkscape:lockguides="true"
     inkscape:snap-text-baseline="false"
     inkscape:guide-bbox="true"
     showguides="true"
     inkscape:object-nodes="true"
     inkscape:current-layer="layer2"
     inkscape:window-maximized="0"
     inkscape:window-y="44"
     inkscape:window-x="0"
     inkscape:cy="915.38633"
     inkscape:cx="1203.7994"
     inkscape:zoom="0.76413904"
     showgrid="false"
     id="namedview4"
     inkscape:window-height="1003"
     inkscape:window-width="961"
     inkscape:pageshadow="2"
     inkscape:pageopacity="0"
     guidetolerance="10"
     gridtolerance="10"
     objecttolerance="10"
     borderopacity="1"
     bordercolor="#666666"
     pagecolor="#ffffff">
    <sodipodi:guide
       inkscape:locked="true"
       id="guide4214"
       orientation="0,1"
       position="1824.2675,5256.9378" />
  </sodipodi:namedview>
  <g
     sodipodi:insensitive="true"
     transform="translate(0,1374)"
     style="display:inline"
     inkscape:label="artwork"
     id="layer1"
     inkscape:groupmode="layer">
    <image
       sodipodi:absref="/home/cherry/peppercarrot/webcomics/ep26_Books-Are-Great/lang/gfx_Pepper-and-Carrot_by-David-Revoy_E26P07.png"
       xlink:href="../gfx_Pepper-and-Carrot_by-David-Revoy_E26P07.png"
       width="2481"
       height="5350"
       preserveAspectRatio="none"
       style="image-rendering:optimizeQuality"
       id="image4223"
       x="0.54707891"
       y="-1373.3771" />
  </g>
  <g
     transform="translate(0,1374)"
     style="display:inline"
     inkscape:label="speechbubbles"
     id="layer3"
     inkscape:groupmode="layer" />
  <g
     transform="translate(0,1374)"
     style="display:inline;opacity:0.85500004"
     inkscape:label="text"
     id="layer2"
     inkscape:groupmode="layer">
    <text
       xml:space="preserve"
       style="font-style:normal;font-variant:normal;font-weight:normal;font-stretch:normal;font-size:15.9341px;line-height:100%;font-family:'Nanum Pen Script OTF';-inkscape-font-specification:'Nanum Pen Script OTF';text-align:center;letter-spacing:0px;word-spacing:0px;text-anchor:middle;display:inline;opacity:0.855;fill:#483e37;fill-opacity:1;stroke:none;stroke-width:1.32784;filter:url(#filter4155)"
       x="1240.2654"
       y="3875.3303"
       id="text91"><tspan
         sodipodi:role="line"
         id="tspan89"
         x="1240.2654"
         y="3875.3303"
         style="font-style:normal;font-variant:normal;font-weight:normal;font-stretch:normal;font-size:53.1137px;line-height:100%;font-family:'Nanum Pen Script OTF';-inkscape-font-specification:'Nanum Pen Script OTF';fill:#483e37;stroke-width:1.32784">여러분도 www.patreon.com/davidrevoy에서 후추와 당근의 다음 화의 후원자가 될 수 있습니다</tspan></text>
    <text
       xml:space="preserve"
       style="font-style:normal;font-variant:normal;font-weight:normal;font-stretch:normal;font-size:15.4679px;line-height:100%;font-family:'Nanum Pen Script OTF';-inkscape-font-specification:'Nanum Pen Script OTF';text-align:center;letter-spacing:0px;word-spacing:0px;text-anchor:middle;display:inline;opacity:0.855;fill:#483e37;fill-opacity:1;stroke:none;stroke-width:1.289;filter:url(#filter4155)"
       x="1243.6807"
       y="-372.39627"
       id="text99"><tspan
         id="tspan911"
         sodipodi:role="line"
         x="1243.6807"
         y="-372.39627"
         style="font-style:normal;font-variant:normal;font-weight:normal;font-stretch:normal;font-size:51.5598px;line-height:100%;font-family:'Nanum Pen Script OTF';-inkscape-font-specification:'Nanum Pen Script OTF';fill:#483e37;stroke-width:1.289">후추와 당근은 완전히 자유 오픈소스이고</tspan><tspan
         id="tspan913"
         sodipodi:role="line"
         x="1243.6807"
         y="-320.83649"
         style="font-style:normal;font-variant:normal;font-weight:normal;font-stretch:normal;font-size:51.5598px;line-height:100%;font-family:'Nanum Pen Script OTF';-inkscape-font-specification:'Nanum Pen Script OTF';fill:#483e37;stroke-width:1.289">독자들의 후원을 받아 운영하고 있습니다.</tspan><tspan
         id="tspan915"
         sodipodi:role="line"
         x="1243.6807"
         y="-269.27667"
         style="font-style:normal;font-variant:normal;font-weight:normal;font-stretch:normal;font-size:51.5598px;line-height:100%;font-family:'Nanum Pen Script OTF';-inkscape-font-specification:'Nanum Pen Script OTF';fill:#483e37;stroke-width:1.289">이번 화에 도움을 주신 1098명의 후원자분께 감사드립니다:</tspan></text>
    <text
       id="text130"
       y="-1248.812"
       x="1238.8408"
       style="color:#000000;font-style:normal;font-variant:normal;font-weight:normal;font-stretch:normal;font-size:16.442px;line-height:90%;font-family:'Nanum Pen Script OTF';-inkscape-font-specification:'Nanum Pen Script OTF';text-indent:0;text-align:center;text-decoration:none;text-decoration-line:none;letter-spacing:0px;word-spacing:0px;text-transform:none;writing-mode:lr-tb;direction:ltr;baseline-shift:baseline;text-anchor:middle;display:inline;overflow:visible;visibility:visible;opacity:0.855;fill:#060404;fill-opacity:1;fill-rule:nonzero;stroke:none;stroke-width:1.37017;enable-background:accumulate"
       xml:space="preserve"><tspan
         id="tspan178"
         y="-1248.812"
         x="1238.8408"
         style="color:#000000;font-style:normal;font-variant:normal;font-weight:normal;font-stretch:normal;font-size:48.2456px;line-height:96%;font-family:'Nanum Pen Script OTF';-inkscape-font-specification:'Nanum Pen Script OTF';text-indent:0;text-align:center;text-decoration:none;text-decoration-line:none;letter-spacing:0px;word-spacing:0px;text-transform:none;writing-mode:lr-tb;direction:ltr;baseline-shift:baseline;text-anchor:middle;display:inline;overflow:visible;visibility:visible;fill:#060404;fill-opacity:1;fill-rule:nonzero;stroke:none;stroke-width:1.37017;enable-background:accumulate"
         sodipodi:role="line"><tspan
   id="tspan1041"
   style="stroke:#000000;stroke-width:1.37017;stroke-opacity:1">라이선스:</tspan> 크리에이티브 커먼즈 저작자표시 4.0</tspan><tspan
         id="tspan196"
         y="-1202.4962"
         x="1238.8408"
         style="color:#000000;font-style:normal;font-variant:normal;font-weight:normal;font-stretch:normal;font-size:48.2456px;line-height:96%;font-family:'Nanum Pen Script OTF';-inkscape-font-specification:'Nanum Pen Script OTF';text-indent:0;text-align:center;text-decoration:none;text-decoration-line:none;letter-spacing:0px;word-spacing:0px;text-transform:none;writing-mode:lr-tb;direction:ltr;baseline-shift:baseline;text-anchor:middle;display:inline;overflow:visible;visibility:visible;fill:#060404;fill-opacity:1;fill-rule:nonzero;stroke:none;stroke-width:1.37017;enable-background:accumulate"
         sodipodi:role="line"><tspan
   id="tspan868"
   style="stroke:#000000;stroke-width:1.37017;stroke-opacity:1">소프트웨어</tspan>: 쿠분투 17.10에서 크리타 4.1, 잉크스케이프 0.92.3 사용.</tspan><tspan
         id="tspan930"
         y="-1179.1675"
         x="1238.8408"
         sodipodi:role="line" /><tspan
         id="tspan949"
         y="-1164.3698"
         x="1238.8408"
         sodipodi:role="line" /><tspan
         id="tspan934"
         y="-1126.5848"
         x="1238.8408"
         style="color:#000000;font-style:normal;font-variant:normal;font-weight:normal;font-stretch:normal;font-size:48.2456px;line-height:96%;font-family:'Nanum Pen Script OTF';-inkscape-font-specification:'Nanum Pen Script OTF';text-indent:0;text-align:center;text-decoration:none;text-decoration-line:none;letter-spacing:0px;word-spacing:0px;text-transform:none;writing-mode:lr-tb;direction:ltr;baseline-shift:baseline;text-anchor:middle;display:inline;overflow:visible;visibility:visible;fill:#060404;fill-opacity:1;fill-rule:nonzero;stroke:none;stroke-width:1.37017;enable-background:accumulate"
         sodipodi:role="line"><tspan
   id="tspan936"
   style="stroke:#000000;stroke-width:1.37017;stroke-opacity:1">그림 및 이야기:</tspan> David Revoy.</tspan><tspan
         id="tspan198"
         y="-1080.2692"
         x="1238.8408"
         style="color:#000000;font-style:normal;font-variant:normal;font-weight:normal;font-stretch:normal;font-size:48.2456px;line-height:96%;font-family:'Nanum Pen Script OTF';-inkscape-font-specification:'Nanum Pen Script OTF';text-indent:0;text-align:center;text-decoration:none;text-decoration-line:none;letter-spacing:0px;word-spacing:0px;text-transform:none;writing-mode:lr-tb;direction:ltr;baseline-shift:baseline;text-anchor:middle;display:inline;overflow:visible;visibility:visible;fill:#060404;fill-opacity:1;fill-rule:nonzero;stroke:none;stroke-width:1.37017;enable-background:accumulate"
         sodipodi:role="line"><tspan
   id="tspan1047"
   style="stroke:#000000;stroke-width:1.37017;stroke-opacity:1">대본 감수:</tspan> C. Maloney.</tspan><tspan
         id="tspan200"
         y="-1033.9534"
         x="1238.8408"
         style="color:#000000;font-style:normal;font-variant:normal;font-weight:normal;font-stretch:normal;font-size:48.2456px;line-height:96%;font-family:'Nanum Pen Script OTF';-inkscape-font-specification:'Nanum Pen Script OTF';text-indent:0;text-align:center;text-decoration:none;text-decoration-line:none;letter-spacing:0px;word-spacing:0px;text-transform:none;writing-mode:lr-tb;direction:ltr;baseline-shift:baseline;text-anchor:middle;display:inline;overflow:visible;visibility:visible;fill:#060404;fill-opacity:1;fill-rule:nonzero;stroke:none;stroke-width:1.37017;enable-background:accumulate"
         sodipodi:role="line"><tspan
   id="tspan1049"
   style="stroke:#000000;stroke-width:1.37017;stroke-opacity:1">퇴고:</tspan> C.Maloney, CalimeroTeknik.</tspan><tspan
         id="tspan878"
         y="-987.63763"
         x="1238.8408"
         style="color:#000000;font-style:normal;font-variant:normal;font-weight:normal;font-stretch:normal;font-size:48.2456px;line-height:96%;font-family:'Nanum Pen Script OTF';-inkscape-font-specification:'Nanum Pen Script OTF';text-indent:0;text-align:center;text-decoration:none;text-decoration-line:none;letter-spacing:0px;word-spacing:0px;text-transform:none;writing-mode:lr-tb;direction:ltr;baseline-shift:baseline;text-anchor:middle;display:inline;overflow:visible;visibility:visible;fill:#060404;fill-opacity:1;fill-rule:nonzero;stroke:#000000;stroke-width:1.37017;stroke-opacity:1;enable-background:accumulate"
         sodipodi:role="line">베타 독자:<tspan
   style="color:#000000;font-style:normal;font-variant:normal;font-weight:normal;font-stretch:normal;font-size:48.2456px;line-height:96%;font-family:'Nanum Pen Script OTF';-inkscape-font-specification:'Nanum Pen Script OTF';text-indent:0;text-align:center;text-decoration:none;text-decoration-line:none;letter-spacing:0px;word-spacing:0px;text-transform:none;writing-mode:lr-tb;direction:ltr;baseline-shift:baseline;text-anchor:middle;display:inline;overflow:visible;visibility:visible;fill:#060404;fill-opacity:1;fill-rule:nonzero;stroke:none;stroke-width:1.37017;enable-background:accumulate"
   id="tspan890"> Ambernite, C.Maloney, CalimeroTeknik, Jookia, Midgard, Nartance, Popolpon, Quiralta, Valvin, xHire, Zeograd</tspan></tspan><tspan
         id="tspan893"
         y="-964.30896"
         x="1238.8408"
         sodipodi:role="line" /><tspan
         id="tspan953"
         y="-949.51111"
         x="1238.8408"
         sodipodi:role="line" /><tspan
         id="tspan880"
         y="-911.72626"
         x="1238.8408"
         style="color:#000000;font-style:normal;font-variant:normal;font-weight:normal;font-stretch:normal;font-size:48.2456px;line-height:96%;font-family:'Nanum Pen Script OTF';-inkscape-font-specification:'Nanum Pen Script OTF';text-indent:0;text-align:center;text-decoration:none;text-decoration-line:none;letter-spacing:0px;word-spacing:0px;text-transform:none;writing-mode:lr-tb;direction:ltr;baseline-shift:baseline;text-anchor:middle;display:inline;overflow:visible;visibility:visible;fill:#060404;fill-opacity:1;fill-rule:nonzero;stroke:#000000;stroke-width:1.37017;stroke-opacity:1;enable-background:accumulate"
         sodipodi:role="line">한글판</tspan><tspan
         id="tspan212"
         y="-865.41052"
         x="1238.8408"
         style="color:#000000;font-style:normal;font-variant:normal;font-weight:normal;font-stretch:normal;font-size:48.2456px;line-height:96%;font-family:'Nanum Pen Script OTF';-inkscape-font-specification:'Nanum Pen Script OTF';text-indent:0;text-align:center;text-decoration:none;text-decoration-line:none;letter-spacing:0px;word-spacing:0px;text-transform:none;writing-mode:lr-tb;direction:ltr;baseline-shift:baseline;text-anchor:middle;display:inline;overflow:visible;visibility:visible;fill:#060404;fill-opacity:1;fill-rule:nonzero;stroke:#000000;stroke-width:1.37017;stroke-opacity:1;enable-background:accumulate"
         sodipodi:role="line">번역:<tspan
   style="color:#000000;font-style:normal;font-variant:normal;font-weight:normal;font-stretch:normal;font-size:48.2456px;line-height:96%;font-family:'Nanum Pen Script OTF';-inkscape-font-specification:'Nanum Pen Script OTF';text-indent:0;text-align:center;text-decoration:none;text-decoration-line:none;letter-spacing:0px;word-spacing:0px;text-transform:none;writing-mode:lr-tb;direction:ltr;baseline-shift:baseline;text-anchor:middle;display:inline;overflow:visible;visibility:visible;fill:#060404;fill-opacity:1;fill-rule:nonzero;stroke:none;stroke-width:1.37017;enable-background:accumulate"
   id="tspan940"> Jihoon Kim.</tspan></tspan><tspan
         id="tspan943"
         y="-842.08185"
         x="1238.8408"
         sodipodi:role="line" /><tspan
         id="tspan945"
         y="-827.28406"
         x="1238.8408"
         sodipodi:role="line" /><tspan
         id="tspan901"
         y="-789.49921"
         x="1238.8408"
         style="color:#000000;font-style:normal;font-variant:normal;font-weight:normal;font-stretch:normal;font-size:48.2456px;line-height:96%;font-family:'Nanum Pen Script OTF';-inkscape-font-specification:'Nanum Pen Script OTF';text-indent:0;text-align:center;text-decoration:none;text-decoration-line:none;letter-spacing:0px;word-spacing:0px;text-transform:none;writing-mode:lr-tb;direction:ltr;baseline-shift:baseline;text-anchor:middle;display:inline;overflow:visible;visibility:visible;fill:#060404;fill-opacity:1;fill-rule:nonzero;stroke:#000000;stroke-width:1.37017;stroke-opacity:1;enable-background:accumulate"
         sodipodi:role="line">헤레바 세계관을 기반으로 함</tspan><tspan
         id="tspan216"
         y="-743.18341"
         x="1238.8408"
         style="color:#000000;font-style:normal;font-variant:normal;font-weight:normal;font-stretch:normal;font-size:48.2456px;line-height:96%;font-family:'Nanum Pen Script OTF';-inkscape-font-specification:'Nanum Pen Script OTF';text-indent:0;text-align:center;text-decoration:none;text-decoration-line:none;letter-spacing:0px;word-spacing:0px;text-transform:none;writing-mode:lr-tb;direction:ltr;baseline-shift:baseline;text-anchor:middle;display:inline;overflow:visible;visibility:visible;fill:#060404;fill-opacity:1;fill-rule:nonzero;stroke:none;stroke-width:1.37017;enable-background:accumulate"
         sodipodi:role="line"><tspan
   id="tspan1055"
   style="stroke:#000000;stroke-width:1.37017;stroke-opacity:1">원작자:</tspan> David Revoy.</tspan><tspan
         id="tspan222"
         y="-696.86768"
         x="1238.8408"
         style="color:#000000;font-style:normal;font-variant:normal;font-weight:normal;font-stretch:normal;font-size:48.2456px;line-height:96%;font-family:'Nanum Pen Script OTF';-inkscape-font-specification:'Nanum Pen Script OTF';text-indent:0;text-align:center;text-decoration:none;text-decoration-line:none;letter-spacing:0px;word-spacing:0px;text-transform:none;writing-mode:lr-tb;direction:ltr;baseline-shift:baseline;text-anchor:middle;display:inline;overflow:visible;visibility:visible;fill:#060404;fill-opacity:1;fill-rule:nonzero;stroke:none;stroke-width:1.37017;enable-background:accumulate"
         sodipodi:role="line"><tspan
   id="tspan1057"
   style="stroke:#000000;stroke-width:1.37017;stroke-opacity:1">수석 감독:</tspan> Craig Maloney.</tspan><tspan
         id="tspan218"
         y="-650.55194"
         x="1238.8408"
         style="color:#000000;font-style:normal;font-variant:normal;font-weight:normal;font-stretch:normal;font-size:48.2456px;line-height:96%;font-family:'Nanum Pen Script OTF';-inkscape-font-specification:'Nanum Pen Script OTF';text-indent:0;text-align:center;text-decoration:none;text-decoration-line:none;letter-spacing:0px;word-spacing:0px;text-transform:none;writing-mode:lr-tb;direction:ltr;baseline-shift:baseline;text-anchor:middle;display:inline;overflow:visible;visibility:visible;fill:#060404;fill-opacity:1;fill-rule:nonzero;stroke:none;stroke-width:1.37017;enable-background:accumulate"
         sodipodi:role="line"><tspan
   id="tspan1059"
   style="stroke:#000000;stroke-width:1.37017;stroke-opacity:1">작가:</tspan> Craig Maloney, Nartance, Scribblemaniac, Valvin.</tspan><tspan
         id="tspan228"
         y="-604.23615"
         x="1238.8408"
         style="color:#000000;font-style:normal;font-variant:normal;font-weight:normal;font-stretch:normal;font-size:48.2456px;line-height:96%;font-family:'Nanum Pen Script OTF';-inkscape-font-specification:'Nanum Pen Script OTF';text-indent:0;text-align:center;text-decoration:none;text-decoration-line:none;letter-spacing:0px;word-spacing:0px;text-transform:none;writing-mode:lr-tb;direction:ltr;baseline-shift:baseline;text-anchor:middle;display:inline;overflow:visible;visibility:visible;fill:#060404;fill-opacity:1;fill-rule:nonzero;stroke:#000000;stroke-width:1.37017;stroke-opacity:1;enable-background:accumulate"
         sodipodi:role="line">수정:<tspan
   style="color:#000000;font-style:normal;font-variant:normal;font-weight:normal;font-stretch:normal;font-size:48.2456px;line-height:96%;font-family:'Nanum Pen Script OTF';-inkscape-font-specification:'Nanum Pen Script OTF';text-indent:0;text-align:center;text-decoration:none;text-decoration-line:none;letter-spacing:0px;word-spacing:0px;text-transform:none;writing-mode:lr-tb;direction:ltr;baseline-shift:baseline;text-anchor:middle;display:inline;overflow:visible;visibility:visible;fill:#060404;fill-opacity:1;fill-rule:nonzero;stroke:none;stroke-width:1.37017;enable-background:accumulate"
   id="tspan907"> Willem Sonke, Moini, Hali, CGand, Alex Gryson.</tspan></tspan><tspan
         id="tspan910"
         y="-580.90747"
         x="1238.8408"
         sodipodi:role="line" /><tspan
         id="tspan947"
         y="-566.10968"
         x="1238.8408"
         sodipodi:role="line" /><tspan
         id="tspan912"
         y="-528.32483"
         x="1238.8408"
         style="color:#000000;font-style:normal;font-variant:normal;font-weight:normal;font-stretch:normal;font-size:48.2456px;line-height:96%;font-family:'Nanum Pen Script OTF';-inkscape-font-specification:'Nanum Pen Script OTF';text-indent:0;text-align:center;text-decoration:none;text-decoration-line:none;letter-spacing:0px;word-spacing:0px;text-transform:none;writing-mode:lr-tb;direction:ltr;baseline-shift:baseline;text-anchor:middle;display:inline;overflow:visible;visibility:visible;fill:#060404;fill-opacity:1;fill-rule:nonzero;stroke:#000000;stroke-width:1.37017;stroke-opacity:1;enable-background:accumulate"
         sodipodi:role="line">2018년 7월 28일</tspan><tspan
         id="tspan230"
         y="-482.00906"
         x="1238.8408"
         style="color:#000000;font-style:normal;font-variant:normal;font-weight:normal;font-stretch:normal;font-size:48.2456px;line-height:96%;font-family:'Nanum Pen Script OTF';-inkscape-font-specification:'Nanum Pen Script OTF';text-indent:0;text-align:center;text-decoration:none;text-decoration-line:none;letter-spacing:0px;word-spacing:0px;text-transform:none;writing-mode:lr-tb;direction:ltr;baseline-shift:baseline;text-anchor:middle;display:inline;overflow:visible;visibility:visible;fill:#060404;fill-opacity:1;fill-rule:nonzero;stroke:#000000;stroke-width:1.37017;stroke-opacity:1;enable-background:accumulate"
         sodipodi:role="line">www.peppercarrot.com</tspan></text>
  </g>
  <g
     sodipodi:insensitive="true"
     inkscape:label="notes"
     id="layer4"
     inkscape:groupmode="layer">
    <path
       sodipodi:nodetypes="cccccccccccc"
       inkscape:connector-curvature="0"
       id="rect4191-6"
       d="M -1041.1335,339.9924 V 635.54889 H -53.148364 V 447.4754 h 10 v 15.6308 l 30.98255,-26.9824 -30.98255,-26.9804 v 16.6171 h -10 v -85.7681 z"
       style="color:#000000;clip-rule:nonzero;display:inline;overflow:visible;visibility:visible;opacity:0.481;isolation:auto;mix-blend-mode:normal;color-interpolation:sRGB;color-interpolation-filters:linearRGB;solid-color:#000000;solid-opacity:1;fill:#ffe680;fill-opacity:1;fill-rule:nonzero;stroke:#565656;stroke-width:1.20000005;stroke-linecap:butt;stroke-linejoin:miter;stroke-miterlimit:4;stroke-dasharray:none;stroke-dashoffset:0;stroke-opacity:1;marker:none;color-rendering:auto;image-rendering:auto;shape-rendering:auto;text-rendering:auto;enable-background:accumulate" />
    <flowRoot
       transform="matrix(1.2506418,0,0,1.2506418,-675.90518,-964.50453)"
       style="font-style:normal;font-variant:normal;font-weight:normal;font-stretch:normal;line-height:0.01%;font-family:Lavi;-inkscape-font-specification:'Lavi, Normal';text-align:center;letter-spacing:0px;word-spacing:0px;writing-mode:lr-tb;text-anchor:middle;display:inline;opacity:0.689;fill:#000000;fill-opacity:1;stroke:none;stroke-width:0.799589px;stroke-linecap:butt;stroke-linejoin:miter;stroke-opacity:1"
       id="flowRoot4212-7"
       xml:space="preserve"><flowRegion
         style="stroke-width:0.799589px"
         id="flowRegion4214-5"><rect
           style="stroke-width:0.79958946px"
           y="1061.6674"
           x="-275.14545"
           height="267.66235"
           width="756.58167"
           id="rect4216-3" /></flowRegion><flowPara
         id="flowPara920"
         style="font-size:25.3242px;line-height:1.25;stroke-width:0.799589px">Remove the names of the people who helped to create the English version and create this section for your language. You can credit translators, proofreaders, whatever categories you want.</flowPara><flowPara
         id="flowPara915"
         style="font-size:10.6612px;line-height:1.25;stroke-width:0.799589px"> </flowPara><flowPara
         id="flowPara913"
         style="font-size:25.3242px;line-height:1.25;stroke-width:0.799589px">N.B.: In Inkscape, if you press Enter to create a new line, it will not push down text below it until the line has text. So to create a whiteline, type a space on its own line.</flowPara></flowRoot>
  </g>
</svg>
