<?xml version="1.0" encoding="UTF-8" standalone="no"?>
<!-- Created with Inkscape (http://www.inkscape.org/) -->

<svg
   id="svg2"
   version="1.1"
   inkscape:version="1.1 (c68e22c387, 2021-05-23)"
   width="2481"
   height="3503"
   sodipodi:docname="E37P06.svg"
   xmlns:inkscape="http://www.inkscape.org/namespaces/inkscape"
   xmlns:sodipodi="http://sodipodi.sourceforge.net/DTD/sodipodi-0.dtd"
   xmlns:xlink="http://www.w3.org/1999/xlink"
   xmlns="http://www.w3.org/2000/svg"
   xmlns:svg="http://www.w3.org/2000/svg"
   xmlns:rdf="http://www.w3.org/1999/02/22-rdf-syntax-ns#"
   xmlns:cc="http://creativecommons.org/ns#"
   xmlns:dc="http://purl.org/dc/elements/1.1/">
  <metadata
     id="metadata8">
    <rdf:RDF>
      <cc:Work
         rdf:about="">
        <dc:format>image/svg+xml</dc:format>
        <dc:type
           rdf:resource="http://purl.org/dc/dcmitype/StillImage" />
        <dc:title />
      </cc:Work>
    </rdf:RDF>
  </metadata>
  <defs
     id="defs6" />
  <sodipodi:namedview
     pagecolor="#ffffff"
     bordercolor="#666666"
     borderopacity="1"
     objecttolerance="10"
     gridtolerance="10"
     guidetolerance="10"
     inkscape:pageopacity="0"
     inkscape:pageshadow="2"
     inkscape:window-width="1366"
     inkscape:window-height="745"
     id="namedview4"
     showgrid="false"
     inkscape:zoom="0.49469369"
     inkscape:cx="1809.2004"
     inkscape:cy="2994.7825"
     inkscape:window-x="-8"
     inkscape:window-y="-8"
     inkscape:window-maximized="1"
     inkscape:current-layer="layer3"
     inkscape:pagecheckerboard="0"
     inkscape:showpageshadow="0"
     inkscape:deskcolor="#d1d1d1" />
  <g
     inkscape:groupmode="layer"
     id="layer2"
     inkscape:label="artwork"
     sodipodi:insensitive="true">
    <image
       xlink:href="../gfx_Pepper-and-Carrot_by-David-Revoy_E37P06.png"
       y="0"
       x="0"
       id="image10"
       height="3503"
       width="2481" />
  </g>
  <g
     inkscape:groupmode="layer"
     id="layer3"
     inkscape:label="speechbubbles">
    <path
       style="fill:#ffffff;fill-rule:evenodd;stroke:none;stroke-width:1.71942px;stroke-linecap:butt;stroke-linejoin:miter;stroke-opacity:1"
       d="m 114.9538,235.7163 c -1.71939,-67.16519 42.98823,-79.01645 67.06146,-82.96846 24.07344,-3.94963 123.80582,-23.70495 161.63538,7.90162 37.82957,31.60659 48.14688,84.9433 30.95151,104.6986 -17.19516,19.75291 -72.22012,49.38468 -106.61064,51.35949 -34.39034,1.9748 -108.33006,-9.87646 -132.4033,-37.53343 C 111.51477,251.5196 114.9538,235.7163 114.9538,235.7163 Z"
       id="path1365"
       inkscape:connector-curvature="0" />
    <path
       style="fill:#ffffff;fill-rule:evenodd;stroke:none;stroke-width:1.18625px;stroke-linecap:butt;stroke-linejoin:miter;stroke-opacity:1"
       d="m 276.57128,286.65867 c 0,0 -8.31854,14.71485 -3.94644,34.32306 4.3721,19.60821 13.90542,39.57744 34.7933,54.14841 -41.89702,-20.22752 -65.69947,-37.55159 -66.67128,-74.5854 -0.97218,-37.03494 35.82442,-13.88607 35.82442,-13.88607 z"
       id="path1357"
       inkscape:connector-curvature="0" />
    <path
       style="fill:#ffffff;fill-rule:evenodd;stroke:none;stroke-width:0.863598px;stroke-linecap:butt;stroke-linejoin:miter;stroke-opacity:1"
       d="m 972.84289,186.69449 c -49.16605,1.19933 -98.90689,1.06407 -147.14357,7.17005 -21.69527,3.00488 -43.73206,7.33198 -60.39111,15.91505 -17.92794,9.96483 -27.56261,23.4875 -33.19767,36.97735 -10.74397,25.3834 -9.93423,52.74566 7.43012,77.18691 8.43027,11.80298 21.42942,23.15357 40.96795,30.17922 20.13901,7.03635 43.14555,10.91293 65.83023,14.57496 38.72824,5.31467 79.00049,4.83621 118.5629,3.84562 35.23036,-0.93525 71.03466,-3.13143 103.88056,-10.68482 18.1667,-4.07172 36.1745,-9.24132 49.6736,-17.2826 14.4266,-9.16557 21.7767,-21.02196 25.9624,-32.78302 6.8601,-20.11772 4.5734,-40.79732 -0.6689,-60.94206 -2.3454,-10.05474 -4.2238,-20.58654 -13.7569,-29.48613 -9.4527,-8.41882 -25.2497,-13.75329 -40.8737,-18.10981 -35.8895,-10.12528 -75.7126,-16.84501 -116.27591,-16.56072 z"
       id="path1353"
       inkscape:connector-curvature="0"
       sodipodi:nodetypes="csssscscsscsc" />
    <path
       style="color:#000000;display:inline;overflow:visible;visibility:visible;fill:#ffffff;fill-opacity:1;fill-rule:nonzero;stroke:none;stroke-width:0.861851px;marker:none;enable-background:accumulate"
       d="m 953.70508,340.64258 c -7.89156,5.93196 -11.59104,16.28682 -10.73276,25.94957 0.42223,4.4898 2.07058,8.76171 2.48862,13.25746 1.01197,7.55227 1.05293,15.42171 -1.40821,22.71484 -1.20442,1.72882 -3.79048,1.05453 -5.01568,-0.29626 -10.07465,-6.60916 -20.06188,-13.83162 -31.69135,-17.45527 -3.79347,-0.92218 -7.49599,1.78526 -9.23632,5.00153 -1.4402,2.77657 -2.01316,5.92993 -2.32924,9.01606 -0.55273,6.5806 1.28554,13.1049 3.96106,19.05818 3.14714,8.05533 6.31422,16.4571 5.93458,25.25193 -0.84545,6.13098 -8.24835,10.22802 -13.88693,7.6472 -6.28697,-1.87961 -10.73205,-6.98767 -15.56562,-11.11151 -8.86497,-7.84865 -17.5953,-16.18188 -28.30526,-21.49467 -7.38254,-2.49937 -15.71863,0.24411 -21.23633,5.4668 -3.28278,2.9805 -6.07223,6.44058 -8.94141,9.80664 5.8814,-4.02407 11.87998,-8.29236 18.92579,-9.9668 5.92728,0.27474 10.83062,3.99283 15.65346,7.04174 9.22342,6.01627 16.39972,14.65414 22.20637,23.90936 3.76567,5.4691 7.51953,11.12941 12.67093,15.3981 3.2658,1.63675 6.90342,2.34098 10.46142,3.03947 5.33481,0.86184 10.93374,1.00049 16.1436,-0.58041 5.05084,-2.68449 7.63974,-8.48655 7.90731,-14.00736 1.31557,-10.50648 -1.34041,-20.96489 -4.32747,-30.9597 -1.34044,-4.77497 -2.55206,-9.60437 -3.14531,-14.53651 1.14339,-2.41987 4.68319,-2.64674 6.56055,-0.98047 7.59492,3.4498 13.00439,10.01681 19.08789,15.47852 8.59672,6.12612 21.82202,3.74033 27.89071,-4.84806 5.2193,-6.70376 6.94821,-15.35423 7.43486,-23.65494 0.82894,-10.02392 1.61175,-20.28559 5.5879,-29.65192 1.16442,-3.02572 2.64205,-5.92432 4.30918,-8.70251 -0.35144,-1.98682 -2.65366,-2.40619 -4.00685,-3.52799 -9.0205,-5.41384 -18.041,-10.82769 -27.06151,-16.24154 l -0.16601,-0.0293 z m 33.15039,19.79687 c -0.62158,0.68067 0.23902,-0.002 0,0 z"
       id="path5058-2"
       inkscape:connector-curvature="0"
       sodipodi:nodetypes="cscsssssscssssccscccc" />
    <path
       style="display:inline;fill:#ffffff;fill-rule:evenodd;stroke:none;stroke-width:0.918644px;stroke-linecap:butt;stroke-linejoin:miter;stroke-opacity:1"
       d="m 1172.9223,85.397215 c 37.9031,-0.463414 50.6756,0.344733 59.4534,1.354983 -1.6298,-2.470478 51.8695,-1.417509 111.9939,0.05891 -17.8887,-1.809131 29.79,-1.928643 89.142,-0.916818 -6.7129,-0.872767 8.6212,58.90568 71.8605,22.77656 -19.1061,45.96681 -48.6212,76.28253 88.6066,21.06561 -40.1785,30.80918 -103.4292,69.74115 -15.7561,97.02039 -78.951,12.02554 -99.1366,68.3397 -78.5425,95.0235 -37.6135,-54.00492 -70.2325,-45.12274 -55.5737,41.03095 -37.8343,-40.90446 -68.8396,-68.53391 -76.0452,-21.98864 -14.9164,-26.16528 -50.2599,-27.42913 -67.8546,29.64513 -26.7982,-54.69918 -56.0737,-67.60153 -85.6185,1.96349 -0.418,-44.63382 -14.9345,-76.51256 -42.8618,-53.59717 z"
       id="path1100"
       inkscape:connector-curvature="0"
       sodipodi:nodetypes="cccccccccccccc" />
    <path
       style="display:inline;fill:#ffffff;fill-rule:evenodd;stroke:none;stroke-width:1.02035px;stroke-linecap:butt;stroke-linejoin:miter;stroke-opacity:1"
       d="m 2394.4792,802.66902 c -42.3914,0.57491 -56.6763,-0.42767 -66.4936,-1.68097 1.8228,3.06484 -58.0116,1.75854 -125.2556,-0.0731 20.0069,2.24438 -97.0198,12.60536 -163.3999,11.35011 6.0023,-10.18279 -47.7931,-10.17152 -73.0835,-0.15757 72.6255,-32.45072 98.2079,-98.5348 7.6797,-124.01874 64.3462,-4.85589 79.7958,-55.87849 -8.9939,-87.15318 81.6144,7.45346 77.8782,-15.36555 18.6475,-63.01035 69.4585,29.93175 127.1999,4.51295 86.8406,-58.17298 53.0056,35.31915 133.3928,77.20862 100.9827,-24.06269 56.3922,74.78739 76.8707,84.93972 96.549,14.13424 29.9715,67.85899 70.9604,59.05285 88.0025,15.25449 -3.1588,45.57622 10.5614,72.74359 41.7957,44.31509 z"
       id="path1100-1"
       inkscape:connector-curvature="0"
       sodipodi:nodetypes="cccccccccccccc" />
    <path
       style="display:inline;fill:#ffffff;fill-rule:evenodd;stroke:none;stroke-width:1.21129px;stroke-linecap:butt;stroke-linejoin:miter;stroke-opacity:1"
       d="m 1418.7386,299.99278 c 32.8791,33.53516 56.7879,77.06946 103.0231,108.5417 l -39.4041,4.85315 c 33.1236,33.29864 86.1701,72.49084 86.1701,72.49084 0,0 -36.1582,-9.1905 -137.95,-87.08512 l 35.6661,-4.58596 c -28.5603,-35.78999 -82.3648,-65.49689 -123.704,-98.20746 z"
       id="path957"
       sodipodi:nodetypes="cccccccc" />
    <path
       style="display:inline;fill:#ffffff;fill-rule:evenodd;stroke:none;stroke-width:1.15094px;stroke-linecap:butt;stroke-linejoin:miter;stroke-opacity:1"
       d="m 2135.3316,677.94435 c -94.5252,-53.78313 -255.9511,-97.55437 -255.9511,-97.55437 0,0 30.8361,-7.14437 136.3682,19.77436 l 147.9944,28.48852 c 276.9342,105.20644 -79.315,87.53799 -28.4115,49.29149 z"
       id="path957-2"
       sodipodi:nodetypes="ccccc" />
    <path
       style="fill:#ffffff;fill-rule:evenodd;stroke:none;stroke-width:2.54416px;stroke-linecap:butt;stroke-linejoin:miter;stroke-opacity:1"
       d="m 1344.4209,982.24085 c 13.2633,-54.88618 69.6329,-82.32837 145.898,-88.21 76.2649,-5.87982 404.5354,-1.95873 447.6414,11.76145 43.1067,13.722 132.6347,45.08528 92.8446,109.7723 -39.7907,64.6872 -179.057,54.8863 -248.6902,54.8863 -69.6329,0 -334.902,5.8816 -378.0081,-19.6018 -43.1064,-25.4835 -56.3695,-5.8799 -59.6857,-68.60825 z"
       id="path1297"
       inkscape:connector-curvature="0" />
    <path
       style="fill:#ffffff;fill-rule:evenodd;stroke:none;stroke-width:0.989485px;stroke-linecap:butt;stroke-linejoin:miter;stroke-opacity:1"
       d="m 1763.2585,1028.0138 c -44.1943,0.4776 -88.2501,4.4721 -132.3793,6.3997 -17.8399,3.2608 -35.7582,8.5253 -50.9365,18.6533 -11.9275,11.8857 -18.883,27.5524 -25.3416,42.7933 -5.6704,17.9917 -1.6704,37.0434 2.1145,54.9799 3.101,13.4516 9.4876,26.4406 19.9623,35.7311 9.0462,9.0827 20.2489,17.1447 33.4249,18.3904 12.4726,1.7647 25.0699,2.5188 37.517,4.482 25.5943,2.9413 51.3275,7.2967 77.1671,5.3437 35.2311,-3.4753 70.2482,-9.046 104.9202,-16.1266 9.1978,-2.1013 18.5013,-6.6801 23.2064,-15.2103 5.0168,-7.7973 9.4563,-16.0168 13.1648,-24.4921 4.4491,-13.6935 2.3424,-28.2568 2.8118,-42.3754 -0.1919,-11.669 0.2171,-24.209 -6.2762,-34.4855 -6.335,-10.6355 -15.5998,-19.1342 -24.5975,-27.5061 -9.7617,-8.49 -21.5607,-14.2286 -33.7611,-18.3694 -13.0771,-4.9184 -26.9082,-8.5816 -40.9968,-8.208 z"
       id="path1299"
       inkscape:connector-curvature="0"
       sodipodi:nodetypes="ccssssssscscc" />
    <path
       style="display:inline;fill:#ffffff;fill-rule:evenodd;stroke:none;stroke-width:1.60593px;stroke-linecap:butt;stroke-linejoin:miter;stroke-opacity:1"
       d="m 1635.2141,1117.0506 c 43.952,26.7075 84.4688,19.7454 83.7143,-39.6058 20.9694,64.6794 35.521,79.4106 44.151,48.0532 27.7621,27.8998 45.1018,20.7498 58.8683,1.5849 5.1312,25.2625 16.1348,15.4205 25.6581,14.4285 3.1365,5.7695 -7.6361,19.6011 35.8857,1.9574 2.8194,7.5991 6.617,14.1808 32.1099,-1.8135 6.6047,30.7158 27.7947,-0.9446 49.5029,-34.8196 -13.5248,42.0008 -7.9168,48.1362 9.3654,32.388 -7.9013,17.2334 -12.627,30.6118 17.3928,1.8067 -10.2772,31.9255 16.6851,10.5482 60.206,-34.5313 -32.516,38.1584 -61.9058,95.6848 12.7175,76.4166 -20.8563,13.1987 -55.9443,54.7231 0.3822,72.1924 -10.5153,6.5569 -42.6185,-4.3023 -15.8386,25.3768 3.5879,3.4816 -8.4236,5.2255 14.5007,14.7569 -13.5325,-0.9713 -21.8315,0.9723 -9.3653,14.4759 -24.702,-1.3764 -35.603,30.0889 -17.4673,48.2378 -35.7721,-23.6177 -37.7407,-15.437 -38.7998,-6.3999 -44.8326,-32.0934 -47.4644,-22.4398 -53.5163,-16.1697 -21.8526,-0.3477 -43.7052,-4.825 -65.5578,29.0312 -5.7229,-21.5776 -17.1968,-38.3774 -65.5577,-24.5271 21.2341,-26.6838 -8.9742,-10.1324 -32.1099,0.474 12.6695,-33.707 -19.4839,-12.2271 -60.206,19.8026 22.8041,-36.9846 -3.096,-24.1001 -41.4753,1.5613 29.2504,-66.8582 2.145,-78.1859 -65.5577,-58.0023 27.0152,-12.5955 44.3635,-61.9501 16.3117,-92.8682 31.6224,9.7324 42.7365,-17.1386 6.9771,-34.501 47.3668,13.3182 31.6263,-32.0489 -2.2919,-59.3058 z"
       id="path4508-2"
       inkscape:connector-curvature="0"
       sodipodi:nodetypes="cccccccccccccccccccccccccccc" />
    <path
       style="display:inline;fill:#ffffff;fill-rule:evenodd;stroke:none;stroke-width:1.41701px;stroke-linecap:butt;stroke-linejoin:miter;stroke-opacity:1"
       d="m 1715.9751,1228.435 c 47.6698,27.5102 91.6137,20.3389 90.7954,-40.7962 22.7432,66.6234 38.5256,81.7973 47.8857,49.4975 30.1104,28.7383 48.9167,21.3734 63.8477,1.6325 5.5652,26.0218 17.4996,15.884 27.8283,14.8622 3.4019,5.9429 -8.2819,20.1902 38.9213,2.0162 3.0577,7.8275 7.1766,14.607 34.8258,-1.868 7.1634,31.639 30.1457,-0.973 53.6902,-35.8661 -14.6689,43.2631 -8.5864,49.5829 10.1576,33.3614 -8.5697,17.7514 -13.6951,31.5319 18.8641,1.861 -11.1467,32.885 18.0963,10.8652 65.2985,-35.5691 -35.2664,39.3052 -67.1422,98.5606 13.7932,78.7133 -22.6204,13.5954 -60.6764,56.3678 0.4145,74.3621 -11.4047,6.754 -46.2235,-4.4316 -17.1783,26.1396 3.8914,3.5862 -9.1361,5.3825 15.7274,15.2004 -14.6773,-1.0005 -23.6784,1.0015 -10.1577,14.911 -26.7914,-1.4178 -38.6144,30.9932 -18.9448,49.6875 -38.7979,-24.3275 -40.9329,-15.9009 -42.0816,-6.5922 -48.6249,-33.058 -51.4792,-23.1142 -58.043,-16.6557 -23.7011,-0.3581 -47.4021,-4.97 -71.1032,29.9038 -6.2069,-22.2262 -18.6513,-39.5309 -71.1029,-25.2643 23.0303,-27.4858 -9.7333,-10.4369 -34.8258,0.4882 13.7411,-34.72 -21.1322,-12.5946 -65.2987,20.3978 24.7331,-38.0962 -3.3579,-24.8244 -44.9836,1.6082 31.7247,-68.8676 2.3264,-80.5358 -71.103,-59.7455 29.3004,-12.9741 48.1161,-63.8121 17.6916,-95.6594 34.2971,10.0249 46.3513,-17.6537 7.5672,-35.5379 51.3734,13.7184 34.3014,-33.0122 -2.4859,-61.0883 z"
       id="path4508-2-3"
       inkscape:connector-curvature="0"
       sodipodi:nodetypes="cccccccccccccccccccccccccccc" />
    <path
       style="color:#000000;display:inline;overflow:visible;visibility:visible;fill:#ffffff;fill-opacity:1;fill-rule:nonzero;stroke:none;stroke-width:0.969926px;marker:none;enable-background:accumulate"
       d="m 1246.2312,1001.9329 c 22.2211,-34.14103 39.9857,-36.59103 52.6492,-39.61603 1.7643,3.396 6.1135,8.794 6.1135,8.794 1.3611,-5.44434 56.7367,-23.68633 64.0338,-12.39927 10.1747,-0.224 10.4078,17.98503 10.4078,17.98503 -1.59,-7.94978 -77.0372,12.13063 -85.791,20.76224 -4.4313,-9.518 -7.9052,-13.563 -7.9875,-17.682 -7.6447,-0.519 -31.1799,10.299 -39.4258,22.15603 z"
       id="path4456-5"
       inkscape:connector-curvature="0"
       sodipodi:nodetypes="cccccccc" />
    <path
       style="display:inline;fill:#ffffff;fill-rule:evenodd;stroke:none;stroke-width:0.82688px;stroke-linecap:butt;stroke-linejoin:miter;stroke-opacity:1"
       d="m 223.03839,2049.9977 c 44.40963,1.9562 108.39666,5.8779 57.9817,-1.6857 32.66257,1.8313 74.4298,5.4214 86.29409,2.504 11.54755,1.0885 18.41219,0.7184 12.62143,-1.5634 31.52989,2.8416 47.3862,1.7361 66.08925,1.3475 21.2963,2.0346 36.6284,1.6171 46.39705,-1.0877 -7.1015,5.6406 50.2879,1.5728 95.63051,-0.7951 -3.07518,1.2879 -30.40238,4.8783 16.18142,1.4514 -4.39723,1.8574 -3.94257,3.3811 100.135,-2.2207 -45.96467,5.0275 -24.28187,3.8873 -0.012,2.5113 -38.82049,5.4257 29.77888,9.4415 55.83106,8.9116 -77.90021,15.1943 -113.62842,42.3338 12.24418,88.4165 -49.05016,0.2837 -123.65447,-22.422 -98.99442,77.9462 -73.57472,-54.7599 -108.93439,-5.4464 -93.80044,40.6583 -43.95744,-62.393 -71.64944,-62.0197 -80.92629,9.4158 -25.33646,-60.767 -52.20379,-72.9244 -81.34293,-12.945 10.95777,-89.6863 -56.59211,-63.2022 -89.46096,-23.7851 25.74854,-41.6566 -20.31954,-48.5646 -72.57645,-9.3964 63.90502,-63.2583 18.53891,-58.536 -56.43499,-35.3941 89.38703,-46.0158 76.25662,-65.3801 -14.79036,-64.4883 111.07935,-6.0948 89.32452,-76.0106 38.93318,-79.8011 z"
       id="path740849"
       sodipodi:nodetypes="cccccccccccccccccccccc" />
    <path
       style="color:#000000;display:inline;overflow:visible;visibility:visible;fill:#ffffff;fill-opacity:1;fill-rule:nonzero;stroke:none;stroke-width:1px;marker:none;enable-background:accumulate"
       d="m 625.17576,2198.464 c 32.4119,11.8493 68.59806,43.3077 68.15392,52.5243 2.57923,-9.5085 6.6039,-17.4308 9.62749,-23.6657 13.04254,7.2714 43.8298,44.5047 61.80037,65.0819 -15.05247,-42.9 -51.67758,-88.1131 -70.34793,-102.0634 -0.43359,10.3146 -2.88747,18.5199 -5.87724,22.4034 -19.74556,7.9495 -28.17774,-60.2326 -25.11612,-64.3964 z"
       id="path5066-6"
       inkscape:connector-curvature="0"
       sodipodi:nodetypes="cccccccc" />
    <path
       style="color:#000000;display:inline;overflow:visible;visibility:visible;fill:#ffffff;fill-opacity:1;fill-rule:nonzero;stroke:none;stroke-width:1.71778px;marker:none;enable-background:accumulate"
       d="m 1876.7755,2268.1362 c 11.7561,76.7939 -80.6656,46.5565 -111.8121,31.507 63.0292,40.8155 94.4663,69.9248 -22.5914,68.0358 115.6097,58.0789 20.6766,60.3091 0.7095,78.5943 93.9627,11.6338 52.5463,93.5064 34.9161,96.2133 109.5495,0.03 72.5004,2.1424 76.1711,3.8204 9.7338,-0.789 55.2188,-3.1932 56.3665,-0.5235 73.9154,-2.5576 162.1416,-4.2154 166.5562,0.2415 30.4686,-2.2467 98.0865,0.9233 56.3667,-0.5235 74.3184,-3.4891 138.6314,-2.246 203.4819,-1.2719 17.7712,-1.0525 20.6837,-2.6659 76.0465,-2.2956 -7.2048,-1.0397 -12.7199,-66.3049 -7.9448,-76.2806 -6.2698,-14.3738 -7.3916,-29.3556 4.3679,-45.8568 -8.9105,-1.3044 -17.2147,-4.2642 -6.6052,-59.6777 -14.6023,2.9472 -104.9075,10.7526 -20.6806,-87.0778 -63.7337,45.3282 -187.9919,81.096 -170.8929,-22.8262 -35.6174,61.4705 -92.1787,88.3576 -111.5259,11.4433 -37.6563,69.8993 -84.0492,43.9845 -111.404,-4.9652 -21.7717,36.7737 -58.586,89.9323 -111.5255,11.4432 z"
       id="path3549-3-7-5"
       inkscape:connector-curvature="0"
       sodipodi:nodetypes="ccccccccccccccccccc" />
    <path
       style="display:inline;fill:#ffffff;fill-rule:evenodd;stroke:none;stroke-width:1.48551px;stroke-linecap:butt;stroke-linejoin:miter;stroke-opacity:1"
       d="m 1638.1063,2831.3751 c 23.2906,-24.5479 21.7906,-78.7576 -6.7407,-96.039 61.9057,-9.5217 13.9306,-50.7764 -17.5803,-98.8817 47.1017,29.3068 104.8202,82.7376 80.6418,-61.7656 33.4132,41.0387 60.7034,76.8135 81.6362,15.3495 10.6242,28.729 32.4167,55.4766 56.3365,8.0436 8.3893,23.5223 17.9407,14.3706 28.7095,-29.0096 9.7791,53.5268 33.0234,52.8016 57.2777,-4.2309 16.9931,58.5316 35.7255,107.1408 77.0402,26.9303 -6.351,59.9163 15.0497,57.2491 48.9939,26.2946 -5.1147,26.0272 0.6083,34.6776 40.6367,13.8857 -10.6441,25.1809 -25.0557,40.3152 13.5377,32.7592 -17.1502,22.8898 -35.9681,73.5227 22.4685,60.9701 -45.8464,38.6945 -19.7519,54.2786 -18.7656,76.7243 -32.8074,-13.4931 -47.9945,-7.6661 -15.1323,50.8466 -17.0383,-0.9543 -61.9918,-65.0009 -41.5102,18.845 -26.0751,-47.0442 -55.3583,9.5377 -40.4831,11.7144 l -61.943,16.6361 -96.8733,-16.1136 -68.9648,-0.1662 -57.8755,10.0764 c 9.4679,-36.4827 -10.5004,-23.8262 -26.0707,-18.5116 -4.6062,-10.7792 7.2234,-36.6069 -26.6898,-20.5518 1.8533,-26.4573 -14.6136,-23.1569 -28.6494,-23.8058 z"
       id="path1058"
       sodipodi:nodetypes="cccccccccccccccccccccccc" />
    <path
       style="display:inline;fill:#ffffff;fill-rule:evenodd;stroke:none;stroke-width:1.78873px;stroke-linecap:butt;stroke-linejoin:miter;stroke-opacity:1"
       d="m 1718.6503,2980.1238 c 56.466,-0.6337 48.9848,27.3313 28.6499,61.0445 15.6433,-2.8062 52.2298,-34.7059 30.5356,14.3554 47.369,-19.3144 18.1863,17.2495 14.3371,35.226 19.0943,-4.474 30.7833,11.2359 7.56,72.1853 23.4509,-15.0224 59.2864,-69.452 56.616,-1.3564 18.9848,-9.1565 43.9285,-42.6164 47.0942,12.746 31.6837,-48.2362 60.6845,-53.8615 66.9564,32.6235 23.3221,-56.6696 43.6308,-67.8343 59.5814,-13.1755 22.2099,-37.5063 53.8964,-48.2571 81.8167,20.8422 -8.151,-55.2631 4.2227,-90.2056 95.5628,-46.9682 -0.6625,-48.8993 18.3971,-71.5045 94.5671,-17.9675 -16.1887,-31.9507 -55.3287,-82.3154 35.7848,-28.1773 -47.9186,-67.5094 4.0731,-112.1692 43.9727,-159.5947 -48.5845,33.8559 -53.7307,21.5488 -35.4254,-15.6809 -77.2578,45.7026 -69.155,-19.5782 -48.5975,-101.0525 -56.5723,44.8418 -48.4569,19.683 -34.8942,-3.5429 -100.5483,48.674 -58.6128,-23.9411 -49.3283,-51.9807 -72.8371,127.1495 -51.4222,49.5243 -43.3818,0.9576 -41.3506,75.7122 -58.7814,76.2916 -50.8909,3.0708 -69.3445,91.6434 -38.6496,7.2211 -61.289,11.3203 l -283.7927,89.3156 -31.3237,35.3302 c 29.0765,10.9236 27.7461,41.0108 -24.1112,50.4792 z"
       id="path961"
       sodipodi:nodetypes="cccccccccccccccccccccccc" />
    <path
       style="display:inline;fill:#ffffff;fill-rule:evenodd;stroke:none;stroke-width:1px;stroke-linecap:butt;stroke-linejoin:miter;stroke-opacity:1"
       d="m 1487.7373,2719.1203 100.518,94.2706 6.505,-33.2379 70.6075,62.6158 11.5455,-27.2884 -90.5705,-67.709 -8.6863,37.6437 z"
       id="path4667-2"
       inkscape:connector-curvature="0" />
  </g>
  <g
     inkscape:groupmode="layer"
     id="layer1"
     inkscape:label="txt"
     style="display:inline">
    <text
       xml:space="preserve"
       style="font-style:normal;font-variant:normal;font-weight:normal;font-stretch:normal;font-size:45.3333px;line-height:125%;font-family:Lavi;-inkscape-font-specification:Lavi;text-align:center;letter-spacing:0px;word-spacing:0px;text-anchor:middle;fill:#000000;fill-opacity:1;stroke:none"
       x="248.18468"
       y="212.4789"
       id="text4246-70-2-2-2-7-4-9-9-6-1-2-3-9-2-7-9"><tspan
         sodipodi:role="line"
         style="font-size:45.3333px"
         x="248.18468"
         y="212.4789"
         id="tspan1721">So, was</tspan><tspan
         sodipodi:role="line"
         style="font-size:45.3333px"
         x="248.18468"
         y="269.14554"
         id="tspan4210">meinst du?</tspan></text>
    <text
       xml:space="preserve"
       style="font-style:normal;font-variant:normal;font-weight:normal;font-stretch:normal;font-size:45.3333px;line-height:125%;font-family:Lavi;-inkscape-font-specification:Lavi;text-align:center;letter-spacing:0px;word-spacing:0px;text-anchor:middle;fill:#000000;fill-opacity:1;stroke:none"
       x="941.63519"
       y="262.15771"
       id="text4246-70-2-2-2-7-4-9-9-6-1-2-3-9-2-7-9-3"><tspan
         sodipodi:role="line"
         style="font-size:45.3333px"
         x="941.63519"
         y="262.15771"
         id="tspan1018">Bringt dich das </tspan><tspan
         sodipodi:role="line"
         style="font-size:45.3333px"
         x="941.63519"
         y="318.82434"
         id="tspan5738">nicht zum Weinen?</tspan></text>
    <text
       xml:space="preserve"
       style="font-style:normal;font-variant:normal;font-weight:normal;font-stretch:normal;font-size:62.7287px;line-height:125%;font-family:Lavi;-inkscape-font-specification:Lavi;text-align:center;letter-spacing:0px;word-spacing:0px;text-anchor:middle;fill:#000000;fill-opacity:1;stroke:none;stroke-width:0.807928"
       x="1344.2051"
       y="189.3369"
       id="text4246-70-2-2-2-7-4-9-9-6-1-2-3-9-2-7-9-3-7"><tspan
         sodipodi:role="line"
         style="font-style:normal;font-variant:normal;font-weight:bold;font-stretch:normal;font-size:62.7287px;font-family:Lavi;-inkscape-font-specification:'Lavi Bold';stroke-width:0.807928"
         x="1344.2051"
         y="189.3369"
         id="tspan6570">DEIN </tspan><tspan
         sodipodi:role="line"
         style="font-style:normal;font-variant:normal;font-weight:bold;font-stretch:normal;font-size:62.7287px;font-family:Lavi;-inkscape-font-specification:'Lavi Bold';stroke-width:0.807928"
         x="1344.2051"
         y="267.74777"
         id="tspan7948">ERNST?!</tspan></text>
    <text
       xml:space="preserve"
       style="font-style:normal;font-variant:normal;font-weight:normal;font-stretch:normal;font-size:62.2419px;line-height:125%;font-family:Lavi;-inkscape-font-specification:Lavi;text-align:center;letter-spacing:0px;word-spacing:0px;text-anchor:middle;fill:#000000;fill-opacity:1;stroke:none;stroke-width:0.83075"
       x="2216.9949"
       y="619.21252"
       id="text4246-70-2-2-2-7-4-9-9-6-1-2-3-9-2-7-9-3-7-6"><tspan
         sodipodi:role="line"
         style="font-style:normal;font-variant:normal;font-weight:bold;font-stretch:normal;font-size:62.2419px;font-family:Lavi;-inkscape-font-specification:'Lavi Bold';stroke-width:0.83075"
         x="2216.9949"
         y="619.21252"
         id="tspan1163">IST DAS </tspan><tspan
         sodipodi:role="line"
         style="font-style:normal;font-variant:normal;font-weight:bold;font-stretch:normal;font-size:62.2419px;font-family:Lavi;-inkscape-font-specification:'Lavi Bold';stroke-width:0.83075"
         x="2216.9949"
         y="697.01489"
         id="tspan8585">ETWA </tspan><tspan
         sodipodi:role="line"
         style="font-style:normal;font-variant:normal;font-weight:bold;font-stretch:normal;font-size:62.2419px;font-family:Lavi;-inkscape-font-specification:'Lavi Bold';stroke-width:0.83075"
         x="2216.9949"
         y="774.81726"
         id="tspan8587">ALLES?!</tspan></text>
    <text
       xml:space="preserve"
       style="font-style:normal;font-variant:normal;font-weight:normal;font-stretch:normal;font-size:49.902px;line-height:125%;font-family:Lavi;-inkscape-font-specification:Lavi;text-align:center;letter-spacing:0px;word-spacing:0px;text-anchor:middle;fill:#000000;fill-opacity:1;stroke:none;stroke-width:1.10078"
       x="1697.5663"
       y="972.03656"
       id="text4246-70-2-2-2-7-4-9-9-6-1-2-3-9-2-7-9-3-2"><tspan
         sodipodi:role="line"
         style="font-style:normal;font-variant:normal;font-weight:normal;font-stretch:normal;font-size:49.902px;font-family:Lavi;-inkscape-font-specification:Lavi;stroke-width:1.10078"
         x="1697.5663"
         y="972.03656"
         id="tspan9699">Die da haben es wenigstens </tspan><tspan
         sodipodi:role="line"
         style="font-style:normal;font-variant:normal;font-weight:normal;font-stretch:normal;font-size:49.902px;font-family:Lavi;-inkscape-font-specification:Lavi;stroke-width:1.10078"
         x="1697.5663"
         y="1034.4141"
         id="tspan9703">mit Poesie versucht!</tspan></text>
    <text
       xml:space="preserve"
       style="font-style:normal;font-variant:normal;font-weight:normal;font-stretch:normal;font-size:49.902px;line-height:125%;font-family:Lavi;-inkscape-font-specification:Lavi;text-align:center;letter-spacing:0px;word-spacing:0px;text-anchor:middle;fill:#000000;fill-opacity:1;stroke:none;stroke-width:1.10078"
       x="1720.0437"
       y="1107.7063"
       id="text4246-70-2-2-2-7-4-9-9-6-1-2-3-9-2-7-9-3-2-3"><tspan
         sodipodi:role="line"
         style="font-style:normal;font-variant:normal;font-weight:normal;font-stretch:normal;font-size:49.902px;font-family:Lavi;-inkscape-font-specification:Lavi;stroke-width:1.10078"
         x="1720.0437"
         y="1107.7063"
         id="tspan1237">Tragödien</tspan><tspan
         sodipodi:role="line"
         style="font-style:normal;font-variant:normal;font-weight:normal;font-stretch:normal;font-size:49.902px;font-family:Lavi;-inkscape-font-specification:Lavi;stroke-width:1.10078"
         x="1720.0437"
         y="1170.0837"
         id="tspan10457">geschrieben!</tspan></text>
    <text
       xml:space="preserve"
       style="font-style:normal;font-variant:normal;font-weight:normal;font-stretch:normal;font-size:83.9231px;line-height:125%;font-family:Lavi;-inkscape-font-specification:Lavi;text-align:center;letter-spacing:0px;word-spacing:0px;text-anchor:middle;fill:#000000;fill-opacity:1;stroke:none;stroke-width:1.5433"
       x="1838.3158"
       y="1268.1646"
       id="text4246-70-2-2-2-7-4-9-9-6-1-2-3-9-2-7-9-3-2-3-6-1"><tspan
         sodipodi:role="line"
         style="font-style:normal;font-variant:normal;font-weight:bold;font-stretch:normal;font-size:83.9231px;font-family:Lavi;-inkscape-font-specification:'Lavi Bold';stroke-width:1.5433"
         x="1838.3158"
         y="1268.1646"
         id="tspan37654-7">KUNST!</tspan></text>
    <text
       xml:space="preserve"
       style="font-style:normal;font-variant:normal;font-weight:normal;font-stretch:normal;font-size:85.7143px;line-height:125%;font-family:Lavi;-inkscape-font-specification:Lavi;text-align:center;letter-spacing:0px;word-spacing:0px;text-anchor:middle;fill:#000000;fill-opacity:1;stroke:none;stroke-width:1.57622"
       x="1949.1381"
       y="1391.4756"
       id="text4246-70-2-2-2-7-4-9-9-6-1-2-3-9-2-7-9-3-2-3-6-1-9"><tspan
         sodipodi:role="line"
         style="font-style:normal;font-variant:normal;font-weight:bold;font-stretch:normal;font-size:85.7143px;font-family:Lavi;-inkscape-font-specification:'Lavi Bold';stroke-width:1.57622"
         x="1949.1381"
         y="1391.4756"
         id="tspan37654-7-2">DRAMA!</tspan></text>
    <text
       xml:space="preserve"
       style="font-style:normal;font-variant:normal;font-weight:normal;font-stretch:normal;font-size:63.2403px;line-height:125%;font-family:Lavi;-inkscape-font-specification:Lavi;text-align:center;letter-spacing:0px;word-spacing:0px;text-anchor:middle;fill:#000000;fill-opacity:1;stroke:none;stroke-width:1.39501"
       x="483.78723"
       y="2154.6296"
       id="text4246-70-2-2-2-7-4-9-9-6-1-2-3-9-2-7-9-3-2-3-0-7"><tspan
         sodipodi:role="line"
         style="font-style:normal;font-variant:normal;font-weight:bold;font-stretch:normal;font-size:63.2403px;font-family:Lavi;-inkscape-font-specification:'Lavi Bold';stroke-width:1.39501"
         x="483.78723"
         y="2154.6296"
         id="tspan100735-9">ABER DU?!</tspan></text>
    <text
       xml:space="preserve"
       style="font-style:normal;font-variant:normal;font-weight:normal;font-stretch:normal;font-size:63.2403px;line-height:125%;font-family:Lavi;-inkscape-font-specification:Lavi;text-align:center;letter-spacing:0px;word-spacing:0px;text-anchor:middle;fill:#000000;fill-opacity:1;stroke:none;stroke-width:1.39501"
       x="2081.9277"
       y="2395.3088"
       id="text4246-70-2-2-2-7-4-9-9-6-1-2-3-9-2-7-9-3-2-3-0"><tspan
         sodipodi:role="line"
         style="font-style:normal;font-variant:normal;font-weight:bold;font-stretch:normal;font-size:63.2403px;font-family:Lavi;-inkscape-font-specification:'Lavi Bold';stroke-width:1.39501"
         x="2081.9277"
         y="2395.3088"
         id="tspan1360">DU KAMST </tspan><tspan
         sodipodi:role="line"
         style="font-style:normal;font-variant:normal;font-weight:bold;font-stretch:normal;font-size:63.2403px;font-family:Lavi;-inkscape-font-specification:'Lavi Bold';stroke-width:1.39501"
         x="2081.9277"
         y="2474.3591"
         id="tspan12429">UNVORBEREITET!</tspan></text>
    <text
       xml:space="preserve"
       style="font-style:normal;font-variant:normal;font-weight:normal;font-stretch:normal;font-size:51.0809px;line-height:125%;font-family:Lavi;-inkscape-font-specification:Lavi;text-align:center;letter-spacing:0px;word-spacing:0px;text-anchor:middle;fill:#000000;fill-opacity:1;stroke:none;stroke-width:1.01681"
       x="1869.8928"
       y="2699.1357"
       id="text4246-70-2-2-2-7-4-9-9-6-1-2-3-9-2-7-9-3-2-3-0-2"><tspan
         sodipodi:role="line"
         style="font-style:normal;font-variant:normal;font-weight:bold;font-stretch:normal;font-size:51.0809px;font-family:Lavi;-inkscape-font-specification:'Lavi Bold';stroke-width:1.01681"
         x="1869.8928"
         y="2699.1357"
         id="tspan1430">JAWOHL, SO </tspan><tspan
         sodipodi:role="line"
         style="font-style:normal;font-variant:normal;font-weight:bold;font-stretch:normal;font-size:51.0809px;font-family:Lavi;-inkscape-font-specification:'Lavi Bold';stroke-width:1.01681"
         x="1869.8928"
         y="2762.9868"
         id="tspan14083">IST'S RECHT; </tspan><tspan
         sodipodi:role="line"
         style="font-style:normal;font-variant:normal;font-weight:bold;font-stretch:normal;font-size:51.0809px;font-family:Lavi;-inkscape-font-specification:'Lavi Bold';stroke-width:1.01681"
         x="1869.8928"
         y="2826.8379"
         id="tspan14085">HUSCH-HUSCH!</tspan></text>
    <text
       xml:space="preserve"
       style="font-style:normal;font-variant:normal;font-weight:normal;font-stretch:normal;font-size:49.6865px;line-height:125%;font-family:Lavi;-inkscape-font-specification:Lavi;text-align:center;letter-spacing:0px;word-spacing:0px;text-anchor:middle;fill:#000000;fill-opacity:1;stroke:none;stroke-width:0.946337"
       x="2046.4871"
       y="2940.5046"
       id="text4246-70-2-2-2-7-4-9-9-6-1-2-3-9-2-7-9-3-2-3-0-2-9"><tspan
         sodipodi:role="line"
         style="font-style:normal;font-variant:normal;font-weight:bold;font-stretch:normal;font-size:49.6865px;font-family:Lavi;-inkscape-font-specification:'Lavi Bold';stroke-width:0.946337"
         x="2046.4871"
         y="2940.5046"
         id="tspan14710">GEH NACH HAUSE </tspan><tspan
         sodipodi:role="line"
         style="font-style:normal;font-variant:normal;font-weight:bold;font-stretch:normal;font-size:49.6865px;font-family:Lavi;-inkscape-font-specification:'Lavi Bold';stroke-width:0.946337"
         x="2046.4871"
         y="3002.6128"
         id="tspan14716">UND KOMM ZURÜCK, </tspan><tspan
         sodipodi:role="line"
         style="font-style:normal;font-variant:normal;font-weight:bold;font-stretch:normal;font-size:49.6865px;font-family:Lavi;-inkscape-font-specification:'Lavi Bold';stroke-width:0.946337"
         x="2046.4871"
         y="3064.7209"
         id="tspan14720">WENN DU BEREIT </tspan><tspan
         sodipodi:role="line"
         style="font-style:normal;font-variant:normal;font-weight:bold;font-stretch:normal;font-size:49.6865px;font-family:Lavi;-inkscape-font-specification:'Lavi Bold';stroke-width:0.946337"
         x="2046.4871"
         y="3126.8291"
         id="tspan18118">BIST!</tspan></text>
  </g>
</svg>
