<?xml version="1.0" encoding="UTF-8" standalone="no"?>
<svg
   xmlns:dc="http://purl.org/dc/elements/1.1/"
   xmlns:cc="http://creativecommons.org/ns#"
   xmlns:rdf="http://www.w3.org/1999/02/22-rdf-syntax-ns#"
   xmlns:svg="http://www.w3.org/2000/svg"
   xmlns="http://www.w3.org/2000/svg"
   xmlns:xlink="http://www.w3.org/1999/xlink"
   xmlns:sodipodi="http://sodipodi.sourceforge.net/DTD/sodipodi-0.dtd"
   xmlns:inkscape="http://www.inkscape.org/namespaces/inkscape"
   id="svg2"
   version="1.1"
   inkscape:version="0.92.5 (2060ec1f9f, 2020-04-08)"
   width="2481"
   height="3503"
   sodipodi:docname="E35P02.svg">
  <metadata
     id="metadata8">
    <rdf:RDF>
      <cc:Work
         rdf:about="">
        <dc:format>image/svg+xml</dc:format>
        <dc:type
           rdf:resource="http://purl.org/dc/dcmitype/StillImage" />
        <dc:title />
      </cc:Work>
    </rdf:RDF>
  </metadata>
  <defs
     id="defs6" />
  <sodipodi:namedview
     pagecolor="#ffffff"
     bordercolor="#666666"
     borderopacity="1"
     objecttolerance="10"
     gridtolerance="10"
     guidetolerance="10"
     inkscape:pageopacity="0"
     inkscape:pageshadow="2"
     inkscape:window-width="1920"
     inkscape:window-height="1023"
     id="namedview4"
     showgrid="false"
     inkscape:window-x="0"
     inkscape:window-y="0"
     inkscape:window-maximized="1"
     inkscape:document-rotation="0"
     inkscape:snap-global="false"
     inkscape:pagecheckerboard="0"
     inkscape:zoom="0.38110694"
     inkscape:cx="1122.5354"
     inkscape:cy="945.61408"
     inkscape:current-layer="layer1" />
  <g
     inkscape:groupmode="layer"
     id="layer2"
     inkscape:label="artwork"
     sodipodi:insensitive="true">
    <image
       sodipodi:absref="/home/peppercarrot/webcomics/"
       xlink:href="../gfx_Pepper-and-Carrot_by-David-Revoy_E35P02.png"
       y="0"
       x="0"
       id="image10"
       height="3503"
       width="2481" />
  </g>
  <g
     inkscape:groupmode="layer"
     id="layer3"
     inkscape:label="speechbubbles">
    <path
       style="color:#000000;display:inline;overflow:visible;visibility:visible;fill:#ffffff;fill-opacity:1;fill-rule:nonzero;stroke:none;stroke-width:1.04438px;marker:none;enable-background:accumulate"
       d="m 304.05483,2060.6861 c -6.79342,17.214 -45.10939,18.658 -59.21454,15.159 28.43271,19.257 27.44145,31.222 -11.16214,33.079 64.739,34.707 11.83512,29.455 1.40028,38.255 50.83203,11.961 33.98368,30.089 1.35601,38.422 58.42648,0.509 44.28227,12.725 22.16208,30.304 25.86883,-11.509 65.7741,-19.785 67.18998,10.306 37.48188,-26.287 56.82071,-25.775 70.37483,3.95 11.32193,-25.632 49.87371,-30.565 64.61509,-2.922 12.69876,-37.411 58.00938,-32.144 84.98117,-14.013 -15.1407,-12.796 -4.81614,-33.866 46.8039,-29.605 -4.15493,-11.73 2.37911,-26.535 28.44667,-24.58 -30.0266,-7.085 -35.56033,-14.394 20.19222,-22.259 -42.42443,-0.76 -81.98553,-2.319 -32.21243,-29.141 -15.61517,-0.649 -52.66388,21.732 -35.39036,-43.765 -45.7335,19.313 -93.79048,29.186 -91.4261,-11.382 -17.00247,21.943 -46.49287,32.801 -59.32274,5.393 -10.59102,25.603 -42.76005,14.882 -59.47129,-2.593 -11.04194,17.342 -27.55958,29.055 -59.32263,5.392 z"
       id="path3549-3-7-8"
       inkscape:connector-curvature="0"
       sodipodi:nodetypes="ccccccccccccccccccc" />
    <path
       style="fill:#ffffff;stroke:none;stroke-width:1.11747003"
       d="m 402.95155,2014.2181 c 26.97915,-1.1151 157.35896,-6.3967 155.33108,101.0997 -2.54084,134.6965 -3.821,196.2482 -143.43924,194.1791 -149.95773,-2.2225 -119.77638,-83.4609 -120.95054,-185.257 -1.03953,-90.1215 36.66343,-106.7644 109.0587,-110.0218 z"
       id="path3280-8-6"
       inkscape:connector-curvature="0"
       sodipodi:nodetypes="csssc" />
    <path
       style="color:#000000;display:inline;overflow:visible;visibility:visible;fill:#ffffff;fill-opacity:1;fill-rule:nonzero;stroke:none;stroke-width:1px;marker:none;enable-background:accumulate"
       d="m 596.40058,2341.6788 c -54.36956,-1.3158 -66.37353,-18.0831 -76.5499,-29.227 3.41593,-3.9672 8.07344,-11.8668 8.07344,-11.8668 0,0 -22.49109,-20.0802 -27.87182,-30.4304 -5.38071,-10.3501 9.28192,-17.9731 9.28192,-17.9731 0,0 44.94813,37.9871 57.64264,43.4391 -9.83295,10.5902 -13.21387,16.7305 -18.38931,19.4211 3.1733,8.211 28.66645,25.6349 47.81303,26.6371 z"
       id="path4456-3"
       inkscape:connector-curvature="0" />
    <path
       style="color:#000000;display:inline;overflow:visible;visibility:visible;fill:#ffffff;fill-opacity:1;fill-rule:nonzero;stroke:none;stroke-width:0.75873142px;marker:none;enable-background:accumulate"
       d="m 1983.6307,2180.6788 c -4.3305,-50.3475 5.9266,-111.6927 143.5229,-97.1434 131.1888,13.8716 122.995,32.94 124.3842,96.8628 1.4636,67.3485 -52.0802,99.9613 -146.0786,93.5046 -55.0849,-3.7836 -109.9759,-7.3647 -121.8285,-93.224 z"
       id="path5026-4"
       inkscape:connector-curvature="0"
       sodipodi:nodetypes="csssc" />
    <path
       style="color:#000000;display:inline;overflow:visible;visibility:visible;fill:#ffffff;fill-opacity:1;fill-rule:nonzero;stroke:none;stroke-width:1.63768px;marker:none;enable-background:accumulate"
       d="m 2065.086,2229.8886 c -4.2272,-2.5286 -41.7209,44.7549 -41.7209,44.7549 l -35.4466,3.459 1.2502,26.926 -53.4012,-4.5662 35.1739,-8.2914 -1.9242,-26.5703 33.0101,-11.5413 29.8178,-33.9388 z"
       id="path4448"
       inkscape:connector-curvature="0"
       sodipodi:nodetypes="cccccccccc" />
    <path
       style="color:#000000;display:inline;overflow:visible;visibility:visible;fill:#ffffff;fill-opacity:1;fill-rule:nonzero;stroke:none;stroke-width:1.09605575px;marker:none;enable-background:accumulate"
       d="m 127.62799,2684.0009 c -6.23862,-32.9854 10.39769,-121.7205 138.28986,-118.765 127.89206,2.9554 148.68763,43.7493 151.80688,56.0926 3.11936,12.3432 30.15346,81.9729 -69.66476,104.0062 -99.81831,22.0331 -189.23874,5.334 -220.43198,-41.3338 z"
       id="path3525"
       inkscape:connector-curvature="0" />
    <path
       style="color:#000000;display:inline;overflow:visible;visibility:visible;fill:#ffffff;fill-opacity:1;fill-rule:nonzero;stroke:none;stroke-width:0.8273px;marker:none;enable-background:accumulate"
       d="m 1199.0011,2492.4237 c -18.073,0.8182 -36.4351,1.788 -53.7422,6.9827 -23.1207,7.5173 -41.4321,26.7389 -45.336,48.8922 -1.8974,13.8942 5.745,28.0441 17.9675,36.2747 14.0237,9.8699 31.1232,15.2118 48.16,19.0219 25.6015,5.4774 52.1565,5.2221 78.2486,3.7345 20.7598,-1.3088 41.6527,-4.9224 60.4769,-13.2573 8.3672,-3.5602 16.6877,-8.4478 21.0883,-16.0968 5.8373,-9.7255 6.2569,-21.3487 4.2218,-32.0561 -2.5188,-13.2028 -10.1184,-25.8753 -22.2073,-33.7852 -13.3465,-9.089 -29.8268,-13.2462 -46.0584,-15.6624 -15.1524,-2.2129 -30.4753,-3.2505 -45.7716,-4.2311 -5.6869,-0.2852 -11.3671,-0.132 -17.0476,0.1829 z"
       id="path3525-3"
       inkscape:connector-curvature="0" />
    <path
       style="color:#000000;display:inline;overflow:visible;visibility:visible;fill:#ffffff;fill-opacity:1;fill-rule:nonzero;stroke:none;stroke-width:0.850812px;marker:none;enable-background:accumulate"
       d="m 378.31396,2800.4734 c -21.81603,-6.0365 -24.7236,-21.3438 -23.81085,-34.7307 0.91307,-13.3879 3.43731,-21.6544 -10.14803,-38.2382 -13.58559,-16.5829 -43.44749,-17.8668 -26.36893,-33.9071 2.07754,-10.3968 3.18888,-19.4098 8.63924,-29.73 6.0118,-11.3839 -30.60834,-11.6128 -30.60834,-11.6128 0,0 -9.2601,36.4069 -8.60393,58.2554 0.65624,21.8486 37.98578,15.4181 49.29264,29.8458 10.55851,13.4728 3.54145,36.8172 10.69223,46.6028 7.15061,9.7866 19.89022,13.3481 30.91597,13.5148 z"
       id="path4538-8"
       inkscape:connector-curvature="0"
       sodipodi:nodetypes="csscscsssc" />
    <path
       style="fill:#ffffff;fill-rule:evenodd;stroke:none;stroke-width:1.00018px;stroke-linecap:butt;stroke-linejoin:miter;stroke-opacity:1"
       d="m 683.3565,2839.4097 c 22.47948,-7.6888 8.18259,-27.2917 13.56572,-36.5201 5.55722,-9.5269 47.07364,3.0903 52.88651,-5.37 5.81286,-8.4604 -12.6074,-31.2018 -3.16551,-44.2198 9.44226,-13.0187 37.29048,-1.0958 25.77916,13.6924 -11.51166,14.7889 6.85876,28.7751 -4.63767,39.1332 -19.17293,17.274 -46.18634,1.6002 -58.07288,2.8253 -7.86988,0.8115 -1.86593,15.6117 -9.63373,23.71 -7.76824,8.099 -16.7216,6.749 -16.7216,6.749 z"
       id="path4272-2"
       inkscape:connector-curvature="0"
       sodipodi:nodetypes="csssssssc" />
    <path
       style="fill:#ffffff;stroke:none;stroke-width:1.03835"
       d="m 1757.6864,2734.7823 c -1.258,-33.7766 21.2997,-118.3324 131.3348,-111.9727 110.0352,6.3597 144.4743,43.5131 147.699,103.5506 5.101,94.9786 -52.7885,120.3608 -135.9123,127.3953 -85.6919,7.2524 -144.4514,-57.9436 -143.1215,-118.9732 z"
       id="path3280-8-90"
       inkscape:connector-curvature="0"
       sodipodi:nodetypes="csssc" />
    <path
       style="color:#000000;display:inline;overflow:visible;visibility:visible;fill:#ffffff;fill-opacity:1;fill-rule:nonzero;stroke:none;stroke-width:1px;marker:none;enable-background:accumulate"
       d="m 1981.8954,2716.5742 c 21.7602,57.3157 81.8906,99.8161 102.9782,111.0989 -62.8332,-18.8149 -116.4083,-51.6111 -129.2847,-90.9766 -12.8765,-39.3656 26.3065,-20.1223 26.3065,-20.1223 z"
       id="path4480"
       inkscape:connector-curvature="0" />
    <path
       style="fill:#ffffff;fill-rule:evenodd;stroke:none;stroke-width:0.883699px;stroke-linecap:butt;stroke-linejoin:miter;stroke-opacity:1"
       d="M 1142.7461 1150.3164 C 1116.01 1150.5098 1089.1668 1152.9048 1063.1649 1159.3334 C 1053.4023 1161.8384 1043.7005 1164.7557 1034.4453 1168.7734 C 1022.3299 1174.4897 1013.16 1184.9306 1006.2989 1196.2008 C 998.50844 1209.132 993.55912 1223.6516 991.11843 1238.5201 C 989.16692 1250.1384 988.20494 1261.9082 987.6986 1273.6707 C 987.19366 1289.877 989.00281 1306.2775 994.34058 1321.6455 C 1000.6092 1340.7459 1011.0701 1358.9041 1026.4699 1372.0744 C 1041.2478 1384.1998 1059.4665 1391.102 1077.6913 1396.1648 C 1107.7228 1404.1507 1139.013 1405.3624 1169.9299 1405.3474 C 1193.2176 1405.1005 1216.3375 1401.2756 1238.8614 1395.5149 C 1256.1983 1391.3538 1273.4913 1386.6055 1289.8865 1379.5162 C 1302.1149 1373.8547 1313.4051 1365.234 1320.1417 1353.3642 C 1329.124 1338.4751 1333.0543 1321.2803 1336.3333 1304.3937 C 1339.8891 1285.0314 1341.6623 1264.8979 1337.4531 1245.4877 C 1333.3793 1227.0924 1323.4356 1210.6564 1312.2518 1195.7398 C 1297.9151 1177.8396 1277.4128 1165.6499 1255.6649 1158.963 C 1232.2419 1151.7282 1207.5174 1150.6546 1183.1743 1150.3556 C 1169.6987 1150.2639 1156.2219 1150.2691 1142.7461 1150.3164 z "
       id="path1353"
       inkscape:connector-curvature="0"
       sodipodi:nodetypes="cssscscssccc" />
    <path
       style="color:#000000;display:inline;overflow:visible;visibility:visible;fill:#ffffff;fill-opacity:1;fill-rule:nonzero;stroke:none;stroke-width:1.32704px;marker:none;enable-background:accumulate"
       d="m 1567.2167,1263.2749 c -23.3951,-13.5874 -47.4345,-27.8488 -80.2438,-37.3029 -9.419,-2.6108 -19.456,-5.052 -29.7275,-6.2777 -10.8699,-0.2589 -18.5833,3.1803 -21.2691,7.3616 -4.9062,5.8321 -4.0751,13.3543 -14.8239,17.5815 -8.0334,2.9766 -20.4058,1.2285 -30.8948,0.151 -55.5613,-5.5966 -116.4529,-16.3815 -168.9125,-7.1839 -10.3316,2.0201 -20.2049,4.8402 -25.0559,9.4641 -13.7945,11.5007 -11.0257,28.0336 10.0671,40.719 14.9737,7.6682 42.5542,10.484 56.687,4.5569 7.5899,-3.0688 8.1735,-8.3583 5.5139,-13.1861 -1.2458,-8.9607 7.6217,0.022 24.0822,-3.6677 37.2334,-5.6014 77.5291,-14.6477 110.5037,-9.7254 10.0809,1.4739 25.6582,0.1256 35.3315,-0.599 12.5832,-2.5592 14.9137,-9.3886 15.3033,-15.3984 0.7726,-6.1637 0.047,-13.4883 11.1891,-17.2514 6.7172,-3.1499 17.8965,0.5337 26.5328,1.8753 27.2211,5.8451 51.5565,15.088 70.9679,25.6439 1.7031,1.0526 3.2274,2.1441 4.749,3.2392 z"
       id="path4496-9"
       inkscape:connector-curvature="0"
       inkscape:transform-center-x="43.812193"
       inkscape:transform-center-y="17.777857"
       sodipodi:nodetypes="ccccccccccccccccccc" />
    <path
       style="fill:#ffffff;stroke:none;stroke-width:0.86966"
       d="m 870.21516,506.07458 c 4.03551,-79.95564 23.59527,-109.60227 260.85484,-112.65143 328.367,-4.2206 351.3414,63.76808 345.1033,157.5583 -6.7305,101.19365 -200.3957,101.47753 -358.706,98.35148 -273.19102,-5.39418 -244.789,-61.2111 -247.25214,-143.25835 z"
       id="path3280-8-0"
       inkscape:connector-curvature="0"
       sodipodi:nodetypes="csssc" />
    <path
       style="display:inline;fill:#ffffff;stroke:none;stroke-width:0.760991"
       d="m 846.25597,318.63754 c 2.51728,-62.9498 16.90873,-145.15068 149.80284,-146.44194 132.89389,-1.29222 177.61179,38.50078 185.01359,107.2676 14.1784,131.72583 -53.3341,121.41139 -152.8999,135.97035 -102.64159,15.00816 -185.80637,-4.53008 -181.91653,-96.79601 z"
       id="path3280-8-2"
       inkscape:connector-curvature="0"
       sodipodi:nodetypes="csssc" />
    <path
       style="color:#000000;display:inline;overflow:visible;visibility:visible;fill:#ffffff;fill-opacity:1;fill-rule:nonzero;stroke:none;stroke-width:1.12734px;marker:none;enable-background:accumulate"
       d="m 1054.8727,654.26102 c 26.1383,-30.95776 348.576,-53.00464 423.0628,17.01045 51.9098,48.79294 31.8845,142.36388 -12.6087,166.72126 -44.4935,24.35859 -259.3045,31.21923 -320.3574,18.81389 -54.9019,-11.15418 -112.53,-35.16455 -115.5682,-99.06921 -1.2399,-26.0814 -0.6668,-72.51986 25.4715,-103.47639 z"
       id="path4040-5"
       inkscape:connector-curvature="0"
       sodipodi:nodetypes="zssssz" />
    <path
       style="color:#000000;display:inline;overflow:visible;visibility:visible;fill:#ffffff;fill-opacity:1;fill-rule:nonzero;stroke:none;stroke-width:1px;marker:none;enable-background:accumulate"
       d="m 880.35523,328.5815 c -13.93862,-43.79995 -75.39205,-33.32608 -131.42892,10.54697 35.43843,-36.41055 76.35778,-76.93843 143.98747,-47.05147 49.32789,21.79901 14.57754,15.53221 14.57754,15.53221 z"
       id="path4035-4"
       inkscape:connector-curvature="0"
       sodipodi:nodetypes="ccscc" />
    <path
       style="display:inline;fill:#ffffff;fill-rule:evenodd;stroke:none;stroke-width:1.30048px;stroke-linecap:butt;stroke-linejoin:miter;stroke-opacity:1"
       d="m 1548.4515,71.619933 c 24.985,5.793404 24.4053,18.959491 12.7022,17.639048 7.502,22.947809 30.4769,75.029379 10.5214,81.465079 0.3216,63.9758 13.4148,96.99152 -1.5675,133.3805 55.2137,-16.22272 57.3634,11.34478 53.2124,37.36138 20.3681,-34.64111 35.9429,-12.07585 29.8359,19.78535 20.93,-34.83705 45.1859,-50.69323 41.2991,-13.35757 23.6513,-26.97855 24.8612,-39.45512 44.7286,-27.78038 36.1161,-32.36707 51.1793,12.81962 73.0469,32.93992 8.1542,-36.73832 23.3152,-29.5983 49.8625,-10.87598 9.0829,-15.46913 -12.0518,-42.91267 12.7553,-9.1895 -9.9891,-38.67303 40.684,-20.02028 51.0233,-14.32381 -12.6632,-17.39684 9.1057,-22.00167 70.4804,-11.89519 -23.7677,-9.30819 -33.969,-40.04329 13.7163,-61.82426 -62.5354,8.83659 -39.2315,-9.45622 -20.0369,-29.45507 -40.898,-30.71396 -0.2138,-59.34641 20.1138,-88.49783 -41.3041,13.50432 -56.3387,-44.502353 -63.9558,-58.334579 -62.6921,10.543316 -53.3929,4.67716 -47.3762,-0.440896 -38.8414,12.824672 -36.6646,1.446479 -46.7026,-2.724502 -106.7351,15.616521 -102.9554,-0.688504 -125.0299,-9.525581 -8.7451,18.669199 -31.2305,11.414952 -53.7729,4.053771 0.845,15.799861 -12.7693,11.180214 -26.0813,6.987641 -1.7053,6.812619 -14.9264,8.77544 -43.6739,4.198974 20.5299,5.623526 7.8516,6.563777 -55.1011,0.413485 z"
       id="path4289-9-2"
       inkscape:connector-curvature="0"
       sodipodi:nodetypes="cccccccccccccccccccccccc" />
    <path
       style="fill:#ffffff;fill-opacity:1;fill-rule:evenodd;stroke:none;stroke-width:0.99369729px;stroke-linecap:butt;stroke-linejoin:miter;stroke-opacity:1"
       d="m 2392.4866,828.31665 c -1.256,6.34195 -58.0498,55.67385 -22.5839,12.27055 l -33.1833,12.12489 c -64.3207,-26.31741 -274.7547,-10.24548 -345.1438,4.27336 l -19.3092,-26.10175 3.8514,21.91163 -22.3871,-32.45316 12.5463,43.70313 -11.8171,-14.83665 4.9631,16.38217 -11.4784,-7.96597 1.9416,14.02227 c -26.6874,13.02061 -41.8613,38.6939 -47.8728,65.18156 l -21.5519,-2.39962 20.0205,10.35709 c -0.2547,1.60795 -0.4843,3.2159 -0.6738,4.81912 -0.011,0.10971 -0.026,0.22227 -0.036,0.33199 l -22.653,-3.78341 21.7519,14.1055 c -0.047,0.75385 -0.095,1.5058 -0.1357,2.26627 l -43.3417,-8.83427 42.9752,24.00669 c -0.01,26.96436 3.1089,54.63526 4.7236,66.73086 1.1195,8.3859 2.3228,23.9368 8.8632,27.2702 l -40.3673,10.0692 53.4919,-5.4935 c 1.1361,0.1226 2.2961,0.2449 3.4609,0.3675 l -13.8193,3.4243 24.0579,-2.3849 c 2.4618,0.2411 4.9774,0.4809 7.5415,0.7194 l -24.9139,7.6712 37.1617,-6.5785 c 89.4479,7.6565 280.6642,15.2779 414.0589,-3.2458 l 19.7157,3.9931 -7.5758,-5.7621 c 2.6044,-0.398 5.9475,-0.805 6.0856,-1.2225 l 0.4679,0.1682 -0.31,-1.2778 c 0.029,-0.2112 0.059,-0.4228 0.089,-0.6363 l 1.5941,2.8101 -1.1981,-14.9918 c 0.7552,-17.4103 0.9494,-37.1654 0.8559,-57.172 l 1.4458,-12.03792 c -2.499,6.22845 -1.6064,-7.47602 -0.035,-14.52451 l -1.4116,0.97517 c 0.1367,-16.19678 -0.3685,-45.90319 -1.0301,-61.40761 l 0.066,-11.756 c -1.1583,1.12651 -0.4124,-8.98845 -0.014,-17.79623 -1.2718,7.9253 -1.1157,4.5959 -0.6155,-10.81204 -2.1417,4.39065 1.1467,-36.29143 1.7288,-46.48111 z"
       id="path4212-3"
       inkscape:connector-curvature="0"
       sodipodi:nodetypes="ccccccccccccccccccccccsccccccccccccccccccccccccccc" />
    <path
       style="display:inline;fill:#ffffff;fill-rule:evenodd;stroke:none;stroke-width:1.44912px;stroke-linecap:butt;stroke-linejoin:miter;stroke-opacity:1"
       d="m 2102.6149,751.43806 c 0.6806,41.31231 13.5699,99.33289 8.1415,118.1885 4.1542,65.56524 102.9122,-3.97588 46.8489,-17.72263 -23.7511,-36.29813 -38.7836,-65.39219 -54.9904,-100.46587 z"
       id="path4667-2"
       inkscape:connector-curvature="0"
       sodipodi:nodetypes="cccc" />
    <path
       style="color:#000000;display:inline;overflow:visible;visibility:visible;fill:#ffffff;fill-opacity:1;fill-rule:nonzero;stroke:none;stroke-width:0.75595373px;marker:none;enable-background:accumulate"
       d="m 745.6855,2654.7496 c -19.79734,-0.098 -40.29194,5.1296 -56.6649,19.5074 -11.28679,9.8584 -19.55133,26.2721 -19.03403,43.7335 0.3923,14.2429 7.66477,27.0138 17.112,34.6216 10.7729,8.6903 23.61429,12.1176 36.1191,14.7287 21.61361,4.0973 43.54686,3.3432 65.31951,4.9003 13.75745,0.6389 27.8848,0.9884 41.17289,-4.1125 11.91384,-6.0439 19.28926,-21.5133 20.47903,-36.9608 1.23089,-15.5734 -0.47591,-32.4583 -8.35161,-45.2137 -7.4109,-11.5412 -18.90006,-17.3952 -30.04724,-21.357 -21.45113,-7.3926 -43.87716,-10.2257 -66.10475,-9.8475 z"
       id="path3525-3-5"
       inkscape:connector-curvature="0" />
    <path
       style="fill:#ffffff;fill-rule:evenodd;stroke:none;stroke-width:1.00018px;stroke-linecap:butt;stroke-linejoin:miter;stroke-opacity:1"
       d="m 1223.463,2688.0374 c 17.4992,-16.0693 -3.4666,-28.2803 -2.2428,-38.8936 1.2634,-10.9567 44.3518,-16.0746 46.2777,-26.1572 1.9258,-10.0826 -24.0767,-23.5119 -20.6577,-39.2259 3.4191,-15.7147 33.7111,-15.9794 29.1078,2.1868 -4.6033,18.167 17.8374,23.5982 11.4686,37.7013 -10.6216,23.5196 -41.6554,20.0139 -52.0494,25.9095 -6.8814,3.9037 4.5609,15.0468 0.6993,25.5829 -3.8618,10.5369 -12.6035,12.8962 -12.6035,12.8962 z"
       id="path4272-2-3"
       inkscape:connector-curvature="0"
       sodipodi:nodetypes="csssssssc" />
    <path
       style="color:#000000;display:inline;overflow:visible;visibility:visible;fill:#ffffff;fill-opacity:1;fill-rule:nonzero;stroke:none;stroke-width:1.00989px;marker:none;enable-background:accumulate"
       d="m 1555.8755,2522.3224 c -7.2641,19.7338 -49.9991,21.9845 -65.8052,18.2182 32.0867,21.5056 31.201,35.1623 -11.8474,37.8903 72.8902,38.545 13.7513,33.3934 2.268,43.5918 56.9502,12.8342 31.8432,30.1632 22.0165,47.2005 65.2147,-0.3425 44.314,27.0397 47.411,48.5677 5.3642,-10.1977 31.1272,-41.3812 33.2621,-7.0964 0.014,-6.488 42.0303,-60.8477 106.6414,-9.4692 -1.9757,-26.8993 19.7511,-32.7435 41.0685,4.1555 -7.5742,-40.161 66.0961,-29.5513 105.2215,-17.4684 -20.0617,-24.1109 10.8603,-34.3802 44.011,-29.9904 -4.8532,-13.3079 6.1646,-22.6579 31.294,-28.4736 -33.641,-7.6032 -39.9516,-15.8481 22.125,-25.6962 -47.361,-0.1964 -91.541,-1.3483 -36.4875,-32.7151 -17.4388,-0.492 -58.3734,25.6094 -40.3033,-49.338 -29.5802,24.3307 -61.3385,37.9775 -102.2437,-11.5311 -18.5708,25.285 -51.2826,38.132 -66.1064,7.0859 -4.9308,13.3936 -26.189,18.707 -44.2948,19.5706 -7.0909,-5.1921 -14.4322,-12.2772 -22.1244,-21.587 -12.0033,19.9474 -30.2215,33.5613 -66.1063,7.0849 z"
       id="path3549-3-7-9-6"
       inkscape:connector-curvature="0"
       sodipodi:nodetypes="cccccccccccccccccccc" />
    <path
       style="color:#000000;display:inline;overflow:visible;visibility:visible;fill:#ffffff;fill-opacity:1;fill-rule:nonzero;stroke:none;stroke-width:1.22149px;marker:none;enable-background:accumulate"
       d="m 1834.6942,302.71538 c 13.3969,25.86728 33.5213,54.90113 39.2123,61.39746 7.9957,-8.63868 17.0744,-15.33555 24.0331,-20.64544 9.0197,12.83333 45.9509,74.58787 45.5696,92.05922 3.355,-43.2627 -19.8328,-91.86712 -36.9856,-111.86967 -10.7606,5.90497 -16.2791,10.46235 -22.0396,13.47435 -9.2965,-9.62452 -29.0289,-46.10687 -29.0289,-46.10687 z"
       id="path5066-8"
       inkscape:connector-curvature="0" />
  </g>
  <g
     inkscape:groupmode="layer"
     id="layer1"
     inkscape:label="txt">
    <text
       xml:space="preserve"
       style="font-style:normal;font-variant:normal;font-weight:normal;font-stretch:normal;font-size:45px;line-height:1.25;font-family:Lavi;-inkscape-font-specification:Lavi;text-align:center;letter-spacing:0px;word-spacing:0px;text-anchor:middle;fill:#000000;fill-opacity:1;stroke:none"
       x="1018.2072"
       y="250.12212"
       id="text4246-3-2-2"><tspan
         style="font-size:45px"
         sodipodi:role="line"
         x="1025.2385"
         y="250.12212"
         id="tspan911">Tha mi gu </tspan><tspan
         style="font-size:45px"
         sodipodi:role="line"
         x="1025.2385"
         y="306.37213"
         id="tspan895">bhith call m’ </tspan><tspan
         style="font-size:45px"
         sodipodi:role="line"
         x="1018.2072"
         y="362.62213"
         id="tspan893">fhar-luaiths</tspan></text>
    <text
       xml:space="preserve"
       style="font-style:normal;font-variant:normal;font-weight:normal;font-stretch:normal;font-size:45px;line-height:1.25;font-family:Lavi;-inkscape-font-specification:Lavi;text-align:center;letter-spacing:0px;word-spacing:0px;text-anchor:middle;fill:#000000;fill-opacity:1;stroke:none"
       x="1167.5723"
       y="475.56839"
       id="text4246-3-2-2-3"><tspan
         style="font-size:45px"
         sodipodi:role="line"
         x="1174.6035"
         y="475.56839"
         id="tspan928">agus tha am paidhleat </tspan><tspan
         style="font-size:45px"
         sodipodi:role="line"
         x="1174.6035"
         y="531.81836"
         id="tspan904">’s a dràgon às ar dèidh </tspan><tspan
         style="font-size:45px"
         sodipodi:role="line"
         x="1167.5723"
         y="588.06836"
         id="tspan902">fad uairean mòra fhathast.</tspan></text>
    <text
       xml:space="preserve"
       style="font-style:normal;font-variant:normal;font-weight:normal;font-stretch:normal;font-size:45px;line-height:1.25;font-family:Lavi;-inkscape-font-specification:Lavi;text-align:center;letter-spacing:0px;word-spacing:0px;text-anchor:middle;fill:#000000;fill-opacity:1;stroke:none"
       x="1263.569"
       y="697.07538"
       id="text4246-3-2-2-3-6"><tspan
         style="font-size:45px"
         sodipodi:role="line"
         x="1270.6002"
         y="697.07538"
         id="tspan956">Glacaidh iad gun </tspan><tspan
         style="font-size:45px"
         sodipodi:role="line"
         x="1270.6002"
         y="753.32538"
         id="tspan917">trioblaid sinn nuair </tspan><tspan
         style="font-size:45px"
         sodipodi:role="line"
         x="1263.569"
         y="809.57538"
         id="tspan915">a thig maille oirnn.</tspan></text>
    <text
       xml:space="preserve"
       style="font-style:normal;font-variant:normal;font-weight:normal;font-stretch:normal;font-size:59.5685997px;line-height:1.25;font-family:Lavi;-inkscape-font-specification:Lavi;text-align:center;letter-spacing:0px;word-spacing:0px;text-anchor:middle;fill:#000000;fill-opacity:1;stroke:none;stroke-width:1.32375002"
       x="1780.1418"
       y="189.64172"
       id="text4246-3-2-2-3-6-3"><tspan
         style="font-size:53.33333206px;stroke-width:1.32375002"
         sodipodi:role="line"
         x="1788.4752"
         y="189.64172"
         id="tspan1079">Abair òinseach </tspan><tspan
         style="font-size:53.33333206px;stroke-width:1.32375002"
         sodipodi:role="line"
         x="1788.4752"
         y="264.10248"
         id="tspan921">a bh’ annam! </tspan></text>
    <text
       xml:space="preserve"
       style="font-style:normal;font-variant:normal;font-weight:normal;font-stretch:normal;font-size:45px;line-height:1.25;font-family:Lavi;-inkscape-font-specification:Lavi;text-align:center;letter-spacing:0px;word-spacing:0px;text-anchor:middle;fill:#000000;fill-opacity:1;stroke:none"
       x="2153.592"
       y="925.40289"
       id="text4246-3-2-2-3-6-2"><tspan
         style="font-size:45px"
         sodipodi:role="line"
         x="2160.6233"
         y="925.40289"
         id="tspan966">Bha mi cinnteach </tspan><tspan
         style="font-size:45px"
         sodipodi:role="line"
         x="2160.6233"
         y="981.65289"
         id="tspan935">nach fhada gus an </tspan><tspan
         style="font-size:45px"
         sodipodi:role="line"
         x="2153.592"
         y="1037.9028"
         id="tspan896">leigeadh iad romhpa!</tspan></text>
    <text
       xml:space="preserve"
       style="font-style:normal;font-variant:normal;font-weight:normal;font-stretch:normal;font-size:45px;line-height:1.25;font-family:Lavi;-inkscape-font-specification:Lavi;text-align:center;letter-spacing:0px;word-spacing:0px;text-anchor:middle;fill:#000000;fill-opacity:1;stroke:none"
       x="1158.7565"
       y="1236.7683"
       id="text4246-3-2-2-3-6-2-7"><tspan
         style="font-size:45px"
         sodipodi:role="line"
         x="1165.7877"
         y="1236.7683"
         id="tspan979">Gum faighinn </tspan><tspan
         style="font-size:45px"
         sodipodi:role="line"
         x="1165.7877"
         y="1293.0183"
         id="tspan950">cuidhteas </tspan><tspan
         style="font-size:45px"
         sodipodi:role="line"
         x="1158.7565"
         y="1349.2683"
         id="tspan952">dhiubh.</tspan></text>
    <text
       xml:space="preserve"
       style="font-style:normal;font-variant:normal;font-weight:normal;font-stretch:normal;font-size:45px;line-height:1.25;font-family:Lavi;-inkscape-font-specification:Lavi;text-align:center;letter-spacing:0px;word-spacing:0px;text-anchor:middle;fill:#000000;fill-opacity:1;stroke:none"
       x="418.16843"
       y="2088.4697"
       id="text4246-3-2-2-3-6-2-7-2"><tspan
         style="font-style:normal;font-variant:normal;font-weight:bold;font-stretch:normal;font-size:45px;font-family:Lavi;-inkscape-font-specification:'Lavi Bold'"
         sodipodi:role="line"
         x="418.16843"
         y="2088.4697"
         id="tspan968">Iochd!</tspan><tspan
         style="font-size:45px"
         sodipodi:role="line"
         x="425.19968"
         y="2144.7197"
         id="tspan976"><tspan
   style="font-style:normal;font-variant:normal;font-weight:bold;font-stretch:normal;font-family:Lavi;-inkscape-font-specification:'Lavi Bold'"
   id="tspan978">Feumaidh</tspan> </tspan><tspan
         style="font-size:45px"
         sodipodi:role="line"
         x="425.19968"
         y="2200.9697"
         id="tspan974">sinn an </tspan><tspan
         style="font-size:45px"
         sodipodi:role="line"
         x="418.16843"
         y="2257.2197"
         id="tspan972">cur dhinn!</tspan></text>
    <text
       xml:space="preserve"
       style="font-style:normal;font-variant:normal;font-weight:normal;font-stretch:normal;font-size:45px;line-height:1.25;font-family:Lavi;-inkscape-font-specification:Lavi;text-align:center;letter-spacing:0px;word-spacing:0px;text-anchor:middle;fill:#000000;fill-opacity:1;stroke:none"
       x="2119.5425"
       y="2167.1331"
       id="text4246-3-2-2-3-6-2-7-2-2"><tspan
         style="font-size:45px"
         sodipodi:role="line"
         x="2126.5737"
         y="2167.1331"
         id="tspan1271">Mus glac </tspan><tspan
         style="font-size:45px"
         sodipodi:role="line"
         x="2119.5425"
         y="2223.3831"
         id="tspan985">iad sinn!</tspan></text>
    <text
       xml:space="preserve"
       style="font-style:normal;font-variant:normal;font-weight:normal;font-stretch:normal;font-size:45px;line-height:1.25;font-family:Lavi;-inkscape-font-specification:Lavi;text-align:center;letter-spacing:0px;word-spacing:0px;text-anchor:middle;fill:#000000;fill-opacity:1;stroke:none"
       x="273.79352"
       y="2629.6626"
       id="text4246-3-2-2-3-6-2-7-2-3"><tspan
         style="font-size:45px"
         sodipodi:role="line"
         x="280.82477"
         y="2629.6626"
         id="tspan903">Ach ’s ann </tspan><tspan
         style="font-size:45px"
         sodipodi:role="line"
         x="273.79352"
         y="2685.9126"
         id="tspan989">gu bheil mi…</tspan></text>
    <text
       xml:space="preserve"
       style="font-style:normal;font-variant:normal;font-weight:normal;font-stretch:normal;font-size:45px;line-height:1.25;font-family:Lavi;-inkscape-font-specification:Lavi;text-align:center;letter-spacing:0px;word-spacing:0px;text-anchor:middle;fill:#000000;fill-opacity:1;stroke:none"
       x="762.94037"
       y="2728.3162"
       id="text4246-3-2-2-3-6-2-7-2-3-3-3"><tspan
         style="font-size:45px"
         x="762.94037"
         y="2728.3162"
         id="tspan1356-7"
         sodipodi:role="line">… glè …</tspan></text>
    <text
       xml:space="preserve"
       style="font-style:normal;font-variant:normal;font-weight:normal;font-stretch:normal;font-size:45px;line-height:1.25;font-family:Lavi;-inkscape-font-specification:Lavi;text-align:center;letter-spacing:0px;word-spacing:0px;text-anchor:middle;fill:#000000;fill-opacity:1;stroke:none"
       x="1218.5862"
       y="2469.2249"
       id="text4246-3-2-2-3-6-2-7-2-3-3"><tspan
         style="font-size:45px"
         sodipodi:role="line"
         x="1218.5862"
         y="2510.4653"
         id="tspan1318-9" /><tspan
         style="font-size:45px"
         sodipodi:role="line"
         x="1218.5862"
         y="2566.7153"
         id="tspan1356">… sgìth …</tspan></text>
    <text
       xml:space="preserve"
       style="font-style:normal;font-variant:normal;font-weight:normal;font-stretch:normal;font-size:64.43399811px;line-height:1.25;font-family:Lavi;-inkscape-font-specification:Lavi;text-align:center;letter-spacing:0px;word-spacing:0px;text-anchor:middle;fill:#000000;fill-opacity:1;stroke:none;stroke-width:1.43186998"
       x="1696.2407"
       y="2630.5286"
       id="text4246-3-2-2-3-6-2-7-2-3-3-4"><tspan
         style="font-style:normal;font-variant:normal;font-weight:bold;font-stretch:normal;font-size:64.43399811px;font-family:Lavi;-inkscape-font-specification:'Lavi Bold';stroke-width:1.43186998"
         sodipodi:role="line"
         x="1696.2407"
         y="2630.5286"
         id="tspan1356-4">h-OPAG!</tspan></text>
    <text
       xml:space="preserve"
       style="font-style:normal;font-variant:normal;font-weight:normal;font-stretch:normal;font-size:45px;line-height:1.25;font-family:Lavi;-inkscape-font-specification:Lavi;text-align:center;letter-spacing:0px;word-spacing:0px;text-anchor:middle;fill:#000000;fill-opacity:1;stroke:none"
       x="1905.2314"
       y="2697.1885"
       id="text4246-3-2-2-3-6-2-7-2-3-5"><tspan
         style="font-size:45px"
         sodipodi:role="line"
         x="1912.2627"
         y="2697.1885"
         id="tspan1074">Thoir an </tspan><tspan
         style="font-size:45px"
         sodipodi:role="line"
         x="1912.2627"
         y="2753.4385"
         id="tspan998">aire, a </tspan><tspan
         style="font-size:45px"
         sodipodi:role="line"
         x="1905.2314"
         y="2809.6885"
         id="tspan1004">Pheabar!</tspan></text>
  </g>
</svg>
