<?xml version="1.0" encoding="UTF-8" standalone="no"?>
<svg
   id="svg2"
   version="1.1"
   inkscape:version="1.3.2 (091e20ef0f, 2023-11-25, custom)"
   width="2481"
   height="3503"
   sodipodi:docname="E35P11.svg"
   xmlns:inkscape="http://www.inkscape.org/namespaces/inkscape"
   xmlns:sodipodi="http://sodipodi.sourceforge.net/DTD/sodipodi-0.dtd"
   xmlns:xlink="http://www.w3.org/1999/xlink"
   xmlns="http://www.w3.org/2000/svg"
   xmlns:svg="http://www.w3.org/2000/svg"
   xmlns:rdf="http://www.w3.org/1999/02/22-rdf-syntax-ns#"
   xmlns:cc="http://creativecommons.org/ns#"
   xmlns:dc="http://purl.org/dc/elements/1.1/">
  <metadata
     id="metadata8">
    <rdf:RDF>
      <cc:Work
         rdf:about="">
        <dc:format>image/svg+xml</dc:format>
        <dc:type
           rdf:resource="http://purl.org/dc/dcmitype/StillImage" />
        <dc:title />
      </cc:Work>
    </rdf:RDF>
  </metadata>
  <defs
     id="defs6">
    <filter
       style="color-interpolation-filters:sRGB"
       id="filter4375-4-1-1-1-9-3-2-3-8-7-6-4-9"
       inkscape:label="deevad outline effect"
       x="-0.032296934"
       y="-0.063081209"
       width="1.0645939"
       height="1.1261624">
      <feFlood
         id="feFlood4377-7-9-0-8-1-6-9-6-7-5-32-7-4"
         flood-opacity="1"
         flood-color="rgb(95,141,211)"
         result="flood" />
      <feComposite
         id="feComposite4379-3-8-8-2-77-7-1-0-9-9-0-6-8"
         in2="SourceGraphic"
         in="flood"
         operator="in"
         result="composite1" />
      <feMorphology
         id="feMorphology4393-1-0-49-8-9-5-2-6-2-2-6-5-1"
         operator="dilate"
         radius="4"
         result="result3" />
      <feComposite
         id="feComposite4385-9-5-7-0-8-3-7-2-0-2-1-6-2"
         in2="result3"
         in="SourceGraphic"
         operator="over"
         result="composite2" />
    </filter>
  </defs>
  <sodipodi:namedview
     pagecolor="#ffffff"
     bordercolor="#666666"
     borderopacity="1"
     objecttolerance="10"
     gridtolerance="10"
     guidetolerance="10"
     inkscape:pageopacity="0"
     inkscape:pageshadow="2"
     inkscape:window-width="1920"
     inkscape:window-height="1018"
     id="namedview4"
     showgrid="false"
     inkscape:zoom="0.46261215"
     inkscape:cx="1274.2856"
     inkscape:cy="709.01726"
     inkscape:window-x="0"
     inkscape:window-y="0"
     inkscape:window-maximized="1"
     inkscape:current-layer="layer1"
     inkscape:document-rotation="0"
     inkscape:snap-global="false"
     inkscape:pagecheckerboard="0"
     inkscape:showpageshadow="2"
     inkscape:deskcolor="#d1d1d1" />
  <g
     inkscape:groupmode="layer"
     id="layer2"
     inkscape:label="artwork"
     sodipodi:insensitive="true">
    <image
       xlink:href="../gfx_Pepper-and-Carrot_by-David-Revoy_E35P11.png"
       width="2481"
       height="3503"
       id="image10"
       x="0"
       y="0" />
  </g>
  <g
     inkscape:groupmode="layer"
     id="layer3"
     inkscape:label="speechbubbles">
    <path
       style="color:#000000;display:inline;overflow:visible;visibility:visible;fill:#ffffff;fill-opacity:1;fill-rule:nonzero;stroke:none;stroke-width:1.05826px;marker:none;enable-background:accumulate"
       d="m 932.7246,1446.6704 c 28.1693,-24.9106 272.0446,-35.5556 336.641,7.541 53.9173,35.9724 32.8807,122.5341 -15.0706,141.6334 -47.9509,19.099 -207.466,13.6696 -277.37785,3.2265 -66.56578,-9.9423 -77.74329,-36.2614 -81.01761,-88.8787 -1.33637,-21.4761 8.65558,-38.612 36.82506,-63.5222 z"
       id="path4040-4-9-2"
       inkscape:connector-curvature="0"
       sodipodi:nodetypes="zssssz" />
    <path
       style="color:#000000;display:inline;overflow:visible;visibility:visible;fill:#ffffff;fill-opacity:1;fill-rule:nonzero;stroke:none;stroke-width:1.36564px;marker:none;enable-background:accumulate"
       d="m 672.87343,351.47617 c 33.46845,54.26318 16.77932,109.75225 -42.25383,148.97796 101.91057,-50.70471 112.5118,-145.0271 95.84592,-167.01491 -16.31806,-21.52888 -53.59209,18.03695 -53.59209,18.03695 z"
       id="path5010-4"
       inkscape:connector-curvature="0"
       sodipodi:nodetypes="ccsc" />
    <path
       style="display:inline;fill:#ffffff;stroke:none;stroke-width:0.593809"
       d="m 1189.7651,57.299 c -37.6383,0.291165 -75.9441,5.226017 -110.6114,20.596138 -18.9707,9.035479 -34.6736,26.398282 -38.8001,47.340992 -3.9744,20.62219 -2.5171,42.19634 3.4954,62.27217 7.1845,18.83833 23.1758,33.143 41.1121,41.62797 26.4023,13.35548 56.0864,18.26676 85.3259,20.41751 39.6467,3.26547 79.5432,6.45676 119.3042,3.28382 30.4333,-2.53403 60.9347,-10.51405 86.9358,-26.93945 14.8833,-9.57802 28.8059,-21.8084 36.8096,-37.87408 6.7527,-13.08567 8.326,-28.38022 6.1478,-42.81545 -2.6598,-17.3016 -11.6926,-33.4704 -24.9835,-44.85659 -15.9119,-14.191543 -36.2871,-21.85208 -56.4207,-27.88553 -27.3936,-7.963814 -55.8576,-11.472072 -84.239,-13.544453 -21.3271,-1.406949 -42.709,-1.66886 -64.0761,-1.623047 z"
       id="path3280-8-1"
       inkscape:connector-curvature="0"
       sodipodi:nodetypes="csssc" />
    <path
       style="color:#000000;display:inline;overflow:visible;visibility:visible;fill:#ffffff;fill-opacity:1;fill-rule:nonzero;stroke:none;stroke-width:0.768319px;marker:none;enable-background:accumulate"
       d="m 1964.8579,80.042241 c -32.012,0.406432 -64.9167,6.568789 -91.2979,22.208449 -21.9887,13.16571 -40.4018,31.61855 -47.819,53.53875 -4.1234,13.03951 -5.487,26.75881 -3.6198,40.16175 3.1779,21.10953 15.9513,40.74776 33.5559,56.00596 14.6773,12.70148 33.5083,22.1213 54.0991,26.47524 49.9822,12.34459 102.0716,17.93543 154.0665,19.84518 49.4187,1.52074 99.562,-1.50162 147.0796,-13.43241 31.1707,-8.85512 60.5897,-24.40452 79.3546,-47.26665 15.2938,-19.38443 19.7523,-43.2101 18.8339,-65.9967 -0.6025,-21.44646 -7.6988,-43.71351 -25.2082,-60.02958 -16.5773,-15.127089 -40.9807,-22.876397 -65.1478,-24.641498 -59.6833,-7.607729 -120.235,-5.079663 -180.3715,-6.383948 -24.5072,-0.270672 -49.0153,-0.607176 -73.5254,-0.484543 z"
       id="path4546-6-7"
       inkscape:connector-curvature="0"
       sodipodi:nodetypes="cscssssc" />
    <path
       style="color:#000000;display:inline;overflow:visible;visibility:visible;fill:#ffffff;fill-opacity:1;fill-rule:nonzero;stroke:none;stroke-width:0.985823px;marker:none;enable-background:accumulate"
       d="m 1232.7619,1388.2962 c 31.938,-25.3329 308.4416,-39.6345 381.6801,2.4936 61.1311,35.164 37.2798,122.0411 -17.0867,141.8593 -54.3663,19.818 -235.223,16.7802 -314.4884,7.3854 -75.4716,-8.9443 -88.1445,-35.0958 -91.8569,-87.6639 -1.5152,-21.4561 9.8136,-38.7418 41.7519,-64.0744 z"
       id="path4040-4-9"
       inkscape:connector-curvature="0"
       sodipodi:nodetypes="zssssz" />
    <path
       style="fill:#ffffff;fill-rule:evenodd;stroke:none;stroke-width:1.03866px;stroke-linecap:butt;stroke-linejoin:miter;stroke-opacity:1"
       d="m 745.5371,1475.375 c -32.6473,0.7781 -65.265,2.7982 -97.85522,5.1506 -20.28572,1.7793 -40.82438,3.8581 -60.26466,11.4196 -25.04193,10.7496 -44.98163,35.3174 -55.27648,64.2342 -4.74036,13.4856 -8.05994,27.6421 -10.52461,41.9431 -2.24972,14.4185 -1.93192,29.7475 2.91317,43.4071 5.58687,16.7607 14.97774,31.2566 25.00781,44.5884 18.95909,24.0418 44.59063,41.033 72.18823,45.4943 23.81155,4.6657 47.87446,7.1794 71.90786,9.5842 40.0487,3.1771 80.2301,3.8349 120.3475,2.4909 33.7443,-1.2402 67.4841,-3.9648 100.9505,-9.3374 17.7876,-3.3907 35.9287,-8.7579 50.8591,-21.2804 14.5097,-12.4658 24.3449,-31.7974 28.0963,-52.49 3.7802,-15.7628 7.0019,-32.5604 3.8797,-48.8914 -3.8902,-19.5587 -12.5381,-37.0731 -20.6433,-54.4925 -8.4423,-17.0268 -19.4086,-33.0716 -34.253,-42.5939 -17.9657,-12.201 -38.2961,-17.8389 -58.0208,-24.5182 -31.1924,-9.6791 -63.5126,-12.7039 -95.6415,-13.6357 -14.5502,-0.6483 -29.1079,-1.2242 -43.6706,-1.0729 z"
       id="path1079"
       inkscape:connector-curvature="0" />
    <path
       style="color:#000000;display:inline;overflow:visible;visibility:visible;fill:#ffffff;fill-opacity:1;fill-rule:nonzero;stroke:none;stroke-width:0.939237px;marker:none;enable-background:accumulate"
       d="m 1433.8235,1659.3409 c -29.4273,-45.9909 -27.5278,-78.0349 -18.0354,-104.8526 9.1275,-25.7868 10.3608,-19.8278 10.3608,-19.8278 l -48.0852,10.5667 c -4.3789,-3.1179 -1.8389,71.5596 55.7598,114.1137 z"
       id="path3072-12"
       inkscape:connector-curvature="0"
       sodipodi:nodetypes="csccc" />
    <path
       style="display:inline;fill:#ffffff;stroke:none;stroke-width:0.961635"
       d="m 1433.2678,197.26192 c 49.8803,0.7534 100.3656,6.95324 146.8766,24.55128 38.1286,16.49492 69.0309,48.57889 79.7184,86.9205 6.9518,26.50084 6.2908,54.01429 5.9032,81.09782 -1.7588,30.7951 -18.4673,59.51222 -41.5102,80.99083 -13.617,12.95271 -30.3859,22.6198 -48.1158,29.82501 -39.9613,16.75751 -83.813,24.21993 -127.409,25.44889 -32.7621,0.69727 -65.5258,-0.39867 -98.2792,-1.00455 -40.6603,-1.24858 -81.6063,-3.22136 -121.3796,-11.78725 -22.1078,-4.98683 -44.4316,-12.24739 -61.9985,-26.23297 -23.0661,-18.3706 -37.9491,-44.43918 -45.5768,-71.60711 -7.8235,-28.53757 -5.9093,-58.76064 1.7483,-87.13689 6.6019,-27.12361 19.1593,-53.87781 40.897,-73.36635 22.4872,-20.41463 51.816,-32.86336 81.76,-40.39782 46.084,-12.1155 94.1415,-15.21962 141.7632,-16.88435 15.1964,-0.41871 30.4006,-0.45155 45.6024,-0.41704 z"
       id="path3280-8-1-3"
       inkscape:connector-curvature="0"
       sodipodi:nodetypes="csssc" />
    <path
       style="display:inline;fill:#ffffff;stroke:none;stroke-width:0.986136"
       d="m 2011.8516,226.1866 c -58.2287,0.51905 -117.4901,9.31627 -171.1225,36.71618 -29.3487,16.1073 -53.642,47.05952 -60.026,84.39353 -6.1486,36.76262 -3.8941,75.2223 5.4076,111.01093 11.1149,33.5826 35.8544,59.08314 63.6028,74.20908 40.8459,23.80845 86.769,32.56366 132.0043,36.39776 61.3359,5.82125 123.0581,11.51027 184.5707,5.85396 47.0823,-4.51735 94.2697,-18.74311 134.495,-48.02423 23.0253,-17.07448 44.5645,-38.87726 56.9466,-67.51711 10.4469,-23.32748 12.8809,-50.59266 9.5111,-76.32597 -4.1149,-30.84309 -18.0892,-59.6668 -38.6511,-79.96465 -24.6166,-25.29889 -56.1382,-38.9551 -87.2862,-49.71079 -42.3795,-14.19688 -86.415,-20.45096 -130.3227,-24.14535 -32.9944,-2.50813 -66.0734,-2.97503 -99.1296,-2.89334 z"
       id="path3280-8-1-1"
       inkscape:connector-curvature="0"
       sodipodi:nodetypes="csssc" />
    <path
       style="display:inline;fill:#ffffff;stroke:none;stroke-width:0.74427"
       d="M 2025.8672 512.42969 C 1985.1844 512.61456 1944.0444 518.75533 1906.3518 534.53744 C 1896.0836 538.7781 1886.2058 544.09243 1877.6264 551.20796 C 1856.3199 568.34225 1841.29 593.61417 1838.1466 620.93329 C 1834.2175 647.67574 1839.2742 676.56092 1855.7996 698.41922 C 1873.2098 721.60164 1899.035 737.18812 1926.243 746.26399 C 1955.6193 756.82948 1986.9602 760.05516 2017.957 761.48242 C 2064.8391 765.32073 2112.0278 764.47535 2158.859 760.34679 C 2180.7592 758.42503 2202.886 755.70463 2223.5507 747.80231 C 2245.3692 739.56534 2264.9347 725.39624 2279.6577 707.31942 C 2292.1542 691.86389 2301.026 673.02859 2302.6178 653.05421 C 2305.8771 618.20704 2290.8951 581.60206 2262.5039 560.67533 C 2238.0777 542.01576 2208.2382 532.45995 2178.6995 525.4095 C 2128.6763 513.79133 2077.0027 512.25345 2025.8672 512.42969 z "
       id="path3280-8-1-1-8"
       inkscape:connector-curvature="0"
       sodipodi:nodetypes="csssc" />
    <path
       style="fill:#ffffff;fill-rule:evenodd;stroke:none;stroke-width:1px;stroke-linecap:butt;stroke-linejoin:miter;stroke-opacity:1"
       d="m 1917.1509,703.14914 c -35.1448,34.55495 -40.918,43.76621 -48.2945,59.20991 -7.3765,15.44359 -1.4166,45.82505 15.3336,59.77726 16.7502,13.95231 20.6476,39.75145 6.4656,51.09426 -14.1819,11.34295 -70.6572,56.04997 -12.3413,98.68519 -52.1304,-50.93005 4.6214,-80.3316 15.046,-87.77901 10.4245,-7.44749 30.9525,-25.50425 13.4446,-59.50485 -17.5082,-34.00062 -21.7713,-50.818 31.7495,-83.72489 53.5207,-32.90685 -21.4035,-37.75787 -21.4035,-37.75787 z"
       id="path1081"
       inkscape:connector-curvature="0"
       sodipodi:nodetypes="ccccccssc" />
    <path
       style="color:#000000;display:inline;overflow:visible;visibility:visible;fill:#ffffff;fill-opacity:1;fill-rule:nonzero;stroke:none;stroke-width:1.4638px;marker:none;enable-background:accumulate"
       d="m 1446.9857,482.25247 c 38.5518,83.9689 2.5856,139.06018 -54.1917,168.09629 98.918,-30.2652 116.1188,-134.92733 86.7076,-167.77583 -23.1309,-25.83416 -32.5159,-0.32046 -32.5159,-0.32046 z"
       id="path5010-4-3"
       inkscape:connector-curvature="0"
       sodipodi:nodetypes="ccsc" />
    <path
       style="color:#000000;display:inline;overflow:visible;visibility:visible;fill:#ffffff;fill-opacity:1;fill-rule:nonzero;stroke:none;stroke-width:0.861506px;marker:none;enable-background:accumulate"
       d="m 1708.9341,2344.6889 c 0.1396,-105.6475 -1.9817,-81.2211 156.3841,-79.1966 68.739,0.8787 150.308,10.6222 143.7753,157.3952 -5.1637,116.0161 -130.901,110.3132 -154.2725,113.5955 -23.2236,3.2615 -117.9728,-16.6744 -138.5725,-62.3724 -12.895,-28.6062 -8.0693,-101.383 -7.3144,-129.4217 z"
       id="path4546-6-59"
       inkscape:connector-curvature="0"
       sodipodi:nodetypes="cssssc" />
    <path
       style="fill:#ffffff;stroke:none;stroke-width:1.40498"
       d="m 720.93646,74.334276 c -50.55152,3.08778 -100.03953,15.416754 -149.93195,23.909777 -31.45318,6.242517 -62.81602,17.304637 -88.87367,37.942527 -16.49827,13.20659 -29.33925,31.97773 -35.29672,53.34425 -9.54535,30.12085 -9.93681,62.865 -5.11563,94.04195 3.84814,22.99347 12.27848,45.81666 27.54972,62.71498 15.19086,17.11859 34.15817,30.07813 54.65516,38.33478 17.69799,7.8496 36.26553,13.26302 55.14052,16.50527 42.14937,7.86858 85.03779,9.8885 127.74302,9.45199 43.67122,-0.77799 87.28472,-6.16766 129.93481,-16.42186 21.26672,-4.78213 42.71551,-11.63012 60.62503,-25.42823 19.75792,-15.0267 35.44362,-36.34047 44.53157,-60.59277 3.97062,-10.73934 5.91123,-22.25046 6.27639,-33.7908 0.74213,-14.8313 0.81776,-29.69103 1.10115,-44.53743 0.10717,-44.82775 -3.44038,-89.73925 -11.72081,-133.685824 -3.09725,-3.45486 -7.93984,-1.880213 -11.78697,-3.251442 C 857.91557,82.354172 789.57167,74.056384 720.93646,74.334276 Z"
       id="path3100-2"
       inkscape:connector-curvature="0"
       sodipodi:nodetypes="cccccccccccccc" />
    <path
       style="display:inline;fill:#ffffff;fill-rule:evenodd;stroke:none;stroke-width:1.14884px;stroke-linecap:butt;stroke-linejoin:miter;stroke-opacity:1"
       d="m 1876.2442,2473.0319 c 29.6781,34.3855 -48.3918,61.0872 -32.7914,98.1006 6.1219,14.5249 50.1858,21.814 59.4409,88.3499 -23.107,-54.5774 -70.7535,-56.808 -83.5614,-79.4341 -24.3256,-42.971 15.5983,-74.4437 22.7675,-83.4264 9.5884,-12.0136 34.1444,-23.59 34.1444,-23.59 z"
       id="path4186-80"
       inkscape:connector-curvature="0"
       sodipodi:nodetypes="cscssc" />
    <path
       style="color:#000000;display:inline;overflow:visible;visibility:visible;fill:#ffffff;fill-opacity:1;fill-rule:nonzero;stroke:none;stroke-width:0.472467px;marker:none;enable-background:accumulate"
       d="m 266.97992,2086.542 c 13.37453,-13.964 129.16447,-22.406 159.83419,0.5429 25.59955,19.1552 15.61147,66.8586 -7.1553,77.8463 -22.76671,10.9877 -98.5031,9.7123 -131.69666,4.7305 -31.60485,-4.7428 -36.91183,-19.0595 -38.46644,-47.8849 -0.63452,-11.7653 4.10957,-21.2709 17.48421,-35.2348 z"
       id="path4040-4-9-3"
       inkscape:connector-curvature="0"
       sodipodi:nodetypes="zssssz" />
    <path
       style="color:#000000;display:inline;overflow:visible;visibility:visible;fill:#ffffff;fill-opacity:1;fill-rule:nonzero;stroke:none;stroke-width:0.816531px;marker:none;enable-background:accumulate"
       d="m 354.58902,2078.2586 c 35.58146,-4.2267 52.48817,-58.2989 28.13393,-95.1145 44.43236,49.6051 29.57055,64.2564 4.74971,120.5184 -6.58837,14.934 -32.88364,-25.4039 -32.88364,-25.4039 z"
       id="path5010-4-5"
       inkscape:connector-curvature="0"
       sodipodi:nodetypes="ccsc" />
  </g>
  <g
     inkscape:groupmode="layer"
     id="layer1"
     inkscape:label="txt">
    <text
       xml:space="preserve"
       style="font-style:normal;font-variant:normal;font-weight:500;font-stretch:normal;font-size:45px;line-height:1.4;font-family:Mikhak;-inkscape-font-specification:'Mikhak Medium';text-align:center;letter-spacing:0px;word-spacing:0px;direction:rtl;text-anchor:middle;fill:#000000;fill-opacity:1;stroke:none"
       x="693.78503"
       y="187.22852"
       id="text4246-3-2-2"><tspan
         style="font-style:normal;font-variant:normal;font-weight:500;font-stretch:normal;font-size:45px;line-height:1.4;font-family:Mikhak;-inkscape-font-specification:'Mikhak Medium';direction:rtl"
         sodipodi:role="line"
         x="693.78503"
         y="187.22852"
         id="tspan908">ممنون که به هویج</tspan><tspan
         style="font-style:normal;font-variant:normal;font-weight:500;font-stretch:normal;font-size:45px;line-height:1.4;font-family:Mikhak;-inkscape-font-specification:'Mikhak Medium';direction:rtl"
         sodipodi:role="line"
         x="693.78503"
         y="250.22852"
         id="tspan7">اجازه دادی تا برام</tspan><tspan
         style="font-style:normal;font-variant:normal;font-weight:500;font-stretch:normal;font-size:45px;line-height:1.4;font-family:Mikhak;-inkscape-font-specification:'Mikhak Medium';direction:rtl"
         sodipodi:role="line"
         x="693.78503"
         y="313.22852"
         id="tspan8">یه دست لباس تازه بیاره.</tspan></text>
    <text
       xml:space="preserve"
       style="font-style:normal;font-variant:normal;font-weight:500;font-stretch:normal;font-size:45px;line-height:1.4;font-family:Mikhak;-inkscape-font-specification:'Mikhak Medium';text-align:center;letter-spacing:0px;word-spacing:0px;direction:rtl;text-anchor:middle;fill:#000000;fill-opacity:1;stroke:none"
       x="1228.9346"
       y="173.79465"
       id="text4246-3-2-2-3-3-3"><tspan
         style="font-style:normal;font-variant:normal;font-weight:500;font-stretch:normal;font-size:45px;line-height:1.4;font-family:Mikhak;-inkscape-font-specification:'Mikhak Medium';direction:rtl"
         sodipodi:role="line"
         x="1228.9346"
         y="173.79465"
         id="tspan876-3">قابلی نداشت.</tspan></text>
    <text
       xml:space="preserve"
       style="font-style:normal;font-variant:normal;font-weight:500;font-stretch:normal;font-size:45px;line-height:1.4;font-family:Mikhak;-inkscape-font-specification:'Mikhak Medium';text-align:center;letter-spacing:0px;word-spacing:0px;direction:rtl;text-anchor:middle;fill:#000000;fill-opacity:1;stroke:none"
       x="1391.0265"
       y="272.04605"
       id="text4246-3-2-2-3-3"><tspan
         style="font-style:normal;font-variant:normal;font-weight:500;font-stretch:normal;font-size:45px;line-height:1.4;font-family:Mikhak;-inkscape-font-specification:'Mikhak Medium';direction:rtl"
         sodipodi:role="line"
         x="1391.0265"
         y="272.04605"
         id="tspan941">کارمون رو ساده‌تر کردی.</tspan><tspan
         style="font-style:normal;font-variant:normal;font-weight:500;font-stretch:normal;font-size:45px;line-height:1.4;font-family:Mikhak;-inkscape-font-specification:'Mikhak Medium';direction:rtl"
         sodipodi:role="line"
         x="1391.0265"
         y="335.04605"
         id="tspan12">کمترین کاری که </tspan><tspan
         style="font-style:normal;font-variant:normal;font-weight:500;font-stretch:normal;font-size:45px;line-height:1.4;font-family:Mikhak;-inkscape-font-specification:'Mikhak Medium';direction:rtl"
         sodipodi:role="line"
         x="1391.0265"
         y="398.04605"
         id="tspan13">می‌تونستم بکنم این بود که </tspan><tspan
         style="font-style:normal;font-variant:normal;font-weight:500;font-stretch:normal;font-size:45px;line-height:1.4;font-family:Mikhak;-inkscape-font-specification:'Mikhak Medium';direction:rtl"
         sodipodi:role="line"
         x="1391.0265"
         y="461.04605"
         id="tspan2">لطفت رو جبران کنم.</tspan></text>
    <text
       xml:space="preserve"
       style="font-style:normal;font-variant:normal;font-weight:500;font-stretch:normal;font-size:45px;line-height:1.4;font-family:Mikhak;-inkscape-font-specification:'Mikhak Medium';text-align:center;letter-spacing:0px;word-spacing:0px;direction:rtl;text-anchor:middle;fill:#000000;fill-opacity:1;stroke:none"
       x="2065.0979"
       y="165.60696"
       id="text4246-3-2-2-3-3-67"><tspan
         style="font-style:normal;font-variant:normal;font-weight:500;font-stretch:normal;font-size:45px;line-height:1.4;font-family:Mikhak;-inkscape-font-specification:'Mikhak Medium';direction:rtl"
         sodipodi:role="line"
         x="2065.0979"
         y="165.60696"
         id="tspan898">ولی می‌دونی، تو خیلی</tspan><tspan
         style="font-style:normal;font-variant:normal;font-weight:500;font-stretch:normal;font-size:45px;line-height:1.4;font-family:Mikhak;-inkscape-font-specification:'Mikhak Medium';direction:rtl"
         sodipodi:role="line"
         x="2065.0979"
         y="228.60696"
         id="tspan14">واسابی رو ناراحت کردی.</tspan></text>
    <text
       xml:space="preserve"
       style="font-style:normal;font-variant:normal;font-weight:500;font-stretch:normal;font-size:45px;line-height:1.4;font-family:Mikhak;-inkscape-font-specification:'Mikhak Medium';text-align:center;letter-spacing:0px;word-spacing:0px;direction:rtl;text-anchor:middle;fill:#000000;fill-opacity:1;stroke:none"
       x="2073.7402"
       y="323.50256"
       id="text4246-3-2-2-3-3-67-2"><tspan
         style="font-style:normal;font-variant:normal;font-weight:500;font-stretch:normal;font-size:45px;line-height:1.4;font-family:Mikhak;-inkscape-font-specification:'Mikhak Medium';direction:rtl"
         sodipodi:role="line"
         x="2073.7402"
         y="323.50256"
         id="tspan912">اون می‌خواد که همه چیز</tspan><tspan
         style="font-style:normal;font-variant:normal;font-weight:500;font-stretch:normal;font-size:45px;line-height:1.4;font-family:Mikhak;-inkscape-font-specification:'Mikhak Medium';direction:rtl"
         sodipodi:role="line"
         x="2073.7402"
         y="386.50256"
         id="tspan18">عالی باشه. تو با آلودگی، با</tspan><tspan
         style="font-style:normal;font-variant:normal;font-weight:500;font-stretch:normal;font-size:45px;line-height:1.4;font-family:Mikhak;-inkscape-font-specification:'Mikhak Medium';direction:rtl"
         sodipodi:role="line"
         x="2073.7402"
         y="449.50256"
         id="tspan19">لباست و با نحوهٔ ورودت،</tspan><tspan
         style="font-style:normal;font-variant:normal;font-weight:500;font-stretch:normal;font-size:45px;line-height:1.4;font-family:Mikhak;-inkscape-font-specification:'Mikhak Medium';direction:rtl"
         sodipodi:role="line"
         x="2073.7402"
         y="512.50256"
         id="tspan20">به‌هم ریختیش.</tspan></text>
    <text
       xml:space="preserve"
       style="font-style:normal;font-variant:normal;font-weight:500;font-stretch:normal;font-size:45px;line-height:1.4;font-family:Mikhak;-inkscape-font-specification:'Mikhak Medium';text-align:center;letter-spacing:0px;word-spacing:0px;direction:rtl;text-anchor:middle;fill:#000000;fill-opacity:1;stroke:none"
       x="2070.1572"
       y="616.0304"
       id="text4246-3-2-2-3-3-67-2-3"><tspan
         style="font-style:normal;font-variant:normal;font-weight:500;font-stretch:normal;font-size:45px;line-height:1.4;font-family:Mikhak;-inkscape-font-specification:'Mikhak Medium';direction:rtl"
         sodipodi:role="line"
         x="2070.1572"
         y="616.0304"
         id="tspan1134">و بهش حمله کردی!</tspan><tspan
         style="font-style:normal;font-variant:normal;font-weight:500;font-stretch:normal;font-size:45px;line-height:1.4;font-family:Mikhak;-inkscape-font-specification:'Mikhak Medium';direction:rtl"
         sodipodi:role="line"
         x="2070.1572"
         y="679.0304"
         id="tspan22">اون باهات راه نمی‌آد.</tspan></text>
    <text
       xml:space="preserve"
       style="font-style:normal;font-variant:normal;font-weight:500;font-stretch:normal;font-size:45px;line-height:1.25;font-family:Mikhak;-inkscape-font-specification:'Mikhak Medium';text-align:center;letter-spacing:0px;word-spacing:0px;direction:rtl;text-anchor:middle;fill:#000000;fill-opacity:1;stroke:none"
       x="345.89313"
       y="2130.0637"
       id="text4246-3-2-2-3-3-6-67"><tspan
         style="font-style:normal;font-variant:normal;font-weight:500;font-stretch:normal;font-size:45px;font-family:Mikhak;-inkscape-font-specification:'Mikhak Medium';direction:rtl"
         sodipodi:role="line"
         x="345.89313"
         y="2130.0637"
         id="tspan1191-3">می‌دونم.</tspan></text>
    <text
       xml:space="preserve"
       style="font-style:normal;font-variant:normal;font-weight:500;font-stretch:normal;font-size:45px;line-height:1.4;font-family:Mikhak;-inkscape-font-specification:'Mikhak Medium';text-align:center;letter-spacing:0px;word-spacing:0px;direction:rtl;text-anchor:middle;fill:#000000;fill-opacity:1;stroke:none"
       x="1420.4974"
       y="1429.1538"
       id="text4246-3-2-2-3-3-6"><tspan
         style="font-style:normal;font-variant:normal;font-weight:500;font-stretch:normal;font-size:45px;line-height:1.4;font-family:Mikhak;-inkscape-font-specification:'Mikhak Medium';direction:rtl"
         sodipodi:role="line"
         x="1420.4974"
         y="1429.1538"
         id="tspan909">به‌هرحال، باید یه</tspan><tspan
         style="font-style:normal;font-variant:normal;font-weight:500;font-stretch:normal;font-size:45px;line-height:1.4;font-family:Mikhak;-inkscape-font-specification:'Mikhak Medium';direction:rtl"
         sodipodi:role="line"
         x="1420.4974"
         y="1492.1538"
         id="tspan23">چرت کوتاه بزنم.</tspan></text>
    <text
       xml:space="preserve"
       style="font-style:normal;font-variant:normal;font-weight:500;font-stretch:normal;font-size:45px;line-height:1.4;font-family:Mikhak;-inkscape-font-specification:'Mikhak Medium';text-align:center;letter-spacing:0px;word-spacing:0px;direction:rtl;text-anchor:middle;fill:#000000;fill-opacity:1;stroke:none"
       x="1098.573"
       y="1493.3792"
       id="text4246-3-2-2-3-3-6-6"><tspan
         style="font-style:normal;font-variant:normal;font-weight:500;font-stretch:normal;font-size:45px;line-height:1.4;font-family:Mikhak;-inkscape-font-specification:'Mikhak Medium';direction:rtl"
         sodipodi:role="line"
         x="1098.573"
         y="1493.3792"
         id="tspan949">وقتی بیدار شدم</tspan><tspan
         style="font-style:normal;font-variant:normal;font-weight:500;font-stretch:normal;font-size:45px;line-height:1.4;font-family:Mikhak;-inkscape-font-specification:'Mikhak Medium';direction:rtl"
         sodipodi:role="line"
         x="1098.573"
         y="1556.3792"
         id="tspan24">از این‌جا می‌ریم.</tspan></text>
    <text
       xml:space="preserve"
       style="font-style:normal;font-variant:normal;font-weight:500;font-stretch:normal;font-size:45px;line-height:1.4;font-family:Mikhak;-inkscape-font-specification:'Mikhak Medium';text-align:center;letter-spacing:0px;word-spacing:0px;direction:rtl;text-anchor:middle;fill:#000000;fill-opacity:1;stroke:none"
       x="759.55969"
       y="1554.6265"
       id="text4246-3-2-2-3-3-6-2"><tspan
         style="font-style:normal;font-variant:normal;font-weight:500;font-stretch:normal;font-size:45px;line-height:1.4;font-family:Mikhak;-inkscape-font-specification:'Mikhak Medium';direction:rtl"
         sodipodi:role="line"
         x="759.55969"
         y="1554.6265"
         id="tspan958">هر کاری می‌خوای</tspan><tspan
         style="font-style:normal;font-variant:normal;font-weight:500;font-stretch:normal;font-size:45px;line-height:1.4;font-family:Mikhak;-inkscape-font-specification:'Mikhak Medium';direction:rtl"
         sodipodi:role="line"
         x="759.55969"
         y="1617.6265"
         id="tspan26">انجام بده، به‌شرطی که</tspan><tspan
         style="font-style:normal;font-variant:normal;font-weight:500;font-stretch:normal;font-size:45px;line-height:1.4;font-family:Mikhak;-inkscape-font-specification:'Mikhak Medium';direction:rtl"
         sodipodi:role="line"
         x="759.55969"
         y="1680.6265"
         id="tspan27">خیلی از این‌جا دور نشی.</tspan></text>
    <text
       xml:space="preserve"
       style="font-style:normal;font-variant:normal;font-weight:500;font-stretch:normal;line-height:0%;font-family:Mikhak;-inkscape-font-specification:'Mikhak Medium';letter-spacing:0px;word-spacing:0px;direction:rtl;display:inline;fill:#ffffff;fill-opacity:1;stroke:#5f8dd3;stroke-width:0.992362;stroke-miterlimit:4;stroke-dasharray:none;stroke-opacity:1;filter:url(#filter4375-4-1-1-1-9-3-2-3-8-7-6-4-9)"
       x="787.65729"
       y="1584.5073"
       id="text4580-5-0-6-2-8-5-9-9"
       transform="matrix(0.71138619,-0.38856964,0.42362052,1.0933045,-979.73417,1870.197)"><tspan
         sodipodi:role="line"
         id="tspan4582-6-9-1-3-9-5-3-3"
         x="787.65729"
         y="1584.5073"
         style="font-style:normal;font-variant:normal;font-weight:500;font-stretch:normal;font-size:70px;line-height:1.25;font-family:Mikhak;-inkscape-font-specification:'Mikhak Medium';direction:rtl;fill:#ffffff;stroke:#5f8dd3">شلپ</tspan></text>
    <text
       xml:space="preserve"
       style="font-style:normal;font-variant:normal;font-weight:500;font-stretch:normal;font-size:45px;line-height:1.4;font-family:Mikhak;-inkscape-font-specification:'Mikhak Medium';text-align:center;letter-spacing:0px;word-spacing:0px;direction:rtl;text-anchor:middle;fill:#000000;fill-opacity:1;stroke:none"
       x="1857.6653"
       y="2341.1028"
       id="text4246-3-2-2-3-3-6-2-9"><tspan
         style="font-style:normal;font-variant:normal;font-weight:500;font-stretch:normal;font-size:45px;line-height:1.4;font-family:Mikhak;-inkscape-font-specification:'Mikhak Medium';direction:rtl"
         sodipodi:role="line"
         x="1857.6653"
         y="2341.1028"
         id="tspan1080">چه </tspan><tspan
         style="font-style:normal;font-variant:normal;font-weight:500;font-stretch:normal;font-size:45px;line-height:1.4;font-family:Mikhak;-inkscape-font-specification:'Mikhak Medium';direction:rtl"
         sodipodi:role="line"
         x="1857.6653"
         y="2404.1028"
         id="tspan30">جادوگر</tspan><tspan
         style="font-style:normal;font-variant:normal;font-weight:500;font-stretch:normal;font-size:45px;line-height:1.4;font-family:Mikhak;-inkscape-font-specification:'Mikhak Medium';direction:rtl"
         sodipodi:role="line"
         x="1857.6653"
         y="2467.1028"
         id="tspan29">عجیبی.</tspan></text>
  </g>
</svg>
