<?xml version="1.0" encoding="UTF-8" standalone="no"?>
<svg
   id="svg2"
   version="1.1"
   inkscape:version="1.3.2 (091e20ef0f, 2023-11-25, custom)"
   width="2481"
   height="3503"
   sodipodi:docname="E35P06.svg"
   xmlns:inkscape="http://www.inkscape.org/namespaces/inkscape"
   xmlns:sodipodi="http://sodipodi.sourceforge.net/DTD/sodipodi-0.dtd"
   xmlns:xlink="http://www.w3.org/1999/xlink"
   xmlns="http://www.w3.org/2000/svg"
   xmlns:svg="http://www.w3.org/2000/svg"
   xmlns:rdf="http://www.w3.org/1999/02/22-rdf-syntax-ns#"
   xmlns:cc="http://creativecommons.org/ns#"
   xmlns:dc="http://purl.org/dc/elements/1.1/">
  <metadata
     id="metadata8">
    <rdf:RDF>
      <cc:Work
         rdf:about="">
        <dc:format>image/svg+xml</dc:format>
        <dc:type
           rdf:resource="http://purl.org/dc/dcmitype/StillImage" />
        <dc:title />
      </cc:Work>
    </rdf:RDF>
  </metadata>
  <defs
     id="defs6" />
  <sodipodi:namedview
     pagecolor="#ffffff"
     bordercolor="#666666"
     borderopacity="1"
     objecttolerance="10"
     gridtolerance="10"
     guidetolerance="10"
     inkscape:pageopacity="0"
     inkscape:pageshadow="2"
     inkscape:window-width="1920"
     inkscape:window-height="1018"
     id="namedview4"
     showgrid="false"
     inkscape:zoom="0.52601302"
     inkscape:cx="1679.6162"
     inkscape:cy="2931.4864"
     inkscape:window-x="0"
     inkscape:window-y="0"
     inkscape:window-maximized="1"
     inkscape:current-layer="layer1"
     inkscape:document-rotation="0"
     inkscape:snap-global="false"
     inkscape:pagecheckerboard="0"
     inkscape:showpageshadow="2"
     inkscape:deskcolor="#d1d1d1"
     showguides="true" />
  <g
     inkscape:groupmode="layer"
     id="layer2"
     inkscape:label="artwork"
     sodipodi:insensitive="true">
    <image
       xlink:href="../gfx_Pepper-and-Carrot_by-David-Revoy_E35P06.png"
       width="2481"
       height="3503"
       id="image10"
       x="0"
       y="0" />
  </g>
  <g
     inkscape:groupmode="layer"
     id="layer3"
     inkscape:label="speechbubbles"
     style="display:inline">
    <path
       style="fill:#ffffff;stroke:none;stroke-width:0.895208"
       d="m 577.67894,217.58205 c -18.45252,0.27769 -36.86928,1.22447 -55.21361,2.46681 -28.32796,2.07346 -56.65008,5.5045 -83.21813,12.17644 -31.54451,8.63133 -55.0822,27.39997 -62.57558,48.50286 -11.9307,25.19431 -12.91081,52.84738 0.75816,77.89155 8.98166,15.44493 29.05632,27.58005 52.20146,34.68389 37.47742,11.86054 79.36601,18.21031 121.27895,17.89322 25.45038,0.0568 50.91627,-0.54884 76.26389,-1.96278 31.06195,-1.94508 62.31769,-6.83384 88.97646,-17.38271 17.72141,-7.06715 32.07935,-17.67084 39.17433,-30.20008 6.28439,-10.57518 7.45382,-22.0369 6.73263,-33.24048 -0.48443,-19.00694 -1.65062,-38.36749 -11.16654,-56.58467 -6.39632,-11.76971 -20.23999,-21.46389 -36.39799,-28.34428 -11.10623,-4.72895 -23.50704,-8.03955 -35.76632,-11.35933 -29.1994,-7.55839 -60.13738,-12.62074 -91.60058,-14.26304 -3.14411,-0.15064 -6.29508,-0.24059 -9.44713,-0.2774 z"
       id="path3286-6"
       inkscape:connector-curvature="0"
       sodipodi:nodetypes="csssssssc" />
    <path
       style="display:inline;fill:#ffffff;fill-rule:evenodd;stroke:none;stroke-width:1.36247px;stroke-linecap:butt;stroke-linejoin:miter;stroke-opacity:1"
       d="m -11.698607,1502.9614 c 47.285128,0.9709 41.020285,18.9206 23.991775,40.2832 13.099827,-1.4369 43.737529,-21.2257 25.570695,10.0555 39.667306,-11.3646 56.420658,15.5887 53.197356,27.1509 19.484341,-3.9803 39.465281,-0.6376 19.136541,40.2724 19.63803,-9.167 36.84145,-36.8642 34.60501,7.2244 15.89818,-5.4725 36.78638,-26.5581 39.43737,9.4172 21.01567,-17.7601 41.89473,-32.9121 60.6718,-7.9194 19.53008,-36.1747 39.245,-23.3546 52.60208,12.4772 6.27564,-43.4296 43.52626,-25.9104 66.90689,19.5777 -7.42371,-37.6335 -38.94668,-89.6447 54.67081,-13.5228 -39.72841,-55.9177 -44.6055,-77.4348 72.48794,-15.7856 -14.94217,-22.6503 -39.19887,-77.1061 56.32185,-18.4508 -64.83065,-67.3048 -26.58017,-74.4012 20.0383,-86.5626 -56.61095,-1.7957 -73.29896,-19.4105 -12.88074,-26.8793 -92.57779,-8.7403 -70.1637,-30.4201 -40.69585,-66.7128 -47.37424,27.6916 -40.57833,11.5769 -29.22077,-3.1512 -84.20036,29.1003 -49.08304,-16.958 -41.30815,-34.9119 -41.35702,19.0141 -54.17414,16.8415 -50.28863,-11.8494 -22.95791,24.5753 -47.24278,23.9494 -45.05674,14.2836 l -57.8602,-8.2257 -275.30273,5.4155 -12.063932,88.2476 c 72.623699,-4.1891 28.465227,14.6958 -14.960675,19.5663 z"
       id="path961"
       sodipodi:nodetypes="cccccccccccccccccccccccc" />
    <path
       style="color:#000000;display:inline;overflow:visible;visibility:visible;fill:#ffffff;fill-opacity:1;fill-rule:nonzero;stroke:none;stroke-width:0.924429px;marker:none;enable-background:accumulate"
       d="m 646.48887,2280.7715 c -5.9426,-38.6831 9.90463,-141.4372 131.73019,-132.9746 121.82555,8.4615 141.63463,56.8165 144.60594,71.3221 2.9713,14.5068 28.72308,96.71 -66.36023,118.469 -95.08349,21.76 -180.26227,-1.2092 -209.9759,-56.8165 z"
       id="path3525-0"
       inkscape:connector-curvature="0" />
    <path
       style="color:#000000;display:inline;overflow:visible;visibility:visible;fill:#ffffff;fill-opacity:1;fill-rule:nonzero;stroke:none;stroke-width:1px;marker:none;enable-background:accumulate"
       d="m 771.45911,2065.5812 c 24.221,32.672 31.0089,45.658 8.1243,87.146 -22.8847,41.487 -7.3195,49.577 -7.3195,49.577 l 28.2503,-15.376 c 0,0 42.659,-91.848 -29.0551,-121.347 z"
       id="path3072-56"
       inkscape:connector-curvature="0" />
    <path
       style="color:#000000;display:inline;overflow:visible;visibility:visible;fill:#ffffff;fill-opacity:1;fill-rule:nonzero;stroke:none;stroke-width:1px;marker:none;enable-background:accumulate"
       d="m 787.3973,441.92617 c -47.0829,-20.24287 -67.22496,-54.55991 -84.15983,-115.70701 -17.59681,-45.717 -36.07245,-33.52653 -36.07245,-33.52653 l 6.37734,17.91035 c 0,0 -3.04742,117.01808 113.85494,131.32319 z"
       id="path3072-5-5"
       inkscape:connector-curvature="0"
       sodipodi:nodetypes="ccccc" />
    <path
       style="display:inline;fill:#ffffff;fill-opacity:1;stroke:none;stroke-width:1.10947"
       d="m 393.56677,1606.3671 c 21.51156,33.7205 38.79051,39.1501 50.26035,53.0664 11.46981,13.9172 -2.88402,43.4737 0.19353,53.5399 3.70439,9.4958 0.69509,16.2497 29.83986,39.4536 -46.26,-20.9908 -40.86354,-33.0957 -44.26871,-41.9175 -4.68096,-12.128 3.84885,-26.4644 -8.51834,-37.4754 -11.9791,-10.667 -55.59571,-40.8524 -64.07404,-63.4543 -8.47865,-22.6019 -12.84256,-23.9886 -12.84256,-23.9886 z"
       id="path3282-7"
       inkscape:connector-curvature="0"
       sodipodi:nodetypes="csccssscc" />
  </g>
  <g
     inkscape:groupmode="layer"
     id="layer1"
     inkscape:label="txt">
    <text
       xml:space="preserve"
       style="font-style:normal;font-variant:normal;font-weight:500;font-stretch:normal;font-size:45px;line-height:1.25;font-family:Mikhak;-inkscape-font-specification:'Mikhak Medium';text-align:center;letter-spacing:0px;word-spacing:0px;direction:rtl;text-anchor:middle;fill:#000000;fill-opacity:1;stroke:none"
       x="564.0777"
       y="325.28384"
       id="text4246-3-2-2"><tspan
         style="font-style:normal;font-variant:normal;font-weight:500;font-stretch:normal;font-size:45px;font-family:Mikhak;-inkscape-font-specification:'Mikhak Medium';direction:rtl"
         sodipodi:role="line"
         x="564.0777"
         y="325.28384"
         id="tspan868">غارِ دریاچهٔ شاخ‌ها!</tspan><tspan
         style="font-style:normal;font-variant:normal;font-weight:500;font-stretch:normal;font-size:45px;font-family:Mikhak;-inkscape-font-specification:'Mikhak Medium';direction:rtl"
         sodipodi:role="line"
         x="564.0777"
         y="381.53384"
         id="tspan905" /></text>
    <text
       xml:space="preserve"
       style="font-style:normal;font-variant:normal;font-weight:500;font-stretch:normal;font-size:45px;line-height:1.4;font-family:Mikhak;-inkscape-font-specification:'Mikhak Medium';text-align:center;letter-spacing:0px;word-spacing:0px;direction:rtl;text-anchor:middle;fill:#000000;fill-opacity:1;stroke:none"
       x="298.00537"
       y="1511.3002"
       id="text4246-3-2-2-3"><tspan
         style="font-style:normal;font-variant:normal;font-weight:500;font-stretch:normal;font-size:45px;font-family:Mikhak;-inkscape-font-specification:'Mikhak Medium';direction:rtl"
         sodipodi:role="line"
         x="298.00537"
         y="1511.3002"
         id="tspan916">هویج، این تنها</tspan><tspan
         style="font-style:normal;font-variant:normal;font-weight:500;font-stretch:normal;font-size:45px;font-family:Mikhak;-inkscape-font-specification:'Mikhak Medium';direction:rtl"
         sodipodi:role="line"
         x="298.00537"
         y="1574.3002"
         id="tspan2">شانسمونه!</tspan></text>
    <text
       xml:space="preserve"
       style="font-style:normal;font-variant:normal;font-weight:500;font-stretch:normal;font-size:45px;line-height:1.4;font-family:Mikhak;-inkscape-font-specification:'Mikhak Medium';text-align:center;letter-spacing:0px;word-spacing:0px;direction:rtl;text-anchor:middle;fill:#000000;fill-opacity:1;stroke:none"
       x="787.57245"
       y="2227.1047"
       id="text4246-3-2-2-3-5"><tspan
         style="font-style:normal;font-variant:normal;font-weight:500;font-stretch:normal;font-size:45px;line-height:1.4;font-family:Mikhak;-inkscape-font-specification:'Mikhak Medium';direction:rtl"
         sodipodi:role="line"
         x="787.57245"
         y="2227.1047"
         id="tspan3">من این غار رو</tspan><tspan
         style="font-style:normal;font-variant:normal;font-weight:500;font-stretch:normal;font-size:45px;line-height:1.4;font-family:Mikhak;-inkscape-font-specification:'Mikhak Medium';direction:rtl"
         sodipodi:role="line"
         x="787.57245"
         y="2290.1047"
         id="tspan4">می‌شناسم.</tspan></text>
    <text
       xml:space="preserve"
       style="font-style:normal;font-variant:normal;font-weight:500;font-stretch:normal;font-size:40px;line-height:1.4;font-family:Mikhak;-inkscape-font-specification:'Mikhak Medium';text-align:start;letter-spacing:0px;word-spacing:0px;direction:rtl;text-anchor:start;fill:#ffffff;fill-opacity:1;stroke:none"
       x="1318.9839"
       y="2549.3845"
       id="text4246-3-2-2-3-5-9"><tspan
         style="font-style:normal;font-variant:normal;font-weight:500;font-stretch:normal;font-size:40px;line-height:1.4;font-family:Mikhak;-inkscape-font-specification:'Mikhak Medium';text-align:start;direction:rtl;text-anchor:start;fill:#ffffff"
         sodipodi:role="line"
         x="1318.9839"
         y="2549.3845"
         id="tspan1">یه مسیر پر پیچ‌و‌خم و طولانیه که به یه فضای خالی مخروبه می‌رسه.</tspan></text>
    <text
       xml:space="preserve"
       style="font-style:normal;font-variant:normal;font-weight:500;font-stretch:normal;font-size:40px;line-height:1.4;font-family:Mikhak;-inkscape-font-specification:'Mikhak Medium';text-align:start;letter-spacing:0px;word-spacing:0px;direction:rtl;text-anchor:start;fill:#ffffff;fill-opacity:1;stroke:none"
       x="1319.7339"
       y="3059.7258"
       id="text4246-3-2-2-3-5-9-7"><tspan
         style="font-style:normal;font-variant:normal;font-weight:500;font-stretch:normal;font-size:40px;line-height:1.4;font-family:Mikhak;-inkscape-font-specification:'Mikhak Medium';text-align:start;direction:rtl;text-anchor:start;fill:#ffffff"
         sodipodi:role="line"
         x="1319.7339"
         y="3059.7258"
         id="tspan10">قندیل‌های سنگی توی این اتاقک تبدیل شدن به</tspan><tspan
         style="font-style:normal;font-variant:normal;font-weight:500;font-stretch:normal;font-size:40px;line-height:1.4;font-family:Mikhak;-inkscape-font-specification:'Mikhak Medium';text-align:start;direction:rtl;text-anchor:start;fill:#ffffff"
         sodipodi:role="line"
         x="1319.7339"
         y="3115.7258"
         id="tspan6">یه دیوارِ پر از میخ. این یه تلهٔ مرگه!</tspan></text>
    <text
       xml:space="preserve"
       style="font-style:normal;font-variant:normal;font-weight:500;font-stretch:normal;font-size:40px;line-height:1.4;font-family:Mikhak;-inkscape-font-specification:'Mikhak Medium';text-align:center;letter-spacing:0px;word-spacing:0px;direction:rtl;text-anchor:middle;fill:#000000;fill-opacity:1;stroke:none"
       x="2030.9749"
       y="2743.425"
       id="text4246-3-2-2-3-5-9-7-3"><tspan
         style="font-style:normal;font-variant:normal;font-weight:500;font-stretch:normal;font-size:40px;line-height:1.4;font-family:Mikhak;-inkscape-font-specification:'Mikhak Medium';text-align:start;direction:rtl;text-anchor:start;fill:#ffffff"
         sodipodi:role="line"
         x="2030.9749"
         y="2743.425"
         id="tspan11">یه خروجی کوچیک هست در حدی که </tspan><tspan
         style="font-style:normal;font-variant:normal;font-weight:500;font-stretch:normal;font-size:40px;line-height:1.4;font-family:Mikhak;-inkscape-font-specification:'Mikhak Medium';text-align:start;direction:rtl;text-anchor:start;fill:#ffffff"
         sodipodi:role="line"
         x="2030.9749"
         y="2799.425"
         id="tspan14">بتونیم خودمون ازش رد بشیم.</tspan></text>
    <text
       xml:space="preserve"
       style="font-style:normal;font-variant:normal;font-weight:500;font-stretch:normal;font-size:40px;line-height:1.4;font-family:Mikhak;-inkscape-font-specification:'Mikhak Medium';text-align:start;letter-spacing:0px;word-spacing:0px;direction:rtl;text-anchor:start;fill:#000000;fill-opacity:1;stroke:none;stroke-width:1.25015"
       x="2292.3513"
       y="3223.4587"
       id="text4246-3-2-2-3-5-9-7-3-3"><tspan
         style="font-style:normal;font-variant:normal;font-weight:500;font-stretch:normal;font-size:40px;line-height:1.4;font-family:Mikhak;-inkscape-font-specification:'Mikhak Medium';text-align:start;direction:rtl;text-anchor:start;fill:#ffffff;stroke-width:1.25015"
         sodipodi:role="line"
         x="2292.3513"
         y="3223.4587"
         id="tspan12">ولی اژدها نمی‌تونه به موقع خودش رو بالا بکشه و </tspan><tspan
         style="font-style:normal;font-variant:normal;font-weight:500;font-stretch:normal;font-size:40px;line-height:1.4;font-family:Mikhak;-inkscape-font-specification:'Mikhak Medium';text-align:start;direction:rtl;text-anchor:start;fill:#ffffff;stroke-width:1.25015"
         sodipodi:role="line"
         x="2292.3513"
         y="3279.4587"
         id="tspan8">با سرعت زیاد به دیوار می‌خوره! </tspan><tspan
         style="font-style:normal;font-variant:normal;font-weight:500;font-stretch:normal;font-size:40px;line-height:1.4;font-family:Mikhak;-inkscape-font-specification:'Mikhak Medium';text-align:start;direction:rtl;text-anchor:start;fill:#ffffff;stroke-width:1.25015"
         sodipodi:role="line"
         x="2292.3513"
         y="3335.4587"
         id="tspan13">یوهاهاها!</tspan></text>
  </g>
</svg>
