<?xml version="1.0" encoding="UTF-8" standalone="no"?>
<!-- Created with Inkscape (http://www.inkscape.org/) -->

<svg
   id="svg2"
   version="1.1"
   inkscape:version="1.2.1 (9c6d41e4, 2022-07-14)"
   width="2481"
   height="3503"
   sodipodi:docname="E37P03.svg"
   xmlns:inkscape="http://www.inkscape.org/namespaces/inkscape"
   xmlns:sodipodi="http://sodipodi.sourceforge.net/DTD/sodipodi-0.dtd"
   xmlns:xlink="http://www.w3.org/1999/xlink"
   xmlns="http://www.w3.org/2000/svg"
   xmlns:svg="http://www.w3.org/2000/svg"
   xmlns:rdf="http://www.w3.org/1999/02/22-rdf-syntax-ns#"
   xmlns:cc="http://creativecommons.org/ns#"
   xmlns:dc="http://purl.org/dc/elements/1.1/">
  <metadata
     id="metadata8">
    <rdf:RDF>
      <cc:Work
         rdf:about="">
        <dc:format>image/svg+xml</dc:format>
        <dc:type
           rdf:resource="http://purl.org/dc/dcmitype/StillImage" />
        <dc:title />
      </cc:Work>
    </rdf:RDF>
  </metadata>
  <defs
     id="defs6" />
  <sodipodi:namedview
     pagecolor="#ffffff"
     bordercolor="#666666"
     borderopacity="1"
     objecttolerance="10"
     gridtolerance="10"
     guidetolerance="10"
     inkscape:pageopacity="0"
     inkscape:pageshadow="2"
     inkscape:window-width="1440"
     inkscape:window-height="847"
     id="namedview4"
     showgrid="false"
     inkscape:zoom="0.46435316"
     inkscape:cx="1257.6635"
     inkscape:cy="3102.1648"
     inkscape:window-x="0"
     inkscape:window-y="25"
     inkscape:window-maximized="0"
     inkscape:current-layer="layer1"
     inkscape:pagecheckerboard="0"
     inkscape:showpageshadow="0"
     inkscape:deskcolor="#d1d1d1" />
  <g
     inkscape:groupmode="layer"
     id="layer2"
     inkscape:label="artwork"
     sodipodi:insensitive="true">
    <image
       xlink:href="../gfx_Pepper-and-Carrot_by-David-Revoy_E37P03.png"
       y="0"
       x="0"
       id="image10"
       height="3503"
       width="2481" />
  </g>
  <g
     inkscape:groupmode="layer"
     id="layer3"
     inkscape:label="speechbubbles">
    <path
       style="fill:#ffffff;stroke:none"
       d="m 360.81076,483.27055 c -24.56923,-19.74397 -22.57209,-29.32044 -19.38779,-40.05561 3.18412,-10.73531 7.28186,-20.14814 3.61763,-26.41179 -3.66404,-6.26351 -11.74206,-11.72395 -18.29755,-14.98031 -6.55548,-3.25646 -0.45551,-10.46603 0.21288,-18.13003 0.66831,-7.66412 -10.65562,-47.81818 -10.65562,-47.81818 0,0 -16.12893,27.00135 -18.3493,36.73423 -2.22054,9.73275 -3.08233,13.28039 -2.88893,17.39675 0.19358,4.1165 2.17394,14.17648 7.99925,19.25288 5.82532,5.0764 13.79112,7.01762 19.0679,9.86162 5.27689,2.84391 3.98478,11.55697 3.32674,20.195 -0.65814,8.63801 0.27632,15.01927 9.71886,26.19244 8.09394,9.57758 25.63593,17.763 25.63593,17.763 z"
       id="path3023-2"
       inkscape:connector-curvature="0"
       sodipodi:nodetypes="csssscssssssc" />
    <path
       style="color:#000000;display:inline;overflow:visible;visibility:visible;fill:#ffffff;fill-opacity:1;fill-rule:nonzero;stroke:none;stroke-width:0.999998px;marker:none;enable-background:accumulate"
       d="m 403.42298,834.07226 c -16.6818,-24.82678 6.70933,-94.25013 56.4409,-100.94979 -22.32483,1.35916 -74.47842,-5.24564 -96.28686,102.62894 -9.86485,48.79671 26.31789,-1.15111 26.31789,-1.15111 z"
       id="path4035-4"
       inkscape:connector-curvature="0"
       sodipodi:nodetypes="ccscc" />
    <path
       style="color:#000000;display:inline;overflow:visible;visibility:visible;fill:#ffffff;fill-opacity:1;fill-rule:nonzero;stroke:none;stroke-width:1.06379px;marker:none;enable-background:accumulate"
       d="m 280.60093,753.45752 c -39.45269,0.73084 -79.1035,11.89191 -112.52072,34.45353 -22.42143,16.04799 -38.77802,41.30725 -44.70057,69.3231 -6.87608,30.89955 -2.09728,65.26885 15.55026,91.28202 14.41289,20.86127 36.63553,34.1868 59.71344,41.33884 25.65507,7.92849 52.60939,8.14869 79.1024,9.05669 30.01094,0.6534 60.1162,-0.3447 89.91762,-4.29645 25.86335,-4.44139 51.74496,-13.72817 72.2094,-31.58203 16.5083,-15.19893 25.51693,-38.23551 26.29299,-61.18951 3.39379,-42.91212 -13.71057,-87.82132 -46.25508,-114.1152 -19.9521,-16.27708 -44.71482,-24.10072 -69.245,-28.31111 -23.12243,-4.21409 -46.60619,-6.18176 -70.06474,-5.95988 z"
       id="path4040-4-5-3"
       inkscape:connector-curvature="0"
       sodipodi:nodetypes="zssssz" />
    <path
       style="color:#000000;display:inline;overflow:visible;visibility:visible;fill:#ffffff;fill-opacity:1;fill-rule:nonzero;stroke:none;stroke-width:1.23316px;marker:none;enable-background:accumulate"
       d="m 268.64461,115.49637 c -40.32468,0.48262 -81.22192,3.68789 -119.57342,15.87811 -18.43225,5.82888 -35.63458,15.14233 -49.482557,27.83953 -17.750499,15.98961 -30.115482,37.25053 -33.32189,60.03268 -4.025322,24.54386 -1.654594,49.43919 0.08364,74.06204 2.195424,22.04015 8.285869,44.70919 23.606079,62.28309 20.060428,23.75256 50.671968,38.40709 82.302338,44.34582 36.1696,7.15376 73.37181,6.43662 110.15311,7.00126 36.79616,-0.13916 73.9332,-0.53356 110.09685,-7.4783 31.55493,-6.60459 62.57087,-18.51604 86.90322,-38.56913 18.17647,-16.34148 27.16774,-39.60099 29.26382,-62.55717 4.24335,-32.37479 3.52561,-66.16552 -9.14625,-96.98728 -11.66443,-28.01146 -35.09189,-51.85575 -64.73767,-64.47985 -29.52413,-13.22064 -62.60407,-17.03675 -94.94394,-19.5386 -23.68399,-1.7147 -47.45887,-1.89831 -71.20335,-1.8322 z"
       id="path4040-4-5-3-5"
       inkscape:connector-curvature="0"
       sodipodi:nodetypes="zssssz" />
    <path
       style="display:inline;fill:#ffffff;stroke:none;stroke-width:1.01856"
       d="m 1372.5254,123.51953 c -49.0999,0.40617 -98.8591,6.64811 -144.6858,25.03838 -22.42,9.07708 -39.9322,28.11364 -49.6266,50.016 -5.787,12.8048 -8.5445,26.79015 -9.0565,40.7888 -1.5478,23.1199 1.8324,47.55822 14.8496,67.21746 12.9635,19.23993 33.686,31.55093 54.9012,39.83371 38.9659,15.60249 81.156,23.25833 123.1223,22.07801 38.3334,-1.53179 75.8506,-10.72042 114.1171,-13.02056 43.3862,-3.50776 87.2968,-4.49918 129.795,-14.81556 16.3525,-3.50551 31.3942,-13.04546 41.0145,-26.79384 8.0005,-11.01375 11.7541,-24.37021 14.6104,-37.49384 4.2366,-21.58647 3.3274,-44.2787 -3.0936,-65.34013 -7.9185,-23.36708 -25.2443,-43.07285 -46.8166,-54.86138 -29.9719,-17.65084 -64.9605,-23.35061 -98.981,-27.51709 -46.4966,-5.47922 -93.4123,-5.11327 -140.15,-5.12996 z"
       id="path3280-8-2"
       inkscape:connector-curvature="0"
       sodipodi:nodetypes="csssc" />
    <path
       style="color:#000000;display:inline;overflow:visible;visibility:visible;fill:#ffffff;fill-opacity:1;fill-rule:nonzero;stroke:none;stroke-width:1.33751px;marker:none;enable-background:accumulate"
       d="m 1470.4874,324.34575 c -50.0507,0.54579 -100.6907,10.51171 -142.4808,31.91726 -38.2935,20.92206 -63.6356,55.7678 -63.9033,91.85988 -0.11,29.88576 19.5837,58.98976 50.2946,77.37675 26.2008,15.9915 58.5197,24.82632 90.9576,30.36634 50.8784,9.0101 103.4063,12.66936 155.5793,10.49002 33.2134,-1.28262 66.1507,-5.07121 98.8742,-9.43355 23.8534,-3.33511 47.7464,-8.1032 68.9301,-17.35535 20.5001,-8.67602 38.2268,-21.41085 49.4754,-37.1609 16.9788,-23.42465 20.9594,-51.55204 14.2218,-77.60935 -8.0304,-30.23848 -33.4044,-57.96054 -69.2861,-72.70049 -30.2762,-13.04578 -64.8438,-18.64859 -98.9722,-22.28941 -47.1954,-4.70412 -94.8836,-4.7414 -142.3898,-5.46449 -3.767,-0.009 -7.5339,-8.2e-4 -11.3008,0.003 z"
       id="path3365-7"
       inkscape:connector-curvature="0"
       sodipodi:nodetypes="cscsccc" />
    <path
       style="fill:#ffffff;fill-rule:evenodd;stroke:none;stroke-width:0.999999px;stroke-linecap:butt;stroke-linejoin:miter;stroke-opacity:1"
       d="m 1615.4482,493.17881 c -6.3324,4.61753 23.1312,48.65505 53.6406,67.52901 38.9988,24.12578 112.2777,14.3494 131.5101,5.98579 -39.7827,19.67647 -151.2589,38.53306 -215.4148,-49.39071 -15.2092,-20.84384 30.2641,-24.12409 30.2641,-24.12409 z"
       id="path1357"
       inkscape:connector-curvature="0"
       inkscape:transform-center-x="-30.354172"
       inkscape:transform-center-y="-147.57618"
       sodipodi:nodetypes="cscsc" />
    <path
       style="color:#000000;display:inline;overflow:visible;visibility:visible;fill:#ffffff;fill-opacity:1;fill-rule:nonzero;stroke:none;stroke-width:1.44436px;marker:none;enable-background:accumulate"
       d="m 130.0861,2768.4588 c 4.1646,-39.7667 52.76306,-68.7922 178.71482,-61.119 67.46643,4.1101 144.08544,6.8552 138.76731,65.1114 -5.31819,58.2567 -115.45731,56.5921 -138.20384,57.9201 -22.74661,1.3284 -141.14535,-4.9608 -161.7482,-24.8113 -12.89682,-12.426 -17.96894,-24.7842 -17.53009,-37.1012 z"
       id="path4546-6-5"
       inkscape:connector-curvature="0"
       sodipodi:nodetypes="cssssc" />
    <path
       style="color:#000000;display:inline;overflow:visible;visibility:visible;fill:#ffffff;fill-opacity:1;fill-rule:nonzero;stroke:none;stroke-width:1.65988px;marker:none;enable-background:accumulate"
       d="m 822.6688,3230.3551 c 5.1142,-72.4835 64.79385,-125.3888 219.4644,-111.4026 82.8499,7.4914 176.9392,12.4949 170.4085,118.6795 -6.5307,106.1854 -141.7834,103.1513 -169.7166,105.5719 -27.9331,2.4214 -173.32845,-9.0423 -198.62906,-45.224 -15.83751,-22.6489 -22.06615,-45.1745 -21.52724,-67.6248 z"
       id="path4546-6-5-2"
       inkscape:connector-curvature="0"
       sodipodi:nodetypes="cssssc" />
    <path
       style="fill:#ffffff;fill-rule:evenodd;stroke:none;stroke-width:1px;stroke-linecap:butt;stroke-linejoin:miter;stroke-opacity:1"
       d="m 1373.2637,3271.7707 c 22.5866,-17.8161 34.5507,-17.0035 58.8747,-18.7273 24.3239,-1.7244 84.3852,-5.6068 108.13,-1.0095 23.745,4.5978 46.3316,9.7705 52.123,16.0922 5.7914,6.3217 19.6908,24.7127 19.6908,32.7588 0,8.0461 8.108,34.4827 -6.9497,51.7245 -15.0577,17.2414 -30.1154,29.8854 -57.3351,29.3105 -27.2198,-0.5748 -64.8641,0 -82.8176,0.5749 -17.9534,0.5741 -72.972,-6.8972 -82.8174,-21.8393 -9.8454,-14.9426 -23.7449,-37.3566 -21.4283,-50.0006 2.3166,-12.6435 12.5296,-38.8842 12.5296,-38.8842 z"
       id="path1289"
       inkscape:connector-curvature="0"
       sodipodi:nodetypes="csssssssscc" />
    <path
       style="fill:#ffffff;fill-rule:evenodd;stroke:none;stroke-width:1px;stroke-linecap:butt;stroke-linejoin:miter;stroke-opacity:1"
       d="m 1520.7213,3290.478 c 0,0 0.2613,-30.8716 9.7849,-41.8248 9.5236,-10.953 35.9725,-32.826 61.189,-35.0384 -49.4537,-3.6057 -69.9603,11.1043 -78.3427,19.1018 -8.3839,7.9982 -32.4023,48.2786 -32.4023,48.2786 z"
       id="path1367-3"
       inkscape:connector-curvature="0" />
    <path
       style="color:#000000;display:inline;overflow:visible;visibility:visible;fill:#ffffff;fill-opacity:1;fill-rule:nonzero;stroke:none;stroke-width:1px;marker:none;enable-background:accumulate"
       d="m 371.05804,2770.2315 c -13.44223,35.2759 -28.63005,94.9961 57.30853,115.005 -17.80709,4.5085 -119.29491,-9.1273 -91.99905,-114.8163 7.92058,-30.6682 15.69642,-16.5134 23.06049,-15.8694 7.36416,0.6441 11.63003,15.6807 11.63003,15.6807 z"
       id="path4064-5"
       inkscape:connector-curvature="0"
       sodipodi:nodetypes="ccszc" />
    <path
       style="color:#000000;display:inline;overflow:visible;visibility:visible;fill:#ffffff;fill-opacity:1;fill-rule:nonzero;stroke:none;stroke-width:1px;marker:none;enable-background:accumulate"
       d="m 985.81867,3194.6677 c 41.23993,-57.572 33.73823,-151.8082 -50.60213,-153.341 81.57176,24.5899 42.90889,109.9963 14.4588,139.3816 -19.62934,16.6806 36.14333,13.9594 36.14333,13.9594 z"
       id="path3978-4"
       inkscape:connector-curvature="0"
       sodipodi:nodetypes="cccc" />
  </g>
  <g
     inkscape:groupmode="layer"
     id="layer1"
     inkscape:label="txt">
    <text
       xml:space="preserve"
       style="font-style:normal;font-variant:normal;font-weight:normal;font-stretch:normal;font-size:45.3333px;line-height:125%;font-family:Lavi;-inkscape-font-specification:Lavi;text-align:center;letter-spacing:0px;word-spacing:0px;text-anchor:middle;fill:#000000;fill-opacity:1;stroke:none"
       x="290.60724"
       y="192.72549"
       id="text4246-70-2-2-2-7-4-9-9-6-1-2-3-9-2-7-9-3"><tspan
         sodipodi:role="line"
         style="font-size:45.3333px"
         x="290.60724"
         y="192.72549"
         id="tspan652">Parece que eles </tspan><tspan
         sodipodi:role="line"
         style="font-size:45.3333px"
         x="290.60724"
         y="249.39212"
         id="tspan720">espalharam esses </tspan><tspan
         sodipodi:role="line"
         style="font-size:45.3333px"
         x="290.60724"
         y="306.05875"
         id="tspan654">cartazes por </tspan><tspan
         sodipodi:role="line"
         style="font-size:45.3333px"
         x="290.60724"
         y="362.72537"
         id="tspan656">todos os lados.</tspan></text>
    <text
       xml:space="preserve"
       style="font-style:normal;font-variant:normal;font-weight:normal;font-stretch:normal;font-size:45.3333px;line-height:125%;font-family:Lavi;-inkscape-font-specification:Lavi;text-align:center;letter-spacing:0px;word-spacing:0px;text-anchor:middle;fill:#000000;fill-opacity:1;stroke:none"
       x="297.66208"
       y="832.55078"
       id="text4246-70-2-2-2-7-4-9-9-6-1-2-3-9-2-7-9-3-3"><tspan
         sodipodi:role="line"
         style="font-size:45.3333px"
         x="297.66208"
         y="832.55078"
         id="tspan1165">Até mesmo </tspan><tspan
         sodipodi:role="line"
         style="font-size:45.3333px"
         x="297.66208"
         y="889.21741"
         id="tspan690">nos cantos </tspan><tspan
         sodipodi:role="line"
         style="font-size:45.3333px"
         x="297.66208"
         y="945.88403"
         id="tspan692">mais remotos.</tspan><tspan
         sodipodi:role="line"
         style="font-size:45.3333px"
         x="297.66208"
         y="1002.5507"
         id="tspan663" /></text>
    <text
       xml:space="preserve"
       style="font-style:normal;font-variant:normal;font-weight:normal;font-stretch:normal;font-size:45.3333px;line-height:125%;font-family:Lavi;-inkscape-font-specification:Lavi;text-align:center;letter-spacing:0px;word-spacing:0px;text-anchor:middle;fill:#000000;fill-opacity:1;stroke:none"
       x="1423.1024"
       y="199.99611"
       id="text4246-70-2-2-2-7-4-9-9-6-1-2-3-9-2-7-9-3-6"><tspan
         sodipodi:role="line"
         style="font-size:45.3333px"
         x="1423.1024"
         y="199.99611"
         id="tspan702">Venha, vamos sair </tspan><tspan
         sodipodi:role="line"
         style="font-size:45.3333px"
         x="1423.1024"
         y="256.66275"
         id="tspan706">daqui antes que </tspan><tspan
         sodipodi:role="line"
         style="font-size:45.3333px"
         x="1423.1024"
         y="313.32938"
         id="tspan708">peguem a gente.</tspan><tspan
         sodipodi:role="line"
         style="font-size:45.3333px"
         x="1423.1024"
         y="369.996"
         id="tspan670" /></text>
    <text
       xml:space="preserve"
       style="font-style:normal;font-variant:normal;font-weight:normal;font-stretch:normal;font-size:45.3333px;line-height:125%;font-family:Lavi;-inkscape-font-specification:Lavi;text-align:center;letter-spacing:0px;word-spacing:0px;text-anchor:middle;fill:#000000;fill-opacity:1;stroke:none"
       x="1535.2148"
       y="394.40094"
       id="text4246-70-2-2-2-7-4-9-9-6-1-2-3-9-2-7-9-3-6-7"><tspan
         sodipodi:role="line"
         style="font-size:45.3333px"
         x="1535.2148"
         y="394.40094"
         id="tspan1237">Nós temos </tspan><tspan
         sodipodi:role="line"
         style="font-size:45.3333px"
         x="1535.2148"
         y="451.06757"
         id="tspan710">problemas mais </tspan><tspan
         sodipodi:role="line"
         style="font-size:45.3333px"
         x="1535.2148"
         y="507.73419"
         id="tspan712">importantes agora...</tspan><tspan
         sodipodi:role="line"
         style="font-size:45.3333px"
         x="1535.2148"
         y="564.40082"
         id="tspan677" /></text>
    <text
       xml:space="preserve"
       style="font-style:normal;font-variant:normal;font-weight:normal;font-stretch:normal;font-size:45.3333px;line-height:125%;font-family:Lavi;-inkscape-font-specification:Lavi;text-align:center;letter-spacing:0px;word-spacing:0px;text-anchor:middle;fill:#000000;fill-opacity:1;stroke:none"
       x="294.23251"
       y="2781.9722"
       id="text4246-70-2-2-2-7-4-9-9-6-1-2-3-9-2-7-9-3-6-7-3"><tspan
         sodipodi:role="line"
         style="font-size:45.3333px"
         x="294.23251"
         y="2781.9722"
         id="tspan679">Essa luz...</tspan></text>
    <text
       xml:space="preserve"
       style="font-style:normal;font-variant:normal;font-weight:normal;font-stretch:normal;font-size:45.3333px;line-height:125%;font-family:Lavi;-inkscape-font-specification:Lavi;text-align:center;letter-spacing:0px;word-spacing:0px;text-anchor:middle;fill:#000000;fill-opacity:1;stroke:none"
       x="1022.1557"
       y="3187.2583"
       id="text4246-70-2-2-2-7-4-9-9-6-1-2-3-9-2-7-9-3-6-7-3-6"><tspan
         sodipodi:role="line"
         style="font-size:45.3333px"
         x="1022.1557"
         y="3187.2583"
         id="tspan714">A gente deve </tspan><tspan
         sodipodi:role="line"
         style="font-size:45.3333px"
         x="1022.1557"
         y="3243.925"
         id="tspan874">estar perto </tspan><tspan
         sodipodi:role="line"
         style="font-size:45.3333px"
         x="1022.1557"
         y="3300.5916"
         id="tspan716">do ninho dele.</tspan><tspan
         sodipodi:role="line"
         style="font-size:45.3333px"
         x="1022.1557"
         y="3357.2583"
         id="tspan688" /></text>
    <text
       xml:space="preserve"
       style="font-style:normal;font-variant:normal;font-weight:normal;font-stretch:normal;font-size:48.525px;line-height:125%;font-family:Lavi;-inkscape-font-specification:Lavi;text-align:center;letter-spacing:0px;word-spacing:0px;text-anchor:middle;fill:#000000;fill-opacity:1;stroke:none;stroke-width:1"
       x="1490.6833"
       y="3328.5591"
       id="text4246-70-2-2-2-7-4-9-9-6-1-2-3-9-2-7-9-3-6-7-3-6-7"><tspan
         sodipodi:role="line"
         style="font-style:normal;font-variant:normal;font-weight:bold;font-stretch:normal;font-size:48.525px;font-family:Lavi;-inkscape-font-specification:'Lavi Bold';stroke-width:1"
         x="1490.6833"
         y="3328.5591"
         id="tspan121879-0">Bingo!</tspan></text>
  </g>
</svg>
