<?xml version="1.0" encoding="UTF-8" standalone="no"?>
<!-- Created with Inkscape (http://www.inkscape.org/) -->

<svg
   id="svg2"
   version="1.1"
   inkscape:version="1.3.2 (091e20ef0f, 2023-11-25, custom)"
   width="2481"
   height="3503"
   sodipodi:docname="E03P05.svg"
   xmlns:inkscape="http://www.inkscape.org/namespaces/inkscape"
   xmlns:sodipodi="http://sodipodi.sourceforge.net/DTD/sodipodi-0.dtd"
   xmlns:xlink="http://www.w3.org/1999/xlink"
   xmlns="http://www.w3.org/2000/svg"
   xmlns:svg="http://www.w3.org/2000/svg"
   xmlns:rdf="http://www.w3.org/1999/02/22-rdf-syntax-ns#"
   xmlns:cc="http://creativecommons.org/ns#"
   xmlns:dc="http://purl.org/dc/elements/1.1/">
  <metadata
     id="metadata8">
    <rdf:RDF>
      <cc:Work
         rdf:about="">
        <dc:format>image/svg+xml</dc:format>
        <dc:type
           rdf:resource="http://purl.org/dc/dcmitype/StillImage" />
        <dc:title />
      </cc:Work>
    </rdf:RDF>
  </metadata>
  <defs
     id="defs6" />
  <sodipodi:namedview
     pagecolor="#ffffff"
     bordercolor="#666666"
     borderopacity="1"
     objecttolerance="10"
     gridtolerance="10"
     guidetolerance="10"
     inkscape:pageopacity="0"
     inkscape:pageshadow="2"
     inkscape:window-width="1888"
     inkscape:window-height="1144"
     id="namedview4"
     showgrid="false"
     inkscape:zoom="0.41451838"
     inkscape:cx="1136.2584"
     inkscape:cy="1904.62"
     inkscape:window-x="32"
     inkscape:window-y="0"
     inkscape:window-maximized="1"
     inkscape:current-layer="layer1"
     inkscape:showpageshadow="0"
     inkscape:pagecheckerboard="0"
     inkscape:deskcolor="#d1d1d1" />
  <g
     inkscape:groupmode="layer"
     id="layer2"
     inkscape:label="artwork"
     sodipodi:insensitive="true"
     style="display:inline">
    <image
       xlink:href="../gfx_Pepper-and-Carrot_by-David-Revoy_E03P05.png"
       width="2481"
       height="3503"
       id="image10"
       x="0"
       y="0" />
  </g>
  <g
     inkscape:groupmode="layer"
     id="layer3"
     inkscape:label="speechbubbles">
    <path
       style="fill:#ffffff;stroke:none;stroke-width:0.960509px;stroke-linecap:butt;stroke-linejoin:miter;stroke-opacity:1"
       d="m 1618.465,758.62845 c 9.7297,-89.63212 92.874,-106.65087 104.3728,-114.59296 11.4986,-7.94208 80.4907,-11.34583 88.4513,-10.21125 7.9607,1.13459 96.4121,20.42251 106.1417,19.28792 9.7297,-1.13458 89.3359,-10.21125 108.7952,2.26917 19.4594,12.48042 65.4541,93.03587 65.4541,125.93879 0,32.90294 -22.1129,99.84337 -75.1837,130.47713 -53.0709,30.63377 -154.79,56.72919 -217.5904,51.05627 -62.8005,-5.67291 -109.6798,-20.4225 -128.2546,-44.24876 -18.5748,-23.82626 -61.0315,-115.72755 -52.1864,-159.97631 z"
       id="path3061"
       inkscape:connector-curvature="0" />
    <path
       style="fill:#ffffff;stroke:none;stroke-width:1px;stroke-linecap:butt;stroke-linejoin:miter;stroke-opacity:1"
       d="m 1585.3047,973.8132 c 59.4489,18.77335 150.1868,-13.55852 156.4446,-58.40596 6.2577,-44.84744 19.8163,-69.87856 19.8163,-69.87856 l 30.2459,34.4178 -14.6015,49.01929 c 0,0 -66.7497,114.72603 -191.9053,44.84743 z"
       id="path3063"
       inkscape:connector-curvature="0" />
    <path
       style="fill:#ffffff;stroke:none;stroke-width:1px;stroke-linecap:butt;stroke-linejoin:miter;stroke-opacity:1"
       d="m 1078.4244,1887.4493 c 3.1289,-75.0933 43.8045,-130.3704 264.9128,-129.3274 221.1082,1.0429 270.1275,18.7733 281.6001,92.8237 11.4726,74.0504 -26.0741,99.0816 -77.1793,126.1986 -51.1052,27.1171 -170.003,63.6208 -268.0416,44.8474 -98.0386,-18.7733 -207.5498,-62.5778 -201.292,-134.5423 z"
       id="path3065"
       inkscape:connector-curvature="0" />
    <path
       style="fill:#ffffff;stroke:none;stroke-width:1px;stroke-linecap:butt;stroke-linejoin:miter;stroke-opacity:1"
       d="m 1178.5489,2195.1236 c -49.0193,-99.0815 -43.8045,-127.2416 51.1052,-205.4638 94.9097,-78.2223 31.2889,-88.6519 31.2889,-88.6519 0,0 -235.7098,154.3586 -82.3941,294.1157 z"
       id="path3067"
       inkscape:connector-curvature="0" />
  </g>
  <g
     inkscape:groupmode="layer"
     id="layer1"
     inkscape:label="txt">
    <flowRoot
       xml:space="preserve"
       id="flowRoot2987"
       style="font-style:normal;font-variant:normal;font-weight:normal;font-stretch:normal;line-height:125%;font-family:Lavi;-inkscape-font-specification:Lavi;letter-spacing:0px;word-spacing:0px;fill:#000000;fill-opacity:1;stroke:none"
       transform="translate(1506.4647,415.58301)"><flowRegion
         id="flowRegion2989"><rect
           id="rect2991"
           width="452.20114"
           height="291.96487"
           x="120.55251"
           y="265.53046"
           style="font-style:normal;font-variant:normal;font-weight:normal;font-stretch:normal;font-family:Lavi;-inkscape-font-specification:Lavi" /></flowRegion><flowPara
         id="flowPara2995"
         style="font-style:normal;font-variant:normal;font-weight:normal;font-stretch:normal;font-size:50px;line-height:125%;font-family:Mikhak;-inkscape-font-specification:Mikhak;text-align:center;direction:rtl;text-anchor:middle">اولاً، انا بحاجةٍ الى </flowPara><flowPara
         style="font-style:normal;font-variant:normal;font-weight:normal;font-stretch:normal;font-size:50px;line-height:125%;font-family:Mikhak;-inkscape-font-specification:Mikhak;text-align:center;direction:rtl;text-anchor:middle"
         id="flowPara3352">قليلٍ من دُرَرِ الضبابِ</flowPara><flowPara
         style="font-style:normal;font-variant:normal;font-weight:normal;font-stretch:normal;font-size:50px;line-height:125%;font-family:Mikhak;-inkscape-font-specification:Mikhak;text-align:center;direction:rtl;text-anchor:middle"
         id="flowPara3354">من هذه الغيومِ السوداء ...</flowPara><flowPara
         style="font-style:normal;font-variant:normal;font-weight:normal;font-stretch:normal;font-size:50px;line-height:125%;font-family:Mikhak;-inkscape-font-specification:Mikhak;text-align:center;direction:rtl;text-anchor:middle"
         id="flowPara3017"> </flowPara></flowRoot>
    <flowRoot
       xml:space="preserve"
       id="flowRoot2987-3"
       style="font-style:normal;font-variant:normal;font-weight:normal;font-stretch:normal;line-height:130%;font-family:Lavi;-inkscape-font-specification:Lavi;letter-spacing:0px;word-spacing:0px;fill:#000000;fill-opacity:1;stroke:none"
       transform="translate(992.03841,1530.4169)"><flowRegion
         id="flowRegion2989-7"><rect
           id="rect2991-1"
           width="498.03751"
           height="241.3037"
           x="120.55251"
           y="265.53046"
           style="font-style:normal;font-variant:normal;font-weight:normal;font-stretch:normal;font-family:Lavi;-inkscape-font-specification:Lavi" /></flowRegion><flowPara
         style="font-style:normal;font-variant:normal;font-weight:normal;font-stretch:normal;font-size:50px;line-height:130%;font-family:Mikhak;-inkscape-font-specification:Mikhak;text-align:center;direction:rtl;text-anchor:middle"
         id="flowPara3017-6">... و الى بعضِ التوت</flowPara><flowPara
         style="font-style:normal;font-variant:normal;font-weight:normal;font-stretch:normal;font-size:50px;line-height:130%;font-family:Mikhak;-inkscape-font-specification:Mikhak;text-align:center;direction:rtl;text-anchor:middle"
         id="flowPara3059">الاحمر الموجودِ في الغابةِ المسكونة</flowPara></flowRoot>
  </g>
</svg>
