<?xml version="1.0" encoding="UTF-8" standalone="no"?>
<!-- Created with Inkscape (http://www.inkscape.org/) -->

<svg
   id="svg2"
   version="1.1"
   inkscape:version="1.1.2 (0a00cf5339, 2022-02-04)"
   width="2481"
   height="3503"
   sodipodi:docname="E37P03.svg"
   xmlns:inkscape="http://www.inkscape.org/namespaces/inkscape"
   xmlns:sodipodi="http://sodipodi.sourceforge.net/DTD/sodipodi-0.dtd"
   xmlns:xlink="http://www.w3.org/1999/xlink"
   xmlns="http://www.w3.org/2000/svg"
   xmlns:svg="http://www.w3.org/2000/svg"
   xmlns:rdf="http://www.w3.org/1999/02/22-rdf-syntax-ns#"
   xmlns:cc="http://creativecommons.org/ns#"
   xmlns:dc="http://purl.org/dc/elements/1.1/">
  <metadata
     id="metadata8">
    <rdf:RDF>
      <cc:Work
         rdf:about="">
        <dc:format>image/svg+xml</dc:format>
        <dc:type
           rdf:resource="http://purl.org/dc/dcmitype/StillImage" />
        <dc:title />
      </cc:Work>
    </rdf:RDF>
  </metadata>
  <defs
     id="defs6" />
  <sodipodi:namedview
     pagecolor="#ffffff"
     bordercolor="#666666"
     borderopacity="1"
     objecttolerance="10"
     gridtolerance="10"
     guidetolerance="10"
     inkscape:pageopacity="0"
     inkscape:pageshadow="2"
     inkscape:window-width="1920"
     inkscape:window-height="1011"
     id="namedview4"
     showgrid="false"
     inkscape:zoom="0.52900002"
     inkscape:cx="976.37047"
     inkscape:cy="2935.7277"
     inkscape:window-x="1920"
     inkscape:window-y="32"
     inkscape:window-maximized="1"
     inkscape:current-layer="layer3"
     inkscape:pagecheckerboard="0"
     inkscape:showpageshadow="0"
     inkscape:deskcolor="#d1d1d1" />
  <g
     inkscape:groupmode="layer"
     id="layer2"
     inkscape:label="artwork"
     sodipodi:insensitive="true">
    <image
       xlink:href="../gfx_Pepper-and-Carrot_by-David-Revoy_E37P03.png"
       y="0"
       x="0"
       id="image10"
       height="3503"
       width="2481" />
  </g>
  <g
     inkscape:groupmode="layer"
     id="layer3"
     inkscape:label="speechbubbles">
    <path
       style="fill:#ffffff;stroke:none"
       d="m 360.81076,483.27055 c -24.56923,-19.74397 -22.57209,-29.32044 -19.38779,-40.05561 3.18412,-10.73531 7.28186,-20.14814 3.61763,-26.41179 -3.66404,-6.26351 -11.74206,-11.72395 -18.29755,-14.98031 -6.55548,-3.25646 -0.45551,-10.46603 0.21288,-18.13003 0.66831,-7.66412 -10.65562,-47.81818 -10.65562,-47.81818 0,0 -16.12893,27.00135 -18.3493,36.73423 -2.22054,9.73275 -3.08233,13.28039 -2.88893,17.39675 0.19358,4.1165 2.17394,14.17648 7.99925,19.25288 5.82532,5.0764 13.79112,7.01762 19.0679,9.86162 5.27689,2.84391 3.98478,11.55697 3.32674,20.195 -0.65814,8.63801 0.27632,15.01927 9.71886,26.19244 8.09394,9.57758 25.63593,17.763 25.63593,17.763 z"
       id="path3023-2"
       inkscape:connector-curvature="0"
       sodipodi:nodetypes="csssscssssssc" />
    <path
       style="color:#000000;display:inline;overflow:visible;visibility:visible;fill:#ffffff;fill-opacity:1;fill-rule:nonzero;stroke:none;stroke-width:0.999998px;marker:none;enable-background:accumulate"
       d="m 403.42298,834.07226 c -16.6818,-24.82678 6.70933,-94.25013 56.4409,-100.94979 -22.32483,1.35916 -74.47842,-5.24564 -96.28686,102.62894 -9.86485,48.79671 26.31789,-1.15111 26.31789,-1.15111 z"
       id="path4035-4"
       inkscape:connector-curvature="0"
       sodipodi:nodetypes="ccscc" />
    <path
       style="color:#000000;display:inline;overflow:visible;visibility:visible;fill:#ffffff;fill-opacity:1;fill-rule:nonzero;stroke:none;stroke-width:1px;marker:none;enable-background:accumulate"
       d="m 287.22173,764.37695 c -38.96189,0.65395 -78.11944,10.64091 -111.12094,30.8291 -22.1425,14.35978 -38.29561,36.96183 -44.14449,62.03048 -6.79053,27.64899 -2.07119,58.40272 15.35681,81.67937 14.2336,18.66671 36.17978,30.59043 58.9706,36.99009 25.33592,7.0944 51.95492,7.29143 78.11836,8.10392 29.63759,0.58466 59.36834,-0.30844 88.79903,-3.84444 25.5416,-3.97417 51.10124,-12.284 71.31109,-28.25968 16.30294,-13.60004 25.1995,-34.21323 25.96591,-54.75252 3.35157,-38.39787 -13.54001,-78.58273 -45.67966,-102.11056 -19.7039,-14.56477 -44.15856,-21.56538 -68.38358,-25.33285 -22.83479,-3.77078 -46.02641,-5.53145 -69.19313,-5.33291 z"
       id="path4040-4-5-3"
       inkscape:connector-curvature="0"
       sodipodi:nodetypes="zssssz" />
    <path
       style="color:#000000;display:inline;overflow:visible;visibility:visible;fill:#ffffff;fill-opacity:1;fill-rule:nonzero;stroke:none;stroke-width:0.999996px;marker:none;enable-background:accumulate"
       d="m 272.83097,132.72292 c -31.38712,0.40773 -63.2199,3.11564 -93.07118,13.41434 -14.34693,4.92442 -27.73654,12.79273 -38.51525,23.51973 -13.81628,13.50854 -23.44069,31.47045 -25.93643,50.71755 -3.13315,20.73544 -1.28787,41.76782 0.0651,62.57 1.70883,18.62023 6.44939,37.77176 18.37403,52.61876 15.61424,20.06692 39.44104,32.44755 64.06086,37.46477 28.15297,6.04374 57.10969,5.43787 85.73879,5.91489 28.64066,-0.11756 57.54665,-0.45076 85.69499,-6.3179 24.5611,-5.57977 48.70267,-15.64295 67.642,-32.58445 14.14784,-13.80581 21.14629,-33.45619 22.77779,-52.85031 3.30286,-27.35127 2.7442,-55.89877 -7.11907,-81.93799 -9.07913,-23.66498 -27.31413,-43.80941 -50.38922,-54.47465 -22.98041,-11.16922 -48.72851,-14.3932 -73.90058,-16.50684 -18.43467,-1.44863 -36.94009,-1.60376 -55.42185,-1.5479 z"
       id="path4040-4-5-3-5"
       inkscape:connector-curvature="0"
       sodipodi:nodetypes="zssssz" />
    <path
       style="display:inline;fill:#ffffff;stroke:none;stroke-width:1.05108"
       d="m 1372.5099,123.51953 c -52.2853,0.40617 -105.2728,6.64811 -154.0726,25.03838 -23.8746,9.07708 -42.5228,28.11364 -52.8462,50.016 -6.1624,12.8048 -9.0989,26.79015 -9.644,40.7888 -1.6483,23.1199 1.9512,47.55822 15.8129,67.21746 13.8046,19.23993 35.8715,31.55093 58.4631,39.83371 41.4939,15.60249 86.4212,23.25833 131.1101,22.07801 40.8204,-1.53179 80.7716,-10.72042 121.5207,-13.02056 46.2009,-3.50776 92.9603,-4.49918 138.2156,-14.81556 17.4134,-3.50551 33.431,-13.04546 43.6754,-26.79384 8.5196,-11.01375 12.5167,-24.37021 15.5583,-37.49384 4.5115,-21.58647 3.5433,-44.2787 -3.2943,-65.34013 -8.4322,-23.36708 -26.8821,-43.07285 -49.8539,-54.86138 -31.9164,-17.65084 -69.1749,-23.35061 -105.4026,-27.51709 -49.5131,-5.47922 -99.4726,-5.11327 -149.2425,-5.12996 z"
       id="path3280-8-2"
       inkscape:connector-curvature="0"
       sodipodi:nodetypes="csssc" />
    <path
       style="color:#000000;display:inline;overflow:visible;visibility:visible;fill:#ffffff;fill-opacity:1;fill-rule:nonzero;stroke:none;stroke-width:1.32304px;marker:none;enable-background:accumulate"
       d="m 1473.9373,312.60395 c -47.4593,0.5632 -95.4774,10.84712 -135.1038,32.9357 -36.3108,21.58965 -60.3409,57.54727 -60.5948,94.79101 -0.1037,30.83937 18.5699,60.87204 47.6907,79.84574 24.8442,16.50176 55.4898,25.61849 86.2482,31.33529 48.2443,9.2976 98.0524,13.07362 147.5243,10.82474 31.4937,-1.32355 62.7257,-5.23303 93.7549,-9.73456 22.6185,-3.44153 45.2743,-8.36176 65.3613,-17.90914 19.4387,-8.95286 36.2476,-22.09404 46.9137,-38.34665 16.0999,-24.1721 19.8744,-53.197 13.4856,-80.08577 -7.6146,-31.20335 -31.6749,-59.80998 -65.6988,-75.02027 -28.7088,-13.46205 -61.4866,-19.24364 -93.8479,-23.00063 -44.7519,-4.85422 -89.971,-4.89269 -135.0176,-5.63886 -3.572,-0.009 -7.1439,-8.4e-4 -10.7158,0.003 z"
       id="path3365-7"
       inkscape:connector-curvature="0"
       sodipodi:nodetypes="cscsccc" />
    <path
       style="fill:#ffffff;fill-rule:evenodd;stroke:none;stroke-width:0.999999px;stroke-linecap:butt;stroke-linejoin:miter;stroke-opacity:1"
       d="m 1615.4482,493.17881 c -6.3324,4.61753 23.1312,48.65505 53.6406,67.52901 38.9988,24.12578 112.2777,14.3494 131.5101,5.98579 -39.7827,19.67647 -151.2589,38.53306 -215.4148,-49.39071 -15.2092,-20.84384 30.2641,-24.12409 30.2641,-24.12409 z"
       id="path1357"
       inkscape:connector-curvature="0"
       inkscape:transform-center-x="-30.354172"
       inkscape:transform-center-y="-147.57618"
       sodipodi:nodetypes="cscsc" />
    <path
       style="color:#000000;display:inline;overflow:visible;visibility:visible;fill:#ffffff;fill-opacity:1;fill-rule:nonzero;stroke:none;stroke-width:1.44436px;marker:none;enable-background:accumulate"
       d="m 130.0861,2768.4588 c 4.1646,-39.7667 52.76306,-68.7922 178.71482,-61.119 67.46643,4.1101 144.08544,6.8552 138.76731,65.1114 -5.31819,58.2567 -115.45731,56.5921 -138.20384,57.9201 -22.74661,1.3284 -141.14535,-4.9608 -161.7482,-24.8113 -12.89682,-12.426 -17.96894,-24.7842 -17.53009,-37.1012 z"
       id="path4546-6-5"
       inkscape:connector-curvature="0"
       sodipodi:nodetypes="cssssc" />
    <path
       style="color:#000000;display:inline;overflow:visible;visibility:visible;fill:#ffffff;fill-opacity:1;fill-rule:nonzero;stroke:none;stroke-width:1.5049px;marker:none;enable-background:accumulate"
       d="m 858.79934,3230.3551 c 4.20376,-72.4835 53.25917,-125.3888 180.39506,-111.4026 68.1008,7.4914 145.4402,12.4949 140.0721,118.6795 -5.3681,106.1854 -116.5429,103.1513 -139.5034,105.5719 -22.9605,2.4214 -142.47227,-9.0423 -163.26883,-45.224 -13.01809,-22.6489 -18.13789,-45.1745 -17.69493,-67.6248 z"
       id="path4546-6-5-2"
       inkscape:connector-curvature="0"
       sodipodi:nodetypes="cssssc" />
    <path
       style="fill:#ffffff;fill-rule:evenodd;stroke:none;stroke-width:1px;stroke-linecap:butt;stroke-linejoin:miter;stroke-opacity:1"
       d="m 1373.2637,3271.7707 c 22.5866,-17.8161 34.5507,-17.0035 58.8747,-18.7273 24.3239,-1.7244 84.3852,-5.6068 108.13,-1.0095 23.745,4.5978 46.3316,9.7705 52.123,16.0922 5.7914,6.3217 19.6908,24.7127 19.6908,32.7588 0,8.0461 8.108,34.4827 -6.9497,51.7245 -15.0577,17.2414 -30.1154,29.8854 -57.3351,29.3105 -27.2198,-0.5748 -64.8641,0 -82.8176,0.5749 -17.9534,0.5741 -72.972,-6.8972 -82.8174,-21.8393 -9.8454,-14.9426 -23.7449,-37.3566 -21.4283,-50.0006 2.3166,-12.6435 12.5296,-38.8842 12.5296,-38.8842 z"
       id="path1289"
       inkscape:connector-curvature="0"
       sodipodi:nodetypes="csssssssscc" />
    <path
       style="fill:#ffffff;fill-rule:evenodd;stroke:none;stroke-width:1px;stroke-linecap:butt;stroke-linejoin:miter;stroke-opacity:1"
       d="m 1520.7213,3290.478 c 0,0 0.2613,-30.8716 9.7849,-41.8248 9.5236,-10.953 35.9725,-32.826 61.189,-35.0384 -49.4537,-3.6057 -69.9603,11.1043 -78.3427,19.1018 -8.3839,7.9982 -32.4023,48.2786 -32.4023,48.2786 z"
       id="path1367-3"
       inkscape:connector-curvature="0" />
    <path
       style="color:#000000;display:inline;overflow:visible;visibility:visible;fill:#ffffff;fill-opacity:1;fill-rule:nonzero;stroke:none;stroke-width:1px;marker:none;enable-background:accumulate"
       d="m 371.05804,2770.2315 c -13.44223,35.2759 -28.63005,94.9961 57.30853,115.005 -17.80709,4.5085 -119.29491,-9.1273 -91.99905,-114.8163 7.92058,-30.6682 15.69642,-16.5134 23.06049,-15.8694 7.36416,0.6441 11.63003,15.6807 11.63003,15.6807 z"
       id="path4064-5"
       inkscape:connector-curvature="0"
       sodipodi:nodetypes="ccszc" />
    <path
       style="color:#000000;display:inline;overflow:visible;visibility:visible;fill:#ffffff;fill-opacity:1;fill-rule:nonzero;stroke:none;stroke-width:1px;marker:none;enable-background:accumulate"
       d="m 985.81867,3194.6677 c 41.23993,-57.572 33.73823,-151.8082 -50.60213,-153.341 81.57176,24.5899 42.90889,109.9963 14.4588,139.3816 -19.62934,16.6806 36.14333,13.9594 36.14333,13.9594 z"
       id="path3978-4"
       inkscape:connector-curvature="0"
       sodipodi:nodetypes="cccc" />
  </g>
  <g
     inkscape:groupmode="layer"
     id="layer1"
     inkscape:label="txt">
    <text
       xml:space="preserve"
       style="font-style:normal;font-variant:normal;font-weight:normal;font-stretch:normal;font-size:45.3333px;line-height:125%;font-family:Lavi;-inkscape-font-specification:Lavi;text-align:center;letter-spacing:0px;word-spacing:0px;text-anchor:middle;fill:#000000;fill-opacity:1;stroke:none"
       x="288.60724"
       y="210.41437"
       id="text4246-70-2-2-2-7-4-9-9-6-1-2-3-9-2-7-9-3"><tspan
         sodipodi:role="line"
         style="font-size:45.3333px"
         x="288.60724"
         y="210.41437"
         id="tspan1051">Li hanno</tspan><tspan
         sodipodi:role="line"
         style="font-size:45.3333px"
         x="288.60724"
         y="267.08099"
         id="tspan480">messi davvero</tspan><tspan
         sodipodi:role="line"
         style="font-size:45.3333px"
         x="288.60724"
         y="323.74762"
         id="tspan482">ovunque…</tspan></text>
    <text
       xml:space="preserve"
       style="font-style:normal;font-variant:normal;font-weight:normal;font-stretch:normal;font-size:45.3333px;line-height:125%;font-family:Lavi;-inkscape-font-specification:Lavi;text-align:center;letter-spacing:0px;word-spacing:0px;text-anchor:middle;fill:#000000;fill-opacity:1;stroke:none"
       x="297.66208"
       y="844.55078"
       id="text4246-70-2-2-2-7-4-9-9-6-1-2-3-9-2-7-9-3-3"><tspan
         sodipodi:role="line"
         style="font-size:45.3333px"
         x="297.66208"
         y="844.55078"
         id="tspan1165">Anche negli</tspan><tspan
         sodipodi:role="line"
         style="font-size:45.3333px"
         x="297.66208"
         y="901.21741"
         id="tspan2259">angoli più</tspan><tspan
         sodipodi:role="line"
         style="font-size:45.3333px"
         x="297.66208"
         y="957.88403"
         id="tspan2413">remoti.</tspan></text>
    <text
       xml:space="preserve"
       style="font-style:normal;font-variant:normal;font-weight:normal;font-stretch:normal;font-size:45.3333px;line-height:125%;font-family:Lavi;-inkscape-font-specification:Lavi;text-align:center;letter-spacing:0px;word-spacing:0px;text-anchor:middle;fill:#000000;fill-opacity:1;stroke:none"
       x="1423.1024"
       y="199.99611"
       id="text4246-70-2-2-2-7-4-9-9-6-1-2-3-9-2-7-9-3-6"><tspan
         sodipodi:role="line"
         style="font-size:45.3333px"
         x="1423.1024"
         y="199.99611"
         id="tspan1175">Sbrighiamoci,</tspan><tspan
         sodipodi:role="line"
         style="font-size:45.3333px"
         x="1423.1024"
         y="256.66275"
         id="tspan3204">andiamo avanti prima</tspan><tspan
         sodipodi:role="line"
         style="font-size:45.3333px"
         x="1423.1024"
         y="313.32938"
         id="tspan3748">di destare sospetti.</tspan></text>
    <text
       xml:space="preserve"
       style="font-style:normal;font-variant:normal;font-weight:normal;font-stretch:normal;font-size:45.3333px;line-height:125%;font-family:Lavi;-inkscape-font-specification:Lavi;text-align:center;letter-spacing:0px;word-spacing:0px;text-anchor:middle;fill:#000000;fill-opacity:1;stroke:none"
       x="1535.2148"
       y="394.40094"
       id="text4246-70-2-2-2-7-4-9-9-6-1-2-3-9-2-7-9-3-6-7"><tspan
         sodipodi:role="line"
         style="font-size:45.3333px"
         x="1535.2148"
         y="394.40094"
         id="tspan1237">Abbiamo problemi</tspan><tspan
         sodipodi:role="line"
         style="font-size:45.3333px"
         x="1535.2148"
         y="451.06757"
         id="tspan5017">ben più importanti in</tspan><tspan
         sodipodi:role="line"
         style="font-size:45.3333px"
         x="1535.2148"
         y="507.73419"
         id="tspan5873">questo momento…</tspan></text>
    <text
       xml:space="preserve"
       style="font-style:normal;font-variant:normal;font-weight:normal;font-stretch:normal;font-size:45.3333px;line-height:125%;font-family:Lavi;-inkscape-font-specification:Lavi;text-align:center;letter-spacing:0px;word-spacing:0px;text-anchor:middle;fill:#000000;fill-opacity:1;stroke:none"
       x="294.23251"
       y="2781.9722"
       id="text4246-70-2-2-2-7-4-9-9-6-1-2-3-9-2-7-9-3-6-7-3"><tspan
         sodipodi:role="line"
         style="font-size:45.3333px"
         x="294.23251"
         y="2781.9722"
         id="tspan62644">Quella luce…</tspan></text>
    <text
       xml:space="preserve"
       style="font-style:normal;font-variant:normal;font-weight:normal;font-stretch:normal;font-size:45.3333px;line-height:125%;font-family:Lavi;-inkscape-font-specification:Lavi;text-align:center;letter-spacing:0px;word-spacing:0px;text-anchor:middle;fill:#000000;fill-opacity:1;stroke:none"
       x="1022.1557"
       y="3187.2583"
       id="text4246-70-2-2-2-7-4-9-9-6-1-2-3-9-2-7-9-3-6-7-3-6"><tspan
         sodipodi:role="line"
         style="font-size:45.3333px"
         x="1022.1557"
         y="3187.2583"
         id="tspan1298">Dovremmo</tspan><tspan
         sodipodi:role="line"
         style="font-size:45.3333px"
         x="1022.1557"
         y="3243.925"
         id="tspan8874">essere vicino</tspan><tspan
         sodipodi:role="line"
         style="font-size:45.3333px"
         x="1022.1557"
         y="3300.5916"
         id="tspan9918">al suo nido.</tspan></text>
    <text
       xml:space="preserve"
       style="font-style:normal;font-variant:normal;font-weight:normal;font-stretch:normal;font-size:48.525px;line-height:125%;font-family:Lavi;-inkscape-font-specification:Lavi;text-align:center;letter-spacing:0px;word-spacing:0px;text-anchor:middle;fill:#000000;fill-opacity:1;stroke:none;stroke-width:1"
       x="1490.6833"
       y="3328.5591"
       id="text4246-70-2-2-2-7-4-9-9-6-1-2-3-9-2-7-9-3-6-7-3-6-7"><tspan
         sodipodi:role="line"
         style="font-style:normal;font-variant:normal;font-weight:bold;font-stretch:normal;font-size:48.525px;font-family:Lavi;-inkscape-font-specification:'Lavi Bold';stroke-width:1"
         x="1490.6833"
         y="3328.5591"
         id="tspan121879-0">Bingo!</tspan></text>
  </g>
</svg>
