<?xml version="1.0" encoding="UTF-8" standalone="no"?>
<svg
   xmlns:dc="http://purl.org/dc/elements/1.1/"
   xmlns:cc="http://creativecommons.org/ns#"
   xmlns:rdf="http://www.w3.org/1999/02/22-rdf-syntax-ns#"
   xmlns:svg="http://www.w3.org/2000/svg"
   xmlns="http://www.w3.org/2000/svg"
   xmlns:xlink="http://www.w3.org/1999/xlink"
   xmlns:sodipodi="http://sodipodi.sourceforge.net/DTD/sodipodi-0.dtd"
   xmlns:inkscape="http://www.inkscape.org/namespaces/inkscape"
   sodipodi:docname="E33P04.svg"
   height="3503"
   width="2481"
   inkscape:version="0.92.4 5da689c313, 2019-01-14"
   version="1.1"
   id="svg2">
  <metadata
     id="metadata8">
    <rdf:RDF>
      <cc:Work
         rdf:about="">
        <dc:format>image/svg+xml</dc:format>
        <dc:type
           rdf:resource="http://purl.org/dc/dcmitype/StillImage" />
        <dc:title />
      </cc:Work>
    </rdf:RDF>
  </metadata>
  <defs
     id="defs6">
    <filter
       inkscape:collect="always"
       style="color-interpolation-filters:sRGB"
       id="filter1058"
       x="-0.0084350929"
       width="1.0168701"
       y="-0.01927926"
       height="1.0385585"
       inkscape:label="army-sound">
      <feGaussianBlur
         inkscape:collect="always"
         stdDeviation="0.67074246"
         id="feGaussianBlur1060" />
    </filter>
    <filter
       inkscape:collect="always"
       style="color-interpolation-filters:sRGB"
       id="filter987"
       x="-0.011428907"
       width="1.0228578"
       y="-0.023359915"
       height="1.0467198"
       inkscape:label="army-sound_background">
      <feGaussianBlur
         inkscape:collect="always"
         stdDeviation="1.036897"
         id="feGaussianBlur989" />
    </filter>
  </defs>
  <sodipodi:namedview
     inkscape:snap-global="false"
     inkscape:document-rotation="0"
     inkscape:current-layer="layer1"
     inkscape:window-maximized="0"
     inkscape:window-y="0"
     inkscape:window-x="-7"
     inkscape:cy="855.72959"
     inkscape:cx="1548.6315"
     inkscape:zoom="0.31445313"
     showgrid="false"
     id="namedview4"
     inkscape:window-height="1048"
     inkscape:window-width="958"
     inkscape:pageshadow="2"
     inkscape:pageopacity="0"
     guidetolerance="10"
     gridtolerance="10"
     objecttolerance="10"
     borderopacity="1"
     bordercolor="#666666"
     pagecolor="#ffffff" />
  <g
     sodipodi:insensitive="true"
     inkscape:label="artwork"
     id="layer2"
     inkscape:groupmode="layer">
    <image
       sodipodi:absref="/home/tirifto/Développement/Pepper &amp; Carrot/webcomics/ep33_Spell-of-War/lang/eo/../gfx_Pepper-and-Carrot_by-David-Revoy_E33P04.png"
       xlink:href="../gfx_Pepper-and-Carrot_by-David-Revoy_E33P04.png"
       width="2481"
       height="3503"
       id="image10"
       x="0"
       y="0" />
  </g>
  <g
     inkscape:label="speechbubbles"
     id="layer3"
     inkscape:groupmode="layer"
     style="display:inline">
    <path
       style="color:#000000;display:inline;overflow:visible;visibility:visible;fill:#ffffff;fill-opacity:1;fill-rule:nonzero;stroke:none;stroke-width:0.999997px;marker:none;enable-background:accumulate"
       d="m 1294.3416,1319.8982 c -24.8746,9.0048 -67.4708,23.7919 -93.1422,40.3841 -15.4967,7.7702 -49.0139,49.9002 -53.3818,63.5295 -28.0024,1.4421 -56.3566,18.527 -83.4317,53.1858 24.2653,-39.2993 52.2934,-66.9375 76.4015,-69.4094 0.2285,-8.6465 24.7585,-44.5732 46.1338,-59.9591 9.7072,-6.7818 86.9034,-47.1926 117.7711,-62.4432 44.8072,-22.1377 -10.3507,34.7123 -10.3507,34.7123 z"
       id="path5901"
       inkscape:connector-curvature="0"
       sodipodi:nodetypes="ccccccsc" />
    <path
       style="fill:#ffffff;fill-rule:evenodd;stroke:none;stroke-width:1.04303px;stroke-linecap:butt;stroke-linejoin:miter;stroke-opacity:1"
       d="m 1421.1614,1138.4772 c -19.0551,0.4392 -38.095,1.5342 -57.1604,1.482 -28.803,0.1541 -57.5832,-1.2662 -86.3414,-2.7189 -7.0071,0.096 -13.6167,2.8521 -20.1277,5.1988 -7.6127,3.0436 -11.6937,7.718 -31.3255,-6.2207 13.211,28.6172 -26.4186,32.5544 -53.2209,31.0642 19.3666,13.4408 40.449,42.4671 -20.9262,58.5362 -1.2162,0.2404 -0.049,1.2798 0.6817,0.916 70.3775,7.4946 17.3077,33.8844 -16.0696,48.4538 11.8865,-1.9158 23.8649,-3.8744 35.9409,-3.4978 1.6749,8.5145 -10.4159,12.8516 -16.0748,16.5197 48.3461,-2.0788 40.0053,10.1599 11.648,32.5634 48.5946,-18.1256 90.4188,-17.0179 63.6918,3.8463 -6.1694,3.0761 -10.1563,18.7363 13.3044,13.4967 67.9535,-26.5378 57.8356,-1.3104 47.4166,18.2667 28.1564,-21.8953 50.2213,-32.181 49.0768,6.4992 14.6095,-39.9574 33.2623,-43.9266 68.2797,-28.8774 -3.5154,-33.4397 53.7706,-2.738 65.1779,2.5955 -2.2263,-25.9327 18.0468,-20.5727 49.1524,-0.7986 5.4215,-10.4289 17.1406,-16.695 28.6153,-16.1879 20.9359,-1.479 41.9287,4.484 60.1317,14.8066 -6.0171,-25.8803 64.415,-13.3978 75.5358,1.2694 1.54,-10.0703 10.9884,-18.2854 21.0671,-17.8597 12.324,-0.8 24.4871,1.933 36.5826,3.9058 12.316,2.5266 24.2947,6.444 36.2742,10.2408 3.3041,-4.7763 8.7677,-8.9715 14.807,-8.0662 13.0121,0.9241 25.0522,6.4602 37.3989,10.2418 6.79,2.4134 13.5758,4.8399 20.3586,7.2741 0.1,-4.7908 -1.1275,-10.2078 1.9356,-14.3545 5.1965,-5.414 13.4211,-6.1629 20.3309,-4.4672 13.5384,1.881 26.6996,5.7271 39.8939,9.2263 -15.0655,-38.8782 39.4044,-20.7104 58.8226,-16.8331 -21.575,-23.7928 -0.9358,-29.5997 20.5947,-30.8508 -26.237,-20.3036 -11.913,-33.4335 13.9309,-42.2939 -40.2694,-3.4333 -36.7017,-34.096 10.4347,-48.4872 -49.3627,1.5982 -88.5172,-22.7035 9.6823,-44.2753 -130.1345,-8.2032 -315.8428,5.0913 -446.0829,-0.725 -48.3905,-1.4336 -96.9217,-2.253 -145.0004,-8.5407 -6.1347,-0.5887 -12.2755,-1.1651 -18.4372,-1.3489 z"
       id="path4323-0"
       inkscape:connector-curvature="0"
       sodipodi:nodetypes="cccccccccccccccccccccccccccccccccccccccc" />
    <path
       style="color:#000000;display:inline;overflow:visible;visibility:visible;fill:#ffffff;fill-opacity:1;fill-rule:nonzero;stroke:none;stroke-width:1px;marker:none;enable-background:accumulate"
       d="m 1181.8075,432.89146 c 41.586,-19.48659 86.9142,-48.07648 110.3061,-55.71528 -12.0034,-5.38932 -26.511,-11.18011 -27.9957,-14.88305 16.5074,-10.725 22.7761,-12.17757 39.4396,-21.02956 -6.6685,-3.42995 -17.8015,-9.51329 -20.5031,-13.67703 31.8801,-33.37962 143.235,-75.0414 240.016,-59.63147 l 16.3308,-25.69172 c -121.3884,-9.14073 -264.417,61.38626 -280.8502,84.69247 l 21.476,13.45135 c -12.4646,8.51999 -25.2829,16.53403 -39.6844,22.29149 7.9799,4.791 13.2038,9.58202 28.4279,14.37302 z"
       id="path4032-7"
       inkscape:connector-curvature="0"
       sodipodi:nodetypes="cccccccccccc" />
    <path
       style="display:inline;fill:#ffffff;fill-rule:evenodd;stroke:none;stroke-width:1.02426004px;stroke-linecap:butt;stroke-linejoin:miter;stroke-opacity:1"
       d="m 1471.5568,153.41697 c 112.8784,68.76531 160.8177,35.78334 148.081,-12.84239 42.0574,44.77791 71.7824,60.15607 87.915,28.23827 28.3542,31.85113 78.8502,36.83036 82.1354,0.34429 26.8937,37.13364 54.1177,38.21413 77.8896,-4.97751 10.5695,38.28599 34.9947,49.7113 71.3502,3.31952 6.5121,44.93975 32.0244,42.15674 66.1693,-0.40743 -7.8696,66.24891 54.0085,4.58355 93.6891,-30.0225 -29.7144,61.95669 -0.6522,58.94429 30.864,36.39575 -16.5821,36.63234 36.7638,15.02169 118.1191,-31.7098 -40.6952,34.54409 -132.0522,87.80456 -60.9739,82.97805 -9.9122,10.18342 -61.8264,24.01513 43.4667,40.13357 -81.5127,11.31898 -43.4731,31.63509 -2.501,40.58698 -44.2224,3.02975 -82.9908,1.51586 -12.5048,45.99691 -66.8697,-22.88973 -96.8056,-37.33121 -72.5295,-5.41083 -56.1694,-31.0946 -106.722,-27.10062 -97.249,9.29542 -25.7604,-37.94649 -94.5894,-37.28006 -110.8994,7.121 -10.2586,-42.18132 -44.0909,-54.67837 -121.2358,-6.99174 13.0588,-48.94253 -54.2349,-30.96539 -88.6606,-1.40247 23.6836,-34.40178 -34.0844,-37.17414 -84.017,3.56308 29.8438,-41.34162 -29.8389,-56.02814 -93.1766,7.35483 24.6724,-98.2346 -62.4717,-57.72645 -115.3738,-44.92576 40.452,-30.37779 119.6487,-52.85174 23.1076,-65.32413 97.7735,-0.52645 84.4863,-10.77836 32.2422,-39.91942 57.4501,8.00471 41.2867,-12.99191 -15.9078,-61.39369 z"
       id="path4508-2"
       inkscape:connector-curvature="0"
       sodipodi:nodetypes="ccccccccccccccccccccccccc" />
    <path
       style="color:#000000;display:inline;overflow:visible;visibility:visible;fill:#ffffff;fill-opacity:1;fill-rule:nonzero;stroke:none;stroke-width:1px;marker:none;enable-background:accumulate"
       d="m 605.01298,766.03759 c 1.97639,13.68735 4.89813,27.94334 1.54437,41.71842 -2.14174,8.3941 -7.44224,15.62787 -13.25861,21.89179 -7.51416,7.6917 -16.25069,14.2538 -25.79276,19.21693 -14.46,7.41261 -30.74351,11.91558 -43.16159,22.82403 -4.15158,4.87787 -4.72354,13.57308 0.86247,17.62488 7.36472,4.82439 16.60522,5.59784 25.16745,5.01692 10.01613,-1.82804 17.38325,-9.43186 24.53826,-16.06379 16.3121,-14.44251 31.93776,-30.69806 40.74022,-50.93509 7.42676,-20.39544 2.47014,-44.02052 -10.30582,-61.18667 -0.0959,-0.0344 -0.21387,-0.19298 -0.33399,-0.10742 z"
       id="path3072-56"
       inkscape:connector-curvature="0" />
    <path
       style="color:#000000;display:inline;overflow:visible;visibility:visible;fill:#ffffff;fill-opacity:1;fill-rule:nonzero;stroke:none;stroke-width:0.98949808px;marker:none;enable-background:accumulate"
       d="m 384.47595,1010.3396 c -51.58695,-1.0355 -103.55371,-9.0564 -149.53023,-26.87485 -19.75259,-7.81679 -36.73553,-20.63475 -43.54258,-36.73423 -9.96521,-21.7545 -8.80865,-45.75893 0.0537,-67.6007 6.95737,-16.20289 21.68837,-30.66411 41.56876,-39.25718 19.56951,-9.03024 41.24536,-15.46058 63.60378,-19.49287 42.43208,-7.1986 86.33664,-7.4141 129.59366,-5.6989 31.73044,1.9056 62.59032,8.2382 92.91456,15.13863 20.91339,5.15273 41.82092,12.43987 56.59199,24.96579 14.55554,12.31931 22.25738,28.47455 23.9535,44.68315 3.20802,19.96028 0.14414,41.05133 -13.01714,58.87654 -10.72287,13.41651 -28.75134,22.48039 -47.27923,29.17963 -35.59395,12.92509 -74.9202,19.17189 -114.17821,21.85109 -13.54404,0.834 -27.1439,1.1836 -40.73249,0.9639 z"
       id="path3970-3"
       inkscape:connector-curvature="0"
       sodipodi:nodetypes="cccscsc" />
  </g>
  <g
     inkscape:label="txt"
     id="layer1"
     inkscape:groupmode="layer">
    <text
       xml:space="preserve"
       style="font-style:normal;font-variant:normal;font-weight:normal;font-stretch:normal;line-height:0%;font-family:Lavi;-inkscape-font-specification:Lavi;text-align:center;letter-spacing:0px;word-spacing:0px;text-anchor:middle;display:inline;fill:#000000;fill-opacity:1;stroke:none"
       x="395.03751"
       y="894.47522"
       id="text4246-7-6-1-7-6"
       inkscape:label="kingA"><tspan
         id="tspan854"
         sodipodi:role="line"
         style="font-size:45px;line-height:1.25"
         x="395.03751"
         y="894.47522">Ĝuste por tio</tspan><tspan
         id="tspan59"
         sodipodi:role="line"
         style="font-size:45px;line-height:1.25"
         x="395.03751"
         y="950.72522">ni nin ekzercis !</tspan></text>
    <text
       xml:space="preserve"
       style="font-style:normal;font-variant:normal;font-weight:normal;font-stretch:normal;font-size:14.53719997px;line-height:0%;font-family:Lavi;-inkscape-font-specification:Lavi;text-align:center;letter-spacing:0px;word-spacing:0px;text-anchor:middle;fill:#000000;fill-opacity:1;stroke:#000000;stroke-width:2.40001011;stroke-miterlimit:4;stroke-dasharray:none;stroke-opacity:1"
       x="1993.355"
       y="267.55887"
       id="text4246-6-9-8-8"
       transform="matrix(0.95440174,0,-0.25660425,1.0477768,0,0)"
       inkscape:label="kingB"><tspan
         sodipodi:role="line"
         style="font-size:52.02870178px;line-height:1.25;stroke:#000000;stroke-width:2.40001011;stroke-miterlimit:4;stroke-dasharray:none;stroke-opacity:1"
         x="1993.355"
         y="267.55887"
         id="tspan4395-0">JE MIA ORDON’ !</tspan></text>
    <text
       transform="matrix(0.87298381,-0.39667522,-0.16116569,1.4302723,1280.2225,-1441.2945)"
       id="use4516-8-2"
       y="1954.6715"
       x="1302.3322"
       style="font-style:normal;font-variant:normal;font-weight:normal;font-stretch:normal;font-size:8.24479961px;line-height:0%;font-family:Lavi;-inkscape-font-specification:Lavi;letter-spacing:1.83750999px;word-spacing:0px;display:inline;opacity:0.70835601;fill:#b3cfde;fill-opacity:1;stroke:#302820;stroke-width:6.24756002;stroke-miterlimit:4;stroke-dasharray:none;stroke-opacity:1;paint-order:stroke fill markers;filter:url(#filter1058)"
       xml:space="preserve"
       inkscape:label="warriorA"><tspan
         style="font-style:normal;font-variant:normal;font-weight:normal;font-stretch:normal;font-size:48.09469986px;line-height:1.25;font-family:Lavi;-inkscape-font-specification:Lavi;fill:#ded5c0;fill-opacity:1;stroke:#302820;stroke-width:6.24756002;stroke-miterlimit:4;stroke-dasharray:none;stroke-opacity:1;paint-order:stroke fill markers"
         y="1954.6715"
         x="1302.3322"
         id="tspan4370-3-6"
         sodipodi:role="line">Haaa !</tspan></text>
    <text
       xml:space="preserve"
       style="font-style:normal;font-variant:normal;font-weight:normal;font-stretch:normal;font-size:8.24479961px;line-height:0%;font-family:Lavi;-inkscape-font-specification:Lavi;letter-spacing:1.83750999px;word-spacing:0px;display:inline;opacity:0.70835601;fill:#b3cfde;fill-opacity:1;stroke:#302820;stroke-width:6.24756002;stroke-miterlimit:4;stroke-dasharray:none;stroke-opacity:1;paint-order:stroke fill markers;filter:url(#filter1058)"
       x="1302.3322"
       y="1954.6715"
       id="use4516-8"
       transform="matrix(0.87298381,-0.39667522,-0.16116569,1.4302723,1089.34,-1406.6493)"
       inkscape:label="warriorB"><tspan
         sodipodi:role="line"
         id="tspan4370-3"
         x="1302.3322"
         y="1954.6715"
         style="font-style:normal;font-variant:normal;font-weight:normal;font-stretch:normal;font-size:48.09469986px;line-height:1.25;font-family:Lavi;-inkscape-font-specification:Lavi;fill:#ded5c0;fill-opacity:1;stroke:#302820;stroke-width:6.24756002;stroke-miterlimit:4;stroke-dasharray:none;stroke-opacity:1;paint-order:stroke fill markers">Jes !</tspan></text>
    <text
       transform="matrix(0.87298381,-0.39667522,-0.16116569,1.4302723,900.90002,-1377.4986)"
       id="use4516-8-3"
       y="1954.6715"
       x="1302.3322"
       style="font-style:normal;font-variant:normal;font-weight:normal;font-stretch:normal;font-size:8.24479961px;line-height:0%;font-family:Lavi;-inkscape-font-specification:Lavi;letter-spacing:1.83750999px;word-spacing:0px;display:inline;opacity:0.70835601;fill:#b3cfde;fill-opacity:1;stroke:#302820;stroke-width:6.24756002;stroke-miterlimit:4;stroke-dasharray:none;stroke-opacity:1;paint-order:stroke fill markers;filter:url(#filter1058)"
       xml:space="preserve"
       inkscape:label="warriorC"><tspan
         style="font-style:normal;font-variant:normal;font-weight:normal;font-stretch:normal;font-size:48.09469986px;line-height:1.25;font-family:Lavi;-inkscape-font-specification:Lavi;fill:#ded5c0;fill-opacity:1;stroke:#302820;stroke-width:6.24756002;stroke-miterlimit:4;stroke-dasharray:none;stroke-opacity:1;paint-order:stroke fill markers"
         y="1954.6715"
         x="1302.3322"
         id="tspan4370-3-7"
         sodipodi:role="line">Jaaa !</tspan></text>
    <text
       xml:space="preserve"
       style="font-style:normal;font-variant:normal;font-weight:normal;font-stretch:normal;font-size:8.24479961px;line-height:0%;font-family:Lavi;-inkscape-font-specification:Lavi;letter-spacing:1.83750999px;word-spacing:0px;display:inline;opacity:0.36945603;fill:#b3cfde;fill-opacity:1;stroke:#302820;stroke-width:10.81669998;stroke-miterlimit:4;stroke-dasharray:none;stroke-opacity:1;paint-order:stroke fill markers;filter:url(#filter987)"
       x="1302.3322"
       y="1954.6715"
       id="use4516-8-2-7"
       transform="matrix(0.50551861,-0.22852645,-0.0933262,0.82398656,1750.9332,-438.88491)"
       inkscape:label="warriorD"><tspan
         sodipodi:role="line"
         id="tspan4370-3-6-5"
         x="1302.3322"
         y="1954.6715"
         style="font-style:normal;font-variant:normal;font-weight:normal;font-stretch:normal;font-size:48.09469986px;line-height:1.25;font-family:Lavi;-inkscape-font-specification:Lavi;fill:#ded5c0;fill-opacity:1;stroke:#302820;stroke-width:10.81669998;stroke-miterlimit:4;stroke-dasharray:none;stroke-opacity:1;paint-order:stroke fill markers">Hura !</tspan></text>
    <text
       transform="matrix(0.50551861,-0.22852645,-0.0933262,0.82398656,1575.7589,-403.08047)"
       id="use4516-8-2-7-1"
       y="1954.6715"
       x="1302.3322"
       style="font-style:normal;font-variant:normal;font-weight:normal;font-stretch:normal;font-size:8.24479961px;line-height:0%;font-family:Lavi;-inkscape-font-specification:Lavi;letter-spacing:1.83750999px;word-spacing:0px;display:inline;opacity:0.36945603;fill:#b3cfde;fill-opacity:1;stroke:#302820;stroke-width:10.81669998;stroke-miterlimit:4;stroke-dasharray:none;stroke-opacity:1;paint-order:stroke fill markers;filter:url(#filter987)"
       xml:space="preserve"
       inkscape:label="warriorE"><tspan
         style="font-style:normal;font-variant:normal;font-weight:normal;font-stretch:normal;font-size:48.09469986px;line-height:1.25;font-family:Lavi;-inkscape-font-specification:Lavi;fill:#ded5c0;fill-opacity:1;stroke:#302820;stroke-width:10.81669998;stroke-miterlimit:4;stroke-dasharray:none;stroke-opacity:1;paint-order:stroke fill markers"
         y="1954.6715"
         x="1302.3322"
         id="tspan4370-3-6-5-2"
         sodipodi:role="line">Jes !</tspan></text>
    <text
       xml:space="preserve"
       style="font-style:normal;font-variant:normal;font-weight:normal;font-stretch:normal;font-size:8.24479961px;line-height:0%;font-family:Lavi;-inkscape-font-specification:Lavi;letter-spacing:1.83750999px;word-spacing:0px;display:inline;opacity:0.36945603;fill:#b3cfde;fill-opacity:1;stroke:#302820;stroke-width:10.81669998;stroke-miterlimit:4;stroke-dasharray:none;stroke-opacity:1;paint-order:stroke fill markers;filter:url(#filter987)"
       x="1302.3322"
       y="1954.6715"
       id="use4516-8-2-7-1-1"
       transform="matrix(0.50551861,-0.22852645,-0.0933262,0.82398656,1409.4065,-380.10863)"
       inkscape:label="warriorF"><tspan
         sodipodi:role="line"
         id="tspan4370-3-6-5-2-5"
         x="1302.3322"
         y="1954.6715"
         style="font-style:normal;font-variant:normal;font-weight:normal;font-stretch:normal;font-size:48.09469986px;line-height:1.25;font-family:Lavi;-inkscape-font-specification:Lavi;fill:#ded5c0;fill-opacity:1;stroke:#302820;stroke-width:10.81669998;stroke-miterlimit:4;stroke-dasharray:none;stroke-opacity:1;paint-order:stroke fill markers">Jeees !</tspan></text>
    <text
       transform="matrix(0.50551861,-0.22852645,-0.0933262,0.82398656,1249.3194,-363.84199)"
       id="use4516-8-2-7-1-1-7"
       y="1954.6715"
       x="1302.3322"
       style="font-style:normal;font-variant:normal;font-weight:normal;font-stretch:normal;font-size:8.24479961px;line-height:0%;font-family:Lavi;-inkscape-font-specification:Lavi;letter-spacing:1.83750999px;word-spacing:0px;display:inline;opacity:0.36945603;fill:#b3cfde;fill-opacity:1;stroke:#302820;stroke-width:10.81669998;stroke-miterlimit:4;stroke-dasharray:none;stroke-opacity:1;paint-order:stroke fill markers;filter:url(#filter987)"
       xml:space="preserve"
       inkscape:label="warriorG"><tspan
         style="font-style:normal;font-variant:normal;font-weight:normal;font-stretch:normal;font-size:48.09469986px;line-height:1.25;font-family:Lavi;-inkscape-font-specification:Lavi;fill:#ded5c0;fill-opacity:1;stroke:#302820;stroke-width:10.81669998;stroke-miterlimit:4;stroke-dasharray:none;stroke-opacity:1;paint-order:stroke fill markers"
         y="1954.6715"
         x="1302.3322"
         id="tspan4370-3-6-5-2-5-1"
         sodipodi:role="line">Huraaa !</tspan></text>
    <text
       xml:space="preserve"
       style="font-style:normal;font-variant:normal;font-weight:normal;font-stretch:normal;font-size:8.24479961px;line-height:0%;font-family:Lavi;-inkscape-font-specification:Lavi;letter-spacing:1.83750999px;word-spacing:0px;display:inline;opacity:0.36945603;fill:#b3cfde;fill-opacity:1;stroke:#302820;stroke-width:10.81669998;stroke-miterlimit:4;stroke-dasharray:none;stroke-opacity:1;paint-order:stroke fill markers;filter:url(#filter987)"
       x="1302.3322"
       y="1954.6715"
       id="use4516-8-2-7-1-1-7-9"
       transform="matrix(0.50551861,-0.22852645,-0.0933262,0.82398656,1117.8153,-332.94981)"
       inkscape:label="warriorH"><tspan
         sodipodi:role="line"
         id="tspan4370-3-6-5-2-5-1-5"
         x="1302.3322"
         y="1954.6715"
         style="font-style:normal;font-variant:normal;font-weight:normal;font-stretch:normal;font-size:48.09469986px;line-height:1.25;font-family:Lavi;-inkscape-font-specification:Lavi;fill:#ded5c0;fill-opacity:1;stroke:#302820;stroke-width:10.81669998;stroke-miterlimit:4;stroke-dasharray:none;stroke-opacity:1;paint-order:stroke fill markers">Jeeees !</tspan></text>
    <text
       transform="matrix(0.42167905,-0.19030679,-0.07784818,0.68617982,1055.5205,-94.195675)"
       id="use4516-8-2-7-1-1-7-9-1"
       y="1954.6715"
       x="1302.3322"
       style="font-style:normal;font-variant:normal;font-weight:normal;font-stretch:normal;font-size:8.24479961px;line-height:0%;font-family:Lavi;-inkscape-font-specification:Lavi;letter-spacing:1.83750999px;word-spacing:0px;display:inline;opacity:0.36945603;fill:#b3cfde;fill-opacity:1;stroke:#302820;stroke-width:12.97819996;stroke-miterlimit:4;stroke-dasharray:none;stroke-opacity:1;paint-order:stroke fill markers;filter:url(#filter987)"
       xml:space="preserve"
       inkscape:label="warriorI"><tspan
         style="font-style:normal;font-variant:normal;font-weight:normal;font-stretch:normal;font-size:48.09469986px;line-height:1.25;font-family:Lavi;-inkscape-font-specification:Lavi;fill:#ded5c0;fill-opacity:1;stroke:#302820;stroke-width:12.97819996;stroke-miterlimit:4;stroke-dasharray:none;stroke-opacity:1;paint-order:stroke fill markers"
         y="1954.6715"
         x="1302.3322"
         id="tspan4370-3-6-5-2-5-1-5-1"
         sodipodi:role="line">Jes !</tspan></text>
    <text
       transform="matrix(0.9493189,0,-0.25523766,1.0533868,0,0)"
       id="text4246-6-9-8-8-3"
       y="1204.5455"
       x="1989.4592"
       style="font-style:normal;font-variant:normal;font-weight:normal;font-stretch:normal;font-size:18.42469978px;line-height:0%;font-family:Lavi;-inkscape-font-specification:Lavi;text-align:center;letter-spacing:0px;word-spacing:0px;text-anchor:middle;fill:#000000;fill-opacity:1;stroke:#000000;stroke-width:2.40001011;stroke-miterlimit:4;stroke-dasharray:none;stroke-opacity:1"
       xml:space="preserve"
       inkscape:label="kingC"><tspan
         id="tspan4395-0-6"
         y="1204.5455"
         x="1989.4592"
         style="font-size:65.94190216px;line-height:1.25;stroke:#000000;stroke-width:2.40001011;stroke-miterlimit:4;stroke-dasharray:none;stroke-opacity:1"
         sodipodi:role="line">ATAAAAAAAAAAK !!!</tspan></text>
    <text
       transform="matrix(0.76725519,-0.2738102,-0.14164663,0.98726394,369.54189,276.96994)"
       id="use4516-8-7"
       y="1954.6715"
       x="1302.3322"
       style="font-style:normal;font-variant:normal;font-weight:normal;font-stretch:normal;font-size:8.24479961px;line-height:0%;font-family:Lavi;-inkscape-font-specification:Lavi;letter-spacing:1.83750999px;word-spacing:0px;display:inline;opacity:0.38611223;fill:#b3cfde;fill-opacity:1;stroke:#302820;stroke-width:8.0211401;stroke-miterlimit:4;stroke-dasharray:none;stroke-opacity:1;paint-order:stroke fill markers;filter:url(#filter987)"
       xml:space="preserve"
       inkscape:label="warriorJ"><tspan
         style="font-style:normal;font-variant:normal;font-weight:normal;font-stretch:normal;font-size:48.09469986px;line-height:1.25;font-family:Lavi;-inkscape-font-specification:Lavi;fill:#ded5c0;fill-opacity:1;stroke:#302820;stroke-width:8.0211401;stroke-miterlimit:4;stroke-dasharray:none;stroke-opacity:1;paint-order:stroke fill markers"
         y="1954.6715"
         x="1302.3322"
         id="tspan4370-3-0"
         sodipodi:role="line">Eeeeek !</tspan></text>
    <text
       xml:space="preserve"
       style="font-style:normal;font-variant:normal;font-weight:normal;font-stretch:normal;font-size:8.24479961px;line-height:0%;font-family:Lavi;-inkscape-font-specification:Lavi;letter-spacing:1.83750999px;word-spacing:0px;display:inline;opacity:0.38611223;fill:#b3cfde;fill-opacity:1;stroke:#302820;stroke-width:9.05745029;stroke-miterlimit:4;stroke-dasharray:none;stroke-opacity:1;paint-order:stroke fill markers;filter:url(#filter987)"
       x="1302.3322"
       y="1954.6715"
       id="use4516-8-7-6"
       transform="matrix(0.68010769,-0.24225481,-0.12555791,0.87348622,256.1633,518.50004)"
       inkscape:label="warriorK"><tspan
         sodipodi:role="line"
         id="tspan4370-3-0-4"
         x="1302.3322"
         y="1954.6715"
         style="font-style:normal;font-variant:normal;font-weight:normal;font-stretch:normal;font-size:48.09469986px;line-height:1.25;font-family:Lavi;-inkscape-font-specification:Lavi;fill:#ded5c0;fill-opacity:1;stroke:#302820;stroke-width:9.05745029;stroke-miterlimit:4;stroke-dasharray:none;stroke-opacity:1;paint-order:stroke fill markers">Jes !</tspan></text>
    <text
       transform="matrix(0.68010769,-0.24225481,-0.12555791,0.87348622,520.65577,484.96621)"
       id="use4516-8-7-6-9"
       y="1954.6715"
       x="1302.3322"
       style="font-style:normal;font-variant:normal;font-weight:normal;font-stretch:normal;font-size:8.24479961px;line-height:0%;font-family:Lavi;-inkscape-font-specification:Lavi;letter-spacing:1.83750999px;word-spacing:0px;display:inline;opacity:0.38611223;fill:#b3cfde;fill-opacity:1;stroke:#302820;stroke-width:9.05745029;stroke-miterlimit:4;stroke-dasharray:none;stroke-opacity:1;paint-order:stroke fill markers;filter:url(#filter987)"
       xml:space="preserve"
       inkscape:label="warriorL"><tspan
         style="font-style:normal;font-variant:normal;font-weight:normal;font-stretch:normal;font-size:48.09469986px;line-height:1.25;font-family:Lavi;-inkscape-font-specification:Lavi;fill:#ded5c0;fill-opacity:1;stroke:#302820;stroke-width:9.05745029;stroke-miterlimit:4;stroke-dasharray:none;stroke-opacity:1;paint-order:stroke fill markers"
         y="1954.6715"
         x="1302.3322"
         id="tspan4370-3-0-4-8"
         sodipodi:role="line">Huraaa !</tspan></text>
  </g>
</svg>
