<?xml version="1.0" encoding="UTF-8" standalone="no"?>
<!-- Created with Inkscape (http://www.inkscape.org/) -->

<svg
   id="svg2"
   version="1.1"
   inkscape:version="1.3 (0e150ed6c4, 2023-07-21)"
   width="2481"
   height="3503"
   sodipodi:docname="E31P07.svg.2023_10_21_11_20_14.0.svg"
   xmlns:inkscape="http://www.inkscape.org/namespaces/inkscape"
   xmlns:sodipodi="http://sodipodi.sourceforge.net/DTD/sodipodi-0.dtd"
   xmlns:xlink="http://www.w3.org/1999/xlink"
   xmlns="http://www.w3.org/2000/svg"
   xmlns:svg="http://www.w3.org/2000/svg"
   xmlns:rdf="http://www.w3.org/1999/02/22-rdf-syntax-ns#"
   xmlns:cc="http://creativecommons.org/ns#"
   xmlns:dc="http://purl.org/dc/elements/1.1/">
  <metadata
     id="metadata8">
    <rdf:RDF>
      <cc:Work
         rdf:about="">
        <dc:format>image/svg+xml</dc:format>
        <dc:type
           rdf:resource="http://purl.org/dc/dcmitype/StillImage" />
      </cc:Work>
    </rdf:RDF>
  </metadata>
  <defs
     id="defs6">
    <filter
       style="color-interpolation-filters:sRGB"
       id="filter4375-4-1-1-1-9-6-9-2-1-7-1"
       inkscape:label="deevad outline effect"
       x="-0.043560343"
       y="-0.14178412"
       width="1.0871207"
       height="1.2835682">
      <feFlood
         id="feFlood4377-7-9-0-8-1-0-2-2-06-3-9"
         flood-opacity="1"
         flood-color="rgb(0,0,0)"
         result="flood" />
      <feComposite
         id="feComposite4379-3-8-8-2-77-6-0-8-3-6-4"
         in2="SourceGraphic"
         in="flood"
         operator="in"
         result="composite1" />
      <feMorphology
         id="feMorphology4393-1-0-49-8-9-2-2-9-2-1-7"
         operator="dilate"
         radius="4"
         result="result3" />
      <feComposite
         id="feComposite4385-9-5-7-0-8-6-3-7-0-2-8"
         in2="result3"
         in="SourceGraphic"
         operator="over"
         result="composite2" />
    </filter>
    <filter
       style="color-interpolation-filters:sRGB"
       id="filter4375-4-1-1-1-9-6-9-2-1-7-1-3"
       inkscape:label="deevad outline effect"
       x="-0.043560343"
       y="-0.14178412"
       width="1.0871207"
       height="1.2835682">
      <feFlood
         id="feFlood4377-7-9-0-8-1-0-2-2-06-3-9-6"
         flood-opacity="1"
         flood-color="rgb(0,0,0)"
         result="flood" />
      <feComposite
         id="feComposite4379-3-8-8-2-77-6-0-8-3-6-4-7"
         in2="SourceGraphic"
         in="flood"
         operator="in"
         result="composite1" />
      <feMorphology
         id="feMorphology4393-1-0-49-8-9-2-2-9-2-1-7-5"
         operator="dilate"
         radius="4"
         result="result3" />
      <feComposite
         id="feComposite4385-9-5-7-0-8-6-3-7-0-2-8-3"
         in2="result3"
         in="SourceGraphic"
         operator="over"
         result="composite2" />
    </filter>
    <filter
       inkscape:collect="always"
       style="color-interpolation-filters:sRGB"
       id="filter4213"
       x="-0.0081922923"
       width="1.0163846"
       y="-0.016978126"
       height="1.0339563">
      <feGaussianBlur
         inkscape:collect="always"
         stdDeviation="0.24308766"
         id="feGaussianBlur4215" />
    </filter>
    <filter
       inkscape:collect="always"
       style="color-interpolation-filters:sRGB"
       id="filter4213-8"
       x="-0.0090098791"
       width="1.0180198"
       y="-0.013936316"
       height="1.0278726">
      <feGaussianBlur
         inkscape:collect="always"
         stdDeviation="0.24308766"
         id="feGaussianBlur4215-7" />
    </filter>
    <filter
       inkscape:collect="always"
       style="color-interpolation-filters:sRGB"
       id="filter1266"
       x="-0.01553989"
       width="1.0310798"
       y="-0.05195195"
       height="1.1039039">
      <feGaussianBlur
         inkscape:collect="always"
         stdDeviation="0.78825367"
         id="feGaussianBlur1268" />
    </filter>
    <filter
       inkscape:collect="always"
       style="color-interpolation-filters:sRGB"
       id="filter4213-0"
       x="-0.0059253891"
       width="1.0118508"
       y="-0.024654451"
       height="1.0493089">
      <feGaussianBlur
         inkscape:collect="always"
         stdDeviation="0.24308766"
         id="feGaussianBlur4215-2" />
    </filter>
    <filter
       inkscape:collect="always"
       style="color-interpolation-filters:sRGB"
       id="filter1266-5"
       x="-0.021581583"
       width="1.0431632"
       y="-0.07841589"
       height="1.1568318">
      <feGaussianBlur
         inkscape:collect="always"
         stdDeviation="0.78825367"
         id="feGaussianBlur1268-9" />
    </filter>
    <filter
       inkscape:collect="always"
       style="color-interpolation-filters:sRGB"
       id="filter4213-8-8"
       x="-0.0051656338"
       width="1.0103313"
       y="-0.027095084"
       height="1.0541902">
      <feGaussianBlur
         inkscape:collect="always"
         stdDeviation="0.24308766"
         id="feGaussianBlur4215-7-9" />
    </filter>
    <filter
       inkscape:collect="always"
       style="color-interpolation-filters:sRGB"
       id="filter1266-5-1"
       x="-0.019840388"
       width="1.0396808"
       y="-0.045594306"
       height="1.0911886">
      <feGaussianBlur
         inkscape:collect="always"
         stdDeviation="0.78825367"
         id="feGaussianBlur1268-9-2" />
    </filter>
    <filter
       inkscape:collect="always"
       style="color-interpolation-filters:sRGB"
       id="filter4213-1"
       x="-0.025093407"
       width="1.0501868"
       y="-0.029186144"
       height="1.0583723">
      <feGaussianBlur
         inkscape:collect="always"
         stdDeviation="0.24308766"
         id="feGaussianBlur4215-9" />
    </filter>
    <filter
       inkscape:collect="always"
       style="color-interpolation-filters:sRGB"
       id="filter1395"
       x="-0.014867518"
       width="1.0334556"
       y="-0.022602248"
       height="1.0444402">
      <feGaussianBlur
         inkscape:collect="always"
         stdDeviation="0.26634151"
         id="feGaussianBlur1397" />
    </filter>
    <filter
       inkscape:collect="always"
       style="color-interpolation-filters:sRGB"
       id="filter1639"
       x="-0.039145496"
       width="1.0863318"
       y="-0.061646989"
       height="1.1602303">
      <feGaussianBlur
         inkscape:collect="always"
         stdDeviation="0.45636794"
         id="feGaussianBlur1641" />
    </filter>
  </defs>
  <sodipodi:namedview
     pagecolor="#ffffff"
     bordercolor="#666666"
     borderopacity="1"
     objecttolerance="10"
     gridtolerance="10"
     guidetolerance="10"
     inkscape:pageopacity="0"
     inkscape:pageshadow="2"
     inkscape:window-width="1920"
     inkscape:window-height="1007"
     id="namedview4"
     showgrid="false"
     inkscape:zoom="0.26300648"
     inkscape:cx="937.23926"
     inkscape:cy="3406.7602"
     inkscape:window-x="0"
     inkscape:window-y="40"
     inkscape:window-maximized="1"
     inkscape:current-layer="layer1"
     inkscape:snap-global="false"
     inkscape:showpageshadow="2"
     inkscape:pagecheckerboard="0"
     inkscape:deskcolor="#d1d1d1" />
  <g
     inkscape:groupmode="layer"
     id="layer2"
     inkscape:label="artwork"
     sodipodi:insensitive="true">
    <image
       xlink:href="../gfx_Pepper-and-Carrot_by-David-Revoy_E31P07.png"
       width="2481"
       height="3503"
       id="image10"
       x="0"
       y="0" />
  </g>
  <g
     inkscape:groupmode="layer"
     id="layer3"
     inkscape:label="speechbubbles"
     style="opacity:1">
    <path
       style="fill:#ffffff;stroke:none;stroke-width:1"
       d="m 1106.0698,2364.2966 c -11.6691,-1.8294 -24.0895,-4.612 -32.8712,-13.0801 -5.3332,-4.801 -7.3799,-11.8865 -9.0134,-18.6167 -1.7512,-7.2534 -4.0169,-15.0959 -10.2535,-19.8117 -8.1983,-7.1963 -20.6303,-6.3017 -28.5569,-13.9283 -7.9089,-11.2207 -5.5612,-26.5213 -13.792,-37.5876 -6.0341,-8.2415 -13.21645,-15.534 -20.08555,-23.0643 -3.25505,3.9734 -0.85984,9.2711 -1.37949,13.849 -0.8446,4.1744 -0.45106,8.5017 -0.35229,12.7431 0.56185,11.6716 3.48347,23.4796 10.14381,33.2232 3.53272,5.8733 6.60632,12.8834 13.20942,15.8976 6.8374,2.8369 14.9959,5.2953 20.9776,7.1591 5.9817,1.8638 11.038,1.7891 13.084,6.9271 2.3464,5.0542 4.4303,10.2451 6.6776,15.3527 2.545,5.7563 6.3126,11.1817 11.8226,14.4395 11.7632,7.9059 26.7924,8.5572 40.3893,6.4974 z"
       id="path3023-4"
       inkscape:connector-curvature="0"
       sodipodi:nodetypes="ccccccccccczcccc" />
    <path
       style="display:inline;fill:#ffffff;fill-rule:evenodd;stroke:none;stroke-width:1px;stroke-linecap:butt;stroke-linejoin:miter;stroke-opacity:1"
       d="m 631.07063,1022.9303 c -73.3336,55.9324 -104.4071,93.2206 -116.8365,150.3959 -12.4294,57.1754 -21.13,118.0795 47.2318,190.1701 -79.5483,-68.3618 -74.5765,-141.6953 -72.0907,-162.8253 2.4859,-21.1301 16.1583,-95.7066 60.9042,-147.9101 44.7459,-52.2036 93.2206,-87.00582 93.2206,-87.00582 l 6.2147,34.80222 z"
       id="path1094"
       inkscape:connector-curvature="0" />
    <path
       style="color:#000000;display:inline;overflow:visible;visibility:visible;opacity:1;fill:#ffffff;fill-opacity:1;fill-rule:nonzero;stroke:none;stroke-width:1.34132px;marker:none;enable-background:accumulate"
       d="m 709.12027,2226.3441 c 1.8283,-20.6601 43.99888,-56.9158 231.3406,-55.0806 133.23653,1.305 167.79253,16.0154 203.49413,44.0411 34.5882,31.3549 4.6546,47.5185 -32.4768,62.0046 -46.2749,18.053 -92.9395,13.0011 -169.48476,13.8153 -88.43187,0.034 -142.55293,9.9041 -198.54944,-11.0211 -32.44217,-11.5746 -34.05475,-36.1773 -34.32373,-53.7593 z"
       id="path3365-7"
       inkscape:connector-curvature="0"
       sodipodi:nodetypes="cscsccc" />
    <path
       style="fill:#ffffff;stroke:none;stroke-width:1.07552"
       d="m 1086.6857,2086.8325 c -1.5446,49.7316 -50.4951,93.7219 -159.34557,97.2522 -159.06887,5.159 -184.10537,-44.6969 -182.61783,-119.8264 1.23721,-62.4855 88.67583,-83.8374 175.09555,-83.1792 150.55555,1.1467 165.51985,59.0701 166.86785,105.7534 z"
       id="path3280-8-0-3"
       inkscape:connector-curvature="0"
       sodipodi:nodetypes="csssc" />
    <path
       style="color:#000000;display:inline;overflow:visible;visibility:visible;opacity:1;fill:#ffffff;fill-opacity:1;fill-rule:nonzero;stroke:none;stroke-width:0.58296984px;marker:none;enable-background:accumulate"
       d="m 831.86487,1909.5424 c 11.29455,-13.7475 135.68273,-23.5391 167.86915,7.5545 22.43068,21.6697 8.81838,58.3821 -10.40769,69.2002 -19.22591,10.8171 -99.61845,16.3496 -126,10.8412 -23.72371,-4.9544 -48.62526,-15.617 -49.93815,-43.9972 -0.53581,-11.5833 7.18206,-29.8502 18.47669,-43.5987 z"
       id="path4040-3"
       inkscape:connector-curvature="0"
       sodipodi:nodetypes="zssssz" />
    <path
       style="color:#000000;display:inline;overflow:visible;visibility:visible;fill:#ffffff;fill-opacity:1;fill-rule:nonzero;stroke:none;stroke-width:1px;marker:none;enable-background:accumulate"
       d="m 513.39226,1560.6825 c -20.56334,-38.6246 30.41574,-79.0088 76.08739,-66.2175 -11.0856,-9.0468 -62.14969,-43.6193 -114.25657,32.0263 -28.17045,40.8962 25.40397,34.0641 25.40397,34.0641 z"
       id="path4035-4"
       inkscape:connector-curvature="0"
       sodipodi:nodetypes="ccscc" />
    <path
       style="color:#000000;display:inline;overflow:visible;visibility:visible;fill:#ffffff;fill-opacity:1;fill-rule:nonzero;stroke:none;stroke-width:1px;marker:none;enable-background:accumulate"
       d="m 1740.924,1775.3534 c -41.7501,-3.5977 -88.1678,-42.8204 -86.1303,-69.3756 2.5752,-3.8294 -6.743,-13.959 -6.743,-13.959 0,0 11.5715,-1.9717 8.445,-14.2491 -3.1266,-12.2775 7.4012,-18.3398 7.4012,-18.3398 0,0 25.5919,16.6709 34.0315,24.716 -7.3672,10.1082 -10.0408,16.3402 -13.7565,18.4792 -17.0299,6.8863 32.2595,66.9357 56.7521,72.7283 z"
       id="path4456-8"
       inkscape:connector-curvature="0"
       sodipodi:nodetypes="cccccccc" />
    <path
       style="color:#000000;display:inline;overflow:visible;visibility:visible;fill:#ffffff;fill-opacity:1;fill-rule:nonzero;stroke:none;stroke-width:0.809384px;marker:none;enable-background:accumulate"
       d="m 501.73376,856.27267 c 22.06732,-17.24492 56.16518,-24.80645 89.04743,-26.75908 42.09638,-3.28199 159.09861,-9.55242 222.69119,1.95299 42.89989,9.34692 84.32755,31.65987 94.48694,59.64027 13.53213,32.16513 19.98644,82.8033 -6.96444,111.57595 -48.83125,43.819 -150.87858,42.599 -227.61986,40.8086 -29.66498,-0.8734 -59.35048,-1.702 -88.93976,-3.3836 -22.76721,-1.4538 -45.61462,-6.212 -63.26895,-16.2765 -42.90014,-21.3297 -65.62524,-59.88697 -53.91071,-94.98072 2.67815,-25.42328 8.59403,-52.63567 34.47816,-72.57791 z"
       id="path4040-57"
       inkscape:connector-curvature="0"
       sodipodi:nodetypes="cccccccccc" />
    <path
       style="color:#000000;display:inline;overflow:visible;visibility:visible;fill:#ffffff;fill-opacity:1;fill-rule:nonzero;stroke:none;stroke-width:0.907876px;marker:none;enable-background:accumulate"
       d="m 309.45719,1580.8196 c 6.14123,-44.1063 19.47186,-90.2766 146.12558,-83.386 126.65381,6.8907 144.04675,42.3805 144.87363,88.0467 1.08326,59.8198 -20.59665,73.641 -39.07589,81.1351 -18.47911,7.4942 -61.8329,15.8645 -93.04537,18.2733 -16.78226,1.2957 -118.65751,-5.0445 -137.96483,-27.8115 -19.23853,-22.6853 -22.35474,-44.5653 -20.91312,-76.2576 z"
       id="path3365-90"
       inkscape:connector-curvature="0"
       sodipodi:nodetypes="csssssc" />
    <path
       style="color:#000000;display:inline;overflow:visible;visibility:visible;fill:#ffffff;fill-opacity:1;fill-rule:nonzero;stroke:none;stroke-width:1.23743439px;marker:none;enable-background:accumulate"
       d="m 1572.0663,1730.6574 c -59.1574,-1.3204 -84.1412,-16.8899 -98.7313,-40.1414 -14.5899,-23.2524 -2.4717,-60.7919 23.1612,-74.0842 25.6329,-13.2925 60.3134,-14.6393 100.4568,-12.8804 72.537,3.1808 122.7787,13.2015 128.4582,49.2585 5.6395,35.8003 1.1128,54.794 -52.2076,71.843 -50.1947,9.8114 -101.1373,6.0045 -101.1373,6.0045 z"
       id="path3970-36-4"
       inkscape:connector-curvature="0"
       sodipodi:nodetypes="cccsscc" />
    <path
       style="fill:#ffffff;fill-rule:evenodd;stroke:none;stroke-width:1px;stroke-linecap:butt;stroke-linejoin:miter;stroke-opacity:1"
       d="m 2215.285,1175.982 c -0.8172,-29.9933 24.7571,-40.6219 36.1986,-42.3867 11.4416,-1.7637 54.5166,-5.2494 72.4962,8.8648 17.9796,14.1143 24.1191,23.9247 14.7106,46.7543 -14.9701,19.4933 -34.3247,22.0532 -50.6698,22.9351 -16.345,0.8819 -51.487,-4.4104 -62.9285,-16.7609 -11.4416,-12.3495 -9.8071,-19.4066 -9.8071,-19.4066 z"
       id="path1365"
       inkscape:connector-curvature="0"
       sodipodi:nodetypes="ccscscc" />
    <path
       style="fill:#ffffff;fill-rule:evenodd;stroke:none;stroke-width:1px;stroke-linecap:butt;stroke-linejoin:miter;stroke-opacity:1"
       d="m 2248.1828,1172.5234 c 0,0 -7.5732,20.9817 -15.7293,27.1738 -8.1561,6.192 -28.7528,17.5708 -43.9083,15.729 27.8126,9.0205 51.8926,-0.7427 58.6764,-5.0743 6.7848,-4.3317 21.7457,-26.0926 21.7457,-26.0926 z"
       id="path1367"
       inkscape:connector-curvature="0"
       sodipodi:nodetypes="cccccc" />
  </g>
  <g
     inkscape:groupmode="layer"
     id="layer1"
     inkscape:label="txt">
    <text
       xml:space="preserve"
       style="font-style:normal;font-variant:normal;font-weight:normal;font-stretch:normal;line-height:0%;font-family:Lavi;-inkscape-font-specification:Lavi;letter-spacing:0px;word-spacing:0px;display:inline;fill:#ffffff;fill-opacity:1;stroke:#000000;stroke-width:7.85656;stroke-miterlimit:4;stroke-dasharray:none;stroke-opacity:1;paint-order:stroke markers fill;filter:url(#filter4375-4-1-1-1-9-6-9-2-1-7-1)"
       x="787.65729"
       y="1584.5073"
       id="text4580-1-7-3-6-9-4"
       transform="matrix(0.46131079,-0.15363757,-0.08516477,0.59026719,536.76709,-149.68307)"><tspan
         sodipodi:role="line"
         id="tspan4582-8-5-6-1-3-5"
         x="787.65729"
         y="1584.5073"
         style="font-size:70px;line-height:1.25;fill:#ffffff;fill-opacity:1;stroke:#000000;stroke-width:7.85656;stroke-miterlimit:4;stroke-dasharray:none;stroke-opacity:1;paint-order:stroke markers fill">.darx.</tspan></text>
    <text
       xml:space="preserve"
       style="font-style:normal;font-variant:normal;font-weight:normal;font-stretch:normal;line-height:0%;font-family:Lavi;-inkscape-font-specification:Lavi;letter-spacing:0px;word-spacing:0px;display:inline;fill:#ffffff;fill-opacity:1;stroke:#000000;stroke-width:7.85656;stroke-miterlimit:4;stroke-dasharray:none;stroke-opacity:1;paint-order:stroke markers fill;filter:url(#filter4375-4-1-1-1-9-6-9-2-1-7-1-3)"
       x="787.65729"
       y="1584.5073"
       id="text4580-1-7-3-6-9-4-5"
       transform="matrix(0.45087839,-0.18199128,-0.04834106,0.59441697,1007.0439,-136.51326)"><tspan
         sodipodi:role="line"
         x="787.65729"
         y="1584.5073"
         style="font-size:70px;line-height:1.25;fill:#ffffff;fill-opacity:1;stroke:#000000;stroke-width:7.85656;stroke-miterlimit:4;stroke-dasharray:none;stroke-opacity:1;paint-order:stroke markers fill"
         id="tspan907">.darx.</tspan></text>
    <text
       xml:space="preserve"
       style="font-style:normal;font-variant:normal;font-weight:normal;font-stretch:normal;font-size:10.4081px;line-height:0%;font-family:Lavi;-inkscape-font-specification:'Lavi, Normal';text-align:center;letter-spacing:0px;word-spacing:0px;writing-mode:lr-tb;text-anchor:middle;display:inline;fill:#000000;fill-opacity:1;stroke:none;stroke-width:1"
       x="697.43341"
       y="892.5152"
       id="text4246-2-3-1-3-9-9-36"><tspan
         sodipodi:role="line"
         x="697.43341"
         y="892.5152"
         style="font-size:40px;line-height:1.25;stroke-width:1"
         id="tspan132">.i do cusku</tspan><tspan
         sodipodi:role="line"
         x="697.43341"
         y="942.5152"
         style="font-size:40px;line-height:1.25;stroke-width:1"
         id="tspan3">lu sa'u romoi cipra li'u</tspan><tspan
         sodipodi:role="line"
         x="697.43341"
         y="992.5152"
         style="font-size:40px;line-height:1.25;stroke-width:1"
         id="tspan4">ze'a le nanca be li ci</tspan></text>
    <text
       xml:space="preserve"
       style="font-style:normal;font-variant:normal;font-weight:normal;font-stretch:normal;line-height:0%;font-family:Lavi;-inkscape-font-specification:Lavi;text-align:center;letter-spacing:0px;word-spacing:0px;text-anchor:middle;fill:#000000;fill-opacity:1;stroke:none"
       x="453.85593"
       y="1547.2662"
       id="text4246-10"><tspan
         sodipodi:role="line"
         style="font-size:40px;line-height:1.25"
         x="453.85593"
         y="1547.2662"
         id="tspan143">.i .ai mi'o</tspan><tspan
         sodipodi:role="line"
         style="font-size:40px;line-height:1.25"
         x="453.85593"
         y="1597.2662"
         id="tspan10">na zvati ti</tspan><tspan
         sodipodi:role="line"
         style="font-size:40px;line-height:1.25"
         x="453.85593"
         y="1647.2662"
         id="tspan9">ze'e le nicte</tspan></text>
    <text
       xml:space="preserve"
       style="font-style:normal;font-variant:normal;font-weight:normal;font-stretch:normal;line-height:0%;font-family:Lavi;-inkscape-font-specification:Lavi;text-align:center;letter-spacing:0px;word-spacing:0px;text-anchor:middle;fill:#000000;fill-opacity:1;stroke:none"
       x="1597.429"
       y="1682.1624"
       id="text4246-10-2"><tspan
         sodipodi:role="line"
         style="font-style:normal;font-variant:normal;font-weight:bold;font-stretch:normal;font-size:46.6667px;line-height:1.25;font-family:Lavi;-inkscape-font-specification:'Lavi Bold'"
         x="1597.429"
         y="1682.1624"
         id="tspan933-1">ja'e mo</tspan></text>
    <text
       xml:space="preserve"
       style="font-style:normal;font-variant:normal;font-weight:normal;font-stretch:normal;line-height:0%;font-family:Lavi;-inkscape-font-specification:Lavi;text-align:center;letter-spacing:0px;word-spacing:0px;text-anchor:middle;fill:#000000;fill-opacity:1;stroke:none"
       x="2281.0439"
       y="1178.2853"
       id="text4246-3-7-7-6-7-2-9-6-1-4-3-1"><tspan
         sodipodi:role="line"
         style="font-size:45px;line-height:1.2"
         x="2281.0439"
         y="1178.2853"
         id="tspan1249-3">.y.</tspan></text>
    <text
       xml:space="preserve"
       style="font-style:normal;font-variant:normal;font-weight:normal;font-stretch:normal;font-size:15.0351px;line-height:0%;font-family:Lavi;-inkscape-font-specification:Lavi;text-align:center;letter-spacing:0px;word-spacing:0px;text-anchor:middle;fill:#000000;fill-opacity:1;stroke:none;stroke-width:1"
       x="1196.4446"
       y="1798.222"
       id="text4246-10-27"
       transform="matrix(0.91367473,0,-0.09878305,1.0944814,0,0)"
       inkscape:transform-center-x="3.7807182"
       inkscape:transform-center-y="17.013232"><tspan
         sodipodi:role="line"
         style="font-style:normal;font-variant:normal;font-weight:bold;font-stretch:normal;font-size:50.117px;line-height:1.25;font-family:Lavi;-inkscape-font-specification:'Lavi Bold';stroke-width:1"
         x="1196.4446"
         y="1798.222"
         id="tspan933-9">.i'a</tspan></text>
    <text
       xml:space="preserve"
       style="font-style:normal;font-variant:normal;font-weight:normal;font-stretch:normal;line-height:0%;font-family:Lavi;-inkscape-font-specification:Lavi;text-align:center;letter-spacing:0px;word-spacing:0px;text-anchor:middle;fill:#000000;fill-opacity:1;stroke:none"
       x="911.70203"
       y="2046.0439"
       id="text4246-10-3"><tspan
         sodipodi:role="line"
         style="font-size:40px;line-height:1.25"
         x="911.70203"
         y="2046.0439"
         id="tspan152">pajni</tspan><tspan
         sodipodi:role="line"
         style="font-size:40px;line-height:1.25"
         x="911.70203"
         y="2096.0439"
         id="tspan13">le du'u ra certu</tspan><tspan
         sodipodi:role="line"
         style="font-size:40px;line-height:1.25"
         x="911.70203"
         y="2146.0439"
         id="tspan16">.y.</tspan></text>
    <text
       xml:space="preserve"
       style="font-style:normal;font-variant:normal;font-weight:normal;font-stretch:normal;font-size:10.1415px;line-height:0%;font-family:Lavi;-inkscape-font-specification:Lavi;text-align:center;letter-spacing:0px;word-spacing:0px;text-anchor:middle;fill:#000000;fill-opacity:1;stroke:none;stroke-width:1"
       x="927.44666"
       y="2217.302"
       id="text4246-10-3-6"><tspan
         sodipodi:role="line"
         style="font-size:33.8049px;line-height:1.25;stroke-width:1"
         x="927.44666"
         y="2217.302"
         id="tspan156">sa du'u ra</tspan><tspan
         sodipodi:role="line"
         style="font-size:33.8049px;line-height:1.25;stroke-width:1"
         x="927.44666"
         y="2259.5581"
         id="tspan15">su'e rau va'e lo ka certu</tspan></text>
    <text
       xml:space="preserve"
       style="font-style:normal;font-variant:normal;font-weight:normal;font-stretch:normal;line-height:0%;font-family:Lavi;-inkscape-font-specification:Lavi;text-align:center;letter-spacing:0px;word-spacing:0px;text-anchor:middle;display:inline;opacity:0.6;fill:#000000;fill-opacity:1;stroke:none;stroke-width:1.2757;filter:url(#filter4213)"
       x="-447.29675"
       y="2872.5061"
       id="text4246-85"
       transform="matrix(0.61655851,0.01619223,-0.10823975,0.68344058,2145.7387,697.18629)"><tspan
         sodipodi:role="line"
         style="font-style:normal;font-variant:normal;font-weight:normal;font-stretch:normal;font-size:68.8156px;line-height:1.27;font-family:Fondamento;-inkscape-font-specification:Fondamento;stroke:#000000;stroke-width:1.46313;stroke-opacity:1"
         x="-447.29675"
         y="2872.5061"
         id="tspan4172">jaspu</tspan></text>
    <text
       xml:space="preserve"
       style="font-style:normal;font-variant:normal;font-weight:normal;font-stretch:normal;line-height:0%;font-family:Lavi;-inkscape-font-specification:Lavi;text-align:center;letter-spacing:0px;word-spacing:0px;text-anchor:middle;display:inline;opacity:0.6;fill:#000000;fill-opacity:1;stroke:none;stroke-width:1.93946;filter:url(#filter4213-1)"
       x="-447.29675"
       y="2872.5061"
       id="text4246-85-4"
       transform="matrix(0.40373651,0.01069834,-0.07087785,0.45155476,1930.3205,1402.5494)"><tspan
         sodipodi:role="line"
         style="font-style:normal;font-variant:normal;font-weight:normal;font-stretch:normal;font-size:68.8156px;line-height:1.27;font-family:Fondamento;-inkscape-font-specification:Fondamento;stroke:#000000;stroke-width:2.22442;stroke-opacity:1"
         x="-447.29675"
         y="2872.5061"
         id="tspan4172-78">fi</tspan></text>
    <text
       xml:space="preserve"
       style="font-style:normal;font-variant:normal;font-weight:normal;font-stretch:normal;line-height:0%;font-family:Lavi;-inkscape-font-specification:Lavi;text-align:center;letter-spacing:0px;word-spacing:0px;text-anchor:middle;display:inline;opacity:0.6;fill:#000000;fill-opacity:1;stroke:none;stroke-width:1.53381;filter:url(#filter4213-0)"
       x="-447.29675"
       y="2872.5061"
       id="text4246-85-3"
       transform="matrix(0.50868854,0.04111458,-0.08930267,0.56819347,2027.5133,1108.2178)"><tspan
         sodipodi:role="line"
         style="font-style:normal;font-variant:normal;font-weight:normal;font-stretch:normal;font-size:68.8156px;line-height:1.27;font-family:Fondamento;-inkscape-font-specification:Fondamento;stroke:#000000;stroke-width:1.75917;stroke-opacity:1"
         x="-447.29675"
         y="2872.5061"
         id="tspan4172-7">la kalsa</tspan></text>
    <text
       xml:space="preserve"
       style="font-style:normal;font-variant:normal;font-weight:normal;font-stretch:normal;line-height:0%;font-family:Lavi;-inkscape-font-specification:Lavi;text-align:center;letter-spacing:0px;word-spacing:0px;text-anchor:middle;display:inline;opacity:0.699;fill:#202020;fill-opacity:1;stroke:#000000;stroke-width:0.722881;stroke-miterlimit:4;stroke-dasharray:none;stroke-opacity:1;filter:url(#filter1266-5)"
       x="903.31201"
       y="2924.6372"
       id="text4246-8-3-7-2"
       transform="matrix(0.52010547,-0.08051244,-0.02237175,0.62243785,1164.5527,1043.6516)"><tspan
         sodipodi:role="line"
         style="font-size:38.3128px;line-height:1.25;fill:#202020;fill-opacity:1;stroke:#000000;stroke-width:0.722881;stroke-miterlimit:4;stroke-dasharray:none;stroke-opacity:1"
         x="903.31201"
         y="2924.6372"
         id="tspan4150-8-6-5-2">.kumin.</tspan></text>
    <path
       style="opacity:0.69899998;fill:none;fill-rule:evenodd;stroke:#202020;stroke-width:2.29999995;stroke-linecap:butt;stroke-linejoin:miter;stroke-miterlimit:4;stroke-dasharray:none;stroke-opacity:1;filter:url(#filter1639)"
       d="m 1547.1934,2802.853 c 3.8646,-3.5133 9.3102,-3.689 12.2965,-3.5133 2.9863,0.1757 7.0265,-4.7429 9.8371,-5.6212 2.8106,-0.8783 12.8234,0.1756 13.8774,-0.8783 1.054,-1.054 11.2425,-2.108 11.5938,-3.8646 0.3513,-1.7567 -0.086,-5.8644 -0.086,-5.8644"
       id="path1409"
       inkscape:connector-curvature="0"
       transform="rotate(7.8868356,1569.0759,2784.5832)"
       sodipodi:nodetypes="cssccc" />
    <text
       xml:space="preserve"
       style="font-style:normal;font-variant:normal;font-weight:normal;font-stretch:normal;line-height:0%;font-family:Lavi;-inkscape-font-specification:Lavi;text-align:center;letter-spacing:0px;word-spacing:0px;text-anchor:middle;display:inline;opacity:0.699;fill:#202020;fill-opacity:1;stroke:#000000;stroke-width:0.747885;stroke-miterlimit:4;stroke-dasharray:none;stroke-opacity:1;filter:url(#filter1266)"
       x="903.31201"
       y="2924.6372"
       id="text4246-8-3-7"
       transform="matrix(0.41826414,-0.24552176,0.14450977,0.63425309,687.71852,1181.2551)"><tspan
         sodipodi:role="line"
         style="font-style:normal;font-variant:normal;font-weight:normal;font-stretch:normal;font-size:51.0087px;line-height:1.25;font-family:Cursivah;-inkscape-font-specification:Cursivah;fill:#202020;fill-opacity:1;stroke:#000000;stroke-width:0.747885;stroke-miterlimit:4;stroke-dasharray:none;stroke-opacity:1"
         x="903.31201"
         y="2924.6372"
         id="tspan4150-8-6-5">.kaien.</tspan></text>
    <path
       style="opacity:0.69899998;vector-effect:none;fill:none;fill-opacity:1;fill-rule:evenodd;stroke:#202020;stroke-width:0.70999998;stroke-linecap:butt;stroke-linejoin:miter;stroke-miterlimit:4;stroke-dasharray:none;stroke-dashoffset:0;stroke-opacity:1;filter:url(#filter1395)"
       d="m 1518.1939,2790.4659 c 0.8783,-6.4995 5.6852,-7.2186 2.699,3.8482 -2.9863,11.0668 -52.5234,35.3083 -52.5234,35.3083"
       id="path910"
       inkscape:connector-curvature="0"
       sodipodi:nodetypes="ccc" />
    <text
       xml:space="preserve"
       style="font-style:normal;font-variant:normal;font-weight:normal;font-stretch:normal;line-height:0%;font-family:Lavi;-inkscape-font-specification:Lavi;text-align:center;letter-spacing:-0.0334897px;word-spacing:0px;text-anchor:middle;display:inline;opacity:0.699;fill:#202020;fill-opacity:1;stroke:#000000;stroke-width:0.686799;stroke-miterlimit:4;stroke-dasharray:none;stroke-opacity:1;filter:url(#filter1266-5-1)"
       x="903.31201"
       y="2924.6372"
       id="text4246-8-3-7-2-9"
       transform="matrix(0.6182392,-0.01052647,-0.270757,0.58148539,1772.6628,1144.8642)"><tspan
         sodipodi:role="line"
         style="font-style:normal;font-variant:normal;font-weight:normal;font-stretch:normal;font-size:38.3128px;line-height:1.25;font-family:Fondamento;-inkscape-font-specification:Fondamento;letter-spacing:-0.0334897px;fill:#202020;fill-opacity:1;stroke:#000000;stroke-width:0.686799;stroke-miterlimit:4;stroke-dasharray:none;stroke-opacity:1"
         x="903.29529"
         y="2924.6372"
         id="tspan4150-8-6-5-2-3">.timian.</tspan></text>
    <text
       xml:space="preserve"
       style="font-style:normal;font-variant:normal;font-weight:normal;font-stretch:normal;line-height:0%;font-family:Lavi;-inkscape-font-specification:Lavi;text-align:center;letter-spacing:0px;word-spacing:0px;text-anchor:middle;display:inline;opacity:0.6;fill:#000000;fill-opacity:1;stroke:none;stroke-width:1.61567;filter:url(#filter4213-8-8)"
       x="-447.29675"
       y="2872.5061"
       id="text4246-85-9-7"
       transform="matrix(0.47831841,0.01305834,-0.01239099,0.55116529,1776.7967,1303.9127)"><tspan
         sodipodi:role="line"
         style="font-style:normal;font-variant:normal;font-weight:normal;font-stretch:normal;font-size:49.1939px;line-height:1.27;font-family:Fondamento;-inkscape-font-specification:Fondamento;stroke:#000000;stroke-width:1.85306;stroke-opacity:1"
         x="-447.29675"
         y="2872.5061"
         id="tspan1120-6">fe la .piper.</tspan></text>
    <text
       xml:space="preserve"
       style="font-style:normal;font-variant:normal;font-weight:normal;font-stretch:normal;line-height:0%;font-family:Lavi;-inkscape-font-specification:Lavi;text-align:center;letter-spacing:0px;word-spacing:0px;text-anchor:middle;display:inline;opacity:0.6;fill:#000000;fill-opacity:1;stroke:none;stroke-width:1.52893;filter:url(#filter4213-8)"
       x="-447.29675"
       y="2872.5061"
       id="text4246-85-9"
       transform="matrix(0.55026081,0.01267562,-0.01425468,0.53501165,1808.7467,1385.9743)"><tspan
         sodipodi:role="line"
         style="font-style:normal;font-variant:normal;font-weight:normal;font-stretch:normal;font-size:49.1939px;line-height:1.27;font-family:Fondamento;-inkscape-font-specification:Fondamento;stroke:#000000;stroke-width:1.75357;stroke-opacity:1"
         x="-447.29675"
         y="2872.5061"
         id="tspan1120">lo ka</tspan><tspan
         sodipodi:role="line"
         style="font-style:normal;font-variant:normal;font-weight:normal;font-stretch:normal;font-size:49.1939px;line-height:1.27;font-family:Fondamento;-inkscape-font-specification:Fondamento;stroke:#000000;stroke-width:1.75357;stroke-opacity:1"
         x="-447.29675"
         y="2934.9824"
         id="tspan1">ca'i te makfa</tspan></text>
    <text
       xml:space="preserve"
       style="font-style:normal;font-variant:normal;font-weight:normal;font-stretch:normal;font-size:10.7631px;line-height:0%;font-family:Lavi;-inkscape-font-specification:Lavi;text-align:center;letter-spacing:0px;word-spacing:0px;text-anchor:middle;display:inline;opacity:1;fill:#241c1c;fill-opacity:1;stroke:#000000;stroke-width:0;stroke-miterlimit:4;stroke-dasharray:none;stroke-opacity:1"
       x="2426.4905"
       y="2903.1548"
       id="text4213-7"
       transform="matrix(0.85852879,0,-0.29243083,1.1647833,0,0)"><tspan
         sodipodi:role="line"
         id="tspan3562-5"
         x="2426.4905"
         y="2903.1548"
         style="font-style:normal;font-variant:normal;font-weight:bold;font-stretch:normal;font-size:64.7408px;line-height:1.25;font-family:Lavi;-inkscape-font-specification:'Lavi Bold';fill:#000000;fill-opacity:1;stroke:none;stroke-width:0;stroke-miterlimit:4;stroke-dasharray:none">.i fanmo</tspan></text>
  </g>
</svg>
