<?xml version="1.0" encoding="UTF-8" standalone="no"?>
<!-- Created with Inkscape (http://www.inkscape.org/) -->

<svg
   id="svg2"
   version="1.1"
   inkscape:version="1.2.2 (b0a8486541, 2022-12-01)"
   width="2481"
   height="3503"
   sodipodi:docname="nl_E06P01.svg"
   xmlns:inkscape="http://www.inkscape.org/namespaces/inkscape"
   xmlns:sodipodi="http://sodipodi.sourceforge.net/DTD/sodipodi-0.dtd"
   xmlns:xlink="http://www.w3.org/1999/xlink"
   xmlns="http://www.w3.org/2000/svg"
   xmlns:svg="http://www.w3.org/2000/svg"
   xmlns:rdf="http://www.w3.org/1999/02/22-rdf-syntax-ns#"
   xmlns:cc="http://creativecommons.org/ns#"
   xmlns:dc="http://purl.org/dc/elements/1.1/">
  <metadata
     id="metadata8">
    <rdf:RDF>
      <cc:Work
         rdf:about="">
        <dc:format>image/svg+xml</dc:format>
        <dc:type
           rdf:resource="http://purl.org/dc/dcmitype/StillImage" />
        <dc:title />
      </cc:Work>
    </rdf:RDF>
  </metadata>
  <defs
     id="defs6" />
  <sodipodi:namedview
     pagecolor="#ffffff"
     bordercolor="#666666"
     borderopacity="1"
     objecttolerance="10"
     gridtolerance="10"
     guidetolerance="10"
     inkscape:pageopacity="0"
     inkscape:pageshadow="2"
     inkscape:window-width="1884"
     inkscape:window-height="1033"
     id="namedview4"
     showgrid="false"
     inkscape:zoom="0.4919004"
     inkscape:cx="1266.5166"
     inkscape:cy="2304.3283"
     inkscape:window-x="32"
     inkscape:window-y="47"
     inkscape:window-maximized="0"
     inkscape:current-layer="layer1"
     inkscape:showpageshadow="0"
     inkscape:pagecheckerboard="0"
     inkscape:deskcolor="#d1d1d1" />
  <g
     inkscape:groupmode="layer"
     id="layer2"
     inkscape:label="artwork"
     sodipodi:insensitive="true">
    <image
       xlink:href="../gfx_Pepper-and-Carrot_by-David-Revoy_E06P01.png"
       width="2481"
       height="3503"
       id="image10"
       x="0"
       y="0" />
  </g>
  <g
     inkscape:groupmode="layer"
     id="layer3"
     inkscape:label="speechbubbles">
    <path
       style="fill:#ffffff;stroke:none"
       d="m 1065.0584,2991.5882 c 139.0204,-151.8259 352.2724,-147.4644 534.1995,-135.0446 l -2.4584,29.6919 c -271.0832,-44.1257 -427.9056,20.1405 -531.7411,105.3527 z"
       id="path4208"
       inkscape:connector-curvature="0"
       sodipodi:nodetypes="cccc" />
    <path
       style="fill:#ffffff;stroke:none"
       d="m 848.69618,2327.5469 c 11.92344,-57.0082 80.05736,-226.7656 764.80332,-144.4206 25.5503,5.0674 32.3637,24.0701 32.3637,24.0701 l -11.9235,7.6011 c 0,0 -669.41585,-141.8868 -785.24352,112.7494 z"
       id="path4184"
       inkscape:connector-curvature="0" />
    <path
       style="fill:#ffffff;stroke:none"
       d="m 99.68254,929.9846 c 1.14443,-30.35787 24.36463,-26.21189 44.78428,-26.44314 19.84774,-4.56828 18.4783,-25.41604 71.3231,-4.66645 19.78955,-5.86223 27.11058,-21.95565 71.3231,-7.77738 17.13966,-6.23852 34.27932,-9.27592 51.41898,3.11096 29.7777,-1.61682 34.01028,-23.19676 99.52062,3.11095 29.16102,-12.64516 45.4976,-6.04785 58.05368,6.22192 15.05861,-4.05434 28.38422,-16.23476 49.7603,9.33287 25.68216,-1.15666 44.11141,7.209 53.07766,27.9986 5.5922,8.95055 20.99635,6.85937 11.61074,32.66489 37.513,31.00508 19.59289,46.01548 16.58676,65.32948 -0.77472,14.6065 -2.79802,28.8784 -26.53882,37.3313 7.04474,20.996 -7.62293,28.4179 -19.90413,37.3316 -11.04488,16.1462 -25.5177,13.0046 -39.80825,10.8884 -28.1975,33.3396 -56.395,25.7934 -84.5925,26.4432 -12.89401,11.0165 -23.61697,7.781 -33.17354,-3.1112 -41.93641,19.5282 -54.6309,3.7987 -74.64046,-3.1108 -42.1345,31.264 -63.03374,14.7341 -89.56853,10.8884 -18.79227,5.658 -37.55287,11.0781 -53.07766,-7.7776 -45.99095,10.0059 -44.60329,-8.2623 -56.39504,-18.6657 -20.60373,14.3205 -30.55328,5.3277 -41.4669,-1.5553 -28.675254,-6.7492 -14.950067,-18.4689 -19.904119,-27.9987 -22.713355,-21.2581 -22.312819,-42.5165 -8.293384,-63.7746 C 69.2643,1024.4925 53.331409,1014.1524 78.119726,996.86927 67.89323,981.76865 55.979331,966.7995 84.754449,948.65033 81.527471,936.65895 89.699874,932.68515 99.68254,929.9846 Z"
       id="path4086"
       inkscape:connector-curvature="0"
       sodipodi:nodetypes="cccccccccccccccccccccccccc" />
    <path
       style="fill:#ffffff;stroke:none;stroke-width:1px;stroke-linecap:butt;stroke-linejoin:miter;stroke-opacity:1"
       d="m 230.13067,823.60392 c -9.53903,-20.56429 -0.23424,-22.81511 10.00568,-26.42602 11.63357,-13.55921 16.74734,-4.29914 22.87013,1.42938 15.03339,7.03416 19.43438,18.62507 14.29383,34.3052 -2.64407,15.25927 -13.01754,16.99209 -27.15828,12.13219 -15.35344,0.0889 -21.95096,-7.11879 -20.01136,-21.44075 z"
       id="path4088"
       inkscape:connector-curvature="0"
       sodipodi:nodetypes="cccccc" />
    <path
       style="fill:#ffffff;stroke:none;stroke-width:1px;stroke-linecap:butt;stroke-linejoin:miter;stroke-opacity:1"
       d="m 275.87093,761.44332 c -5.09277,-10.88445 3.68029,-14.83599 15.72321,-17.15259 19.65656,11.35504 12.8163,22.10199 7.14692,32.87581 -12.0433,1.8308 -24.81763,4.83126 -22.87013,-15.72322 z"
       id="path4090"
       inkscape:connector-curvature="0"
       sodipodi:nodetypes="cccc" />
    <path
       style="fill:#ffffff;stroke:none;stroke-width:0.95018345px;stroke-linecap:butt;stroke-linejoin:miter;stroke-opacity:1"
       d="m 362.31562,1285.1069 c -12.09423,0.3666 -23.49866,4.5827 -32.58107,10.5994 -14.1779,-2.8214 -32.46488,-7.3606 -44.66652,1.3452 -5.15875,4.4874 -9.46171,12.781 -19.13739,10.5462 -16.05505,-0.1289 -36.67603,2.2389 -42.91704,15.5365 -2.9137,5.148 -2.0049,13.3678 -10.95852,14.8216 -11.78618,3.9804 -20.43264,15.5104 -13.5622,24.9428 2.45213,2.7177 3.11998,6.4309 -0.46391,8.69 -7.18683,9.0042 -1.4,20.5294 8.3801,26.8418 2.91856,2.913 -2.0153,6.5378 0.29008,9.8187 2.29564,7.666 12.88487,9.9586 21.52435,10.7737 0.69211,3.9414 2.16307,8.4715 6.42628,11.3083 8.18625,6.3536 20.48819,6.7648 31.22322,7.0052 9.14041,3.242 15.82982,9.826 25.92736,11.5856 17.37806,3.935 35.32114,-2.5811 49.65164,-9.2563 5.53884,7.3888 12.74861,14.9889 24.1284,17.2427 9.5675,2.5803 19.7877,0.8391 29.26803,-0.2795 23.83067,2.5745 49.80717,12.5101 73.18928,3.4253 8.48319,-3.2097 15.55959,-8.2574 21.45314,-13.8476 9.35389,6.0003 24.44225,9.7096 34.33992,2.6824 2.71554,-2.3078 5.30151,-6.7402 10.20527,-4.0871 22.60552,5.1074 47.6796,13.1153 70.94061,5.1673 10.95563,-2.7211 20.45121,-8.9567 29.75198,-13.1096 15.14778,4.9442 35.32427,6.2435 47.44688,-3.8388 4.4214,-2.2921 5.7463,-9.5075 12.30806,-7.8035 15.33772,1.4124 32.14269,-4.4207 37.52988,-16.0384 2.31926,-5.0367 2.7876,-11.2255 9.79702,-13.8726 10.67088,-6.7054 16.59953,-18.8296 10.16655,-28.9252 -3.87273,-6.4773 -9.0218,-12.6897 -8.39253,-20.1067 -2.26142,-12.5144 -17.16897,-21.094 -32.73144,-22.2997 -6.60111,-1.3042 -15.65776,0.3663 -18.80073,-5.4809 -18.0485,-17.3848 -49.59107,-22.4569 -76.93857,-17.9359 -5.41085,1.1409 -7.54741,-4.439 -12.24448,-5.6983 -11.18623,-6.1682 -26.5378,-5.5104 -37.3943,0.6853 -4.97809,4.0899 -9.50579,-2.0454 -14.94263,-2.6857 -20.16514,-5.4272 -45.42744,-4.1513 -61.47783,7.7206 -16.47996,-14.8138 -44.55744,-19.3263 -68.11047,-13.2846 -7.15654,0.9123 -14.02828,4.3214 -20.83462,4.7201 -11.84512,-4.1456 -24.63779,-7.4536 -37.79377,-6.9089 z"
       id="path4094"
       inkscape:connector-curvature="0" />
    <path
       style="fill:#ffffff;stroke:none"
       d="m 254.84178,1217.9014 c -21.93594,-5.4808 -17.74008,-13.6811 -13.99678,-23.3941 -3.03862,-16.7769 7.36071,-14.91 15.68046,-15.9283 15.0063,-6.7699 26.74841,-2.9642 35.56127,10.332 10.07962,11.2071 4.80314,19.8776 -7.9578,27.312 -9.7183,11.33 -19.48107,11.7989 -29.28715,1.6784 z"
       id="path4088-4"
       inkscape:connector-curvature="0"
       sodipodi:nodetypes="cccccc" />
    <path
       style="fill:#ffffff;stroke:none"
       d="m 281.23738,1261.3662 c -1.6722,-15.5601 8.1265,-14.7295 15.31815,-17.624 8.5716,-3.7924 14.70548,-2.0987 17.90033,6.2094 9.77538,3.2771 13.75133,9.4545 10.08794,19.4525 -3.52546,10.5347 -12.20688,9.4657 -20.99121,8.1652 -4.6338,4.2774 -9.42027,7.1804 -15.37947,-0.4737 -11.84717,-2.3085 -12.53472,-8.0516 -6.93574,-15.7294 z"
       id="path4119"
       inkscape:connector-curvature="0"
       sodipodi:nodetypes="ccccccc" />
    <path
       style="fill:#ffffff;stroke:none;stroke-width:0.91189969000000004px;stroke-linecap:butt;stroke-linejoin:miter;stroke-opacity:1"
       d="m 294.04504,1668.4749 c -2.96747,-24.9282 10.53477,-33.6182 31.50518,-34.9449 11.83864,-15.5074 20.85722,-33.795 61.69767,-20.7082 28.57044,-26.6812 58.70878,-20.8994 89.26471,-6.4713 50.07402,-33.2569 62.28564,-12.6491 86.63927,-5.1771 58.65597,-26.1972 65.79391,6.8647 91.89014,18.1197 44.61696,-28.0463 72.85,-9.427 99.76643,12.9425 15.29342,0.023 24.97649,6.1934 22.31617,25.8852 23.6555,8.9831 35.84897,24.4239 31.5052,49.1816 20.5545,33.0826 4.30383,42.5783 -14.43988,50.4762 18.04096,28.9611 7.73324,51.4722 -26.25433,68.5956 -4.50639,20.9841 -20.2387,23.9826 -40.6942,19.4139 -9.36326,18.6713 -25.1582,29.5382 -60.38495,16.8253 -25.52701,20.5448 -53.17149,20.2126 -82.70112,1.2943 -11.64414,21.893 -32.12781,23.8657 -57.75953,14.2367 -35.1705,12.0017 -49.69758,0.5189 -59.07223,-16.8253 -22.49967,11.4116 -45.11052,20.8504 -69.57395,-2.5885 -28.44993,6.3545 -36.16879,-4.8106 -36.75605,-22.0024 -22.33025,15.1367 -36.91229,9.902 -47.25778,-6.4714 -16.4026,-0.4012 -35.0386,2.4004 -30.19248,-28.4735 -23.805,-5.5398 -37.65039,-16.2478 -23.6289,-41.4163 -7.39811,-15.2958 -19.38442,-30.0891 7.87631,-49.1817 -5.00332,-27.7982 7.35625,-38.4776 26.25432,-42.7104 z"
       id="path4121"
       inkscape:connector-curvature="0"
       sodipodi:nodetypes="ccccccccccccccccccccccc" />
    <path
       style="fill:#ffffff;stroke:none"
       d="m 426.16799,1495.7228 c -1.6722,-15.5601 8.1265,-14.7295 15.31815,-17.624 8.5716,-3.7924 14.70548,-2.0987 17.90033,6.2094 9.77538,3.2771 13.75133,9.4545 10.08794,19.4525 -3.52546,10.5347 -12.20688,9.4657 -20.99121,8.1652 -4.6338,4.2774 -9.42027,7.1804 -15.37947,-0.4737 -11.84717,-2.3085 -12.53472,-8.0516 -6.93574,-15.7294 z"
       id="path4119-8"
       inkscape:connector-curvature="0"
       sodipodi:nodetypes="ccccccc" />
    <path
       style="fill:#ffffff;stroke:none"
       d="m 473.63058,1564.8263 c -15.87888,-16.1637 -4.1024,-20.2143 1.38885,-27.0178 6.23672,-8.4833 14.66459,-9.736 25.73404,-2.2704 13.95095,-1.3644 23.98299,3.3767 28.85294,16.1601 5.508,13.3003 -5.22536,16.5249 -16.2828,19.5483 -1.36816,7.0209 -4.14446,12.6166 -17.73722,7.265 -15.41163,3.4716 -21.35155,-2.4587 -21.95581,-13.6852 z"
       id="path4119-7"
       inkscape:connector-curvature="0"
       sodipodi:nodetypes="ccccccc" />
    <path
       style="fill:#ffffff;stroke:none"
       d="m 841.62073,2156.8344 c 22.25175,-26.8114 179.17317,-26.7384 212.04897,-4.2782 32.8758,22.4602 29.6785,56.8909 6.1025,81.6803 -16.6155,17.4708 -186.91945,22.0647 -213.22009,2.813 -26.30065,-19.2516 -27.18313,-53.4038 -4.93138,-80.2151 z"
       id="path4160"
       inkscape:connector-curvature="0"
       sodipodi:nodetypes="zsssz" />
    <path
       style="fill:#ffffff;stroke:none;stroke-width:1px;stroke-linecap:butt;stroke-linejoin:miter;stroke-opacity:1"
       d="m 1148.0398,2114.824 c 30.022,-33.9112 319.7051,-24.8589 352.9776,13.6723 33.2724,38.5312 17.3594,109.3789 -21.6995,123.0512 -39.059,13.6724 -282.0927,16.1583 -315.3651,-1.2429 -33.1575,-17.341 -45.9349,-101.5694 -15.913,-135.4806 z"
       id="path4162"
       inkscape:connector-curvature="0"
       sodipodi:nodetypes="zsssz" />
    <path
       style="fill:#ffffff;stroke:none;stroke-width:0.92598152"
       d="m 1612.8024,2116.1977 c 52.6235,-41.8436 315.3634,-10.8705 356.6468,31.5018 41.2834,42.3721 39.0916,144.0089 6.6936,170.8987 -32.3983,26.8894 -325.8548,25.4438 -376.7475,-12.3806 -36.6627,-27.2478 -39.2165,-148.1762 13.4071,-190.0199 z"
       id="path4164"
       inkscape:connector-curvature="0"
       sodipodi:nodetypes="zsssz" />
    <path
       style="fill:#ffffff;stroke:none;stroke-width:0.97700799"
       d="m 1200.0422,2821.5119 c 19.0711,-14.0231 50.8426,-19.8752 80.5905,-20.4786 29.7478,-0.6033 72.1165,3.6735 94.0325,19.8549 21.916,16.1816 38.9879,30.4369 34.0421,57.6458 -4.9456,27.2089 -39.7495,46.1053 -74.0463,55.5628 -34.2968,9.4574 -93.8456,0.4916 -121.7906,-14.1459 -27.9449,-14.6376 -42.9414,-27.5393 -44.6606,-49.0378 -1.7192,-21.4982 12.7615,-35.3782 31.8324,-49.4012 z"
       id="path4204"
       inkscape:connector-curvature="0"
       sodipodi:nodetypes="zzzzzzzz" />
    <path
       style="fill:#ffffff;stroke:none;stroke-width:0.85014981px;stroke-linecap:butt;stroke-linejoin:miter;stroke-opacity:1"
       d="m 1585.5764,2892.1319 c 0.5424,-19.1379 0.4498,-52.7279 20.6441,-69.9351 20.1945,-17.2071 52.1992,-9.7583 85.7526,-9.7583 33.5534,0 88.5216,-5.2344 114.3367,13.0111 25.8151,18.2455 33.2259,40.8612 33.3483,66.6823 0.1224,25.8211 -15.5102,54.6539 -34.9362,71.5614 -19.4261,16.9076 -48.743,18.6369 -71.4606,22.7695 -22.7175,4.1327 -38.539,11.0291 -63.5203,3.2528 -24.9812,-7.7762 -62.3495,-37.8469 -74.6365,-56.9239 -12.287,-19.0769 -10.0705,-21.5219 -9.5281,-40.6598 z"
       id="path4206"
       inkscape:connector-curvature="0"
       sodipodi:nodetypes="zzzzzzzzzz" />
  </g>
  <g
     inkscape:groupmode="layer"
     id="layer1"
     inkscape:label="txt"
     style="display:inline">
    <flowRoot
       xml:space="preserve"
       id="flowRoot2987"
       style="font-style:normal;font-variant:normal;font-weight:normal;font-stretch:normal;line-height:0.01%;font-family:Lavi;-inkscape-font-specification:Lavi;letter-spacing:0px;word-spacing:0px;fill:#000000;fill-opacity:1;stroke:none"
       transform="matrix(0.95842652,0,0,0.92639044,-38.977582,700.76497)"><flowRegion
         id="flowRegion2989"><rect
           id="rect2991"
           width="525.65155"
           height="245.01311"
           x="138.55077"
           y="262.427"
           style="font-style:normal;font-variant:normal;font-weight:normal;font-stretch:normal;font-family:Lavi;-inkscape-font-specification:Lavi" /></flowRegion><flowPara
         style="font-size:48px;line-height:1.25;text-align:center;text-anchor:middle"
         id="flowPara4426">Verdorie, ik ben weer</flowPara><flowPara
         style="font-size:48px;line-height:1.25;text-align:center;text-anchor:middle"
         id="flowPara4213">in slaap gevallen met</flowPara><flowPara
         style="font-size:48px;line-height:1.25;text-align:center;text-anchor:middle"
         id="flowPara87">het raam open …</flowPara></flowRoot>
    <flowRoot
       xml:space="preserve"
       id="flowRoot2987-6"
       style="font-style:normal;font-variant:normal;font-weight:normal;font-stretch:normal;line-height:0.01%;font-family:Lavi;-inkscape-font-specification:Lavi;letter-spacing:0px;word-spacing:0px;fill:#000000;fill-opacity:1;stroke:none"
       transform="matrix(0.95842652,0,0,0.92639044,113.2748,1099.0418)"><flowRegion
         id="flowRegion2989-7"><rect
           id="rect2991-2"
           width="509.53763"
           height="72.699638"
           x="120.55251"
           y="265.53046"
           style="font-style:normal;font-variant:normal;font-weight:normal;font-stretch:normal;font-family:Lavi;-inkscape-font-specification:Lavi" /></flowRegion><flowPara
         style="font-size:48px;line-height:1.25;text-align:center;text-anchor:middle"
         id="flowPara3023-5">Het is hier zo koud …</flowPara></flowRoot>
    <flowRoot
       xml:space="preserve"
       id="flowRoot2987-6-5"
       style="font-style:normal;font-variant:normal;font-weight:normal;font-stretch:normal;line-height:0.01%;font-family:Lavi;-inkscape-font-specification:Lavi;letter-spacing:0px;word-spacing:0px;fill:#000000;fill-opacity:1;stroke:none"
       transform="matrix(0.95842652,0,0,0.92639044,143.43086,1408.9375)"><flowRegion
         id="flowRegion2989-7-8"><rect
           id="rect2991-2-1"
           width="570.64728"
           height="189.15115"
           x="120.55251"
           y="265.53046"
           style="font-style:normal;font-variant:normal;font-weight:normal;font-stretch:normal;font-family:Lavi;-inkscape-font-specification:Lavi" /></flowRegion><flowPara
         style="font-size:48px;line-height:1.25;text-align:center;text-anchor:middle"
         id="flowPara3094">… en waarom zie ik</flowPara><flowPara
         style="font-size:48px;line-height:1.25;text-align:center;text-anchor:middle"
         id="flowPara4212">opeens Komona</flowPara><flowPara
         style="font-size:48px;line-height:1.25;text-align:center;text-anchor:middle"
         id="flowPara899">door het raam?</flowPara></flowRoot>
    <flowRoot
       xml:space="preserve"
       id="flowRoot2987-6-5-6-7"
       style="font-style:normal;font-variant:normal;font-weight:normal;font-stretch:normal;line-height:0.01%;font-family:Lavi;-inkscape-font-specification:Lavi;letter-spacing:0px;word-spacing:0px;fill:#000000;fill-opacity:1;stroke:none"
       transform="matrix(0.95842652,0,0,0.92639044,1024.8994,1874.1158)"><flowRegion
         id="flowRegion2989-7-8-9-6"><rect
           id="rect2991-2-1-1-3"
           width="378.12"
           height="159.58972"
           x="120.55251"
           y="274.30832"
           style="font-style:normal;font-variant:normal;font-weight:normal;font-stretch:normal;font-family:Lavi;-inkscape-font-specification:Lavi" /></flowRegion><flowPara
         style="font-size:48px;line-height:1.25;text-align:center;text-anchor:middle"
         id="flowPara3094-2-2">De toverdrank-</flowPara><flowPara
         style="font-size:48px;line-height:1.25;text-align:center;text-anchor:middle"
         id="flowPara4215">wedstrijd!</flowPara></flowRoot>
    <flowRoot
       xml:space="preserve"
       id="flowRoot2987-6-5-6-7-8"
       style="font-style:normal;font-variant:normal;font-weight:normal;font-stretch:normal;line-height:0.01%;font-family:Lavi;-inkscape-font-specification:Lavi;letter-spacing:0px;word-spacing:0px;fill:#000000;fill-opacity:1;stroke:none"
       transform="matrix(0.95842652,0,0,0.92639044,1405.6836,1892.416)"><flowRegion
         id="flowRegion2989-7-8-9-6-7"><rect
           id="rect2991-2-1-1-3-3"
           width="554.99268"
           height="264.13297"
           x="120.55251"
           y="265.53046"
           style="font-style:normal;font-variant:normal;font-weight:normal;font-stretch:normal;font-family:Lavi;-inkscape-font-specification:Lavi" /></flowRegion><flowPara
         style="font-size:48px;line-height:1.25;text-align:center;text-anchor:middle"
         id="flowPara4461">Ik moet per</flowPara><flowPara
         style="font-size:48px;line-height:1.25;text-align:center;text-anchor:middle"
         id="flowPara4219">ongeluk in slaap </flowPara><flowPara
         style="font-size:48px;line-height:1.25;text-align:center;text-anchor:middle"
         id="flowPara4221">gevallen zijn!</flowPara></flowRoot>
    <flowRoot
       xml:space="preserve"
       id="flowRoot2987-6-5-6-3"
       style="font-style:normal;font-variant:normal;font-weight:normal;font-stretch:normal;line-height:0.01%;font-family:Lavi;-inkscape-font-specification:Lavi;letter-spacing:0px;word-spacing:0px;fill:#000000;fill-opacity:1;stroke:none"
       transform="matrix(0.95842652,0,0,0.92639044,999.10401,2593.9365)"><flowRegion
         id="flowRegion2989-7-8-9-3"><rect
           id="rect2991-2-1-1-36"
           width="357.43549"
           height="179.76456"
           x="120.55251"
           y="265.53046"
           style="font-style:normal;font-variant:normal;font-weight:normal;font-stretch:normal;font-family:Lavi;-inkscape-font-specification:Lavi" /></flowRegion><flowPara
         style="font-size:48px;line-height:1.25;text-align:center;text-anchor:middle"
         id="flowPara3217">Maar? </flowPara></flowRoot>
    <flowRoot
       xml:space="preserve"
       id="flowRoot2987-6-5-6-3-5"
       style="font-style:normal;font-variant:normal;font-weight:normal;font-stretch:normal;line-height:0.01%;font-family:Lavi;-inkscape-font-specification:Lavi;letter-spacing:0px;word-spacing:0px;fill:#000000;fill-opacity:1;stroke:none"
       transform="matrix(0.95842652,0,0,0.92639044,1426.147,2595.5709)"><flowRegion
         id="flowRegion2989-7-8-9-3-6"><rect
           id="rect2991-2-1-1-36-5"
           width="357.43549"
           height="179.76456"
           x="120.55251"
           y="265.53046"
           style="font-style:normal;font-variant:normal;font-weight:normal;font-stretch:normal;font-family:Lavi;-inkscape-font-specification:Lavi" /></flowRegion><flowPara
         style="font-size:48px;line-height:1.25;text-align:center;text-anchor:middle"
         id="flowPara4473">Waar</flowPara><flowPara
         style="font-size:48px;line-height:1.25;text-align:center;text-anchor:middle"
         id="flowPara4216">ben ik?</flowPara></flowRoot>
    <flowRoot
       xml:space="preserve"
       id="flowRoot2987-6-5-6-3-8"
       style="font-style:normal;font-variant:normal;font-weight:normal;font-stretch:normal;line-height:0.01%;font-family:Lavi;-inkscape-font-specification:Lavi;letter-spacing:0px;word-spacing:0px;fill:#000000;fill-opacity:1;stroke:none"
       transform="matrix(0.61014531,-0.25329543,0,1.157985,1396.9847,2772.1659)"><flowRegion
         id="flowRegion2989-7-8-9-3-9"
         style="stroke:none"><rect
           id="rect2991-2-1-1-36-7"
           width="357.43549"
           height="179.76456"
           x="120.55251"
           y="265.53046"
           style="font-style:normal;font-variant:normal;font-weight:normal;font-stretch:normal;font-family:Lavi;-inkscape-font-specification:Lavi;stroke:none" /></flowRegion><flowPara
         style="font-weight:bold;font-size:48px;line-height:1.25;text-align:center;text-anchor:middle;stroke:none;stroke-width:2.49834;stroke-miterlimit:4;stroke-dasharray:none;stroke-opacity:1"
         id="flowPara3217-6"><flowSpan
   style="font-weight:bold;letter-spacing:2.61731px;stroke:none"
   id="flowSpan294">a</flowSpan>k? </flowPara></flowRoot>
    <flowRoot
       xml:space="preserve"
       id="flowRoot2987-6-5-6-3-8-7"
       style="font-style:normal;font-variant:normal;font-weight:normal;font-stretch:normal;line-height:0.01%;font-family:Lavi;-inkscape-font-specification:Lavi;letter-spacing:0px;word-spacing:0px;fill:#000000;fill-opacity:1;stroke:none"
       transform="matrix(0.61014531,-0.25329543,0,1.157985,1349.8756,2797.7657)"><flowRegion
         id="flowRegion2989-7-8-9-3-9-7"
         style="stroke:none"><rect
           id="rect2991-2-1-1-36-7-9"
           width="357.43549"
           height="179.76456"
           x="120.55251"
           y="265.53046"
           style="font-style:normal;font-variant:normal;font-weight:normal;font-stretch:normal;font-family:Lavi;-inkscape-font-specification:Lavi;stroke:none;" /></flowRegion><flowPara
         style="font-weight:bold;font-size:42.8287px;line-height:1.25;text-align:center;text-anchor:middle;stroke:none;stroke-width:1.8333;stroke-miterlimit:4;stroke-dasharray:none;stroke-opacity:1"
         id="flowPara3217-6-4"><flowSpan
   style="font-weight:bold;letter-spacing:-4.87771px;stroke:none"
   id="flowSpan278">K</flowSpan><flowSpan
   style="font-weight:bold;letter-spacing:2.37937px;stroke:none"
   id="flowSpan222">w</flowSpan>a </flowPara></flowRoot>
    <text
       xml:space="preserve"
       style="font-style:normal;font-variant:normal;font-weight:bold;font-stretch:normal;font-size:45.426px;line-height:0.01%;font-family:Lavi;-inkscape-font-specification:'Lavi, Bold';font-variant-ligatures:normal;font-variant-caps:normal;font-variant-numeric:normal;font-feature-settings:normal;text-align:start;letter-spacing:0px;word-spacing:0px;writing-mode:lr-tb;text-anchor:start;fill:#000000;fill-opacity:1;stroke:none;stroke-width:1.84872;stroke-miterlimit:4;stroke-dasharray:none;stroke-opacity:1"
       x="901.3136"
       y="2094.8164"
       id="text90"
       transform="scale(0.9463747,1.0566639)"><tspan
         sodipodi:role="line"
         id="tspan88"
         x="901.3136"
         y="2094.8164"
         style="stroke-width:1.84872">KOMONA!</tspan></text>
  </g>
</svg>
