<?xml version="1.0" encoding="UTF-8" standalone="no"?>
<svg
   xmlns:dc="http://purl.org/dc/elements/1.1/"
   xmlns:cc="http://creativecommons.org/ns#"
   xmlns:rdf="http://www.w3.org/1999/02/22-rdf-syntax-ns#"
   xmlns:svg="http://www.w3.org/2000/svg"
   xmlns="http://www.w3.org/2000/svg"
   xmlns:xlink="http://www.w3.org/1999/xlink"
   xmlns:sodipodi="http://sodipodi.sourceforge.net/DTD/sodipodi-0.dtd"
   xmlns:inkscape="http://www.inkscape.org/namespaces/inkscape"
   id="svg2"
   version="1.1"
   inkscape:version="0.92.4 (5da689c313, 2019-01-14)"
   width="2481"
   height="3503"
   sodipodi:docname="E34P03.svg">
  <metadata
     id="metadata8">
    <rdf:RDF>
      <cc:Work
         rdf:about="">
        <dc:format>image/svg+xml</dc:format>
        <dc:type
           rdf:resource="http://purl.org/dc/dcmitype/StillImage" />
        <dc:title />
      </cc:Work>
    </rdf:RDF>
  </metadata>
  <defs
     id="defs6" />
  <sodipodi:namedview
     pagecolor="#ffffff"
     bordercolor="#666666"
     borderopacity="1"
     objecttolerance="10"
     gridtolerance="10"
     guidetolerance="10"
     inkscape:pageopacity="0"
     inkscape:pageshadow="2"
     inkscape:window-width="1858"
     inkscape:window-height="1057"
     id="namedview4"
     showgrid="false"
     inkscape:zoom="0.40000002"
     inkscape:cx="743.80412"
     inkscape:cy="1748.4014"
     inkscape:window-x="54"
     inkscape:window-y="-8"
     inkscape:window-maximized="1"
     inkscape:current-layer="layer3"
     inkscape:document-rotation="0"
     borderlayer="true" />
  <g
     inkscape:groupmode="layer"
     id="layer2"
     inkscape:label="artwork"
     sodipodi:insensitive="true">
    <image
       sodipodi:absref="D:\Documents\code\webcomics\new-ep34_The-Knighting-of-Shichimi\lang\id\../gfx_Pepper-and-Carrot_by-David-Revoy_E34P03.png"
       xlink:href="../gfx_Pepper-and-Carrot_by-David-Revoy_E34P03.png"
       width="2481"
       height="3503"
       id="image10"
       x="0"
       y="0" />
  </g>
  <g
     inkscape:groupmode="layer"
     id="layer3"
     inkscape:label="speechbubbles"
     style="display:inline">
    <path
       style="color:#000000;display:inline;overflow:visible;visibility:visible;fill:#ffffff;fill-opacity:1;fill-rule:nonzero;stroke:none;stroke-width:1.18074417px;marker:none;enable-background:accumulate"
       d="m 1179.9993,2161.8361 c -65.956,2.1618 -131.3588,9.2401 -196.20726,17.7153 -25.65602,4.605 -50.59203,13.3338 -68.323,27.4848 -17.57971,14.3517 -26.64739,32.9487 -30.1792,51.5275 -4.86059,24.4318 3.98581,49.6529 21.8768,70.675 11.81035,15.113 28.43166,28.9189 50.38452,37.003 28.18688,11.1007 59.66754,16.9129 90.66194,22.702 29.4209,5.0957 59.4368,8.2567 89.4727,10.9007 37.1205,2.9129 74.6752,3.5655 111.8687,0.9085 28.3059,-1.9673 56.6055,-4.9086 83.9993,-10.4214 33.0259,-6.8059 64.8261,-17.9866 89.8878,-34.8308 18.6855,-12.6114 32.7947,-28.6212 39.9999,-46.1642 7.9219,-18.3529 10.5957,-37.884 7.337,-56.9428 -3.7494,-19.5157 -16.5701,-38.5059 -37.9021,-51.4771 -19.9394,-12.2526 -45.044,-19.1979 -70.0625,-24.5173 -29.5597,-6.2626 -60.307,-9.0781 -90.9958,-10.7944 -19.6127,-1.0935 -39.2172,-2.2914 -58.8543,-3.1462 -10.9768,-0.4335 -21.9699,-0.675 -32.9645,-0.6226 z"
       id="path4546-6-08-2"
       inkscape:connector-curvature="0"
       sodipodi:nodetypes="cssssc" />
    <path
       style="color:#000000;display:inline;overflow:visible;visibility:visible;fill:#ffffff;fill-opacity:1;fill-rule:nonzero;stroke:none;stroke-width:0.586403px;marker:none;enable-background:accumulate"
       d="m 786.34677,2123.5123 c 5.02464,-42.62 47.16918,-72.3401 153.25243,-60.2559 56.824,6.4733 121.4295,11.7571 114.7301,74.2181 -6.6996,62.4603 -99.65607,57.3161 -118.91724,58.0513 -19.26129,0.7346 -119.01807,-9.6322 -135.66614,-31.5981 -10.42127,-13.7499 -14.23657,-27.1885 -13.39915,-40.4154 z"
       id="path4546-6-08"
       inkscape:connector-curvature="0"
       sodipodi:nodetypes="cssssc" />
    <path
       style="fill:#ffffff;fill-rule:evenodd;stroke:none;stroke-width:1.25695px;stroke-linecap:butt;stroke-linejoin:miter;stroke-opacity:1"
       d="m 1471.3459,2456.5997 c -67.1764,-16.6519 -104.4231,-46.199 -116.7263,-96.6707 l -26.7459,22.416 c 34.4783,64.0674 88.4565,69.7439 143.4722,74.2547 z"
       id="path1291"
       inkscape:connector-curvature="0"
       sodipodi:nodetypes="cccc" />
    <path
       style="fill:#ffffff;stroke:none;stroke-width:0.972695"
       d="m 2046.8887,294.17773 c -39.6592,0.87259 -79.2406,4.12342 -118.6411,8.63598 -28.0761,3.45619 -56.6998,8.7612 -81.6288,22.80258 -17.1243,9.86351 -30.928,25.65948 -38.0389,44.13553 -3.2439,8.45302 -5.0977,17.61391 -3.6698,26.6585 2.5878,20.45788 16.297,38.69489 34.5305,48.01837 23.5697,13.04305 50.5265,17.35954 76.6085,22.56825 54.2988,10.19294 109.7958,12.72511 164.9351,11.01783 25.6859,-0.94521 51.3777,-2.71212 76.8507,-6.20311 23.5879,-3.55066 47.3991,-9.33854 68.0381,-21.70917 17.7212,-11.42475 30.0651,-31.58925 30.1199,-52.91361 0.4824,-26.36472 -14.7234,-51.3424 -36.1599,-65.9823 -10.8413,-7.63135 -23.4313,-12.19522 -36.1123,-15.7183 -37.7184,-11.56823 -76.8489,-18.49494 -116.2156,-20.92918 -6.8665,-0.32876 -13.7425,-0.44763 -20.6164,-0.38137 z"
       id="path3100-2-0"
       inkscape:connector-curvature="0" />
    <path
       style="fill:#ffffff;stroke:none;stroke-width:1.27207839"
       d="m 2129.0932,247.4485 c -8.7264,58.07386 -133.0604,73.80425 -221.525,73.87191 -150.4415,4.35437 -302.8918,-2.91346 -449.6423,-21.54286 -94.7644,-16.08413 -140.8244,-90.80562 -62.206,-128.46041 80.6364,-29.32136 184.2119,-26.7993 277.2661,-32.43727 131.6125,-2.96731 267.9343,2.45137 391.1769,29.62082 54.9035,14.78235 73.9268,47.65096 64.9303,78.94781 z"
       id="path3100-2"
       inkscape:connector-curvature="0" />
    <path
       style="color:#000000;display:inline;overflow:visible;visibility:visible;fill:#ffffff;fill-opacity:1;fill-rule:nonzero;stroke:none;stroke-width:1.10728455px;marker:none;enable-background:accumulate"
       d="m 956.49915,195.82812 c -50.52996,2.03401 -99.68725,15.24857 -146.11952,32.85513 -17.49214,6.22943 -36.12596,11.45143 -50.46716,22.97323 -15.44644,12.65962 -24.88456,30.17634 -31.03085,47.96153 -9.41134,28.65768 -11.83518,58.72572 -12.715,88.47688 -0.4609,14.64761 -0.2467,29.38485 2.50702,43.86211 3.10982,16.71154 8.45342,33.16764 16.62735,48.42875 12.45631,21.82722 33.83122,38.47622 57.4302,49.97101 23.56659,11.47124 49.88543,17.61326 76.37091,20.16862 26.2669,2.78717 52.74811,3.73359 79.18171,3.54457 35.58026,-0.63034 71.49969,-4.68184 105.06399,-15.83114 29.5975,-10.79549 53.1883,-32.97903 66.5976,-59.01558 14.4114,-26.594 24.0104,-55.34529 28.3363,-84.71932 4.0498,-29.74198 1.9825,-60.624 -9.5624,-88.88171 -9.558,-22.66449 -26.5354,-42.57121 -47.9307,-57.06671 -24.7373,-17.60082 -52.551,-31.34722 -81.2775,-42.76461 -16.80465,-6.15258 -34.78412,-10.32098 -53.01195,-9.96276 z"
       id="path4040-40"
       inkscape:connector-curvature="0"
       sodipodi:nodetypes="zssssz" />
    <path
       style="fill:#ffffff;stroke:none;stroke-width:1.4784807"
       d="m 889.33442,88.826334 c -33.5178,0.336902 -67.41343,3.363847 -99.30874,13.397696 -19.014,5.96492 -37.78538,13.84832 -52.94397,26.26982 -10.63796,8.95523 -18.5327,20.99968 -20.77043,34.25248 -3.36939,17.39156 1.85657,35.79962 13.21942,49.90043 15.68531,20.82892 41.70503,34.44258 68.96133,36.76059 41.68547,5.3918 83.87956,4.07814 125.84303,4.28932 32.70727,-0.11683 65.7626,-0.50982 97.80524,-7.2605 21.8805,-4.74747 43.3596,-13.23746 60.0552,-27.44646 12.3687,-10.80905 20.61,-26.23856 20.0573,-42.17946 -0.3366,-19.07421 -10.7316,-37.26922 -26.0851,-49.721 -17.1333,-14.31521 -38.8932,-22.89254 -60.9723,-28.366649 -32.25715,-7.935641 -65.83274,-8.997119 -99.01884,-9.729496 -8.94608,-0.160188 -17.89451,-0.243815 -26.84214,-0.166771 z"
       id="path3280-1"
       inkscape:connector-curvature="0"
       sodipodi:nodetypes="csssc" />
    <path
       style="color:#000000;display:inline;overflow:visible;visibility:visible;fill:#ffffff;fill-opacity:1;fill-rule:nonzero;stroke:none;stroke-width:0.990091px;marker:none;enable-background:accumulate"
       d="m 488.9942,566.25992 c -18.78498,50.92279 -2.84901,105.08842 13.19711,114.63467 -28.06687,-12.75099 -51.50197,-72.60161 -41.41962,-110.56135 11.40195,-31.85325 28.22251,-4.07332 28.22251,-4.07332 z"
       id="path4480-2"
       inkscape:connector-curvature="0"
       sodipodi:nodetypes="cccc"
       inkscape:transform-center-x="54.91025"
       inkscape:transform-center-y="-145.58616" />
    <path
       style="color:#000000;display:inline;overflow:visible;visibility:visible;fill:#ffffff;fill-opacity:1;fill-rule:nonzero;stroke:none;stroke-width:1.1572367px;marker:none;enable-background:accumulate"
       d="m 492.92805,297.6875 c -35.82166,1.10447 -72.13794,2.45433 -106.79428,12.06047 -16.29379,4.51242 -31.82583,11.90596 -44.77137,22.52811 -13.99875,11.226 -24.60599,25.98295 -31.82852,42.01454 -11.44974,25.14979 -15.22378,53.24409 -12.50984,80.48657 2.95838,25.70322 14.98132,50.02788 32.26837,69.64919 8.18783,9.12778 18.32892,16.53943 29.55421,21.86991 20.89233,10.48909 43.33599,18.00794 66.27926,23.07165 29.90804,6.46133 60.56534,9.71941 91.21228,9.86819 19.47452,0.0503 39.04754,-1.41819 57.99538,-5.93268 25.65308,-5.85062 50.51768,-15.22908 73.15684,-28.27101 22.34923,-13.84482 40.2259,-35.23298 46.80771,-60.26879 8.89746,-30.49731 9.49765,-63.19529 1.94857,-94.0132 -3.91727,-15.33854 -11.32659,-29.94598 -22.34383,-41.72532 -10.69194,-11.77457 -24.53425,-20.62277 -39.50778,-26.54042 -26.64074,-11.3088 -55.47181,-16.56294 -84.05825,-20.99145 -19.00708,-2.60316 -38.2096,-3.89644 -57.40875,-3.80576 z"
       id="path4546-6-5-5"
       inkscape:connector-curvature="0"
       sodipodi:nodetypes="cssssc" />
    <path
       style="color:#000000;display:inline;overflow:visible;visibility:visible;fill:#ffffff;fill-opacity:1;fill-rule:nonzero;stroke:none;stroke-width:0.878626px;marker:none;enable-background:accumulate"
       d="m 280.03711,122.38281 c -33.79477,0.68643 -68.02945,4.60046 -99.77231,16.78803 -17.23206,6.90084 -33.18544,18.89121 -41.6431,35.74547 -9.88288,20.64639 -10.45282,45.06065 -3.60005,66.71181 4.53119,13.43431 13.76714,25.42778 26.2788,32.30259 19.49064,11.5596 41.77723,17.42486 64.07206,20.50986 17.17101,2.38165 34.46105,3.75524 51.7079,5.44806 31.56947,2.56675 63.42574,2.91769 94.90088,-1.01693 28.89544,-3.55299 57.83793,-9.01684 84.94654,-19.92043 14.64667,-5.90857 29.0757,-13.59551 39.64678,-25.60571 14.50656,-16.00103 18.89205,-39.42064 14.04417,-60.13619 -3.60016,-15.96647 -12.91349,-30.7211 -26.39467,-40.14017 -16.42622,-11.79649 -36.42107,-16.96784 -55.99513,-20.73869 -30.1949,-5.68926 -60.95953,-7.12509 -91.57175,-8.89364 -18.85659,-0.90071 -37.74247,-1.35513 -56.62012,-1.05406 z"
       id="path4546-6-5-3"
       inkscape:connector-curvature="0"
       sodipodi:nodetypes="cssssc" />
    <path
       id="path1081"
       style="fill:#ffffff;fill-rule:evenodd;stroke:none;stroke-width:1px;stroke-linecap:butt;stroke-linejoin:miter;stroke-opacity:1"
       d="m 287.67188,278.28125 c -10.34602,0.0639 -20.49884,2.27426 -30.72657,3.55078 -2.69982,4.93778 -4.08222,10.48922 -6.23101,15.68234 -5.67931,15.85263 -11.23804,31.88728 -14.15471,48.50943 -1.55744,12.04107 -0.85288,24.84605 5.20433,35.64519 9.1497,17.95023 22.70579,33.83652 27.94646,53.6304 3.09231,10.90551 5.52274,22.36337 4.35032,33.73572 -2.11881,9.59327 -8.21891,17.62309 -11.87847,26.63366 -6.87167,15.32803 -10.49807,32.77889 -6.43519,49.37594 1.01596,4.68537 2.40213,9.28257 3.95804,13.81467 -2.44284,-26.62563 4.52474,-54.43511 21.1636,-75.60842 5.87927,-7.58781 10.3557,-16.41037 11.5087,-26.03213 2.42129,-15.20105 -1.52987,-30.55332 -7.50308,-44.47184 -6.35087,-15.65438 -14.74681,-30.53834 -19.38839,-46.84497 -2.53518,-14.1623 4.48464,-27.52853 11.07638,-39.5497 6.64471,-12.19187 14.72253,-23.64193 20.19033,-36.44305 2.35665,-5.59735 -3.25033,-12.19349 -9.08074,-11.62802 z"
       inkscape:connector-curvature="0" />
    <path
       style="color:#000000;display:inline;overflow:visible;visibility:visible;fill:#ffffff;fill-opacity:1;fill-rule:nonzero;stroke:none;stroke-width:0.747612px;marker:none;enable-background:accumulate"
       d="m 899.59119,531.93304 c -2.31202,46.97432 46.46212,99.91514 106.27011,73.88577 -68.51547,11.60614 -80.86302,-50.88993 -74.49691,-77.22915 6.052,-16.0625 -31.7732,3.34338 -31.7732,3.34338 z"
       id="path3978-4"
       inkscape:connector-curvature="0"
       sodipodi:nodetypes="cccc" />
    <path
       style="fill:#ffffff;fill-rule:evenodd;stroke:none;stroke-width:1.17292px;stroke-linecap:butt;stroke-linejoin:miter;stroke-opacity:1"
       d="m 2105.6372,449.67287 c 46.9908,56.36735 25.0644,96.94489 0.9732,119.18809 57.8143,-39.15954 50.7085,-84.22782 24.8731,-138.46075 -6.4903,-8.77797 -25.8463,19.27266 -25.8463,19.27266 z"
       id="path1359"
       inkscape:connector-curvature="0"
       sodipodi:nodetypes="cccc" />
    <path
       style="color:#000000;display:inline;overflow:visible;visibility:visible;fill:#ffffff;fill-opacity:1;fill-rule:nonzero;stroke:none;stroke-width:0.548604px;marker:none;enable-background:accumulate"
       d="m 744.76298,1784.4258 c -23.02506,0.867 -46.48161,5.9216 -66.15692,18.3531 -13.76056,9.5893 -21.22853,26.9834 -19.51803,43.572 0.55586,13.3373 5.069,27.3028 15.40829,36.2633 11.35879,9.28 26.10401,12.594 40.21935,15.0694 20.44819,3.3542 41.14494,5.3796 61.8703,5.6186 27.626,-0.1737 55.35589,-5.0256 81.04299,-15.3087 10.63803,-4.6176 20.97892,-11.9976 25.494,-23.0724 9.52705,-22.3457 0.0239,-50.8982 -20.95407,-63.133 -15.20341,-9.2197 -33.11596,-12.1995 -50.49797,-14.2998 -22.2016,-2.4933 -44.57871,-3.2792 -66.90794,-3.0625 z"
       id="path4546-6-5-3-5"
       inkscape:connector-curvature="0"
       sodipodi:nodetypes="cssssc" />
    <path
       style="color:#000000;display:inline;overflow:visible;visibility:visible;fill:#ffffff;fill-opacity:1;fill-rule:nonzero;stroke:none;stroke-width:0.710537px;marker:none;enable-background:accumulate"
       d="m 849.98651,1849.2956 c 26.9288,18.2447 60.46856,37.1401 111.40082,-0.4118 -51.33263,27.0778 -81.7058,-0.5873 -98.47579,-20.0818 -9.1535,-13.7188 -12.92502,20.4935 -12.92503,20.4936 z"
       id="path3978-4-3"
       inkscape:connector-curvature="0"
       sodipodi:nodetypes="cccc" />
  </g>
  <g
     inkscape:groupmode="layer"
     id="layer1"
     inkscape:label="txt">
    <text
       xml:space="preserve"
       style="font-style:normal;font-variant:normal;font-weight:normal;font-stretch:normal;font-size:45px;line-height:1.25;font-family:Lavi;-inkscape-font-specification:Lavi;text-align:center;letter-spacing:0px;word-spacing:0px;text-anchor:middle;fill:#000000;fill-opacity:1;stroke:none"
       x="328.19693"
       y="194.99399"
       id="text4246-3-2-2-6-3-7-9-3"><tspan
         style="font-size:45px"
         sodipodi:role="line"
         x="328.19693"
         y="194.99399"
         id="tspan850">Dia salah satu</tspan><tspan
         style="font-size:45px"
         sodipodi:role="line"
         x="328.19693"
         y="251.24399"
         id="tspan60">tamumu?</tspan></text>
    <text
       xml:space="preserve"
       style="font-style:normal;font-variant:normal;font-weight:normal;font-stretch:normal;font-size:45px;line-height:1.25;font-family:Lavi;-inkscape-font-specification:Lavi;text-align:center;letter-spacing:0px;word-spacing:0px;text-anchor:middle;fill:#000000;fill-opacity:1;stroke:none"
       x="505.4679"
       y="370.7894"
       id="text4246-3-2-2-6-3-7-9-3-3"><tspan
         style="font-size:45px"
         sodipodi:role="line"
         x="505.4679"
         y="370.7894"
         id="tspan64">Ya. Dia</tspan><tspan
         style="font-size:45px"
         sodipodi:role="line"
         x="505.4679"
         y="427.0394"
         id="tspan72">temanku Pepper.</tspan><tspan
         style="font-size:45px"
         sodipodi:role="line"
         x="505.4679"
         y="483.2894"
         id="tspan890">Semua baik-</tspan><tspan
         style="font-size:45px"
         sodipodi:role="line"
         x="505.4679"
         y="539.53943"
         id="tspan68">baik saja.</tspan></text>
    <text
       xml:space="preserve"
       style="font-style:normal;font-variant:normal;font-weight:normal;font-stretch:normal;font-size:45px;line-height:1.25;font-family:Lavi;-inkscape-font-specification:Lavi;text-align:center;letter-spacing:0px;word-spacing:0px;text-anchor:middle;fill:#000000;fill-opacity:1;stroke:none"
       x="909.74799"
       y="162.51166"
       id="text4246-3-2-2-6-3-7-9-3-3-5"><tspan
         style="font-size:45px"
         sodipodi:role="line"
         x="909.74799"
         y="162.51166"
         id="tspan878">Carrot, kamu</tspan><tspan
         style="font-size:45px"
         sodipodi:role="line"
         x="909.74799"
         y="218.76166"
         id="tspan76">tidak apa-apa?</tspan></text>
    <text
       xml:space="preserve"
       style="font-style:normal;font-variant:normal;font-weight:normal;font-stretch:normal;font-size:40px;line-height:1.25;font-family:Lavi;-inkscape-font-specification:Lavi;text-align:center;letter-spacing:0px;word-spacing:0px;text-anchor:middle;fill:#000000;fill-opacity:1;stroke:none"
       x="933.35266"
       y="301.34482"
       id="text4246-3-2-2-6-3-7-9-3-3-5-9"><tspan
         sodipodi:role="line"
         x="933.35266"
         y="301.34482"
         style="font-size:40px"
         id="tspan889">Maaf tentang</tspan><tspan
         sodipodi:role="line"
         x="933.35266"
         y="351.34482"
         style="font-size:40px"
         id="tspan82">pendaratannya,</tspan><tspan
         sodipodi:role="line"
         x="933.35266"
         y="401.34482"
         style="font-size:40px"
         id="tspan897">aku biasa dengan</tspan><tspan
         sodipodi:role="line"
         x="933.35266"
         y="451.34482"
         style="font-size:40px"
         id="tspan95">pendaratan dalam</tspan><tspan
         sodipodi:role="line"
         x="933.35266"
         y="501.34482"
         style="font-size:40px"
         id="tspan99">kecepatan super.</tspan></text>
    <text
       xml:space="preserve"
       style="font-style:normal;font-variant:normal;font-weight:normal;font-stretch:normal;font-size:45px;line-height:1.25;font-family:Lavi;-inkscape-font-specification:Lavi;text-align:center;letter-spacing:0px;word-spacing:0px;text-anchor:middle;fill:#000000;fill-opacity:1;stroke:none"
       x="1744.1462"
       y="221.09926"
       id="text4246-3-2-2-6-3-7-9-3-3-5-9-2"><tspan
         style="font-size:45px"
         sodipodi:role="line"
         x="1744.1462"
         y="221.09926"
         id="tspan1045">Dan sekali lagi maaf semuanya</tspan><tspan
         style="font-size:45px"
         sodipodi:role="line"
         x="1744.1462"
         y="277.34924"
         id="tspan107">untuk ketidaknyamanannya,</tspan></text>
    <text
       xml:space="preserve"
       style="font-style:normal;font-variant:normal;font-weight:normal;font-stretch:normal;font-size:45px;line-height:1.25;font-family:Lavi;-inkscape-font-specification:Lavi;text-align:center;letter-spacing:0px;word-spacing:0px;text-anchor:middle;fill:#000000;fill-opacity:1;stroke:none"
       x="2037.0015"
       y="366.36926"
       id="text4246-3-2-2-6-3-7-9-3-3-5-9-2-6"><tspan
         style="font-size:45px"
         sodipodi:role="line"
         x="2037.0015"
         y="366.36926"
         id="tspan8459">dan tentang</tspan><tspan
         style="font-size:45px"
         sodipodi:role="line"
         x="2037.0015"
         y="422.61926"
         id="tspan111">pakaianku...</tspan></text>
    <text
       xml:space="preserve"
       style="font-style:normal;font-variant:normal;font-weight:normal;font-stretch:normal;font-size:45px;line-height:1.25;font-family:Lavi;-inkscape-font-specification:Lavi;text-align:center;letter-spacing:0px;word-spacing:0px;text-anchor:middle;fill:#000000;fill-opacity:1;stroke:none"
       x="767.77356"
       y="1855.4686"
       id="text4246-3-2-2-6-3-7-9-3-3-5-9-2-6-3"><tspan
         style="font-size:45px"
         sodipodi:role="line"
         x="767.77356"
         y="1855.4686"
         id="tspan8459-7">hihihi</tspan></text>
    <text
       xml:space="preserve"
       style="font-style:normal;font-variant:normal;font-weight:normal;font-stretch:normal;font-size:45px;line-height:1.25;font-family:Lavi;-inkscape-font-specification:Lavi;text-align:center;letter-spacing:0px;word-spacing:0px;text-anchor:middle;fill:#000000;fill-opacity:1;stroke:none"
       x="922.21698"
       y="2143.4609"
       id="text4246-3-2-2-6-3-7-9-3-3-5-9-2-6-1"><tspan
         style="font-size:45px"
         sodipodi:role="line"
         x="922.21698"
         y="2143.4609"
         id="tspan1077-7">Shichimi,</tspan></text>
    <text
       xml:space="preserve"
       style="font-style:normal;font-variant:normal;font-weight:normal;font-stretch:normal;font-size:45px;line-height:1.25;font-family:Lavi;-inkscape-font-specification:Lavi;text-align:center;letter-spacing:0px;word-spacing:0px;text-anchor:middle;fill:#000000;fill-opacity:1;stroke:none"
       x="1177.8296"
       y="2240.657"
       id="text4246-3-2-2-6-3-7-9-3-3-5-9-2-6-1-9"><tspan
         style="font-size:45px"
         x="1177.8296"
         y="2240.657"
         sodipodi:role="line"
         id="tspan1133">penyihir muda yang</tspan><tspan
         style="font-size:45px"
         x="1177.8296"
         y="2296.907"
         sodipodi:role="line"
         id="tspan115">baru sampai ini, apa dia</tspan><tspan
         style="font-size:45px"
         x="1177.8296"
         y="2353.157"
         sodipodi:role="line"
         id="tspan1137"><tspan
   style="font-style:italic"
   id="tspan117">benar</tspan> temanmu?</tspan></text>
  </g>
</svg>
