<?xml version="1.0" encoding="UTF-8" standalone="no"?>
<!-- Created with Inkscape (http://www.inkscape.org/) -->

<svg
   xmlns:dc="http://purl.org/dc/elements/1.1/"
   xmlns:cc="http://creativecommons.org/ns#"
   xmlns:rdf="http://www.w3.org/1999/02/22-rdf-syntax-ns#"
   xmlns:svg="http://www.w3.org/2000/svg"
   xmlns="http://www.w3.org/2000/svg"
   xmlns:xlink="http://www.w3.org/1999/xlink"
   xmlns:sodipodi="http://sodipodi.sourceforge.net/DTD/sodipodi-0.dtd"
   xmlns:inkscape="http://www.inkscape.org/namespaces/inkscape"
   id="svg2"
   version="1.1"
   inkscape:version="0.92.5 (2060ec1f9f, 2020-04-08)"
   width="2481"
   height="3503"
   sodipodi:docname="E36P02.svg">
  <metadata
     id="metadata8">
    <rdf:RDF>
      <cc:Work
         rdf:about="">
        <dc:format>image/svg+xml</dc:format>
        <dc:type
           rdf:resource="http://purl.org/dc/dcmitype/StillImage" />
      </cc:Work>
    </rdf:RDF>
  </metadata>
  <defs
     id="defs6">
    <filter
       x="-0.032294048"
       width="1.0625661"
       height="1.3663621"
       inkscape:label="magic-Fx-red_background"
       id="filter4375-4-1-1-1-9-5-8-8-3-3-3-6-1-3"
       style="color-interpolation-filters:sRGB"
       y="-0.13001217">
      <feFlood
         radius="5.0999999999999996"
         result="flood"
         flood-color="rgb(136,138,133)"
         flood-opacity="1"
         id="feFlood4377-7-9-0-8-1-7-3-1-6-61-6-2-0-1" />
      <feComposite
         baseFrequency="0.053999999999999999 0.053999999999999999"
         result="composite1"
         operator="in"
         in="flood"
         in2="SourceGraphic"
         id="feComposite4379-3-8-8-2-77-4-1-0-7-2-7-6-6-4" />
      <feMorphology
         result="result3"
         radius="0.96959439099754563"
         operator="dilate"
         id="feMorphology4393-1-0-49-8-9-3-0-1-5-9-5-1-3-9" />
      <feComposite
         numOctaves="4"
         result="fbSourceGraphic"
         operator="over"
         in="SourceGraphic"
         in2="result3"
         id="feComposite4385-9-5-7-0-8-8-7-5-3-3-3-8-2-2" />
      <feColorMatrix
         id="feColorMatrix4544-9-5-1-5-7-0-0"
         values="0 0 0 -1 0 0 0 0 -1 0 0 0 0 -1 0 0 0 0 1 0"
         in="fbSourceGraphic"
         result="fbSourceGraphicAlpha" />
      <feTurbulence
         result="turbulence"
         baseFrequency="0.062 0.054054054054054057"
         seed="172"
         numOctaves="4.4123222748815163"
         type="fractalNoise"
         id="feTurbulence4546-3-6-9-6-9-6-6" />
      <feDisplacementMap
         result="fbSourceGraphic"
         xChannelSelector="R"
         yChannelSelector="G"
         scale="11.642079"
         in="fbSourceGraphic"
         in2="turbulence"
         id="feDisplacementMap4548-8-2-4-2-2-1-8" />
      <feColorMatrix
         scale="10.800000000000001"
         id="feColorMatrix4670-7-9-7-9-0-5-9"
         values="0 0 0 -1 0 0 0 0 -1 0 0 0 0 -1 0 0 0 0 1 0"
         in="fbSourceGraphic"
         result="fbSourceGraphicAlpha" />
      <feComposite
         result="composite1"
         operator="in"
         in="flood"
         in2="fbSourceGraphic"
         id="feComposite4674-8-2-4-1-2-5-2" />
      <feGaussianBlur
         result="blur"
         stdDeviation="1.5865199271065846"
         in="composite1"
         id="feGaussianBlur4676-3-7-50-2-3-4-6" />
      <feOffset
         result="offset"
         dy="5.2374444725016502"
         dx="-0.42771311737301687"
         id="feOffset4678-6-0-3-7-7-7-6" />
      <feComposite
         result="composite2"
         operator="over"
         in="fbSourceGraphic"
         in2="offset"
         id="feComposite4680-4-9-6-0-5-6-4" />
      <feGaussianBlur
         stdDeviation="0.76414472307477677"
         id="feGaussianBlur58-9-9-5-9" />
      <feOffset
         dx="0"
         dy="0"
         id="feOffset60-3-2-6-5" />
    </filter>
    <filter
       style="color-interpolation-filters:sRGB"
       id="filter4375-4-1-1-1-9-5-8-3-4"
       inkscape:label="Drop Shadow"
       x="-0.0007699657"
       y="-0.0039836934"
       width="1.015765"
       height="1.0815659">
      <feFlood
         id="feFlood4377-7-9-0-8-1-7-3-6"
         flood-opacity="1"
         flood-color="rgb(39,39,39)"
         result="flood" />
      <feComposite
         id="feComposite4379-3-8-8-2-77-4-1-7"
         in2="SourceGraphic"
         in="flood"
         operator="in"
         result="composite1" />
      <feMorphology
         id="feMorphology4393-1-0-49-8-9-3-0-5"
         operator="dilate"
         radius="6.2000000000000002"
         result="result3" />
      <feComposite
         id="feComposite4385-9-5-7-0-8-8-7-3"
         in2="result3"
         in="SourceGraphic"
         operator="over"
         result="fbSourceGraphic" />
      <feColorMatrix
         result="fbSourceGraphicAlpha"
         in="fbSourceGraphic"
         values="0 0 0 -1 0 0 0 0 -1 0 0 0 0 -1 0 0 0 0 1 0"
         id="feColorMatrix4544-5" />
      <feTurbulence
         id="feTurbulence4546-6"
         type="fractalNoise"
         numOctaves="3"
         seed="37"
         baseFrequency="0.129 0.0050000000000000001"
         result="turbulence" />
      <feDisplacementMap
         id="feDisplacementMap4548-2"
         in2="turbulence"
         in="fbSourceGraphic"
         scale="6.6"
         yChannelSelector="G"
         xChannelSelector="R"
         result="fbSourceGraphic" />
      <feColorMatrix
         result="fbSourceGraphicAlpha"
         in="fbSourceGraphic"
         values="0 0 0 -1 0 0 0 0 -1 0 0 0 0 -1 0 0 0 0 1 0"
         id="feColorMatrix4670-9-3" />
      <feFlood
         id="feFlood4672-1-0"
         flood-opacity="0.40999999999999998"
         flood-color="rgb(34,52,102)"
         result="flood"
         in="fbSourceGraphic" />
      <feComposite
         id="feComposite4674-2-3"
         in2="fbSourceGraphic"
         in="flood"
         operator="in"
         result="composite1" />
      <feGaussianBlur
         id="feGaussianBlur4676-7"
         in="composite1"
         stdDeviation="0"
         result="blur" />
      <feOffset
         id="feOffset4678-0-0"
         dx="6"
         dy="6"
         result="offset" />
      <feComposite
         id="feComposite4680-9"
         in2="offset"
         in="fbSourceGraphic"
         operator="over"
         result="composite2" />
    </filter>
  </defs>
  <sodipodi:namedview
     pagecolor="#1e1e1e"
     bordercolor="#111111"
     borderopacity="1"
     objecttolerance="10"
     gridtolerance="10"
     guidetolerance="10"
     inkscape:pageopacity="0"
     inkscape:pageshadow="2"
     inkscape:window-width="1366"
     inkscape:window-height="704"
     id="namedview4"
     showgrid="false"
     inkscape:zoom="0.46000002"
     inkscape:cx="1662.5285"
     inkscape:cy="561.67067"
     inkscape:window-x="0"
     inkscape:window-y="27"
     inkscape:window-maximized="1"
     inkscape:current-layer="layer1"
     inkscape:pagecheckerboard="0"
     inkscape:snap-global="false" />
  <g
     inkscape:groupmode="layer"
     id="layer2"
     inkscape:label="artwork"
     sodipodi:insensitive="true"
     style="display:inline">
    <image
       sodipodi:absref="/home/juanjo/Comics/lang-ep36/es/../gfx_Pepper-and-Carrot_by-David-Revoy_E36P02.png"
       xlink:href="../gfx_Pepper-and-Carrot_by-David-Revoy_E36P02.png"
       width="2481"
       height="3503"
       id="image10"
       x="0"
       y="0" />
  </g>
  <g
     inkscape:groupmode="layer"
     id="layer3"
     inkscape:label="speechbubbles"
     style="display:inline">
    <path
       style="fill:#ffffff;fill-rule:evenodd;stroke:none;stroke-width:1.13548px;stroke-linecap:butt;stroke-linejoin:miter;stroke-opacity:1"
       d="m 1648.759,3203.513 c -21.8245,0.047 -64.168,13.5417 -26.9681,51.5362 -47.9154,-18.866 -56.4078,-3.3316 -61.28,15.3617 -15.9442,-16.6411 -32.854,-31.4712 -66.3225,-15.2471 -6.7075,-26.0664 -31.0022,-34.4571 -68.5676,-29.5103 31.8556,-22.4692 50.6311,-43.6319 -13.2178,-56.5419 51.7907,-3.2795 65.0165,-32.5475 12.973,-52.8796 41.8952,6.3268 53.8257,-1.0897 43.393,-18.7628 25.2618,12.1602 45.7694,11.4491 61.2592,-2.847 24.4584,29.6301 42.0325,27.5812 54.1478,0.4131 1.2521,45.7063 36.9243,43.0539 62.8015,47.5216 -43.5977,17.7988 -8.9226,65.4336 1.7815,60.9561 z"
       id="path1087"
       inkscape:connector-curvature="0"
       sodipodi:nodetypes="cccccccccccc" />
    <path
       style="color:#000000;display:inline;overflow:visible;visibility:visible;fill:#ffffff;fill-opacity:1;fill-rule:nonzero;stroke:none;stroke-width:1.25596px;marker:none;enable-background:accumulate"
       d="m 1660.5567,3199.4042 c -34.6184,0.2263 -69.9022,1.8199 -102.8188,13.0854 -20.9528,6.6629 -41.7833,16.0239 -57.3208,31.4223 -13.6025,16.6015 -14.8766,39.1321 -12.8089,59.3315 1.8685,16.3119 10.2411,31.5577 22.9686,42.4774 23.1463,21.8076 54.5232,34.4172 86.5843,37.6247 22.6926,2.6558 45.5015,4.4456 68.3116,5.833 43.8038,1.8222 87.7736,-0.8644 131.1272,-6.9764 26.5156,-4.1552 52.3521,-17.3215 67.2788,-39.2571 16.2417,-22.9342 18.3601,-52.7562 11.8955,-79.1707 -3.7061,-14.6476 -13.3296,-27.7327 -26.8722,-35.4935 -31.3922,-18.5298 -68.6629,-25.0252 -104.9946,-26.8555 -27.7642,-1.0888 -55.5566,-2.1725 -83.3507,-2.0211 z"
       id="path3525-1"
       inkscape:connector-curvature="0"
       sodipodi:nodetypes="ccccc" />
    <path
       style="display:inline;fill:#ffffff;fill-rule:evenodd;stroke:none;stroke-width:1.15535px;stroke-linecap:butt;stroke-linejoin:miter;stroke-opacity:1"
       d="m 1689.5967,3128.6539 c 0,0 -32.5032,0.5122 -35.8686,17.9644 -3.3663,17.4516 24.539,59.2603 24.539,59.2603 0,0 -45.1119,0.7369 -45.1178,48.4326 -0.01,47.6953 47.113,85.7891 43.4135,52.8962 -3.6991,-32.8931 -34.8285,-95.2011 56.3216,-84.9196 -32.3662,-27.7763 -52.1364,-60.1065 -52.668,-63.6644 -1.9951,-13.3523 30.9323,-20.3265 45.1813,-19.8929 -64.6236,-55.3255 -17.6069,-82.8485 -7.229,-135.1096 -26.5229,47.7737 -71.2674,83.4938 -28.572,125.033 z"
       id="path4394-0"
       inkscape:connector-curvature="0"
       sodipodi:nodetypes="cscsscsccc" />
    <path
       style="display:inline;fill:#ffffff;fill-rule:evenodd;stroke:none;stroke-width:1.163px;stroke-linecap:butt;stroke-linejoin:miter;stroke-opacity:1"
       d="m 2101.016,2205.218 c -5.5798,9.0074 -10.0733,19.4504 -19.8357,25.257 -7.9503,4.4327 -18.4113,1.3119 -24.3553,-4.7486 -4.5502,-4.2017 -8.7913,-8.6842 -13.2455,-12.9736 1.74,7.8987 2.7631,16.5076 -0.8303,24.1017 -6.3814,5.0687 -16.452,3.0383 -21.8146,-2.4214 -1.9395,-1.3264 -3.8788,-2.6526 -5.8183,-3.9788 2.2896,10.0857 -0.1515,21.7035 -8.5132,28.832 -8.2229,3.68 -18.3218,-0.6125 -22.8231,-7.586 -1.8415,-1.8416 -3.6828,-3.683 -5.5241,-5.5244 4.6526,4.5349 3.302,13.8146 -3.5188,15.7506 -8.8783,1.292 -16.9,-3.6201 -23.9371,-8.0327 -7.7933,-4.9391 -14.9816,-10.6478 -22.2437,-16.2391 10.022,10.8286 20.3563,22.29 24.3356,36.4644 0.3865,5.9481 -9.0225,9.252 -13.037,4.7396 -2.4493,-1.1046 -4.8641,-2.2743 -7.287,-3.4284 6.6392,6.143 13.5835,12.8786 15.7382,21.6898 -3.1753,6.0946 -11.8728,7.4766 -18.0809,5.0195 -2.4763,-0.4527 -4.9527,-0.9055 -7.4291,-1.3584 12.1893,12.7039 19.8815,30.2215 17.0661,47.4622 -3.2887,14.6363 -14.1571,26.1307 -23.4987,37.7213 -0.9633,0.7793 -1.4964,2.6104 0.4529,1.8138 15.2613,-2.4944 31.4401,-4.536 46.4291,0.3275 9.3567,3.6246 13.4239,15.7817 7.8015,23.7254 4.4875,-3.7405 10.9691,-7.0829 17.0128,-4.7001 7.5846,3.1641 10.4842,11.7178 9.8294,18.9892 -0.2124,5.6562 -2.0295,11.1016 -3.7071,16.4926 7.2683,-9.9597 14.9266,-20.5923 26.8285,-26.0573 7.55,-2.1551 15.1831,5.8392 12.9871,12.7159 0.1244,1.9321 3.0771,0.954 3.1752,-0.4995 8.2545,-9.3027 19.9245,-17.0014 33.1649,-17.5806 4.4522,0.5094 7.5574,5.1869 6.4728,9.1965 6.8954,-5.257 15.3426,-10.0446 24.587,-9.0963 12.8026,0.5922 23.7568,7.791 33.5192,14.9458 2.602,1.9068 5.1417,3.8868 7.7036,5.8408 2.6956,-8.5952 5.4716,-18.1536 13.5154,-23.7582 8.913,-4.4925 20.2647,-1.011 26.712,5.7644 5.4979,4.4857 10.1859,9.7441 15.0184,14.8378 2.0968,-9.3994 14.7355,-14.0369 23.6093,-10.0322 9.3762,3.6272 16.8139,10.4826 23.4433,17.493 1.707,1.9429 3.3455,3.9374 4.9657,5.9445 -1.9361,-7.1688 -4.8597,-14.6011 -3.0291,-22.071 4.2115,-3.5034 10.7309,-1.3475 14.0018,2.2857 6.901,4.7442 12.9548,10.5113 18.2528,16.8002 -3.1786,-9.5668 3.036,-21.3898 13.7557,-23.6087 12.3798,-3.5734 25.4816,-0.4379 37.3777,3.2786 7.8354,2.6235 15.2582,6.2067 22.4757,10.0639 -10.1076,-7.2581 -17.3788,-19.3108 -15.3764,-31.5095 1.7788,-8.5926 10.2898,-14.3658 18.7837,-16.7149 0.6564,-0.2048 2.5037,-0.3302 1.0823,-1.0798 -5.4161,-3.7468 -12.8286,-6.2 -15.3062,-12.6175 -2.8371,-7.5105 1.6903,-15.6077 7.7934,-20.4282 4.8687,-4.0126 10.0432,-7.6782 15.232,-11.3142 -9.5923,-3.324 -20.5583,-5.2634 -27.6794,-12.7395 -4.7991,-6.0172 -1.806,-14.9754 4.3295,-19.1105 11.5454,-10.5989 25.4817,-18.4163 38.5377,-27.2021 -21.575,5.1897 -43.3316,11.879 -65.8899,10.8431 -9.4758,-1.4559 -14.2362,-13.1926 -9.1355,-20.5533 2.6434,-8.1179 7.117,-15.5409 11.0444,-23.1436 -17.1398,5.03 -34.0636,11.9093 -52.2468,12.6163 -4.1595,-2.4271 -2.9764,-8.6367 0.8206,-10.8466 0.6884,-1.2082 2.3772,-2.1829 1.9766,-3.7366 -10.1192,6.1053 -21.1625,12.1106 -33.509,12.4623 -8.6957,-1.961 -13.9832,-11.7889 -10.8184,-19.5762 -2.0502,-2.2793 -5.1106,0.016 -7.0837,1.2027 -21.3015,9.7966 -47.1032,12.4639 -69.393,3.9703 -17.9852,-6.9182 -32.9128,-19.577 -44.1828,-34.2622 -0.199,-0.1199 -0.4495,-0.1761 -0.6822,-0.1184 z"
       id="path4289-9-3"
       inkscape:connector-curvature="0"
       sodipodi:nodetypes="cccccccccccccccccccccccc" />
    <path
       style="color:#000000;display:inline;overflow:visible;visibility:visible;fill:#ffffff;fill-opacity:1;fill-rule:nonzero;stroke:none;stroke-width:0.634675px;marker:none;enable-background:accumulate"
       d="m 2065.5689,2358.3715 c -1.019,14.0823 -77.982,87.5377 3.591,185.0685 -57.766,-96.8638 17.7385,-154.6405 29.7695,-166.83 -23.5374,-29.6642 -17.4947,-9.4644 -33.3605,-18.2385 z"
       id="path4024-3"
       inkscape:connector-curvature="0"
       sodipodi:nodetypes="cccc" />
  </g>
  <g
     inkscape:groupmode="layer"
     id="layer1"
     inkscape:label="txt"
     style="display:inline">
    <text
       transform="matrix(1.0109872,-0.19833599,-0.21684929,1.1745089,102.88627,624.18095)"
       id="text4580-6-0-0-3-3-6-2-9-8-0"
       y="1584.5073"
       x="787.65729"
       style="font-style:normal;font-variant:normal;font-weight:normal;font-stretch:normal;line-height:0;font-family:Lavi;-inkscape-font-specification:Lavi;letter-spacing:3.03024px;word-spacing:0px;opacity:0.75027;fill:#ffffff;fill-opacity:1;stroke:#837567;stroke-width:1.52377;stroke-miterlimit:4;stroke-dasharray:none;stroke-opacity:1;paint-order:stroke fill markers;filter:url(#filter4375-4-1-1-1-9-5-8-8-3-3-3-6-1-3)"
       xml:space="preserve"
       inkscape:label="FXB-3"><tspan
         style="font-style:normal;font-variant:normal;font-weight:bold;font-stretch:normal;font-size:70px;line-height:1.25;font-family:Drukah;-inkscape-font-specification:'Drukah Bold';fill:#ffffff;fill-opacity:1;stroke:#837567;stroke-width:1.52377;stroke-miterlimit:4;stroke-dasharray:none;stroke-opacity:1;paint-order:stroke fill markers"
         y="1584.5073"
         x="787.65729"
         id="tspan4582-1-1-0-6-9-0-8-3-4-4"
         sodipodi:role="line"><tspan
   style="letter-spacing:-3.73913px"
   id="tspan19018">Fs</tspan>ch<tspan
   style="font-size:59.826px"
   id="tspan39837">h...</tspan></tspan></text>
    <text
       id="text4246-5-8"
       y="3188.7629"
       x="1534.6003"
       style="font-style:normal;font-variant:normal;font-weight:normal;font-stretch:normal;font-size:53.7995px;line-height:0%;font-family:Lavi;-inkscape-font-specification:Lavi;text-align:center;letter-spacing:0px;word-spacing:0px;text-anchor:middle;fill:#000000;fill-opacity:1;stroke:none;stroke-width:1.05513"
       xml:space="preserve"
       inkscape:label="kingB"><tspan
         y="3188.7629"
         x="1534.6003"
         style="font-style:normal;font-variant:normal;font-weight:bold;font-stretch:normal;font-size:53.7995px;line-height:1.25;font-family:Lavi;-inkscape-font-specification:'Lavi Bold';stroke-width:1.05513"
         sodipodi:role="line"
         id="tspan858">¡Agh!</tspan></text>
    <text
       id="text4246-5-8-3"
       y="3276.8621"
       x="1694.1493"
       style="font-style:normal;font-variant:normal;font-weight:normal;font-stretch:normal;font-size:45px;line-height:0%;font-family:Lavi;-inkscape-font-specification:Lavi;text-align:center;letter-spacing:0px;word-spacing:0px;text-anchor:middle;fill:#000000;fill-opacity:1;stroke:none;stroke-width:0.88255"
       xml:space="preserve"
       inkscape:label="kingB"><tspan
         y="3276.8621"
         x="1694.1493"
         style="font-style:normal;font-variant:normal;font-weight:bold;font-stretch:normal;font-size:45px;line-height:1.25;font-family:Lavi;-inkscape-font-specification:'Lavi Bold';stroke-width:0.88255"
         sodipodi:role="line"
         id="tspan39734">¡No puedo hacer </tspan><tspan
         y="3333.1121"
         x="1694.1493"
         style="font-style:normal;font-variant:normal;font-weight:bold;font-stretch:normal;font-size:45px;line-height:1.25;font-family:Lavi;-inkscape-font-specification:'Lavi Bold';stroke-width:0.88255"
         sodipodi:role="line"
         id="tspan10643">nada!</tspan></text>
    <text
       xml:space="preserve"
       style="font-style:normal;font-variant:normal;font-weight:normal;font-stretch:normal;line-height:0%;font-family:Lavi;-inkscape-font-specification:Lavi;text-align:center;letter-spacing:0px;word-spacing:0px;text-anchor:middle;fill:#000000;fill-opacity:1;stroke:none"
       x="2138.511"
       y="2317.1406"
       id="text4246-7-6-4-6-4-5-6"
       inkscape:label="kingB"><tspan
         sodipodi:role="line"
         style="font-style:normal;font-variant:normal;font-weight:bold;font-stretch:normal;font-size:45px;line-height:1.25;font-family:Lavi;-inkscape-font-specification:'Lavi Bold'"
         x="2138.511"
         y="2317.1406"
         id="tspan50694">¡Maldita prisión </tspan><tspan
         sodipodi:role="line"
         style="font-style:normal;font-variant:normal;font-weight:bold;font-stretch:normal;font-size:45px;line-height:1.25;font-family:Lavi;-inkscape-font-specification:'Lavi Bold'"
         x="2138.511"
         y="2373.3906"
         id="tspan22493">mágica! ¡Grrrr!</tspan></text>
    <text
       xml:space="preserve"
       style="font-style:normal;font-variant:normal;font-weight:normal;font-stretch:normal;line-height:0%;font-family:Lavi;-inkscape-font-specification:Lavi;letter-spacing:0px;word-spacing:0px;display:inline;fill:#ffffff;fill-opacity:1;stroke:#000000;stroke-width:0.64952803;stroke-miterlimit:4;stroke-dasharray:none;stroke-opacity:1;filter:url(#filter4375-4-1-1-1-9-5-8-3-4)"
       x="787.65729"
       y="1584.5073"
       id="text4580-6-0-3"
       transform="matrix(0.56396936,0.29200899,-0.49083985,0.74440634,2292.4537,1543.4282)"
       inkscape:transform-center-x="-5.9254429"
       inkscape:transform-center-y="0.58615246"><tspan
         sodipodi:role="line"
         id="tspan4582-1-1-6"
         x="787.65729"
         y="1584.5073"
         style="font-style:normal;font-variant:normal;font-weight:normal;font-stretch:normal;font-size:70px;line-height:1.25;font-family:Combah;-inkscape-font-specification:Combah;fill:#ffffff;fill-opacity:1;stroke:#000000;stroke-width:0.64952803;stroke-opacity:1"><tspan
           style="font-style:normal;font-variant:normal;font-weight:normal;font-stretch:normal;font-size:93.14949799px;font-family:Combah;-inkscape-font-specification:Combah;fill:#ffffff;fill-opacity:1;stroke:#000000;stroke-width:0.64952803;stroke-opacity:1"
           id="tspan4315-8-0">¡CLANG</tspan><tspan
           style="font-style:normal;font-variant:normal;font-weight:normal;font-stretch:normal;font-size:114.73200226px;font-family:Combah;-inkscape-font-specification:Combah;fill:#ffffff;fill-opacity:1;stroke:#000000;stroke-width:0.64952803;stroke-opacity:1"
           id="tspan4313-2-6">!</tspan></tspan></text>
  </g>
</svg>
