<?xml version="1.0" encoding="UTF-8" standalone="no"?>
<!-- Created with Inkscape (http://www.inkscape.org/) -->

<svg
   id="svg2"
   version="1.1"
   inkscape:version="1.1.2 (0a00cf5339, 2022-02-04)"
   width="2481"
   height="3503"
   sodipodi:docname="E36P01.svg"
   xmlns:inkscape="http://www.inkscape.org/namespaces/inkscape"
   xmlns:sodipodi="http://sodipodi.sourceforge.net/DTD/sodipodi-0.dtd"
   xmlns:xlink="http://www.w3.org/1999/xlink"
   xmlns="http://www.w3.org/2000/svg"
   xmlns:svg="http://www.w3.org/2000/svg"
   xmlns:rdf="http://www.w3.org/1999/02/22-rdf-syntax-ns#"
   xmlns:cc="http://creativecommons.org/ns#"
   xmlns:dc="http://purl.org/dc/elements/1.1/">
  <metadata
     id="metadata8">
    <rdf:RDF>
      <cc:Work
         rdf:about="">
        <dc:format>image/svg+xml</dc:format>
        <dc:type
           rdf:resource="http://purl.org/dc/dcmitype/StillImage" />
      </cc:Work>
    </rdf:RDF>
  </metadata>
  <defs
     id="defs6" />
  <sodipodi:namedview
     pagecolor="#1e1e1e"
     bordercolor="#111111"
     borderopacity="1"
     objecttolerance="10"
     gridtolerance="10"
     guidetolerance="10"
     inkscape:pageopacity="0"
     inkscape:pageshadow="2"
     inkscape:window-width="1920"
     inkscape:window-height="1011"
     id="namedview4"
     showgrid="false"
     inkscape:zoom="1.058"
     inkscape:cx="1139.8866"
     inkscape:cy="2695.6522"
     inkscape:window-x="0"
     inkscape:window-y="0"
     inkscape:window-maximized="1"
     inkscape:current-layer="layer1"
     inkscape:pagecheckerboard="0"
     inkscape:snap-global="false" />
  <g
     inkscape:groupmode="layer"
     id="layer2"
     inkscape:label="artwork"
     sodipodi:insensitive="true">
    <image
       xlink:href="../gfx_Pepper-and-Carrot_by-David-Revoy_E36P01.png"
       y="0"
       x="0"
       id="image10"
       height="3503"
       width="2481" />
  </g>
  <g
     inkscape:groupmode="layer"
     id="layer3"
     inkscape:label="speechbubbles"
     style="display:inline">
    <path
       style="display:inline;fill:#ffffff;fill-rule:evenodd;stroke:none;stroke-width:0.794978px;stroke-linecap:butt;stroke-linejoin:miter;stroke-opacity:1"
       d="m 998.9564,1847.5959 c 50.7186,18.6105 79.6089,11.0422 78.7381,-32.2181 24.1976,46.7485 40.9898,57.2039 50.9484,34.1707 32.036,19.7977 52.0451,14.244 67.9311,0 5.9213,18.3191 15.9862,14.5249 43.9306,-5.7092 -5.1968,10.0936 -10.6513,34.4674 40.0282,3.7392 -23.3425,18.0948 -6.3492,18.4416 23.0687,6.2791 -9.6522,18.5144 26.961,5.0828 58.1686,-21.8825 -22.4049,27.9112 -13.3735,31.7885 6.5692,19.9666 -9.1178,12.7207 -3.9264,20.4672 24.3084,4.4408 -11.8593,23.4798 0.5996,14.092 45.661,-8.3845 -37.1862,24.7902 -51.2994,44.7944 -24.0464,45.4838 -8.4325,2.1213 -27.9447,13.7517 37.0533,25.3834 -15.2115,1.1149 -43.5128,4.0323 -16.6463,14.3005 -16.2194,-3.3575 -23.4183,2.6484 -0.842,12.4053 -16.2452,-1.5599 -35.0755,-5.5525 -9.73,9.7127 -28.5047,-0.5186 -24.1997,3.0634 -3.2721,15.9405 -41.2791,-16.5183 -37.8106,29.9177 -39.0325,36.5278 -51.7349,-22.5203 -37.8628,-11.1813 -44.8464,-6.4906 -25.217,0.1753 -51.856,-37.2176 -77.073,-12.1028 -6.6039,-15.6207 -19.844,-0.9052 -75.6504,10.1428 24.5032,-19.8729 -19.6067,-2.2747 -46.3044,5.913 14.6202,-24.8258 -9.3835,-22.5923 -56.375,1.5612 26.315,-27.4145 -7.4216,-35.1285 -51.7093,-15.6644 16.733,-26.9322 -10.5187,-39.9566 -75.65076,-41.0047 30.62708,-10.5776 49.35326,-21.9399 16.98287,-43.9327 36.49069,6.4756 47.37539,0.4606 21.61457,-23.4313 39.80132,19.6102 21.70512,-8.8333 6.17552,-35.1466 z"
       id="path4508-2"
       inkscape:connector-curvature="0"
       sodipodi:nodetypes="cccccccccccccccccccccccccccc" />
    <path
       style="display:inline;fill:#ffffff;fill-rule:evenodd;stroke:none;stroke-width:0.831985px;stroke-linecap:butt;stroke-linejoin:miter;stroke-opacity:1"
       d="m 1410.1337,2127.2238 c -45.439,-25.2736 -76.5297,-29.8736 -65.926,20.0008 -44.3491,-48.8987 -50.5643,-29.2412 -59.6012,-2.7621 -39.3425,-38.08 -56.5036,-16.4349 -65.0519,0.9692 -8.8551,-35.5992 -23.4937,-8.5667 -32.9202,2.2217 2.5251,-31.2742 -8.7273,-35.055 -39.6709,-0.2354 6.0583,-13.9491 15.3753,-40.2432 -31.0913,-10.4914 9.1326,-29.2272 -21.1344,-9.5356 -46.8751,17.0259 14.2751,-35.5429 -5.1925,-27.6057 -24.0336,-13.8038 8.4554,-14.6754 28.3884,-37.5228 -13.4643,-19.6997 20.0694,-21.4608 0.4492,-16.7967 -36.93964,4.9056 31.05984,-27.9918 58.81624,-49.2812 16.87434,-44.6725 5.7001,-8.4901 26.462,-16.1228 -36.03369,-28.4956 11.51144,-5.8756 47.14519,1.9287 17.09387,-21.7732 -4.01832,-2.7631 9.22232,-4.6844 -16.25134,-11.7389 14.96342,0.2834 24.10036,-1.66 10.11593,-12.4331 27.30823,0.1863 16.87593,-11.2059 -3.44427,-25.6313 39.8881,18.2984 35.2485,-16.7677 36.2752,-24.3434 50.0312,25.0122 56.1334,9.2657 62.7191,3.8027 24.1444,-0.5603 47.3735,21.6334 70.9766,-7.4434 6.6633,17.767 20.5236,21.4557 73.725,8.027 -23.0334,23.0727 22.0167,7.2676 47.4052,-2.4753 -13.4616,28.5952 17.2453,21.9201 61.7207,-6.3679 -24.6046,31.7219 45.4217,14.4738 67.1858,5.0356 -2.6691,12.8085 -21.6081,55.586 40.7861,55.8553 -29.6419,11.5522 -39.7093,22.4618 -8.2335,47.1471 -35.0847,-6.8838 -45.3775,0.1493 -20.19,27.1004 -50.8058,-12.9198 -30.5566,17.6679 -5.1509,40.2757 z"
       id="path4508-2-3"
       inkscape:connector-curvature="0"
       sodipodi:nodetypes="cccccccccccccccccccccccccccc" />
    <path
       style="fill:#ffffff;fill-rule:evenodd;stroke:none;stroke-width:1.01927px;stroke-linecap:butt;stroke-linejoin:miter;stroke-opacity:1"
       d="m 795.85859,2075.6026 c 68.17018,-19.9402 107.76468,-24.6985 129.19825,-26.9041 -9.4626,14.6823 -10.93703,18.8605 -3.60753,19.5618 12.56737,1.2024 323.02739,-38.3324 323.02739,-38.3324 l -134.9102,-3.9965 c 0,0 -88.3447,16.493 -115.60557,20.8649 -27.26123,4.3719 -53.63946,7.3565 -53.63946,7.3565 0,0 11.08456,-17.0097 8.79652,-16.5151 -9.73596,2.1047 -32.55208,-8.0957 -153.2594,37.9649 z"
       id="path891"
       inkscape:connector-curvature="0"
       sodipodi:nodetypes="ccsccscsc" />
    <path
       style="display:inline;fill:#ffffff;fill-rule:evenodd;stroke:none;stroke-width:1.43507px;stroke-linecap:butt;stroke-linejoin:miter;stroke-opacity:1"
       d="m 953.38281,2487.5684 c 38.38148,39.926 58.21569,71.1885 1.80206,43.3935 28.21084,25.2084 20.65348,29.0922 -4.79778,35.5614 22.44199,16.9029 54.82051,54.1672 8.67844,66.5544 66.54107,11.0872 30.96073,43.0315 -3.80073,66.3046 101.5489,-26.715 90.3263,3.2876 67.7986,33.8627 50.3841,-38.3205 52.7319,-26.948 29.9113,24.0861 32.8265,-36.8863 41.5928,-47.5602 40.963,-4.9509 20.3024,-35.2596 46.7666,-57.1591 66.4065,-16.589 26.4937,-58.3168 56.155,-7.4623 78.6903,12.7537 5.5283,-43.3318 26.2476,-54.5943 63.4049,-11.6263 3.7537,-26.1934 35.1433,-25.4596 62.054,12.036 -33.6679,-73.6524 25.077,-7.34 34.8729,-2.9815 -15.9684,-37.8988 21.1834,-44.3963 87.7553,-11.9599 -47.7666,-35.3836 -38.7596,-51.891 2.9013,-66.8701 -40.0988,-16.5021 -49.6279,-55.7955 16.3538,-57.474 -82.5442,-25.0492 -21.3735,-64.5333 17.0446,-88.3021 -72.2094,14.1179 -130.931,20.8263 -93.0556,-31.9439 -82.6654,34.1349 -67.6727,15.1453 -57.1328,-1.4229 -55.2106,41.5175 -56.3994,3.1126 -54.8667,-8.8143 -74.1687,45.1554 -117.6919,15.059 -134.3056,-18.5538 -19.4781,47.2557 -56.2567,24.685 -78.9019,0.8588 11.8313,44.4322 -12.0435,40.9214 -36.0422,22.6216 5.9048,29.8666 -16.5581,55.6713 -55.5908,13.5966 12.9761,20.8454 11.6287,51.3783 -60.14289,-10.1407 z"
       id="path4289-9"
       inkscape:connector-curvature="0"
       sodipodi:nodetypes="ccccccccccccccccccccccccc" />
    <path
       style="display:inline;fill:#ffffff;fill-rule:evenodd;stroke:none;stroke-width:1px;stroke-linecap:butt;stroke-linejoin:miter;stroke-opacity:1"
       d="m 839.35758,2683.1542 126.85528,-18.3923 -13.09351,-16.3937 103.27445,-9.3803 -13.3725,-26.4414 -117.98262,26.0585 15.22178,19.3955 z"
       id="path4667"
       inkscape:connector-curvature="0"
       sodipodi:nodetypes="cccccccc" />
  </g>
  <g
     inkscape:groupmode="layer"
     id="layer1"
     inkscape:label="txt"
     style="display:inline">
    <text
       xml:space="preserve"
       style="font-style:normal;font-variant:normal;font-weight:normal;font-stretch:normal;font-size:45px;line-height:1.25;font-family:Lavi;-inkscape-font-specification:Lavi;text-align:center;letter-spacing:0px;word-spacing:0px;text-anchor:middle;fill:#000000;fill-opacity:1;stroke:none;stroke-width:0.818387"
       x="1442.4034"
       y="1936.7717"
       id="text4246-3-2-2-6-3-7-9-3-3-56-9-3-20-3-3-2"
       transform="skewX(-7.1285625)"><tspan
         style="font-style:normal;font-variant:normal;font-weight:bold;font-stretch:normal;font-size:45px;font-family:Lavi;-inkscape-font-specification:'Lavi Bold';stroke-width:0.818387"
         sodipodi:role="line"
         x="1442.4034"
         y="1936.7717"
         id="tspan146">¡¿UNA DISCULPA?!</tspan></text>
    <text
       id="text4246-4-2-7"
       y="2021.6934"
       x="1214.6045"
       style="font-style:normal;font-variant:normal;font-weight:normal;font-stretch:normal;line-height:0%;font-family:Lavi;-inkscape-font-specification:Lavi;text-align:center;letter-spacing:0px;word-spacing:0px;text-anchor:middle;fill:#000000;fill-opacity:1;stroke:none"
       xml:space="preserve"
       inkscape:label="pepperB"><tspan
         y="2021.6934"
         x="1214.6045"
         style="font-size:45px;line-height:1.25"
         sodipodi:role="line"
         id="tspan6461">¡No puedes estar </tspan><tspan
         y="2077.9434"
         x="1214.6045"
         style="font-size:45px;line-height:1.25"
         sodipodi:role="line"
         id="tspan11230">hablando en serio!</tspan></text>
    <text
       xml:space="preserve"
       style="font-style:normal;font-variant:normal;font-weight:normal;font-stretch:normal;font-size:45px;line-height:1.25;font-family:Lavi;-inkscape-font-specification:Lavi;text-align:center;letter-spacing:0px;word-spacing:0px;text-anchor:middle;fill:#000000;fill-opacity:1;stroke:none;stroke-width:0.818387"
       x="1555.2627"
       y="2598.1777"
       id="text4246-3-2-2-6-3-7-9-3-3-56-9-3-20-3-3-2-7"
       transform="skewX(-7.1285625)"><tspan
         style="font-style:normal;font-variant:normal;font-weight:bold;font-stretch:normal;font-size:45px;font-family:Lavi;-inkscape-font-specification:'Lavi Bold';stroke-width:0.818387"
         sodipodi:role="line"
         x="1555.2627"
         y="2598.1777"
         id="tspan27345">¡ENCERRADLA EN</tspan><tspan
         style="font-style:normal;font-variant:normal;font-weight:bold;font-stretch:normal;font-size:45px;font-family:Lavi;-inkscape-font-specification:'Lavi Bold';stroke-width:0.818387"
         sodipodi:role="line"
         x="1555.2627"
         y="2654.4277"
         id="tspan2918">EL CALABOZO!</tspan></text>
  </g>
</svg>
