<?xml version="1.0" encoding="UTF-8" standalone="no"?>
<svg
   id="svg2"
   version="1.1"
   inkscape:version="1.2.2 (732a01da63, 2022-12-09)"
   width="2481"
   height="663"
   sodipodi:docname="E35P00.svg"
   xml:space="preserve"
   xmlns:inkscape="http://www.inkscape.org/namespaces/inkscape"
   xmlns:sodipodi="http://sodipodi.sourceforge.net/DTD/sodipodi-0.dtd"
   xmlns:xlink="http://www.w3.org/1999/xlink"
   xmlns="http://www.w3.org/2000/svg"
   xmlns:svg="http://www.w3.org/2000/svg"
   xmlns:rdf="http://www.w3.org/1999/02/22-rdf-syntax-ns#"
   xmlns:cc="http://creativecommons.org/ns#"
   xmlns:dc="http://purl.org/dc/elements/1.1/"><metadata
     id="metadata8"><rdf:RDF><cc:Work
         rdf:about=""><dc:format>image/svg+xml</dc:format><dc:type
           rdf:resource="http://purl.org/dc/dcmitype/StillImage" /><dc:title /></cc:Work></rdf:RDF></metadata><defs
     id="defs6" /><sodipodi:namedview
     pagecolor="#ffffff"
     bordercolor="#666666"
     borderopacity="1"
     objecttolerance="10"
     gridtolerance="10"
     guidetolerance="10"
     inkscape:pageopacity="0"
     inkscape:pageshadow="2"
     inkscape:window-width="1920"
     inkscape:window-height="1017"
     id="namedview4"
     showgrid="false"
     inkscape:zoom="0.80143686"
     inkscape:cx="1156.6725"
     inkscape:cy="422.99028"
     inkscape:window-x="-8"
     inkscape:window-y="-8"
     inkscape:window-maximized="1"
     inkscape:current-layer="layer1"
     inkscape:document-rotation="0"
     inkscape:showpageshadow="2"
     inkscape:pagecheckerboard="0"
     inkscape:deskcolor="#d1d1d1" /><g
     inkscape:groupmode="layer"
     id="layer2"
     inkscape:label="artwork"
     sodipodi:insensitive="true"><image
       xlink:href="../gfx_Pepper-and-Carrot_by-David-Revoy_E35P00.png"
       y="0"
       x="0"
       id="image10"
       height="663"
       width="2481" /></g><g
     inkscape:groupmode="layer"
     id="layer1"
     inkscape:label="txt"
     style="display:inline"><text
       xml:space="preserve"
       style="font-style:normal;font-variant:normal;font-weight:normal;font-stretch:normal;font-size:72.5px;line-height:1.25;font-family:Lavi;-inkscape-font-specification:'Lavi, Normal';font-variant-ligatures:normal;font-variant-caps:normal;font-variant-numeric:normal;font-feature-settings:normal;text-align:center;letter-spacing:0px;word-spacing:0px;writing-mode:lr-tb;text-anchor:middle;display:inline;fill:#2b1100;fill-opacity:1;stroke:none"
       x="1240.1814"
       y="582.47577"
       id="episode-title"><tspan
         sodipodi:role="line"
         id="tspan4180"
         x="1240.1814"
         y="582.47577">Epizodas 35: Atspindys</tspan></text><path
       style="fill:#2b1100;fill-opacity:1;stroke-width:1.00142"
       d="m 557.84051,514.37445 c -6.16968,-2.80571 -7.18974,-5.89831 -6.17078,-18.70913 0.44524,-5.59821 0.9174,-21.38612 1.0492,-35.08424 l 0.23963,-24.90565 -6.91929,-0.55273 c -11.29465,-0.90227 -24.42683,-9.17985 -24.42683,-15.39692 0,-2.19316 0.24037,-2.24954 7.75336,-1.81755 10.21261,0.58714 14.95605,-0.81181 20.48489,-6.04158 l 4.50212,-4.25859 0.64875,-46.61196 c 0.3568,-25.63652 0.9351,-53.41076 1.28511,-61.72049 l 0.63633,-15.10857 -9.4017,-2.43354 c -9.1343,-2.3643 -9.41021,-2.52058 -9.70049,-5.49413 -0.19251,-1.97171 0.46877,-4.03837 1.85883,-5.80898 1.94376,-2.47601 2.58439,-2.68431 6.46275,-2.10155 3.86594,0.58082 4.47603,0.38541 5.98074,-1.91559 0.92161,-1.40932 1.37939,-3.04278 1.01724,-3.6299 -0.83995,-1.36171 4.19431,-3.47927 12.22024,-5.14031 5.4784,-1.13378 6.64966,-1.08881 9.70813,0.37249 3.91399,1.8702 6.20081,5.58827 7.16925,11.6564 0.7181,4.49962 1.4831,4.81601 6.53302,2.70182 9.41525,-3.94167 28.34067,-2.55942 39.36409,2.87505 11.99016,5.91112 22.30713,18.82812 27.54152,34.48255 5.50147,16.45315 5.27526,43.25487 -0.50888,60.29443 -4.68905,13.81363 -15.00051,31.06663 -18.56732,31.06663 -2.22734,0 -4.94015,3.65777 -4.94015,6.66092 0,2.77733 -8.3163,10.21042 -15.94522,14.25185 -3.06027,1.62118 -11.1916,4.61072 -18.06959,6.64339 -18.96885,5.60589 -17.00738,1.61365 -17.00738,34.61615 V 491.309 h 7.96849 c 5.08424,0 13.13725,-1.10424 22.24823,-3.05075 15.06089,-3.21762 19.12406,-3.41695 19.54549,-0.95888 0.30107,1.75618 -12.50134,10.69676 -20.74962,14.49056 -5.16005,2.37335 -5.57806,2.42229 -6.71879,0.78638 -2.40699,-3.45181 -3.39429,-4.25046 -5.25441,-4.25046 -2.66324,0 -5.03418,2.69252 -5.03418,5.71707 0,3.65816 -5.97978,8.93689 -12.23076,10.7969 -7.23102,2.1516 -17.2726,1.94457 -22.57202,-0.46537 z m 35.22484,-116.30497 c 4.90917,-1.08739 10.85906,-2.91484 13.22201,-4.06097 9.02759,-4.37881 19.01744,-18.50448 24.69663,-34.92107 6.33738,-18.31931 2.93293,-41.92343 -7.48802,-51.91638 -7.06399,-6.77392 -21.4217,-10.94655 -29.02025,-8.43384 -1.90171,0.62885 -5.06775,2.82789 -7.0356,4.88676 l -3.57793,3.74341 -1.125,33.58063 c -1.49954,44.76013 -1.46257,59.14827 0.15185,59.12025 0.68782,-0.0119 5.26716,-0.91136 10.17631,-1.99879 z m 524.05595,90.6188 c -2.8891,-2.51714 -5.2524,-5.05639 -5.2524,-5.64276 0,-0.58638 1.848,-2.77556 4.1064,-4.86482 l 4.1069,-3.79868 0.4146,-10.33162 c 0.2279,-5.6824 0.8424,-22.7893 1.3658,-38.01528 0.8003,-23.27847 1.2283,-28.1668 2.6908,-30.71989 2.4417,-4.26318 0.6592,-6.25172 -5.6037,-6.25172 -2.5738,0 -5.22,-0.54128 -5.8801,-1.2029 -2.0996,-2.10385 -1.3165,-5.53807 1.8775,-8.23083 2.4732,-2.0853 4.1311,-2.59513 8.4382,-2.59513 6.7427,0 9.2409,0.95632 13.8314,5.29393 2.9291,2.76827 3.6649,4.20349 3.6649,7.15208 v 3.6888 l 4.5359,-3.12713 c 3.1451,-2.16794 6.5583,-3.44249 11.1275,-4.15533 6.0316,-0.94082 6.8329,-0.84951 9.4293,1.07416 1.5611,1.15628 4.206,2.10235 5.8775,2.10235 3.8624,0 10.0181,5.40371 12.5404,11.00861 1.6036,3.56289 1.6578,4.38142 0.4419,6.65858 -1.2639,2.36586 -1.1893,2.75667 0.8404,4.40351 5.2472,4.25715 0.623,14.60679 -8.8904,19.89939 l -4.6144,2.56736 -2.3885,-2.77023 c -2.4888,-2.88682 -4.8626,-3.5198 -8.5936,-2.29141 -1.8654,0.61414 -2.5189,0.10778 -4.252,-3.29664 -5.0707,-9.95909 0.096,-17.47414 6.9557,-10.11658 2.3107,2.47807 3.5944,3.0072 7.2974,3.0072 2.6746,0 4.6868,-0.50731 4.9698,-1.25301 1.4887,-3.9204 -5.8778,-11.00446 -13.2978,-12.78803 -6.5336,-1.5704 -11.6666,-0.0144 -17.4435,5.28782 l -4.6221,4.2424 -0.2067,30.76272 c -0.1435,21.35025 0.1309,31.10461 0.8969,31.88019 0.6073,0.61462 6.235,2.03167 12.5056,3.14901 6.2704,1.11733 11.6958,2.33362 12.0559,2.70284 0.3606,0.36923 -1.5455,2.61901 -4.2358,4.99953 -4.6624,4.12635 -4.9954,4.25493 -7.1303,2.75663 -2.995,-2.10221 -3.8849,-2.00086 -8.2015,0.93438 -3.3437,2.27353 -4.6332,2.50377 -13.8959,2.48158 l -10.2097,-0.0244 z m -36.9076,0.18162 c -5.1848,-2.28034 -5.7638,-5.82174 -4.9969,-30.55467 0.611,-19.68494 0.8369,-21.67525 2.6532,-23.37068 2.5193,-2.35196 2.4928,-3.22789 -0.1731,-5.71664 -2.1083,-1.96762 -2.1445,-2.45545 -1.5479,-20.83896 0.3357,-10.35335 1.1304,-20.30396 1.7667,-22.1125 2.237,-6.36353 11.9938,-8.14455 15.4729,-2.82446 2.2877,3.4986 2.6799,14.82172 1.747,50.45511 -0.6024,23.0123 -1.196,32.66382 -2.0607,33.5305 -1.5213,1.52425 -1.5837,5.48123 -0.101,6.39938 1.821,1.12761 0.5364,11.26403 -1.7011,13.42402 -2.6617,2.56917 -7.3311,3.24851 -11.0591,1.6089 z m 768.4757,-42.54808 c -7.6403,-3.51231 -16.779,-15.28723 -32.7437,-42.18883 -4.252,-7.16499 -6.574,-12.0732 -6.1636,-13.03132 1.6506,-3.85814 -1.0606,-9.05499 -4.7243,-9.05499 -2.0095,0 -4.3439,-2.79388 -12.1051,-14.48603 -2.9093,-4.3837 -5.7706,-8.11521 -6.3575,-8.29222 -0.5868,-0.17705 -4.3009,3.68645 -8.2537,8.58556 -6.7115,8.31935 -7.1864,9.23082 -7.1968,13.80549 -0.02,9.00527 -1.0432,12.54138 -4.1376,14.3047 -3.5884,2.04494 -3.7023,5.23669 -0.3798,10.64144 4.6599,7.58007 2.931,18.52839 -3.9785,25.19643 -6.1717,5.95644 -12.3866,7.8204 -26.1881,7.85498 -11.0265,0.0275 -11.228,-0.0136 -14.2564,-2.91614 -1.6894,-1.61928 -3.0718,-3.67344 -3.0718,-4.56478 0,-1.89733 4.2419,-6.0625 12.1669,-11.94809 7.9197,-5.88166 8.8408,-8.3458 9.894,-26.48151 0.4865,-8.36453 0.8987,-17.0624 0.9167,-19.3286 0.022,-2.70043 0.8943,-5.39292 2.5336,-7.81316 3.1119,-4.59436 3.1075,-5.14149 -0.065,-8.08772 l -2.5664,-2.38338 1.567,-61.9734 c 0.8614,-34.08538 1.5662,-62.94423 1.5658,-64.13075 -4e-4,-1.48054 0.9115,-2.47587 2.9064,-3.17273 5.2653,-1.83903 4.8885,-8.46422 -0.5593,-9.83422 -4.728,-1.18892 -18.9628,0.44787 -26.7891,3.08026 -4.1879,1.40866 -7.9528,2.56118 -8.3661,2.56118 -0.4139,0 -1.6153,-1.6062 -2.6708,-3.56934 l -1.9184,-3.56934 2.9418,-2.36575 c 6.2433,-5.02162 27.6657,-17.86953 34.6405,-20.77564 13.5853,-5.66052 24.1621,-3.91285 26.077,4.30894 0.4375,1.87936 0.5042,33.30123 0.1483,69.82643 -0.356,36.52518 -0.3897,66.40947 -0.075,66.40947 1.0751,0 38.4852,-53.82297 45.0235,-64.77815 4.1869,-7.0147 22.3561,-25.06692 26.2034,-26.03439 4.2273,-1.06302 5.4825,0.99797 5.4759,8.98849 0,4.72437 -0.9751,10.71034 -2.8676,17.66999 -3.3628,12.3665 -5.1372,16.81846 -9.2839,23.29366 -2.7739,4.33053 -3.4126,4.77375 -6.8835,4.77375 -3.8925,0 -6.9704,2.0025 -6.9704,4.53526 0,0.76167 0.5336,2.55755 1.1853,3.99078 1.3895,3.05532 0.8831,4.07859 -8.8733,17.94758 l -6.2829,8.9315 1.8697,3.09738 c 6.7589,11.19823 27.3888,47.29168 30.0109,52.50776 2.5944,5.16111 3.0216,6.89117 2.3485,9.52286 -0.4518,1.76877 -0.6635,4.21552 -0.4704,5.43716 0.4579,2.89627 5.7272,7.30164 8.7336,7.30164 1.8017,0 3.7615,1.94631 8.3274,8.26988 7.2438,10.03163 9.4754,12.17915 17.4693,16.81012 5.6991,3.30176 6.2083,3.87785 6.2083,7.02155 0,5.08236 -2.586,5.96178 -17.5073,5.95313 -10,-0.006 -13.3077,-0.37585 -16.5071,-1.84689 z m -541.0329,-3.57171 c -15.0487,-5.37868 -31.7163,-27.58921 -31.7163,-42.26407 0,-4.23365 0.1522,-4.49671 2.2508,-3.88944 3.8077,1.10187 7.126,4.00462 9.8426,8.60988 l 2.5986,4.40637 6.5912,-0.26713 c 3.6884,-0.14954 6.867,0.18154 7.2191,0.7518 0.8793,1.42564 3.4892,1.27269 3.9941,-0.23405 0.2306,-0.68916 0.9038,-3.15144 1.4964,-5.4717 0.772,-3.02323 1.8491,-4.58754 3.8013,-5.5202 3.4236,-1.63619 4.2859,-6.97074 1.605,-9.93839 -1.6832,-1.86411 -1.6241,-2.60152 1.377,-17.19774 7.1657,-34.84702 21.2399,-102.62187 21.745,-104.71491 0.3176,-1.31635 1.3053,-2.25542 2.371,-2.25542 1.005,0 2.6826,-0.9471 3.7276,-2.1047 2.0006,-2.21495 2.1215,-4.6875 0.8778,-17.94347 -0.4417,-4.70344 -0.028,-9.38141 1.4863,-16.81914 4.4889,-22.04873 10.9966,-32.27872 17.0446,-26.79463 4.3824,3.97419 7.3338,14.61564 24.0484,86.71726 5.0485,21.77732 9.3287,39.75337 9.5118,39.94687 0.511,0.54004 1.5963,-3.93407 12.9689,-53.47933 12.0519,-52.50324 15.5716,-65.5745 19.1143,-70.97979 2.1525,-3.28335 2.9513,-3.77512 5.701,-3.50848 2.86,0.2774 3.5675,1.04997 6.6993,7.3138 3.1047,6.20944 3.5016,7.88969 3.5016,14.8173 0,5.32111 0.4141,8.07165 1.2987,8.62251 2.2207,1.38337 2.3076,1.79213 25.0943,117.98591 0.7469,3.80667 0.6089,4.19327 -2.0415,5.71717 -2.1244,1.2217 -2.8419,2.39077 -2.8419,4.62916 0,3.29918 0.88,4.13895 5.2848,5.04159 l 2.9583,0.60625 4.2116,21.03611 c 2.3169,11.5699 4.7546,22.05106 5.4176,23.29155 1.1249,2.10354 1.8667,2.25542 11.02,2.25542 8.605,0 10.0418,0.25174 11.6599,2.04311 1.7999,1.99276 1.7817,2.17315 -0.737,7.31801 -3.5505,7.25349 -11.8274,16.0347 -18.0365,19.13487 -4.0945,2.04432 -6.6265,2.57556 -12.221,2.56383 -8.1212,-0.017 -11.1346,-1.23545 -14.1522,-5.72186 -2.8176,-4.18968 -4.8639,-17.22754 -3.2583,-20.75936 0.9221,-2.02709 0.7496,-3.38102 -0.9294,-7.29293 -2.3663,-5.51372 -5.3005,-22.78503 -15.2045,-89.50707 -3.8874,-26.18788 -7.2204,-48.06542 -7.4065,-48.61675 -0.5982,-1.76951 -2.4364,6.16747 -11.2593,48.61675 -8.7593,42.14158 -8.9326,42.71182 -13.8787,45.6397 -2.2166,1.31226 -2.2922,6.42877 -0.1186,8.02139 0.894,0.65509 1.6258,2.1889 1.6258,3.40846 0,3.73228 -6.1195,30.46184 -7.6559,33.4411 -1.8839,3.6528 -5.3968,5.29972 -8.1529,3.82201 -2.7865,-1.49445 -4.3652,-7.11754 -24.2199,-86.27487 -6.6655,-26.57521 -12.4965,-49.29647 -12.957,-50.49175 -1.2224,-3.17121 -1.4852,-2.04781 -5.5859,23.88941 -2.0049,12.68047 -4.5309,27.11513 -5.614,32.077 -1.0829,4.96193 -2.5882,14.43467 -3.3462,21.05058 -1.7263,15.07549 -7.976,56.70385 -10.6101,70.66964 -2.8393,15.05499 -3.4556,16.60424 -7.344,18.45285 -4.0886,1.94392 -13.6249,2.01954 -18.8571,0.14952 z m 731.6155,0.0905 c -6.1698,-1.67166 -12.9118,-5.59844 -15.401,-8.97049 -1.5435,-2.09049 -2.169,-4.71447 -2.4494,-10.27467 -0.2069,-4.10693 -0.6143,-7.46719 -0.9052,-7.46719 -0.2908,0 -2.5264,1.84455 -4.9673,4.09895 -7.1225,6.57813 -12.1418,8.35572 -23.2976,8.25041 -12.8344,-0.12116 -19.1095,-2.51757 -27.0963,-10.34832 -6.3918,-6.26636 -10.6664,-14.08156 -13.4311,-24.55518 -3.0427,-11.52614 -4.343,-54.95918 -2.641,-88.22049 0.5976,-11.67999 0.9014,-13.27435 2.9099,-15.28669 2.6941,-2.69983 2.8037,-4.49306 0.5115,-8.38112 -2.0475,-3.47319 -1.292,-5.22924 3.7231,-8.65113 5.0841,-3.4689 12.9583,-3.17263 17.2259,0.64817 l 3.2434,2.90358 0.6825,13.38554 c 0.3757,7.36205 0.7528,26.69251 0.8384,42.95655 0.2116,40.16399 1.0198,51.28752 4.1901,57.66657 4.8251,9.70808 12.8958,12.03368 22.5361,6.4937 11.3246,-6.50757 15.9047,-17.2269 16.9872,-39.75671 l 0.6334,-13.18662 2.7967,-0.5605 c 5.7295,-1.14809 6.182,-7.9611 0.6572,-9.89084 l -3.0606,-1.06899 0.6254,-24.65786 c 0.3442,-13.56188 1.1015,-26.32046 1.6833,-28.35251 2.8897,-10.08973 18.2089,-12.90581 24.4146,-4.48794 2.0303,2.75439 2.0882,3.76459 1.8405,32.07705 -0.4146,47.30672 -1.9336,81.7348 -3.7283,84.47926 -1.9126,2.92472 -1.9284,5.47526 -0.049,7.96443 0.9345,1.23827 1.4801,4.33471 1.5003,8.51581 0.034,7.01349 1.8894,10.99978 9.5359,20.48749 6.6115,8.20414 7.0121,12.46708 1.3574,14.4422 -4.1003,1.43227 -15.1405,1.29871 -20.8656,-0.25246 z m -1285.25092,-8.4182 c -9.71572,-10.37373 -10.12637,-13.33356 -2.62719,-18.9367 4.99661,-3.73333 5.14752,-3.99202 5.75925,-9.87383 0.41897,-4.02823 3.62885,-106.63903 3.5771,-114.35036 -0.0117,-1.7472 -1.17315,-2.3459 -7.40718,-3.81848 -4.0663,-0.96057 -8.2306,-2.39661 -9.25403,-3.1912 -1.79052,-1.39023 -1.76636,-1.52613 0.64036,-3.60117 3.84074,-3.31141 16.37329,-8.81897 22.77311,-10.00793 7.20502,-1.3385 15.85976,-0.67763 17.90018,1.36679 0.91772,0.91952 2.02417,5.05645 2.70041,10.09646 l 1.14563,8.53859 3.00131,-2.50673 c 1.65071,-1.37869 5.47738,-3.6907 8.5037,-5.13774 4.67784,-2.23673 6.87986,-2.63604 14.69444,-2.66437 8.26616,-0.0299 9.40378,0.19381 11.29388,2.22204 1.15599,1.24049 3.2242,2.25542 4.59603,2.25542 6.00525,0 13.87145,5.47834 18.60511,12.95723 3.57443,5.64741 3.94382,13.91104 0.83228,18.61858 -1.09323,1.65401 -1.99066,4.0446 -1.99428,5.31245 -0.0155,5.41438 -6.67678,14.72656 -12.39588,17.3288 -6.18736,2.81533 -15.19354,2.575 -19.74962,-0.52707 -3.97998,-2.70979 -7.23576,-8.48607 -6.24349,-11.07699 0.71398,-1.86427 1.51678,-1.72646 8.9859,1.54232 7.17776,3.14127 9.5792,2.30848 12.88889,-4.46961 2.51733,-5.15539 2.56972,-5.57127 1.06811,-8.48078 -2.47629,-4.79809 -9.48077,-8.33902 -17.65488,-8.92504 -6.29783,-0.4515 -7.52409,-0.20563 -13.37833,2.68207 -3.82284,1.8857 -8.03019,4.98349 -10.34118,7.61414 l -3.89616,4.43497 -0.65513,15.82692 c -0.36032,8.70479 -0.65662,29.21441 -0.65845,45.5769 -0.004,32.34689 0.0906,32.9004 5.60265,32.9004 1.35397,0 4.09287,0.68288 6.08649,1.51751 2.47438,1.03588 5.13581,1.31664 8.38619,0.8846 4.56179,-0.60634 14.08006,0.55975 22.31539,2.73383 l 3.87731,1.02358 -3.67042,2.49907 c -3.95626,2.69362 -5.42856,2.96924 -10.12419,1.8952 -3.93373,-0.8998 -7.36812,1.76299 -8.32591,6.45521 -0.55403,2.71424 -1.31873,3.58314 -3.6715,4.17188 -3.92718,0.98269 -30.31216,2.87687 -40.07348,2.87687 h -7.71416 z m 862.69772,-0.50119 c -8.2119,-12.91411 -8.2839,-15.02609 -0.6549,-19.18641 l 5.0262,-2.74105 v -6.50288 c 0,-3.87706 0.6185,-7.70067 1.5312,-9.46933 1.2231,-2.3697 1.2931,-3.41211 0.3478,-5.18129 -1.2824,-2.40152 -1.2926,-17.32628 -0.047,-68.43678 0.3897,-15.98841 0.5485,-31.61481 0.3521,-34.7254 l -0.3563,-5.65562 -6.8982,-0.39056 c -8.852,-0.50116 -9.7608,-1.38233 -7.5113,-7.28477 2.9025,-7.61407 9.1004,-10.58445 22.0866,-10.58445 6.8577,0 8.7566,0.3713 11.5523,2.25882 5.2576,3.55031 7.701,8.9672 9.4879,21.03618 l 0.5546,3.74802 5.0058,-3.96444 c 6.3578,-5.03574 10.0399,-6.02517 22.4479,-6.03206 9.3847,-0.005 10.4977,0.21768 17.2328,3.4519 13.6694,6.56363 20.3082,15.7712 21.0441,29.18409 0.5411,9.87516 -0.9741,13.42216 -9.7097,22.73045 l -5.8899,6.27598 h -7.3512 c -6.0421,0 -8.3758,-0.50443 -13.1092,-2.83314 -6.4128,-3.15536 -8.3813,-5.63454 -6.8102,-8.57661 1.2915,-2.41809 2.3155,-2.77786 10.3586,-3.64092 6.6272,-0.71109 6.6479,-0.72309 8.7543,-5.08328 2.2779,-4.71518 2.0789,-6.7041 -1.2175,-12.16082 -1.5853,-2.62417 -2.5486,-3.20237 -5.1728,-3.10355 -1.7735,0.0666 -5.0508,-0.93193 -7.2838,-2.21939 l -4.0593,-2.34084 -4.682,2.93832 c -10.2001,6.40088 -15.0876,10.11176 -17.8441,13.54805 l -2.8823,3.59286 -0.9612,45.36751 c -0.5286,24.9521 -0.7455,45.71745 -0.4815,46.14521 0.2638,0.42777 2.1797,1.05015 4.2576,1.38305 2.0778,0.33292 4.595,1.56155 5.5938,2.73022 1.671,1.9554 1.9562,1.99757 3.5761,0.52876 3.4582,-3.13574 17.8945,-1.40294 24.0768,2.89 5.0771,3.5252 4.8511,3.83757 -8.4197,11.63793 l -10.0527,5.90907 -24.2728,0.01 -24.2729,0.01 -3.3464,-5.26265 z m 489.582,0.56476 c -5.234,-0.86895 -15.7372,-4.61709 -21.4311,-7.6479 -4.3221,-2.30035 -7.1344,-4.78615 -10.3951,-9.18702 -7.5394,-10.17596 -9.1904,-14.85056 -10.3565,-29.32589 -1.2296,-15.26445 -0.1552,-20.60138 4.2522,-21.1147 3.2929,-0.38351 4.4234,1.07274 5.7565,7.41439 1.4893,7.08506 4.7871,15.60954 7.7074,19.92119 1.3516,1.99549 2.4571,4.70359 2.4571,6.01806 0,3.70006 2.7436,5.85052 6.4144,5.02799 3.321,-0.74414 4.5551,-0.75953 23.599,-0.29435 13.8999,0.33955 16.4905,-0.41645 21.3813,-6.24083 3.7667,-4.48534 6.087,-13.0881 4.681,-17.35676 -2.2854,-6.93857 -8.7506,-10.82373 -26.0623,-15.66207 -10.0793,-2.81691 -11.885,-3.65746 -14.5681,-6.78171 -2.7623,-3.21585 -3.4123,-3.50059 -6.6186,-2.89791 -3.2563,0.61207 -3.8692,0.32005 -7.2887,-3.47217 -5.555,-6.16086 -6.7497,-9.92518 -7.3066,-23.01512 -0.3862,-9.08896 -0.1227,-12.86016 1.2266,-17.54211 2.7333,-9.48671 7.5026,-17.44005 15.1324,-25.23603 9.607,-9.81623 17.4136,-13.54707 29.5629,-14.12911 7.6627,-0.36707 9.3158,-0.12119 14.1775,2.10884 3.0265,1.38836 6.6987,3.8691 8.1601,5.51268 1.7516,1.9697 4.0062,3.20445 6.6144,3.62231 2.7808,0.44556 5.0668,1.78128 7.6932,4.49593 6.5545,6.77408 17.1986,27.25007 15.9126,30.6093 -0.5753,1.50058 -0.9684,1.47294 -4.403,-0.31 -2.0741,-1.07679 -6.4721,-4.28458 -9.7737,-7.12843 -6.8108,-5.86664 -16.9806,-11.38663 -24.1533,-13.10948 -2.6728,-0.64201 -6.3483,-2.01393 -8.168,-3.04871 -4.1341,-2.35082 -4.3607,-2.34392 -7.293,0.22265 -1.322,1.15732 -4.5467,3.19691 -7.1653,4.5325 -5.6209,2.86659 -10.1667,8.7127 -12.256,15.76229 -2.5029,8.44548 -2.078,10.48242 3.2614,15.63331 4.1306,3.98487 6.1497,5.01066 15.4424,7.84532 8.1094,2.47363 10.8432,3.74259 11.3223,5.25552 0.3867,1.22036 1.5145,1.99449 2.906,1.99449 4.1939,0 14.809,6.24871 21.734,12.79425 8.2637,7.81118 9.8719,12.01352 9.8719,25.7984 0,15.6468 -4.0464,24.90778 -15.3692,35.17455 -12.6032,11.42773 -29.9242,16.53442 -46.6581,13.75633 z M 494.79058,432.14131 c -4.38815,-2.68068 -6.28667,-7.60741 -6.50942,-16.89263 -0.29303,-12.21473 1.43926,-98.58244 2.26634,-112.99457 0.6612,-11.52087 1.01754,-13.39684 2.90364,-15.2867 2.43694,-2.44172 2.53698,-3.00864 1.16749,-6.61772 -0.7901,-2.08223 -0.60452,-2.96802 0.9477,-4.52321 2.66003,-2.66535 8.94412,-4.22824 12.59541,-3.13258 9.6343,2.89097 9.66277,2.98898 10.2223,35.17469 l 0.46183,26.56378 -2.61845,2.43014 c -3.13374,2.9084 -3.32267,5.38468 -0.61762,8.0951 1.89444,1.89813 1.9977,3.29828 1.94117,26.31317 -0.0884,35.9966 -1.20391,53.40201 -3.63531,56.72676 -4.33426,5.92667 -13.09814,7.82552 -19.12508,4.14377 z m 202.73973,0.50278 c -4.42866,-2.41018 -7.15535,-7.84212 -6.41998,-12.78955 0.34559,-2.32498 0.54386,-5.35496 0.44063,-6.73328 -0.10323,-1.3783 -0.0995,-21.67701 0.008,-45.10827 0.23445,-50.96986 1.42588,-83.98846 3.15141,-87.33486 3.78581,-7.34206 10.46223,-10.13305 17.65543,-7.38052 7.24229,2.77132 7.77808,4.64486 8.16636,28.55653 0.32098,19.76965 0.24785,20.70737 -1.9281,24.71435 -2.15295,3.9647 -2.18104,4.28844 -0.58377,6.731 1.47179,2.25066 1.67208,5.98826 1.63011,30.418 -0.0697,40.56947 -1.23546,60.98076 -3.67309,64.31485 -4.03262,5.51555 -12.77192,7.70035 -18.44725,4.61175 z m 840.80969,0.1275 c -12.6052,-4.10882 -26.6923,-18.20674 -34.2879,-34.31461 -5.8612,-12.42997 -7.4427,-21.03366 -7.4385,-40.46807 0,-20.61584 1.3611,-26.978 9.3089,-43.64817 6.3572,-13.33506 11.4173,-20.68169 19.3928,-28.15728 8.6145,-8.07424 14.0439,-10.62504 23.822,-11.19223 26.2219,-1.52092 45.7004,14.01921 52.8935,42.19926 4.6392,18.17618 5.1187,45.59008 1.1301,64.67677 -2.0568,9.84212 -3.2287,12.20828 -6.0487,12.20828 -2.133,0 -5.0346,3.0863 -5.0346,5.35519 0,0.92886 0.5363,2.54913 1.1915,3.60055 1,1.60402 0.7181,2.60261 -1.7508,6.20521 -7.8919,11.51661 -19.3004,20.02525 -30.454,22.71304 -8.0314,1.93531 -18.182,2.30252 -22.7243,0.82206 z m 22.352,-29.48226 c 9.3479,-4.78263 17.2105,-18.47015 19.2985,-33.59469 0.5951,-4.31266 1.0667,-13.33428 1.0475,-20.04812 -0.085,-29.87433 -7.8611,-45.89628 -23.0297,-47.45378 -11.75,-1.20644 -19.9022,4.01633 -25.6467,16.43151 -1.8444,3.98596 -3.6346,8.65593 -3.9782,10.37768 -0.4559,2.28505 -1.4154,3.40654 -3.5521,4.15285 -4.1463,1.44834 -5.3307,5.1409 -2.9353,9.15296 1.5315,2.56491 2.075,6.60087 2.9199,21.6956 1.177,21.01786 2.6703,26.70967 8.9332,34.04059 5.9015,6.90824 8.7305,8.25637 16.3104,7.77308 3.9176,-0.24978 8.1444,-1.25461 10.6325,-2.52768 z m 323.8776,28.9588 c -2.0322,-1.24166 -3.7587,-3.54934 -4.9045,-6.55548 -1.6129,-4.23236 -1.719,-7.812 -1.2072,-40.81277 0.5372,-34.66672 0.6477,-36.29162 2.6532,-39.0097 2.6431,-3.58133 2.6478,-6.25668 0.017,-9.82117 -2.0363,-2.75967 -2.0563,-3.27788 -1.0588,-27.35818 1.142,-27.58857 2.0482,-31.76153 7.5107,-34.60327 4.0683,-2.1166 10.2758,-2.07152 14.4611,0.10509 6.4111,3.33465 6.4904,4.03291 5.9323,52.22046 -0.4552,39.2949 -0.6634,43.44262 -2.3529,46.94175 -1.7638,3.65277 -1.77,3.98371 -0.1299,6.84745 1.3431,2.3451 1.7161,5.36956 1.6898,13.70388 -0.051,16.13592 -1.6058,30.82324 -3.6266,34.2507 -3.2637,5.53668 -13.1364,7.6642 -18.9844,4.09124 z m -960.37724,-1.22189 c -2.49235,-2.80273 -7.82106,-5.02323 -10.10348,-4.21014 -0.99367,0.35398 -2.59349,1.32063 -3.55513,2.14812 -1.55969,1.34206 -2.16291,1.31728 -5.58632,-0.22953 -5.02242,-2.26925 -17.64054,-13.29584 -25.32305,-22.12907 -3.7042,-4.25899 -7.85367,-10.61131 -10.55769,-16.16242 l -4.4549,-9.14555 0.0357,-19.92422 c 0.0334,-18.63056 0.22485,-20.67272 2.9483,-31.45189 5.00216,-19.79812 11.02134,-30.71194 24.95799,-45.25305 10.35858,-10.80787 15.33569,-13.33764 26.24119,-13.33769 6.5509,-3e-5 8.48173,0.46083 15.07521,3.59824 10.05746,4.78572 19.82881,13.91148 24.01223,22.42602 4.59269,9.34747 6.27202,22.06212 5.54511,41.98473 -0.31975,8.76361 -0.79645,16.14941 -1.05937,16.41284 -0.45269,0.45366 -13.26736,3.60359 -53.8376,13.23374 l -17.75771,4.21511 v 3.74286 c 0,10.38125 9.27409,23.01502 19.43659,26.47776 5.75489,1.96092 17.71446,2.18066 28.08406,0.51603 3.85168,-0.61831 9.31515,-1.06828 12.14118,-0.99995 4.92344,0.11908 5.18735,-0.011 6.31755,-3.11616 0.64868,-1.78228 1.72905,-4.36818 2.40084,-5.74648 1.51096,-3.09998 16.41825,-15.30212 17.71411,-14.49965 0.51892,0.32137 0.94351,3.86871 0.94351,7.88306 0,10.36134 -3.6792,17.42383 -14.95631,28.70953 -9.77644,9.78393 -16.0921,13.32985 -27.70844,15.55679 -9.396,1.8013 -8.69008,1.84633 -10.95358,-0.69903 z m -3.40646,-90.67207 c 11.2799,-1.43282 20.9443,-3.02085 21.47653,-3.52887 1.1649,-1.11214 -1.94145,-20.71108 -4.11289,-25.94948 -1.93494,-4.66782 -7.62311,-10.3892 -12.53541,-12.60871 -3.52586,-1.59304 -4.45706,-1.64501 -8.15589,-0.45482 -2.29659,0.73893 -6.48392,1.29016 -9.3052,1.22492 -6.57011,-0.15197 -9.38265,2.31235 -7.70919,6.75456 0.89508,2.37604 0.60441,3.92347 -1.79604,9.5615 -3.67068,8.62144 -5.87408,17.17978 -5.87408,22.81575 0,5.38241 0.47916,5.95566 4.43041,5.3001 1.69007,-0.28042 12.30185,-1.68216 23.58176,-3.11495 z m -579.02289,84.04419 c -10.07918,-12.88434 -8.45999,-21.96852 4.41027,-24.74363 l 3.13853,-0.67674 0.72697,-17.9572 c 0.66254,-16.36428 0.8945,-18.01043 2.61512,-18.55761 4.22815,-1.3446 4.74933,-7.41432 0.81772,-9.52265 -1.77304,-0.95075 -1.93129,-2.21669 -1.91144,-15.28563 l 0.0216,-14.24901 3.16399,-1.5036 c 5.38133,-2.55734 5.53974,-3.91195 1.46325,-12.51282 l -3.67008,-7.7434 v -31.27514 -31.27517 l -3.33626,-3.24 c -2.19981,-2.13633 -4.67047,-3.42051 -7.25313,-3.76998 -2.15431,-0.29151 -4.92984,-0.73488 -6.1679,-0.98535 -3.71471,-0.75148 -2.7573,-4.30639 2.53689,-9.41933 8.43317,-8.14452 28.05829,-13.05619 52.11789,-13.0438 33.29376,0.0171 57.61346,12.33198 67.62513,34.24353 5.43183,11.88797 6.86279,19.92856 6.92763,38.92514 0.0509,14.93592 -0.26981,18.84886 -2.15875,26.33757 -5.51421,21.86084 -16.96066,40.33459 -30.97968,49.99892 -9.86503,6.80073 -28.63072,12.95535 -44.29658,14.52807 -3.57657,0.35905 -6.83359,1.14954 -7.23783,1.75668 -1.18241,1.77566 -0.87435,18.57083 0.38455,20.96725 1.55221,2.95483 2.79188,3.65964 6.46826,3.67779 1.71405,0.008 4.32292,0.96619 5.79748,2.12839 2.03546,1.60425 3.33265,1.92463 5.38719,1.33052 3.34711,-0.96785 17.65293,-0.70968 21.70142,0.39162 2.93158,0.79747 2.827,0.90095 -5.51151,5.45522 -12.46914,6.81038 -17.84695,8.99115 -22.0293,8.93331 -2.71171,-0.0374 -4.36227,0.62078 -6.03807,2.40814 -3.02165,3.22273 -9.71601,5.13052 -24.39027,6.95078 -16.93532,2.10079 -16.89933,2.10483 -20.32309,-2.27187 z m 67.57812,-79.99879 c 1.22293,-0.85824 2.22347,-2.16152 2.22347,-2.89614 0,-2.85358 3.60947,-5.81551 7.45993,-6.12162 4.71212,-0.37464 5.76637,-1.79559 5.151,-6.94302 -0.35262,-2.9501 0.26622,-5.69079 2.3766,-10.52524 5.29845,-12.13742 6.44157,-18.23873 6.48342,-34.60396 0.0436,-17.06756 -1.87429,-25.68874 -7.42165,-33.36173 -3.35689,-4.64323 -11.68961,-9.92086 -17.05059,-10.79926 -5.32417,-0.87238 -7.7652,-2.12439 -8.4681,-4.34335 -1.35425,-4.27537 -8.76197,-3.29509 -10.54158,1.39503 -0.62305,1.64182 -1.98408,2.74977 -3.83327,3.1203 l -2.86731,0.57463 -0.65072,13.59581 c -0.35792,7.47775 -0.6508,30.85159 -0.6508,51.94189 v 38.34607 l 4.09483,0.69317 c 2.2521,0.38126 6.43413,0.40033 9.29348,0.0422 2.85928,-0.35795 6.30647,-0.20778 7.66034,0.3338 3.44101,1.37639 4.21359,1.32493 6.74095,-0.44876 z m 671.55627,9.73494 c -4.4289,-4.22164 -5.0082,-6.92767 -2.6794,-12.51264 1.8159,-4.35465 5.6179,-6.69171 10.856,-6.67299 5.6093,0.02 7.1629,1.13195 7.2317,5.17565 0.046,2.66849 0.5034,3.39306 2.3075,3.6498 1.8489,0.26311 2.2509,0.95242 2.2509,3.85927 0,2.68813 -0.8175,4.3583 -3.4016,6.94711 -2.873,2.87897 -4.1093,3.4082 -7.9611,3.4082 -3.9212,0 -5.1265,-0.53988 -8.604,-3.8544 z M 912.23956,249.86636 c -10.36932,-6.33584 -12.3385,-19.81789 -4.12416,-28.23629 3.96361,-4.0621 6.4391,-4.98053 13.42405,-4.98053 7.05703,0 11.15923,2.59001 14.84633,9.37376 6.52673,12.00833 -2.056,25.71131 -16.1001,25.70517 -3.10828,-10e-4 -6.15465,-0.70634 -8.04612,-1.86211 z M 500.72365,238.99269 c -4.15295,-2.04991 -8.6766,-8.11028 -9.55477,-12.80055 -1.57111,-8.39103 5.29939,-19.08584 13.18603,-20.52589 7.95205,-1.45203 17.6206,1.99885 14.46347,5.16216 -1.54941,1.55246 -1.55321,5.07397 -0.007,6.62309 0.66024,0.66157 2.68612,1.2029 4.50192,1.2029 3.17559,0 3.30144,0.15028 3.30144,3.94434 0,5.0865 -1.46369,8.87602 -4.8157,12.46819 -5.22472,5.59899 -14.27144,7.28418 -21.07525,3.92576 z m 202.1761,0.0427 c -4.90764,-2.42345 -7.21167,-5.9168 -7.21167,-10.93428 0,-2.37403 -0.4502,-4.59524 -1.00044,-4.93602 -3.17256,-1.9646 1.593,-12.25047 7.4605,-16.10259 3.19863,-2.09996 13.21737,-2.18096 17.15884,-0.13876 8.54342,4.42667 11.97076,16.38929 7.15523,24.97423 -4.38458,7.81667 -15.4187,11.15909 -23.56246,7.13746 z m 1186.23505,-1.12707 c -2.6461,-1.70357 -5.2817,-4.43943 -6.2531,-6.48965 -3.4036,-7.18682 -1.3975,-16.98575 4.632,-22.62302 4.8667,-4.55069 14.9439,-4.86713 21.3365,-0.67007 2.1211,1.39246 2.5082,2.28195 2.1145,4.86338 -0.6363,4.17698 -0.026,5.60916 2.8576,6.70764 4.901,1.86693 1.8553,13.39284 -4.792,18.13533 -2.292,1.6353 -4.9885,2.4096 -9.2767,2.66354 -5.3169,0.31491 -6.5957,0.003 -10.6188,-2.58715 z"
       id="path916" /></g></svg>
