<?xml version="1.0" encoding="UTF-8" standalone="no"?>
<!-- Created with Inkscape (http://www.inkscape.org/) -->

<svg
   id="svg2"
   version="1.1"
   inkscape:version="1.3.2 (091e20ef0f, 2023-11-25, custom)"
   width="2481"
   height="4503"
   sodipodi:docname="E16P07.svg"
   enable-background="new"
   xmlns:inkscape="http://www.inkscape.org/namespaces/inkscape"
   xmlns:sodipodi="http://sodipodi.sourceforge.net/DTD/sodipodi-0.dtd"
   xmlns:xlink="http://www.w3.org/1999/xlink"
   xmlns="http://www.w3.org/2000/svg"
   xmlns:svg="http://www.w3.org/2000/svg"
   xmlns:rdf="http://www.w3.org/1999/02/22-rdf-syntax-ns#"
   xmlns:cc="http://creativecommons.org/ns#"
   xmlns:dc="http://purl.org/dc/elements/1.1/">
  <metadata
     id="metadata8">
    <rdf:RDF>
      <cc:Work
         rdf:about="">
        <dc:format>image/svg+xml</dc:format>
        <dc:type
           rdf:resource="http://purl.org/dc/dcmitype/StillImage" />
        <dc:title />
      </cc:Work>
    </rdf:RDF>
  </metadata>
  <defs
     id="defs6">
    <filter
       inkscape:collect="always"
       style="color-interpolation-filters:sRGB"
       id="filter4155"
       x="0"
       y="0"
       width="1"
       height="1">
      <feBlend
         inkscape:collect="always"
         mode="multiply"
         in2="BackgroundImage"
         id="feBlend4157" />
    </filter>
  </defs>
  <sodipodi:namedview
     pagecolor="#ffffff"
     bordercolor="#666666"
     borderopacity="1"
     objecttolerance="10"
     gridtolerance="10"
     guidetolerance="10"
     inkscape:pageopacity="0"
     inkscape:pageshadow="2"
     inkscape:window-width="1920"
     inkscape:window-height="1008"
     id="namedview4"
     showgrid="false"
     inkscape:zoom="0.27826088"
     inkscape:cx="2053.828"
     inkscape:cy="3640.4686"
     inkscape:window-x="0"
     inkscape:window-y="0"
     inkscape:window-maximized="1"
     inkscape:current-layer="layer2"
     inkscape:object-nodes="true"
     showguides="true"
     inkscape:guide-bbox="true"
     inkscape:showpageshadow="2"
     inkscape:pagecheckerboard="0"
     inkscape:deskcolor="#d1d1d1">
    <sodipodi:guide
       position="3653.5365,4415.3377"
       orientation="0,1"
       id="guide4214"
       inkscape:locked="false" />
  </sodipodi:namedview>
  <g
     inkscape:groupmode="layer"
     id="layer1"
     inkscape:label="artwork"
     style="display:inline"
     transform="translate(0,1024)"
     sodipodi:insensitive="true">
    <image
       xlink:href="../gfx_Pepper-and-Carrot_by-David-Revoy_E16P07.png"
       width="2481.4438"
       height="4504.5391"
       preserveAspectRatio="none"
       style="image-rendering:optimizeQuality"
       id="image4223"
       x="0.54707891"
       y="-1023.3771" />
  </g>
  <g
     inkscape:groupmode="layer"
     id="layer3"
     inkscape:label="speechbubbles"
     style="display:inline"
     transform="translate(0,1024)">
    <path
       style="fill:#ffffff;stroke:none"
       d="m -2021.8885,646.19917 c 1.0628,-51.0158 26.5707,-103.09442 170.0526,-112.65988 143.4819,-9.56546 203.0004,48.89014 207.2517,90.34047 4.2513,41.45033 -82.9007,96.71744 -162.6129,97.78027 -79.7121,1.06282 -214.6914,-11.69112 -214.6914,-75.46086 z"
       id="path4279"
       inkscape:connector-curvature="0" />
    <path
       style="fill:#ffffff;stroke:none"
       d="m -1788.0661,898.08964 c 70.1467,-44.63882 88.2148,-124.35099 45.7016,-190.24639 -42.5132,-65.8954 -82.9007,-54.20428 -82.9007,-54.20428 l 35.0734,41.45033 c 0,0 97.7803,97.78027 2.1257,203.00034 z"
       id="path4281"
       inkscape:connector-curvature="0"
       sodipodi:nodetypes="csccc" />
  </g>
  <g
     inkscape:groupmode="layer"
     id="layer2"
     inkscape:label="text"
     style="display:inline;opacity:0.701;filter:url(#filter4155)"
     transform="translate(0,1024)">
    <text
       xml:space="preserve"
       style="font-style:normal;font-variant:normal;font-weight:500;font-stretch:normal;line-height:1.4em;font-family:Mikhak;-inkscape-font-specification:'Mikhak Medium';text-align:center;letter-spacing:0px;word-spacing:0px;text-anchor:middle;display:inline;opacity:0.855;fill:#483e37;fill-opacity:1;stroke:none"
       x="1238.9791"
       y="3271.4817"
       id="text4221"><tspan
         sodipodi:role="line"
         id="tspan4223"
         x="1238.9791"
         y="3271.4817"
         style="font-style:normal;font-variant:normal;font-weight:500;font-stretch:normal;font-size:49.7778px;font-family:Mikhak;-inkscape-font-specification:'Mikhak Medium';direction:rtl;fill:#483e37;line-height:1.4em">شما هم می‌تونید با مراجعه به www.patreon.com/davidrevoy حامی قسمت بعدی فلفل و هویج باشین!</tspan></text>
    <flowRoot
       xml:space="preserve"
       id="flowRoot3027-1"
       style="font-style:normal;font-variant:normal;font-weight:500;font-stretch:normal;line-height:1.4em;font-family:Mikhak;-inkscape-font-specification:'Mikhak Medium';text-align:center;letter-spacing:0px;word-spacing:0px;text-anchor:middle;display:inline;opacity:0.855;fill:#8e887f;fill-opacity:1;stroke:none"
       transform="matrix(1.2334095,0,0,1.2851851,-452.97982,-1114.4695)"><flowRegion
         id="flowRegion3029-1"
         style="font-style:normal;font-variant:normal;font-weight:500;font-stretch:normal;font-family:Mikhak;-inkscape-font-specification:'Mikhak Medium';line-height:1.4em"><rect
           id="rect3031-2"
           width="2475.8752"
           height="241.27675"
           x="135.21135"
           y="219.33444"
           style="text-align:center;text-anchor:middle;fill:#8e887f;fill-opacity:1;stroke-width:1;-inkscape-font-specification:'Mikhak Medium';font-family:Mikhak;font-weight:500;font-style:normal;font-stretch:normal;font-variant:normal;line-height:1.4em" /></flowRegion><flowPara
         id="flowPara3033-5"
         style="font-style:normal;font-variant:normal;font-weight:500;font-stretch:normal;font-size:12px;font-family:Mikhak;-inkscape-font-specification:'Mikhak Medium';direction:rtl;fill:#69645d;fill-opacity:1;line-height:1.4em"> </flowPara><flowPara
         style="font-style:normal;font-variant:normal;font-weight:500;font-stretch:normal;font-size:42.3606px;font-family:Mikhak;-inkscape-font-specification:'Mikhak Medium';text-align:center;direction:rtl;text-anchor:middle;fill:#69645d;fill-opacity:1;line-height:1.4em"
         id="flowPara4198-5" /><flowPara
         style="font-style:normal;font-variant:normal;font-weight:500;font-stretch:normal;font-size:42.3606px;font-family:Mikhak;-inkscape-font-specification:'Mikhak Medium';text-align:center;direction:rtl;text-anchor:middle;fill:#69645d;fill-opacity:1;line-height:1.4em"
         id="flowPara4255"> فلفل و هویج کاملا آزاد، متن‌باز و با حمایت خوانندگان منتشر می‌شود.</flowPara><flowPara
         style="font-style:normal;font-variant:normal;font-weight:500;font-stretch:normal;font-size:42.3606px;font-family:Mikhak;-inkscape-font-specification:'Mikhak Medium';text-align:center;direction:rtl;text-anchor:middle;fill:#69645d;fill-opacity:1;line-height:1.4em"
         id="flowPara391">این قسمت از وب کمیک با حمایت ۶۸۶ حامی تهیه شدہ است:</flowPara></flowRoot>
  </g>
</svg>
