<?xml version="1.0" encoding="UTF-8" standalone="no"?>
<!-- Created with Inkscape (http://www.inkscape.org/) -->

<svg
   id="svg2"
   version="1.1"
   inkscape:version="1.2.2 (732a01da63, 2022-12-09)"
   width="2481"
   height="3503"
   sodipodi:docname="E38P08.svg"
   xmlns:inkscape="http://www.inkscape.org/namespaces/inkscape"
   xmlns:sodipodi="http://sodipodi.sourceforge.net/DTD/sodipodi-0.dtd"
   xmlns:xlink="http://www.w3.org/1999/xlink"
   xmlns="http://www.w3.org/2000/svg"
   xmlns:svg="http://www.w3.org/2000/svg"
   xmlns:rdf="http://www.w3.org/1999/02/22-rdf-syntax-ns#"
   xmlns:cc="http://creativecommons.org/ns#"
   xmlns:dc="http://purl.org/dc/elements/1.1/">
  <metadata
     id="metadata8">
    <rdf:RDF>
      <cc:Work
         rdf:about="">
        <dc:format>image/svg+xml</dc:format>
        <dc:type
           rdf:resource="http://purl.org/dc/dcmitype/StillImage" />
        <dc:title />
      </cc:Work>
    </rdf:RDF>
  </metadata>
  <defs
     id="defs6">
    <filter
       style="color-interpolation-filters:sRGB"
       inkscape:label="Drop Shadow"
       id="filter5534"
       x="-0.019672177"
       y="-0.09021098"
       width="1.0507525"
       height="1.2327364">
      <feFlood
         flood-opacity="1"
         flood-color="rgb(0,0,0)"
         result="flood"
         id="feFlood5536" />
      <feComposite
         in="flood"
         in2="SourceGraphic"
         operator="in"
         result="composite1"
         id="feComposite5538" />
      <feGaussianBlur
         in="composite1"
         stdDeviation="1"
         result="blur"
         id="feGaussianBlur5540" />
      <feOffset
         dx="2.5"
         dy="2.5"
         result="offset"
         id="feOffset5542" />
      <feComposite
         in="SourceGraphic"
         in2="offset"
         operator="over"
         result="composite2"
         id="feComposite5544" />
    </filter>
  </defs>
  <sodipodi:namedview
     pagecolor="#ffffff"
     bordercolor="#666666"
     borderopacity="1"
     objecttolerance="10"
     gridtolerance="10"
     guidetolerance="10"
     inkscape:pageopacity="0"
     inkscape:pageshadow="2"
     inkscape:window-width="1920"
     inkscape:window-height="1057"
     id="namedview4"
     showgrid="false"
     inkscape:zoom="0.15896231"
     inkscape:cx="880.71193"
     inkscape:cy="2233.2338"
     inkscape:window-x="1358"
     inkscape:window-y="-8"
     inkscape:window-maximized="1"
     inkscape:current-layer="layer3"
     inkscape:showpageshadow="0"
     inkscape:pagecheckerboard="0"
     inkscape:deskcolor="#d1d1d1" />
  <g
     inkscape:groupmode="layer"
     id="layer2"
     inkscape:label="artwork"
     sodipodi:insensitive="true">
    <image
       xlink:href="../gfx_Pepper-and-Carrot_by-David-Revoy_E38P08.png"
       y="0"
       x="0"
       id="image10"
       height="3503"
       width="2481" />
  </g>
  <g
     inkscape:groupmode="layer"
     id="layer3"
     inkscape:label="speechbubbles">
    <path
       style="color:#000000;display:inline;overflow:visible;visibility:visible;fill:#ffffff;fill-opacity:1;fill-rule:nonzero;stroke:none;stroke-width:0.999994px;marker:none;enable-background:accumulate"
       d="m 1567.4037,126.02054 c -6.0944,16.10211 -40.4673,17.45228 -53.1208,14.17992 25.5066,18.0136 24.6174,29.20583 -10.0136,30.9433 54.6977,26.86926 9.5701,25.81881 1.2562,35.78535 68.0301,1.18702 31.2396,22.41868 17.0799,38.97383 91.9152,-38.00874 83.7462,-5.79467 64.7707,15.59556 26.4598,-19.97243 37.8819,-16.08149 25.0617,7.69105 26.7428,-30.50092 50.0067,-29.61535 42.7547,4.98284 13.9685,-23.64273 44.6275,-22.69518 43.5553,5.50315 17.8775,-27.92433 38.4113,-39.51872 80.2652,-13.10818 -18.2024,-20.55091 2.1295,-39.74491 47.2074,-25.54931 -3.7274,-10.97182 5.2485,-18.51422 25.5193,-22.99308 -26.9366,-6.62771 -31.901,-13.46423 18.1143,-20.82102 -38.0588,-0.71212 -73.5486,-2.17027 -28.8976,-27.25955 -14.0083,-0.60771 -47.2443,20.32843 -31.7485,-40.94064 -24.0879,19.61453 -49.7877,30.44 -82.0176,-10.64699 -15.2527,20.52654 -41.7081,30.68362 -53.2177,5.04463 -4.1366,10.92988 -21.2898,15.04107 -35.8517,15.53902 -5.631,-4.34143 -11.4389,-10.23828 -17.4995,-17.96451 -9.9057,16.22258 -24.7235,27.17923 -53.2177,5.04463 z"
       id="path3549-3-7-3"
       inkscape:connector-curvature="0"
       sodipodi:nodetypes="cccccccccccccccccccc" />
    <path
       style="fill:#ffffff;stroke:none;stroke-width:0.880454"
       d="m 1944.6882,142.97715 c -31.3259,1.13469 -62.7856,4.53408 -93.1174,13.37632 -18.0159,5.39009 -35.6934,13.32277 -50.3989,26.01145 -15.8808,13.01487 -30.3073,29.32412 -37.6474,49.66089 -6.3065,16.60861 -9.4783,34.73587 -8.4537,52.68705 1.5259,16.21906 8.8213,31.34287 19.0297,43.18393 15.7781,19.89665 37.3455,34.47048 61.0036,40.48409 23.7261,6.79123 48.3121,9.75951 72.8362,9.62533 23.7251,0.0182 47.4157,-1.59958 71.1291,-2.1765 43.8738,-1.73437 87.7865,-3.2158 131.5473,-7.15852 25.581,-3.95576 50.4731,-17.46899 66.4719,-39.74809 20.8144,-28.81576 25.192,-69.84729 12.1603,-103.40228 -8.6796,-23.79471 -25.9635,-43.8031 -47.4885,-54.54872 -23.2866,-12.34208 -49.1777,-17.09515 -74.7186,-20.33359 -37.0929,-4.83635 -74.4487,-7.00952 -111.7911,-7.79841 -3.5224,-0.0935 -7.0417,0.0327 -10.5625,0.13705 z"
       id="path3280-81"
       inkscape:connector-curvature="0"
       sodipodi:nodetypes="csssc" />
    <path
       style="fill:#ffffff;fill-rule:evenodd;stroke:none;stroke-width:0.999994px;stroke-linecap:butt;stroke-linejoin:miter;stroke-opacity:1"
       d="m 1494.7724,1761.5817 c -2.0098,19.7995 -7.7849,40.8599 -13.676,46.0561 -5.8913,5.1962 -27.304,11.7217 -20.9981,28.3069 3.1992,10.3066 9.5667,17.9873 6.2224,22.7116 -5.2605,7.4313 -37.3613,4.8901 -43.538,-0.9931 15.8001,12.3315 53.6391,21.8007 57.4553,4.2689 4.0515,-18.6121 -3.5146,-16.7814 -3.8648,-30.6214 4.7772,-16.6998 29.3635,-2.0213 46.0423,-62.5645 5.6455,-31.7624 -27.6431,-7.1645 -27.6431,-7.1645 z"
       id="path1085"
       inkscape:connector-curvature="0"
       sodipodi:nodetypes="cscscsccc" />
    <path
       style="fill:#ffffff;fill-rule:evenodd;stroke:none;stroke-width:0.999994px;stroke-linecap:butt;stroke-linejoin:miter;stroke-opacity:1"
       d="m 1495.3786,1734.9498 c -18.0459,0.2801 -36.706,1.3221 -53.3444,9.0006 -9.7719,4.5627 -15.6855,14.5599 -18.5456,24.5925 -3.5281,11.4528 -2.5055,24.999 5.2721,34.5297 7.2356,8.6642 18.4843,12.4439 29.2477,14.4028 21.537,4.2152 43.8942,7.1311 65.6759,2.9636 16.6466,-3.8013 32.3534,-13.1982 42.2615,-27.2742 3.8407,-7.6158 1.9494,-16.6482 -1.329,-24.1026 -8.3355,-19.7687 -29.0743,-33.1073 -50.369,-33.6622 -6.275,-0.5213 -12.5779,-0.4846 -18.8692,-0.4502 z"
       id="path1365"
       inkscape:connector-curvature="0" />
    <path
       style="display:inline;fill:#ffffff;fill-rule:evenodd;stroke:none;stroke-width:0.999999px;stroke-linecap:butt;stroke-linejoin:miter;stroke-opacity:1"
       d="m 1619.9228,212.68687 c -69.4628,4.13332 -55.0837,53.10639 -63.4888,67.67509 -5.8022,10.05679 -43.9552,-12.31757 -64.3802,34.17132 29.3302,-30.16987 62.9693,-8.16846 71.2923,-13.87627 28.5796,-19.59928 4.7199,-51.48808 42.3477,-51.57698 9.3659,-0.0222 14.229,-36.39316 14.229,-36.39316 z"
       id="path4186-80"
       inkscape:connector-curvature="0"
       sodipodi:nodetypes="cscssc" />
    <path
       style="display:inline;fill:#ffffff;stroke:none;stroke-width:0.969297"
       d="m 1909.9947,3010.9175 c -23.5176,0.6348 -47.0841,0.6022 -70.548,2.156 -22.2762,1.7386 -44.8327,5.6241 -64.3468,14.7851 -19.6155,9.6049 -34.8074,25.7503 -38.6222,44.1633 -2.8301,15.9681 7.7135,32.5278 24.6975,40.8344 15.5308,8.2533 34.093,11.4479 52.2068,13.7464 34.2792,4.8061 69.1681,8.5879 104.0187,6.3249 24.0053,-1.365 48.0051,-3.3712 71.6478,-7.051 17.4014,-2.9373 34.7071,-8.2783 48.1547,-17.882 19.3018,-14.1168 23.9655,-38.9835 11.8118,-57.3901 -6.1691,-9.5052 -16.7873,-16.6663 -28.5622,-21.4285 -23.2808,-9.2609 -48.787,-14.4581 -74.4708,-17.0595 -11.9468,-1.0395 -23.9782,-1.2934 -35.9873,-1.199 z"
       id="path3280-8-3"
       inkscape:connector-curvature="0"
       sodipodi:nodetypes="csssc" />
    <path
       style="color:#000000;display:inline;overflow:visible;visibility:visible;fill:#ffffff;fill-opacity:1;fill-rule:nonzero;stroke:none;stroke-width:0.999996px;marker:none;enable-background:accumulate"
       d="m 1987.2378,2924.0675 c 0.7412,22.4835 -1.1706,25.1374 -13.1235,28.9922 -11.9535,3.8545 -30.1843,5.9728 -40.9317,24.483 -10.7482,18.5098 -6.5114,24.1246 -7.239,30.7667 -32.209,25.2837 -36.1693,46.3274 -47.2797,51.4024 -11.1103,5.0752 31.07,7.4638 31.07,7.4638 0,0 5.0271,-18.3455 23.9431,-26.6396 18.9158,-8.2941 11.5753,-40.5593 16.9296,-54.1957 5.3544,-13.6364 30.4875,-17.8239 37.0686,-27.9385 6.5818,-10.1143 2.4588,-23.9852 -0.4374,-34.3343 z"
       id="path4538-7"
       inkscape:connector-curvature="0"
       sodipodi:nodetypes="ccscccsscc" />
    <path
       style="display:inline;fill:#ffffff;fill-rule:evenodd;stroke:none;stroke-width:1.1681px;stroke-linecap:butt;stroke-linejoin:miter;stroke-opacity:1"
       d="m 638.34782,2384.8964 c -26.40109,-1.78 -64.68653,10.9133 -42.48082,47.5442 -48.48316,-24.0046 -116.52467,-32.6228 -132.53359,7.3647 -2.69422,-48.9082 -48.30857,-37.3945 -75.12945,-25.6171 25.5257,-20.0798 1.70839,-34.6025 -23.42375,-35.0345 35.70358,-24.1613 13.85823,-49.566 -7.4551,-64.8211 52.47897,10.3254 39.27604,-13.0346 45.18201,-26.5938 45.51652,29.1792 77.90103,21.1225 102.93394,-7.7797 13.82976,14.9989 18.82961,46.6159 67.23272,-3.455 -17.20739,42.5824 6.59045,37.5364 44.78679,15.7674 -5.71478,14.4998 -41.23278,37.2528 19.43673,33.3715 -37.59672,14.6273 -45.09875,33.3043 1.45052,59.2534 z"
       id="path4584-8"
       inkscape:connector-curvature="0"
       sodipodi:nodetypes="cccccccccccc" />
    <path
       style="color:#000000;display:inline;overflow:visible;visibility:visible;fill:#ffffff;fill-opacity:1;fill-rule:nonzero;stroke:none;stroke-width:0.962637px;marker:none;enable-background:accumulate"
       d="m 546.66375,2464.7332 c -4.89855,17.6397 -32.52712,19.1194 -42.69796,15.5338 20.50204,19.7333 19.78728,31.9942 -8.04871,33.897 46.68149,35.5652 8.53398,30.1835 1.00972,39.201 36.65355,12.2568 24.50468,30.8331 0.97778,39.3721 42.12969,0.5216 31.9307,13.0397 15.98045,31.0534 18.6533,-11.7937 74.43677,-24.0711 57.4518,7.4543 27.02712,-26.9371 31.96886,-23.3058 41.74235,7.1541 8.16394,-26.2656 35.96254,-31.3208 46.59215,-2.9942 9.15671,-38.336 41.82894,-32.9388 61.27754,-14.3594 -10.91752,-13.1126 -3.47278,-34.7036 33.74899,-30.3371 -2.99601,-12.0201 1.71551,-27.1912 20.51211,-25.1879 -21.65135,-7.2601 -25.64157,-14.7499 14.56004,-22.8093 -30.59109,-0.7788 -59.11752,-2.3764 -23.22749,-29.8618 -11.25967,-0.6649 -37.97445,22.2695 -25.51902,-44.8471 -32.97712,19.7905 -67.62968,29.9078 -65.92479,-11.6634 -12.26001,22.4856 -33.52471,33.612 -42.77596,5.5262 -7.63691,26.2363 -30.8331,15.2501 -42.8831,-2.6569 -7.96205,17.7707 -19.87244,29.7734 -42.7759,5.5252 z"
       id="path3549-3-7-8"
       inkscape:connector-curvature="0"
       sodipodi:nodetypes="ccccccccccccccccccc" />
    <path
       style="color:#000000;display:inline;overflow:visible;visibility:visible;fill:#ffffff;fill-opacity:1;fill-rule:nonzero;stroke:none;stroke-width:1.07694px;marker:none;enable-background:accumulate"
       d="m 832.32216,2746.6022 c 4.77406,-11.8403 31.70039,-12.8331 41.61272,-10.4264 -19.98094,-13.2455 -19.28436,-21.4751 7.84411,-22.7529 -45.49495,-23.8718 -8.31707,-20.2595 -0.98399,-26.3127 -35.72198,-8.2268 -19.73959,-18.4652 -13.37984,-28.6574 -41.05891,-0.35 -27.6222,-16.6877 -29.35275,-29.6996 -3.4808,6.1058 -20.01713,24.6944 -21.0121,3.9972 -27.15806,19.7462 -59.86923,32.5013 -62.46661,-2.0547 -10.94244,17.3842 -21.85203,24.7315 -21.0121,3.9972 -27.11192,26.9675 -51.47576,18.4253 -86.2482,-2.786 14.09152,18.6226 2.71066,33.845 -31.31128,21.208 26.01445,13.8916 9.45198,22.5434 -6.42733,25.8366 21.10107,4.8735 24.98991,9.9003 -14.18999,15.31 29.81357,0.5232 57.615,1.5953 22.63713,20.0438 10.97354,0.4464 44.60325,-0.3898 15.60164,29.5186 18.86957,-14.4222 64.00206,-16.9191 44.16125,14.3153 37.73357,-32.3643 62.02944,-28.4635 71.04549,-9.6113 3.24056,-8.0371 16.67765,-11.0596 28.08474,-11.4262 4.41114,3.1925 8.96071,7.5286 13.7084,13.2097 7.7597,-11.9287 19.3674,-19.9849 41.68871,-3.7092 z"
       id="path3549-3-7"
       inkscape:connector-curvature="0"
       sodipodi:nodetypes="cccccccccccccccccccc" />
    <path
       style="color:#000000;display:inline;overflow:visible;visibility:visible;fill:#ffffff;fill-opacity:1;fill-rule:nonzero;stroke:none;stroke-width:1px;marker:none;enable-background:accumulate"
       d="m 1425.2177,1085.1328 c 80.0918,-82.1121 18.6409,-154.68778 -67.2831,-207.14725 -67.0115,-40.91276 -1.5003,-29.7247 -1.5003,-29.7247 l 14.7972,-9.58081 c 0,0 204.6945,151.5581 53.9862,246.45276 z"
       id="path3072-06-3"
       inkscape:connector-curvature="0"
       sodipodi:nodetypes="csccc" />
    <path
       style="color:#000000;display:inline;overflow:visible;visibility:visible;fill:#ffffff;fill-opacity:1;fill-rule:nonzero;stroke:none;stroke-width:0.999997px;marker:none;enable-background:accumulate"
       d="m 1106.5796,887.55968 c -7.2565,-28.63573 12.0941,-104.69914 160.8523,-98.43498 148.758,6.26381 172.9464,42.05845 176.5746,52.7969 3.6283,10.73837 35.0731,71.58902 -81.0308,87.6967 -116.1039,16.10759 -220.1136,-0.89493 -256.3961,-42.05862 z"
       id="path3525-9-36"
       inkscape:connector-curvature="0" />
    <path
       style="color:#000000;display:inline;overflow:visible;visibility:visible;fill:#ffffff;fill-opacity:1;fill-rule:nonzero;stroke:none;stroke-width:0.999999px;marker:none;enable-background:accumulate"
       d="m 1465.936,890.13421 c -8.9246,-26.999 14.8742,-98.71475 197.8273,-92.80874 182.953,5.90582 212.7018,39.65459 217.164,49.77924 4.4621,10.12456 43.1352,67.49731 -99.6574,82.68433 -142.793,15.18675 -270.7111,-0.84394 -315.3339,-39.65483 z"
       id="path3525-9-3-6-2-1"
       inkscape:connector-curvature="0" />
    <path
       style="color:#000000;display:inline;overflow:visible;visibility:visible;fill:#ffffff;fill-opacity:1;fill-rule:nonzero;stroke:none;stroke-width:1px;marker:none;enable-background:accumulate"
       d="M 1639.709 875.77344 C 1610.8517 876.61001 1581.3783 881.86449 1556.0407 896.31706 C 1534.7681 909.04617 1522.1333 934.0818 1523.1701 958.68697 C 1522.8704 967.15746 1525.6097 976.17138 1532.319 981.71684 C 1550.2568 1000.5014 1575.3599 1011.1055 1600.7671 1014.8495 C 1623.3658 1018.4261 1646.2378 1020.2605 1669.1094 1020.6465 C 1700.3082 1020.9488 1731.5668 1018.5736 1762.2983 1013.1446 C 1780.0092 1009.7781 1797.9618 1004.8763 1812.988 994.54972 C 1823.6773 987.0295 1832.2712 975.55156 1833.6914 962.2746 C 1835.6879 947.03626 1831.4223 931.10124 1822.3952 918.71083 C 1813.4831 907.64636 1800.0964 901.70444 1787.266 896.45114 C 1761.1131 886.31787 1733.1334 882.34852 1705.4427 879.00294 C 1683.6202 876.6234 1661.6555 875.68529 1639.709 875.77344 z "
       id="path3525-9-3-6-2-1-0"
       inkscape:connector-curvature="0" />
    <path
       style="color:#000000;display:inline;overflow:visible;visibility:visible;fill:#ffffff;fill-opacity:1;fill-rule:nonzero;stroke:none;stroke-width:1px;marker:none;enable-background:accumulate"
       d="m 1578.949,1099.4279 c -53.0613,-49.7817 -29.4916,-102.39863 19.7088,-140.05585 65.1289,-49.84897 36.059,-50.96714 36.059,-50.96714 l -49.0441,25.01022 c 0,0 -125.6001,91.47357 -6.7237,166.01277 z"
       id="path3072-6-2-7"
       inkscape:connector-curvature="0"
       sodipodi:nodetypes="csccc" />
    <path
       style="color:#000000;display:inline;overflow:visible;visibility:visible;fill:#ffffff;fill-opacity:1;fill-rule:nonzero;stroke:none;stroke-width:0.999997px;marker:none;enable-background:accumulate"
       d="m 2251.962,1084.6446 c 33.9016,-49.7817 18.8426,-102.39865 -12.5922,-140.05585 -41.6116,-49.84901 -23.0385,-50.96718 -23.0385,-50.96718 l 31.3349,25.01018 c 0,0 80.2475,91.47365 4.2958,166.01285 z"
       id="path3072-6-2-7-2"
       inkscape:connector-curvature="0"
       sodipodi:nodetypes="csccc" />
    <path
       style="color:#000000;display:inline;overflow:visible;visibility:visible;fill:#ffffff;fill-opacity:1;fill-rule:nonzero;stroke:none;stroke-width:1px;marker:none;enable-background:accumulate"
       d="m 1922.3816,936.72518 c -8.2549,-29.38379 13.7579,-107.4339 182.9805,-101.00618 169.2227,6.42741 196.7388,43.15714 200.8662,54.17591 4.1272,11.01897 39.8978,73.45916 -92.1784,89.98762 -132.0763,16.52805 -250.3945,-0.91844 -291.6683,-43.15735 z"
       id="path3525-9-3-6-2"
       inkscape:connector-curvature="0" />
    <path
       style="color:#000000;display:inline;overflow:visible;visibility:visible;fill:#ffffff;fill-opacity:1;fill-rule:nonzero;stroke:none;stroke-width:1px;marker:none;enable-background:accumulate"
       d="m 1531.9215,1700.5719 c -24.9326,-32.5361 -17.7903,-112.1846 154.2039,-108.0653 149.1685,3.5726 175.8137,33.1471 180.1695,43.7947 4.356,10.6475 39.925,70.397 -75.1009,92.9197 -115.0259,22.5228 -220.1985,10.9605 -259.2725,-28.6491 z"
       id="path3525"
       inkscape:connector-curvature="0"
       sodipodi:nodetypes="cscsc" />
    <path
       style="color:#000000;display:inline;overflow:visible;visibility:visible;fill:#ffffff;fill-opacity:1;fill-rule:nonzero;stroke:none;stroke-width:1px;marker:none;enable-background:accumulate"
       d="m 1608.4632,1651.2723 c 20.1241,-71.6069 -3.7079,-270.868 -119.0026,-400.0031 125.0458,85.3367 158.4871,339.0967 162.3667,382.4641 3.8796,43.3676 -43.3641,17.539 -43.3641,17.539 z"
       id="path4008-2"
       inkscape:connector-curvature="0"
       sodipodi:nodetypes="ccsc" />
    <path
       style="color:#000000;display:inline;overflow:visible;visibility:visible;fill:#ffffff;fill-opacity:1;fill-rule:nonzero;stroke:none;stroke-width:1px;marker:none;enable-background:accumulate"
       d="m 1653.3284,1553.762 c -15.1993,-15.1771 13.0288,-90.0591 170.3837,-84.2591 157.3549,5.7998 182.8632,36.6675 186.6774,45.9177 3.8142,9.2503 35.6783,52.8472 -87.1823,66.3877 -122.8608,13.5404 -248.6588,-5.8024 -269.8788,-28.0463 z"
       id="path3525-9-3-6"
       inkscape:connector-curvature="0"
       sodipodi:nodetypes="csssc" />
    <path
       style="color:#000000;display:inline;overflow:visible;visibility:visible;fill:#ffffff;fill-opacity:1;fill-rule:nonzero;stroke:none;stroke-width:1px;marker:none;enable-background:accumulate"
       d="m 1676.0256,1480.6912 c -5.3771,-17.9761 9.2031,-65.6473 120.3535,-61.4195 111.1503,4.2277 129.1685,26.7283 131.8627,33.4711 2.6942,6.7428 26.0952,44.9742 -60.6895,54.8444 -86.7848,9.87 -164.4796,-1.0036 -191.5267,-26.896 z"
       id="path3525-9-3-6-6"
       inkscape:connector-curvature="0" />
    <path
       style="color:#000000;display:inline;overflow:visible;visibility:visible;fill:#ffffff;fill-opacity:1;fill-rule:nonzero;stroke:none;stroke-width:0.999997px;marker:none;enable-background:accumulate"
       d="m 1778.1481,1508.2253 c -0.5272,-15.2702 94.1578,-85.7703 13.3509,-218.1116 49.7072,116.6017 -25.1629,190.162 -37.214,205.5192 33.8772,28.7674 1.3368,6.4849 23.8631,12.5924 z"
       id="path4024-3"
       inkscape:connector-curvature="0"
       sodipodi:nodetypes="cccc" />
    <path
       style="fill:#ffffff;fill-rule:evenodd;stroke:none;stroke-width:1px;stroke-linecap:butt;stroke-linejoin:miter;stroke-opacity:1"
       d="m 124.19278,372.67305 c 10.96974,15.35417 29.93138,19.58518 49.69826,-1.0377 -0.27588,17.28382 12.18867,19.89091 65.01357,1.20403 -30.3186,23.58768 -17.60126,25.49744 0,24.94744 -25.57067,30.55837 -3.76454,25.82146 5.80582,30.20009 -31.33824,18.45767 -27.23199,27.11855 -12.441,32.82589 -10.56624,11.18171 -26.60212,22.0271 -4.50706,29.76202 -17.27975,3.05101 -33.09297,1.67734 -25.3514,20.13339 -27.43813,-11.67655 -46.58736,-8.48147 -63.03442,-0.43808 -14.19041,-10.70024 -12.25189,-29.02364 -52.060874,-12.68568 22.046754,-18.10259 -0.137741,-22.37665 -17.608791,-28.89374 32.822675,-17.52421 7.199941,-23.62624 -18.246808,-29.76202 46.004602,-2.10738 32.929925,-21.53438 20.735045,-40.70432 21.540351,3.85058 41.243678,10.44234 51.997658,-25.55132 z"
       id="path4489"
       inkscape:connector-curvature="0"
       sodipodi:nodetypes="cccccccccccccc" />
    <path
       style="color:#000000;display:inline;overflow:visible;visibility:visible;fill:#ffffff;fill-opacity:1;fill-rule:nonzero;stroke:none;stroke-width:1px;marker:none;enable-background:accumulate"
       d="m 677.4423,2687.0412 c -9.52719,38.1772 -125.32681,100.137 -236.77661,73.3634 146.69734,41.456 230.8448,-34.6586 244.57651,-44.3624 13.73188,-9.7041 -7.7999,-29.001 -7.7999,-29.001 z"
       id="path4008"
       inkscape:connector-curvature="0"
       sodipodi:nodetypes="ccsc" />
    <path
       style="color:#000000;display:inline;overflow:visible;visibility:visible;fill:#ffffff;fill-opacity:1;fill-rule:nonzero;stroke:none;stroke-width:1.06903px;marker:none;enable-background:accumulate"
       d="M 145.49805 462.33398 C 129.24373 462.49599 112.40529 464.64299 98.085938 472.85938 C 82.396836 482.24952 73.334437 500.78923 73.950567 518.86873 C 73.906515 531.08749 73.479067 543.88068 78.662088 555.25921 C 83.514806 565.79513 92.482965 573.68624 101.65157 580.44708 C 116.47345 591.04863 134.74893 596.26011 152.88718 596.32773 C 167.81898 596.61294 182.84379 595.26825 197.36914 591.73047 C 209.28037 588.67675 221.15155 583.21672 229.03801 573.46234 C 237.38286 563.38586 242.28144 550.9084 245.34961 538.31055 C 248.6161 523.58902 247.78157 507.35582 240.08294 494.09057 C 231.00883 478.2201 214.04064 467.59528 196.06627 465.08121 C 179.39318 462.06951 162.37311 462.29574 145.49805 462.33398 z "
       id="path3565-4"
       inkscape:connector-curvature="0"
       sodipodi:nodetypes="cscsc" />
    <path
       style="color:#000000;display:inline;overflow:visible;visibility:visible;fill:#ffffff;fill-opacity:1;fill-rule:nonzero;stroke:none;stroke-width:0.999998px;marker:none;enable-background:accumulate"
       d="m 265.0009,600.67547 c -5.46768,2.83014 -11.06784,1.9649 -16.76611,-1.10172 -6.35682,-5.3756 -6.05248,-12.01158 -11.87217,-18.04123 -4.58151,-6.01767 -11.97484,-8.97812 -18.55999,-6.24228 -13.43615,3.52688 -27.11021,6.01164 -40.90801,5.4401 -13.12712,-0.31107 -28.21416,-3.718 -36.46697,-17.07489 -8.28721,-15.08736 -8.38533,-36.69372 0.77056,-51.27141 6.43335,-9.67814 21.93051,-9.47867 26.15659,2.78054 1.97734,8.0063 -0.77049,17.0243 3.28011,24.51384 5.311,12.54346 17.25695,18.96727 28.66235,19.21269 6.74453,1.1864 13.62024,2.15057 20.34467,0.11017 6.6518,-1.04265 13.25685,-5.1738 20.01803,-3.35968 8.5505,2.24193 9.04482,13.18402 10.2824,21.50234 1.32089,7.5416 9.28421,16.86911 16.46152,12.76586 8.35724,-5.1656 21.16696,-12.81517 28.9439,-24.66668 -7.31344,14.9393 -17.82945,26.56695 -30.34688,35.43235 z"
       id="path4496-9"
       inkscape:connector-curvature="0"
       inkscape:transform-center-x="20.385683"
       inkscape:transform-center-y="-25.185021"
       sodipodi:nodetypes="cccccccccccccccc" />
    <path
       style="color:#000000;display:inline;overflow:visible;visibility:visible;fill:#ffffff;fill-opacity:1;fill-rule:nonzero;stroke:none;stroke-width:1.12318px;marker:none;enable-background:accumulate"
       d="m 1896.9214,1393.7901 c -6.1999,-30.7215 10.3332,-112.3249 137.4314,-105.6045 127.0979,6.72 147.7643,45.1218 150.8642,56.6423 3.1,11.5205 29.9663,76.8034 -69.2322,94.0841 -99.1985,17.2806 -188.0637,-0.9603 -219.0634,-45.1219 z"
       id="path3525-9-3-6-2-1-0-3"
       inkscape:connector-curvature="0" />
    <path
       style="color:#000000;display:inline;overflow:visible;visibility:visible;fill:#ffffff;fill-opacity:1;fill-rule:nonzero;stroke:none;stroke-width:1px;marker:none;enable-background:accumulate"
       d="m 585.89248,2504.6733 c 23.9892,60.3273 -13.67244,120.8938 -108.14839,209.2922 95.37883,-59.1546 151.749,-145.9316 144.69278,-178.8893 -6.16139,-28.7781 -36.54439,-30.4029 -36.54439,-30.4029 z"
       id="path4008-7"
       inkscape:connector-curvature="0"
       sodipodi:nodetypes="ccsc" />
    <path
       style="color:#000000;display:inline;overflow:visible;visibility:visible;fill:#ffffff;fill-opacity:1;fill-rule:nonzero;stroke:none;stroke-width:0.999998px;marker:none;enable-background:accumulate"
       d="m 468.5436,2394.2004 c -40.31312,54.8854 -75.72847,183.1138 -37.91807,292.6003 -61.60457,-144.6628 4.22365,-294.0375 29.7506,-309.3827 26.46987,-15.9121 8.16747,16.7824 8.16747,16.7824 z"
       id="path4008-9"
       inkscape:connector-curvature="0"
       sodipodi:nodetypes="ccsc" />
    <path
       style="color:#000000;display:inline;overflow:visible;visibility:visible;fill:#ffffff;fill-opacity:1;fill-rule:nonzero;stroke:none;stroke-width:1px;marker:none;enable-background:accumulate"
       d="m 2047.3699,1369.6591 c -26.5396,-37.1566 -31.1925,-95.0702 55.8017,-139.0438 -67.3517,47.4021 -55.1996,91.8111 -25.7778,124.8849 25.3992,28.5524 35.2261,42.7019 35.2261,42.7019 z"
       id="path4440-3"
       inkscape:connector-curvature="0"
       sodipodi:nodetypes="ccscc" />
  </g>
  <g
     inkscape:groupmode="layer"
     id="layer1"
     inkscape:label="txt">
    <text
       id="text4178-0-2-1-1"
       y="442.06793"
       x="156.98526"
       style="font-style:normal;font-variant:normal;font-weight:normal;font-stretch:normal;font-size:9.2552px;line-height:0%;font-family:Lavi;-inkscape-font-specification:Lavi;text-align:center;letter-spacing:0px;word-spacing:0px;text-anchor:middle;fill:#000000;fill-opacity:1;stroke:none;stroke-width:1"
       xml:space="preserve"><tspan
         y="442.06793"
         x="161.88722"
         style="font-weight:bold;font-size:31.3726px;line-height:1.25;stroke-width:1"
         sodipodi:role="line"
         id="tspan10508-3">PAKALA ! </tspan></text>
    <text
       id="text4178-0-2-1-19"
       y="524.56573"
       x="161.67639"
       style="font-style:normal;font-variant:normal;font-weight:normal;font-stretch:normal;font-size:9.97755px;line-height:0%;font-family:Lavi;-inkscape-font-specification:Lavi;text-align:center;letter-spacing:0px;word-spacing:0px;text-anchor:middle;fill:#000000;fill-opacity:1;stroke:none;stroke-width:1"
       xml:space="preserve"><tspan
         y="524.56573"
         x="161.67639"
         style="font-weight:normal;font-size:33.8212px;line-height:1.25;stroke-width:1"
         sodipodi:role="line"
         id="tspan10508-8">ike, ike,</tspan><tspan
         y="566.84222"
         x="161.67639"
         style="font-weight:normal;font-size:33.8212px;line-height:1.25;stroke-width:1"
         sodipodi:role="line"
         id="tspan12091">ike!</tspan></text>
    <text
       id="text4178-0"
       y="205.2328"
       x="1675.7623"
       style="font-style:normal;font-variant:normal;font-weight:normal;font-stretch:normal;font-size:13.8279px;line-height:0%;font-family:Lavi;-inkscape-font-specification:Lavi;text-align:center;letter-spacing:0px;word-spacing:0px;text-anchor:middle;fill:#000000;fill-opacity:1;stroke:none;stroke-width:1"
       xml:space="preserve"><tspan
         y="205.2328"
         x="1683.0862"
         style="font-style:normal;font-variant:normal;font-weight:bold;font-stretch:normal;font-size:46.8727px;line-height:1.25;font-family:Lavi;-inkscape-font-specification:'Lavi Bold';stroke-width:1"
         sodipodi:role="line"
         id="tspan4245-6-6">aaa aa aa! </tspan></text>
    <text
       id="text4178-0-2"
       y="221.75945"
       x="1983.0238"
       style="font-style:normal;font-variant:normal;font-weight:normal;font-stretch:normal;line-height:0%;font-family:Lavi;-inkscape-font-specification:Lavi;text-align:center;letter-spacing:0px;word-spacing:0px;text-anchor:middle;fill:#000000;fill-opacity:1;stroke:none"
       xml:space="preserve"><tspan
         y="221.75945"
         x="1983.0238"
         style="font-size:40.6767px;line-height:1.25"
         sodipodi:role="line"
         id="tspan690">o lukin e ona! </tspan><tspan
         y="272.60532"
         x="1983.0238"
         style="font-size:40.6767px;line-height:1.25"
         sodipodi:role="line"
         id="tspan485">kalama li ike la </tspan><tspan
         y="323.4512"
         x="1983.0238"
         style="font-size:40.6767px;line-height:1.25"
         sodipodi:role="line"
         id="tspan487">ona li pana e telo.</tspan></text>
    <text
       xml:space="preserve"
       style="font-style:normal;font-variant:normal;font-weight:normal;font-stretch:normal;font-size:10.42px;line-height:0%;font-family:Lavi;-inkscape-font-specification:Lavi;text-align:center;letter-spacing:0px;word-spacing:0px;text-anchor:middle;fill:#000000;fill-opacity:1;stroke:#000000;stroke-width:3.824;stroke-miterlimit:4;stroke-dasharray:none;stroke-opacity:1"
       x="1657.3848"
       y="845.25244"
       id="text4246-6-5-6-8-2"
       transform="matrix(0.96003343,0,-0.38131292,1.0416304,0,0)"><tspan
         sodipodi:role="line"
         style="font-size:55.1766px;line-height:1.25;fill:#000000;fill-opacity:1;stroke:#000000;stroke-width:3.824;stroke-miterlimit:4;stroke-dasharray:none;stroke-opacity:1"
         x="1657.3848"
         y="845.25244"
         id="tspan4252-7-3-1-7-6">aaa aa a!</tspan></text>
    <text
       xml:space="preserve"
       style="font-style:normal;font-variant:normal;font-weight:normal;font-stretch:normal;font-size:9.34107px;line-height:0%;font-family:Lavi;-inkscape-font-specification:Lavi;text-align:center;letter-spacing:0px;word-spacing:0px;text-anchor:middle;fill:#000000;fill-opacity:1;stroke:#000000;stroke-width:3.399;stroke-miterlimit:4;stroke-dasharray:none;stroke-opacity:1"
       x="1861.427"
       y="856.27032"
       id="text4246-6-5-6-0-0-7"
       transform="matrix(0.96879238,0,-0.13947748,1.0322129,0,0)"><tspan
         sodipodi:role="line"
         style="font-size:51.342px;line-height:1.25;fill:#000000;fill-opacity:1;stroke:#000000;stroke-width:3.399;stroke-miterlimit:4;stroke-dasharray:none;stroke-opacity:1"
         x="1861.427"
         y="856.27032"
         id="tspan4252-7-3-1-2-9-9">A A A A!</tspan></text>
    <text
       id="text4178-0-2-1"
       y="950.43658"
       x="1683.7474"
       style="font-style:normal;font-variant:normal;font-weight:normal;font-stretch:normal;font-size:9.2552px;line-height:0%;font-family:Lavi;-inkscape-font-specification:Lavi;text-align:center;letter-spacing:0px;word-spacing:0px;text-anchor:middle;fill:#000000;fill-opacity:1;stroke:none;stroke-width:1"
       xml:space="preserve"><tspan
         y="950.43658"
         x="1683.7474"
         style="font-weight:normal;font-size:31.3726px;line-height:1.25;stroke-width:1"
         sodipodi:role="line"
         id="tspan10508">kin la,</tspan><tspan
         y="989.65234"
         x="1683.7474"
         style="font-weight:bold;font-size:31.3726px;line-height:1.25;stroke-width:1"
         sodipodi:role="line"
         id="tspan844">telo ale li laso!</tspan></text>
    <text
       xml:space="preserve"
       style="font-style:normal;font-variant:normal;font-weight:normal;font-stretch:normal;font-size:8.91093px;line-height:0%;font-family:Lavi;-inkscape-font-specification:Lavi;text-align:center;letter-spacing:0px;word-spacing:0px;text-anchor:middle;fill:#000000;fill-opacity:1;stroke:#000000;stroke-width:3.399;stroke-miterlimit:4;stroke-dasharray:none;stroke-opacity:1"
       x="2345.4421"
       y="885.18958"
       id="text4246-6-5-6-0-0"
       transform="matrix(0.95442151,0,-0.13740852,1.0477551,0,0)"><tspan
         sodipodi:role="line"
         style="font-size:48.9779px;line-height:1.25;fill:#000000;fill-opacity:1;stroke:#000000;stroke-width:3.399;stroke-miterlimit:4;stroke-dasharray:none;stroke-opacity:1"
         x="2345.4421"
         y="885.18958"
         id="tspan4252-7-3-1-2-9">AA A A A!</tspan></text>
    <text
       id="text4178-0-2-1-7"
       y="1338.3706"
       x="2041.3604"
       style="font-style:normal;font-variant:normal;font-weight:normal;font-stretch:normal;font-size:9.2552px;line-height:0%;font-family:Lavi;-inkscape-font-specification:Lavi;text-align:center;letter-spacing:0px;word-spacing:0px;text-anchor:middle;fill:#000000;fill-opacity:1;stroke:none;stroke-width:1"
       xml:space="preserve"><tspan
         y="1338.3706"
         x="2041.3604"
         style="font-weight:normal;font-size:31.3726px;line-height:1.25;stroke-width:1"
         sodipodi:role="line"
         id="tspan855">sina la telo ni li </tspan><tspan
         y="1377.5863"
         x="2041.3604"
         style="font-weight:normal;font-size:31.3726px;line-height:1.25;stroke-width:1"
         sodipodi:role="line"
         id="tspan494">ken ala ken pona </tspan><tspan
         y="1416.8021"
         x="2041.3604"
         style="font-weight:normal;font-size:31.3726px;line-height:1.25;stroke-width:1"
         sodipodi:role="line"
         id="tspan496">e sijelo?</tspan></text>
    <text
       id="text4178-0-2-1-7-8"
       y="1471.0532"
       x="1807.2041"
       style="font-style:normal;font-variant:normal;font-weight:normal;font-stretch:normal;font-size:9.2552px;line-height:0%;font-family:Lavi;-inkscape-font-specification:Lavi;text-align:center;letter-spacing:0px;word-spacing:0px;text-anchor:middle;fill:#000000;fill-opacity:1;stroke:none;stroke-width:1"
       xml:space="preserve"><tspan
         y="1471.0532"
         x="1807.2041"
         style="font-weight:normal;font-size:31.3726px;line-height:1.25;stroke-width:1"
         sodipodi:role="line"
         id="tspan11379-3">a, jaki!</tspan></text>
    <text
       xml:space="preserve"
       style="font-style:normal;font-variant:normal;font-weight:normal;font-stretch:normal;line-height:0%;font-family:Lavi;-inkscape-font-specification:Lavi;text-align:center;letter-spacing:0px;word-spacing:0px;text-anchor:middle;fill:#000000;fill-opacity:1;stroke:#000000;stroke-width:3.71961;stroke-miterlimit:4;stroke-dasharray:none;stroke-opacity:1"
       x="2084.0078"
       y="1513.5232"
       id="text4246-6-5-6-0"
       transform="matrix(0.98303641,0.00256037,-0.14417769,1.0168808,0,0)"><tspan
         sodipodi:role="line"
         style="font-size:42.3038px;line-height:1.25;fill:#000000;fill-opacity:1;stroke:#000000;stroke-width:3.71961;stroke-miterlimit:4;stroke-dasharray:none;stroke-opacity:1"
         x="2084.0078"
         y="1513.5232"
         id="tspan4252-7-3-1-2">AA A A A!</tspan></text>
    <text
       xml:space="preserve"
       style="font-style:normal;font-variant:normal;font-weight:normal;font-stretch:normal;line-height:0%;font-family:Lavi;-inkscape-font-specification:Lavi;text-align:center;letter-spacing:0px;word-spacing:0px;text-anchor:middle;fill:#000000;fill-opacity:1;stroke:#000000;stroke-width:4.396;stroke-miterlimit:4;stroke-dasharray:none;stroke-opacity:1"
       x="2029.9567"
       y="1586.3424"
       id="text4246-6-5-6"
       transform="matrix(0.96222298,0.01896228,-0.15900417,1.0361267,0,0)"><tspan
         sodipodi:role="line"
         style="font-size:49.9966px;line-height:1.25;fill:#000000;fill-opacity:1;stroke:#000000;stroke-width:4.396;stroke-miterlimit:4;stroke-dasharray:none;stroke-opacity:1"
         x="2029.9567"
         y="1586.3424"
         id="tspan4252-7-3-1">AAA AA AA!</tspan></text>
    <text
       xml:space="preserve"
       style="font-style:normal;font-variant:normal;font-weight:normal;font-stretch:normal;font-size:12.1417px;line-height:0%;font-family:Lavi;-inkscape-font-specification:Lavi;text-align:center;letter-spacing:0px;word-spacing:0px;text-anchor:middle;fill:#000000;fill-opacity:1;stroke:none;stroke-width:1"
       x="1466.2289"
       y="1818.7811"
       id="text4246-3-7-7-6-7-2-9-6-1-4-3-1"
       transform="scale(1.0184904,0.98184529)"><tspan
         sodipodi:role="line"
         style="font-style:normal;font-variant:normal;font-weight:bold;font-stretch:normal;font-size:45.5315px;line-height:1.2;font-family:Lavi;-inkscape-font-specification:'Lavi Bold';stroke-width:1"
         x="1466.2289"
         y="1818.7811"
         id="tspan1249-3">...</tspan></text>
    <text
       xml:space="preserve"
       style="font-style:normal;font-variant:normal;font-weight:normal;font-stretch:normal;font-size:12.7985px;line-height:0%;font-family:Lavi;-inkscape-font-specification:Lavi;text-align:center;letter-spacing:0px;word-spacing:0px;text-anchor:middle;fill:#000000;fill-opacity:1;stroke:none;stroke-width:1.95097;stroke-miterlimit:4;stroke-dasharray:none"
       x="566.53271"
       y="2088.8257"
       id="text4246-6"
       transform="scale(0.87866752,1.1380869)"><tspan
         sodipodi:role="line"
         style="font-style:normal;font-variant:normal;font-weight:normal;font-stretch:normal;font-size:47.9945px;line-height:1.2;font-family:Lavi;-inkscape-font-specification:Lavi;stroke:#000000;stroke-width:1.95097;stroke-miterlimit:4;stroke-dasharray:none;stroke-opacity:1"
         x="566.53271"
         y="2088.8257"
         id="tspan4252-1">O AWEN!</tspan></text>
    <text
       id="text4178-0-1"
       y="2535.2842"
       x="633.75696"
       style="font-style:normal;font-variant:normal;font-weight:normal;font-stretch:normal;font-size:10.2299px;line-height:0%;font-family:Lavi;-inkscape-font-specification:Lavi;text-align:center;letter-spacing:0px;word-spacing:0px;text-anchor:middle;fill:#000000;fill-opacity:1;stroke:none;stroke-width:1"
       xml:space="preserve"><tspan
         y="2535.2842"
         x="633.75696"
         style="font-size:34.6764px;line-height:1.25;stroke-width:1"
         sodipodi:role="line"
         id="tspan864"><tspan
   style="font-weight:bold"
   id="tspan866">o kama sin!</tspan> </tspan><tspan
         y="2578.6296"
         x="633.75696"
         style="font-size:34.6764px;line-height:1.25;stroke-width:1"
         sodipodi:role="line"
         id="tspan596">mi musi taso!</tspan></text>
    <text
       id="text4178-0-1-91"
       y="2705.5076"
       x="754.0379"
       style="font-style:normal;font-variant:normal;font-weight:normal;font-stretch:normal;font-size:12.3717px;line-height:0%;font-family:Lavi;-inkscape-font-specification:Lavi;text-align:center;letter-spacing:0px;word-spacing:0px;text-anchor:middle;fill:#000000;fill-opacity:1;stroke:none;stroke-width:1"
       xml:space="preserve"><tspan
         y="2705.5076"
         x="754.0379"
         style="font-size:41.9363px;line-height:1.25;stroke-width:1"
         sodipodi:role="line"
         id="tspan14393-1">jan pali o!</tspan></text>
    <text
       id="text4178-0-0"
       y="3086.6243"
       x="1901.7178"
       style="font-style:normal;font-variant:normal;font-weight:normal;font-stretch:normal;line-height:0%;font-family:Lavi;-inkscape-font-specification:Lavi;text-align:center;letter-spacing:0px;word-spacing:0px;text-anchor:middle;fill:#000000;fill-opacity:1;stroke:none"
       xml:space="preserve"><tspan
         y="3086.6243"
         x="1901.7178"
         style="font-size:40.6767px;line-height:1.25"
         sodipodi:role="line"
         id="tspan14513">kama pona.</tspan></text>
    <text
       xml:space="preserve"
       style="font-style:normal;font-variant:normal;font-weight:normal;font-stretch:normal;line-height:0%;font-family:Lavi;-inkscape-font-specification:Lavi;text-align:center;letter-spacing:0px;word-spacing:0px;text-anchor:middle;fill:#ffffff;fill-opacity:1;stroke:#ffffff;stroke-width:3.822;stroke-miterlimit:4;stroke-dasharray:none;stroke-opacity:1;filter:url(#filter5534)"
       x="2028.7821"
       y="2443.6147"
       id="text4213-0"
       transform="matrix(0.75304346,0,-0.11971288,1.3279446,1.5361129,119.83759)"><tspan
         sodipodi:role="line"
         id="tspan4215"
         x="2028.7821"
         y="2443.6147"
         style="font-size:63.5518px;line-height:1.25;fill:#ffffff;stroke:#ffffff;stroke-width:3.822;stroke-miterlimit:4;stroke-dasharray:none">- PINI -</tspan></text>
  </g>
</svg>
