<?xml version="1.0" encoding="UTF-8" standalone="no"?>
<svg
   xmlns:dc="http://purl.org/dc/elements/1.1/"
   xmlns:cc="http://creativecommons.org/ns#"
   xmlns:rdf="http://www.w3.org/1999/02/22-rdf-syntax-ns#"
   xmlns:svg="http://www.w3.org/2000/svg"
   xmlns="http://www.w3.org/2000/svg"
   xmlns:xlink="http://www.w3.org/1999/xlink"
   xmlns:sodipodi="http://sodipodi.sourceforge.net/DTD/sodipodi-0.dtd"
   xmlns:inkscape="http://www.inkscape.org/namespaces/inkscape"
   id="svg2"
   version="1.1"
   inkscape:version="0.92.4 (5da689c313, 2019-01-14)"
   width="2481"
   height="3503"
   sodipodi:docname="E33P03.svg">
  <metadata
     id="metadata8">
    <rdf:RDF>
      <cc:Work
         rdf:about="">
        <dc:format>image/svg+xml</dc:format>
        <dc:type
           rdf:resource="http://purl.org/dc/dcmitype/StillImage" />
        <dc:title />
      </cc:Work>
    </rdf:RDF>
  </metadata>
  <defs
     id="defs6">
    <filter
       style="color-interpolation-filters:sRGB"
       id="filter4375-4-1-1-1-9-5-8-8-3-3-3"
       inkscape:label="magic-Fx-blue_background"
       height="1.38"
       width="1.22"
       x="-0.14">
      <feFlood
         id="feFlood4377-7-9-0-8-1-7-3-1-6-61-6"
         flood-opacity="1"
         flood-color="rgb(50,161,179)"
         result="flood"
         radius="5.0999999999999996" />
      <feComposite
         id="feComposite4379-3-8-8-2-77-4-1-0-7-2-7"
         in2="SourceGraphic"
         in="flood"
         operator="in"
         result="composite1"
         baseFrequency="0.053999999999999999 0.053999999999999999" />
      <feMorphology
         id="feMorphology4393-1-0-49-8-9-3-0-1-5-9-5"
         operator="dilate"
         radius="3.5152451489568604"
         result="result3" />
      <feComposite
         id="feComposite4385-9-5-7-0-8-8-7-5-3-3-3"
         in2="result3"
         in="SourceGraphic"
         operator="over"
         result="fbSourceGraphic"
         numOctaves="4" />
      <feColorMatrix
         result="fbSourceGraphicAlpha"
         in="fbSourceGraphic"
         values="0 0 0 -1 0 0 0 0 -1 0 0 0 0 -1 0 0 0 0 1 0"
         id="feColorMatrix4544-9-5-1-5" />
      <feTurbulence
         id="feTurbulence4546-3-6-9-6"
         type="fractalNoise"
         numOctaves="4.4123222748815163"
         seed="172"
         baseFrequency="0.062 0.054054054054054057"
         result="turbulence" />
      <feDisplacementMap
         id="feDisplacementMap4548-8-2-4-2"
         in2="turbulence"
         in="fbSourceGraphic"
         scale="9.5273399103047183"
         yChannelSelector="G"
         xChannelSelector="R"
         result="fbSourceGraphic" />
      <feColorMatrix
         result="fbSourceGraphicAlpha"
         in="fbSourceGraphic"
         values="0 0 0 -1 0 0 0 0 -1 0 0 0 0 -1 0 0 0 0 1 0"
         id="feColorMatrix4670-7-9-7-9"
         scale="10.800000000000001" />
      <feComposite
         id="feComposite4674-8-2-4-1"
         in2="fbSourceGraphic"
         in="flood"
         operator="in"
         result="composite1" />
      <feGaussianBlur
         id="feGaussianBlur4676-3-7-50-2"
         in="composite1"
         stdDeviation="1.5865199271065846"
         result="blur" />
      <feOffset
         id="feOffset4678-6-0-3-7"
         dx="-0.42771311737301687"
         dy="5.2374444725016502"
         result="offset" />
      <feComposite
         id="feComposite4680-4-9-6-0"
         in2="offset"
         in="fbSourceGraphic"
         operator="over"
         result="composite2" />
      <feGaussianBlur
         id="feGaussianBlur58-9"
         stdDeviation="0.01" />
      <feOffset
         id="feOffset60-3"
         dy="0"
         dx="0" />
    </filter>
    <filter
       x="-0.14"
       width="1.22"
       height="1.38"
       inkscape:label="magic-Fx-blue"
       id="filter4375-4-1-1-1-9-5-8-8-3-3-3-6"
       style="color-interpolation-filters:sRGB">
      <feFlood
         radius="5.0999999999999996"
         result="flood"
         flood-color="rgb(50,161,179)"
         flood-opacity="1"
         id="feFlood4377-7-9-0-8-1-7-3-1-6-61-6-2" />
      <feComposite
         baseFrequency="0.053999999999999999 0.053999999999999999"
         result="composite1"
         operator="in"
         in="flood"
         in2="SourceGraphic"
         id="feComposite4379-3-8-8-2-77-4-1-0-7-2-7-6" />
      <feMorphology
         result="result3"
         radius="0.96959439099754563"
         operator="dilate"
         id="feMorphology4393-1-0-49-8-9-3-0-1-5-9-5-1" />
      <feComposite
         numOctaves="4"
         result="fbSourceGraphic"
         operator="over"
         in="SourceGraphic"
         in2="result3"
         id="feComposite4385-9-5-7-0-8-8-7-5-3-3-3-8" />
      <feColorMatrix
         id="feColorMatrix4544-9-5-1-5-7"
         values="0 0 0 -1 0 0 0 0 -1 0 0 0 0 -1 0 0 0 0 1 0"
         in="fbSourceGraphic"
         result="fbSourceGraphicAlpha" />
      <feTurbulence
         result="turbulence"
         baseFrequency="0.062 0.054054054054054057"
         seed="172"
         numOctaves="4.4123222748815163"
         type="fractalNoise"
         id="feTurbulence4546-3-6-9-6-9" />
      <feDisplacementMap
         result="fbSourceGraphic"
         xChannelSelector="R"
         yChannelSelector="G"
         scale="11.642079"
         in="fbSourceGraphic"
         in2="turbulence"
         id="feDisplacementMap4548-8-2-4-2-2" />
      <feColorMatrix
         scale="10.800000000000001"
         id="feColorMatrix4670-7-9-7-9-0"
         values="0 0 0 -1 0 0 0 0 -1 0 0 0 0 -1 0 0 0 0 1 0"
         in="fbSourceGraphic"
         result="fbSourceGraphicAlpha" />
      <feComposite
         result="composite1"
         operator="in"
         in="flood"
         in2="fbSourceGraphic"
         id="feComposite4674-8-2-4-1-2" />
      <feGaussianBlur
         result="blur"
         stdDeviation="1.5865199271065846"
         in="composite1"
         id="feGaussianBlur4676-3-7-50-2-3" />
      <feOffset
         result="offset"
         dy="5.2374444725016502"
         dx="-0.42771311737301687"
         id="feOffset4678-6-0-3-7-7" />
      <feComposite
         result="composite2"
         operator="over"
         in="fbSourceGraphic"
         in2="offset"
         id="feComposite4680-4-9-6-0-5" />
      <feGaussianBlur
         stdDeviation="0.60935760846819198"
         id="feGaussianBlur58-9-9" />
      <feOffset
         dx="0"
         dy="0"
         id="feOffset60-3-2" />
    </filter>
    <filter
       style="color-interpolation-filters:sRGB"
       id="filter4375-4-1-1-1-9-5-8-8-3-3-3-6-1"
       inkscape:label="magic-Fx-red"
       height="1.38"
       width="1.22"
       x="-0.14">
      <feFlood
         id="feFlood4377-7-9-0-8-1-7-3-1-6-61-6-2-0"
         flood-opacity="1"
         flood-color="rgb(216,88,33)"
         result="flood"
         radius="5.0999999999999996" />
      <feComposite
         id="feComposite4379-3-8-8-2-77-4-1-0-7-2-7-6-6"
         in2="SourceGraphic"
         in="flood"
         operator="in"
         result="composite1"
         baseFrequency="0.053999999999999999 0.053999999999999999" />
      <feMorphology
         id="feMorphology4393-1-0-49-8-9-3-0-1-5-9-5-1-3"
         operator="dilate"
         radius="0.96959439099754563"
         result="result3" />
      <feComposite
         id="feComposite4385-9-5-7-0-8-8-7-5-3-3-3-8-2"
         in2="result3"
         in="SourceGraphic"
         operator="over"
         result="fbSourceGraphic"
         numOctaves="4" />
      <feColorMatrix
         result="fbSourceGraphicAlpha"
         in="fbSourceGraphic"
         values="0 0 0 -1 0 0 0 0 -1 0 0 0 0 -1 0 0 0 0 1 0"
         id="feColorMatrix4544-9-5-1-5-7-0" />
      <feTurbulence
         id="feTurbulence4546-3-6-9-6-9-6"
         type="fractalNoise"
         numOctaves="4.4123222748815163"
         seed="172"
         baseFrequency="0.062 0.054054054054054057"
         result="turbulence" />
      <feDisplacementMap
         id="feDisplacementMap4548-8-2-4-2-2-1"
         in2="turbulence"
         in="fbSourceGraphic"
         scale="11.642079"
         yChannelSelector="G"
         xChannelSelector="R"
         result="fbSourceGraphic" />
      <feColorMatrix
         result="fbSourceGraphicAlpha"
         in="fbSourceGraphic"
         values="0 0 0 -1 0 0 0 0 -1 0 0 0 0 -1 0 0 0 0 1 0"
         id="feColorMatrix4670-7-9-7-9-0-5"
         scale="10.800000000000001" />
      <feComposite
         id="feComposite4674-8-2-4-1-2-5"
         in2="fbSourceGraphic"
         in="flood"
         operator="in"
         result="composite1" />
      <feGaussianBlur
         id="feGaussianBlur4676-3-7-50-2-3-4"
         in="composite1"
         stdDeviation="1.5865199271065846"
         result="blur" />
      <feOffset
         id="feOffset4678-6-0-3-7-7-7"
         dx="-0.42771311737301687"
         dy="5.2374444725016502"
         result="offset" />
      <feComposite
         id="feComposite4680-4-9-6-0-5-6"
         in2="offset"
         in="fbSourceGraphic"
         operator="over"
         result="composite2" />
      <feGaussianBlur
         id="feGaussianBlur58-9-9-5"
         stdDeviation="0.60935760846819198" />
      <feOffset
         id="feOffset60-3-2-6"
         dy="0"
         dx="0" />
    </filter>
    <filter
       x="-0.14"
       width="1.22"
       height="1.38"
       inkscape:label="magic-Fx-red_background"
       id="filter4375-4-1-1-1-9-5-8-8-3-3-3-6-1-3"
       style="color-interpolation-filters:sRGB">
      <feFlood
         radius="5.0999999999999996"
         result="flood"
         flood-color="rgb(216,88,33)"
         flood-opacity="1"
         id="feFlood4377-7-9-0-8-1-7-3-1-6-61-6-2-0-1" />
      <feComposite
         baseFrequency="0.053999999999999999 0.053999999999999999"
         result="composite1"
         operator="in"
         in="flood"
         in2="SourceGraphic"
         id="feComposite4379-3-8-8-2-77-4-1-0-7-2-7-6-6-4" />
      <feMorphology
         result="result3"
         radius="0.96959439099754563"
         operator="dilate"
         id="feMorphology4393-1-0-49-8-9-3-0-1-5-9-5-1-3-9" />
      <feComposite
         numOctaves="4"
         result="fbSourceGraphic"
         operator="over"
         in="SourceGraphic"
         in2="result3"
         id="feComposite4385-9-5-7-0-8-8-7-5-3-3-3-8-2-2" />
      <feColorMatrix
         id="feColorMatrix4544-9-5-1-5-7-0-0"
         values="0 0 0 -1 0 0 0 0 -1 0 0 0 0 -1 0 0 0 0 1 0"
         in="fbSourceGraphic"
         result="fbSourceGraphicAlpha" />
      <feTurbulence
         result="turbulence"
         baseFrequency="0.062 0.054054054054054057"
         seed="172"
         numOctaves="4.4123222748815163"
         type="fractalNoise"
         id="feTurbulence4546-3-6-9-6-9-6-6" />
      <feDisplacementMap
         result="fbSourceGraphic"
         xChannelSelector="R"
         yChannelSelector="G"
         scale="11.642079"
         in="fbSourceGraphic"
         in2="turbulence"
         id="feDisplacementMap4548-8-2-4-2-2-1-8" />
      <feColorMatrix
         scale="10.800000000000001"
         id="feColorMatrix4670-7-9-7-9-0-5-9"
         values="0 0 0 -1 0 0 0 0 -1 0 0 0 0 -1 0 0 0 0 1 0"
         in="fbSourceGraphic"
         result="fbSourceGraphicAlpha" />
      <feComposite
         result="composite1"
         operator="in"
         in="flood"
         in2="fbSourceGraphic"
         id="feComposite4674-8-2-4-1-2-5-2" />
      <feGaussianBlur
         result="blur"
         stdDeviation="1.5865199271065846"
         in="composite1"
         id="feGaussianBlur4676-3-7-50-2-3-4-6" />
      <feOffset
         result="offset"
         dy="5.2374444725016502"
         dx="-0.42771311737301687"
         id="feOffset4678-6-0-3-7-7-7-6" />
      <feComposite
         result="composite2"
         operator="over"
         in="fbSourceGraphic"
         in2="offset"
         id="feComposite4680-4-9-6-0-5-6-4" />
      <feGaussianBlur
         stdDeviation="0.76414472307477677"
         id="feGaussianBlur58-9-9-5-9" />
      <feOffset
         dx="0"
         dy="0"
         id="feOffset60-3-2-6-5" />
    </filter>
  </defs>
  <sodipodi:namedview
     pagecolor="#ffffff"
     bordercolor="#666666"
     borderopacity="1"
     objecttolerance="10"
     gridtolerance="10"
     guidetolerance="10"
     inkscape:pageopacity="0"
     inkscape:pageshadow="2"
     inkscape:window-width="1600"
     inkscape:window-height="847"
     id="namedview4"
     showgrid="false"
     inkscape:zoom="0.46"
     inkscape:cx="1331.8649"
     inkscape:cy="653.48372"
     inkscape:window-x="-8"
     inkscape:window-y="-8"
     inkscape:window-maximized="1"
     inkscape:current-layer="layer3"
     inkscape:document-rotation="0"
     inkscape:snap-global="false" />
  <g
     inkscape:groupmode="layer"
     id="layer2"
     inkscape:label="artwork"
     sodipodi:insensitive="true">
    <image
       sodipodi:absref="D:\Pepper&amp;Carrot\code\ep33_Spell-of-War\lang\ro\../gfx_Pepper-and-Carrot_by-David-Revoy_E33P03.png"
       xlink:href="../gfx_Pepper-and-Carrot_by-David-Revoy_E33P03.png"
       width="2481"
       height="3503"
       id="image10"
       x="0"
       y="0" />
  </g>
  <g
     inkscape:groupmode="layer"
     id="layer3"
     inkscape:label="speechbubbles"
     style="display:inline">
    <path
       sodipodi:nodetypes="ccscc"
       inkscape:connector-curvature="0"
       id="path4035-4"
       d="m 1337.6551,1636.5125 c 8.8976,45.5766 -43.6583,77.8188 -97.8244,67.3334 34.8149,20.2889 112.2862,16.8578 141.315,-55.013 20.1776,-49.9566 -21.9143,-18.2887 -21.9143,-18.2887 z"
       style="color:#000000;display:inline;overflow:visible;visibility:visible;fill:#ffffff;fill-opacity:1;fill-rule:nonzero;stroke:none;stroke-width:1px;marker:none;enable-background:accumulate" />
    <path
       style="color:#000000;display:inline;overflow:visible;visibility:visible;fill:#ffffff;fill-opacity:1;fill-rule:nonzero;stroke:none;stroke-width:0.999996px;marker:none;enable-background:accumulate"
       d="m 1386.7148,1470.9736 c -51.2247,1.6165 -103.0709,0.5064 -153.3854,11.5812 -24.2683,6.2349 -44.415,22.7029 -59.9164,41.5845 -16.2256,20.0702 -23.8469,47.5523 -17.0481,72.6576 5.6148,22.5167 21.6434,42.7732 43.5753,51.8348 28.6788,13.25 60.6483,17.0045 91.9352,18.8632 44.4474,2.0837 88.9963,-0.4156 133.421,2.3999 40.3843,1.0882 80.8814,-3.0942 120.2807,-11.801 14.6021,-3.5338 29.6745,-7.8823 41.1969,-17.8719 23.2233,-19.4219 33.6672,-50.8693 31.0193,-80.2818 -1.4717,-17.1561 -8.4931,-34.1384 -21.2459,-46.1638 -17.3786,-16.8586 -40.7,-26.6668 -64.4618,-30.9747 -15.0881,-2.7283 -30.4157,-3.817 -45.6585,-5.3754 -28.9746,-2.5537 -58.016,-4.3357 -87.0302,-6.3486 -4.226,-0.1261 -8.4546,-0.1376 -12.6821,-0.104 z"
       id="path4040-40-3"
       inkscape:connector-curvature="0"
       sodipodi:nodetypes="zssssz" />
    <path
       sodipodi:nodetypes="cscccccsc"
       inkscape:connector-curvature="0"
       id="path3063-8"
       d="m 405.5873,1467.0731 c 0.69619,4.0279 2.03869,7.8716 2.94408,11.8485 4.03275,15.1379 7.95897,30.3197 11.44743,45.6444 26.28701,85.102 89.33029,126.0615 171.9921,122.634 -69.7059,-11.1103 -95.37649,-44.5011 -130.34103,-113.6104 -1.38388,-12.1551 -4.96605,-52.2369 -18.62913,-56.7919 -12.33011,-4.0443 -24.95595,-6.8504 -37.43828,-10.2285 0.008,0.1679 0.0165,0.3359 0.0248,0.5039 z"
       style="fill:#ffffff;stroke:none;stroke-width:0.999997" />
    <path
       sodipodi:nodetypes="zssssz"
       inkscape:connector-curvature="0"
       id="path4040-40"
       d="m 359.09766,1339.5 c -48.59735,0.5718 -97.33918,8.8052 -142.78075,26.2709 -21.37387,8.4576 -39.10985,24.2763 -52.82021,42.4664 -13.89897,17.6745 -25.65867,38.3268 -27.50293,61.1555 -2.27844,28.7437 9.31606,58.4185 31.16043,77.392 16.84199,15.328 38.36644,24.1445 59.94496,30.5049 55.81788,17.2997 114.81374,20.5651 172.89745,19.5286 45.53239,-0.8143 91.57266,-7.7178 133.66753,-25.7026 34.77874,-15.5644 63.23862,-45.8682 74.64267,-82.4392 6.07932,-21.5354 0.45302,-45.025 -11.42979,-63.5513 -20.99876,-32.5994 -54.47748,-55.8519 -90.83824,-68.3559 -18.99782,-6.7294 -38.9672,-10.1036 -58.95109,-12.2263 -20.86293,-2.2191 -41.80762,-3.6897 -62.76562,-4.6253 -8.40438,-0.306 -16.81438,-0.4591 -25.22441,-0.4177 z"
       style="color:#000000;display:inline;overflow:visible;visibility:visible;fill:#ffffff;fill-opacity:1;fill-rule:nonzero;stroke:none;stroke-width:1px;marker:none;enable-background:accumulate" />
    <path
       inkscape:connector-curvature="0"
       id="path1297"
       d="m 238.14924,2437.7884 c 3.90789,-34.2355 20.51655,-51.3527 42.98712,-55.0214 22.47056,-3.6676 119.19163,-1.2218 131.89233,7.3363 12.70086,8.5591 39.07923,28.1221 27.3555,68.471 -11.72381,40.3489 -52.75698,34.2355 -73.2736,34.2355 -20.51655,0 -98.67493,3.6687 -111.37563,-12.2267 -12.70079,-15.8954 -16.60867,-3.6676 -17.58572,-42.7947 z"
       style="fill:#ffffff;fill-rule:evenodd;stroke:none;stroke-width:1.0537px;stroke-linecap:butt;stroke-linejoin:miter;stroke-opacity:1" />
    <path
       inkscape:connector-curvature="0"
       id="path1299"
       d="m 351.6875,2472.207 c -36.37802,0.3757 -72.83121,-0.061 -109.10933,3.0829 -15.62732,1.7658 -31.66615,3.8106 -45.9099,10.9068 -7.87094,4.039 -14.38574,10.4541 -18.77834,18.1136 -8.41913,13.8362 -12.27913,30.3401 -11.35373,46.4746 1.51226,19.2444 12.14214,37.721 28.57039,48.0355 14.44363,9.5373 31.87135,12.9677 48.85854,14.3908 69.83848,7.3419 140.89753,6.3175 209.97028,-7.0294 12.41133,-2.4861 24.57464,-8.4485 32.38919,-18.6714 9.67629,-12.3294 12.95347,-28.6385 11.48869,-44.0117 -0.1529,-13.9702 -3.69844,-28.5979 -13.23498,-39.2199 -13.18396,-16.0239 -33.43319,-25.0413 -53.81892,-27.1095 -26.14641,-4.0057 -52.65041,-5.0919 -79.07189,-4.9623 z"
       style="fill:#ffffff;fill-rule:evenodd;stroke:none;stroke-width:1.07322px;stroke-linecap:butt;stroke-linejoin:miter;stroke-opacity:1" />
    <path
       sodipodi:nodetypes="ccccscscsccc"
       inkscape:connector-curvature="0"
       id="path1301"
       d="m 347.77752,2589.9816 c -43.89173,0.5947 -88.25638,0.9779 -131.27095,10.0166 -35.34493,8.5118 -68.36892,28.2264 -88.03733,57.1125 -12.79707,20.3348 -15.47091,44.2177 -19.0525,67.0639 -3.60227,26.4357 -1.39268,54.4349 12.07571,78.4033 17.23177,31.8693 46.29536,59.0122 82.62292,71.7476 32.91523,11.6193 67.71644,19.087 102.99622,20.1908 20.90463,0.6289 41.80609,-0.8777 62.62117,-2.52 39.67924,-3.6363 79.78701,-9.4127 116.60701,-24.211 10.23613,-4.0687 20.35755,-8.8798 28.25821,-16.3129 8.37392,-7.3323 14.26373,-16.6659 18.78373,-26.3955 12.99908,-26.4115 18.96151,-55.431 20.38428,-84.3094 1.09964,-28.4309 -2.61567,-57.7743 -16.38379,-83.5284 -15.8536,-27.563 -44.46822,-48.3153 -76.91484,-56.6127 -35.04389,-9.909 -72.06052,-10.3073 -108.38219,-10.6708 -1.43588,0.01 -2.87176,0.018 -4.30765,0.026 z"
       style="fill:#ffffff;fill-rule:evenodd;stroke:none;stroke-width:1.0414269px;stroke-linecap:butt;stroke-linejoin:miter;stroke-opacity:1" />
    <path
       sodipodi:nodetypes="cccccccc"
       inkscape:connector-curvature="0"
       id="path1303"
       d="m 314.48548,2823.9382 c 0,0 40.07769,-10.737 62.91403,-9.5303 65.47757,22.7394 62.75811,63.2649 85.90234,77.6086 27.12418,16.7249 60.24335,4.6482 84.95704,-19.9743 -23.26738,37.863 -47.27697,53.8308 -87.47529,44.384 -28.47092,-9.6839 -61.55072,-45.8928 -74.16623,-49.3135 -12.6168,-3.4211 -40.97217,-15.237 -71.71515,0.7502 -30.74293,15.9872 -0.41674,-43.9247 -0.41674,-43.9247 z"
       style="fill:#ffffff;fill-rule:evenodd;stroke:none;stroke-width:1px;stroke-linecap:butt;stroke-linejoin:miter;stroke-opacity:1" />
    <path
       sodipodi:nodetypes="csssssssscc"
       inkscape:connector-curvature="0"
       id="path1289"
       d="m 1941.3623,2971.2152 c -39.0032,1.708 -77.8645,10.5447 -108.9921,27.145 -13.0949,8.1664 -20.1704,19.7003 -26.0634,30.9363 -10.9424,22.2502 -14.9897,45.8137 -16.3117,69.2043 -0.8693,20.9242 0.6614,41.956 5.8446,62.5967 2.8243,9.7933 7.1478,20.0348 17.7083,27.2421 12.3334,8.5418 28.5333,13.5716 44.2604,18.3923 41.3955,12.0339 87.1996,15.4845 131.7197,12.9923 28.3287,-1.7346 56.3976,-7.4603 80.75,-17.7419 10.7405,-4.8744 18.5857,-12.1496 24.8579,-19.788 8.3956,-10.0067 15.1528,-20.7117 19.7033,-31.852 6.792,-17.8177 6.6028,-36.4903 4.1611,-54.7144 -2.292,-22.1556 -3.786,-44.6477 -13.173,-66.0404 -6.8952,-14.5888 -20.3121,-27.7173 -38.3225,-36.7294 -17.1215,-8.845 -37.6972,-13.9653 -58.6021,-16.5209 -22.1851,-3.2581 -44.8218,-5.3775 -67.5405,-5.122 z"
       style="fill:#ffffff;fill-rule:evenodd;stroke:none;stroke-width:0.83196521px;stroke-linecap:butt;stroke-linejoin:miter;stroke-opacity:1" />
    <path
       sodipodi:nodetypes="csccccc"
       inkscape:connector-curvature="0"
       id="path1291"
       d="m 2170.7156,3020.9486 c -6.101,13.0623 -13.9868,25.9773 -26.0872,34.287 -10.0716,6.895 -22.3859,9.4079 -34.3733,10.2491 -15.3319,1.751 -30.3429,5.9848 -44.4946,12.0831 -1.4531,0.2912 -1.4547,2.02 -0.7596,3.0252 1.2799,2.7989 3.5967,4.9748 4.8588,7.7885 6.0053,9.5165 12.0107,19.033 18.016,28.5495 4.0585,-4.1531 8.017,-8.5477 13.1368,-11.4274 14.4187,-9.7338 31.2987,-15.4299 44.9108,-26.4111 7.7153,-7.3493 12.3164,-17.1793 16.7571,-26.6914 4.5856,-10.7331 7.5703,-22.1261 9.0664,-33.6947 -0.3437,0.7474 -0.6875,1.4948 -1.0312,2.2422 z"
       style="fill:#ffffff;fill-rule:evenodd;stroke:none;stroke-width:1px;stroke-linecap:butt;stroke-linejoin:miter;stroke-opacity:1" />
  </g>
  <g
     inkscape:groupmode="layer"
     id="layer1"
     inkscape:label="txt">
    <text
       xml:space="preserve"
       style="font-style:normal;font-variant:normal;font-weight:normal;font-stretch:normal;line-height:0%;font-family:Lavi;-inkscape-font-specification:Lavi;letter-spacing:3.03024px;word-spacing:0px;fill:#d4fffe;fill-opacity:1;stroke:#4082aa;stroke-width:0.768699;stroke-miterlimit:4;stroke-dasharray:none;stroke-opacity:1;filter:url(#filter4375-4-1-1-1-9-5-8-8-3-3-3-6)"
       x="787.65729"
       y="1584.5073"
       id="text4580-6-0-0-3-3-6-2"
       transform="matrix(1.641503,-0.13257132,-0.02464032,1.6990631,-755.89738,-2371.264)"
       inkscape:label="FXA-1"><tspan
         sodipodi:role="line"
         id="tspan4582-1-1-0-6-9-0-8"
         x="787.65729"
         y="1584.5073"
         style="font-style:normal;font-variant:normal;font-weight:bold;font-stretch:normal;font-size:70px;line-height:1.25;font-family:Drukah;-inkscape-font-specification:'Drukah Bold';fill:#d4fffe;fill-opacity:1;stroke:#4082aa;stroke-width:0.768699;stroke-miterlimit:4;stroke-dasharray:none;stroke-opacity:1">Fiizz!</tspan></text>
    <text
       xml:space="preserve"
       style="font-style:normal;font-variant:normal;font-weight:normal;font-stretch:normal;line-height:0%;font-family:Lavi;-inkscape-font-specification:Lavi;letter-spacing:3.03024px;word-spacing:0px;fill:#d4fffe;fill-opacity:1;stroke:#4082aa;stroke-width:0.908848;stroke-miterlimit:4;stroke-dasharray:none;stroke-opacity:1;filter:url(#filter4375-4-1-1-1-9-5-8-8-3-3-3-6)"
       x="787.65729"
       y="1584.5073"
       id="text4580-6-0-0-3-3"
       transform="matrix(1.4432721,-0.04864218,0.16344738,1.3752651,-361.83028,-1918.789)"
       inkscape:label="FXA-2"><tspan
         sodipodi:role="line"
         id="tspan4582-1-1-0-6-9"
         x="787.65729"
         y="1584.5073"
         style="font-style:normal;font-variant:normal;font-weight:bold;font-stretch:normal;font-size:70px;line-height:1.25;font-family:Drukah;-inkscape-font-specification:'Drukah Bold';fill:#d4fffe;fill-opacity:1;stroke:#4082aa;stroke-width:0.908848;stroke-miterlimit:4;stroke-dasharray:none;stroke-opacity:1">Dzii!</tspan></text>
    <text
       transform="matrix(0.73086327,-0.10344101,-0.01097086,0.78115386,821.84576,-771.75516)"
       id="text4580-6-0-0-3-3-6"
       y="1584.5073"
       x="787.65729"
       style="font-style:normal;font-variant:normal;font-weight:normal;font-stretch:normal;line-height:0%;font-family:Lavi;-inkscape-font-specification:Lavi;letter-spacing:3.03024px;word-spacing:0px;opacity:0.805283;fill:#d4fffe;fill-opacity:1;stroke:#4082aa;stroke-width:3.02449;stroke-miterlimit:4;stroke-dasharray:none;stroke-opacity:1;paint-order:stroke fill markers;filter:url(#filter4375-4-1-1-1-9-5-8-8-3-3-3)"
       xml:space="preserve"
       inkscape:label="FXA-3"><tspan
         style="font-style:normal;font-variant:normal;font-weight:bold;font-stretch:normal;font-size:70px;line-height:1.25;font-family:Drukah;-inkscape-font-specification:'Drukah Bold';fill:#d4fffe;fill-opacity:1;stroke:#4082aa;stroke-width:3.02449;stroke-miterlimit:4;stroke-dasharray:none;stroke-opacity:1;paint-order:stroke fill markers"
         y="1584.5073"
         x="787.65729"
         id="tspan4582-1-1-0-6-9-0"
         sodipodi:role="line">Schii!</tspan></text>
    <text
       xml:space="preserve"
       style="font-style:normal;font-variant:normal;font-weight:normal;font-stretch:normal;line-height:0%;font-family:Lavi;-inkscape-font-specification:Lavi;letter-spacing:3.03024px;word-spacing:0px;opacity:0.805283;fill:#d4fffe;fill-opacity:1;stroke:#4082aa;stroke-width:3.81156;stroke-miterlimit:4;stroke-dasharray:none;stroke-opacity:1;paint-order:stroke fill markers;filter:url(#filter4375-4-1-1-1-9-5-8-8-3-3-3)"
       x="787.65729"
       y="1584.5073"
       id="text4580-6-0-0-3-3-6-3"
       transform="matrix(0.58809054,-0.08094382,-0.00882772,0.61126221,1040.8841,-449.34757)"
       inkscape:label="FXA-4"><tspan
         sodipodi:role="line"
         id="tspan4582-1-1-0-6-9-0-6"
         x="787.65729"
         y="1584.5073"
         style="font-style:normal;font-variant:normal;font-weight:bold;font-stretch:normal;font-size:70px;line-height:1.25;font-family:Drukah;-inkscape-font-specification:'Drukah Bold';fill:#d4fffe;fill-opacity:1;stroke:#4082aa;stroke-width:3.81156;stroke-miterlimit:4;stroke-dasharray:none;stroke-opacity:1;paint-order:stroke fill markers">Ffhii!</tspan></text>
    <text
       transform="matrix(1.5086209,-0.13257132,-0.02264565,1.6990631,202.41684,-1572.8785)"
       id="text4580-6-0-0-3-3-6-2-9"
       y="1584.5073"
       x="787.65729"
       style="font-style:normal;font-variant:normal;font-weight:normal;font-stretch:normal;line-height:0%;font-family:Lavi;-inkscape-font-specification:Lavi;letter-spacing:3.03024px;word-spacing:0px;fill:#ffffdb;fill-opacity:1;stroke:#aa7640;stroke-width:0.801839;stroke-miterlimit:4;stroke-dasharray:none;stroke-opacity:1;filter:url(#filter4375-4-1-1-1-9-5-8-8-3-3-3-6-1)"
       xml:space="preserve"
       inkscape:label="FXB-1"><tspan
         style="font-style:normal;font-variant:normal;font-weight:bold;font-stretch:normal;font-size:70px;line-height:1.25;font-family:Drukah;-inkscape-font-specification:'Drukah Bold';fill:#ffffdb;fill-opacity:1;stroke:#aa7640;stroke-width:0.801839;stroke-miterlimit:4;stroke-dasharray:none;stroke-opacity:1"
         y="1584.5073"
         x="787.65729"
         id="tspan4582-1-1-0-6-9-0-8-3"
         sodipodi:role="line">Dziing!</tspan></text>
    <text
       xml:space="preserve"
       style="font-style:normal;font-variant:normal;font-weight:normal;font-stretch:normal;line-height:0%;font-family:Lavi;-inkscape-font-specification:Lavi;letter-spacing:3.03024px;word-spacing:0px;fill:#ffffdb;fill-opacity:1;stroke:#aa7640;stroke-width:1.24228;stroke-miterlimit:4;stroke-dasharray:none;stroke-opacity:1;filter:url(#filter4375-4-1-1-1-9-5-8-8-3-3-3-6-1)"
       x="787.65729"
       y="1584.5073"
       id="text4580-6-0-0-3-3-6-2-9-8"
       transform="matrix(0.99139269,-0.08404637,-0.01488163,1.0771567,361.73002,-762.46085)"
       inkscape:label="FXB-2"><tspan
         sodipodi:role="line"
         id="tspan4582-1-1-0-6-9-0-8-3-4"
         x="787.65729"
         y="1584.5073"
         style="font-style:normal;font-variant:normal;font-weight:bold;font-stretch:normal;font-size:70px;line-height:1.25;font-family:Drukah;-inkscape-font-specification:'Drukah Bold';fill:#ffffdb;fill-opacity:1;stroke:#aa7640;stroke-width:1.24228;stroke-miterlimit:4;stroke-dasharray:none;stroke-opacity:1">Fiizz!</tspan></text>
    <text
       transform="matrix(0.78114637,-0.07089707,-0.01172566,0.90863239,192.84955,-421.94011)"
       id="text4580-6-0-0-3-3-6-2-9-8-0"
       y="1584.5073"
       x="787.65729"
       style="font-style:normal;font-variant:normal;font-weight:normal;font-stretch:normal;line-height:0%;font-family:Lavi;-inkscape-font-specification:Lavi;letter-spacing:3.03024px;word-spacing:0px;fill:#ffffdb;fill-opacity:1;stroke:#aa7640;stroke-width:1.52377;stroke-miterlimit:4;stroke-dasharray:none;stroke-opacity:1;paint-order:stroke fill markers;filter:url(#filter4375-4-1-1-1-9-5-8-8-3-3-3-6-1-3)"
       xml:space="preserve"
       inkscape:label="FXB-3"><tspan
         style="font-style:normal;font-variant:normal;font-weight:bold;font-stretch:normal;font-size:70px;line-height:1.25;font-family:Drukah;-inkscape-font-specification:'Drukah Bold';fill:#ffffdb;fill-opacity:1;stroke:#aa7640;stroke-width:1.52377;stroke-miterlimit:4;stroke-dasharray:none;stroke-opacity:1;paint-order:stroke fill markers"
         y="1584.5073"
         x="787.65729"
         id="tspan4582-1-1-0-6-9-0-8-3-4-4"
         sodipodi:role="line">Schii!</tspan></text>
    <text
       xml:space="preserve"
       style="font-style:normal;font-variant:normal;font-weight:normal;font-stretch:normal;line-height:0%;font-family:Lavi;-inkscape-font-specification:Lavi;letter-spacing:3.03024px;word-spacing:0px;fill:#ffffdb;fill-opacity:1;stroke:#aa7640;stroke-width:1.91363;stroke-miterlimit:4;stroke-dasharray:none;stroke-opacity:1;paint-order:stroke fill markers;filter:url(#filter4375-4-1-1-1-9-5-8-8-3-3-3-6-1-3)"
       x="787.65729"
       y="1584.5073"
       id="text4580-6-0-0-3-3-6-2-9-8-0-4"
       transform="matrix(0.63960761,-0.05489999,-0.00960104,0.70361026,133.75269,-120.38078)"
       inkscape:label="FXB-4"><tspan
         sodipodi:role="line"
         id="tspan4582-1-1-0-6-9-0-8-3-4-4-9"
         x="787.65729"
         y="1584.5073"
         style="font-style:normal;font-variant:normal;font-weight:bold;font-stretch:normal;font-size:70px;line-height:1.25;font-family:Drukah;-inkscape-font-specification:'Drukah Bold';fill:#ffffdb;fill-opacity:1;stroke:#aa7640;stroke-width:1.91363;stroke-miterlimit:4;stroke-dasharray:none;stroke-opacity:1;paint-order:stroke fill markers">Ffhii!</tspan></text>
    <text
       id="text4246-7-6-4-6-4-5"
       y="1424.2563"
       x="362.83972"
       style="font-style:normal;font-variant:normal;font-weight:normal;font-stretch:normal;line-height:0%;font-family:Lavi;-inkscape-font-specification:Lavi;text-align:center;letter-spacing:0px;word-spacing:0px;text-anchor:middle;fill:#000000;fill-opacity:1;stroke:none"
       xml:space="preserve"
       inkscape:label="kingA"><tspan
         y="1424.2563"
         x="362.83972"
         style="font-size:45px;line-height:1.25"
         sodipodi:role="line"
         id="tspan890">	Și, vraja asta ne</tspan><tspan
         y="1480.6919"
         x="369.87097"
         style="font-size:45px;line-height:1.25"
         sodipodi:role="line"
         id="tspan128">face armele noastre </tspan><tspan
         y="1536.9419"
         x="362.83972"
         style="font-size:45px;line-height:1.25"
         sodipodi:role="line"
         id="tspan130">mai puternice...</tspan><tspan
         y="1555.449"
         x="362.83972"
         style="font-size:45px;line-height:1.25"
         sodipodi:role="line"
         id="tspan886" /></text>
    <text
       xml:space="preserve"
       style="font-style:normal;font-variant:normal;font-weight:normal;font-stretch:normal;line-height:0%;font-family:Lavi;-inkscape-font-specification:Lavi;text-align:center;letter-spacing:0px;word-spacing:0px;text-anchor:middle;fill:#000000;fill-opacity:1;stroke:none"
       x="1388.5496"
       y="1537.7782"
       id="text4246-7-6-4-6-4-5-6"
       inkscape:label="kingB"><tspan
         sodipodi:role="line"
         style="font-size:45px;line-height:1.25"
         x="1395.5808"
         y="1537.7782"
         id="tspan935">...în timp ce reduce </tspan><tspan
         sodipodi:role="line"
         style="font-size:45px;line-height:1.25"
         x="1388.5496"
         y="1594.0282"
         id="tspan144">puterea armelor</tspan><tspan
         sodipodi:role="line"
         style="font-size:45px;line-height:1.25"
         x="1388.5496"
         y="1650.2782"
         id="tspan138">inamicilor?</tspan><tspan
         sodipodi:role="line"
         style="font-size:45px;line-height:1.25"
         x="1388.5496"
         y="1668.7852"
         id="tspan931" /></text>
    <text
       transform="matrix(1.2204342,-0.42657098,0.13821148,1.3324655,541.81701,-180.24918)"
       id="text4580-6-0-0-3-3-63"
       y="1584.5073"
       x="787.65729"
       style="font-style:normal;font-variant:normal;font-weight:normal;font-stretch:normal;line-height:0%;font-family:Lavi;-inkscape-font-specification:Lavi;letter-spacing:3.03024px;word-spacing:0px;fill:#d4fffe;fill-opacity:1;stroke:#4082aa;stroke-width:0.988344;stroke-miterlimit:4;stroke-dasharray:none;stroke-opacity:1;filter:url(#filter4375-4-1-1-1-9-5-8-8-3-3-3-6)"
       xml:space="preserve"
       inkscape:label="FXC"><tspan
         style="font-style:normal;font-variant:normal;font-weight:bold;font-stretch:normal;font-size:70px;line-height:1.25;font-family:Drukah;-inkscape-font-specification:'Drukah Bold';fill:#d4fffe;fill-opacity:1;stroke:#4082aa;stroke-width:0.988344;stroke-miterlimit:4;stroke-dasharray:none;stroke-opacity:1"
         y="1584.5073"
         x="787.65729"
         id="tspan4582-1-1-0-6-9-9"
         sodipodi:role="line">Dzii...</tspan></text>
    <text
       id="text4246-7-6-4-6-4-5-6-6"
       y="2452.0837"
       x="343.2887"
       style="font-style:normal;font-variant:normal;font-weight:normal;font-stretch:normal;font-size:13.3583px;line-height:0%;font-family:Lavi;-inkscape-font-specification:Lavi;text-align:center;letter-spacing:0px;word-spacing:0px;text-anchor:middle;fill:#000000;fill-opacity:1;stroke:none;stroke-width:1"
       xml:space="preserve"
       inkscape:label="pepperA"><tspan
         y="2452.0837"
         x="343.2887"
         style="font-size:50.0936px;line-height:1.25;stroke-width:1"
         sodipodi:role="line"
         id="tspan980">Heh.</tspan><tspan
         y="2472.6855"
         x="343.2887"
         style="font-size:50.0936px;line-height:1.25;stroke-width:1"
         sodipodi:role="line"
         id="tspan978" /></text>
    <text
       xml:space="preserve"
       style="font-style:normal;font-variant:normal;font-weight:normal;font-stretch:normal;font-size:14.0866003px;line-height:0%;font-family:Lavi;-inkscape-font-specification:Lavi;text-align:center;letter-spacing:0px;word-spacing:0px;text-anchor:middle;fill:#000000;fill-opacity:1;stroke:none;stroke-width:1"
       x="325.19232"
       y="2560.8501"
       id="text4246-7-6-4-6-4-5-6-6-2"
       inkscape:label="pepperB"><tspan
         id="tspan978-0"
         sodipodi:role="line"
         style="font-size:52.82490158px;line-height:1.25;stroke-width:1"
         x="325.19232"
         y="2560.8501">O să vezi!</tspan></text>
    <text
       id="text4246-7-6-4-6-4-5-6-6-2-9"
       y="2682.25"
       x="324.57785"
       style="font-style:normal;font-variant:normal;font-weight:normal;font-stretch:normal;line-height:0%;font-family:Lavi;-inkscape-font-specification:Lavi;text-align:center;letter-spacing:0px;word-spacing:0px;text-anchor:middle;fill:#000000;fill-opacity:1;stroke:none"
       xml:space="preserve"
       inkscape:label="pepperC"><tspan
         y="2682.25"
         x="324.57785"
         style="font-size:45px;line-height:1.25"
         sodipodi:role="line"
         id="tspan1031">	Tot ce îți pot spune</tspan><tspan
         y="2738.6855"
         x="331.6091"
         style="font-size:45px;line-height:1.25"
         sodipodi:role="line"
         id="tspan159">este că astăzi nu o </tspan><tspan
         y="2794.9355"
         x="331.6091"
         style="font-size:45px;line-height:1.25"
         sodipodi:role="line"
         id="tspan161">să pierzi nici </tspan><tspan
         y="2851.1855"
         x="324.57785"
         style="font-size:45px;line-height:1.25"
         sodipodi:role="line"
         id="tspan167">un soldat.</tspan><tspan
         y="2869.6926"
         x="324.57785"
         style="font-size:45px;line-height:1.25"
         sodipodi:role="line"
         id="tspan1025" /></text>
    <text
       xml:space="preserve"
       style="font-style:normal;font-variant:normal;font-weight:normal;font-stretch:normal;line-height:0%;font-family:Lavi;-inkscape-font-specification:Lavi;text-align:center;letter-spacing:0px;word-spacing:0px;text-anchor:middle;fill:#000000;fill-opacity:1;stroke:none"
       x="1943.3907"
       y="3056.0632"
       id="text4246-7-6-4-6-4-5-6-6-2-9-6"
       inkscape:label="pepperD"><tspan
         sodipodi:role="line"
         style="font-size:45px;line-height:1.25"
         x="1943.3907"
         y="3056.0632"
         id="tspan1093">	Dar tot va</tspan><tspan
         sodipodi:role="line"
         style="font-size:45px;line-height:1.25"
         x="1943.3907"
         y="3112.3132"
         id="tspan178">trebui să lupți</tspan><tspan
         sodipodi:role="line"
         style="font-size:45px;line-height:1.25"
         x="1943.3907"
         y="3168.7488"
         id="tspan182">cu tot ce ai!</tspan></text>
  </g>
</svg>
