<?xml version="1.0" encoding="UTF-8" standalone="no"?>
<!-- Created With Inkscape (http://www.inkscape.org/) -->

<svg
   xmlns:dc="http://purl.org/dc/elements/1.1/"
   xmlns:cc="http://creativecommons.org/ns#"
   xmlns:rdf="http://www.w3.org/1999/02/22-rdf-syntax-ns#"
   xmlns:svg="http://www.w3.org/2000/svg"
   xmlns="http://www.w3.org/2000/svg"
   xmlns:xlink="http://www.w3.org/1999/xlink"
   xmlns:sodipodi="http://sodipodi.sourceforge.net/DTD/sodipodi-0.dtd"
   xmlns:inkscape="http://www.inkscape.org/namespaces/inkscape"
   id="svg2"
   version="1.1"
   inkscape:version="0.92.5 (2060ec1f9f, 2020-04-08)"
   width="2481"
   height="3503"
   sodipodi:docname="E26P04.svg">
  <metadata
     id="metadata8">
    <rdf:RDF>
      <cc:Work
         rdf:about="">
        <dc:format>image/svg+xml</dc:format>
        <dc:type
           rdf:resource="http://purl.org/dc/dcmitype/StillImage" />
        <dc:title />
      </cc:Work>
    </rdf:RDF>
  </metadata>
  <defs
     id="defs6" />
  <sodipodi:namedview
     pagecolor="#ffffff"
     bordercolor="#666666"
     borderopacity="1"
     objecttolerance="10"
     gridtolerance="10"
     guidetolerance="10"
     inkscape:pageopacity="0"
     inkscape:pageshadow="2"
     inkscape:window-width="1866"
     inkscape:window-height="1016"
     id="namedview4"
     showgrid="false"
     inkscape:zoom="0.42773946"
     inkscape:cx="1172.8992"
     inkscape:cy="502.79712"
     inkscape:window-x="54"
     inkscape:window-y="27"
     inkscape:window-maximized="1"
     inkscape:current-layer="layer1" />
  <g
     inkscape:groupmode="layer"
     id="layer2"
     inkscape:label="artwork"
     sodipodi:insensitive="true">
    <image
       sodipodi:absref="/home/user/lojban/webcomics/ep26_Books-Are-Great/lang/jb/../gfx_Pepper-and-Carrot_by-David-Revoy_E26P04.png"
       xlink:href="../gfx_Pepper-and-Carrot_by-David-Revoy_E26P04.png"
       width="2481"
       height="3503"
       id="image10"
       x="0"
       y="0" />
  </g>
  <g
     inkscape:groupmode="layer"
     id="layer3"
     inkscape:label="speechbubbles">
    <path
       style="color:#000000;display:inline;overflow:visible;visibility:visible;fill:#ffffff;fill-opacity:1;fill-rule:nonzero;stroke:none;stroke-width:1.95039153px;marker:none;enable-background:accumulate"
       d="m 78.097755,1523.7579 c -5.849652,-60.0982 -4.029858,-112.7541 5.709246,-162.5342 6.048335,-30.9151 196.148039,-38.2848 261.772429,-32.659 56.00816,4.8017 182.98905,17.8817 210.30109,61.0182 27.31217,43.1362 31.45165,110.0689 26.32448,152.1755 -5.12701,42.1068 -11.35573,51.091 -62.51714,86.5988 -26.14683,18.1467 -178.28496,29.1243 -239.49713,31.8268 -63.11546,2.7899 -151.02233,0.513 -182.136748,-27.674 -31.543953,-28.5759 -14.106738,-48.6537 -19.956227,-108.7521 z"
       id="path3373"
       inkscape:connector-curvature="0"
       sodipodi:nodetypes="zsssssssz" />
    <path
       style="color:#000000;display:inline;overflow:visible;visibility:visible;fill:#ffffff;fill-opacity:1;fill-rule:nonzero;stroke:none;stroke-width:0.95470774;marker:none;enable-background:accumulate"
       d="M 369.79142,809.84364 C 305.75829,762.35821 198.20492,558.84155 249.43665,362.79562 266.81502,310.92732 307.36394,84.8784 238.16093,303.5743 c -69.203,218.6959 9.34385,417.00687 131.63049,506.26934 z"
       id="path3010"
       inkscape:connector-curvature="0"
       sodipodi:nodetypes="cczc" />
    <path
       style="color:#000000;display:inline;overflow:visible;visibility:visible;fill:#ffffff;fill-opacity:1;fill-rule:nonzero;stroke:none;stroke-width:1.15391338px;marker:none;enable-background:accumulate"
       d="m 748.47524,1017.8265 c -34.72042,-11.219 -42.93843,-26.61133 -39.46627,-33.02225 3.47201,-6.41084 34.72026,-39.26666 72.91255,-43.27347 38.19242,-4.00682 137.14531,-8.81495 159.71356,-4.80813 22.56833,4.00673 86.80102,30.45171 86.80102,44.07478 0,13.62316 -12.1522,40.06807 -46.87255,48.08167 -34.7203,8.0136 -191.42402,0.7406 -233.08831,-11.0526 z"
       id="path3349"
       inkscape:connector-curvature="0"
       sodipodi:nodetypes="ccscssc" />
    <path
       style="color:#000000;display:inline;overflow:visible;visibility:visible;fill:#ffffff;fill-opacity:1;fill-rule:nonzero;stroke:none;stroke-width:0.41378114px;marker:none;enable-background:accumulate"
       d="m 852.07759,1071.2161 c 11.2016,-11.3967 105.75579,-23.7673 138.98819,-0.2809 33.23242,23.4864 11.41502,56.7396 -7.65279,65.7072 -19.06776,8.9675 -72.45957,11.203 -99.12669,6.0331 -35.37333,-6.8579 -45.55019,-19.1762 -46.85224,-42.7026 -0.5314,-9.602 3.44191,-17.36 14.64353,-28.7568 z"
       id="path4040"
       inkscape:connector-curvature="0"
       sodipodi:nodetypes="zssssz" />
    <path
       style="color:#000000;display:inline;overflow:visible;visibility:visible;fill:#ffffff;fill-opacity:1;fill-rule:nonzero;stroke:none;stroke-width:0.9220413px;marker:none;enable-background:accumulate"
       d="m 1556.6491,1184.577 c -4.6607,-31.4449 7.7677,-114.9705 103.3121,-108.0919 95.5443,6.8785 111.08,46.1846 113.4103,57.9765 2.3304,11.7918 22.5267,78.6124 -52.0444,96.3003 -74.5713,17.6877 -141.3745,-0.9828 -164.678,-46.1849 z"
       id="path3525"
       inkscape:connector-curvature="0" />
    <path
       style="color:#000000;display:inline;overflow:visible;visibility:visible;fill:#ffffff;fill-opacity:1;fill-rule:nonzero;stroke:none;stroke-width:1px;marker:none;enable-background:accumulate"
       d="m 938.35118,1086.2126 c 69.98612,31.0197 98.42482,29.5718 151.73632,-4.4587 -31.1182,24.6589 -43.6342,55.9553 -145.08715,33.1222 -40.4073,-9.0941 -6.64917,-28.6635 -6.64917,-28.6635 z"
       id="path4480"
       inkscape:connector-curvature="0"
       sodipodi:nodetypes="ccsc" />
    <path
       style="color:#000000;display:inline;overflow:visible;visibility:visible;fill:#ffffff;fill-opacity:1;fill-rule:nonzero;stroke:none;stroke-width:1px;marker:none;enable-background:accumulate"
       d="m 1496.1025,1128.3709 c 34.6297,22.4436 48.151,28.3727 87.526,0.3521 39.375,-28.0207 48.7701,-12.382 48.7701,-12.382 l -12.8989,31.2148 c 0,0 -87.8568,53.5997 -123.3972,-19.1849 z"
       id="path3072"
       inkscape:connector-curvature="0" />
    <path
       style="color:#000000;display:inline;overflow:visible;visibility:visible;fill:#ffffff;fill-opacity:1;fill-rule:nonzero;stroke:none;stroke-width:0.74193799px;marker:none;enable-background:accumulate"
       d="m 1921.2747,183.12255 c -0.7336,-19.20925 5.8514,-26.39203 36.6602,-38.93681 30.809,-12.54478 60.0351,-6.41212 87.8924,-3.85385 32.0305,2.94151 66.1693,7.50842 77.1725,21.62136 11.0032,14.11286 19.8057,19.60121 16.1379,32.93007 -3.6677,13.32878 -7.3354,27.44172 -20.5392,32.14599 -13.2039,4.70434 -107.0977,10.97669 -122.5021,7.84051 -15.4046,-3.13617 -40.3451,-3.92026 -53.5488,-13.32886 -13.3861,-9.53839 -20.5394,-19.20917 -21.2729,-38.41841 z"
       id="path3373-0"
       inkscape:connector-curvature="0"
       sodipodi:nodetypes="zsssssssz" />
    <path
       style="color:#000000;display:inline;overflow:visible;visibility:visible;fill:#ffffff;fill-opacity:1;fill-rule:nonzero;stroke:none;stroke-width:1.05252004px;marker:none;enable-background:accumulate"
       d="m 1893.5238,275.99898 c 2.6846,-45.42743 36.6881,-55.43685 72.4814,-57.74673 35.7933,-2.30988 50.1107,4.61975 59.9539,6.1596 9.8431,1.53995 102.0109,-4.61974 114.5385,-3.07979 12.5277,1.53994 71.5867,22.32874 68.9021,58.51664 -2.6844,36.18791 -42.9519,51.58702 -84.1143,53.89689 -41.1623,2.30988 -125.2765,0 -145.8576,4.61975 -20.5812,4.61975 -79.6402,-3.0798 -85.904,-62.36645 z"
       id="path5034"
       inkscape:connector-curvature="0" />
    <path
       style="color:#000000;display:inline;overflow:visible;visibility:visible;fill:#ffffff;fill-opacity:1;fill-rule:nonzero;stroke:none;stroke-width:1px;marker:none;enable-background:accumulate"
       d="m 2014.1421,464.34286 c -57.0243,-41.23372 -60.4397,-86.77108 -49.5441,-144.9504 10.8956,-58.17932 39.6811,-24.31559 39.6811,-24.31559 0,0 -65.1914,100.00192 9.863,169.26599 z"
       id="path5002"
       inkscape:connector-curvature="0"
       sodipodi:nodetypes="cscc" />
    <path
       style="color:#000000;display:inline;overflow:visible;visibility:visible;fill:#ffffff;fill-opacity:1;fill-rule:nonzero;stroke:none;stroke-width:0.84323412px;marker:none;enable-background:accumulate"
       d="m 1726.8574,2232.4771 c 2.3005,12.6252 -23.8119,66.0408 -131.0751,61.8839 -107.2632,-4.157 -132.9195,-36.8339 -132.7741,-53.7968 0.1452,-16.963 25.2985,-44.2602 40.8877,-49.1276 15.589,-4.8673 61.3458,-15.6749 103.1168,-10.6767 46.4899,5.5627 87.423,12.3263 103.8527,26.9259 16.4297,14.5994 14.0934,21.4764 15.992,24.7913 z"
       id="path3365"
       inkscape:connector-curvature="0"
       sodipodi:nodetypes="ccccscc" />
    <path
       style="color:#000000;display:inline;overflow:visible;visibility:visible;fill:#ffffff;fill-opacity:1;fill-rule:nonzero;stroke:none;stroke-width:1.50715446px;marker:none;enable-background:accumulate"
       d="m 1467.4131,2309.4063 c 35.4382,-65.1491 229.7192,-65.3935 289.4258,-36.497 59.7063,28.8961 68.3393,64.2591 70.6337,81.6125 2.2943,17.3533 -7.1694,118.76 -38.6291,134.2363 -31.4597,15.4759 -120.4264,22.5595 -151.4111,22.2827 -30.9849,-0.2768 -129.593,-11.1873 -153.927,-34.4652 -23.2781,-22.2681 -51.5305,-102.0204 -16.0923,-167.1693 z"
       id="path3330"
       inkscape:connector-curvature="0"
       sodipodi:nodetypes="zsssssz" />
    <path
       style="color:#000000;display:inline;overflow:visible;visibility:visible;fill:#ffffff;fill-opacity:1;fill-rule:nonzero;stroke:none;stroke-width:1.07720649px;marker:none;enable-background:accumulate"
       d="m 1664.135,2448.2545 c -69.9893,51.1328 8.9085,162.5856 132.4832,191.8362 -158.9941,-19.5502 -214.8639,-129.8242 -184.2863,-182.6082 -12.1609,-26.4834 51.8031,-9.228 51.8031,-9.228 z"
       id="path4008"
       inkscape:connector-curvature="0"
       sodipodi:nodetypes="cccc" />
    <path
       style="color:#000000;display:inline;overflow:visible;visibility:visible;fill:#ffffff;fill-opacity:1;fill-rule:nonzero;stroke:none;stroke-width:0.92337912px;marker:none;enable-background:accumulate"
       d="M 91.805509,69.839589 C 118.1593,44.819976 351.91785,57.851953 407.96113,125.92711 464.00427,194.00223 406.70535,286.4242 365.87638,303.1038 325.04754,319.78343 170.58392,330.08958 120.32725,309.42951 53.662925,282.02438 38.98534,238.1613 45.525484,179.35037 48.194771,155.34755 65.45156,94.859486 91.805509,69.839589 Z"
       id="path4040-0"
       inkscape:connector-curvature="0"
       sodipodi:nodetypes="zssssz" />
    <path
       style="color:#000000;display:inline;overflow:visible;visibility:visible;fill:#ffffff;fill-opacity:1;fill-rule:nonzero;stroke:none;stroke-width:1.19445169px;marker:none;enable-background:accumulate"
       d="m 439.87684,453.15977 c 4.06309,18.57864 -27.2505,98.88751 -172.70425,97.83625 C 121.71884,549.94461 84.54345,502.7959 83.463515,477.68016 c -1.0801,-25.11588 30.901265,-66.71813 51.629025,-74.66443 20.72762,-7.94615 81.82907,-26.12016 138.72683,-20.70852 63.32539,6.02278 119.22219,14.08745 142.55253,34.91661 23.33015,20.82888 20.68633,31.11947 23.50494,35.93595 z"
       id="path3365-6"
       inkscape:connector-curvature="0"
       sodipodi:nodetypes="ccccscc" />
    <path
       style="color:#000000;display:inline;overflow:visible;visibility:visible;fill:#ffffff;fill-opacity:1;fill-rule:nonzero;stroke:none;stroke-width:1.17923069px;marker:none;enable-background:accumulate"
       d="m 421.00062,1204.9587 c -82.04637,41.839 -98.69807,91.9551 -101.02486,156.986 -2.32681,65.0308 42.64616,29.4851 42.64616,29.4851 0,0 -53.69551,-114.8291 58.3787,-186.4711 z"
       id="path5002-1"
       inkscape:connector-curvature="0"
       sodipodi:nodetypes="cscc" />
  </g>
  <g
     inkscape:groupmode="layer"
     id="layer1"
     inkscape:label="txt">
    <text
       xml:space="preserve"
       style="font-style:normal;font-variant:normal;font-weight:normal;font-stretch:normal;line-height:0%;font-family:Lavi;-inkscape-font-specification:Lavi;text-align:center;letter-spacing:0px;word-spacing:0px;text-anchor:middle;fill:#000000;fill-opacity:1;stroke:none"
       x="131.66629"
       y="1387.2563"
       id="text4246-5-5"><tspan
         sodipodi:role="line"
         style="font-style:italic;font-variant:normal;font-weight:normal;font-stretch:normal;font-size:45px;line-height:1.25;font-family:Lavi;-inkscape-font-specification:'Lavi Italic';text-align:start;text-anchor:start"
         x="131.66629"
         y="1387.2563"
         id="tspan111">.i klama fo </tspan><tspan
         sodipodi:role="line"
         style="font-style:italic;font-variant:normal;font-weight:normal;font-stretch:normal;font-size:45px;line-height:1.25;font-family:Lavi;-inkscape-font-specification:'Lavi Italic';text-align:start;text-anchor:start"
         x="131.66629"
         y="1443.5063"
         id="tspan115">le se linji be le tordu</tspan><tspan
         sodipodi:role="line"
         style="font-style:italic;font-variant:normal;font-weight:normal;font-stretch:normal;font-size:45px;line-height:1.25;font-family:Lavi;-inkscape-font-specification:'Lavi Italic';text-align:start;text-anchor:start"
         x="131.66629"
         y="1499.7563"
         id="tspan70">.i se ki'u bo</tspan><tspan
         sodipodi:role="line"
         style="font-style:italic;font-variant:normal;font-weight:normal;font-stretch:normal;font-size:45px;line-height:1.25;font-family:Lavi;-inkscape-font-specification:'Lavi Italic';text-align:start;text-anchor:start"
         x="131.66629"
         y="1556.0063"
         id="tspan125">ca zenba le ka jibni</tspan><tspan
         sodipodi:role="line"
         style="font-style:italic;font-variant:normal;font-weight:normal;font-stretch:normal;font-size:45px;line-height:1.25;font-family:Lavi;-inkscape-font-specification:'Lavi Italic';text-align:start;text-anchor:start"
         x="131.66629"
         y="1612.2563"
         id="tspan117">le jai gau bandu</tspan></text>
    <text
       xml:space="preserve"
       style="font-style:normal;font-variant:normal;font-weight:normal;font-stretch:normal;font-size:12.14492035px;line-height:0%;font-family:Lavi;-inkscape-font-specification:Lavi;text-align:center;letter-spacing:0px;word-spacing:0px;text-anchor:middle;fill:#000000;fill-opacity:1;stroke:none;stroke-width:1.01207674"
       x="869.58752"
       y="1001.2357"
       id="text4246-5"><tspan
         sodipodi:role="line"
         style="font-size:45.54345322px;line-height:1.25;stroke-width:1.01207674"
         x="869.58752"
         y="1001.2357"
         id="tspan859">.i le xu .ua nai</tspan></text>
    <text
       xml:space="preserve"
       style="font-style:normal;font-variant:normal;font-weight:normal;font-stretch:normal;line-height:0%;font-family:Lavi;-inkscape-font-specification:Lavi;text-align:center;letter-spacing:0px;word-spacing:0px;text-anchor:middle;fill:#000000;fill-opacity:1;stroke:none"
       x="922.27435"
       y="1072.9119"
       id="text4246-5-3"><tspan
         sodipodi:role="line"
         style="font-size:45px;line-height:1.25"
         x="922.27435"
         y="1076.3997"
         id="tspan890" /><tspan
         sodipodi:role="line"
         style="font-size:45px;line-height:1.25"
         x="922.27435"
         y="1114.1161"
         id="tspan917">jatna</tspan></text>
    <text
       xml:space="preserve"
       style="font-style:normal;font-variant:normal;font-weight:normal;font-stretch:normal;line-height:0%;font-family:Lavi;-inkscape-font-specification:Lavi;text-align:center;letter-spacing:0px;word-spacing:0px;text-anchor:middle;fill:#000000;fill-opacity:1;stroke:none"
       x="1665.2767"
       y="1096.7792"
       id="text4246-5-3-7"><tspan
         sodipodi:role="line"
         style="font-size:45px;line-height:1.25"
         x="1665.2767"
         y="1100.2766"
         id="tspan890-5" /><tspan
         sodipodi:role="line"
         style="font-size:45px;line-height:1.25"
         x="1665.2767"
         y="1138.0197"
         id="tspan917-6">.i ku'i</tspan><tspan
         sodipodi:role="line"
         style="font-size:45px;line-height:1.25"
         x="1665.2767"
         y="1194.2697"
         id="tspan143">zvati ma</tspan></text>
    <text
       xml:space="preserve"
       style="font-style:normal;font-variant:normal;font-weight:normal;font-stretch:normal;line-height:0%;font-family:Lavi;-inkscape-font-specification:Lavi;text-align:center;letter-spacing:0px;word-spacing:0px;text-anchor:middle;fill:#000000;fill-opacity:1;stroke:none"
       x="2031.5693"
       y="160.21571"
       id="text4246-5-3-7-2"><tspan
         sodipodi:role="line"
         style="font-size:45px;line-height:1.25"
         x="2031.5693"
         y="163.71317"
         id="tspan890-5-9" /><tspan
         sodipodi:role="line"
         style="font-size:45px;line-height:1.25"
         x="2031.5693"
         y="201.45618"
         id="tspan917-6-7">.i .ua sai</tspan></text>
    <text
       xml:space="preserve"
       style="font-style:normal;font-variant:normal;font-weight:normal;font-stretch:normal;line-height:0%;font-family:Lavi;-inkscape-font-specification:Lavi;text-align:center;letter-spacing:0px;word-spacing:0px;text-anchor:middle;fill:#000000;fill-opacity:1;stroke:none"
       x="2052.343"
       y="246.80626"
       id="text4246-5-3-7-2-0"><tspan
         sodipodi:role="line"
         style="font-size:45px;line-height:1.25"
         x="2052.343"
         y="250.30371"
         id="tspan890-5-9-9" /><tspan
         sodipodi:role="line"
         style="font-style:normal;font-variant:normal;font-weight:bold;font-stretch:normal;font-size:53.33333206px;line-height:1.25;font-family:Lavi;-inkscape-font-specification:'Lavi Bold'"
         x="2052.343"
         y="295.68384"
         id="tspan917-6-7-6">.i do .u'a .ui</tspan></text>
    <text
       xml:space="preserve"
       style="font-style:normal;font-variant:normal;font-weight:normal;font-stretch:normal;line-height:0%;font-family:Lavi;-inkscape-font-specification:Lavi;text-align:center;letter-spacing:0px;word-spacing:0px;text-anchor:middle;fill:#000000;fill-opacity:1;stroke:none"
       x="1587.4655"
       y="2242.7827"
       id="text4246-5-3-7-6"><tspan
         sodipodi:role="line"
         style="font-style:italic;font-variant:normal;font-weight:normal;font-stretch:normal;font-size:45px;line-height:1.25;font-family:Lavi;-inkscape-font-specification:'Lavi Italic'"
         x="1587.4655"
         y="2242.7827"
         id="tspan917-6-8">.i .a'i cu'i</tspan></text>
    <text
       xml:space="preserve"
       style="font-style:normal;font-variant:normal;font-weight:normal;font-stretch:normal;line-height:0%;font-family:Lavi;-inkscape-font-specification:Lavi;text-align:center;letter-spacing:0px;word-spacing:0px;text-anchor:middle;fill:#000000;fill-opacity:1;stroke:none"
       x="1640.2002"
       y="2304.2234"
       id="text4246-5-3-79"><tspan
         sodipodi:role="line"
         style="font-size:45px;line-height:1.25"
         x="1640.2002"
         y="2307.7209"
         id="tspan890-2" /><tspan
         sodipodi:role="line"
         style="font-size:45px;line-height:1.25"
         x="1640.2002"
         y="2345.4639"
         id="tspan1138">.i frili fau</tspan><tspan
         sodipodi:role="line"
         style="font-size:45px;line-height:1.25"
         x="1640.2002"
         y="2401.7139"
         id="tspan154">le nu djuno</tspan><tspan
         sodipodi:role="line"
         style="font-size:45px;line-height:1.25"
         x="1640.2002"
         y="2457.9639"
         id="tspan156">fi le nu ruble</tspan><tspan
         sodipodi:role="line"
         style="font-size:45px;line-height:1.25"
         x="1640.2002"
         y="2476.4709"
         id="tspan917-3" /></text>
    <text
       xml:space="preserve"
       style="font-style:normal;font-variant:normal;font-weight:normal;font-stretch:normal;line-height:0%;font-family:Lavi;-inkscape-font-specification:Lavi;text-align:center;letter-spacing:0px;word-spacing:0px;text-anchor:middle;fill:#000000;fill-opacity:1;stroke:none"
       x="124.21524"
       y="161.71936"
       id="text4246-5-5-3"><tspan
         sodipodi:role="line"
         style="font-style:italic;font-variant:normal;font-weight:normal;font-stretch:normal;font-size:45px;line-height:1.25;font-family:Lavi;-inkscape-font-specification:'Lavi Italic';text-align:start;text-anchor:start"
         x="124.21524"
         y="161.71936"
         id="tspan78">.i lu zukte</tspan><tspan
         sodipodi:role="line"
         style="font-style:italic;font-variant:normal;font-weight:normal;font-stretch:normal;font-size:45px;line-height:1.25;font-family:Lavi;-inkscape-font-specification:'Lavi Italic';text-align:start;text-anchor:start"
         x="124.21524"
         y="217.96936"
         id="tspan82">le ka jgari</tspan><tspan
         sodipodi:role="line"
         style="font-style:italic;font-variant:normal;font-weight:normal;font-stretch:normal;font-size:45px;line-height:1.25;font-family:Lavi;-inkscape-font-specification:'Lavi Italic';text-align:start;text-anchor:start"
         x="124.21524"
         y="274.21936"
         id="tspan84">pa pimlu li'u</tspan></text>
    <text
       xml:space="preserve"
       style="font-style:normal;font-variant:normal;font-weight:normal;font-stretch:normal;font-size:11.12393284px;line-height:0%;font-family:Lavi;-inkscape-font-specification:Lavi;text-align:center;letter-spacing:0px;word-spacing:0px;text-anchor:middle;fill:#000000;fill-opacity:1;stroke:none;stroke-width:0.92699438"
       x="261.16489"
       y="450.48187"
       id="text4246-5-3-9"><tspan
         sodipodi:role="line"
         style="font-size:41.71474838px;line-height:1.25;stroke-width:0.92699438"
         x="261.16489"
         y="450.48187"
         id="tspan995">.i bu'u ti</tspan><tspan
         sodipodi:role="line"
         style="font-size:41.71474838px;line-height:1.25;stroke-width:0.92699438"
         x="261.16489"
         y="502.62531"
         id="tspan91">rau da pimlu</tspan></text>
    <text
       xml:space="preserve"
       style="font-style:normal;font-variant:normal;font-weight:normal;font-stretch:normal;font-size:9.62365437px;line-height:0%;font-family:Lavi;-inkscape-font-specification:Lavi;text-align:center;letter-spacing:0px;word-spacing:0px;text-anchor:middle;fill:#000000;fill-opacity:1;stroke:none;stroke-width:0.80197126"
       x="13.33729"
       y="2107.6648"
       id="text4246-5-5-8"
       transform="matrix(0.90354167,-0.46833278,0.47503417,0.86053134,0,0)"><tspan
         sodipodi:role="line"
         style="font-style:italic;font-variant:normal;font-weight:normal;font-stretch:normal;font-size:36.08870697px;line-height:1.25;font-family:Lavi;-inkscape-font-specification:'Lavi Italic';text-align:start;text-anchor:start;fill:#ffffff;fill-opacity:1;stroke-width:0.80197126"
         x="13.33729"
         y="2107.6648"
         id="tspan478-2">.trik.</tspan></text>
    <text
       xml:space="preserve"
       style="font-style:normal;font-variant:normal;font-weight:normal;font-stretch:normal;font-size:9.62365437px;line-height:0%;font-family:Lavi;-inkscape-font-specification:Lavi;text-align:center;letter-spacing:0px;word-spacing:0px;text-anchor:middle;fill:#000000;fill-opacity:1;stroke:none;stroke-width:0.80197126"
       x="50.222191"
       y="2071.1909"
       id="text4246-5-5-8-3"
       transform="matrix(0.90354167,-0.46833278,0.47503417,0.86053134,0,0)"
       inkscape:transform-center-x="-64.107832"
       inkscape:transform-center-y="11.506534"><tspan
         sodipodi:role="line"
         style="font-style:italic;font-variant:normal;font-weight:normal;font-stretch:normal;font-size:36.08870697px;line-height:1.25;font-family:Lavi;-inkscape-font-specification:'Lavi Italic';text-align:start;text-anchor:start;fill:#ffffff;fill-opacity:1;stroke-width:0.80197126"
         x="50.222191"
         y="2071.1909"
         id="tspan478-2-7">.trik.</tspan></text>
  </g>
</svg>
