<?xml version="1.0" encoding="UTF-8" standalone="no"?>
<!-- Created with Inkscape (http://www.inkscape.org/) -->

<svg
   id="svg2"
   version="1.1"
   inkscape:version="1.4 (unknown)"
   width="3840"
   height="3840"
   sodipodi:docname="002.svg"
   inkscape:export-filename="2024-04-26_monsterC.png"
   inkscape:export-xdpi="90"
   inkscape:export-ydpi="90"
   xmlns:inkscape="http://www.inkscape.org/namespaces/inkscape"
   xmlns:sodipodi="http://sodipodi.sourceforge.net/DTD/sodipodi-0.dtd"
   xmlns:xlink="http://www.w3.org/1999/xlink"
   xmlns="http://www.w3.org/2000/svg"
   xmlns:svg="http://www.w3.org/2000/svg"
   xmlns:rdf="http://www.w3.org/1999/02/22-rdf-syntax-ns#"
   xmlns:cc="http://creativecommons.org/ns#"
   xmlns:dc="http://purl.org/dc/elements/1.1/"
   xmlns:krita="http://krita.org/namespaces/svg/krita">
  <metadata
     id="metadata8">
    <rdf:RDF>
      <cc:Work
         rdf:about="">
        <dc:format>image/svg+xml</dc:format>
        <dc:type
           rdf:resource="http://purl.org/dc/dcmitype/StillImage" />
        <dc:title />
      </cc:Work>
    </rdf:RDF>
  </metadata>
  <defs
     id="defs6">
    <rect
       x="931.53591"
       y="836.48123"
       width="1121.6453"
       height="490.48217"
       id="rect3" />
    <rect
       x="3093.4999"
       y="721.62498"
       width="514.62499"
       height="129.375"
       id="rect2" />
    <rect
       x="3201.4418"
       y="2543.6634"
       width="372.61436"
       height="140.68093"
       id="rect1" />
    <rect
       x="3201.4419"
       y="2543.6633"
       width="372.61435"
       height="140.68092"
       id="rect1-3" />
    <rect
       x="3201.4419"
       y="2543.6633"
       width="372.61435"
       height="140.68092"
       id="rect1-3-7" />
    <rect
       x="3093.5"
       y="721.625"
       width="514.625"
       height="129.375"
       id="rect2-5" />
    <rect
       x="3093.5"
       y="721.625"
       width="514.625"
       height="129.375"
       id="rect2-5-1" />
    <rect
       x="3093.5"
       y="721.625"
       width="514.625"
       height="129.375"
       id="rect2-5-9" />
    <rect
       x="931.53589"
       y="836.4812"
       width="927.7337"
       height="475.27341"
       id="rect3-3" />
    <rect
       x="931.53589"
       y="836.4812"
       width="1032.1029"
       height="1088.6668"
       id="rect3-9" />
    <rect
       x="931.53589"
       y="836.4812"
       width="448.32746"
       height="676.95465"
       id="rect3-3-0" />
    <filter
       style="color-interpolation-filters:sRGB"
       id="filter3018-3-2-2-7-3"
       inkscape:label="Lapping"
       inkscape:menu="Distort"
       inkscape:menu-tooltip="Something like a water noise"
       height="1.0580372"
       y="-0.029018599"
       width="1.0174004"
       x="-0.0087002209">
      <feTurbulence
         id="feTurbulence3020-6-9-0-4-7"
         numOctaves="6"
         seed="0"
         type="turbulence"
         baseFrequency="0.0704375"
         result="result1" />
      <feGaussianBlur
         id="feGaussianBlur3022-7-1-2-4-5"
         stdDeviation="2 9.5259999999999998"
         result="result2"
         baseFrequency="7.0949999999999998" />
      <feDisplacementMap
         id="feDisplacementMap3024-5-2-3-3-9"
         in2="result2"
         scale="100"
         yChannelSelector="B"
         xChannelSelector="R"
         in="SourceGraphic" />
    </filter>
    <filter
       style="color-interpolation-filters:sRGB"
       id="filter1"
       inkscape:label="filter2" />
  </defs>
  <sodipodi:namedview
     pagecolor="#444444"
     bordercolor="#000000"
     borderopacity="1"
     objecttolerance="10"
     gridtolerance="10"
     guidetolerance="10"
     inkscape:pageopacity="0"
     inkscape:pageshadow="2"
     inkscape:window-width="1920"
     inkscape:window-height="970"
     id="namedview4"
     showgrid="false"
     inkscape:zoom="0.2630065"
     inkscape:cx="2129.2249"
     inkscape:cy="1077.9201"
     inkscape:window-x="0"
     inkscape:window-y="70"
     inkscape:window-maximized="1"
     inkscape:current-layer="layer3"
     inkscape:showpageshadow="0"
     inkscape:pagecheckerboard="0"
     inkscape:deskcolor="#d1d1d1" />
  <g
     inkscape:groupmode="layer"
     id="layer2"
     inkscape:label="artwork"
     sodipodi:insensitive="true">
    <image
       xlink:href="../002.jpg"
       y="0"
       x="0"
       id="2024-04-21_morning-routine"
       height="3840"
       width="3840" />
  </g>
  <g
     inkscape:groupmode="layer"
     id="layer3"
     inkscape:label="speechbubbles"
     style="display:inline">
    <path
       style="color:#000000;display:inline;overflow:visible;visibility:visible;fill:#ffffff;fill-opacity:1;fill-rule:nonzero;stroke:none;stroke-width:1.15108px;marker:none;enable-background:accumulate"
       d="m 1312.5209,353.20703 c -151.0211,0.60498 -304.69,-4.49444 -452.24145,24.39258 C 737.85818,403.796 639.78698,488.95543 628.5904,585.27972 c -0.27651,86.84195 89.61011,167.55282 201.9682,184.48338 71.59548,12.36916 144.85249,17.79233 217.6341,24.4925 125.0881,7.01572 250.2384,-3.1175 375.0963,-8.19218 86.6226,-4.48996 176.5166,-5.09556 257.2558,-32.27591 77.5792,-25.53103 141.0155,-79.3175 154.9785,-143.29425 9.9325,-46.07396 -14.4575,-92.5525 -51.215,-128.72135 -63.8458,-65.07327 -163.9936,-106.72466 -268.8457,-120.41335 -66.9227,-9.07238 -135.2336,-8.12207 -202.9417,-8.15153 z"
       id="path4546-6-2"
       inkscape:connector-curvature="0"
       sodipodi:nodetypes="cssssssscc" />
    <path
       style="color:#000000;display:inline;overflow:visible;visibility:visible;fill:#0f0f0f;fill-opacity:1;fill-rule:nonzero;stroke:none;stroke-width:1.04831px;marker:none;enable-background:accumulate"
       d="m 1975.3889,639.67592 c 6.1747,-143.46522 22.5363,-237.98265 76.1156,-278.19871 164.5491,-123.50888 379.325,-65.17466 436.5633,-12.95106 155.6843,142.0441 113.5531,296.31972 73.4599,425.84495 -19.3897,62.64101 -81.1423,112.818 -154.2858,123.59752 -110.4538,16.27817 -231.3631,12.01429 -294.0533,-16.69828 -88.0774,-40.34016 -119.9746,-122.83177 -137.7997,-241.59442 z"
       id="path3986-3-7-0"
       inkscape:connector-curvature="0"
       sodipodi:nodetypes="csssssc" />
    <path
       style="color:#000000;display:inline;overflow:visible;visibility:visible;fill:#0f0f0f;fill-opacity:1;fill-rule:nonzero;stroke:none;stroke-width:0.816983px;marker:none;enable-background:accumulate"
       d="m 206.17787,2684.2218 c 5.35379,-86.1236 19.54048,-142.8634 65.99749,-167.0056 142.67548,-74.1436 328.90085,-39.1249 378.53044,-7.7746 134.98907,85.2706 98.45837,177.8838 63.69493,255.6391 -16.81227,37.6041 -70.35605,67.7258 -133.77652,74.1969 -95.77108,9.7719 -200.60778,7.2122 -254.96451,-10.0242 -76.36911,-24.2166 -104.02618,-73.7371 -119.48183,-145.0316 z"
       id="path3986-3-7-0-7"
       inkscape:connector-curvature="0"
       sodipodi:nodetypes="csssssc" />
    <path
       style="color:#000000;display:inline;overflow:visible;visibility:visible;fill:#ffffff;fill-opacity:1;fill-rule:nonzero;stroke:none;stroke-width:1.03691px;marker:none;enable-background:accumulate"
       d="m 3002.1114,1157.2792 c -126.1185,0.2592 -273.9566,-2.2686 -390.9506,43.0689 -56.1399,20.9922 -75.4066,87.3079 -91.228,139.9368 -29.3671,96.4164 13.999,232.1339 74.7571,316.2691 121.2497,167.9014 447.9609,152.4039 639.6521,143.5942 164.7399,-7.5711 265.2901,-43.8114 356.1765,-190.5286 40.3081,-65.0692 66.0194,-142.5271 65.8499,-229.0336 -4.3663,-38.6147 -4.5189,-100.0921 -33.7121,-129.7021 -41.081,-43.6288 -93.3499,-61.2172 -154.5062,-73.7197 -67.7929,-19.1809 -153.7479,-14.9173 -224.5386,-16.4774 -80.4487,-3.1642 -160.9907,-3.486 -241.5001,-3.4076 z"
       id="path4546-6-2-3"
       inkscape:connector-curvature="0"
       sodipodi:nodetypes="csssssccccc" />
    <path
       style="color:#000000;display:inline;overflow:visible;visibility:visible;fill:#ffffff;fill-opacity:1;fill-rule:nonzero;stroke:none;stroke-width:0.999999px;marker:none;enable-background:accumulate"
       d="m 2369.5565,1325.5034 c 74.8419,-44.8703 148.82,-0.8571 155.9094,45.9451 36.723,36.1007 31.9031,-41.1512 31.9031,-41.1512 0,0 4.7438,-17.0874 -4.0747,-24.9227 -26.2762,-23.3478 -94.0991,-69.0641 -183.7378,20.1288 z"
       id="path3072-7-6"
       inkscape:connector-curvature="0"
       sodipodi:nodetypes="cccsc" />
    <path
       style="color:#000000;display:inline;overflow:visible;visibility:visible;fill:#0f0f0f;fill-opacity:1;fill-rule:nonzero;stroke:none;stroke-width:1px;marker:none;enable-background:accumulate"
       d="m 2546.0662,639.46506 c 9.8059,29.26131 -4.631,47.21189 24.1768,69.64249 5.8179,3.75912 35.4198,-0.17066 43.0408,6.24193 7.621,6.41259 7.5356,34.7086 13.3447,37.05618 5.8087,2.34693 36.8329,-12.336 42.5175,-6.70591 5.6848,5.63021 19.7703,49.0961 24.6315,50.50519 4.8614,1.40871 -3.3651,29.25872 69.5303,-4.67276 -52.2055,55.71203 -81.233,28.27455 -88.8542,21.86174 -7.6212,-6.41256 -13.3856,-35.96176 -22.1195,-38.93535 -8.7339,-2.97407 -38.7279,10.45893 -46.3077,2.95202 -7.5798,-7.50694 -9.7612,-27.83123 -9.7612,-27.83123 -8.1996,8.90798 -59.7606,16.87882 -89.4548,-27.63649 -29.694,-44.51494 39.2558,-82.47781 39.2558,-82.47781 z"
       id="path5050-7"
       inkscape:connector-curvature="0"
       sodipodi:nodetypes="cccccccccccsc" />
    <path
       style="color:#000000;display:inline;overflow:visible;visibility:visible;fill:#0f0f0f;fill-opacity:1;fill-rule:nonzero;stroke:none;stroke-width:0.999998px;marker:none;enable-background:accumulate"
       d="m 736.65964,2690.0241 c 11.65045,25.2313 2.36755,41.8083 28.40198,60.0061 5.15837,2.9964 50.14558,-1.9772 54.82682,5.6558 4.68113,7.6332 -1.20277,31.0175 2.88761,34.7339 4.09028,3.7158 31.53113,1.0432 34.84881,7.4374 3.31774,6.3944 5.47107,46.6575 9.00815,49.3079 3.53744,2.6503 -8.66344,23.1793 55.69567,17.3698 -52.54907,30.1486 -69.75968,-1.4171 -74.44102,-9.0504 -4.68129,-7.6329 -3.14495,-33.8408 -9.40904,-38.9685 -6.26406,-5.128 -32.63705,-3.1749 -37.06073,-11.7007 -4.42381,-8.5258 -1.96311,-26.0071 -1.96311,-26.0071 -8.28599,4.8655 -54.10091,23.5187 -83.69504,-14.0721 -29.59401,-37.5903 20.8999,-74.7121 20.8999,-74.7121 z"
       id="path5050-7-5"
       inkscape:connector-curvature="0"
       sodipodi:nodetypes="cccccccccccsc" />
    <path
       style="color:#000000;display:inline;overflow:visible;visibility:visible;fill:#ffffff;fill-opacity:1;fill-rule:nonzero;stroke:none;stroke-width:1px;marker:none;enable-background:accumulate"
       d="m 997.08568,957.81299 c 72.42872,-39.67282 87.28602,-133.66248 61.36842,-169.06618 -1.7761,-55.49127 45.0151,-3.25947 45.0151,-3.25947 0,0 13.7357,6.31436 13.6269,19.12279 -0.3238,38.16626 -10.5001,127.66124 -120.01042,153.20286 z"
       id="path3072-7"
       inkscape:connector-curvature="0"
       sodipodi:nodetypes="cccsc" />
    <text
       id="shape013"
       krita:useRichText="true"
       text-rendering="auto"
       krita:textVersion="3"
       fill="#000000"
       stroke-opacity="0"
       stroke="#000000"
       stroke-width="0"
       stroke-linecap="square"
       stroke-linejoin="bevel"
       letter-spacing="0"
       text-anchor="middle"
       word-spacing="0"
       style="font-size:123.063px;font-family:'Grand Hotel';text-align:start"
       x="101.4348"
       y="3778.3242"><tspan
         x="514.39233"
         id="tspan1"
         style="stroke-width:0">Minifantasyteateret</tspan></text>
    <text
       id="shape21"
       krita:useRichText="true"
       text-rendering="auto"
       krita:textVersion="3"
       fill="#8e8b88"
       stroke-opacity="0"
       stroke="#000000"
       stroke-width="0"
       stroke-linecap="square"
       stroke-linejoin="bevel"
       letter-spacing="0"
       text-anchor="end"
       word-spacing="0"
       style="font-style:normal;font-variant:normal;font-weight:normal;font-stretch:normal;font-size:42.6667px;line-height:1;font-family:Pangolin;-inkscape-font-specification:'Pangolin, Normal';font-variant-ligatures:normal;font-variant-caps:normal;font-variant-numeric:normal;font-variant-east-asian:normal;text-align:center;letter-spacing:0;word-spacing:0;text-anchor:middle;fill:#8e8b88;stroke:#000000;stroke-width:0;stroke-linecap:square;stroke-linejoin:bevel;stroke-opacity:0;text-rendering:auto"
       x="1919.6185"
       y="3781.616"><tspan
         sodipodi:role="line"
         id="tspan20-4"
         x="1919.6185"
         y="3781.616"
         style="font-size:42.6667px;line-height:1">Lisens: Creative Commons Attribution-ShareAlike 4.0 International</tspan><tspan
         sodipodi:role="line"
         id="tspan21"
         x="1919.6185"
         y="3824.2827"
         style="font-size:42.6667px;line-height:1">Omsetjing: Arild Torvund Olsen og Karl Ove Hufthammer</tspan></text>
    <text
       id="shape22"
       krita:useRichText="true"
       text-rendering="auto"
       krita:textVersion="3"
       fill="#828181"
       stroke-opacity="0"
       stroke="#000000"
       stroke-width="0"
       stroke-linecap="square"
       stroke-linejoin="bevel"
       kerning="none"
       letter-spacing="0"
       text-anchor="middle"
       word-spacing="0"
       style="font-size:73.8377px;font-family:'Patrick Hand SC';text-align:start"
       x="1698.8492"
       y="3731.0088"><tspan
         x="1920.0739"
         id="tspan5"
         style="stroke-width:0">Episode 2</tspan></text>
  </g>
  <g
     inkscape:groupmode="layer"
     id="layer1"
     inkscape:label="txt">
    <text
       id="shape2"
       krita:useRichText="true"
       text-rendering="auto"
       krita:textVersion="3"
       fill="#000000"
       stroke-opacity="0"
       stroke="#000000"
       stroke-width="0"
       stroke-linecap="square"
       stroke-linejoin="bevel"
       letter-spacing="0"
       text-anchor="end"
       word-spacing="0"
       style="font-size:73.8377px;font-family:Pangolin;text-align:start"
       x="3040.1685"
       y="3736.7832"><tspan
         x="3680.696"
         id="tspan2"
         style="stroke-width:0">David Revoy</tspan><tspan
         x="3680.696"
         dy="73.837677"
         id="tspan3"
         style="stroke-width:0">www.davidrevoy.com</tspan></text>
    <text
       xml:space="preserve"
       id="text1"
       style="color:#000000;font-weight:bold;font-size:93px;line-height:1;font-family:DeevadHand;-inkscape-font-specification:'DeevadHand Bold';text-decoration:none;text-decoration-line:none;text-decoration-color:#000000;letter-spacing:0px;word-spacing:0px;white-space:pre;shape-inside:url(#rect3);display:inline;overflow:visible;opacity:1;fill:#000000;stroke:none;stroke-width:16.169;paint-order:stroke fill markers"
       x="258.52728"
       y="0"
       transform="translate(-260.55048,-396.85375)"><tspan
         x="1198.9634"
         y="915.49414"
         id="tspan12"><tspan
           style="font-weight:normal;-inkscape-font-specification:DeevadHand;text-align:center;text-anchor:middle"
           id="tspan11">Å, mørke ånd,
</tspan></tspan><tspan
         x="958.38037"
         y="1008.4941"
         id="tspan14"><tspan
           style="font-weight:normal;-inkscape-font-specification:DeevadHand;text-align:center;text-anchor:middle"
           id="tspan13">du som oppfyller ynske,
</tspan></tspan><tspan
         x="1110.5498"
         y="1101.4941"
         id="tspan42"><tspan
           style="font-weight:normal;-inkscape-font-specification:DeevadHand;text-align:center;text-anchor:middle"
           id="tspan41">eg påkallar deg!  </tspan></tspan></text>
    <text
       xml:space="preserve"
       id="text1-1"
       style="color:#000000;font-weight:bold;font-size:93px;line-height:1;font-family:DeevadHand;-inkscape-font-specification:'DeevadHand Bold';text-decoration:none;text-decoration-line:none;text-decoration-color:#000000;letter-spacing:0px;word-spacing:0px;white-space:pre;shape-inside:url(#rect3-9);shape-padding:28.75;display:inline;overflow:visible;fill:#000000;stroke:none;stroke-width:16.169;paint-order:stroke fill markers"
       x="1748.094"
       y="0"
       transform="translate(1639.4046,385.37717)"><tspan
         x="986.90088"
         y="944.24414"
         id="tspan44"><tspan
           style="font-weight:normal;-inkscape-font-specification:DeevadHand;text-align:center;text-anchor:middle"
           id="tspan43">Eg vil ha eit monster </tspan></tspan><tspan
         x="1084.7598"
         y="1037.2441"
         id="tspan46">utan moral<tspan
   style="font-weight:normal;-inkscape-font-specification:DeevadHand;text-align:center;text-anchor:middle"
   id="tspan45">, med </tspan></tspan><tspan
         x="1025.4995"
         y="1130.2441"
         id="tspan48">dødeleg presisjon<tspan
   style="font-weight:normal;-inkscape-font-specification:DeevadHand;text-align:center;text-anchor:middle"
   id="tspan47">, </tspan></tspan><tspan
         x="1192.3818"
         y="1223.2441"
         id="tspan50">nattsyn<tspan
   style="font-weight:normal;-inkscape-font-specification:DeevadHand;text-align:center;text-anchor:middle"
   id="tspan49"> og
</tspan></tspan><tspan
         x="1164.2729"
         y="1316.2441"
         id="tspan52">skarpe klør<tspan
   style="font-weight:normal;-inkscape-font-specification:DeevadHand;text-align:center;text-anchor:middle"
   id="tspan51">.</tspan></tspan></text>
    <text
       xml:space="preserve"
       id="text1-6"
       style="color:#000000;font-weight:bold;font-size:93px;line-height:1;font-family:DeevadHand;-inkscape-font-specification:'DeevadHand Bold';text-decoration:none;text-decoration-line:none;text-decoration-color:#000000;letter-spacing:0px;word-spacing:0px;white-space:pre;shape-inside:url(#rect3-3);display:inline;overflow:visible;fill:#ffffff;stroke:none;stroke-width:16.169;paint-order:stroke fill markers"
       x="258.52728"
       y="0"
       transform="translate(889.34787,-412.72097)"><tspan
         x="1173.8008"
         y="915.49414"
         id="tspan54"><tspan
           style="font-weight:normal;-inkscape-font-specification:DeevadHand;text-align:center;text-anchor:middle"
           id="tspan53">Sei kva du
</tspan></tspan><tspan
         x="1201.4556"
         y="1008.4941"
         id="tspan56"><tspan
           style="font-weight:normal;-inkscape-font-specification:DeevadHand;text-align:center;text-anchor:middle"
           id="tspan55">ynskjer,
</tspan></tspan><tspan
         x="1276.8364"
         y="1101.4941"
         id="tspan58"><tspan
           style="font-weight:normal;-inkscape-font-specification:DeevadHand;text-align:center;text-anchor:middle"
           id="tspan57">vesle
</tspan></tspan><tspan
         x="1172.0298"
         y="1194.4941"
         id="tspan60"><tspan
           style="font-weight:normal;-inkscape-font-specification:DeevadHand;text-align:center;text-anchor:middle"
           id="tspan59">menneske!</tspan></tspan></text>
    <text
       xml:space="preserve"
       id="text1-6-6"
       style="color:#000000;font-weight:bold;font-size:93px;line-height:1;font-family:DeevadHand;-inkscape-font-specification:'DeevadHand Bold';text-decoration:none;text-decoration-line:none;text-decoration-color:#000000;letter-spacing:0px;word-spacing:0px;white-space:pre;shape-inside:url(#rect3-3-0);display:inline;overflow:visible;fill:#ffffff;stroke:none;stroke-width:16.169;paint-order:stroke fill markers"
       x="258.52728"
       y="0"
       transform="translate(-680.79391,1732.5585)"><tspan
         x="1002.6216"
         y="915.49414"
         id="tspan62"><tspan
           style="font-weight:normal;-inkscape-font-specification:DeevadHand;text-align:center;text-anchor:middle"
           id="tspan61">Som du </tspan></tspan><tspan
         x="960.07227"
         y="1008.4941"
         id="tspan64"><tspan
           style="font-weight:normal;-inkscape-font-specification:DeevadHand;text-align:center;text-anchor:middle"
           id="tspan63">ynskjer!</tspan></tspan></text>
    <text
       xml:space="preserve"
       style="color:#000000;font-weight:bold;font-size:128.883px;line-height:1.55;font-family:DeevadHand;-inkscape-font-specification:'DeevadHand Bold';text-decoration:none;text-decoration-line:none;text-decoration-color:#000000;letter-spacing:0px;word-spacing:0px;overflow:visible;opacity:1;fill:#ffffff;stroke:#b14b13;stroke-width:30.869;stroke-dasharray:none;stroke-opacity:1;paint-order:stroke fill markers"
       x="656.95581"
       y="3746.1035"
       id="text7"
       transform="matrix(0.96353724,-0.46867448,0,1.0378426,0,0)"><tspan
         sodipodi:role="line"
         id="tspan7"
         x="656.95581"
         y="3746.1035"
         style="stroke:#b14b13;stroke-width:30.869;stroke-dasharray:none;stroke-opacity:1"><tspan
   style="font-size:144.013px;stroke-width:30.869"
   id="tspan6">D</tspan>z<tspan
   style="font-size:121.318px;stroke-width:30.869"
   id="tspan8">io</tspan>! </tspan></text>
  </g>
</svg>
