<?xml version="1.0" encoding="UTF-8" standalone="no"?>
<svg
   xmlns:dc="http://purl.org/dc/elements/1.1/"
   xmlns:cc="http://creativecommons.org/ns#"
   xmlns:rdf="http://www.w3.org/1999/02/22-rdf-syntax-ns#"
   xmlns:svg="http://www.w3.org/2000/svg"
   xmlns="http://www.w3.org/2000/svg"
   xmlns:xlink="http://www.w3.org/1999/xlink"
   xmlns:sodipodi="http://sodipodi.sourceforge.net/DTD/sodipodi-0.dtd"
   xmlns:inkscape="http://www.inkscape.org/namespaces/inkscape"
   sodipodi:docname="E29P05.svg"
   height="3503"
   width="2481"
   inkscape:version="1.0 (4035a4fb49, 2020-05-01)"
   version="1.1"
   id="svg2">
  <metadata
     id="metadata8">
    <rdf:RDF>
      <cc:Work
         rdf:about="">
        <dc:format>image/svg+xml</dc:format>
        <dc:type
           rdf:resource="http://purl.org/dc/dcmitype/StillImage" />
        <dc:title />
      </cc:Work>
    </rdf:RDF>
  </metadata>
  <defs
     id="defs6">
    <filter
       inkscape:label="deevad outline effect"
       id="filter4375-4-1-1-1-9"
       style="color-interpolation-filters:sRGB">
      <feFlood
         result="flood"
         flood-color="rgb(0,0,0)"
         flood-opacity="1"
         id="feFlood4377-7-9-0-8-1" />
      <feComposite
         result="composite1"
         operator="in"
         in="flood"
         in2="SourceGraphic"
         id="feComposite4379-3-8-8-2-77" />
      <feMorphology
         result="result3"
         radius="3.5"
         operator="dilate"
         id="feMorphology4393-1-0-49-8-9" />
      <feComposite
         result="composite2"
         operator="over"
         in="SourceGraphic"
         in2="result3"
         id="feComposite4385-9-5-7-0-8" />
    </filter>
    <filter
       inkscape:label="Drop Shadow"
       id="filter4375-4-1-1-1-9-5-8-8-3-3"
       style="color-interpolation-filters:sRGB">
      <feFlood
         result="flood"
         flood-color="rgb(190,113,27)"
         flood-opacity="1"
         id="feFlood4377-7-9-0-8-1-7-3-1-6-5" />
      <feComposite
         baseFrequency="0.053999999999999999 0.053999999999999999"
         result="composite1"
         operator="in"
         in="flood"
         in2="SourceGraphic"
         id="feComposite4379-3-8-8-2-77-4-1-0-7-6" />
      <feMorphology
         result="result3"
         radius="6.2000000000000002"
         operator="dilate"
         id="feMorphology4393-1-0-49-8-9-3-0-1-5-2" />
      <feComposite
         result="fbSourceGraphic"
         operator="over"
         in="SourceGraphic"
         in2="result3"
         id="feComposite4385-9-5-7-0-8-8-7-5-3-9" />
      <feColorMatrix
         id="feColorMatrix4544-9-5-1"
         values="0 0 0 -1 0 0 0 0 -1 0 0 0 0 -1 0 0 0 0 1 0"
         in="fbSourceGraphic"
         result="fbSourceGraphicAlpha" />
      <feTurbulence
         result="turbulence"
         baseFrequency="0.053999999999999999 0.054054054054054057"
         seed="174"
         numOctaves="5"
         type="fractalNoise"
         id="feTurbulence4546-3-6-2" />
      <feDisplacementMap
         result="fbSourceGraphic"
         xChannelSelector="R"
         yChannelSelector="G"
         scale="6.6"
         in="fbSourceGraphic"
         in2="turbulence"
         id="feDisplacementMap4548-8-2-7" />
      <feColorMatrix
         id="feColorMatrix4670-7-9-0"
         values="0 0 0 -1 0 0 0 0 -1 0 0 0 0 -1 0 0 0 0 1 0"
         in="fbSourceGraphic"
         result="fbSourceGraphicAlpha" />
      <feFlood
         in="fbSourceGraphic"
         result="flood"
         flood-color="rgb(141,82,22)"
         flood-opacity="1"
         id="feFlood4672-4-1-9" />
      <feComposite
         result="composite1"
         operator="in"
         in="flood"
         in2="fbSourceGraphic"
         id="feComposite4674-8-2-3" />
      <feGaussianBlur
         result="blur"
         stdDeviation="0"
         in="composite1"
         id="feGaussianBlur4676-3-7-6" />
      <feOffset
         result="offset"
         dy="6"
         dx="6"
         id="feOffset4678-6-0-0" />
      <feComposite
         result="composite2"
         operator="over"
         in="fbSourceGraphic"
         in2="offset"
         id="feComposite4680-4-9-6" />
    </filter>
  </defs>
  <sodipodi:namedview
     inkscape:document-rotation="0"
     inkscape:current-layer="layer1"
     inkscape:window-maximized="1"
     inkscape:window-y="26"
     inkscape:window-x="0"
     inkscape:cy="2608.8009"
     inkscape:cx="1254.7931"
     inkscape:zoom="0.44827053"
     showgrid="false"
     id="namedview4"
     inkscape:window-height="1027"
     inkscape:window-width="1920"
     inkscape:pageshadow="2"
     inkscape:pageopacity="0"
     guidetolerance="10"
     gridtolerance="10"
     objecttolerance="10"
     borderopacity="1"
     bordercolor="#666666"
     pagecolor="#ffffff" />
  <g
     sodipodi:insensitive="true"
     inkscape:label="artwork"
     id="layer2"
     inkscape:groupmode="layer">
    <image
       sodipodi:absref="C:\Users\stero\Documents\Kernewek\Pepper and Carrot\webcomics\ep29_Destroyer-of-Worlds\lang\gfx_Pepper-and-Carrot_by-David-Revoy_E29P05.png"
       xlink:href="../gfx_Pepper-and-Carrot_by-David-Revoy_E29P05.png"
       width="2481"
       height="3503"
       id="image10"
       x="0"
       y="0" />
  </g>
  <g
     inkscape:label="speechbubbles"
     id="layer3"
     inkscape:groupmode="layer" />
  <g
     inkscape:label="txt"
     id="layer1"
     inkscape:groupmode="layer">
    <text
       transform="matrix(0.54306109,0.97532738,-1.0672106,-0.07527648,0,0)"
       id="text4246-7-9-2"
       y="-181.09012"
       x="271.04828"
       style="font-style:normal;font-variant:normal;font-weight:normal;font-stretch:normal;font-size:10.7275px;line-height:0%;font-family:Lavi;-inkscape-font-specification:Lavi;text-align:center;letter-spacing:0px;word-spacing:0px;text-anchor:middle;fill:#ffffff;fill-opacity:0.784314;stroke:none;stroke-width:1"
       xml:space="preserve"><tspan
         id="tspan4252-5-2-8"
         y="-181.09012"
         x="271.04828"
         style="font-style:normal;font-variant:normal;font-weight:bold;font-stretch:normal;font-size:42.9102px;line-height:1.2;font-family:Lavi;-inkscape-font-specification:'Lavi Bold';fill:#ffffff;fill-opacity:0.784314;stroke-width:0.820599"
         sodipodi:role="line">Ssss!</tspan></text>
    <text
       transform="matrix(0.69038925,-0.65410523,0.54802049,0.92923945,0,0)"
       id="text4246-7"
       y="1234.9868"
       x="843.71326"
       style="font-style:normal;font-variant:normal;font-weight:normal;font-stretch:normal;font-size:14.6235px;line-height:0%;font-family:Lavi;-inkscape-font-specification:Lavi;text-align:center;letter-spacing:0px;word-spacing:0px;text-anchor:middle;fill:#ffffff;fill-opacity:0.784314;stroke:none;stroke-width:1"
       xml:space="preserve"><tspan
         id="tspan4252-5"
         y="1234.9868"
         x="843.71326"
         style="font-style:normal;font-variant:normal;font-weight:bold;font-stretch:normal;font-size:58.4938px;line-height:1.2;font-family:Lavi;-inkscape-font-specification:'Lavi Bold';fill:#ffffff;fill-opacity:0.784314;stroke-width:0.820599"
         sodipodi:role="line">Pouf!</tspan></text>
    <text
       transform="matrix(0.96021882,-0.15106487,-0.04332115,1.0482447,0,0)"
       id="text4246-7-9-2-3"
       y="2113.0149"
       x="648.52686"
       style="font-style:normal;font-variant:normal;font-weight:normal;font-stretch:normal;font-size:10.0326px;line-height:0%;font-family:Lavi;-inkscape-font-specification:Lavi;text-align:center;letter-spacing:0px;word-spacing:0px;text-anchor:middle;fill:#ffffff;fill-opacity:0.784314;stroke:none;stroke-width:1"
       xml:space="preserve"><tspan
         id="tspan4252-5-2-8-6"
         y="2113.0149"
         x="648.52686"
         style="font-style:normal;font-variant:normal;font-weight:bold;font-stretch:normal;font-size:40.1304px;line-height:1.2;font-family:Lavi;-inkscape-font-specification:'Lavi Bold';fill:#ffffff;fill-opacity:0.784314;stroke-width:0.820599"
         sodipodi:role="line">Tock!</tspan></text>
    <text
       transform="matrix(1.0017297,-0.63749823,0.16868779,1.5037529,56.278037,1103.5637)"
       id="text4580"
       y="1584.5073"
       x="787.65729"
       style="font-style:normal;font-variant:normal;font-weight:normal;font-stretch:normal;line-height:0%;font-family:Lavi;-inkscape-font-specification:Lavi;letter-spacing:0px;word-spacing:0px;fill:#000000;fill-opacity:1;stroke:none;stroke-width:0;stroke-miterlimit:4;stroke-dasharray:none;stroke-opacity:1;filter:url(#filter4375-4-1-1-1-9)"
       xml:space="preserve"><tspan
         style="font-size:70px;line-height:1.25;fill:#ffffff;stroke:none;stroke-width:0;stroke-miterlimit:4;stroke-dasharray:none"
         y="1584.5073"
         x="787.65729"
         id="tspan4582"
         sodipodi:role="line"><tspan
           id="tspan4617"
           style="font-size:80.4001px;stroke:none;stroke-width:0;stroke-miterlimit:4;stroke-dasharray:none">Bomm!</tspan></tspan></text>
    <flowRoot
       style="font-style:normal;font-variant:normal;font-weight:normal;font-stretch:normal;font-size:0.666667px;line-height:0%;font-family:Lavi;-inkscape-font-specification:Lavi;text-align:center;letter-spacing:0px;word-spacing:-79.64px;writing-mode:lr-tb;text-anchor:middle;fill:#000000;fill-opacity:1;stroke:none;stroke-width:1px;stroke-linecap:butt;stroke-linejoin:miter;stroke-opacity:1"
       id="flowRoot861"
       xml:space="preserve"><flowRegion
         id="flowRegion863"><rect
           y="2781.261"
           x="1336.9565"
           height="36.95652"
           width="184.78261"
           id="rect865" /></flowRegion><flowPara
         id="flowPara867" /></flowRoot>
    <text
       transform="matrix(0.58578418,-0.1699252,-0.1360915,0.71361262,1817.1085,1938.4882)"
       id="text4580-6-0-0-3-2"
       y="1584.5073"
       x="787.65729"
       style="font-style:normal;font-variant:normal;font-weight:normal;font-stretch:normal;line-height:0%;font-family:Lavi;-inkscape-font-specification:Lavi;letter-spacing:0px;word-spacing:0px;fill:#fff4bf;fill-opacity:1;stroke:#98b9ca;stroke-width:1.08608;stroke-miterlimit:4;stroke-dasharray:none;stroke-opacity:1;filter:url(#filter4375-4-1-1-1-9-5-8-8-3-3)"
       xml:space="preserve"><tspan
         style="font-size:70px;line-height:1.25;fill:#fff4bf;fill-opacity:1;stroke:#98b9ca;stroke-width:1.08608;stroke-opacity:1"
         y="1584.5073"
         x="787.65729"
         id="tspan4582-1-1-0-6-6"
         sodipodi:role="line"><tspan
           id="tspan4315-8-9-0-1"
           style="font-size:93.1495px;fill:#fff4bf;fill-opacity:1;stroke:#98b9ca;stroke-width:1.08608;stroke-opacity:1">Shrr<tspan
   id="tspan4176-6-8"
   style="font-size:120.16px;fill:#fff4bf;fill-opacity:1;stroke-width:1.08608">ouf…</tspan></tspan></tspan></text>
  </g>
</svg>
