<?xml version="1.0" encoding="UTF-8" standalone="no"?>
<!-- Created with Inkscape (http://www.inkscape.org/) -->

<svg
   id="svg2"
   version="1.1"
   inkscape:version="1.3 (1:1.3+202307231459+0e150ed6c4)"
   width="2481"
   height="3503"
   sodipodi:docname="E37P05.svg"
   xmlns:inkscape="http://www.inkscape.org/namespaces/inkscape"
   xmlns:sodipodi="http://sodipodi.sourceforge.net/DTD/sodipodi-0.dtd"
   xmlns:xlink="http://www.w3.org/1999/xlink"
   xmlns="http://www.w3.org/2000/svg"
   xmlns:svg="http://www.w3.org/2000/svg"
   xmlns:rdf="http://www.w3.org/1999/02/22-rdf-syntax-ns#"
   xmlns:cc="http://creativecommons.org/ns#"
   xmlns:dc="http://purl.org/dc/elements/1.1/">
  <metadata
     id="metadata8">
    <rdf:RDF>
      <cc:Work
         rdf:about="">
        <dc:format>image/svg+xml</dc:format>
        <dc:type
           rdf:resource="http://purl.org/dc/dcmitype/StillImage" />
        <dc:title />
      </cc:Work>
    </rdf:RDF>
  </metadata>
  <defs
     id="defs6">
    <filter
       inkscape:label="Magmah-FX"
       inkscape:menu="Distort"
       inkscape:menu-tooltip="Horizontal rippling of edges"
       style="color-interpolation-filters:sRGB"
       id="filter4265-7"
       y="0"
       x="0"
       width="1"
       height="1">
      <feTurbulence
         numOctaves="1"
         baseFrequency="0.002 0.107"
         id="feTurbulence4267-7" />
      <feColorMatrix
         values="5 0 0 0 0 0 0 0 0 0 0 0 0 0 0 0 0 0 4 0 "
         result="result91"
         id="feColorMatrix4269-1" />
      <feDisplacementMap
         yChannelSelector="A"
         xChannelSelector="R"
         scale="14.3"
         in="SourceGraphic"
         in2="result91"
         id="feDisplacementMap4271-2" />
    </filter>
    <filter
       style="color-interpolation-filters:sRGB"
       inkscape:label="Magmah-spell-glow"
       id="filter4751"
       x="-0.033441791"
       y="-0.12562146"
       width="1.0668836"
       height="1.2512429">
      <feFlood
         flood-opacity="1"
         flood-color="rgb(255,255,255)"
         result="flood"
         id="feFlood4753" />
      <feComposite
         in="flood"
         in2="SourceGraphic"
         operator="in"
         result="composite1"
         id="feComposite4755" />
      <feGaussianBlur
         in="composite1"
         stdDeviation="5.4"
         result="blur"
         id="feGaussianBlur4757" />
      <feOffset
         dx="0"
         dy="0"
         result="offset"
         id="feOffset4759" />
      <feComposite
         in="SourceGraphic"
         in2="offset"
         operator="over"
         result="composite2"
         id="feComposite4761" />
    </filter>
    <filter
       inkscape:label="Magmah-FX"
       inkscape:menu="Distort"
       inkscape:menu-tooltip="Horizontal rippling of edges"
       style="color-interpolation-filters:sRGB"
       id="filter4265-7-5"
       y="0"
       x="0"
       width="1"
       height="1">
      <feTurbulence
         numOctaves="1"
         baseFrequency="0.002 0.107"
         id="feTurbulence4267-7-3" />
      <feColorMatrix
         values="5 0 0 0 0 0 0 0 0 0 0 0 0 0 0 0 0 0 4 0 "
         result="result91"
         id="feColorMatrix4269-1-5" />
      <feDisplacementMap
         yChannelSelector="A"
         xChannelSelector="R"
         scale="14.3"
         in="SourceGraphic"
         in2="result91"
         id="feDisplacementMap4271-2-6" />
    </filter>
  </defs>
  <sodipodi:namedview
     pagecolor="#ffffff"
     bordercolor="#666666"
     borderopacity="1"
     objecttolerance="10"
     gridtolerance="10"
     guidetolerance="10"
     inkscape:pageopacity="0"
     inkscape:pageshadow="2"
     inkscape:window-width="1920"
     inkscape:window-height="997"
     id="namedview4"
     showgrid="false"
     inkscape:zoom="0.27709666"
     inkscape:cx="869.73259"
     inkscape:cy="2100.3501"
     inkscape:window-x="0"
     inkscape:window-y="0"
     inkscape:window-maximized="1"
     inkscape:current-layer="layer3"
     inkscape:pagecheckerboard="0"
     inkscape:showpageshadow="0"
     inkscape:deskcolor="#d1d1d1" />
  <g
     inkscape:groupmode="layer"
     id="layer2"
     inkscape:label="artwork"
     sodipodi:insensitive="true">
    <image
       xlink:href="../gfx_Pepper-and-Carrot_by-David-Revoy_E37P05.png"
       y="0"
       x="0"
       id="image10"
       height="3503"
       width="2481" />
  </g>
  <g
     inkscape:groupmode="layer"
     id="layer3"
     inkscape:label="speechbubbles"
     style="display:inline">
    <path
       style="fill:#ffd91c;stroke:none;stroke-width:0.735674;fill-opacity:1"
       d="m 398.28776,328.0513 c -32.50907,0.82443 -64.87308,7.86521 -94.36813,20.74755 -19.79361,10.72759 -30.2288,35.30789 -22.27663,55.67821 5.18949,13.94459 17.74323,24.5008 31.87482,30.37287 24.15804,10.85447 51.26524,13.76583 77.7238,14.70761 26.4149,0.9206 53.02587,0.51527 79.16333,-3.48447 17.03013,-3.15848 33.61514,-10.09227 46.32952,-21.35892 11.4226,-10.29428 18.99687,-25.1883 17.45011,-40.26248 -1.14125,-11.2972 -8.2502,-21.39106 -17.6153,-28.27788 -9.83995,-7.23799 -21.48745,-11.88657 -33.07922,-16.04647 -27.20294,-9.25306 -56.42709,-12.1045 -85.2023,-12.07602 z"
       id="path3280-81"
       inkscape:connector-curvature="0"
       sodipodi:nodetypes="csssc" />
    <path
       style="display:inline;fill:#ffd91c;stroke:none;stroke-width:0.723252;fill-opacity:1"
       d="m 330.40527,240.44336 c -20.8785,1.1501 -42.13578,3.2898 -61.72135,11.90454 -9.7612,4.21989 -19.26426,10.82965 -24.60238,21.06986 -7.28878,13.2182 -8.42774,30.84453 -1.40121,44.47778 6.52228,12.16051 18.54318,19.84459 30.9907,22.21384 22.89398,5.76801 46.2853,8.55332 69.59925,11.33177 25.99277,1.74222 52.64484,-2.72946 76.20838,-15.25464 9.32829,-5.31996 17.52985,-14.05281 20.73776,-25.29306 4.67277,-14.35754 1.69511,-31.7808 -8.37302,-42.50248 -6.68786,-7.00558 -15.23401,-11.26472 -23.60474,-15.25055 -15.1569,-6.76025 -31.43394,-9.78978 -47.62928,-11.59339 -10.0393,-0.98861 -20.12934,-1.21511 -30.20411,-1.10367 z"
       id="path3280-81-3"
       inkscape:connector-curvature="0"
       sodipodi:nodetypes="csssc" />
    <path
       style="color:#000000;display:inline;overflow:visible;visibility:visible;fill:#ffd91c;fill-opacity:1;fill-rule:nonzero;stroke:none;stroke-width:1.80196px;marker:none;enable-background:accumulate"
       d="m 1997.6708,256.77227 c -62.0869,0.48365 -124.8633,4.73879 -184.4466,20.63284 -29.3537,8.06974 -58.0359,20.90867 -78.0406,41.54138 -20.037,22.03358 -30.4436,51.11189 -25.2972,78.95267 5.7218,18.99931 22.5262,34.10769 41.6778,44.03179 29.1563,15.71084 63.4372,22.18443 97.1265,26.1303 46.0192,4.98068 92.3629,7.35036 138.6854,8.99595 68.2186,1.37555 137.8887,-1.61372 202.8994,-20.93987 26.6868,-7.96431 52.9654,-18.51244 74.1911,-34.82551 11.5176,-9.00251 21.7673,-20.53915 23.5198,-34.23386 1.9634,-13.77296 -1.6851,-27.6539 -6.8083,-40.6453 -8.975,-21.51859 -26.8671,-40.13288 -49.7546,-51.7871 -35.1642,-18.61782 -76.0003,-27.35643 -116.4981,-32.43582 -38.8123,-4.74797 -78.1054,-5.60262 -117.2546,-5.41747 z"
       id="path5026-3"
       inkscape:connector-curvature="0"
       sodipodi:nodetypes="csssc" />
    <path
       style="color:#000000;display:inline;overflow:visible;visibility:visible;fill:#ffd91c;fill-opacity:1;fill-rule:nonzero;stroke:none;stroke-width:0.830978px;marker:none;enable-background:accumulate"
       d="m 1502.4704,908.91728 c -36.7242,0.0409 -74.4566,3.66996 -106.2709,14.09134 -16.1163,5.14877 -29.4538,12.88843 -37.0745,22.20104 -15.667,18.44907 -10.402,40.94349 10.0923,57.66344 14.4896,12.1786 37.2953,20.9945 62.3978,25.6337 37.4216,6.8734 77.2533,8.6127 116.5203,8.863 35.9197,-0.017 72.5264,0.1867 107.3677,-5.2372 18.7534,-2.9288 37.0887,-7.5795 50.9296,-15.2259 17.0396,-9.0308 27.8829,-21.33247 30.393,-34.18578 3.9237,-17.02607 -6.0332,-35.19974 -28.7945,-47.33246 -23.6525,-13.20059 -56.5621,-20.37676 -89.6581,-23.06121 -38.2726,-3.53477 -77.2304,-3.16992 -115.9027,-3.40997 z"
       id="path4040-40"
       inkscape:connector-curvature="0"
       sodipodi:nodetypes="zssssz" />
    <path
       style="color:#000000;display:inline;overflow:visible;visibility:visible;fill:#ffe4a0;fill-opacity:1;fill-rule:nonzero;stroke:none;stroke-width:0.999998px;marker:none;enable-background:accumulate"
       d="m 496.15677,1011.893 c 34.73321,-33.49717 31.89314,-53.50347 31.44376,-68.11357 -4.7651,-0.9949 -12.85059,-4.2577 -12.85059,-4.2577 0,0 1.90835,-28.8086 -1.17233,-39.94541 -3.08071,-11.13686 -17.53582,-8.20897 -17.53582,-8.20897 0,0 -5.18065,55.93348 -10.00914,67.69208 13.18767,2.2293 19.31591,4.9084 24.41808,3.8748 3.16059,8.1805 -2.4061,36.7502 -14.29396,48.95877 z"
       id="path4456-3"
       inkscape:connector-curvature="0" />
    <path
       style="color:#000000;display:inline;overflow:visible;visibility:visible;fill:#ffe4a0;fill-opacity:1;fill-rule:nonzero;stroke:none;stroke-width:0.947763px;marker:none;enable-background:accumulate"
       d="m 1028.4433,2230.2045 c -28.877,1.0196 -58.76055,5.2387 -84.79562,25.826 -19.03169,15.3377 -34.64744,43.5111 -37.33768,76.7166 -1.76893,36.4456 14.97567,71.4269 37.16939,83.7532 18.62582,11.0449 38.75975,13.6172 57.90691,21.8418 66.0878,22.2719 134.3951,26.2912 201.7641,18.8716 32.5664,-4.1385 64.9919,-12.9484 96.1033,-28.3196 18.8594,-10.1265 37.8951,-23.911 50.8742,-47.8241 12.8777,-25.8685 11.7853,-65.3122 -2.6534,-89.2819 -11.6661,-21.0778 -29.3707,-30.8669 -46.3811,-37.6953 -30.4586,-12.4648 -62.1217,-15.0043 -93.4273,-18.6285 -59.668,-5.4192 -119.4736,-5.2723 -179.2228,-5.2598 z"
       id="path4546-6-21"
       inkscape:connector-curvature="0"
       sodipodi:nodetypes="cssssc" />
    <path
       style="color:#000000;display:inline;overflow:visible;visibility:visible;fill:#ffe4a0;fill-opacity:1;fill-rule:nonzero;stroke:none;stroke-width:0.666115px;marker:none;enable-background:accumulate"
       d="m 671.57197,2205.9078 c -27.46404,0.4373 -55.59723,8.2555 -75.91376,25.0112 -22.04112,19.3881 -34.01798,46.3733 -36.71122,73.4478 -4.6171,33.3022 7.66343,68.01 32.57258,93.3176 15.45155,13.417 36.2984,20.0503 56.17199,26.6989 32.63866,10.4723 68.52532,12.3938 102.52252,6.3915 24.74397,-3.7057 49.50975,-12.4423 66.96221,-28.833 14.29698,-13.7118 20.1952,-32.479 22.13493,-50.6323 2.21372,-22.3299 0.22348,-44.8172 -3.21705,-66.9675 -3.06384,-17.0786 -10.19837,-34.2283 -24.21991,-46.7214 -12.61573,-11.5932 -29.86999,-18.0519 -47.17333,-22.2088 -19.78672,-4.7202 -40.22618,-6.8614 -60.59007,-8.5431 -10.82519,-0.7184 -21.68313,-1.0521 -32.53889,-0.9609 z"
       id="path4546-6-21-2"
       inkscape:connector-curvature="0"
       sodipodi:nodetypes="cssssc" />
    <path
       style="color:#000000;display:inline;overflow:visible;visibility:visible;fill:#ffe4a0;fill-opacity:1;fill-rule:nonzero;stroke:none;stroke-width:1.22498px;marker:none;enable-background:accumulate"
       d="m 518.2324,1903.5328 c -27.98073,-0.1636 -56.40879,-1.0758 -83.94121,7.3015 -16.15866,4.8876 -32.04321,14.6467 -42.57371,30.7656 -12.26696,18.4644 -15.05947,43.9306 -10.26312,65.9329 2.26222,10.2103 5.921,20.0073 10.99764,28.5683 5.53551,9.1193 13.39679,16.2072 22.47783,19.4754 26.03288,11.85 54.19416,15.31 82.00284,17.2238 29.11776,1.6982 58.35543,1.3834 87.5437,-0.4501 24.65989,-1.9608 49.69065,-6.0583 72.81845,-17.7598 14.0024,-7.3756 27.46826,-18.7547 34.7588,-35.3882 10.1479,-22.9945 9.02531,-52.9264 -4.37816,-72.9146 -10.78915,-15.3485 -26.99994,-23.0988 -42.9322,-27.9833 -26.32743,-7.9359 -53.65498,-9.9971 -80.74498,-12.4691 -15.22219,-1.2376 -30.4717,-2.3925 -45.76588,-2.3024 z"
       id="path4546-6-21-1"
       inkscape:connector-curvature="0"
       sodipodi:nodetypes="cssssc" />
    <path
       style="color:#000000;display:inline;overflow:visible;visibility:visible;fill:#ffe4a0;fill-opacity:1;fill-rule:nonzero;stroke:none;stroke-width:0.836036px;marker:none;enable-background:accumulate"
       d="m 509.23746,2144.0928 c 3.25193,-66.3238 48.76517,-115.7753 168.16299,-105.8779 63.95597,5.3008 136.55471,8.1188 132.53228,105.2613 -4.0225,97.1428 -108.34284,96.8911 -129.85857,99.6229 -21.5158,2.7333 -133.73771,-5.0315 -153.5919,-37.62 -12.42831,-20.3996 -17.44603,-40.8635 -17.2448,-61.3863 z"
       id="path4546-6-21-1-9"
       inkscape:connector-curvature="0"
       sodipodi:nodetypes="cssssc" />
    <path
       style="color:#000000;display:inline;overflow:visible;visibility:visible;fill:#ffe4a0;fill-opacity:1;fill-rule:nonzero;stroke:none;stroke-width:1.1971px;marker:none;enable-background:accumulate"
       d="m 1368.4593,1906.5838 c -27.5618,0.4582 -55.9462,3.1632 -81.2588,17.1764 -12.5256,7.0164 -24.1142,19.5093 -27.0289,36.1571 -2.011,16.5978 7.3755,32.6541 19.5753,39.8816 12.5575,7.4302 26.7271,9.125 40.3274,12.2488 47.3844,8.8731 95.695,12.5507 143.5404,7.2714 16.7633,-2.1389 34.1059,-5.7216 48.5019,-16.7585 9.0671,-7.2007 15.462,-19.0016 16.6354,-31.9393 1.7823,-14.8825 -2.914,-31.5687 -14.0178,-39.759 -14.2163,-11.4438 -31.7223,-14.0896 -48.3325,-16.8855 -29.1521,-4.3915 -58.5332,-6.3032 -87.8924,-7.3341 -3.3497,-0.069 -6.6998,-0.078 -10.05,-0.059 z"
       id="path4546-6-21-1-9-4"
       inkscape:connector-curvature="0"
       sodipodi:nodetypes="cssssc" />
    <path
       style="color:#000000;display:inline;overflow:visible;visibility:visible;fill:#ffe4a0;fill-opacity:1;fill-rule:nonzero;stroke:none;stroke-width:0.884892px;marker:none;enable-background:accumulate"
       d="m 1107.8461,1983.4925 c -45.3879,0.8012 -91.5009,2.6083 -135.22671,16.7947 -15.63621,6.1926 -27.33096,20.6492 -33.25329,36.9392 -9.8375,24.6914 -8.46916,55.1877 6.86837,77.0613 9.01126,12.7094 23.25788,20.1119 37.80634,22.6795 19.20309,4.4414 38.69389,7.4333 58.22499,9.6682 35.1721,3.5331 70.5317,1.8259 105.7751,0.9144 50.4529,-0.3612 101.023,2.2362 151.3616,-2.5968 18.8083,-1.6555 37.7095,-3.4682 56.1438,-7.8828 24.316,-8.1051 43.2764,-32.86 44.2017,-60.1779 1.3059,-22.4149 -8.7983,-44.6527 -25.0284,-58.758 -20.8393,-19.3886 -48.3827,-28.3044 -75.4317,-31.8137 -35.8424,-4.2555 -71.8774,0.8123 -107.8036,-0.8788 -27.8794,-0.6363 -55.7444,-2.2647 -83.6382,-1.9493 z"
       id="path4546-6-21-1-9-4-7"
       inkscape:connector-curvature="0"
       sodipodi:nodetypes="cssssc" />
    <path
       style="color:#000000;display:inline;overflow:visible;visibility:visible;fill:#ffe4a0;fill-opacity:1;fill-rule:nonzero;stroke:none;stroke-width:1.23104px;marker:none;enable-background:accumulate"
       d="m 990.13158,3066.8417 c 6.59561,-41.6532 71.24772,-70.7879 236.45922,-59.2238 88.4962,6.1939 189.0522,11.2087 180.4185,72.2502 -8.6338,61.0415 -153.2466,56.2289 -183.1602,56.9907 -29.9138,0.7627 -185.2442,-9.1373 -211.7427,-30.561 -16.5876,-13.4105 -22.89966,-26.5311 -21.97482,-39.4561 z"
       id="path4546-6-21-1-9-4-7-8"
       inkscape:connector-curvature="0"
       sodipodi:nodetypes="cssssc" />
    <path
       style="color:#000000;display:inline;overflow:visible;visibility:visible;fill:#ffd91c;fill-opacity:1;fill-rule:nonzero;stroke:none;stroke-width:0.624175px;marker:none;enable-background:accumulate"
       d="m 2225.7983,3151.2322 c 1.6004,-29.4598 24.0001,-51.4252 82.7628,-47.029 31.4764,2.3544 67.2066,3.6062 65.2269,46.7553 -1.9798,43.1489 -53.3219,43.0372 -63.9111,44.2506 -10.5891,1.2141 -65.82,-2.2349 -75.5915,-16.7102 -6.1167,-9.061 -8.5862,-18.1508 -8.4871,-27.2667 z"
       id="path4546-6-21-1-9-4-7-8-4"
       inkscape:connector-curvature="0"
       sodipodi:nodetypes="cssssc" />
    <path
       style="color:#000000;display:inline;overflow:visible;visibility:visible;fill:#ffe4a0;fill-opacity:1;fill-rule:nonzero;stroke:none;stroke-width:1px;marker:none;enable-background:accumulate"
       d="m 1284.7327,2502.3184 c -35.7282,-19.4322 -47.354,-28.3515 -44.071,-75.6186 3.2834,-47.2663 -14.2412,-48.0483 -14.2412,-48.0483 l -19.1468,25.8436 c 0,0 -0.01,101.2711 77.459,97.8233 z"
       id="path3072-56-6"
       inkscape:connector-curvature="0" />
    <path
       style="color:#000000;display:inline;overflow:visible;visibility:visible;fill:#ffe4a0;fill-opacity:1;fill-rule:nonzero;stroke:none;stroke-width:1px;marker:none;enable-background:accumulate"
       d="m 1468.6848,2848.0015 c 26.25,171.1132 -108.5575,232.9592 -156.9646,205.9986 -41.3932,-23.0541 -36.6132,25.372 -36.6132,25.372 0,0 -184.8377,-79.9742 -48.5243,-12.9007 136.3134,67.0735 295.373,-29.4851 242.1021,-218.4699 z"
       id="path3072-56-6-7"
       inkscape:connector-curvature="0"
       sodipodi:nodetypes="csczc" />
    <path
       style="color:#000000;display:inline;overflow:visible;visibility:visible;fill:#ffd91c;fill-opacity:1;fill-rule:nonzero;stroke:none;stroke-width:1.08816px;marker:none;enable-background:accumulate"
       d="m 1526.7457,794.7676 c -25.3255,0.84576 -50.6076,3.50491 -75.9337,4.38195 -10.9593,0.60794 -22.0358,0.0256 -32.8258,3.43102 -14.6473,4.22183 -29.1263,13.00061 -40.0121,28.36989 -11.6869,17.05318 -17.5635,43.11279 -13.4496,66.86549 4.7703,30.80374 22.5125,55.936 43.4036,62.70423 21.5658,8.99241 44.0218,11.60474 66.2676,14.31758 29.2941,2.64894 58.9749,3.29067 87.9042,-5.06374 17.6246,-5.25195 35.4026,-12.33837 50.7802,-26.49907 12.6117,-12.66093 19.4996,-35.33638 19.4202,-57.48751 0.7142,-21.12294 -4.1004,-43.4452 -15.0467,-57.7473 -12.1742,-16.70281 -28.4815,-25.05178 -44.6404,-29.04748 -15.1428,-3.72712 -30.5429,-4.42289 -45.8675,-4.22506 z"
       id="path4546-3"
       inkscape:connector-curvature="0"
       sodipodi:nodetypes="cssssc" />
    <path
       style="color:#000000;display:inline;overflow:visible;visibility:visible;fill:#ffd91c;fill-opacity:1;fill-rule:nonzero;stroke:none;stroke-width:0.999998px;marker:none;enable-background:accumulate"
       d="m 2200.3678,3236.6589 c 19.412,3.2287 21.8531,2.1451 26.087,-6.1508 4.2336,-8.2965 7.4345,-21.3989 24.2674,-27.0612 16.8328,-5.6629 26.4772,-1.2243 33.0349,1.2943 -1.1679,-11.6566 8.131,-31.9623 0.9277,-37.4845 -7.2032,-5.5223 17.0343,2.8574 17.0343,2.8574 0,0 12.1095,28.3527 3.5098,41.2194 -8.5996,12.8666 -35.9866,3.6351 -48.1953,5.9287 -12.2087,2.2936 -17.7187,20.2054 -26.9698,23.8183 -9.2511,3.6136 -20.9523,-1.0637 -29.696,-4.4216 z"
       id="path4538-7-1"
       inkscape:connector-curvature="0"
       sodipodi:nodetypes="ccscccsscc" />
    <path
       style="fill:#ffe4a0;fill-rule:evenodd;stroke:none;stroke-width:0.989952px;stroke-linecap:butt;stroke-linejoin:miter;stroke-opacity:1;fill-opacity:1"
       d="m 570.09131,2496.7029 c 63.64415,46.5419 99.6802,37.8628 99.27382,22.0538 -0.73279,-28.5061 -23.68426,-45.5161 -20.14693,-49.7569 56.87331,-68.1838 45.61583,-44.4564 42.02712,-78.3168 -3.58863,-33.8596 -32.82515,9.9982 -43.47048,25.9957 -10.64526,15.9984 -23.23393,28.0821 -24.13067,46.0989 -0.89678,18.0167 30.31994,32.2197 26.20251,52.3883 -4.11738,20.1676 -79.75537,-18.463 -79.75537,-18.463 z"
       id="path4324-2"
       inkscape:connector-curvature="0"
       sodipodi:nodetypes="cssssssc" />
    <path
       style="fill:#ffd91c;fill-rule:evenodd;stroke:none;stroke-width:1px;stroke-linecap:butt;stroke-linejoin:miter;stroke-opacity:1;fill-opacity:1"
       d="m 1599.306,1545.3293 c 22.6649,-9.5896 43.3488,-24.3392 44.2472,-33.5648 0.8985,-9.2259 -11.1673,-38.3407 15.3399,-36.3802 44.753,7.0521 59.1413,-17.435 71.8681,-40.1028 -10.4456,44.0867 -37.326,59.8862 -66.9409,56.1082 -20.4331,0.5043 27.1628,20.802 -14.1238,65.6767 -34.0791,18.4121 -50.3905,-11.7371 -50.3905,-11.7371 z"
       id="path1085"
       inkscape:connector-curvature="0"
       sodipodi:nodetypes="csccccc" />
    <path
       style="display:inline;fill:#ffd91c;fill-rule:evenodd;stroke:none;stroke-width:1px;stroke-linecap:butt;stroke-linejoin:miter;stroke-opacity:1;fill-opacity:1"
       d="m 602.38281,413.81836 c -16.46145,0.69234 -32.53906,10.64863 -39.37482,25.82696 -1.5098,2.80001 -5.28273,3.60587 -7.9531,2.02233 -5.98863,-2.1906 -11.2243,-5.98508 -17.1572,-8.31055 -9.42582,-4.50612 -18.97461,-9.76783 -29.57769,-10.58241 -9.00662,0.914 -17.21994,8.38612 -18.31844,17.45517 0.90457,4.28518 5.9133,5.81752 9.78437,5.505 14.04596,1.22391 26.26568,8.99968 37.96354,16.2261 7.48461,4.90408 17.2879,7.91388 25.94154,4.3397 8.81339,-3.63103 14.02032,-12.22106 18.30372,-20.27104 3.62722,-6.5902 7.0618,-13.9609 13.65799,-18.08996 6.18392,-3.01805 13.32935,-0.5356 18.89819,2.69485 6.80555,3.74446 18.82609,7.48219 26.68995,6.1183 5.30212,-0.83429 11.53306,0.83552 40.82961,-10.13109 -31.99063,6.29792 -54.18708,-2.32452 -64.55229,-8.18195 -4.64584,-2.56145 -9.72444,-4.75296 -15.13537,-4.62141 z"
       id="path1090"
       inkscape:connector-curvature="0"
       sodipodi:nodetypes="cscsccsssssscccc" />
    <path
       style="display:inline;fill:#ffd91c;fill-rule:evenodd;stroke:none;stroke-width:1px;stroke-linecap:butt;stroke-linejoin:miter;stroke-opacity:1;fill-opacity:1"
       d="m 1617.1958,451.27144 c -12.9658,3.52999 -22.7273,13.2725 -33.0295,21.31481 -10.56,8.22528 -23.222,15.13886 -36.9698,14.8702 -12.354,-0.48323 -23.8452,-5.64876 -34.869,-10.8028 4.8969,5.51905 11.4884,9.07502 17.4852,13.22715 9.8915,6.03376 21.2993,11.19668 33.1646,9.85413 13.7356,-1.82473 25.2428,-10.16894 36.6713,-17.35003 9.2631,-5.89601 19.3995,-11.88555 30.7279,-11.84241 11.2199,0.46193 21.09,7.36067 28.069,15.7517 16.1165,16.07554 40.6983,22.00557 62.7241,17.44391 18.4525,-3.77253 34.5407,-14.70036 48.0397,-27.44861 7.4725,-7.02323 14.7519,-14.32675 21.1143,-22.37986 2.8972,-4.06459 5.7878,-8.70444 5.7898,-13.83941 -1.3294,-7.64777 -9.2775,-12.55259 -16.6906,-12.40095 -15.99,-1.92544 -32.0375,9.08542 -37.0028,24.21972 -6.8813,13.76612 -18.3165,26.13815 -33.3597,30.75119 -13.1078,4.184 -28.2984,-0.43593 -37.2218,-10.81739 -8.1607,-7.6165 -16.4492,-16.15889 -27.6395,-18.99131 -8.68,-2.75282 -18.0697,-3.47368 -27.0032,-1.56004 z"
       id="path1090-9"
       inkscape:connector-curvature="0"
       sodipodi:nodetypes="cscsccsssssscccccc" />
    <path
       style="display:inline;fill:#ffd91c;stroke:none;stroke-width:0.876223;fill-opacity:1"
       d="m 1510.4901,1530.7437 c -16.4859,0.098 -33.0584,-0.059 -49.3893,2.7566 -18.5156,3.1496 -36.8422,9.0728 -53.1643,19.1799 -17.3539,10.7231 -31.7355,27.9286 -37.8796,48.6799 -2.9508,9.6663 -3.4317,20.1804 -1.0762,30.0574 4.0947,18.1754 16.125,33.9447 31.7551,41.9486 18.284,10.7461 39.549,13.2025 60.0458,13.0875 39.6381,1.496 79.3503,2.0613 118.9641,-0.4688 23.0634,-1.2958 46.7594,-4.1893 67.657,-15.5709 14.6661,-8.1131 26.8148,-22.939 29.7241,-40.8007 5.3029,-29.2581 -9.5247,-60.6469 -33.6614,-74.5837 -21.5518,-13.3367 -46.371,-18.5434 -70.7649,-21.6554 -20.6461,-2.5104 -41.4564,-2.7769 -62.2104,-2.6304 z"
       id="path3280-8-3"
       inkscape:connector-curvature="0"
       sodipodi:nodetypes="csssc" />
    <path
       style="fill:#ffe4a0;fill-rule:evenodd;stroke:none;stroke-width:1.11534px;stroke-linecap:butt;stroke-linejoin:miter;stroke-opacity:1;fill-opacity:1"
       d="m 362.27946,761.5608 c -32.90501,1.79515 -65.9763,2.66681 -98.56486,7.95082 -14.56617,3.09291 -29.62531,6.90855 -41.6347,16.1815 -10.35417,10.44655 -17.59444,23.50187 -24.04581,36.60688 -5.53325,14.74002 -4.09871,30.97601 -0.77439,46.04545 2.38089,13.89024 7.84485,28.04855 18.91693,37.26767 11.45445,10.7655 25.59723,20.01048 41.63593,21.18155 15.36496,1.20679 30.78032,-0.23472 46.1618,0.45828 72.49717,0.13516 145.21251,0.71935 217.39001,-7.12753 11.73599,-1.85695 22.82507,-8.77888 28.73927,-19.26913 6.68663,-9.54595 14.22072,-19.57176 14.96088,-31.6715 0.83278,-11.36805 0.0521,-22.77495 0.087,-34.15923 -0.25703,-7.3192 0.34676,-14.82565 -1.66126,-21.94938 -2.32118,-8.29822 -7.71359,-15.33835 -14.14982,-20.88675 -13.14077,-12.17325 -30.45434,-18.96153 -47.9949,-21.42492 -31.11716,-5.90031 -62.77675,-8.4944 -94.4182,-8.93815 -14.88054,-0.30084 -29.76505,-0.27893 -44.64786,-0.26556 z"
       id="path1299"
       inkscape:connector-curvature="0" />
    <path
       style="fill:#ffd91c;fill-opacity:1;fill-rule:evenodd;stroke:none;stroke-width:1px;stroke-linecap:butt;stroke-linejoin:miter;stroke-opacity:1"
       d="m 913.77686,922.38419 c -8.14312,0.86734 -14.26823,7.06793 -18.7201,13.30501 -4.05249,5.15329 -11.25461,6.20817 -17.49514,6.08783 -8.52716,0.22173 -15.64579,6.16177 -20.06036,12.8845 -2.58577,3.55077 -3.35569,8.00224 -3.12063,12.27282 -0.47884,6.67297 -5.74109,11.93324 -6.43922,18.52713 0.1519,6.3875 6.22845,10.535 7.49987,16.59892 1.3255,4.5169 2.0838,9.9862 6.45373,12.7515 6.14651,3.1882 13.77597,-0.2253 19.75563,3.5487 4.3008,2.9316 7.95855,6.6895 12.17422,9.748 4.42989,3.4669 9.57506,6.0294 15.11817,7.2675 12.612,3.3373 25.79466,0.9185 38.25451,-1.867 17.19838,-3.5707 34.75427,-5.4628 52.33411,-5.6211 5.20745,-0.3583 9.72625,-3.1437 13.90665,-5.9562 4.7696,-2.8443 10.5501,-4.4438 16.1029,-3.1727 5.7715,0.7524 12.152,2.4968 17.6004,-0.3939 7.269,-4.7571 10.2417,-13.1958 14.3189,-20.35492 3.2566,-6.1287 6.9087,-12.97344 5.3433,-20.0904 -2.1868,-5.88049 -8.6217,-8.27678 -13.0699,-12.17595 -7.5392,-7.58527 -6.6187,-19.54532 -13.671,-27.42615 -6.7963,-7.78732 -17.7343,-10.83932 -27.9088,-10.57648 -7.8977,0.18336 -15.53343,2.5898 -22.65196,5.78799 -5.32477,1.83563 -11.93741,1.6179 -16.1423,-2.47125 -4.17603,-3.22883 -9.23574,-6.67829 -14.86015,-5.53162 -7.83463,0.94699 -14.71262,6.65075 -22.86995,5.44371 -7.9649,-1.16006 -13.49005,-8.87024 -21.85288,-8.58594 z"
       id="path4367-3"
       inkscape:connector-curvature="0"
       sodipodi:nodetypes="ccccccccccccccccccccccc" />
    <path
       style="color:#000000;display:inline;overflow:visible;visibility:visible;fill:#ffd91c;fill-opacity:1;fill-rule:nonzero;stroke:none;stroke-width:1px;marker:none;enable-background:accumulate"
       d="m 925.04404,987.51508 c 0.43093,17.40692 10.57358,33.58462 24.60302,43.46732 4.0486,3.4474 7.8177,7.2049 11.522,11.0151 -9.5441,6.7343 -21.87387,8.4934 -30.69728,16.3868 -3.00333,7.8153 2.07856,16.9291 9.5442,19.9766 7.90108,4.1347 17.55078,5.3387 23.93238,12.0527 5.8472,7.0001 1.9231,19.0861 -6.6504,21.789 -11.2727,5.778 -17.95023,20.1486 -13.54258,32.3069 4.13098,10.8528 14.58748,18.0402 25.44518,21.0937 5.2942,1.6139 10.7387,2.647 16.1286,3.8787 -10.8778,-5.5071 -22.4207,-11.1561 -29.8066,-21.25 -5.866,-8.2804 -2.1755,-21.8742 7.6733,-25.1751 6.0663,-1.8597 13.149,-3.1903 17.0207,-8.7544 8.18221,-11.235 4.0413,-29.3207 -8.5309,-35.4929 -6.8306,-3.5643 -14.777,-5.4022 -20.3877,-10.9819 -1.6954,-3.9526 2.6275,-8.2401 6.5884,-7.513 7.4263,-1.7714 15.8041,-2.1777 21.7723,-7.5012 4.4591,-5.1824 3.2488,-13.2448 -0.7338,-18.3354 -8.0405,-15.3899 -15.424,-31.1229 -23.8906,-46.28912 -6.1584,-1.4328 -12.54059,-0.9451 -18.78997,-1.6404 -3.73928,-0.2117 -7.47855,-0.4233 -11.21782,-0.635 0.006,0.5339 0.0117,1.0677 0.0176,1.6016 z"
       id="path5058"
       inkscape:connector-curvature="0"
       sodipodi:nodetypes="cscsssssccsssccsccccc" />
    <path
       style="display:inline;fill:#ffd91c;stroke:none;stroke-width:1;fill-opacity:1"
       d="m 1540.3436,1096.5828 c 13.4807,-8.3202 19.4484,-23.3927 17.65,-33.0755 -8.8182,-22.1676 -14.651,-36.255 -2.7595,-61.9827 4.6158,-9.75227 4.136,-55.55647 4.136,-55.55647 0,0 -27.4173,28.8158 -35.0946,40.6428 -7.678,11.8285 -3.0663,7.9917 -4.8155,13.45547 -1.7483,5.4625 -1.3553,24.9485 0.8987,35.296 4.6362,17.6704 24.7701,36.2388 6.7072,51.624 -38.2054,28.7903 -15.6246,82.4307 39.9278,44.9299 -67.6745,16.2702 -41.7605,-26.0079 -26.6503,-35.3336 z"
       id="path3023-0"
       inkscape:connector-curvature="0"
       sodipodi:nodetypes="scccsscccss" />
    <path
       style="display:inline;fill:#ffe4a0;fill-rule:evenodd;stroke:none;stroke-width:1px;stroke-linecap:butt;stroke-linejoin:miter;stroke-opacity:1;fill-opacity:1"
       d="m 484.3372,1943.0599 c -28.8926,-2.0653 -70.7911,12.6625 -46.4898,55.1642 -53.0586,-27.852 -127.5213,-37.8514 -145.041,8.545 -2.9485,-56.7468 -38.5111,-41.338 -67.8631,-27.673 27.9346,-23.2981 -23.4398,-34.7771 -50.9437,-35.2783 56.996,-50.2966 26.119,-64.931 2.7943,-82.6311 57.4315,11.9803 42.9826,-15.1235 49.4459,-30.8559 49.812,33.8557 85.2527,24.5077 112.648,-9.0266 15.1349,17.4028 20.6066,54.0871 73.5776,-4.0088 -18.8313,49.4071 7.2124,43.5524 49.0134,18.2945 -6.2541,16.8237 -45.124,43.2233 21.271,38.72 -41.1448,16.9717 -49.3548,38.642 1.5874,68.75 z"
       id="path4584-8"
       inkscape:connector-curvature="0"
       sodipodi:nodetypes="cccccccccccc" />
    <path
       style="fill:#ffe4a0;fill-rule:evenodd;stroke:none;stroke-width:0.910417px;stroke-linecap:butt;stroke-linejoin:miter;stroke-opacity:1;fill-opacity:1"
       d="m 1086.7864,1846.1739 c 10.4506,4.62 25.4451,12.1275 27.2626,20.213 1.8175,8.0848 11.3594,23.1004 8.1787,36.3833 -3.1806,13.2822 -12.2681,26.5651 -20.9012,34.0733 -8.6333,7.5075 -24.9908,13.2822 -35.4414,14.4376 -10.4507,1.1553 -37.2588,-6.9301 -44.9833,-4.6201 -7.7244,2.31 -35.89573,3.4647 -49.98139,-2.31 -14.08568,-5.7755 -29.98885,-27.1432 -32.26074,-40.4262 -2.2719,-13.2829 7.72438,-39.848 9.54188,-46.7781 1.81754,-6.9308 9.54193,-9.2409 9.54193,-9.2409 21.56603,-3.9635 97.26462,-7.6933 129.04292,-1.7319 z"
       id="path1099"
       inkscape:connector-curvature="0"
       sodipodi:nodetypes="ccccccccccc" />
    <path
       style="color:#000000;display:inline;overflow:visible;visibility:visible;fill:#ffe4a0;fill-opacity:1;fill-rule:nonzero;stroke:none;stroke-width:1.01195px;marker:none;enable-background:accumulate"
       d="m 1569.7406,2050.8712 c -5.9234,8.7347 -12.3375,17.3249 -20.4977,23.5861 -6.8384,-1.1915 -11.5605,-9.5165 -9.9076,-17.0243 -11.2872,2.6453 -18.5915,13.7309 -28.2911,19.8342 -14.8894,11.1795 -31.6122,20.8077 -49.6588,22.0264 -16.7417,-3.1563 -29.3811,-21.847 -27.5682,-40.781 -4.9398,-0.5491 -8.0973,4.9117 -10.0231,9.2362 -5.5987,7.8978 -11.3918,16.5293 -20.0335,20.4094 -7.7002,-0.5017 -12.7261,-11.2916 -8.6822,-18.7695 -2.2559,-3.4507 -7.1155,-0.7638 -8.1591,2.7121 -12.0239,11.527 -24.4738,23.9131 -40.0864,28.5537 -18.0144,3.5892 -35.969,-2.667 -51.8058,-11.2256 -3.8026,-1.7729 -7.7893,-3.0163 -11.7239,-4.3948 -6.5011,8.748 -8.1694,21.364 -16.8938,28.1513 -9.4345,7.1557 -21.488,8.9121 -32.3074,6.3295 -5.4028,2.6311 -5.6308,9.9725 -8.3333,14.9443 -7.2328,12.6711 -20.8543,19.0934 -33.7819,19.8856 -5.1692,0.935 -10.3384,1.8698 -15.5076,2.8048 9.7637,5.4575 20.5173,9.0508 29.2283,16.5611 -2.7258,7.8068 -10.6734,10.951 -17.4943,11.9087 -13.6785,1.7592 -27.4973,1.4267 -41.0903,4.294 -2.4101,0.3329 -4.8206,0.6696 -7.2181,1.1253 25.6339,2.4947 51.3451,7.1654 75.1013,17.9799 4.7465,10.9463 -3.5528,25.4154 -14.3019,26.6363 -5.8601,3.3346 -11.7201,6.669 -17.58,10.0039 14.2135,-0.4343 28.6323,-2.098 42.6273,0.93 8.9196,12.7063 6.3914,33.399 -5.2395,43.7035 0.7342,4.0597 5.7142,3.7025 8.0576,1.4772 11.2376,-3.0067 23.7666,-4.8959 34.2794,1.082 16.3417,11.7319 25.2789,31.9589 40.0231,45.6435 1.2043,1.175 2.4954,3.3818 4.1327,3.2289 12.9745,-25.986 42.728,-39.2591 67.8233,-31.7404 8.5084,1.9764 16.5459,5.6672 24.4556,9.4846 11.1396,-4.0621 18.6284,-15.9327 30.1422,-19.0743 12.1638,-5.5264 26.4174,-7.7624 38.4807,-1.7166 6.5822,5.0082 10.0754,13.9333 17.4376,17.8441 7.207,-2.136 9.4141,-11.4922 15.6189,-15.3394 14.8081,-12.4305 35.8464,-12.799 51.3435,-3.0656 5.8405,2.0515 11.6486,-2.4647 15.4799,-7.1627 13.0543,-11.7825 30.1594,-15.4468 46.3276,-16.1761 4.9273,-0.2333 9.8519,-0.1177 14.771,0.013 1.2526,-4.0279 -2.73,-6.309 -4.7847,-8.698 -4.9524,-4.7825 -10.1333,-11.3929 -8.9269,-19.3777 1.5674,-10.3928 10.1703,-17.5586 18.6942,-20.6904 5.4583,-2.2629 11.1496,-3.7889 16.4464,-6.5572 -5.2418,-5.2522 -11.891,-8.3008 -17.6257,-12.8032 -5.6081,-4.025 -11.4291,-8.1698 -15.9476,-13.5687 -0.4265,-11.6327 8.0177,-21.9605 17.6539,-25.4702 4.4643,-3.1234 8.8442,-6.4638 12.7056,-10.4939 -10.5054,-1.4768 -21.5722,-2.2313 -30.8532,-8.2389 -5.8361,-11.7368 -3.5087,-27.1292 3.791,-37.8382 0.6592,-2.7371 -2.4701,-3.584 -4.2846,-2.9422 -11.3068,-0.3233 -23.587,-0.7032 -32.942,-8.3609 -9.5202,-8.9616 -12.3786,-23.9403 -11.1152,-37.4756 0.3922,-5.0524 1.2861,-10.1622 0.5854,-15.1992 -0.8471,1.2646 -1.6942,2.5293 -2.5411,3.794 z"
       id="path3549-3-7-5"
       inkscape:connector-curvature="0"
       sodipodi:nodetypes="cccccccccccccccccccc" />
    <path
       style="color:#000000;display:inline;overflow:visible;visibility:visible;fill:#ffe4a0;fill-opacity:1;fill-rule:nonzero;stroke:none;stroke-width:1px;marker:none;enable-background:accumulate"
       d="m 1215.9045,3102.4019 c -35.4901,1.0127 -71.3907,2.3026 -105.9431,13.293 -13.2375,4.504 -26.1502,13.6969 -33.2961,28.54 -10.5249,20.9979 -11.021,48.1413 -3.4047,70.6368 7.0343,21.7902 20.9827,40.9136 39.1726,48.9857 23.9245,10.5885 49.7029,10.9262 74.8256,11.303 14.3208,0.09 28.6368,0.5429 42.9549,0.8295 40.5334,0.5215 81.2461,-3.0065 120.9711,-13.2119 10.1832,-3.132 20.3171,-9.7458 25.7996,-21.1583 7.6002,-14.4665 10.3794,-31.6967 12.655,-48.4189 1.5762,-15.0588 -0.6114,-31.1141 -7.8437,-43.6735 -10.5753,-19.9832 -28.6838,-32.7789 -47.605,-36.7438 -20.525,-4.8818 -41.5328,-4.3959 -62.2691,-6.9623 -18.6423,-1.7278 -37.3041,-3.6794 -56.0171,-3.4193 z"
       id="path3330-06"
       inkscape:connector-curvature="0"
       sodipodi:nodetypes="zsssssz" />
    <path
       style="color:#000000;display:inline;overflow:visible;visibility:visible;fill:#ffe4a0;fill-opacity:1;fill-rule:nonzero;stroke:none;stroke-width:0.993276px;marker:none;enable-background:accumulate"
       d="m 1281.7119,3245.8913 c -37.6456,0.7246 -75.7269,1.6476 -112.3777,9.5119 -14.0418,3.2228 -27.7388,9.8009 -35.3188,20.4221 -11.164,15.0252 -11.6904,34.448 -3.6114,50.5448 7.4614,15.5922 22.2571,29.2761 41.5519,35.0522 25.3777,7.5767 52.7218,7.8183 79.3704,8.0879 15.1906,0.064 30.3763,0.3885 45.5641,0.5936 42.9952,0.3731 86.1808,-2.1513 128.3187,-9.4539 10.8018,-2.2412 21.5511,-6.9737 27.3665,-15.1401 8.0621,-10.3516 11.01,-22.6807 13.4237,-34.6465 1.672,-10.7755 -0.6485,-22.264 -8.3199,-31.251 -11.2178,-14.2991 -30.4262,-23.4552 -50.4967,-26.2924 -21.7715,-3.4931 -44.0554,-3.1455 -66.0511,-4.9819 -19.7748,-1.2363 -39.5701,-2.6328 -59.4197,-2.4467 z"
       id="path3330-06-3"
       inkscape:connector-curvature="0"
       sodipodi:nodetypes="zsssssz" />
    <path
       style="color:#000000;display:inline;overflow:visible;visibility:visible;fill:#ffe4a0;fill-opacity:1;fill-rule:nonzero;stroke:none;stroke-width:0.943301px;marker:none;enable-background:accumulate"
       d="m 1017.7054,1889.447 c 14.7053,2.7671 60.854,16.1235 13.9625,17.3786 66.4252,27.3297 41.404,38.0698 33.0153,44.3788 18.3653,-2.2746 49.1453,2.8923 43.094,20.3703 17.6923,-2.594 42.1467,24.2545 53.3153,37.3854 6.2176,-17.6402 16.7653,-20.9627 38.1429,11.4926 -5.7033,-24.7924 -9.6894,-47.9395 40.4011,-19.2467 -1.5214,-9.1308 -42.5911,-30.453 62.7845,-21.2942 -37.199,-15.3867 -59.9728,-31.9506 2.9714,-53.5613 -28.9532,-6.2034 -49.9732,-15.6772 -18.0784,-34.5677 -28.0613,-3.7234 -36.5209,-26.0919 -33.3342,-34.3809 -25.5348,16.8825 -44.4258,16.482 -53.6085,-6.0415 -43.8302,38.3097 -44.2322,7.3324 -59.7094,1.3622 -10.4702,29.8627 -37.4449,16.7887 -62.1191,11.7131 8.6972,34.1362 -31.613,23.3039 -60.8374,25.0113 z"
       id="path3549-3-8"
       inkscape:connector-curvature="0"
       sodipodi:nodetypes="ccccccccccccccc" />
    <path
       style="color:#000000;display:inline;overflow:visible;visibility:visible;fill:#ffe4a0;fill-opacity:1;fill-rule:nonzero;stroke:none;stroke-width:0.943301px;marker:none;enable-background:accumulate"
       d="m 1244.0134,2080.2557 c 14.7053,2.7671 60.854,16.1235 13.9625,17.3786 66.4252,27.3297 41.404,38.0698 33.0153,44.3788 18.3653,-2.2746 49.1453,2.8923 43.094,20.3703 17.6923,-2.594 42.1467,24.2545 53.3153,37.3854 6.2176,-17.6402 16.7653,-20.9627 38.1429,11.4926 -5.7033,-24.7924 -9.6894,-47.9395 40.4011,-19.2467 -1.5214,-9.1308 -42.5911,-30.453 62.7845,-21.2942 -37.199,-15.3867 -59.9728,-31.9506 2.9714,-53.5613 -28.9532,-6.2034 -49.9732,-15.6772 -18.0784,-34.5677 -28.0613,-3.7234 -36.5209,-26.0919 -33.3342,-34.3809 -25.5348,16.8825 -44.4258,16.482 -53.6085,-6.0415 -43.8302,38.3097 -44.2322,7.3324 -59.7094,1.3622 -10.4702,29.8627 -37.4449,16.7887 -62.1191,11.7131 8.6972,34.1362 -31.613,23.3039 -60.8374,25.0113 z"
       id="path3549-3-8-3"
       inkscape:connector-curvature="0"
       sodipodi:nodetypes="ccccccccccccccc" />
  </g>
  <g
     inkscape:groupmode="layer"
     id="layer1"
     inkscape:label="txt"
     style="display:inline">
    <text
       xml:space="preserve"
       style="font-style:normal;font-variant:normal;font-weight:normal;font-stretch:normal;font-size:45.3333px;line-height:125%;font-family:Lavi;-inkscape-font-specification:Lavi;text-align:center;letter-spacing:0px;word-spacing:0px;text-anchor:middle;fill:#000000;fill-opacity:1;stroke:none"
       x="340.72968"
       y="308.57437"
       id="text4246-70-2-2-2-7-4-9-6"><tspan
         sodipodi:role="line"
         style="font-size:45.3333px"
         x="340.72968"
         y="308.57437"
         id="tspan448">Hmm…</tspan></text>
    <text
       xml:space="preserve"
       style="font-style:normal;font-variant:normal;font-weight:normal;font-stretch:normal;font-size:45.3333px;line-height:125%;font-family:Lavi;-inkscape-font-specification:Lavi;text-align:center;letter-spacing:0px;word-spacing:0px;text-anchor:middle;fill:#000000;fill-opacity:1;stroke:none"
       x="412.29004"
       y="403.19604"
       id="text4246-70-2-2-2-7-4-9"><tspan
         sodipodi:role="line"
         style="font-size:45.3333px"
         x="412.29004"
         y="403.19604"
         id="tspan9933-2">Razumem.</tspan></text>
    <text
       xml:space="preserve"
       style="font-style:normal;font-variant:normal;font-weight:normal;font-stretch:normal;font-size:45.3333px;line-height:125%;font-family:Lavi;-inkscape-font-specification:Lavi;text-align:center;letter-spacing:0px;word-spacing:0px;text-anchor:middle;fill:#000000;fill-opacity:1;stroke:none"
       x="1999.3352"
       y="320.3017"
       id="text4246-70-2-2-2-7-4-9-7"><tspan
         sodipodi:role="line"
         style="font-size:45.3333px"
         x="1999.3352"
         y="320.3017"
         id="tspan332">In zdaj iščeš</tspan><tspan
         sodipodi:role="line"
         style="font-size:45.3333px"
         x="1999.3352"
         y="376.96832"
         id="tspan511">feniksove solze, ki te bodo</tspan><tspan
         sodipodi:role="line"
         style="font-size:45.3333px"
         x="1999.3352"
         y="433.63495"
         id="tspan513">ozdravile, mar ne?</tspan></text>
    <text
       xml:space="preserve"
       style="font-style:normal;font-variant:normal;font-weight:normal;font-stretch:normal;font-size:45.3333px;line-height:125%;font-family:Lavi;-inkscape-font-specification:Lavi;text-align:center;letter-spacing:0px;word-spacing:0px;text-anchor:middle;fill:#000000;fill-opacity:1;stroke:none"
       x="379.88474"
       y="826.84961"
       id="text4246-70-2-2-2-7-4-9-9"><tspan
         sodipodi:role="line"
         style="font-style:normal;font-variant:normal;font-weight:normal;font-stretch:normal;font-size:45.3333px;font-family:Lavi;-inkscape-font-specification:'Lavi Bold'"
         x="379.88474"
         y="826.84961"
         id="tspan1215">Da, <tspan
   style="font-weight:bold"
   id="tspan534">nimam</tspan></tspan><tspan
         sodipodi:role="line"
         style="font-style:normal;font-variant:normal;font-weight:bold;font-stretch:normal;font-size:45.3333px;font-family:Lavi;-inkscape-font-specification:'Lavi Bold'"
         x="379.88474"
         y="883.51624"
         id="tspan518">druge izbire.</tspan></text>
    <text
       xml:space="preserve"
       style="font-style:normal;font-variant:normal;font-weight:normal;font-stretch:normal;font-size:45.3333px;line-height:125%;font-family:Lavi;-inkscape-font-specification:Lavi;text-align:center;letter-spacing:0px;word-spacing:0px;text-anchor:middle;fill:#000000;fill-opacity:1;stroke:none"
       x="956.3031"
       y="994.32025"
       id="text4246-70-2-2-2-7-4-9-9-3"><tspan
         sodipodi:role="line"
         style="font-style:italic;font-variant:normal;font-weight:normal;font-stretch:normal;font-size:45.3333px;font-family:Lavi;-inkscape-font-specification:'Lavi Italic'"
         x="956.3031"
         y="994.32025"
         id="tspan12869-7">*vzdih*</tspan></text>
    <text
       xml:space="preserve"
       style="font-style:normal;font-variant:normal;font-weight:normal;font-stretch:normal;font-size:45.3333px;line-height:125%;font-family:Lavi;-inkscape-font-specification:Lavi;text-align:center;letter-spacing:0px;word-spacing:0px;text-anchor:middle;fill:#000000;fill-opacity:1;stroke:none"
       x="1499.4269"
       y="856.95007"
       id="text4246-70-2-2-2-7-4-9-9-6-6"><tspan
         sodipodi:role="line"
         style="font-size:45.3333px"
         x="1499.4269"
         y="856.95007"
         id="tspan3500">No? Kaj</tspan><tspan
         sodipodi:role="line"
         style="font-size:45.3333px"
         x="1499.4269"
         y="913.6167"
         id="tspan524">se obiraš?</tspan></text>
    <text
       xml:space="preserve"
       style="font-style:normal;font-variant:normal;font-weight:normal;font-stretch:normal;font-size:45.3333px;line-height:125%;font-family:Lavi;-inkscape-font-specification:Lavi;text-align:center;letter-spacing:0px;word-spacing:0px;text-anchor:middle;fill:#000000;fill-opacity:1;stroke:none"
       x="1546.7158"
       y="987.46771"
       id="text4246-70-2-2-2-7-4-9-9-6"><tspan
         sodipodi:role="line"
         style="font-size:45.3333px"
         x="1546.7158"
         y="987.46771"
         id="tspan3504">Spravi me v jok.</tspan></text>
    <text
       xml:space="preserve"
       style="font-style:normal;font-variant:normal;font-weight:normal;font-stretch:normal;font-size:45.3333px;line-height:125%;font-family:Lavi;-inkscape-font-specification:Lavi;text-align:center;letter-spacing:0px;word-spacing:0px;text-anchor:middle;fill:#000000;fill-opacity:1;stroke:none"
       x="1522.6548"
       y="1589.5115"
       id="text4246-70-2-2-2-7-4-9-9-6-5"><tspan
         sodipodi:role="line"
         style="font-style:normal;font-variant:normal;font-weight:normal;font-stretch:normal;font-size:45.3333px;font-family:Lavi;-inkscape-font-specification:'Lavi Bold'"
         x="1522.6548"
         y="1589.5115"
         id="tspan1669">Na voljo</tspan><tspan
         sodipodi:role="line"
         style="font-style:normal;font-variant:normal;font-weight:normal;font-stretch:normal;font-size:45.3333px;font-family:Lavi;-inkscape-font-specification:'Lavi Bold'"
         x="1522.6548"
         y="1646.1781"
         id="tspan530">imaš <tspan
   style="font-weight:bold"
   id="tspan532">minuto</tspan>!</tspan></text>
    <text
       xml:space="preserve"
       style="font-style:normal;font-variant:normal;font-weight:normal;font-stretch:normal;font-size:55.9581px;line-height:125%;font-family:Lavi;-inkscape-font-specification:Lavi;text-align:center;letter-spacing:0px;word-spacing:0px;text-anchor:middle;fill:#000000;fill-opacity:1;stroke:none;stroke-width:1"
       x="331.24939"
       y="1921.4946"
       id="text4246-70-2-2-2-7-4-9-9-6-1"><tspan
         sodipodi:role="line"
         style="font-style:normal;font-variant:normal;font-weight:bold;font-stretch:normal;font-size:55.9581px;font-family:Lavi;-inkscape-font-specification:'Lavi Bold';stroke-width:1"
         x="331.24939"
         y="1921.4946"
         id="tspan40668">Kaj?!</tspan></text>
    <text
       xml:space="preserve"
       style="font-style:normal;font-variant:normal;font-weight:normal;font-stretch:normal;font-size:49.2216px;line-height:125%;font-family:Lavi;-inkscape-font-specification:Lavi;text-align:center;letter-spacing:0px;word-spacing:0px;text-anchor:middle;fill:#000000;fill-opacity:1;stroke:none;stroke-width:1"
       x="535.77826"
       y="1974.8019"
       id="text4246-70-2-2-2-7-4-9-9-6-1-2-2"><tspan
         sodipodi:role="line"
         style="font-style:normal;font-variant:normal;font-weight:bold;font-stretch:normal;font-size:49.2216px;font-family:Lavi;-inkscape-font-specification:'Lavi Bold';stroke-width:1"
         x="535.77826"
         y="1974.8019"
         id="tspan3512">Spravim naj</tspan><tspan
         sodipodi:role="line"
         style="font-style:normal;font-variant:normal;font-weight:bold;font-stretch:normal;font-size:49.2216px;font-family:Lavi;-inkscape-font-specification:'Lavi Bold';stroke-width:1"
         x="535.77826"
         y="2036.3289"
         id="tspan538">te v jok?!</tspan></text>
    <text
       xml:space="preserve"
       style="font-style:normal;font-variant:normal;font-weight:normal;font-stretch:normal;font-size:45.3333px;line-height:125%;font-family:Lavi;-inkscape-font-specification:Lavi;text-align:center;letter-spacing:0px;word-spacing:0px;text-anchor:middle;fill:#000000;fill-opacity:1;stroke:none"
       x="662.1012"
       y="2099.5098"
       id="text4246-70-2-2-2-7-4-9-9-6-1-2"><tspan
         sodipodi:role="line"
         style="font-size:45.3333px"
         x="662.1012"
         y="2099.5098"
         id="tspan9113">Ampak</tspan><tspan
         sodipodi:role="line"
         style="font-size:45.3333px"
         x="662.1012"
         y="2156.1765"
         id="tspan3769">nisem vedela,</tspan><tspan
         sodipodi:role="line"
         style="font-size:45.3333px"
         x="662.1012"
         y="2212.843"
         id="tspan540">da …</tspan></text>
    <text
       xml:space="preserve"
       style="font-style:normal;font-variant:normal;font-weight:normal;font-stretch:normal;font-size:49.2681px;line-height:125%;font-family:Lavi;-inkscape-font-specification:Lavi;text-align:center;letter-spacing:0px;word-spacing:0px;text-anchor:middle;fill:#000000;fill-opacity:1;stroke:none;stroke-width:1"
       x="712.01306"
       y="2243.0024"
       id="text4246-70-2-2-2-7-4-9-9-6-1-2-27"
       transform="scale(0.98652379,1.0136603)"><tspan
         sodipodi:role="line"
         style="font-style:normal;font-variant:normal;font-weight:normal;font-stretch:normal;font-size:49.2681px;font-family:Lavi;-inkscape-font-specification:'Lavi Bold';stroke-width:1"
         x="712.01306"
         y="2243.0024"
         id="tspan13408">In samo</tspan><tspan
         sodipodi:role="line"
         style="font-style:normal;font-variant:normal;font-weight:bold;font-stretch:normal;font-size:49.2681px;font-family:Lavi;-inkscape-font-specification:'Lavi Bold';stroke-width:1"
         x="712.01306"
         y="2304.5876"
         id="tspan549">eno minuto</tspan><tspan
         sodipodi:role="line"
         style="font-style:normal;font-variant:normal;font-weight:normal;font-stretch:normal;font-size:49.2681px;font-family:Lavi;-inkscape-font-specification:'Lavi Bold';stroke-width:1"
         x="712.01306"
         y="2366.1726"
         id="tspan551">imam?!</tspan></text>
    <text
       xml:space="preserve"
       style="font-style:normal;font-variant:normal;font-weight:normal;font-stretch:normal;font-size:48.1157px;line-height:125%;font-family:Lavi;-inkscape-font-specification:Lavi;text-align:center;letter-spacing:0px;word-spacing:0px;text-anchor:middle;fill:#000000;fill-opacity:1;stroke:none;stroke-width:1"
       x="1028.9009"
       y="1906.3979"
       id="text4246-70-2-2-2-7-4-9-9-6-1-2-3"><tspan
         sodipodi:role="line"
         style="font-size:48.1157px;stroke-width:1"
         x="1028.9009"
         y="1906.3979"
         id="tspan553">Em…</tspan></text>
    <text
       xml:space="preserve"
       style="font-style:normal;font-variant:normal;font-weight:normal;font-stretch:normal;font-size:48px;line-height:125%;font-family:Lavi;-inkscape-font-specification:Lavi;text-align:center;letter-spacing:0px;word-spacing:0px;text-anchor:middle;fill:#000000;fill-opacity:1;stroke:none;stroke-width:1"
       x="1185.2958"
       y="1933.4161"
       id="text4246-70-2-2-2-7-4-9-9-6-1-2-3-9-6"><tspan
         sodipodi:role="line"
         style="font-style:normal;font-variant:normal;font-weight:bold;font-stretch:normal;font-size:48px;font-family:Lavi;-inkscape-font-specification:'Lavi Bold';stroke-width:1"
         x="1185.2958"
         y="1933.4161"
         id="tspan62775-6">Prav!</tspan></text>
    <text
       xml:space="preserve"
       style="font-style:normal;font-variant:normal;font-weight:normal;font-stretch:normal;font-size:40.5417px;line-height:125%;font-family:Lavi;-inkscape-font-specification:Lavi;text-align:center;letter-spacing:0px;word-spacing:0px;text-anchor:middle;fill:#000000;fill-opacity:1;stroke:none;stroke-width:1"
       x="1400.2916"
       y="1973.446"
       id="text4246-70-2-2-2-7-4-9-9-6-1-2-3-9-6-0"><tspan
         sodipodi:role="line"
         style="font-size:40.5417px;stroke-width:1"
         x="1400.2916"
         y="1973.446"
         id="tspan62775-6-2">Pa poglejmo.</tspan></text>
    <text
       xml:space="preserve"
       style="font-style:normal;font-variant:normal;font-weight:normal;font-stretch:normal;font-size:45.3333px;line-height:125%;font-family:Lavi;-inkscape-font-specification:Lavi;text-align:center;letter-spacing:0px;word-spacing:0px;text-anchor:middle;fill:#000000;fill-opacity:1;stroke:none"
       x="1162.1915"
       y="2051.166"
       id="text4246-70-2-2-2-7-4-9-9-6-1-2-3-9"><tspan
         sodipodi:role="line"
         style="font-size:45.3333px"
         x="1162.1915"
         y="2051.166"
         id="tspan557">Hmm… Predstavljaj</tspan><tspan
         sodipodi:role="line"
         style="font-size:45.3333px"
         x="1162.1915"
         y="2107.8328"
         id="tspan18854">si<tspan
   style="font-style:normal;font-variant:normal;font-weight:bold;font-stretch:normal;font-family:Lavi;-inkscape-font-specification:'Lavi Bold'"
   id="tspan18856"> svetovno lakoto.</tspan></tspan></text>
    <text
       xml:space="preserve"
       style="font-style:normal;font-variant:normal;font-weight:normal;font-stretch:normal;font-size:45.3333px;line-height:125%;font-family:Lavi;-inkscape-font-specification:Lavi;text-align:center;letter-spacing:0px;word-spacing:0px;text-anchor:middle;fill:#000000;fill-opacity:1;stroke:none"
       x="1415.4337"
       y="2119.7297"
       id="text4246-70-2-2-2-7-4-9-9-6-1-2-3-9-2"><tspan
         sodipodi:role="line"
         style="font-size:45.3333px"
         x="1415.4337"
         y="2119.7297"
         id="tspan62775-9">    Aaa,</tspan><tspan
         sodipodi:role="line"
         style="font-size:45.3333px"
         x="1415.4337"
         y="2176.3965"
         id="tspan579">čakajčakajčakaj!</tspan></text>
    <text
       xml:space="preserve"
       style="font-style:normal;font-variant:normal;font-weight:normal;font-stretch:normal;font-size:45.3333px;line-height:125%;font-family:Lavi;-inkscape-font-specification:Lavi;text-align:center;letter-spacing:0px;word-spacing:0px;text-anchor:middle;fill:#000000;fill-opacity:1;stroke:none"
       x="1419.0469"
       y="2250.4714"
       id="text4246-70-2-2-2-7-4-9-9-6-1-2-3-9-2-2"><tspan
         sodipodi:role="line"
         style="font-size:45.3333px"
         x="1419.0469"
         y="2250.4714"
         id="tspan561">Že vem, še bolje:</tspan></text>
    <text
       xml:space="preserve"
       style="font-style:normal;font-variant:normal;font-weight:normal;font-stretch:normal;font-size:45.3333px;line-height:125%;font-family:Lavi;-inkscape-font-specification:Lavi;text-align:center;letter-spacing:0px;word-spacing:0px;text-anchor:middle;fill:#000000;fill-opacity:1;stroke:none"
       x="1131.6057"
       y="2306.6274"
       id="text4246-70-2-2-2-7-4-9-9-6-1-2-3-9-2-7-6"><tspan
         sodipodi:role="line"
         style="font-style:normal;font-variant:normal;font-weight:bold;font-stretch:normal;font-size:45.3333px;font-family:Lavi;-inkscape-font-specification:'Lavi Bold'"
         x="1131.6057"
         y="2306.6274"
         id="tspan567">Pomisli na bližnje,</tspan><tspan
         sodipodi:role="line"
         style="font-style:normal;font-variant:normal;font-weight:bold;font-stretch:normal;font-size:45.3333px;font-family:Lavi;-inkscape-font-specification:'Lavi Bold'"
         x="1131.6057"
         y="2363.2942"
         id="tspan571">ki so te za vedno</tspan><tspan
         sodipodi:role="line"
         style="font-style:normal;font-variant:normal;font-weight:bold;font-stretch:normal;font-size:45.3333px;font-family:Lavi;-inkscape-font-specification:'Lavi Bold'"
         x="1131.6057"
         y="2419.9607"
         id="tspan577">zapustili!</tspan></text>
    <text
       xml:space="preserve"
       style="font-style:normal;font-variant:normal;font-weight:normal;font-stretch:normal;font-size:45.3333px;line-height:125%;font-family:Lavi;-inkscape-font-specification:Lavi;text-align:center;letter-spacing:0px;word-spacing:0px;text-anchor:middle;fill:#000000;fill-opacity:1;stroke:none"
       x="1196.426"
       y="3084.6577"
       id="text4246-70-2-2-2-7-4-9-9-6-1-2-3-9-2-7"><tspan
         sodipodi:role="line"
         style="font-size:45.3333px"
         x="1196.426"
         y="3084.6577"
         id="tspan70880">Še vedno nič?</tspan></text>
    <text
       xml:space="preserve"
       style="font-style:normal;font-variant:normal;font-weight:normal;font-stretch:normal;font-size:45.3333px;line-height:125%;font-family:Lavi;-inkscape-font-specification:Lavi;text-align:center;letter-spacing:0px;word-spacing:0px;text-anchor:middle;fill:#000000;fill-opacity:1;stroke:none"
       x="1228.1167"
       y="3169.6184"
       id="text4246-70-2-2-2-7-4-9-9-6-1-2-3-9-2-7-9"><tspan
         sodipodi:role="line"
         style="font-style:normal;font-variant:normal;font-weight:bold;font-stretch:normal;font-size:45.3333px;font-family:Lavi;-inkscape-font-specification:'Lavi Bold'"
         x="1228.1167"
         y="3169.6184"
         id="tspan34886">Zapuščeni</tspan><tspan
         sodipodi:role="line"
         style="font-style:normal;font-variant:normal;font-weight:bold;font-stretch:normal;font-size:45.3333px;font-family:Lavi;-inkscape-font-specification:'Lavi Bold'"
         x="1228.1167"
         y="3226.2852"
         id="tspan3645">ljubljenčki?!</tspan></text>
    <text
       xml:space="preserve"
       style="font-style:normal;font-variant:normal;font-weight:normal;font-stretch:normal;font-size:31.9991px;line-height:125%;font-family:Lavi;-inkscape-font-specification:Lavi;text-align:center;letter-spacing:0px;word-spacing:0px;text-anchor:middle;fill:#000000;fill-opacity:1;stroke:none;stroke-width:0.999999"
       x="1296.2224"
       y="3302.9304"
       id="text4246-70-2-2-2-7-4-9-9-6-1-2-3-9-2-7-9-1"><tspan
         sodipodi:role="line"
         style="font-size:31.9991px;stroke-width:0.999999"
         x="1296.2224"
         y="3302.9304"
         id="tspan3892">Veš, kako so žalostni,</tspan><tspan
         sodipodi:role="line"
         style="font-size:31.9991px;stroke-width:0.999999"
         x="1296.2224"
         y="3342.9292"
         id="tspan725">ko jih zapustijo …</tspan></text>
    <text
       xml:space="preserve"
       style="font-style:normal;font-variant:normal;font-weight:normal;font-stretch:normal;font-size:45.3333px;line-height:125%;font-family:Lavi;-inkscape-font-specification:Lavi;text-align:center;letter-spacing:0px;word-spacing:0px;text-anchor:middle;fill:#000000;fill-opacity:1;stroke:none"
       x="2305.2185"
       y="3151.553"
       id="text4246-70-2-2-2-7-4-9-9-6-1-2-3-9-2-7-9-5"><tspan
         sodipodi:role="line"
         style="font-size:45.3333px"
         x="2305.2185"
         y="3151.553"
         id="tspan80607-3">...</tspan></text>
  </g>
</svg>
