<?xml version="1.0" encoding="UTF-8" standalone="no"?>
<!-- Created with Inkscape (http://www.inkscape.org/) -->

<svg
   id="svg2"
   version="1.1"
   inkscape:version="1.3 (0e150ed6c4, 2023-07-21)"
   width="2481"
   height="3503"
   sodipodi:docname="E37P01.svg"
   xmlns:inkscape="http://www.inkscape.org/namespaces/inkscape"
   xmlns:sodipodi="http://sodipodi.sourceforge.net/DTD/sodipodi-0.dtd"
   xmlns:xlink="http://www.w3.org/1999/xlink"
   xmlns="http://www.w3.org/2000/svg"
   xmlns:svg="http://www.w3.org/2000/svg"
   xmlns:rdf="http://www.w3.org/1999/02/22-rdf-syntax-ns#"
   xmlns:cc="http://creativecommons.org/ns#"
   xmlns:dc="http://purl.org/dc/elements/1.1/">
  <metadata
     id="metadata8">
    <rdf:RDF>
      <cc:Work
         rdf:about="">
        <dc:format>image/svg+xml</dc:format>
        <dc:type
           rdf:resource="http://purl.org/dc/dcmitype/StillImage" />
        <dc:title />
      </cc:Work>
    </rdf:RDF>
  </metadata>
  <defs
     id="defs6" />
  <sodipodi:namedview
     pagecolor="#ffffff"
     bordercolor="#666666"
     borderopacity="1"
     objecttolerance="10"
     gridtolerance="10"
     guidetolerance="10"
     inkscape:pageopacity="0"
     inkscape:pageshadow="2"
     inkscape:window-width="1888"
     inkscape:window-height="1144"
     id="namedview4"
     showgrid="false"
     inkscape:zoom="0.45720279"
     inkscape:cx="1484.0242"
     inkscape:cy="2704.4892"
     inkscape:window-x="32"
     inkscape:window-y="0"
     inkscape:window-maximized="1"
     inkscape:current-layer="layer3"
     inkscape:pagecheckerboard="0"
     inkscape:showpageshadow="0"
     inkscape:deskcolor="#d1d1d1"
     showguides="false" />
  <g
     inkscape:groupmode="layer"
     id="layer2"
     inkscape:label="artwork"
     sodipodi:insensitive="true">
    <image
       xlink:href="../gfx_Pepper-and-Carrot_by-David-Revoy_E37P01.png"
       y="0"
       x="0"
       id="image10"
       height="3503"
       width="2481" />
  </g>
  <g
     inkscape:groupmode="layer"
     id="layer3"
     inkscape:label="speechbubbles">
    <path
       style="color:#000000;display:inline;overflow:visible;visibility:visible;fill:#ffe4a0;fill-opacity:1;fill-rule:nonzero;stroke:none;stroke-width:0.999998px;marker:none;enable-background:accumulate"
       d="m 1959.0704,2245.8002 c 15.8896,4.7552 27.218,-10.2594 36.5884,-10.1737 9.3705,0.085 20.4858,-1.4767 31.5776,-11.7728 11.8207,-15.5362 46.6253,-47.4088 4.9039,-39.2982 -15.2177,1.3778 -15.6011,25.3088 -21.9093,33.4823 -6.3081,8.1734 -14.6485,3.6312 -21.2243,9.0949 -6.5758,5.4636 -12.6894,16.2295 -29.9363,18.6675 z"
       id="path4538-0"
       inkscape:connector-curvature="0"
       sodipodi:nodetypes="ccccccc" />
    <path
       style="color:#000000;display:inline;overflow:visible;visibility:visible;fill:#ffe4a0;fill-opacity:1;fill-rule:nonzero;stroke:none;stroke-width:1px;marker:none;enable-background:accumulate"
       d="m 2227.0581,3154.1004 c 28.5766,35.6275 26.7243,68.7946 -11.9358,97.7083 -28.493,37.8553 -6.4996,37.7686 -6.4996,37.7686 l 37.1337,-13.1172 c 0,0 59.0815,-65.7447 -18.6983,-122.3597 z"
       id="path3072-56-6"
       inkscape:connector-curvature="0"
       sodipodi:nodetypes="ccccc" />
    <path
       style="color:#000000;display:inline;overflow:visible;visibility:visible;fill:#ffe4a0;fill-opacity:1;fill-rule:nonzero;stroke:none;stroke-width:1.12768px;marker:none;enable-background:accumulate"
       d="m 848.94381,2235.2592 c -26.82279,0.5753 -54.16139,0.4897 -79.55759,8.7274 -14.90831,4.8086 -28.98534,13.9872 -37.19105,28.7416 -9.5953,16.9065 -9.29731,39.8595 -2.13407,59.5044 3.35908,9.1155 8.00765,17.8234 13.87018,25.3841 6.36725,8.0503 14.72532,14.2159 23.80589,16.9179 26.32117,9.9747 53.70172,12.3563 80.56394,13.3577 28.09119,0.7741 56.0621,-0.2637 83.8085,-2.6648 23.39358,-2.3983 46.893,-6.7261 67.68175,-17.8369 12.55224,-6.9884 24.12324,-17.5602 29.16524,-32.6932 7.0365,-20.922 2.4666,-47.7863 -12.7063,-65.3991 -12.1272,-13.5117 -28.56087,-20.0568 -44.39323,-24.0339 -26.14625,-6.4506 -52.56481,-7.5968 -78.80384,-9.1183 -14.72629,-0.7189 -29.46911,-1.3628 -44.10942,-0.8869 z"
       id="path4546-6-21-1"
       inkscape:connector-curvature="0"
       sodipodi:nodetypes="cssssc" />
    <path
       style="color:#000000;display:inline;overflow:visible;visibility:visible;fill:#ffe4a0;fill-opacity:1;fill-rule:nonzero;stroke:none;stroke-width:1.32797px;marker:none;enable-background:accumulate"
       d="m 808.98606,2153.2272 c -20.55689,0.3855 -41.46571,0.3282 -61.42413,5.8465 -11.7144,3.2213 -23.074,9.3697 -30.30072,19.2536 -8.4282,11.3254 -9.67692,26.7013 -5.46077,39.861 1.9833,6.1063 4.97929,11.9396 8.9778,17.0045 4.35312,5.3928 10.35048,9.5229 17.12342,11.3329 19.4943,6.682 40.28758,8.2774 60.77311,8.9483 21.44033,0.5184 42.90521,-0.1767 64.28606,-1.7852 18.05073,-1.6067 36.3065,-4.5058 52.92499,-11.9486 10.05236,-4.6815 19.5844,-11.7632 24.41509,-21.9007 6.72901,-14.0154 4.96131,-32.0113 -5.513,-43.8099 -8.40823,-9.0513 -20.5592,-13.4357 -32.4151,-16.0999 -19.58744,-4.3212 -39.72422,-5.089 -59.69956,-6.1083 -11.21956,-0.4816 -22.45659,-0.9129 -33.68719,-0.5942 z"
       id="path4546-6-21-1-7"
       inkscape:connector-curvature="0"
       sodipodi:nodetypes="cssssc" />
    <path
       style="color:#000000;display:inline;overflow:visible;visibility:visible;fill:#ffe4a0;fill-opacity:1;fill-rule:nonzero;stroke:none;stroke-width:0.999999px;marker:none;enable-background:accumulate"
       d="m 1101.052,2241.6037 c -37.8224,-10.1039 -66.5773,0.6527 -83.2398,36.2795 -26.83459,30.9686 -31.74787,15.3599 -31.74787,15.3599 l 3.11347,-30.0472 c 0,0 44.4272,-60.5843 111.8742,-21.5922 z"
       id="path3072-56"
       inkscape:connector-curvature="0"
       sodipodi:nodetypes="ccccc" />
    <path
       style="fill:#ffe4a0;stroke:none;stroke-width:0.846184;fill-opacity:1"
       d="m 2093.4093,2130.2169 c -31.3284,0.4123 -63.9404,2.2187 -91.7359,10.4841 -34.6563,11.691 -47.2506,38.1263 -27.4224,57.1695 8.6632,8.6656 23.7955,15.1978 41.1142,18.5043 21.0922,4.2621 43.7762,5.3284 65.8806,7.2813 57.753,4.1141 117.2519,3.3061 173.7743,-4.5769 16.5046,-2.2206 34.0872,-6.5755 41.3,-15.3057 8.6159,-10.8688 8.2227,-23.2301 3.2056,-34.5465 -5.3451,-11.0488 -16.4283,-21.7227 -33.8255,-28.6656 -19.763,-6.8452 -44.1019,-7.3704 -66.8476,-8.7362 -35.0494,-1.6848 -70.2832,-1.636 -105.4433,-1.6083 z"
       id="path3280-10"
       inkscape:connector-curvature="0"
       sodipodi:nodetypes="csssc" />
    <path
       style="color:#000000;display:inline;overflow:visible;visibility:visible;fill:#ffe4a0;fill-opacity:1;fill-rule:nonzero;stroke:none;stroke-width:1.15315px;marker:none;enable-background:accumulate"
       d="m 2056.444,2543.7295 c -36.812,0.7568 -74.2481,1.4279 -109.7556,9.7074 -25.0351,5.5424 -48.5525,16.7463 -63.4736,33.3411 -18.3582,19.052 -31.3828,41.6905 -33.4131,65.496 -1.6219,19.1491 2.8417,38.7541 13.9922,56.0032 7.8806,12.0838 20.2266,22.6778 36.0811,28.8528 17.1114,6.9738 36.5288,9.6079 55.6676,10.7857 24.6457,1.9058 49.3332,3.4861 73.9635,5.5121 57.1799,4.2561 114.7064,7.4585 172.1719,5.1753 38.5844,-1.0562 49.972,-1.8664 88.5715,-2.4542 20.2306,-3.1666 25.3801,-5.4068 43.9741,-12.7598 14.9378,-9.6839 25.2518,-15.2608 31.4918,-27.3579 6.7275,-20.9248 6.5187,-43.7583 4.2095,-57.8827 -4.995,-19.9524 -11.3716,-22.2335 -21.4283,-38.6626 -10.3059,-15.5695 -22.9027,-30.9639 -41.695,-41.3344 -22.7441,-12.8447 -50.4377,-19.142 -77.8877,-23.1169 -46.0458,-6.7239 -92.941,-8.9179 -139.6669,-10.8774 -10.9283,-0.3288 -21.8662,-0.4815 -32.803,-0.4277 z"
       id="path4546-6-21-1-2"
       inkscape:connector-curvature="0"
       sodipodi:nodetypes="cssssccccccccccccc" />
    <path
       style="color:#000000;display:inline;overflow:visible;visibility:visible;fill:#ffe4a0;fill-opacity:1;fill-rule:nonzero;stroke:none;stroke-width:0.999994px;marker:none;enable-background:accumulate"
       d="m 1942.2703,2480.3182 c 18.9595,22.3478 18.4788,48.1522 -5.5445,77.1561 -17.3564,34.0865 -3.3447,30.1555 -3.3447,30.1555 l 23.3839,-16.6011 c 0,0 36.2583,-60.8853 -14.4947,-90.7105 z"
       id="path3072-56-7"
       inkscape:connector-curvature="0"
       sodipodi:nodetypes="ccccc" />
    <path
       style="color:#000000;display:inline;overflow:visible;visibility:visible;fill:#ffe4a0;fill-opacity:1;fill-rule:nonzero;stroke:none;stroke-width:0.841851px;marker:none;enable-background:accumulate"
       d="m 2166.251,3247.2055 c -33.7068,0.7405 -68.013,4.8742 -98.0771,16.2115 -22.1551,7.977 -38.4295,23.1182 -44.9606,40.0448 -8.3293,19.0095 -9.7813,40.1932 0.7249,58.9328 8.7412,15.4504 27.1888,27.3707 48.2826,34.1576 28.3678,9.5845 59.3135,14.5859 90.2449,17.8203 45.6905,4.4578 92.2687,4.4011 137.9284,-0.2113 25.8408,-3.0456 51.9083,-9.0609 72.1743,-21.271 21.9372,-13.2926 33.6822,-34.3176 31.2871,-54.6854 -1.7412,-23.3706 -16.1082,-46.5679 -41.2135,-61.976 -20.241,-12.7738 -46.3487,-19.9001 -72.7598,-23.1268 -40.6982,-5.5383 -82.3432,-5.8186 -123.6312,-5.8965 z"
       id="path4040-40"
       inkscape:connector-curvature="0"
       sodipodi:nodetypes="zssssz" />
  </g>
  <g
     inkscape:groupmode="layer"
     id="layer1"
     inkscape:label="txt"
     style="display:inline">
    <text
       xml:space="preserve"
       style="font-style:normal;font-variant:normal;font-weight:normal;font-stretch:normal;font-size:45.3333px;line-height:125%;font-family:Lavi;-inkscape-font-specification:Lavi;text-align:center;letter-spacing:0px;word-spacing:0px;text-anchor:middle;fill:#000000;fill-opacity:1;stroke:none"
       x="829.21271"
       y="2214.7625"
       id="text4246-70-2-2-2-7-4-9-9-6-1-2-3-9"><tspan
         sodipodi:role="line"
         style="font-size:45.3333px"
         x="829.21271"
         y="2214.7625"
         id="tspan2979">No, tako.</tspan></text>
    <text
       xml:space="preserve"
       style="font-style:normal;font-variant:normal;font-weight:normal;font-stretch:normal;font-size:45.3333px;line-height:125%;font-family:Lavi;-inkscape-font-specification:Lavi;text-align:center;letter-spacing:0px;word-spacing:0px;text-anchor:middle;fill:#000000;fill-opacity:1;stroke:none"
       x="877.09656"
       y="2297.8145"
       id="text4246-70-2-2-2-7-4-9-9-6-1-2-3-9-3"><tspan
         sodipodi:role="line"
         style="font-size:45.3333px"
         x="877.09656"
         y="2297.8145"
         id="tspan551">Končno sem</tspan><tspan
         sodipodi:role="line"
         style="font-size:45.3333px"
         x="877.09656"
         y="2354.4812"
         id="tspan920">prispela!</tspan></text>
    <text
       xml:space="preserve"
       style="font-style:normal;font-variant:normal;font-weight:normal;font-stretch:normal;font-size:45.3333px;line-height:125%;font-family:Lavi;-inkscape-font-specification:Lavi;text-align:center;letter-spacing:0px;word-spacing:0px;text-anchor:middle;fill:#000000;fill-opacity:1;stroke:none"
       x="2139.7444"
       y="2192.9155"
       id="text4246-70-2-2-2-7-4-9-9-6-1-2-3-9-3-5"><tspan
         sodipodi:role="line"
         style="font-size:45.3333px"
         x="2139.7444"
         y="2192.9155"
         id="tspan732">O, tržni dan je.</tspan></text>
    <text
       xml:space="preserve"
       style="font-style:normal;font-variant:normal;font-weight:normal;font-stretch:normal;font-size:45.3333px;line-height:125%;font-family:Lavi;-inkscape-font-specification:Lavi;text-align:center;letter-spacing:0px;word-spacing:0px;text-anchor:middle;fill:#000000;fill-opacity:1;stroke:none"
       x="2119.2764"
       y="2610.0796"
       id="text4246-70-2-2-2-7-4-9-9-6-1-2-3-9-3-5-2"><tspan
         sodipodi:role="line"
         style="font-size:45.3333px"
         x="2119.2764"
         y="2610.0796"
         id="tspan1029">Poiščiva si kaj za</tspan><tspan
         sodipodi:role="line"
         style="font-size:45.3333px"
         x="2119.2764"
         y="2666.7463"
         id="tspan2019">pod zob, preden se</tspan><tspan
         sodipodi:role="line"
         style="font-size:45.3333px"
         x="2119.2764"
         y="2723.4128"
         id="tspan1031">povzpneva na vulkan.</tspan></text>
    <text
       xml:space="preserve"
       style="font-style:normal;font-variant:normal;font-weight:normal;font-stretch:normal;font-size:45.3333px;line-height:125%;font-family:Lavi;-inkscape-font-specification:Lavi;text-align:center;letter-spacing:0px;word-spacing:0px;text-anchor:middle;fill:#000000;fill-opacity:1;stroke:none"
       x="2212.5168"
       y="3319.0056"
       id="text4246-70-2-2-2-7-4-9-9-6-1-2-3-9-3-5-2-0"><tspan
         sodipodi:role="line"
         style="font-size:45.3333px"
         x="2212.5168"
         y="3319.0056"
         id="tspan926"><tspan
   style="font-style:italic;font-variant:normal;font-weight:normal;font-stretch:normal;font-family:Lavi;-inkscape-font-specification:'Lavi Italic'"
   id="tspan1236">Sem vedela</tspan>, da</tspan><tspan
         sodipodi:role="line"
         style="font-size:45.3333px"
         x="2212.5168"
         y="3375.6724"
         id="tspan736">se boš strinjal!</tspan></text>
  </g>
</svg>
