<?xml version="1.0" encoding="UTF-8" standalone="no"?>
<!-- Created with Inkscape (http://www.inkscape.org/) -->

<svg
   id="svg2"
   version="1.1"
   inkscape:version="1.3 (1:1.3+202307231459+0e150ed6c4)"
   width="2481"
   height="3503"
   sodipodi:docname="E37P03.svg"
   xmlns:inkscape="http://www.inkscape.org/namespaces/inkscape"
   xmlns:sodipodi="http://sodipodi.sourceforge.net/DTD/sodipodi-0.dtd"
   xmlns:xlink="http://www.w3.org/1999/xlink"
   xmlns="http://www.w3.org/2000/svg"
   xmlns:svg="http://www.w3.org/2000/svg"
   xmlns:rdf="http://www.w3.org/1999/02/22-rdf-syntax-ns#"
   xmlns:cc="http://creativecommons.org/ns#"
   xmlns:dc="http://purl.org/dc/elements/1.1/">
  <metadata
     id="metadata8">
    <rdf:RDF>
      <cc:Work
         rdf:about="">
        <dc:format>image/svg+xml</dc:format>
        <dc:type
           rdf:resource="http://purl.org/dc/dcmitype/StillImage" />
        <dc:title />
      </cc:Work>
    </rdf:RDF>
  </metadata>
  <defs
     id="defs6" />
  <sodipodi:namedview
     pagecolor="#ffffff"
     bordercolor="#666666"
     borderopacity="1"
     objecttolerance="10"
     gridtolerance="10"
     guidetolerance="10"
     inkscape:pageopacity="0"
     inkscape:pageshadow="2"
     inkscape:window-width="1920"
     inkscape:window-height="997"
     id="namedview4"
     showgrid="false"
     inkscape:zoom="0.3740595"
     inkscape:cx="1336.6857"
     inkscape:cy="542.69441"
     inkscape:window-x="0"
     inkscape:window-y="0"
     inkscape:window-maximized="1"
     inkscape:current-layer="layer3"
     inkscape:pagecheckerboard="0"
     inkscape:showpageshadow="0"
     inkscape:deskcolor="#d1d1d1" />
  <g
     inkscape:groupmode="layer"
     id="layer2"
     inkscape:label="artwork"
     sodipodi:insensitive="true">
    <image
       xlink:href="../gfx_Pepper-and-Carrot_by-David-Revoy_E37P03.png"
       y="0"
       x="0"
       id="image10"
       height="3503"
       width="2481" />
  </g>
  <g
     inkscape:groupmode="layer"
     id="layer3"
     inkscape:label="speechbubbles">
    <path
       style="fill:#ffe4a0;stroke:none;fill-opacity:1"
       d="M 309.03969,432.08601 C 284.47046,412.34204 286.4676,402.76557 289.6519,392.0304 c 3.18412,-10.73531 7.28186,-20.14814 3.61763,-26.41179 -3.66404,-6.26351 -11.74206,-11.72395 -18.29755,-14.98031 -6.55548,-3.25646 -0.45551,-10.46603 0.21288,-18.13003 0.66831,-7.66412 -10.65562,-47.81818 -10.65562,-47.81818 0,0 -16.12893,27.00135 -18.3493,36.73423 -2.22054,9.73275 -3.08233,13.28039 -2.88893,17.39675 0.19358,4.1165 2.17394,14.17648 7.99925,19.25288 5.82532,5.0764 13.79112,7.01762 19.0679,9.86162 5.27689,2.84391 3.98478,11.55697 3.32674,20.195 -0.65814,8.63801 0.27632,15.01927 9.71886,26.19244 8.09394,9.57758 25.63593,17.763 25.63593,17.763 z"
       id="path3023-2"
       inkscape:connector-curvature="0"
       sodipodi:nodetypes="csssscssssssc" />
    <path
       style="color:#000000;display:inline;overflow:visible;visibility:visible;fill:#ffe4a0;fill-opacity:1;fill-rule:nonzero;stroke:none;stroke-width:0.999998px;marker:none;enable-background:accumulate"
       d="m 403.42298,834.07226 c -16.6818,-24.82678 6.70933,-94.25013 56.4409,-100.94979 -22.32483,1.35916 -74.47842,-5.24564 -96.28686,102.62894 -9.86485,48.79671 26.31789,-1.15111 26.31789,-1.15111 z"
       id="path4035-4"
       inkscape:connector-curvature="0"
       sodipodi:nodetypes="ccscc" />
    <path
       style="color:#000000;display:inline;overflow:visible;visibility:visible;fill:#ffe4a0;fill-opacity:1;fill-rule:nonzero;stroke:none;stroke-width:1.0303px;marker:none;enable-background:accumulate"
       d="m 284.21635,781.47903 c -42.44878,0.63715 -85.11072,10.36765 -121.06568,30.03741 -24.12414,13.99102 -41.72286,36.01266 -48.0952,60.43755 -7.39825,26.93897 -2.25655,56.90295 16.73116,79.58185 15.50744,18.18736 39.41769,29.80488 64.24816,36.0402 27.60336,6.91221 56.60462,7.10418 85.10956,7.8958 32.28999,0.56966 64.6815,-0.30052 96.74607,-3.7457 27.82745,-3.87212 55.67454,-11.96855 77.69306,-27.53398 17.76198,-13.2508 27.45474,-33.33464 28.28973,-53.34648 3.65152,-37.41182 -14.75177,-76.56474 -49.76775,-99.48838 -21.4673,-14.19075 -48.11053,-21.01159 -74.50356,-24.68232 -24.87839,-3.67393 -50.14552,-5.3894 -75.38555,-5.19595 z"
       id="path4040-4-5-3"
       inkscape:connector-curvature="0"
       sodipodi:nodetypes="zssssz" />
    <path
       style="color:#000000;display:inline;overflow:visible;visibility:visible;fill:#ffe4a0;fill-opacity:1;fill-rule:nonzero;stroke:none;stroke-width:0.866961px;marker:none;enable-background:accumulate"
       d="m 250.21228,112.83617 c -26.95411,0.35686 -54.29094,2.72695 -79.92613,11.74083 -12.32061,4.31007 -23.81913,11.19676 -33.07549,20.58551 -11.86492,11.82327 -20.13001,27.54434 -22.27326,44.39025 -2.69064,18.14858 -1.10597,36.55707 0.0559,54.76406 1.46748,16.29724 5.5385,33.05952 15.77895,46.05428 13.40894,17.56347 33.87053,28.39953 55.01313,32.79082 24.17675,5.28976 49.04371,4.75947 73.62934,5.17698 24.59555,-0.10289 49.41897,-0.39453 73.59173,-5.52971 21.09217,-4.88366 41.82407,-13.69139 58.08849,-28.51935 12.14963,-12.08347 18.15965,-29.28235 19.56072,-46.25695 2.83638,-23.93904 2.35662,-48.92508 -6.1136,-71.71577 -7.79682,-20.71264 -23.45637,-38.34395 -43.27242,-47.67864 -19.73474,-9.7758 -41.84627,-12.59756 -63.46311,-14.44753 -15.83103,-1.26789 -31.7228,-1.40366 -47.59426,-1.35478 z"
       id="path4040-4-5-3-5"
       inkscape:connector-curvature="0"
       sodipodi:nodetypes="zssssz" />
    <path
       style="display:inline;fill:#ffe4a0;stroke:none;stroke-width:0.860133;fill-opacity:1"
       d="m 1401.039,151.16566 c -55.3122,0.25711 -111.3673,4.20835 -162.9925,15.84972 -25.2568,5.74593 -44.9848,17.79639 -55.9058,31.66096 -6.5194,8.10563 -9.6258,16.9586 -10.2025,25.81997 -1.7436,14.63529 2.064,30.10515 16.7284,42.54978 14.6039,12.17918 37.9484,19.97225 61.848,25.21541 43.8962,9.87662 91.4245,14.7229 138.701,13.97573 43.1835,-0.96965 85.4478,-6.7862 128.5559,-8.24222 48.8759,-2.22048 98.3426,-2.84806 146.218,-9.37851 18.4218,-2.21904 35.3665,-8.25799 46.2041,-16.96093 9.013,-6.9719 13.2413,-15.42675 16.459,-23.73422 4.7726,-13.66461 3.7483,-28.02916 -3.4848,-41.36141 -8.9207,-14.79173 -28.4388,-27.26581 -52.7406,-34.72816 -33.7642,-11.17327 -73.1799,-14.78132 -111.505,-17.41878 -52.3797,-3.46844 -105.2317,-3.23678 -157.8832,-3.24734 z"
       id="path3280-8-2"
       inkscape:connector-curvature="0"
       sodipodi:nodetypes="csssc" />
    <path
       style="color:#000000;display:inline;overflow:visible;visibility:visible;fill:#ffe4a0;fill-opacity:1;fill-rule:nonzero;stroke:none;stroke-width:0.986318px;marker:none;enable-background:accumulate"
       d="m 1520.4221,253.03826 c -34.5625,0.42981 -69.5319,8.27785 -98.3902,25.13449 -26.4435,16.47588 -43.9435,43.91651 -44.1284,72.33862 -0.076,23.53471 13.5236,46.45379 34.7309,60.93334 18.0931,12.59312 40.4109,19.55045 62.811,23.91314 35.134,7.09536 71.4072,9.97699 107.4352,8.26078 22.9355,-1.01004 45.6804,-3.99352 68.2777,-7.42882 16.4719,-2.62635 32.9711,-6.38117 47.5996,-13.66713 14.1563,-6.83227 26.3975,-16.86081 34.1653,-29.2638 11.7247,-18.44665 14.4735,-40.59665 9.8209,-61.11649 -5.5454,-23.81247 -23.0675,-45.64329 -47.8456,-57.25084 -20.9073,-10.2734 -44.7778,-14.68555 -68.3453,-17.55266 -32.5908,-3.70444 -65.5219,-3.7338 -98.3272,-4.30322 -2.6014,-0.007 -5.2026,-6.5e-4 -7.8039,0.003 z"
       id="path3365-7"
       inkscape:connector-curvature="0"
       sodipodi:nodetypes="cscsccc" />
    <path
       style="fill:#ffe4a0;fill-rule:evenodd;stroke:none;stroke-width:0.999999px;stroke-linecap:butt;stroke-linejoin:miter;stroke-opacity:1;fill-opacity:1"
       d="m 1664.5511,394.10314 c -6.3324,4.61753 23.1312,48.65505 53.6406,67.52901 38.9988,24.12578 112.2777,14.3494 131.5101,5.98579 -39.7827,19.67647 -151.2589,38.53306 -215.4148,-49.39071 -15.2092,-20.84384 30.2641,-24.12409 30.2641,-24.12409 z"
       id="path1357"
       inkscape:connector-curvature="0"
       inkscape:transform-center-x="-30.354172"
       inkscape:transform-center-y="-147.57618"
       sodipodi:nodetypes="cscsc" />
    <path
       style="color:#000000;display:inline;overflow:visible;visibility:visible;fill:#ffe4a0;fill-opacity:1;fill-rule:nonzero;stroke:none;stroke-width:1.52511px;marker:none;enable-background:accumulate"
       d="m 116.85658,2768.4588 c 4.64325,-39.7667 58.82732,-68.7922 199.25518,-61.119 75.22059,4.1101 160.64571,6.8552 154.71635,65.1114 -5.92943,58.2567 -128.72725,56.5921 -154.08811,57.9201 -25.36097,1.3284 -157.36772,-4.9608 -180.33852,-24.8113 -14.37911,-12.426 -20.03418,-24.7842 -19.5449,-37.1012 z"
       id="path4546-6-5"
       inkscape:connector-curvature="0"
       sodipodi:nodetypes="cssssc" />
    <path
       style="color:#000000;display:inline;overflow:visible;visibility:visible;fill:#ffe4a0;fill-opacity:1;fill-rule:nonzero;stroke:none;stroke-width:1.36748px;marker:none;enable-background:accumulate"
       d="m 870.04168,3207.6237 c 4.33888,-57.9863 54.97107,-100.3102 186.19352,-89.1213 70.2897,5.993 150.115,9.9958 144.5744,94.9428 -5.5406,84.9476 -120.2889,82.5204 -143.9874,84.4568 -23.6985,1.9371 -147.0518,-7.2338 -168.51682,-36.1789 -13.43654,-18.119 -18.72091,-36.1393 -18.2637,-54.0994 z"
       id="path4546-6-5-2"
       inkscape:connector-curvature="0"
       sodipodi:nodetypes="cssssc" />
    <path
       style="fill:#ffe4a0;fill-rule:evenodd;stroke:none;stroke-width:0.909275px;stroke-linecap:butt;stroke-linejoin:miter;stroke-opacity:1;fill-opacity:1"
       d="m 1387.5999,3270.1227 c 20.1934,-16.4757 30.8899,-15.7242 52.6367,-17.3183 21.7466,-1.5947 75.4441,-5.185 96.6731,-0.9335 21.2292,4.2518 41.4226,9.0354 46.6003,14.8814 5.1778,5.8461 17.6045,22.8535 17.6045,30.2942 0,7.4408 7.249,31.8884 -6.2133,47.833 -13.4623,15.9442 -26.9246,27.6369 -51.2602,27.1053 -24.3358,-0.5316 -57.9915,0 -74.0427,0.5316 -16.0512,0.5309 -65.2403,-6.3783 -74.0426,-20.1962 -8.8022,-13.8184 -21.229,-34.546 -19.1579,-46.2387 2.0712,-11.6923 11.2021,-35.9588 11.2021,-35.9588 z"
       id="path1289"
       inkscape:connector-curvature="0"
       sodipodi:nodetypes="csssssssscc" />
    <path
       style="fill:#ffe4a0;fill-rule:evenodd;stroke:none;stroke-width:1px;stroke-linecap:butt;stroke-linejoin:miter;stroke-opacity:1;fill-opacity:1"
       d="m 1520.7213,3290.478 c 0,0 0.2613,-30.8716 9.7849,-41.8248 9.5236,-10.953 35.9725,-32.826 61.189,-35.0384 -49.4537,-3.6057 -69.9603,11.1043 -78.3427,19.1018 -8.3839,7.9982 -32.4023,48.2786 -32.4023,48.2786 z"
       id="path1367-3"
       inkscape:connector-curvature="0" />
    <path
       style="color:#000000;display:inline;overflow:visible;visibility:visible;fill:#ffe4a0;fill-opacity:1;fill-rule:nonzero;stroke:none;stroke-width:1px;marker:none;enable-background:accumulate"
       d="m 371.05804,2770.2315 c -13.44223,35.2759 -28.63005,94.9961 57.30853,115.005 -17.80709,4.5085 -119.29491,-9.1273 -91.99905,-114.8163 7.92058,-30.6682 15.69642,-16.5134 23.06049,-15.8694 7.36416,0.6441 11.63003,15.6807 11.63003,15.6807 z"
       id="path4064-5"
       inkscape:connector-curvature="0"
       sodipodi:nodetypes="ccszc" />
    <path
       style="color:#000000;display:inline;overflow:visible;visibility:visible;fill:#ffe4a0;fill-opacity:1;fill-rule:nonzero;stroke:none;stroke-width:1px;marker:none;enable-background:accumulate"
       d="m 985.81867,3194.6677 c 41.23993,-57.572 33.73823,-151.8082 -50.60213,-153.341 81.57176,24.5899 42.90889,109.9963 14.4588,139.3816 -19.62934,16.6806 36.14333,13.9594 36.14333,13.9594 z"
       id="path3978-4"
       inkscape:connector-curvature="0"
       sodipodi:nodetypes="cccc" />
  </g>
  <g
     inkscape:groupmode="layer"
     id="layer1"
     inkscape:label="txt">
    <text
       xml:space="preserve"
       style="font-style:normal;font-variant:normal;font-weight:normal;font-stretch:normal;font-size:45.3333px;line-height:125%;font-family:Lavi;-inkscape-font-specification:Lavi;text-align:center;letter-spacing:0px;word-spacing:0px;text-anchor:middle;fill:#000000;fill-opacity:1;stroke:none"
       x="260.63071"
       y="178.75482"
       id="text4246-70-2-2-2-7-4-9-9-6-1-2-3-9-2-7-9-3"><tspan
         sodipodi:role="line"
         style="font-size:45.3333px"
         x="260.63071"
         y="178.75482"
         id="tspan2152">Vsepovsod</tspan><tspan
         sodipodi:role="line"
         style="font-size:45.3333px"
         x="260.63071"
         y="235.42145"
         id="tspan379">so razobesili</tspan><tspan
         sodipodi:role="line"
         style="font-size:45.3333px"
         x="260.63071"
         y="292.08807"
         id="tspan381">te plakate.</tspan></text>
    <text
       xml:space="preserve"
       style="font-style:normal;font-variant:normal;font-weight:normal;font-stretch:normal;font-size:45.3333px;line-height:125%;font-family:Lavi;-inkscape-font-specification:Lavi;text-align:center;letter-spacing:0px;word-spacing:0px;text-anchor:middle;fill:#000000;fill-opacity:1;stroke:none"
       x="299.27539"
       y="834.51746"
       id="text4246-70-2-2-2-7-4-9-9-6-1-2-3-9-2-7-9-3-3"><tspan
         sodipodi:role="line"
         style="font-size:45.3333px"
         x="299.27539"
         y="834.51746"
         id="tspan1491">Celo v</tspan><tspan
         sodipodi:role="line"
         style="font-size:45.3333px"
         x="299.27539"
         y="891.18408"
         id="tspan446">najbolj oddaljene</tspan><tspan
         sodipodi:role="line"
         style="font-size:45.3333px"
         x="299.27539"
         y="947.85071"
         id="tspan448">kotičke Hereve.</tspan></text>
    <text
       xml:space="preserve"
       style="font-style:normal;font-variant:normal;font-weight:normal;font-stretch:normal;font-size:45.3333px;line-height:125%;font-family:Lavi;-inkscape-font-specification:Lavi;text-align:center;letter-spacing:0px;word-spacing:0px;text-anchor:middle;fill:#000000;fill-opacity:1;stroke:none"
       x="1457.5411"
       y="206.63925"
       id="text4246-70-2-2-2-7-4-9-9-6-1-2-3-9-2-7-9-3-6"><tspan
         sodipodi:role="line"
         style="font-size:45.3333px"
         x="1457.5411"
         y="206.63925"
         id="tspan457">Pridi, popihajva jo,</tspan><tspan
         sodipodi:role="line"
         style="font-size:45.3333px"
         x="1457.5411"
         y="263.30588"
         id="tspan455">preden naju prepoznajo.</tspan></text>
    <text
       xml:space="preserve"
       style="font-style:normal;font-variant:normal;font-weight:normal;font-stretch:normal;font-size:45.3333px;line-height:125%;font-family:Lavi;-inkscape-font-specification:Lavi;text-align:center;letter-spacing:0px;word-spacing:0px;text-anchor:middle;fill:#000000;fill-opacity:1;stroke:none"
       x="1566.9281"
       y="337.27509"
       id="text4246-70-2-2-2-7-4-9-9-6-1-2-3-9-2-7-9-3-6-7"><tspan
         sodipodi:role="line"
         style="font-size:45.3333px"
         x="1566.9281"
         y="337.27509"
         id="tspan2207">Že tako imava</tspan><tspan
         sodipodi:role="line"
         style="font-size:45.3333px"
         x="1566.9281"
         y="393.94171"
         id="tspan459">večje težave …</tspan></text>
    <text
       xml:space="preserve"
       style="font-style:normal;font-variant:normal;font-weight:normal;font-stretch:normal;font-size:45.3333px;line-height:125%;font-family:Lavi;-inkscape-font-specification:Lavi;text-align:center;letter-spacing:0px;word-spacing:0px;text-anchor:middle;fill:#000000;fill-opacity:1;stroke:none"
       x="294.23251"
       y="2781.9722"
       id="text4246-70-2-2-2-7-4-9-9-6-1-2-3-9-2-7-9-3-6-7-3"><tspan
         sodipodi:role="line"
         style="font-size:45.3333px"
         x="294.23251"
         y="2781.9722"
         id="tspan469">Ta svetloba …</tspan></text>
    <text
       xml:space="preserve"
       style="font-style:normal;font-variant:normal;font-weight:normal;font-stretch:normal;font-size:45.3333px;line-height:125%;font-family:Lavi;-inkscape-font-specification:Lavi;text-align:center;letter-spacing:0px;word-spacing:0px;text-anchor:middle;fill:#000000;fill-opacity:1;stroke:none"
       x="1039.1882"
       y="3187.311"
       id="text4246-70-2-2-2-7-4-9-9-6-1-2-3-9-2-7-9-3-6-7-3-6"><tspan
         sodipodi:role="line"
         style="font-size:45.3333px"
         x="1039.1882"
         y="3187.311"
         id="tspan6398">Gotovo sva</tspan><tspan
         sodipodi:role="line"
         style="font-size:45.3333px"
         x="1039.1882"
         y="3243.9778"
         id="tspan1502">blizu gnezda.</tspan></text>
    <text
       xml:space="preserve"
       style="font-style:normal;font-variant:normal;font-weight:normal;font-stretch:normal;font-size:48.525px;line-height:125%;font-family:Lavi;-inkscape-font-specification:Lavi;text-align:center;letter-spacing:0px;word-spacing:0px;text-anchor:middle;fill:#000000;fill-opacity:1;stroke:none;stroke-width:1"
       x="1491.6982"
       y="3325.5278"
       id="text4246-70-2-2-2-7-4-9-9-6-1-2-3-9-2-7-9-3-6-7-3-6-7"><tspan
         sodipodi:role="line"
         style="font-style:normal;font-variant:normal;font-weight:bold;font-stretch:normal;font-size:48.525px;font-family:Lavi;-inkscape-font-specification:'Lavi Bold';stroke-width:1"
         x="1491.6982"
         y="3325.5278"
         id="tspan121879-0">Terna!</tspan></text>
  </g>
</svg>
