<?xml version="1.0" encoding="UTF-8" standalone="no"?>
<!-- Created with Inkscape (http://www.inkscape.org/) -->

<svg
   xmlns:dc="http://purl.org/dc/elements/1.1/"
   xmlns:cc="http://creativecommons.org/ns#"
   xmlns:rdf="http://www.w3.org/1999/02/22-rdf-syntax-ns#"
   xmlns:svg="http://www.w3.org/2000/svg"
   xmlns="http://www.w3.org/2000/svg"
   xmlns:xlink="http://www.w3.org/1999/xlink"
   xmlns:sodipodi="http://sodipodi.sourceforge.net/DTD/sodipodi-0.dtd"
   xmlns:inkscape="http://www.inkscape.org/namespaces/inkscape"
   id="svg2"
   version="1.1"
   inkscape:version="0.92.2 5c3e80d, 2017-08-06"
   width="2481"
   height="3503"
   sodipodi:docname="E24P05.svg">
  <metadata
     id="metadata8">
    <rdf:RDF>
      <cc:Work
         rdf:about="">
        <dc:format>image/svg+xml</dc:format>
        <dc:type
           rdf:resource="http://purl.org/dc/dcmitype/StillImage" />
        <dc:title />
      </cc:Work>
    </rdf:RDF>
  </metadata>
  <defs
     id="defs6">
    <filter
       style="color-interpolation-filters:sRGB"
       id="filter4375-4-1-1-1-9-5-8-0-9"
       inkscape:label="Drop Shadow">
      <feFlood
         id="feFlood4377-7-9-0-8-1-7-3-9-2"
         flood-opacity="1"
         flood-color="rgb(200,55,55)"
         result="flood" />
      <feComposite
         id="feComposite4379-3-8-8-2-77-4-1-3-2"
         in2="SourceGraphic"
         in="flood"
         operator="in"
         result="composite1" />
      <feMorphology
         id="feMorphology4393-1-0-49-8-9-3-0-6-8"
         operator="dilate"
         radius="6.2000000000000002"
         result="result3" />
      <feComposite
         id="feComposite4385-9-5-7-0-8-8-7-0-9"
         in2="result3"
         in="SourceGraphic"
         operator="over"
         result="fbSourceGraphic" />
      <feColorMatrix
         result="fbSourceGraphicAlpha"
         in="fbSourceGraphic"
         values="0 0 0 -1 0 0 0 0 -1 0 0 0 0 -1 0 0 0 0 1 0"
         id="feColorMatrix4544-6-7" />
      <feTurbulence
         id="feTurbulence4546-2-3"
         type="fractalNoise"
         numOctaves="3"
         seed="37"
         baseFrequency="0.129 0.0050000000000000001"
         result="turbulence" />
      <feDisplacementMap
         id="feDisplacementMap4548-6-6"
         in2="turbulence"
         in="fbSourceGraphic"
         scale="6.6"
         yChannelSelector="G"
         xChannelSelector="R"
         result="fbSourceGraphic" />
      <feColorMatrix
         result="fbSourceGraphicAlpha"
         in="fbSourceGraphic"
         values="0 0 0 -1 0 0 0 0 -1 0 0 0 0 -1 0 0 0 0 1 0"
         id="feColorMatrix4670-1-1" />
      <feFlood
         id="feFlood4672-8-2"
         flood-opacity="1"
         flood-color="rgb(80,22,22)"
         result="flood"
         in="fbSourceGraphic" />
      <feComposite
         id="feComposite4674-7-9"
         in2="fbSourceGraphic"
         in="flood"
         operator="in"
         result="composite1" />
      <feGaussianBlur
         id="feGaussianBlur4676-9-3"
         in="composite1"
         stdDeviation="0"
         result="blur" />
      <feOffset
         id="feOffset4678-2-1"
         dx="6"
         dy="6"
         result="offset" />
      <feComposite
         id="feComposite4680-0-9"
         in2="offset"
         in="fbSourceGraphic"
         operator="over"
         result="composite2" />
    </filter>
    <filter
       style="color-interpolation-filters:sRGB"
       id="filter4375-4-1-1-1-9-5-8"
       inkscape:label="Drop Shadow">
      <feFlood
         id="feFlood4377-7-9-0-8-1-7-3"
         flood-opacity="1"
         flood-color="rgb(200,55,55)"
         result="flood" />
      <feComposite
         id="feComposite4379-3-8-8-2-77-4-1"
         in2="SourceGraphic"
         in="flood"
         operator="in"
         result="composite1" />
      <feMorphology
         id="feMorphology4393-1-0-49-8-9-3-0"
         operator="dilate"
         radius="6.2000000000000002"
         result="result3" />
      <feComposite
         id="feComposite4385-9-5-7-0-8-8-7"
         in2="result3"
         in="SourceGraphic"
         operator="over"
         result="fbSourceGraphic" />
      <feColorMatrix
         result="fbSourceGraphicAlpha"
         in="fbSourceGraphic"
         values="0 0 0 -1 0 0 0 0 -1 0 0 0 0 -1 0 0 0 0 1 0"
         id="feColorMatrix4544" />
      <feTurbulence
         id="feTurbulence4546"
         type="fractalNoise"
         numOctaves="3"
         seed="37"
         baseFrequency="0.129 0.0050000000000000001"
         result="turbulence" />
      <feDisplacementMap
         id="feDisplacementMap4548"
         in2="turbulence"
         in="fbSourceGraphic"
         scale="6.6"
         yChannelSelector="G"
         xChannelSelector="R"
         result="fbSourceGraphic" />
      <feColorMatrix
         result="fbSourceGraphicAlpha"
         in="fbSourceGraphic"
         values="0 0 0 -1 0 0 0 0 -1 0 0 0 0 -1 0 0 0 0 1 0"
         id="feColorMatrix4670" />
      <feFlood
         id="feFlood4672"
         flood-opacity="1"
         flood-color="rgb(80,22,22)"
         result="flood"
         in="fbSourceGraphic" />
      <feComposite
         id="feComposite4674"
         in2="fbSourceGraphic"
         in="flood"
         operator="in"
         result="composite1" />
      <feGaussianBlur
         id="feGaussianBlur4676"
         in="composite1"
         stdDeviation="0"
         result="blur" />
      <feOffset
         id="feOffset4678"
         dx="6"
         dy="6"
         result="offset" />
      <feComposite
         id="feComposite4680"
         in2="offset"
         in="fbSourceGraphic"
         operator="over"
         result="composite2" />
    </filter>
    <filter
       inkscape:collect="always"
       style="color-interpolation-filters:sRGB"
       id="filter4210"
       x="-0.0015578248"
       width="1.0031157"
       y="-0.0045528179"
       height="1.0091056">
      <feGaussianBlur
         inkscape:collect="always"
         stdDeviation="0.2079876"
         id="feGaussianBlur4212" />
    </filter>
  </defs>
  <sodipodi:namedview
     pagecolor="#ffffff"
     bordercolor="#666666"
     borderopacity="1"
     objecttolerance="10"
     gridtolerance="10"
     guidetolerance="10"
     inkscape:pageopacity="0"
     inkscape:pageshadow="2"
     inkscape:window-width="1280"
     inkscape:window-height="971"
     id="namedview4"
     showgrid="false"
     inkscape:zoom="0.45014485"
     inkscape:cx="1230.3572"
     inkscape:cy="2878.7652"
     inkscape:window-x="0"
     inkscape:window-y="0"
     inkscape:window-maximized="1"
     inkscape:current-layer="layer1"
     inkscape:snap-global="false" />
  <g
     inkscape:groupmode="layer"
     id="layer2"
     inkscape:label="artwork"
     sodipodi:insensitive="true">
    <image
       sodipodi:absref="/run/media/zveryok/Media/Work/Not Done/Translation/ep24/uk/../gfx_Pepper-and-Carrot_by-David-Revoy_E24P05.png"
       xlink:href="../gfx_Pepper-and-Carrot_by-David-Revoy_E24P05.png"
       y="0"
       x="0"
       id="image10"
       height="3503"
       width="2481" />
  </g>
  <g
     inkscape:groupmode="layer"
     id="layer3"
     inkscape:label="speechbubbles"
     style="display:inline">
    <path
       style="color:#000000;display:inline;overflow:visible;visibility:visible;fill:#ffffff;fill-opacity:1;fill-rule:nonzero;stroke:none;stroke-width:1.07885909px;marker:none;enable-background:accumulate"
       d="m 978.24337,203.32288 c 11.21302,-59.75433 105.26323,-101.42305 341.99973,-84.4803 126.8087,9.07539 270.9832,16.48394 256.0325,104.05507 -14.9509,87.57103 -222.3932,80.35935 -265.3767,81.38959 -42.9837,1.03035 -265.6019,-13.50397 -302.7538,-44.30074 -23.25626,-19.27795 -31.77056,-38.11909 -29.90173,-56.66362 z"
       id="path4546-6"
       inkscape:connector-curvature="0"
       sodipodi:nodetypes="cssssc" />
    <path
       style="color:#000000;display:inline;overflow:visible;visibility:visible;fill:#ffffff;fill-opacity:1;fill-rule:nonzero;stroke:none;stroke-width:1.42500544px;marker:none;enable-background:accumulate"
       d="M 954.54708,416.01704 C 962.0472,328.92525 1056.4385,263.75996 1302.38,276.11971 c 131.7394,6.62046 281.3203,9.93482 271.8613,137.49337 -9.4593,127.55842 -224.4446,127.78176 -268.818,131.48321 -44.3739,3.70164 -275.5523,-5.8969 -316.07653,-48.57602 -25.36713,-26.71599 -35.46152,-53.55742 -34.79969,-80.50323 z"
       id="path4546-6-5"
       inkscape:connector-curvature="0"
       sodipodi:nodetypes="cssssc" />
    <path
       style="fill:#ffffff;stroke:none;stroke-width:1"
       d="m 116.68871,2316.7158 c -0.80271,-18.6867 25.10278,-70.3849 136.13432,-64.4369 111.03155,5.948 145.29554,27.2341 147.72023,60.4716 3.83579,52.5808 -54.97587,65.3212 -139.01641,67.3683 -86.6367,2.1104 -140.10007,-16.1383 -144.83814,-63.403 z"
       id="path3280"
       inkscape:connector-curvature="0"
       sodipodi:nodetypes="csssc" />
    <path
       style="fill:#ffffff;stroke:none;stroke-width:1.06014824"
       d="m 84.090738,2583.9045 c -1.283811,-70.5727 40.148102,-265.8176 217.726252,-243.3542 177.57816,22.4634 233.81712,102.818 236.25615,228.3788 3.81295,196.2904 4.94732,281.0084 -282.7031,272.7261 -138.73899,-3.9947 -163.701476,-79.2495 -171.279302,-257.7507 z"
       id="path3280-5"
       inkscape:connector-curvature="0"
       sodipodi:nodetypes="csssc" />
    <path
       style="fill:#ffffff;stroke:none;stroke-width:0.84754771"
       d="m 98.15507,2945.281 c -0.97664,-28.1156 30.54171,-105.8994 165.63005,-96.9502 135.08835,8.9492 177.8708,40.9618 179.72622,90.984 2.90062,78.2005 3.76357,111.9514 -215.05963,108.6517 -105.54237,-1.5914 -124.53199,-31.5722 -130.29664,-102.6855 z"
       id="path3280-5-9"
       inkscape:connector-curvature="0"
       sodipodi:nodetypes="csssc" />
    <path
       style="color:#000000;display:inline;overflow:visible;visibility:visible;fill:#ffffff;fill-opacity:1;fill-rule:nonzero;stroke:none;stroke-width:1px;marker:none;enable-background:accumulate"
       d="m 524.48623,2896.2335 c -14.75738,52.3452 -33.97784,59.8163 -47.29721,66.911 -2.99609,-4.2927 -9.494,-10.7643 -9.494,-10.7643 0,0 -25.03044,16.8093 -36.39159,19.4555 -11.36113,2.6461 -15.10988,-13.4489 -15.10988,-13.4489 0,0 47.94685,-34.1242 56.37661,-45.0707 7.82099,12.1521 12.93111,16.9506 14.25419,22.6311 8.74137,-1.0378 31.94301,-21.4136 37.66188,-39.7137 z"
       id="path4456"
       inkscape:connector-curvature="0" />
    <path
       style="fill:#ffffff;stroke:none;stroke-width:1"
       d="m 1437.3638,2410.8677 c -1.7687,-28.1089 29.945,-98.4765 184.6433,-93.1836 154.6984,5.2928 203.1165,36.2115 207.6499,86.175 7.1714,79.0407 -74.2152,100.1631 -191.0791,106.0176 -120.4739,6.0354 -203.0838,-48.2208 -201.2141,-99.009 z"
       id="path3280-8"
       inkscape:connector-curvature="0"
       sodipodi:nodetypes="csssc" />
    <path
       style="fill:#ffffff;stroke:none;stroke-width:1.09026062"
       d="m 1360.5854,2598.4673 c -3.943,-37.2367 52.3996,-131.7928 335.9503,-130.4978 283.5506,1.2946 373.0289,40.5322 382.583,106.6685 15.1144,104.6258 -133.4637,135.6704 -347.4203,147.7677 -220.5658,12.4709 -373.2691,-56.4704 -371.113,-123.9384 z"
       id="path3280-8-2"
       inkscape:connector-curvature="0"
       sodipodi:nodetypes="csssc" />
    <path
       style="color:#000000;display:inline;overflow:visible;visibility:visible;fill:#ffffff;fill-opacity:1;fill-rule:nonzero;stroke:none;stroke-width:1px;marker:none;enable-background:accumulate"
       d="m 1737.0918,2693.1341 c 14.3116,13.119 20.5898,27.3224 21.7824,31.4966 1.1926,4.1742 -2.1039,30.5204 2.0703,35.291 4.1742,4.7705 19.6785,5.3668 21.4675,8.9448 1.7889,3.5779 -3.5779,22.0637 0,25.6416 3.5779,3.5779 28.6232,13.119 29.8159,16.1006 1.1926,2.9816 7.7521,19.0822 19.6784,31.6048 -11.33,-31.6048 -7.7521,-38.1643 -11.9263,-42.9348 -4.1742,-4.7706 -15.9274,-10.1807 -18.3127,-15.5476 -2.3853,-5.3668 6.711,-25.7283 0.086,-28.0269 -4.7705,-4.7705 -19.8083,-10.2673 -19.8083,-10.2673 4.1743,-4.7706 18.356,-27.8538 -1.3225,-55.8807 -19.6785,-28.027 -43.5312,3.5779 -43.5312,3.5779 z"
       id="path5050"
       inkscape:connector-curvature="0"
       sodipodi:nodetypes="csccscccccccc" />
    <path
       style="color:#000000;display:inline;overflow:visible;visibility:visible;fill:#ffffff;fill-opacity:1;fill-rule:nonzero;stroke:none;stroke-width:0.82118261px;marker:none;enable-background:accumulate"
       d="m 1432.4093,3155.7541 c -6.9791,-25.9922 11.6319,-95.034 154.704,-89.3482 143.0721,5.6857 166.336,38.176 169.8255,47.9231 3.4895,9.7471 33.7326,64.9805 -77.9336,79.6011 -111.6662,14.6207 -211.7001,-0.8123 -246.5959,-38.176 z"
       id="path3525"
       inkscape:connector-curvature="0" />
    <path
       style="color:#000000;display:inline;overflow:visible;visibility:visible;fill:#ffffff;fill-opacity:1;fill-rule:nonzero;stroke:none;stroke-width:1px;marker:none;enable-background:accumulate"
       d="m 1518.4603,3003.92 c 24.221,32.6718 31.0089,45.6583 8.1243,87.1458 -22.8847,41.4875 -7.3195,49.5776 -7.3195,49.5776 l 28.2503,-15.3766 c 0,0 42.659,-91.8473 -29.0551,-121.3468 z"
       id="path3072"
       inkscape:connector-curvature="0" />
    <path
       style="color:#000000;display:inline;overflow:visible;visibility:visible;fill:#ffffff;fill-opacity:1;fill-rule:nonzero;stroke:none;stroke-width:1.55422187px;marker:none;enable-background:accumulate"
       d="m 1753.7459,367.92318 c 12.248,-90.97059 112.9937,-170.79665 371.5855,-145.00286 138.5158,13.81646 307.9224,36.02145 291.5916,169.34062 -16.3312,133.319 -252.8595,113.23475 -299.8111,114.80319 -46.9522,1.56864 -290.1221,-5.99037 -330.7039,-52.87568 -25.403,-29.34896 -34.7034,-58.03288 -32.6621,-86.26527 z"
       id="path4546-6-5-3"
       inkscape:connector-curvature="0"
       sodipodi:nodetypes="cssssc" />
    <path
       style="display:inline;fill:#ffffff;stroke:none;stroke-width:0.99999994"
       d="m 1920.8273,663.55898 c 51.4934,-25.05742 101.3335,-84.50569 87.939,-140.05224 -8.1157,-33.6558 -17.2505,-51.47851 -17.2505,-51.47851 l 37.7708,-2.39424 11.5884,36.59761 c 0,0 3.2849,108.24957 -120.0477,157.32738 z"
       id="path3063-1-6"
       inkscape:connector-curvature="0"
       sodipodi:nodetypes="cscccc" />
    <path
       style="display:inline;fill:#ffffff;stroke:none;stroke-width:0.99999994"
       d="m 1251.2541,685.09232 c -48.6175,-23.27518 -83.2149,-109.49172 -49.7683,-157.70546 19.7334,-28.44595 29.6777,-45.4626 29.6777,-45.4626 l -35.9455,-11.84422 c -83.024,107.75331 -0.6527,193.21215 56.0361,215.01228 z"
       id="path3063-1"
       inkscape:connector-curvature="0"
       sodipodi:nodetypes="csccc" />
  </g>
  <g
     inkscape:groupmode="layer"
     id="layer1"
     inkscape:label="txt"
     style="display:inline">
    <text
       xml:space="preserve"
       style="font-style:normal;font-variant:normal;font-weight:normal;font-stretch:normal;line-height:0%;font-family:Lavi;-inkscape-font-specification:Lavi;letter-spacing:0px;word-spacing:0px;fill:#ffffff;fill-opacity:1;stroke:#c83737;stroke-width:0.99236238;stroke-miterlimit:4;stroke-dasharray:none;stroke-opacity:1;filter:url(#filter4375-4-1-1-1-9-5-8-0-9)"
       x="787.65729"
       y="1584.5073"
       id="text4580-6-0-2-4"
       transform="matrix(0.83434398,-0.14790328,-0.40858731,0.88612324,531.23181,-1091.7696)"><tspan
         sodipodi:role="line"
         id="tspan4582-1-1-3-7"
         x="787.65729"
         y="1584.5073"
         style="font-size:70px;line-height:1.25;fill:#ffffff;fill-opacity:1;stroke:#c83737;stroke-opacity:1"><tspan
           style="font-size:93.14950562px;fill:#ffffff;fill-opacity:1;stroke:#c83737;stroke-opacity:1"
           id="tspan4315-8-7-8">ПЛУуум!</tspan><tspan
           style="font-size:114.73223114px;fill:#ffffff;fill-opacity:1;stroke:#c83737;stroke-opacity:1"
           id="tspan4313-2-5-4">!</tspan></tspan></text>
    <text
       xml:space="preserve"
       style="font-style:normal;font-variant:normal;font-weight:normal;font-stretch:normal;font-size:11.56032276px;line-height:0%;font-family:Lavi;-inkscape-font-specification:Lavi;text-align:center;letter-spacing:0px;word-spacing:0px;text-anchor:middle;fill:#000000;fill-opacity:1;stroke:none;stroke-width:0.96336019"
       x="1313.4875"
       y="331.09271"
       id="text4246"
       transform="scale(0.96336022,1.0380333)"><tspan
         sodipodi:role="line"
         style="font-size:42.3878479px;line-height:1.25;stroke-width:0.96336019"
         x="1313.4875"
         y="331.09271"
         id="tspan91">Не думаю, що</tspan><tspan
         sodipodi:role="line"
         style="font-size:42.3878479px;line-height:1.25;stroke-width:0.96336019"
         x="1320.2349"
         y="384.07751"
         id="tspan115">буде небезпечно </tspan><tspan
         sodipodi:role="line"
         style="font-size:42.3878479px;line-height:1.25;stroke-width:0.96336019"
         x="1313.4875"
         y="437.06232"
         id="tspan131">перенести ії зі згорнутого</tspan><tspan
         sodipodi:role="line"
         style="font-size:42.3878479px;line-height:1.25;stroke-width:0.96336019"
         x="1313.4875"
         y="491.35629"
         id="tspan117">простору.</tspan></text>
    <text
       xml:space="preserve"
       style="font-style:normal;font-variant:normal;font-weight:normal;font-stretch:normal;line-height:0%;font-family:Lavi;-inkscape-font-specification:Lavi;text-align:center;letter-spacing:0px;word-spacing:0px;text-anchor:middle;fill:#000000;fill-opacity:1;stroke:none"
       x="1285.8059"
       y="188.79892"
       id="text4246-7"><tspan
         sodipodi:role="line"
         style="font-size:44px;line-height:1.25"
         x="1285.8059"
         y="188.79892"
         id="tspan881-3">Так! Розмір збільшено.</tspan><tspan
         sodipodi:role="line"
         style="font-size:44px;line-height:1.25"
         x="1285.8059"
         y="245.15785"
         id="tspan906">Тепер вона ідеальна!</tspan></text>
    <text
       xml:space="preserve"
       style="font-style:normal;font-variant:normal;font-weight:normal;font-stretch:normal;line-height:0%;font-family:Lavi;-inkscape-font-specification:Lavi;text-align:center;letter-spacing:0px;word-spacing:0px;text-anchor:middle;fill:#000000;fill-opacity:1;stroke:none"
       x="263.42697"
       y="2326.1411"
       id="text4246-7-6"><tspan
         sodipodi:role="line"
         style="font-size:44px;line-height:1.25"
         x="263.42697"
         y="2326.1411"
         id="tspan906-9">Відмінно,</tspan></text>
    <text
       xml:space="preserve"
       style="font-style:normal;font-variant:normal;font-weight:normal;font-stretch:normal;line-height:0%;font-family:Lavi;-inkscape-font-specification:Lavi;text-align:center;letter-spacing:0px;word-spacing:0px;text-anchor:middle;fill:#000000;fill-opacity:1;stroke:none"
       x="306.66428"
       y="2406.4778"
       id="text4246-7-6-1"><tspan
         sodipodi:role="line"
         style="font-size:44px;line-height:1.25"
         x="306.66428"
         y="2406.4778"
         id="tspan980">час</tspan><tspan
         sodipodi:role="line"
         style="font-size:44px;line-height:1.25"
         x="306.66428"
         y="2462.7278"
         id="tspan155">розгорнути</tspan><tspan
         sodipodi:role="line"
         style="font-size:44px;line-height:1.25"
         x="306.66428"
         y="2518.9778"
         id="tspan153">цей простір</tspan><tspan
         sodipodi:role="line"
         style="font-size:44px;line-height:1.25"
         x="306.66428"
         y="2575.2278"
         id="tspan174">в навколишній</tspan><tspan
         sodipodi:role="line"
         style="font-size:44px;line-height:1.25"
         x="306.66428"
         y="2632.8677"
         id="tspan195">світ та показати їм,</tspan><tspan
         sodipodi:role="line"
         style="font-size:44px;line-height:1.25"
         x="306.66428"
         y="2652.791"
         id="tspan182" /><tspan
         sodipodi:role="line"
         style="font-size:44px;line-height:1.25"
         x="306.66428"
         y="2689.1177"
         id="tspan1198">які творіння</tspan><tspan
         sodipodi:role="line"
         style="font-size:44px;line-height:1.25"
         x="306.66428"
         y="2745.3677"
         id="tspan197">може створити</tspan><tspan
         sodipodi:role="line"
         style="font-size:44px;line-height:1.25"
         x="306.66428"
         y="2803.0073"
         id="tspan199">магія Хаосу!</tspan></text>
    <text
       xml:space="preserve"
       style="font-style:normal;font-variant:normal;font-weight:normal;font-stretch:normal;line-height:0%;font-family:Lavi;-inkscape-font-specification:Lavi;letter-spacing:0px;word-spacing:0px;fill:#ffffff;fill-opacity:1;stroke:#c83737;stroke-width:0.99236238;stroke-miterlimit:4;stroke-dasharray:none;stroke-opacity:1;filter:url(#filter4375-4-1-1-1-9-5-8)"
       x="787.65729"
       y="1584.5073"
       id="text4580-6-0"
       transform="matrix(0.84200562,-0.09503576,-0.46361166,0.85861645,1426.8384,990.64508)"><tspan
         sodipodi:role="line"
         id="tspan4582-1-1"
         x="787.65729"
         y="1584.5073"
         style="font-size:70px;line-height:1.25;fill:#ffffff;fill-opacity:1;stroke:#c83737;stroke-opacity:1"><tspan
           style="font-size:93.14950562px;fill:#ffffff;fill-opacity:1;stroke:#c83737;stroke-opacity:1"
           id="tspan4315-8">Шпок!</tspan><tspan
           style="font-size:114.73223114px;fill:#ffffff;fill-opacity:1;stroke:#c83737;stroke-opacity:1"
           id="tspan4313-2">!</tspan></tspan></text>
    <text
       xml:space="preserve"
       style="font-style:normal;font-variant:normal;font-weight:normal;font-stretch:normal;line-height:0%;font-family:Lavi;-inkscape-font-specification:Lavi;text-align:center;letter-spacing:0px;word-spacing:0px;text-anchor:middle;fill:#000000;fill-opacity:1;stroke:none"
       x="1637.5579"
       y="2402.8755"
       id="text4246-7-6-1-7"><tspan
         sodipodi:role="line"
         style="font-size:44px;line-height:1.25"
         x="1637.5579"
         y="2402.8755"
         id="tspan217">Ммм, Перчинка</tspan><tspan
         sodipodi:role="line"
         style="font-size:44px;line-height:1.25"
         x="1637.5579"
         y="2460.5154"
         id="tspan219">повернулась.</tspan></text>
    <text
       xml:space="preserve"
       style="font-style:normal;font-variant:normal;font-weight:normal;font-stretch:normal;line-height:0%;font-family:Lavi;-inkscape-font-specification:Lavi;text-align:center;letter-spacing:0px;word-spacing:0px;text-anchor:middle;fill:#000000;fill-opacity:1;stroke:none"
       x="1729.2721"
       y="2536.6619"
       id="text4246-7-6-1-7-6"><tspan
         sodipodi:role="line"
         style="font-size:44px;line-height:1.25"
         x="1729.2721"
         y="2536.6619"
         id="tspan1111">Браво, Кайена. Твої</tspan><tspan
         sodipodi:role="line"
         style="font-size:44px;line-height:1.25"
         x="1729.2721"
         y="2594.3018"
         id="tspan230">методи навчання, нарешті,</tspan><tspan
         sodipodi:role="line"
         style="font-size:44px;line-height:1.25"
         x="1729.2721"
         y="2651.9414"
         id="tspan238">почали давати результати.</tspan></text>
    <text
       xml:space="preserve"
       style="font-style:normal;font-variant:normal;font-weight:normal;font-stretch:normal;line-height:0%;font-family:Lavi;-inkscape-font-specification:Lavi;text-align:center;letter-spacing:0px;word-spacing:0px;text-anchor:middle;fill:#000000;fill-opacity:1;stroke:none"
       x="1600.9818"
       y="3149.696"
       id="text4246-7-6-1-7-1"><tspan
         sodipodi:role="line"
         style="font-size:45px;line-height:1.25;fill:#000000"
         x="1600.9818"
         y="3149.696"
         id="tspan246">Дякую, пані.</tspan><tspan
         sodipodi:role="line"
         style="font-size:45px;line-height:1.25;fill:#000000"
         x="1600.9818"
         y="3169.6194"
         id="tspan1136" /></text>
    <text
       xml:space="preserve"
       style="font-style:normal;font-variant:normal;font-weight:normal;font-stretch:normal;line-height:0%;font-family:Lavi;-inkscape-font-specification:Lavi;text-align:center;letter-spacing:0px;word-spacing:0px;text-anchor:middle;fill:#000000;fill-opacity:1;stroke:none"
       x="269.43497"
       y="2938.2312"
       id="text4246-7-6-1-9"><tspan
         sodipodi:role="line"
         style="font-size:44px;line-height:1.25"
         x="276.43887"
         y="2938.2312"
         id="tspan208">Уявляю собі </tspan><tspan
         sodipodi:role="line"
         style="font-size:44px;line-height:1.25"
         x="269.43497"
         y="2994.5901"
         id="tspan1657">іхні обличчя!</tspan></text>
    <text
       xml:space="preserve"
       style="font-style:normal;font-variant:normal;font-weight:normal;font-stretch:normal;line-height:0%;font-family:Lavi;-inkscape-font-specification:Lavi;text-align:center;letter-spacing:0px;word-spacing:0px;text-anchor:middle;display:inline;opacity:0.35800003;fill:#000000;fill-opacity:1;stroke:none;stroke-width:1.38229895;filter:url(#filter4210)"
       x="1174.0292"
       y="1085.962"
       id="text4246-5"
       transform="matrix(0.63179135,-0.09563029,0.03930404,0.666392,431.41606,2450.8071)"><tspan
         sodipodi:role="line"
         style="font-style:normal;font-variant:normal;font-weight:normal;font-stretch:normal;font-size:45.00812149px;line-height:1.25;font-family:Fondamento;-inkscape-font-specification:Fondamento;stroke:#000000;stroke-width:4.69086981;stroke-miterlimit:4;stroke-dasharray:none;stroke-opacity:1"
         x="1174.0292"
         y="1085.962"
         id="tspan4209">КОМОНОВОСТИ</tspan></text>
    <text
       xml:space="preserve"
       style="font-style:normal;font-variant:normal;font-weight:normal;font-stretch:normal;line-height:0%;font-family:Lavi;-inkscape-font-specification:Lavi;text-align:center;letter-spacing:0px;word-spacing:0px;text-anchor:middle;fill:#000000;fill-opacity:1;stroke:none"
       x="2087.0579"
       y="288.21762"
       id="text4246-75"><tspan
         sodipodi:role="line"
         style="font-size:44px;line-height:1.25"
         x="2087.0579"
         y="288.21762"
         id="tspan164">Це ж просто</tspan><tspan
         sodipodi:role="line"
         style="font-size:44px;line-height:1.25"
         x="2087.0579"
         y="344.57654"
         id="tspan158">Дерево Єднання. Та до</tspan><tspan
         sodipodi:role="line"
         style="font-size:44px;line-height:1.25"
         x="2087.0579"
         y="400.93549"
         id="tspan151">&quot;Заклинання Руйнування&quot;</tspan><tspan
         sodipodi:role="line"
         style="font-size:44px;line-height:1.25"
         x="2087.0579"
         y="457.2944"
         id="tspan147">воно не відноситься.</tspan></text>
  </g>
</svg>
