<?xml version="1.0" encoding="UTF-8" standalone="no"?>
<svg
   sodipodi:docname="E35P01.svg"
   height="3503"
   width="2481"
   inkscape:version="1.2.1 (9c6d41e410, 2022-07-14)"
   version="1.1"
   id="svg2"
   xmlns:inkscape="http://www.inkscape.org/namespaces/inkscape"
   xmlns:sodipodi="http://sodipodi.sourceforge.net/DTD/sodipodi-0.dtd"
   xmlns:xlink="http://www.w3.org/1999/xlink"
   xmlns="http://www.w3.org/2000/svg"
   xmlns:svg="http://www.w3.org/2000/svg"
   xmlns:rdf="http://www.w3.org/1999/02/22-rdf-syntax-ns#"
   xmlns:cc="http://creativecommons.org/ns#"
   xmlns:dc="http://purl.org/dc/elements/1.1/">
  <metadata
     id="metadata8">
    <rdf:RDF>
      <cc:Work
         rdf:about="">
        <dc:format>image/svg+xml</dc:format>
        <dc:type
           rdf:resource="http://purl.org/dc/dcmitype/StillImage" />
        <dc:title />
      </cc:Work>
    </rdf:RDF>
  </metadata>
  <defs
     id="defs6" />
  <sodipodi:namedview
     inkscape:pagecheckerboard="0"
     inkscape:document-rotation="0"
     inkscape:current-layer="layer1"
     inkscape:window-maximized="1"
     inkscape:window-y="36"
     inkscape:window-x="1283"
     inkscape:cy="2655.9886"
     inkscape:cx="1231.423"
     inkscape:zoom="0.44785584"
     showgrid="false"
     id="namedview4"
     inkscape:window-height="1388"
     inkscape:window-width="1261"
     inkscape:pageshadow="2"
     inkscape:pageopacity="0"
     guidetolerance="10"
     gridtolerance="10"
     objecttolerance="10"
     borderopacity="1"
     bordercolor="#666666"
     pagecolor="#ffffff"
     inkscape:showpageshadow="2"
     inkscape:deskcolor="#d1d1d1" />
  <g
     sodipodi:insensitive="true"
     inkscape:label="artwork"
     id="layer2"
     inkscape:groupmode="layer">
    <image
       xlink:href="../gfx_Pepper-and-Carrot_by-David-Revoy_E35P01.png"
       y="0"
       x="0"
       id="image10"
       height="3503"
       width="2481" />
  </g>
  <g
     inkscape:label="speechbubbles"
     id="layer3"
     inkscape:groupmode="layer">
    <path
       sodipodi:nodetypes="cccscsc"
       inkscape:connector-curvature="0"
       id="path3970-3"
       d="m 897.55941,2690.8716 c -61.34839,0.5082 -152.41391,-8.9399 -173.35935,-42.1866 -20.94535,-33.2467 -22.91981,-88.0062 10.45228,-110.9286 33.372,-22.9224 93.72937,-34.8201 147.05571,-33.7844 53.32625,1.0364 124.67945,17.56 144.38375,48.7678 19.7043,31.2071 11.992,102.7842 -54.38386,123.3102 -66.3761,20.526 -74.14853,14.8216 -74.14853,14.8216 z"
       style="color:#000000;display:inline;overflow:visible;visibility:visible;fill:#ffffff;fill-opacity:1;fill-rule:nonzero;stroke:none;stroke-width:0.702616px;marker:none;enable-background:accumulate" />
    <path
       sodipodi:nodetypes="cccscsc"
       inkscape:connector-curvature="0"
       id="path3970-3-3"
       d="m 961.15258,2840.9604 c -77.15663,0.5797 -191.68785,-10.199 -218.0305,-48.1279 -26.34253,-37.9288 -28.82578,-100.4002 13.14562,-126.5507 41.97127,-26.1508 117.88149,-39.724 184.94889,-38.5425 67.06741,1.1823 156.80681,20.0331 181.58861,55.6359 24.7816,35.6021 15.0821,117.2594 -68.3976,140.6762 -83.47983,23.4167 -93.25502,16.909 -93.25502,16.909 z"
       style="color:#000000;display:inline;overflow:visible;visibility:visible;fill:#ffffff;fill-opacity:1;fill-rule:nonzero;stroke:none;stroke-width:0.841615px;marker:none;enable-background:accumulate" />
    <path
       sodipodi:nodetypes="cscscsccc"
       inkscape:connector-curvature="0"
       id="path1085"
       d="m 1082.5035,2791.6336 c 16.785,-19.6056 38.6627,-36.0206 49.0019,-34.6196 10.3392,1.401 38.8276,20.2647 44.0486,-5.9091 5.221,-26.1736 -0.464,-38.1966 10.459,-36.0914 10.9231,2.1053 27.5797,11.864 30.0863,25.9568 -8.4109,-33.022 -32.6982,-39.4387 -40.8556,-33.0423 -8.1574,6.3964 -12.4748,9.1065 -15.8247,34.4602 -6.2288,19.6797 -15.2021,-31.4488 -75.7503,-2.4836 -29.6051,28.4958 -1.1652,51.729 -1.1652,51.729 z"
       style="fill:#ffffff;fill-rule:evenodd;stroke:none;stroke-width:1.06225px;stroke-linecap:butt;stroke-linejoin:miter;stroke-opacity:1" />
    <path
       sodipodi:nodetypes="cssssc"
       inkscape:connector-curvature="0"
       id="path4546-1"
       d="m 1633.2031,2579.3745 c -4.4274,-85.7111 -19.0988,-94.4775 148.1194,-99.0941 90.3624,-2.4948 244.6841,3.4642 234.1375,129.0748 -10.5468,125.6094 -156.8828,115.265 -187.2045,116.7429 -30.322,1.478 -206.5272,-11.9281 -191.8579,-56.1019 9.1827,-27.6519 -2.4566,-64.0224 -3.1945,-90.6217 z"
       style="color:#000000;display:inline;overflow:visible;visibility:visible;fill:#ffffff;fill-opacity:1;fill-rule:nonzero;stroke:none;stroke-width:1.05555px;marker:none;enable-background:accumulate" />
    <path
       sodipodi:nodetypes="cssssc"
       inkscape:connector-curvature="0"
       id="path3280-81"
       d="m 1900.6372,3306.7841 c -3.1967,-104.602 34.4697,-183.4639 220.3963,-175.6736 185.9266,7.7904 280.2595,-2.5287 282.9398,141.4399 0.9573,51.4187 11.7025,112.4549 -16.9742,134.7929 -47.2458,36.8027 -154.4796,15.8228 -241.624,22.6773 -144.3643,11.3552 -235.3045,-27.0051 -244.7379,-123.2365 z"
       style="fill:#ffffff;stroke:none;stroke-width:1.75731" />
    <path
       sodipodi:nodetypes="ccsc"
       inkscape:connector-curvature="0"
       id="path5010-4"
       d="m 1845.2728,2690.1037 c -17.7418,51.5577 -0.5352,96.2189 44.4232,120.3111 -75.8904,-27.089 -92.8027,-105.8188 -83.4584,-127.2019 9.1494,-20.9367 39.0352,6.8908 39.0352,6.8908 z"
       style="color:#000000;display:inline;overflow:visible;visibility:visible;fill:#ffffff;fill-opacity:1;fill-rule:nonzero;stroke:none;stroke-width:1.06477px;marker:none;enable-background:accumulate" />
    <path
       inkscape:connector-curvature="0"
       id="path3072-56"
       d="m 2181.6979,3039.5111 c 15.5881,37.565 19.0292,51.8083 -13.2212,86.5196 -32.2502,34.7102 -19.1075,46.3288 -19.1075,46.3288 l 31.133,-8.0771 c 0,0 63.6316,-78.7837 1.1957,-124.7713 z"
       style="color:#000000;display:inline;overflow:visible;visibility:visible;fill:#ffffff;fill-opacity:1;fill-rule:nonzero;stroke:none;stroke-width:1px;marker:none;enable-background:accumulate" />
  </g>
  <g
     inkscape:label="txt"
     id="layer1"
     inkscape:groupmode="layer">
    <text
       id="text4246-3-2-2"
       y="2581.1858"
       x="868.48053"
       style="font-style:normal;font-variant:normal;font-weight:normal;font-stretch:normal;font-size:45px;line-height:1.25;font-family:Lavi;-inkscape-font-specification:Lavi;text-align:center;letter-spacing:0px;word-spacing:0px;text-anchor:middle;fill:#000000;fill-opacity:1;stroke:none"
       xml:space="preserve"><tspan
         id="tspan858"
         y="2581.1858"
         x="868.48053"
         sodipodi:role="line"
         style="font-size:45px">Ah, je bent</tspan><tspan
         y="2637.4358"
         x="868.48053"
         sodipodi:role="line"
         style="font-size:45px"
         id="tspan294">weer wakker!</tspan></text>
    <text
       id="text4246-3-2-2-3"
       y="2702.9275"
       x="928.00732"
       style="font-style:normal;font-variant:normal;font-weight:normal;font-stretch:normal;font-size:45px;line-height:1.25;font-family:Lavi;-inkscape-font-specification:Lavi;text-align:center;letter-spacing:0px;word-spacing:0px;text-anchor:middle;fill:#000000;fill-opacity:1;stroke:none"
       xml:space="preserve"><tspan
         id="tspan862"
         y="2702.9275"
         x="928.00732"
         sodipodi:role="line"
         style="font-size:45px">Gaat het? Je</tspan><tspan
         y="2759.1775"
         x="928.00732"
         sodipodi:role="line"
         style="font-size:45px"
         id="tspan298">hebt het toch niet</tspan><tspan
         y="2815.4275"
         x="928.00732"
         sodipodi:role="line"
         style="font-size:45px"
         id="tspan300">te koud?</tspan></text>
    <text
       id="text4246-3-2-2-3-3"
       y="2562.1472"
       x="1829.0115"
       style="font-style:normal;font-variant:normal;font-weight:normal;font-stretch:normal;font-size:45px;line-height:1.25;font-family:Lavi;-inkscape-font-specification:Lavi;text-align:center;letter-spacing:0px;word-spacing:0px;text-anchor:middle;fill:#000000;fill-opacity:1;stroke:none"
       xml:space="preserve"><tspan
         id="tspan878"
         y="2562.1472"
         x="1829.0115"
         sodipodi:role="line"
         style="font-size:45px">Sorry, mijn</tspan><tspan
         y="2618.3972"
         x="1829.0115"
         sodipodi:role="line"
         style="font-size:45px"
         id="tspan307">Rea raakt bijna</tspan><tspan
         y="2674.6472"
         x="1829.0115"
         sodipodi:role="line"
         style="font-size:45px"
         id="tspan309">helemaal op,</tspan></text>
    <text
       id="text4246-3-2-2-3-3-9"
       y="3197.5146"
       x="2147.5322"
       style="font-style:normal;font-variant:normal;font-weight:normal;font-stretch:normal;font-size:45px;line-height:1.25;font-family:Lavi;-inkscape-font-specification:Lavi;text-align:center;letter-spacing:0px;word-spacing:0px;text-anchor:middle;fill:#000000;fill-opacity:1;stroke:none"
       xml:space="preserve"><tspan
         id="tspan893"
         y="3197.5146"
         x="2147.5322"
         sodipodi:role="line"
         style="font-size:45px"> en mijn aura is</tspan><tspan
         y="3253.7646"
         x="2147.5322"
         sodipodi:role="line"
         style="font-size:45px"
         id="tspan322">te zwak om ons te</tspan><tspan
         y="3310.0146"
         x="2147.5322"
         sodipodi:role="line"
         style="font-size:45px"
         id="tspan326">beschermen tegen de</tspan><tspan
         y="3366.2646"
         x="2147.5322"
         sodipodi:role="line"
         style="font-size:45px"
         id="tspan328">kou op deze hoogte.</tspan></text>
  </g>
</svg>
