<?xml version="1.0" encoding="UTF-8" standalone="no"?>
<svg
   id="svg2"
   version="1.1"
   inkscape:version="1.3 (0e150ed6c4, 2023-07-21)"
   width="2481"
   height="663"
   sodipodi:docname="E33P00.svg"
   xmlns:inkscape="http://www.inkscape.org/namespaces/inkscape"
   xmlns:sodipodi="http://sodipodi.sourceforge.net/DTD/sodipodi-0.dtd"
   xmlns:xlink="http://www.w3.org/1999/xlink"
   xmlns="http://www.w3.org/2000/svg"
   xmlns:svg="http://www.w3.org/2000/svg"
   xmlns:rdf="http://www.w3.org/1999/02/22-rdf-syntax-ns#"
   xmlns:cc="http://creativecommons.org/ns#"
   xmlns:dc="http://purl.org/dc/elements/1.1/">
  <metadata
     id="metadata8">
    <rdf:RDF>
      <cc:Work
         rdf:about="">
        <dc:format>image/svg+xml</dc:format>
        <dc:type
           rdf:resource="http://purl.org/dc/dcmitype/StillImage" />
      </cc:Work>
    </rdf:RDF>
  </metadata>
  <defs
     id="defs6">
    <linearGradient
       inkscape:collect="always"
       id="linearGradient4290">
      <stop
         style="stop-color:#0c182f;stop-opacity:1"
         offset="0"
         id="stop4292-7" />
      <stop
         id="stop4298"
         offset="0.5"
         style="stop-color:#213279;stop-opacity:1" />
      <stop
         style="stop-color:#8f98a2;stop-opacity:1"
         offset="1"
         id="stop4294" />
    </linearGradient>
    <filter
       inkscape:menu-tooltip="Transparent plastic with deep colors"
       inkscape:menu="Bevels"
       inkscape:label="Pepper-title-style"
       style="color-interpolation-filters:sRGB"
       id="filter4268"
       x="-0.082299264"
       y="-0.10589776"
       width="1.1645985"
       height="1.2117955">
      <feGaussianBlur
         in="SourceGraphic"
         result="result6"
         stdDeviation="1.07656"
         id="feGaussianBlur4270" />
      <feComposite
         in2="SourceGraphic"
         in="result6"
         operator="arithmetic"
         id="feComposite4272"
         k1="0"
         k2="0"
         k3="0"
         k4="0" />
      <feGaussianBlur
         result="result2"
         stdDeviation="2.073358984375"
         id="feGaussianBlur4274" />
      <feComposite
         in2="SourceGraphic"
         operator="atop"
         result="result91"
         id="feComposite4276"
         stdDeviation="6" />
      <feComposite
         result="result4"
         in="result2"
         operator="xor"
         in2="result91"
         id="feComposite4278"
         stdDeviation="3.7000000000000002" />
      <feGaussianBlur
         in="result4"
         result="result3"
         stdDeviation="2.4161573242187497"
         id="feGaussianBlur4280" />
      <feSpecularLighting
         lighting-color="#7fadda"
         in="result3"
         result="result5"
         specularExponent="35"
         specularConstant="1.9236244370806594"
         surfaceScale="12"
         id="feSpecularLighting4282"
         stdDeviation="3.0299999999999998">
        <feDistantLight
           elevation="61"
           azimuth="104"
           id="feDistantLight880" />
      </feSpecularLighting>
      <feComposite
         k4="0"
         k1="0"
         in2="result5"
         in="SourceGraphic"
         k3="0.7"
         k2="0.8"
         operator="arithmetic"
         result="result7"
         id="feComposite4286" />
      <feComposite
         in="result7"
         operator="in"
         in2="SourceGraphic"
         id="feComposite4288" />
    </filter>
    <filter
       inkscape:menu-tooltip="Transparent plastic with deep colors"
       inkscape:menu="Bevels"
       inkscape:label="Pepper-title-style"
       style="color-interpolation-filters:sRGB"
       id="filter4268-4"
       x="-0.024481152"
       y="-0.11251004"
       width="1.0489623"
       height="1.2250201">
      <feGaussianBlur
         in="SourceGraphic"
         result="result6"
         stdDeviation="1.07656"
         id="feGaussianBlur4270-78" />
      <feComposite
         in2="SourceGraphic"
         in="result6"
         operator="xor"
         id="feComposite4272-45" />
      <feGaussianBlur
         result="result2"
         stdDeviation="6.0001843317972341"
         id="feGaussianBlur4274-0" />
      <feComposite
         in2="SourceGraphic"
         operator="atop"
         result="result91"
         id="feComposite4276-3"
         stdDeviation="6" />
      <feComposite
         result="result4"
         in="result2"
         operator="xor"
         in2="result91"
         id="feComposite4278-6"
         stdDeviation="3.7000000000000002" />
      <feGaussianBlur
         in="result4"
         result="result3"
         stdDeviation="3.0319199999999999"
         id="feGaussianBlur4280-10" />
      <feSpecularLighting
         lighting-color="#7fadda"
         in="result3"
         result="result5"
         specularExponent="35"
         specularConstant="3"
         surfaceScale="12"
         id="feSpecularLighting4282-63"
         stdDeviation="3.0299999999999998">
        <feDistantLight
           elevation="45"
           azimuth="235"
           id="feDistantLight4284-2" />
      </feSpecularLighting>
      <feComposite
         k4="0"
         k1="0"
         in2="result5"
         in="SourceGraphic"
         k3="0.7"
         k2="0.8"
         operator="arithmetic"
         result="result7"
         id="feComposite4286-06" />
      <feComposite
         in="result7"
         operator="in"
         in2="SourceGraphic"
         id="feComposite4288-1" />
    </filter>
    <filter
       inkscape:menu-tooltip="Transparent plastic with deep colors"
       inkscape:menu="Bevels"
       inkscape:label="Pepper-title-style"
       style="color-interpolation-filters:sRGB"
       id="filter4268-5"
       x="-0.14313873"
       y="-0.18418237"
       width="1.2862775"
       height="1.3683647">
      <feGaussianBlur
         in="SourceGraphic"
         result="result6"
         stdDeviation="0.20000000000000001"
         id="feGaussianBlur4270-3" />
      <feComposite
         in2="SourceGraphic"
         in="result6"
         operator="xor"
         id="feComposite4272-5" />
      <feGaussianBlur
         result="result2"
         stdDeviation="6.0001843317972341"
         id="feGaussianBlur4274-6" />
      <feComposite
         in2="SourceGraphic"
         operator="atop"
         result="result91"
         id="feComposite4276-2"
         stdDeviation="6" />
      <feComposite
         result="result4"
         in="result2"
         operator="xor"
         in2="result91"
         id="feComposite4278-9"
         stdDeviation="3.7000000000000002" />
      <feGaussianBlur
         in="result4"
         result="result3"
         stdDeviation="3.6962672811059902"
         id="feGaussianBlur4280-1" />
      <feSpecularLighting
         lighting-color="#d8bd6d"
         in="result3"
         result="result5"
         specularExponent="35"
         specularConstant="3"
         surfaceScale="12"
         id="feSpecularLighting4282-2">
        <feDistantLight
           elevation="45"
           azimuth="235"
           id="feDistantLight4284-7" />
      </feSpecularLighting>
      <feComposite
         in2="result5"
         in="SourceGraphic"
         k3="0.7"
         k2="0.8"
         operator="arithmetic"
         result="result7"
         id="feComposite4286-0"
         k1="0"
         k4="0" />
      <feComposite
         in="result7"
         operator="in"
         in2="SourceGraphic"
         id="feComposite4288-9" />
    </filter>
    <filter
       inkscape:menu-tooltip="Transparent plastic with deep colors"
       inkscape:menu="Bevels"
       inkscape:label="Pepper-title-style"
       style="color-interpolation-filters:sRGB"
       id="filter10"
       x="-0.024481151"
       y="-0.11251004"
       width="1.0489624"
       height="1.2250201">
      <feGaussianBlur
         in="SourceGraphic"
         result="result6"
         stdDeviation="1.07656"
         id="feGaussianBlur6" />
      <feComposite
         in2="SourceGraphic"
         in="result6"
         operator="xor"
         id="feComposite6" />
      <feGaussianBlur
         result="result2"
         stdDeviation="6.0001843317972341"
         id="feGaussianBlur7" />
      <feComposite
         in2="SourceGraphic"
         operator="atop"
         result="result91"
         id="feComposite7"
         stdDeviation="6" />
      <feComposite
         result="result4"
         in="result2"
         operator="xor"
         in2="result91"
         id="feComposite8"
         stdDeviation="3.7000000000000002" />
      <feGaussianBlur
         in="result4"
         result="result3"
         stdDeviation="3.0319199999999999"
         id="feGaussianBlur8" />
      <feSpecularLighting
         lighting-color="#7fadda"
         in="result3"
         result="result5"
         specularExponent="35"
         specularConstant="3"
         surfaceScale="12"
         id="feSpecularLighting8"
         stdDeviation="3.0299999999999998">
        <feDistantLight
           elevation="45"
           azimuth="235"
           id="feDistantLight8" />
      </feSpecularLighting>
      <feComposite
         k4="0"
         k1="0"
         in2="result5"
         in="SourceGraphic"
         k3="0.7"
         k2="0.8"
         operator="arithmetic"
         result="result7"
         id="feComposite9" />
      <feComposite
         in="result7"
         operator="in"
         in2="SourceGraphic"
         id="feComposite10" />
    </filter>
    <filter
       inkscape:menu-tooltip="Transparent plastic with deep colors"
       inkscape:menu="Bevels"
       inkscape:label="Pepper-title-style"
       style="color-interpolation-filters:sRGB"
       id="filter16"
       x="-0.14313874"
       y="-0.18418238"
       width="1.2862775"
       height="1.3683647">
      <feGaussianBlur
         in="SourceGraphic"
         result="result6"
         stdDeviation="0.20000000000000001"
         id="feGaussianBlur12" />
      <feComposite
         in2="SourceGraphic"
         in="result6"
         operator="xor"
         id="feComposite12" />
      <feGaussianBlur
         result="result2"
         stdDeviation="6.0001843317972341"
         id="feGaussianBlur13" />
      <feComposite
         in2="SourceGraphic"
         operator="atop"
         result="result91"
         id="feComposite13"
         stdDeviation="6" />
      <feComposite
         result="result4"
         in="result2"
         operator="xor"
         in2="result91"
         id="feComposite14"
         stdDeviation="3.7000000000000002" />
      <feGaussianBlur
         in="result4"
         result="result3"
         stdDeviation="3.6962672811059902"
         id="feGaussianBlur14" />
      <feSpecularLighting
         lighting-color="#d8bd6d"
         in="result3"
         result="result5"
         specularExponent="35"
         specularConstant="3"
         surfaceScale="12"
         id="feSpecularLighting14">
        <feDistantLight
           elevation="45"
           azimuth="235"
           id="feDistantLight14" />
      </feSpecularLighting>
      <feComposite
         in2="result5"
         in="SourceGraphic"
         k3="0.7"
         k2="0.8"
         operator="arithmetic"
         result="result7"
         id="feComposite15"
         k1="0"
         k4="0" />
      <feComposite
         in="result7"
         operator="in"
         in2="SourceGraphic"
         id="feComposite16" />
    </filter>
    <filter
       inkscape:menu-tooltip="Transparent plastic with deep colors"
       inkscape:menu="Bevels"
       inkscape:label="Pepper-title-style"
       style="color-interpolation-filters:sRGB"
       id="filter4268-9-8"
       x="-0.14313873"
       y="-0.18418237"
       width="1.2862775"
       height="1.3683647">
      <feGaussianBlur
         in="SourceGraphic"
         result="result6"
         stdDeviation="0.20000000000000001"
         id="feGaussianBlur4270-7-9" />
      <feComposite
         in2="SourceGraphic"
         in="result6"
         operator="xor"
         id="feComposite4272-4-7" />
      <feGaussianBlur
         result="result2"
         stdDeviation="6.0001843317972341"
         id="feGaussianBlur4274-9-3" />
      <feComposite
         in2="SourceGraphic"
         operator="atop"
         result="result91"
         id="feComposite4276-1-6"
         stdDeviation="6" />
      <feComposite
         result="result4"
         in="result2"
         operator="xor"
         in2="result91"
         id="feComposite4278-7-1"
         stdDeviation="3.7000000000000002" />
      <feGaussianBlur
         in="result4"
         result="result3"
         stdDeviation="3.6962672811059902"
         id="feGaussianBlur4280-0-2" />
      <feSpecularLighting
         lighting-color="#d8bd6d"
         in="result3"
         result="result5"
         specularExponent="35"
         specularConstant="3"
         surfaceScale="12"
         id="feSpecularLighting4282-6-9">
        <feDistantLight
           elevation="45"
           azimuth="235"
           id="feDistantLight4284-0-3" />
      </feSpecularLighting>
      <feComposite
         k4="0"
         k1="0"
         in2="result5"
         in="SourceGraphic"
         k3="0.7"
         k2="0.8"
         operator="arithmetic"
         result="result7"
         id="feComposite4286-8-1" />
      <feComposite
         in="result7"
         operator="in"
         in2="SourceGraphic"
         id="feComposite4288-5-9" />
    </filter>
    <filter
       inkscape:menu-tooltip="Transparent plastic with deep colors"
       inkscape:menu="Bevels"
       inkscape:label="Pepper-title-style"
       style="color-interpolation-filters:sRGB"
       id="filter21"
       x="-0.14313874"
       y="-0.18418238"
       width="1.2862775"
       height="1.3683647">
      <feGaussianBlur
         in="SourceGraphic"
         result="result6"
         stdDeviation="0.20000000000000001"
         id="feGaussianBlur17" />
      <feComposite
         in2="SourceGraphic"
         in="result6"
         operator="xor"
         id="feComposite17" />
      <feGaussianBlur
         result="result2"
         stdDeviation="6.0001843317972341"
         id="feGaussianBlur18" />
      <feComposite
         in2="SourceGraphic"
         operator="atop"
         result="result91"
         id="feComposite18"
         stdDeviation="6" />
      <feComposite
         result="result4"
         in="result2"
         operator="xor"
         in2="result91"
         id="feComposite19"
         stdDeviation="3.7000000000000002" />
      <feGaussianBlur
         in="result4"
         result="result3"
         stdDeviation="3.6962672811059902"
         id="feGaussianBlur19" />
      <feSpecularLighting
         lighting-color="#d8bd6d"
         in="result3"
         result="result5"
         specularExponent="35"
         specularConstant="3"
         surfaceScale="12"
         id="feSpecularLighting19">
        <feDistantLight
           elevation="45"
           azimuth="235"
           id="feDistantLight19" />
      </feSpecularLighting>
      <feComposite
         in2="result5"
         in="SourceGraphic"
         k3="0.7"
         k2="0.8"
         operator="arithmetic"
         result="result7"
         id="feComposite20"
         k1="0"
         k4="0" />
      <feComposite
         in="result7"
         operator="in"
         in2="SourceGraphic"
         id="feComposite21" />
    </filter>
    <linearGradient
       inkscape:collect="always"
       xlink:href="#linearGradient4290"
       id="linearGradient5"
       gradientUnits="userSpaceOnUse"
       gradientTransform="translate(-18.490836,67.231691)"
       x1="1243.5789"
       y1="254.0174"
       x2="1240.9818"
       y2="421.95773" />
    <linearGradient
       inkscape:collect="always"
       xlink:href="#linearGradient4290"
       id="linearGradient7"
       gradientUnits="userSpaceOnUse"
       gradientTransform="translate(122.24966,501.36221)"
       x1="1243.5789"
       y1="254.0174"
       x2="1240.9818"
       y2="421.95773" />
    <linearGradient
       inkscape:collect="always"
       xlink:href="#linearGradient4290"
       id="linearGradient8"
       gradientUnits="userSpaceOnUse"
       gradientTransform="translate(112.72076,514.67902)"
       x1="1243.5789"
       y1="254.0174"
       x2="1240.9818"
       y2="421.95773" />
  </defs>
  <sodipodi:namedview
     pagecolor="#ffffff"
     bordercolor="#666666"
     borderopacity="1"
     objecttolerance="10"
     gridtolerance="10"
     guidetolerance="10"
     inkscape:pageopacity="0"
     inkscape:pageshadow="2"
     inkscape:window-width="1920"
     inkscape:window-height="1007"
     id="namedview4"
     showgrid="false"
     inkscape:zoom="0.24779109"
     inkscape:cx="1113.8415"
     inkscape:cy="371.2805"
     inkscape:window-x="0"
     inkscape:window-y="40"
     inkscape:window-maximized="1"
     inkscape:current-layer="layer1"
     inkscape:document-rotation="0"
     inkscape:showpageshadow="2"
     inkscape:pagecheckerboard="0"
     inkscape:deskcolor="#d1d1d1" />
  <g
     inkscape:groupmode="layer"
     id="layer2"
     inkscape:label="artwork"
     sodipodi:insensitive="true">
    <image
       xlink:href="../gfx_Pepper-and-Carrot_by-David-Revoy_E33P00.png"
       y="0"
       x="0"
       id="image10"
       height="663"
       width="2481" />
  </g>
  <g
     inkscape:groupmode="layer"
     id="layer1"
     inkscape:label="txt"
     style="display:inline">
    <text
       xml:space="preserve"
       style="font-style:normal;font-variant:normal;font-weight:normal;font-stretch:normal;font-size:72.5px;line-height:1.25;font-family:Lavi;-inkscape-font-specification:'Lavi, Normal';font-variant-ligatures:normal;font-variant-caps:normal;font-variant-numeric:normal;font-feature-settings:normal;text-align:center;letter-spacing:0px;word-spacing:0px;writing-mode:lr-tb;text-anchor:middle;display:inline;fill:#2b1100;fill-opacity:1;stroke:none"
       x="1239.1194"
       y="582.47577"
       id="episode-title"><tspan
         sodipodi:role="line"
         id="tspan4180"
         x="1239.1194"
         y="582.47577">.i 32 mo'o valsi lo ka jamna</tspan></text>
    <path
       style="font-variation-settings:normal;display:inline;fill:url(#linearGradient8);fill-opacity:1;stroke:none;stroke-width:3.70008428;stroke-linecap:butt;stroke-linejoin:miter;stroke-miterlimit:4;stroke-dasharray:none;stroke-dashoffset:0;stroke-opacity:1;paint-order:normal;filter:url(#filter4268);stop-color:#000000"
       d="m 61.697338,192.66335 q 1.82495,-1.82495 3.79028,-2.80762 1.96533,-1.12304 4.07104,-1.54419 2.2461,-0.56152 3.79029,-0.56152 1.54419,0 2.10571,0.14038 0.7019,0 1.26343,0 3.36914,0.56152 6.73828,2.38648 4.49218,2.38647 6.45752,6.45752 1.12304,2.38647 1.12304,5.05371 v 57.13501 l -5.89599,78.61328 -8.28247,51.94092 q -1.26343,9.40551 -4.35181,14.5996 -2.10571,3.93067 -6.03637,6.59791 -3.93067,2.94799 -10.52857,2.94799 -6.5979,0 -11.93237,-4.77295 -5.33447,-4.49218 -5.33447,-11.65161 v -1.40381 -0.42114 l 8.42285,-44.07959 q 0.56152,-3.93066 1.96533,-18.38989 v -0.14038 q 0.98267,-8.00171 2.52685,-24.84741 2.52686,-27.79541 2.80762,-32.2876 0.42114,-6.87866 0.56153,-12.07276 0.56152,-20.07446 0.7019,-26.95312 0.14038,-6.87866 0.42114,-13.61694 0.28076,-11.37085 0.28076,-19.51294 v -0.70191 q 0.98267,-3.6499 1.96534,-5.33447 1.54419,-3.08838 3.36914,-4.77295 z M 196.74372,308.8987 q -3.6499,-0.14038 -9.68628,-0.14038 -26.53198,0 -40.85083,7.58057 -9.40552,4.91333 -13.61694,13.33618 -3.36914,6.87866 -3.50952,16.1438 0,13.8977 3.36914,19.93408 3.36914,5.896 9.82666,10.2478 5.89599,3.93067 12.21313,3.93067 14.03809,0 26.67236,-9.40552 12.77466,-9.40552 15.16114,-20.49561 z m 5.61523,32.00684 z M 93.704168,371.50857 q -3.08838,-12.4939 -3.08838,-29.19922 0,-16.84571 7.2998,-31.44532 14.178472,-28.49731 51.239022,-37.62207 17.40722,-4.63256 34.67407,-4.63256 l 4.91333,0.14038 q 12.21314,0 13.89771,-0.28077 0.98266,-0.28076 1.96533,-0.28076 1.12304,0 1.96533,0.14038 0.98267,0.14038 2.10571,0.28077 1.82495,0.42114 4.07105,1.12304 l 4.77295,1.40381 q 4.91333,1.40381 9.82666,5.19409 2.66723,2.2461 4.3518,4.91333 1.68457,2.52686 1.68457,5.61524 l 1.54419,65.2771 q 0.14038,6.5979 3.50952,16.56494 6.45752,20.4956 6.45752,27.51465 0,8.28247 -4.91333,13.75732 -2.66723,2.948 -6.31713,4.49219 -3.50953,1.54419 -7.15943,1.54419 -6.73828,0 -11.37085,-2.52686 -6.03637,-3.36914 -8.84399,-10.52856 -1.26343,-3.22876 -2.2461,-6.17676 -9.12475,7.15942 -15.72265,10.52856 -17.96875,9.40552 -35.2356,9.40552 -17.26684,0 -29.3396,-6.5979 -12.07275,-6.03638 -19.51294,-16.00342 -7.299802,-10.10742 -10.528562,-22.60131 z m 274.725342,29.90112 q -4.49219,-6.45752 -4.49219,-14.17847 0,-7.72095 4.77295,-14.31885 4.35181,-6.17675 11.79199,-9.12475 4.91333,-2.10571 10.66895,-2.10571 8.28247,0 15.16113,4.49218 5.896,4.07105 8.98438,11.23047 1.96533,4.63257 1.96533,9.26514 v 0.56152 q 0,4.77295 -1.96533,9.5459 -1.68457,4.35181 -5.33447,8.28247 -3.50953,3.79028 -8.56324,5.75562 -4.91333,1.96533 -10.52856,1.96533 -5.47486,0 -10.38819,-1.96533 -7.44018,-3.08838 -12.07275,-9.40552 z m 89.00147,-72.29614 -0.28077,-48.85254 q 0,-0.70191 0.28077,-2.10572 v -0.28076 -0.56152 q 0.84228,-4.77295 6.31713,-8.14209 4.07105,-2.38648 9.12476,-2.38648 3.93066,0 8.28247,1.54419 5.61524,1.96534 7.72095,6.31714 2.66723,5.33447 2.52685,6.45752 0,0.14038 0,0.42114 14.73999,-4.77294 29.76075,-4.91333 h 0.14038 q 2.66723,0 2.80761,-0.14038 h 0.28077 q 15.86303,0 32.56835,3.22876 16.70533,3.22876 27.79541,16.84571 9.40552,11.65161 12.21314,28.21655 0.98267,5.75561 0.98267,11.37085 0,15.44189 -6.03638,29.05884 -2.38648,5.47485 -5.61524,10.2478 -7.72094,11.37085 -19.65332,19.51294 -11.37085,8.00171 -24.56665,10.94971 -6.73828,1.4038 -13.1958,1.4038 h -0.98266 q -4.07105,0 -12.4939,-1.12304 l -30.60303,-4.63257 q -1.54419,9.5459 -1.82495,11.65161 -0.28076,2.38648 -0.42114,3.79028 -0.42114,2.80762 -1.54419,10.9497 -1.26343,8.00171 -1.68457,11.09009 -0.7019,5.05371 -1.40381,9.5459 -0.7019,4.63257 -1.12305,7.72094 -0.7019,5.05372 -1.12304,7.58057 -1.12305,2.66724 -2.2461,4.21143 -3.08838,4.49218 -7.58056,6.31714 -2.38648,0.84228 -4.35181,0.84228 -6.5979,0 -11.09009,-4.63257 -4.21142,-4.3518 -5.61523,-11.37085 -0.28076,-1.68457 -0.42114,-4.07104 0.7019,-4.77295 1.54419,-9.26514 3.08837,-16.70532 3.50952,-20.35522 0.56152,-4.3518 0.7019,-5.33447 l 2.80762,-32.00683 q 3.08838,-38.32398 3.6499,-46.60645 0.7019,-10.9497 0.84229,-12.49389 z m 83.66699,-15.86304 q -5.47486,-0.56152 -12.21314,-0.56152 -15.72265,0 -26.81274,2.52685 -5.47485,1.12305 -8.98438,3.22876 -1.82495,1.12305 -1.96533,1.82495 -0.42114,2.38648 -0.42114,2.38648 v 0.14038 q -0.14038,1.26342 -0.42114,5.05371 -0.42115,7.2998 -1.40381,16.56494 -0.84229,9.26514 -0.98267,12.63428 -0.28076,3.36914 -0.42114,4.91333 -0.28076,3.08838 -0.56152,5.61523 3.79028,1.26343 7.44018,1.82495 8.00171,1.12305 11.65161,1.82495 5.61524,0.98267 11.792,1.54419 l 5.19409,0.28076 q 9.96704,0 18.67065,-3.08837 11.09009,-3.79029 16.98609,-14.17847 2.66723,-4.63257 3.93066,-12.77466 0.56152,-3.50952 0.56152,-6.73828 0,-7.15942 -2.38647,-12.63428 -3.36914,-7.72095 -11.37085,-9.40552 -2.80762,-0.56152 -8.28247,-0.98266 z m 85.49194,-38.04321 q 3.36914,-0.70191 8.844,-0.70191 5.47485,0 9.54589,1.96533 5.896,2.66724 7.86133,8.98438 l 0.28076,0.84228 v 32.98951 q 0,53.34472 -10.10742,75.94604 -2.948,6.73828 -7.15942,11.09009 -3.08838,3.22876 -6.5979,4.49219 -2.10572,0.7019 -3.93067,0.7019 -1.68457,0 -2.94799,-0.14038 -6.59791,-0.56152 -11.51124,-4.07105 -5.89599,-4.3518 -7.44018,-7.72094 -0.70191,-1.54419 -0.70191,-3.36914 0,-1.82495 0.84229,-4.21143 10.94971,-36.07788 12.21313,-104.72412 l 0.14039,-0.7019 q 1.68457,-5.61524 5.33447,-8.844 1.96533,-1.82495 5.33447,-2.52685 z m -9.26514,-23.02247 q -2.94799,-4.49218 -2.94799,-8.98437 0,-4.49219 1.96533,-8.98438 2.10571,-4.49218 5.33447,-8.28247 2.80762,-3.36914 7.44019,-6.17675 4.77295,-2.80762 9.68628,-2.80762 5.19409,0 9.82666,2.66724 4.07104,2.38647 7.44018,5.89599 3.36914,3.36914 5.47486,7.86133 2.24609,4.49219 2.24609,8.70361 0,4.07105 -2.38648,8.56324 -4.3518,8.28247 -12.21313,12.35351 -4.35181,2.38648 -8.70361,2.38648 -2.948,0 -5.1941,-0.56153 -2.24609,-0.7019 -3.6499,-1.26343 -4.49219,-1.68457 -8.14209,-4.77294 -3.93066,-3.08838 -6.17676,-6.59791 z m 59.80225,76.92872 -0.28076,-48.85254 q 0,-0.70191 0.28076,-2.10572 v -0.28076 -0.56152 q 0.84229,-4.77295 6.31714,-8.14209 4.07104,-2.38648 9.12475,-2.38648 3.93067,0 8.28248,1.54419 5.61523,1.96534 7.72094,6.31714 2.66724,5.33447 2.52686,6.45752 0,0.14038 0,0.42114 14.73999,-4.77294 29.76074,-4.91333 h 0.1404 q 2.6672,0 2.8076,-0.14038 h 0.2808 q 15.863,0 32.5683,3.22876 16.7054,3.22876 27.7954,16.84571 9.4056,11.65161 12.2132,28.21655 0.9826,5.75561 0.9826,11.37085 0,15.44189 -6.0363,29.05884 -2.3865,5.47485 -5.6153,10.2478 -7.7209,11.37085 -19.6533,19.51294 -11.3708,8.00171 -24.5666,10.94971 -6.7383,1.4038 -13.1958,1.4038 h -0.9827 q -4.071,0 -12.4939,-1.12304 l -30.60304,-4.63257 q -1.54419,9.5459 -1.82495,11.65161 -0.28076,2.38648 -0.42115,3.79028 -0.42114,2.80762 -1.54419,10.9497 -1.26342,8.00171 -1.68457,11.09009 -0.7019,5.05371 -1.4038,9.5459 -0.70191,4.63257 -1.12305,7.72094 -0.70191,5.05372 -1.12305,7.58057 -1.12304,2.66724 -2.24609,4.21143 -3.08838,4.49218 -7.58057,6.31714 -2.38647,0.84228 -4.3518,0.84228 -6.59791,0 -11.09009,-4.63257 -4.21143,-4.3518 -5.61524,-11.37085 -0.28076,-1.68457 -0.42114,-4.07104 0.7019,-4.77295 1.54419,-9.26514 3.08838,-16.70532 3.50952,-20.35522 0.56152,-4.3518 0.70191,-5.33447 l 2.80761,-32.00683 q 3.08838,-38.32398 3.64991,-46.60645 0.7019,-10.9497 0.84228,-12.49389 z m 83.66701,-15.86304 q -5.4749,-0.56152 -12.2131,-0.56152 -15.7227,0 -26.8128,2.52685 -5.47485,1.12305 -8.98437,3.22876 -1.82495,1.12305 -1.96533,1.82495 -0.42115,2.38648 -0.42115,2.38648 v 0.14038 q -0.14038,1.26342 -0.42114,5.05371 -0.42114,7.2998 -1.40381,16.56494 -0.84228,9.26514 -0.98266,12.63428 -0.28076,3.36914 -0.42115,4.91333 -0.28076,3.08838 -0.56152,5.61523 3.79028,1.26343 7.44019,1.82495 8.00171,1.12305 11.65161,1.82495 5.61523,0.98267 11.79203,1.54419 l 5.1941,0.28076 q 9.967,0 18.6706,-3.08837 11.0901,-3.79029 16.9861,-14.17847 2.6672,-4.63257 3.9307,-12.77466 0.5615,-3.50952 0.5615,-6.73828 0,-7.15942 -2.3865,-12.63428 -3.3691,-7.72095 -11.3708,-9.40552 -2.8076,-0.56152 -8.2825,-0.98266 z m 65.6982,55.0293 q -4.3518,-13.47657 -4.3518,-27.79541 0,-14.31885 6.7383,-26.81275 6.7383,-12.35351 17.9688,-21.47827 10.8093,-8.56323 26.2512,-14.17847 15.0207,-5.61523 30.8838,-5.61523 11.0901,0 22.1801,2.52685 10.3882,2.38648 20.4957,8.98438 9.8266,6.31714 15.3015,14.73999 5.7556,9.12476 5.7556,22.46094 0,7.2998 -3.0884,12.63427 -0.4211,0.70191 -8.9844,7.86133 -4.7729,4.07105 -11.0901,6.73828 -7.8613,3.50952 -12.3535,4.49219 -25.8301,5.19409 -38.7451,5.896 l -30.0415,1.82495 q 1.1231,3.6499 4.9133,7.01904 5.1941,4.63257 13.7574,6.5979 4.7729,1.26343 10.5285,1.26343 3.0884,0 10.9497,-1.26343 11.2305,-1.82495 11.6516,-2.10571 7.0191,-3.50952 10.1075,-4.91333 3.0883,-1.40381 5.3344,-1.96533 4.6326,-1.40381 9.4056,-1.40381 7.7209,0 13.3361,4.63257 6.1768,5.05371 6.1768,13.75732 0,3.93066 -3.9307,9.12476 -4.071,5.47485 -10.5285,9.54589 -11.6516,7.44019 -27.9358,11.09009 -6.1768,1.40381 -13.8977,2.38648 -7.8614,0.84228 -11.2305,0.84228 -16.8457,0 -30.7434,-6.73828 -26.1108,-12.77466 -34.8145,-40.14892 z m 102.3377,-50.53711 q -4.0711,-5.33448 -12.3535,-7.29981 l -4.2115,-0.84228 q -3.0883,-0.42115 -5.3344,-0.42115 -2.3865,0 -3.7903,0.14038 -8.9844,0.56153 -16.4246,3.22876 -4.9133,1.82496 -9.6863,4.35181 -4.6325,2.66724 -7.7209,5.33447 -3.5095,3.36914 -5.3345,7.29981 1.2635,0 1.825,0 v 0 q 5.6152,-0.14038 15.4419,-0.84229 8.7036,-0.42114 17.1264,-1.12304 8.4229,-0.70191 18.8111,-2.10572 4.4922,-0.7019 12.4939,-2.80761 0.9826,-0.28077 0.9826,-0.42115 0.1404,-2.10571 -1.8249,-4.49218 z m 53.4851,3.08838 q 0.5615,-8.00171 0.5615,-13.19581 0,-12.77465 1.6846,-20.63598 1.6846,-8.42285 4.773,-13.05542 4.3518,-6.45752 11.23047,-6.87866 1.4038,-0.14038 2.8076,-0.14038 8.7036,0 13.4765,5.05371 2.948,3.08837 2.948,7.2998 v 9.68628 q 7.1595,-6.87866 12.0728,-10.2478 14.4592,-9.26514 31.7261,-9.26514 11.09,0 20.4956,4.35181 11.5112,5.33447 20.2148,17.40722 3.3691,4.77295 3.3691,10.80933 0,3.6499 -1.123,7.44019 -1.825,5.61523 -5.7556,8.98437 -4.4922,3.6499 -11.2305,3.6499 h -0.1404 q -8.1421,-0.14038 -15.3015,-5.89599 -8.2824,-6.5979 -12.4939,-6.5979 -5.6152,0 -8.5632,0.56152 -2.8076,0.56152 -3.9307,1.12305 -8.0017,4.63256 -13.0554,11.37085 -4.071,5.33447 -10.5286,17.82837 -2.8076,5.33447 -6.3171,20.91674 -1.4038,6.45752 -5.7556,22.0398 -2.2461,7.58056 -5.4749,16.70532 -4.2114,11.65161 -8.42277,15.72266 -4.0711,4.21142 -10.2478,4.21142 -1.4038,0 -2.8076,-0.14038 -6.8787,-1.12305 -11.0902,-4.91333 -5.4748,-4.63257 -5.4748,-12.77466 v -4.21142 q 3.3691,-13.05542 5.896,-24.9878 v -0.14038 q 1.2634,-5.19409 2.2461,-10.2478 0.5615,-2.52685 1.2634,-6.03638 0.7019,-3.6499 0.8423,-4.49218 0.2807,-0.84229 0.4211,-1.54419 0.2808,-1.26343 0.4212,-2.2461 0.1403,-1.12304 0.4211,-4.91333 0.1404,-4.21142 0.4212,-9.82666 0.2807,-5.61523 0.4211,-12.49389 z m 108.79517,80.57861 q -4.4922,-6.45752 -4.4922,-14.17847 0,-7.72095 4.773,-14.31885 4.3518,-6.17675 11.792,-9.12475 4.9133,-2.10571 10.6688,-2.10571 8.2825,0 15.1611,4.49218 5.896,4.07105 8.9844,11.23047 1.9653,4.63257 1.9653,9.26514 v 0.56152 q 0,4.77295 -1.9653,9.5459 -1.6846,4.35181 -5.3345,8.28247 -3.5095,3.79028 -8.5632,5.75562 -4.9133,1.96533 -10.5286,1.96533 -5.4747,0 -10.388,-1.96533 -7.4402,-3.08838 -12.0728,-9.40552 z"
       id="path2"
       transform="matrix(0.94862704,0,0,0.94862704,63.728169,-21.918807)" />
    <path
       style="font-variation-settings:normal;display:inline;vector-effect:none;fill:url(#linearGradient7);fill-opacity:1;stroke:none;stroke-width:3.7;stroke-linecap:butt;stroke-linejoin:miter;stroke-miterlimit:4;stroke-dasharray:none;stroke-dashoffset:0;stroke-opacity:1;paint-order:normal;filter:url(#filter4268);stop-color:#000000"
       d="m 1279.4325,197.37383 q 1.8249,-1.82495 3.7903,-2.80762 1.9653,-1.12304 4.071,-1.54418 2.2461,-0.56153 3.7903,-0.56153 1.5442,0 2.1057,0.14038 0.7019,0 1.2634,0 3.3692,0.56153 6.7383,2.38648 4.4922,2.38647 6.4575,6.45752 1.1231,2.38647 1.1231,5.05371 v 57.13501 l -5.896,78.61328 -8.2825,51.94092 q -1.2634,9.40552 -4.3518,14.59962 -2.1057,3.93066 -6.0364,6.5979 -3.9306,2.94799 -10.5285,2.94799 -6.5979,0 -11.9324,-4.77294 -5.3345,-4.49219 -5.3345,-11.65162 v -1.4038 -0.42115 l 8.4229,-44.0796 q 0.5615,-3.93066 1.9653,-18.38989 v -0.14038 q 0.9827,-8.00171 2.5269,-24.84741 2.5268,-27.79541 2.8076,-32.2876 0.4211,-6.87866 0.5615,-12.07275 0.5615,-20.07447 0.7019,-26.95313 0.1404,-6.87866 0.4211,-13.61694 0.2808,-11.37085 0.2808,-19.51294 v -0.70191 q 0.9827,-3.6499 1.9653,-5.33447 1.5442,-3.08838 3.3692,-4.77295 z m 135.0464,116.23535 q -3.6499,-0.14038 -9.6863,-0.14038 -26.532,0 -40.8508,7.58057 -9.4056,4.91333 -13.617,13.33618 -3.3691,6.87866 -3.5095,16.1438 0,13.8977 3.3691,19.93408 3.3692,5.896 9.8267,10.2478 5.896,3.93067 12.2131,3.93067 14.0381,0 26.6724,-9.40552 12.7747,-9.40552 15.1611,-20.4956 z m 5.6152,32.00684 z m -108.6548,30.60303 q -3.0884,-12.4939 -3.0884,-29.19922 0,-16.8457 7.2998,-31.44531 14.1785,-28.49732 51.2391,-37.62207 17.4072,-4.63257 34.674,-4.63257 l 4.9134,0.14038 q 12.2131,0 13.8977,-0.28076 0.9826,-0.28077 1.9653,-0.28077 1.123,0 1.9653,0.14039 0.9827,0.14038 2.1057,0.28076 1.825,0.42114 4.0711,1.12304 l 4.7729,1.40381 q 4.9134,1.40381 9.8267,5.19409 2.6672,2.2461 4.3518,4.91333 1.6846,2.52686 1.6846,5.61524 l 1.5442,65.2771 q 0.1403,6.5979 3.5095,16.56494 6.4575,20.49561 6.4575,27.51466 0,8.28247 -4.9133,13.75732 -2.6673,2.948 -6.3172,4.49219 -3.5095,1.54419 -7.1594,1.54419 -6.7383,0 -11.3708,-2.52686 -6.0364,-3.36914 -8.844,-10.52856 -1.2635,-3.22876 -2.2461,-6.17676 -9.1248,7.15943 -15.7227,10.52857 -17.9687,9.40551 -35.2356,9.40551 -17.2668,0 -29.3396,-6.5979 -12.0727,-6.03637 -19.5129,-16.00341 -7.2998,-10.10744 -10.5286,-22.60133 z m 274.7254,29.90113 q -4.4922,-6.45752 -4.4922,-14.17848 0,-7.72094 4.7729,-14.31884 4.3518,-6.17676 11.792,-9.12476 4.9133,-2.10571 10.669,-2.10571 8.2824,0 15.1611,4.49218 5.896,4.07105 8.9844,11.23047 1.9653,4.63257 1.9653,9.26514 v 0.56152 q 0,4.77296 -1.9653,9.54591 -1.6846,4.35181 -5.3345,8.28247 -3.5095,3.79029 -8.5632,5.75562 -4.9134,1.96533 -10.5286,1.96533 -5.4749,0 -10.3882,-1.96533 -7.4402,-3.08838 -12.0727,-9.40552 z m 78.1921,3.6499 q -3.9307,-5.19409 -3.9307,-12.21313 v -4.4922 -0.56152 q 8.9844,-47.7295 9.1248,-48.4314 0.5615,-4.49219 1.8249,-18.53027 2.3865,-26.67237 3.0884,-35.79712 1.825,-23.02246 2.2461,-32.00684 0.4212,-9.40552 0.5615,-15.02075 0.7019,-28.91846 0.7019,-40.42969 0,-0.7019 0,-1.40381 0,-3.22876 1.4039,-6.17675 1.4038,-2.948 3.9306,-5.1941 3.6499,-3.22876 8.9844,-4.07104 1.5442,-0.28076 3.6499,-0.28076 4.7729,0 9.4055,1.68457 6.4575,2.24609 8.5632,9.82666 l 0.2808,0.7019 v 30.88379 q 0,12.21314 -0.5615,24.42627 -0.5615,12.07275 -1.2634,24.14551 -1.6846,27.79541 -1.825,41.83349 10.2478,-8.14209 22.0398,-18.81103 10.3882,-9.40552 25.5493,-23.86475 1.2634,-1.54419 2.6672,-2.66723 2.5269,-1.68457 5.6153,-1.68457 h 4.3518 q 8.0017,0 13.0554,4.07104 2.948,2.2461 4.2114,5.75562 1.4038,3.50952 1.4038,7.15942 0,3.36914 -0.4211,5.33447 -0.4211,2.80762 -3.5095,6.17676 -21.4783,17.26685 -27.3743,22.0398 -5.7556,4.77295 -9.6863,8.00171 -3.7902,3.08837 -5.4748,4.63256 -4.773,3.93067 -7.5806,6.45752 16.0034,8.70362 27.655,20.49561 6.8787,6.87866 12.6343,15.02075 5.6153,7.86133 11.3709,18.53028 v 5.896 q 0,7.01904 -4.2115,11.65161 -1.6845,1.82495 -3.7902,3.08838 -4.0711,2.38647 -9.5459,2.38647 -8.1421,0 -12.2132,-3.79028 -1.9653,-1.82495 -3.3691,-4.35181 -8.9844,-17.40723 -17.4072,-27.79542 -2.1058,-2.52685 -4.3518,-4.91333 -9.1248,-9.68627 -20.0745,-13.75732 -3.6499,-1.26343 -7.4402,-1.68457 -0.1404,0.7019 -0.2808,2.38647 -1.123,10.24781 -1.6845,13.75733 -0.4212,3.6499 -0.7019,4.63257 -0.2808,2.24609 -0.7019,4.3518 -2.948,15.72267 -10.669,23.584 -5.0537,5.05371 -12.6343,5.05371 -9.1247,0 -13.6169,-6.03638 z m 238.2263,-96.1609 q -3.6499,-0.14038 -9.6863,-0.14038 -26.5319,0 -40.8508,7.58057 -9.4055,4.91333 -13.6169,13.33618 -3.3692,6.87866 -3.5096,16.1438 0,13.8977 3.3692,19.93408 3.3691,5.896 9.8266,10.2478 5.896,3.93067 12.2132,3.93067 14.0381,0 26.6723,-9.40552 12.7747,-9.40552 15.1612,-20.4956 z m 5.6153,32.00684 z m -108.6548,30.60303 q -3.0884,-12.4939 -3.0884,-29.19922 0,-16.8457 7.2998,-31.44531 14.1785,-28.49732 51.239,-37.62207 17.4072,-4.63257 34.6741,-4.63257 l 4.9133,0.14038 q 12.2131,0 13.8977,-0.28076 0.9827,-0.28077 1.9653,-0.28077 1.1231,0 1.9654,0.14039 0.9826,0.14038 2.1057,0.28076 1.8249,0.42114 4.071,1.12304 l 4.773,1.40381 q 4.9133,1.40381 9.8266,5.19409 2.6673,2.2461 4.3519,4.91333 1.6845,2.52686 1.6845,5.61524 l 1.5442,65.2771 q 0.1404,6.5979 3.5095,16.56494 6.4576,20.49561 6.4576,27.51466 0,8.28247 -4.9134,13.75732 -2.6672,2.948 -6.3171,4.49219 -3.5095,1.54419 -7.1594,1.54419 -6.7383,0 -11.3709,-2.52686 -6.0364,-3.36914 -8.844,-10.52856 -1.2634,-3.22876 -2.2461,-6.17676 -9.1247,7.15943 -15.7226,10.52857 -17.9688,9.40551 -35.2356,9.40551 -17.2669,0 -29.3396,-6.5979 -12.0728,-6.03637 -19.513,-16.00341 -7.2998,-10.10744 -10.5285,-22.60133 z m 173.0896,-50.67749 q 0.5615,-8.00171 0.5615,-13.1958 0,-12.77466 1.6846,-20.63599 1.6845,-8.42285 4.7729,-13.05542 4.3518,-6.45752 11.2305,-6.87866 1.4038,-0.14038 2.8076,-0.14038 8.7036,0 13.4766,5.05371 2.948,3.08838 2.948,7.2998 v 9.68628 q 7.1594,-6.87866 12.0727,-10.2478 14.4592,-9.26514 31.7261,-9.26514 11.0901,0 20.4956,4.35181 11.5112,5.33447 20.2148,17.40723 3.3692,4.77294 3.3692,10.80932 0,3.6499 -1.1231,7.44019 -1.8249,5.61523 -5.7556,8.98437 -4.4922,3.6499 -11.2305,3.6499 h -0.1403 q -8.1421,-0.14038 -15.3016,-5.89599 -8.2824,-6.5979 -12.4938,-6.5979 -5.6153,0 -8.5633,0.56152 -2.8076,0.56152 -3.9306,1.12305 -8.0018,4.63257 -13.0555,11.37085 -4.071,5.33447 -10.5285,17.82837 -2.8076,5.33447 -6.3172,20.91675 -1.4038,6.45751 -5.7556,22.03979 -2.2461,7.58058 -5.4748,16.70533 -4.2115,11.65161 -8.4229,15.72266 -4.071,4.21142 -10.2478,4.21142 -1.4038,0 -2.8076,-0.14038 -6.8787,-1.12304 -11.0901,-4.91333 -5.4748,-4.63257 -5.4748,-12.77465 v -4.21143 q 3.3691,-13.05543 5.8959,-24.9878 v -0.14038 q 1.2635,-5.1941 2.2461,-10.24781 0.5616,-2.52685 1.2635,-6.03637 0.7019,-3.64991 0.8423,-4.49219 0.2807,-0.84229 0.4211,-1.54419 0.2808,-1.26343 0.4211,-2.24609 0.1404,-1.12305 0.4212,-4.91333 0.1404,-4.21143 0.4211,-9.82667 0.2808,-5.61523 0.4212,-12.49389 z m 160.4553,89.56299 q -13.617,-5.75561 -21.3379,-15.58227 -7.5806,-9.82667 -11.0901,-21.75904 -3.3691,-12.07276 -3.3691,-25.54932 0,-13.47656 6.1767,-27.65503 6.3172,-14.17847 16.9861,-25.12817 23.8648,-24.28589 57.8369,-24.28589 33.9722,0 52.6428,21.19751 18.2496,20.91675 18.2496,48.15063 0,23.16284 -15.3016,48.01026 -3.6499,5.75562 -13.6169,15.16114 -13.7573,12.91504 -32.7087,14.45923 -11.792,0.98266 -17.4073,0.98266 h -0.1403 q -6.5979,-0.14038 -11.9324,-0.7019 -11.6516,-1.40381 -24.9878,-7.29981 z m 4.071,-68.08472 v 8.84399 q 0,15.30152 7.2998,21.33789 9.4056,8.00171 26.6724,8.00171 9.8267,0 17.688,-3.93066 6.1767,-3.22876 11.2305,-8.98438 8.7036,-9.82666 8.7036,-27.65503 0,-15.58227 -8.7036,-22.88208 -3.2288,-2.66723 -7.8614,-4.49218 -5.896,-2.2461 -14.4592,-2.2461 -4.2114,0 -7.019,0.56153 -4.6326,0.7019 -7.8614,1.96533 -6.7383,2.66723 -11.9323,7.15942 -10.8094,9.40552 -13.7574,22.32056 z m 171.6858,-105.00488 v 3.50952 q 0,3.50952 0,7.44018 0,8.70362 -0.2807,12.21314 -0.1404,3.36914 -0.1404,4.49218 0,1.12305 -0.1404,2.2461 0,1.12305 -0.1404,2.10571 0,0.98267 0,1.82495 -0.1404,1.82495 -0.1404,3.22876 34.9549,-2.10571 35.7972,-2.10571 0.8422,0 1.9653,0.14038 5.1941,0.98267 8.4228,5.75562 2.948,3.79028 4.2115,10.80932 0.2807,1.40381 0.2807,3.08838 0,1.54419 -0.7019,4.21143 -0.5615,2.38647 -2.2461,5.05371 -4.071,6.87866 -10.5285,6.87866 l -39.0259,0.42114 -0.9827,6.5979 q -1.6845,12.63428 -2.5268,17.26685 -0.8423,4.49219 -1.2635,7.44018 -1.6845,8.70362 -2.8076,14.73999 -1.123,5.896 -1.6845,9.26514 -1.1231,6.31714 -1.1231,8.28247 0,3.93067 2.2461,5.33447 2.3865,1.40381 7.019,1.40381 8.7037,0 12.4939,-4.77295 10.9497,-13.8977 20.3553,-13.8977 10.6689,0 15.5822,6.31714 3.5096,4.49218 3.5096,11.37085 0,9.26513 -5.1941,16.84571 -4.0711,5.896 -11.0901,10.52856 -17.9688,11.51123 -36.6394,11.65162 v 0 q -17.1265,0 -30.4627,-10.10743 -14.8803,-11.09008 -15.1611,-27.23389 v -0.56153 l 12.6343,-69.76928 q -14.3189,-2.38648 -18.6707,-9.82666 -1.6846,-2.948 -1.6846,-6.45752 0,-8.70362 5.7557,-12.91504 1.4038,-1.12305 3.6499,-2.10572 l 12.915,-1.54418 q -1.4038,-21.75904 -1.4038,-22.60132 0,-0.84229 0,-1.54419 0,-7.86133 0.8423,-32.56836 v -1.68457 q 0,-6.73828 3.9306,-11.51123 2.948,-3.50952 7.4402,-5.19409 3.0884,-1.26343 6.4576,-1.40381 v 0 q 0.4211,0 0.7019,0 5.7556,0 8.9843,2.10571 2.3865,1.68457 3.3692,4.35181 5.4748,15.72265 5.4748,30.88379 z m 78.1922,164.10523 q -4.4922,-6.45752 -4.4922,-14.17848 0,-7.72094 4.7729,-14.31884 4.3518,-6.17676 11.792,-9.12476 4.9133,-2.10571 10.669,-2.10571 8.2824,0 15.1611,4.49218 5.896,4.07105 8.9844,11.23047 1.9653,4.63257 1.9653,9.26514 v 0.56152 q 0,4.77296 -1.9653,9.54591 -1.6846,4.35181 -5.3345,8.28247 -3.5095,3.79029 -8.5632,5.75562 -4.9134,1.96533 -10.5286,1.96533 -5.4749,0 -10.3882,-1.96533 -7.4402,-3.08838 -12.0727,-9.40552 z"
       id="path3"
       transform="matrix(0.94862704,0,0,0.94862704,63.728169,-21.918807)" />
    <path
       style="font-variation-settings:normal;display:inline;opacity:1;vector-effect:none;fill:url(#linearGradient5);fill-opacity:1;stroke:#131110;stroke-width:3.7;stroke-linecap:butt;stroke-linejoin:miter;stroke-miterlimit:4;stroke-dasharray:none;stroke-dashoffset:0;stroke-opacity:1;paint-order:normal;filter:url(#filter4268);stop-color:#000000;stop-opacity:1"
       d="m 1120.9511,396.70019 q -1.5869,-2.61841 -1.5869,-5.31617 0,-2.69775 1.1108,-5.47485 1.1902,-2.7771 3.0945,-4.99878 1.9043,-2.30102 4.364,-3.80859 2.7771,-1.66626 5.8716,-1.66626 3.8879,0 7.7759,3.17383 3.3325,2.69775 5.2368,6.50634 1.3488,2.7771 1.3488,5.39551 0,4.60205 -3.6499,8.96607 -2.0629,2.45971 -4.7607,3.96728 -2.6184,1.42822 -5.1575,1.42822 -3.7292,0 -7.7758,-2.45971 -3.7293,-2.22168 -5.8716,-5.71289 z m -29.9927,112.90893 q -2.8564,-3.49121 -2.8564,-7.69653 0,-3.6499 1.9042,-6.26831 2.2217,-3.25318 6.9825,-3.25318 3.0945,0 5.5542,1.66626 1.8249,1.19019 3.4118,2.45972 1.5076,1.34888 3.0152,2.30103 0.8728,0.55542 2.063,0.55542 0.7934,0 1.4282,-0.55542 2.1423,-1.66626 3.8086,-6.26831 1.5869,-3.88794 2.4597,-8.17261 0.7935,-3.88794 1.1108,-6.10962 2.1424,-13.0127 2.3804,-14.83765 0.238,-1.82495 0.238,-2.22168 v 0 l 1.9043,-42.29126 q 0,-3.17382 2.3011,-5.15747 0.5554,-0.47607 1.1108,-0.8728 2.6978,-1.74561 5.8716,-1.74561 2.6977,0 5.1575,0.95215 1.9043,0.71411 3.1738,2.30103 0.8728,1.11084 1.3489,2.61841 l 0.1587,0.39673 v 20.07446 q 0,0.55542 0.079,1.26953 v 0.15869 q 0,10.63232 -1.1108,23.48633 -1.4283,16.42456 -5.3955,29.11987 -2.1424,7.61719 -5.3956,13.56812 -3.4118,6.18896 -8.2519,9.91821 -5.1575,4.04663 -12.0606,4.04663 -3.0944,0 -6.903,-1.19018 -3.888,-1.11084 -7.3792,-3.17383 -3.5705,-2.06299 -6.1096,-5.07813 z m 79.425,-24.12109 q -7.6965,-3.25318 -12.0605,-8.80737 -4.2847,-5.5542 -6.2683,-12.29859 -1.9043,-6.82373 -1.9043,-14.44092 0,-7.61718 3.4912,-15.6311 3.5706,-8.01392 9.6008,-14.20288 13.4888,-13.72681 32.6905,-13.72681 19.2016,0 29.7546,11.9812 10.3149,11.82251 10.3149,27.21558 0,13.09204 -8.6486,27.13623 -2.063,3.25317 -7.6966,8.56934 -7.7759,7.2998 -18.4875,8.1726 -6.6651,0.55542 -9.8389,0.55542 h -0.079 q -3.7293,-0.0793 -6.7444,-0.39673 -6.5857,-0.79345 -14.1236,-4.12597 z m 2.3011,-38.48267 v 4.99878 q 0,8.64868 4.1259,12.06055 5.3162,4.5227 15.0757,4.5227 5.5542,0 9.9976,-2.22168 3.4912,-1.82495 6.3476,-5.07812 4.9195,-5.5542 4.9195,-15.6311 0,-8.80738 -4.9195,-12.93335 -1.8249,-1.50757 -4.4433,-2.53907 -3.3325,-1.26953 -8.1726,-1.26953 -2.3804,0 -3.9673,0.31738 -2.6184,0.39673 -4.4434,1.11084 -3.8086,1.50757 -6.7443,4.04664 -6.1097,5.31616 -7.7759,12.61596 z m 79.187,-37.92724 q 1.9043,-0.39673 4.9988,-0.39673 3.0944,0 5.3955,1.11084 3.3325,1.50757 4.4433,5.07812 l 0.1587,0.47608 v 18.64624 q 0,30.15136 -5.7129,42.92602 -1.6662,3.8086 -4.0466,6.26831 -1.7456,1.82495 -3.7292,2.53907 -1.1902,0.39672 -2.2217,0.39672 -0.9522,0 -1.6663,-0.0793 -3.7292,-0.31738 -6.5063,-2.30103 -3.3326,-2.45971 -4.2054,-4.36401 -0.3967,-0.8728 -0.3967,-1.9043 0,-1.03149 0.4761,-2.38037 6.189,-20.39184 6.9031,-59.19189 l 0.079,-0.39673 q 0.9522,-3.17383 3.0151,-4.99878 1.1109,-1.0315 3.0152,-1.42822 z m -5.2368,-13.0127 q -1.6663,-2.53906 -1.6663,-5.07812 0,-2.53907 1.1108,-5.07813 1.1902,-2.53906 3.0152,-4.6814 1.5869,-1.90429 4.2053,-3.49121 2.6978,-1.58691 5.4749,-1.58691 2.9358,0 5.5542,1.50757 2.301,1.34887 4.2053,3.33252 1.9043,1.90429 3.0945,4.44336 1.2695,2.53906 1.2695,4.91943 0,2.30103 -1.3489,4.84009 -2.4597,4.68139 -6.9031,6.98242 -2.4597,1.34888 -4.9194,1.34888 -1.6663,0 -2.9358,-0.31739 -1.2695,-0.39672 -2.063,-0.71411 -2.539,-0.95215 -4.602,-2.69775 -2.2217,-1.74561 -3.4912,-3.72925 z"
       id="path4" />
  </g>
</svg>
