<?xml version="1.0" encoding="UTF-8" standalone="no"?>
<svg
   id="svg2"
   version="1.1"
   inkscape:version="1.3 (0e150ed6c4, 2023-07-21)"
   width="2481"
   height="3503"
   sodipodi:docname="E33P01.svg"
   xmlns:inkscape="http://www.inkscape.org/namespaces/inkscape"
   xmlns:sodipodi="http://sodipodi.sourceforge.net/DTD/sodipodi-0.dtd"
   xmlns:xlink="http://www.w3.org/1999/xlink"
   xmlns="http://www.w3.org/2000/svg"
   xmlns:svg="http://www.w3.org/2000/svg"
   xmlns:rdf="http://www.w3.org/1999/02/22-rdf-syntax-ns#"
   xmlns:cc="http://creativecommons.org/ns#"
   xmlns:dc="http://purl.org/dc/elements/1.1/">
  <metadata
     id="metadata8">
    <rdf:RDF>
      <cc:Work
         rdf:about="">
        <dc:format>image/svg+xml</dc:format>
        <dc:type
           rdf:resource="http://purl.org/dc/dcmitype/StillImage" />
      </cc:Work>
    </rdf:RDF>
  </metadata>
  <defs
     id="defs6">
    <filter
       height="1.2056108"
       width="1.0190599"
       inkscape:label="horn-FX"
       id="filter4375-4-1-1-1-9-5-8"
       style="color-interpolation-filters:sRGB"
       x="-0.0095299526"
       y="-0.10280538">
      <feFlood
         result="flood"
         flood-color="rgb(46,52,54)"
         flood-opacity="1"
         id="feFlood4377-7-9-0-8-1-7-3" />
      <feComposite
         result="composite1"
         operator="in"
         in2="SourceGraphic"
         id="feComposite4379-3-8-8-2-77-4-1" />
      <feMorphology
         result="result3"
         radius="4.4217631697438895"
         operator="dilate"
         id="feMorphology4393-1-0-49-8-9-3-0" />
      <feComposite
         result="fbSourceGraphic"
         operator="over"
         in="SourceGraphic"
         in2="result3"
         id="feComposite4385-9-5-7-0-8-8-7" />
      <feColorMatrix
         id="feColorMatrix4544"
         values="0 0 0 -1 0 0 0 0 -1 0 0 0 0 -1 0 0 0 0 1 0"
         in="fbSourceGraphic"
         result="fbSourceGraphicAlpha" />
      <feTurbulence
         result="turbulence"
         baseFrequency="0.129 0.0050000000000000001"
         seed="37"
         numOctaves="3"
         type="fractalNoise"
         id="feTurbulence4546" />
      <feDisplacementMap
         result="fbSourceGraphic"
         xChannelSelector="R"
         yChannelSelector="G"
         scale="12.600000000000001"
         in="fbSourceGraphic"
         in2="turbulence"
         id="feDisplacementMap4548" />
      <feColorMatrix
         id="feColorMatrix4670"
         values="0 0 0 -1 0 0 0 0 -1 0 0 0 0 -1 0 0 0 0 1 0"
         in="fbSourceGraphic"
         result="fbSourceGraphicAlpha" />
      <feComposite
         result="composite1"
         operator="in"
         in="flood"
         in2="fbSourceGraphic"
         id="feComposite4674" />
      <feMorphology
         id="feMorphology854"
         operator="dilate"
         radius="5"
         result="result4"
         in="composite1" />
      <feComposite
         result="composite2"
         operator="over"
         in="fbSourceGraphic"
         in2="result4"
         id="feComposite4680" />
    </filter>
    <filter
       inkscape:label="army-sound-background"
       height="1.291744"
       y="-0.14587199"
       width="1.0586075"
       x="-0.029303764"
       id="filter1058"
       style="color-interpolation-filters:sRGB"
       inkscape:collect="always">
      <feGaussianBlur
         id="feGaussianBlur1060"
         stdDeviation="0.67074246"
         inkscape:collect="always" />
    </filter>
    <filter
       inkscape:collect="always"
       style="color-interpolation-filters:sRGB"
       id="filter1058-3"
       x="-0.04331965"
       width="1.0866393"
       y="-0.18017235"
       height="1.3603447"
       inkscape:label="army-sound-background">
      <feGaussianBlur
         inkscape:collect="always"
         stdDeviation="0.67074246"
         id="feGaussianBlur1060-6" />
    </filter>
    <filter
       inkscape:collect="always"
       style="color-interpolation-filters:sRGB"
       id="filter1058-35"
       x="-0.028278106"
       width="1.0565562"
       y="-0.14385032"
       height="1.2877006"
       inkscape:label="army-sound-background">
      <feGaussianBlur
         inkscape:collect="always"
         stdDeviation="0.67074246"
         id="feGaussianBlur1060-62" />
    </filter>
    <filter
       inkscape:label="army-sound-background"
       height="1.3254312"
       y="-0.16271561"
       width="1.104462"
       x="-0.052231005"
       id="filter1058-3-2"
       style="color-interpolation-filters:sRGB"
       inkscape:collect="always">
      <feGaussianBlur
         id="feGaussianBlur1060-6-7"
         stdDeviation="0.67074246"
         inkscape:collect="always" />
    </filter>
  </defs>
  <sodipodi:namedview
     pagecolor="#ffffff"
     bordercolor="#666666"
     borderopacity="1"
     objecttolerance="10"
     gridtolerance="10"
     guidetolerance="10"
     inkscape:pageopacity="0"
     inkscape:pageshadow="2"
     inkscape:window-width="1920"
     inkscape:window-height="1007"
     id="namedview4"
     showgrid="false"
     inkscape:zoom="0.24595019"
     inkscape:cx="1445.4146"
     inkscape:cy="3000.6075"
     inkscape:window-x="0"
     inkscape:window-y="40"
     inkscape:window-maximized="1"
     inkscape:current-layer="layer1"
     inkscape:document-rotation="0"
     inkscape:showpageshadow="2"
     inkscape:pagecheckerboard="0"
     inkscape:deskcolor="#d1d1d1" />
  <g
     inkscape:groupmode="layer"
     id="layer2"
     inkscape:label="artwork"
     sodipodi:insensitive="true">
    <image
       xlink:href="../gfx_Pepper-and-Carrot_by-David-Revoy_E33P01.png"
       y="0"
       x="0"
       id="image10"
       height="3503"
       width="2481"
       inkscape:label="image10" />
  </g>
  <g
     inkscape:groupmode="layer"
     id="layer3"
     inkscape:label="speechbubbles" />
  <g
     id="layer1"
     inkscape:label="txt"
     style="display:inline"
     inkscape:groupmode="layer">
    <text
       y="1608.6935"
       x="128.4707"
       id="text4580-6-0"
       style="font-style:normal;font-variant:normal;font-weight:normal;font-stretch:normal;font-size:85.3333px;line-height:0%;font-family:Lavi;-inkscape-font-specification:Lavi;letter-spacing:4.62069px;word-spacing:0px;fill:#ffffff;fill-opacity:1;stroke:#98b9ca;stroke-width:1.20695;stroke-miterlimit:4;stroke-dasharray:none;stroke-opacity:1;filter:url(#filter4375-4-1-1-1-9-5-8)"
       xml:space="preserve"
       transform="matrix(0.76013515,0.00555481,-0.19609628,0.88794393,834.80437,206.60306)"
       inkscape:label="horn"><tspan
         id="tspan884"
         style="font-style:normal;font-variant:normal;font-weight:normal;font-stretch:normal;font-size:106.667px;font-family:Drukah;-inkscape-font-specification:Drukah;stroke-width:1.20695">.e'ei .e'ei .e'ei</tspan></text>
    <text
       transform="matrix(0.77685119,-0.35275549,-0.14341819,1.2719131,58.600458,69.989773)"
       id="use4516-8"
       y="1954.6715"
       x="1302.3322"
       style="font-style:normal;font-variant:normal;font-weight:normal;font-stretch:normal;font-size:8.2448px;line-height:0%;font-family:Lavi;-inkscape-font-specification:Lavi;letter-spacing:0px;word-spacing:0px;display:inline;opacity:0.849729;fill:#b3cfde;fill-opacity:1;stroke:#31393b;stroke-width:7.02304;stroke-miterlimit:4;stroke-dasharray:none;stroke-opacity:1;paint-order:stroke fill markers;filter:url(#filter1058)"
       xml:space="preserve"
       inkscape:label="warrior"><tspan
         style="font-style:normal;font-variant:normal;font-weight:normal;font-stretch:normal;font-size:48.0947px;line-height:1.25;font-family:Drukah;-inkscape-font-specification:Drukah;fill:#b3cfde;fill-opacity:1;stroke:#31393b;stroke-width:7.02304;stroke-miterlimit:4;stroke-dasharray:none;stroke-opacity:1;paint-order:stroke fill markers"
         y="1954.6715"
         x="1302.3322"
         id="tspan4370-3"
         sodipodi:role="line">le'o</tspan></text>
    <text
       xml:space="preserve"
       style="font-style:normal;font-variant:normal;font-weight:normal;font-stretch:normal;font-size:8.2448px;line-height:0%;font-family:Lavi;-inkscape-font-specification:Lavi;letter-spacing:0px;word-spacing:0px;display:inline;opacity:0.849729;fill:#b3cfde;fill-opacity:1;stroke:#31393b;stroke-width:6.80001;stroke-miterlimit:4;stroke-dasharray:none;stroke-opacity:1;paint-order:stroke fill markers;filter:url(#filter1058-35)"
       x="1302.3322"
       y="1954.6715"
       id="use4516-8-9"
       transform="matrix(0.82864511,-0.29063368,-0.15298011,1.2604445,1382.5711,0.27961273)"
       inkscape:label="warrior"><tspan
         sodipodi:role="line"
         id="tspan4370-3-1"
         x="1302.3322"
         y="1954.6715"
         style="font-style:normal;font-variant:normal;font-weight:normal;font-stretch:normal;font-size:48.0947px;line-height:1.25;font-family:Drukah;-inkscape-font-specification:Drukah;fill:#b3cfde;fill-opacity:1;stroke:#31393b;stroke-width:6.80001;stroke-miterlimit:4;stroke-dasharray:none;stroke-opacity:1;paint-order:stroke fill markers">Grrawwr!</tspan></text>
    <text
       transform="matrix(0.73346352,-0.36387732,-0.00614451,0.96061258,184.39784,729.51562)"
       id="use4516-8-7-0"
       y="1954.6715"
       x="1302.3322"
       style="font-style:normal;font-variant:normal;font-weight:normal;font-stretch:normal;font-size:8.2448px;line-height:0%;font-family:Lavi;-inkscape-font-specification:Lavi;letter-spacing:0px;word-spacing:0px;display:inline;opacity:0.625989;fill:#b3cfde;fill-opacity:1;stroke:#31393b;stroke-width:8.11403;stroke-miterlimit:4;stroke-dasharray:none;stroke-opacity:1;paint-order:stroke fill markers;filter:url(#filter1058-3-2)"
       xml:space="preserve"
       inkscape:label="warrior"><tspan
         style="font-style:normal;font-variant:normal;font-weight:normal;font-stretch:normal;font-size:48.0947px;line-height:1.25;font-family:Drukah;-inkscape-font-specification:Drukah;fill:#b3cfde;fill-opacity:1;stroke:#31393b;stroke-width:8.11403;stroke-miterlimit:4;stroke-dasharray:none;stroke-opacity:1;paint-order:stroke fill markers"
         y="1954.6715"
         x="1302.3322"
         id="tspan4370-3-5-9"
         sodipodi:role="line">klama</tspan></text>
    <text
       xml:space="preserve"
       style="font-style:normal;font-variant:normal;font-weight:normal;font-stretch:normal;font-size:8.2448px;line-height:0%;font-family:Lavi;-inkscape-font-specification:Lavi;letter-spacing:0px;word-spacing:0px;display:inline;opacity:0.625989;fill:#b3cfde;fill-opacity:1;stroke:#31393b;stroke-width:9.32994;stroke-miterlimit:4;stroke-dasharray:none;stroke-opacity:1;paint-order:stroke fill markers;filter:url(#filter1058-3)"
       x="1302.3322"
       y="1954.6715"
       id="use4516-8-7"
       transform="matrix(0.55740185,-0.26873377,-0.00466957,0.95525148,-73.952849,695.3032)"
       inkscape:label="warrior"><tspan
         sodipodi:role="line"
         id="tspan4370-3-5"
         x="1302.3322"
         y="1954.6715"
         style="font-style:normal;font-variant:normal;font-weight:normal;font-stretch:normal;font-size:48.0947px;line-height:1.25;font-family:Drukah;-inkscape-font-specification:Drukah;fill:#b3cfde;fill-opacity:1;stroke:#31393b;stroke-width:9.32994;stroke-miterlimit:4;stroke-dasharray:none;stroke-opacity:1;paint-order:stroke fill markers">gunta</tspan></text>
  </g>
</svg>
