<?xml version="1.0" encoding="UTF-8" standalone="no"?>
<!-- Created with Inkscape (http://www.inkscape.org/) -->

<svg
   id="svg2"
   version="1.1"
   inkscape:version="1.2.2 (b0a8486541, 2022-12-01)"
   width="2481"
   height="3503"
   sodipodi:docname="E38P01.svg"
   xmlns:inkscape="http://www.inkscape.org/namespaces/inkscape"
   xmlns:sodipodi="http://sodipodi.sourceforge.net/DTD/sodipodi-0.dtd"
   xmlns:xlink="http://www.w3.org/1999/xlink"
   xmlns="http://www.w3.org/2000/svg"
   xmlns:svg="http://www.w3.org/2000/svg"
   xmlns:rdf="http://www.w3.org/1999/02/22-rdf-syntax-ns#"
   xmlns:cc="http://creativecommons.org/ns#"
   xmlns:dc="http://purl.org/dc/elements/1.1/">
  <metadata
     id="metadata8">
    <rdf:RDF>
      <cc:Work
         rdf:about="">
        <dc:format>image/svg+xml</dc:format>
        <dc:type
           rdf:resource="http://purl.org/dc/dcmitype/StillImage" />
        <dc:title />
      </cc:Work>
    </rdf:RDF>
  </metadata>
  <defs
     id="defs6" />
  <sodipodi:namedview
     pagecolor="#ffffff"
     bordercolor="#666666"
     borderopacity="1"
     objecttolerance="10"
     gridtolerance="10"
     guidetolerance="10"
     inkscape:pageopacity="0"
     inkscape:pageshadow="2"
     inkscape:window-width="1920"
     inkscape:window-height="1011"
     id="namedview4"
     showgrid="false"
     inkscape:zoom="0.56889772"
     inkscape:cx="1721.7506"
     inkscape:cy="787.48778"
     inkscape:window-x="0"
     inkscape:window-y="32"
     inkscape:window-maximized="1"
     inkscape:current-layer="layer3"
     inkscape:showpageshadow="0"
     inkscape:pagecheckerboard="0"
     inkscape:deskcolor="#d1d1d1" />
  <g
     inkscape:groupmode="layer"
     id="layer2"
     inkscape:label="artwork"
     sodipodi:insensitive="true">
    <image
       xlink:href="../gfx_Pepper-and-Carrot_by-David-Revoy_E38P01.png"
       y="0"
       x="0"
       id="image10"
       height="3503"
       width="2481" />
  </g>
  <g
     inkscape:groupmode="layer"
     id="layer3"
     inkscape:label="speechbubbles">
    <path
       style="display:inline;fill:#ffffff;fill-rule:evenodd;stroke:none;stroke-width:1.00848px;stroke-linecap:butt;stroke-linejoin:miter;stroke-opacity:1"
       d="m 1865.894,2842.277 c 15.8136,-14.0176 26.0821,-30.3378 12.5929,-38.6354 l -3.1906,-5.3366 -43.1224,-62.8273 c 48.3554,14.2887 100.1683,32.649 69.1965,-46.4752 45.4056,39.4127 82.5331,59.1913 87.6592,3.0706 18.5895,24.9285 36.5595,64.2839 57.3463,38.0476 9.3688,12.8431 18.1758,7.7401 26.3941,-16.1624 12.2722,29.3024 31.0486,11.1943 51.6634,-20.3142 19.5407,31.9899 40.258,58.5185 76.2497,14.1454 -3.0697,32.9432 17.5861,31.3019 48.9658,14.0286 -3.6225,14.3298 2.3859,19.0311 40.2033,7.286 -9.039,13.9111 -25.7946,15.2623 14.8494,17.8709 -3.5278,13.5445 -28.7433,24.6282 21.2989,44.2501 -50.0185,-5.0326 -12.6944,18.9927 -10.5743,31.3061 -32.5755,-7.1355 -47.0306,-3.811 -12.0715,28.0372 -16.6047,-0.3828 -63.5985,-35.1687 -39.358,10.6885 -27.7707,-25.6088 -53.2952,5.694 -38.7291,6.7658 l -59.3258,9.6451 -94.9608,-8.0434 -67.018,0.4798 -55.7132,6.0105 c 7.3112,-20.1052 -11.4359,-12.9923 -26.2897,-9.9459 -5.0335,-5.879 5.1238,-20.155 -26.9969,-11.0609 0.4315,-14.539 -15.3979,-12.5908 -29.0692,-12.8309 z"
       id="path1058"
       sodipodi:nodetypes="ccccccccccccccccccccccccc" />
    <path
       style="display:inline;fill:#ffffff;fill-rule:evenodd;stroke:none;stroke-width:1.04597px;stroke-linecap:butt;stroke-linejoin:miter;stroke-opacity:1"
       d="m 1891.7552,2915.5261 c 40.6936,0.9503 35.302,18.5194 20.6474,39.429 11.2736,-1.4064 37.6403,-20.7755 22.006,9.8423 34.1377,-11.1236 13.1063,11.383 10.3324,22.7 13.761,-2.3822 22.1848,7.8683 5.4483,45.9945 16.9005,-8.9725 42.7264,-42.6586 40.8016,0.4951 13.682,-5.3565 31.6583,-25.9949 33.9399,9.2175 18.086,-17.3835 42.5222,-32.2142 42.9747,22.3235 9.4159,-46.6858 44.3788,-61.7436 49.4063,5.2828 6.7666,-60.8654 37.6533,-41.5684 57.7746,2.9551 -5.8741,-35.2688 3.0433,-57.149 68.8698,-27.5201 -0.4775,-31.0504 13.2584,-44.9406 68.1522,-9.1381 -11.6669,-20.6658 -39.8741,-53.5679 25.789,-17.026 -34.5337,-43.9934 2.9353,-71.0919 31.6902,-100.2353 -35.0136,20.3233 -38.7223,12.3889 -25.5303,-10.8009 -55.6778,27.1553 -58.1538,-15.0216 -21.1638,-49.3208 -50.0096,12.0668 -48.7807,-4.6459 -39.0065,-19.0617 -72.4626,28.4832 -42.2408,-16.5984 -35.5497,-34.1717 -52.4917,78.9525 -37.0586,30.1995 -31.2642,-0.4314 -29.8003,47.0613 -52.3649,78.7904 -46.6785,32.5087 l -49.7944,-8.0512 -188.8945,31.8766 -27.0754,33.9807 c 62.4999,-4.1002 24.4972,14.3842 -12.8751,19.1514 z"
       id="path961"
       sodipodi:nodetypes="cccccccccccccccccccccccc" />
    <path
       style="display:inline;fill:#ffffff;fill-rule:evenodd;stroke:none;stroke-width:0.954738px;stroke-linecap:butt;stroke-linejoin:miter;stroke-opacity:1"
       d="m 2000.6694,2716.7252 c -31.651,13.0747 -66.0394,18.8224 -102.4949,19.037 l 17.6113,45.3908 c -18.364,3.6732 -29.918,0.9666 -70.6388,2.2181 l 6.282,21.8742 -102.3938,-5.104 121.1041,21.825 -4.8924,-18.0382 86.3709,-1.8936 -21.7145,-39.3473 c 30.9126,-19.0725 69.7849,-11.308 104.7266,-16.7953 z"
       id="path957"
       sodipodi:nodetypes="cccccccccccc" />
    <path
       style="color:#000000;display:inline;overflow:visible;visibility:visible;fill:#ffffff;fill-opacity:1;fill-rule:nonzero;stroke:none;stroke-width:1px;marker:none;enable-background:accumulate"
       d="m 118.44028,2746.3221 c 17.09715,-16.9283 53.06001,-31.1634 100.22461,-36.9339 47.16451,-5.7713 134.41902,-4.2327 149.74749,-2.3084 15.32847,1.9235 99.63502,8.8486 117.91125,18.467 18.27644,9.6175 43.03767,21.5442 48.34369,33.8558 5.30612,12.3116 0.58959,41.9355 -16.50756,48.4757 -17.09714,6.5403 -94.91859,20.7754 -140.31462,21.5451 -45.39583,0.7689 -150.92647,-5.3865 -180.99392,-9.6184 -30.06736,-4.2318 -61.90349,-9.6183 -71.33625,-23.0836 -9.43296,-13.4654 -27.11971,-31.1634 -7.07469,-50.3993 z"
       id="path3533-6"
       inkscape:connector-curvature="0" />
    <path
       style="color:#000000;display:inline;overflow:visible;visibility:visible;fill:#ffffff;fill-opacity:1;fill-rule:nonzero;stroke:none;stroke-width:1px;marker:none;enable-background:accumulate"
       d="m 449.68921,2694.176 c -5.4692,18.044 -36.31667,19.557 -47.67251,15.89 22.89062,20.186 22.09264,32.728 -8.98652,34.675 52.12022,36.381 9.5283,30.876 1.12737,40.101 40.92404,12.538 22.61417,28.141 15.32823,43.674 47.03817,0.534 31.64473,25.433 33.62731,45.263 3.98771,-9.305 22.93203,-37.635 24.07187,-6.092 31.11301,-30.093 68.58777,-49.532 71.56343,3.132 12.53592,-26.494 25.03422,-37.691 24.07196,-6.092 31.06008,-41.099 58.97184,-26.305 87.04913,-14.689 7.37431,-12.405 8.23362,-31.462 32.09131,-26.996 -3.34509,-12.295 4.71021,-20.747 22.90194,-25.766 -24.17387,-7.427 -28.62902,-15.088 16.25642,-23.332 -34.15525,-0.798 -66.00523,-2.432 -25.93368,-30.547 -12.57158,-0.681 -42.39883,22.78 -28.49222,-45.878 -21.61743,21.98 -44.68133,34.111 -73.60556,-11.931 -13.68835,23.002 -37.43051,34.384 -47.75962,5.653 -3.71242,12.248 -19.10628,16.855 -32.17455,17.413 -5.05353,-4.865 -10.26568,-11.473 -15.70469,-20.131 -8.88976,18.179 -22.18782,30.457 -47.75962,5.653 z"
       id="path3549-3-7-3"
       inkscape:connector-curvature="0"
       sodipodi:nodetypes="cccccccccccccccccccc" />
    <path
       style="fill:#ffffff;stroke:none;stroke-width:0.999991"
       d="m 638.87426,2843.6702 c -5.9175,-42.8424 11.94132,-91.4353 24.78018,-106.7648 12.83887,-15.3296 35.82116,-24.8063 57.16711,-33.6027 17.68292,-7.2881 96.37158,-7.0373 152.24291,-6.025 46.79861,0.8484 96.94452,28.3867 108.29677,72.3603 11.35222,43.9721 7.9826,122.4831 -5.88997,148.1076 -13.87247,25.6256 -27.51172,53.4183 -108.74297,63.5371 -81.23128,10.1176 -181.89509,-5.9263 -205.85095,-57.5019 -13.50492,-29.0759 -22.00308,-80.1106 -22.00308,-80.1106 z"
       id="path3286-6"
       inkscape:connector-curvature="0"
       sodipodi:nodetypes="csssssssc" />
    <path
       style="display:inline;fill:#ffffff;fill-rule:evenodd;stroke:none;stroke-width:1px;stroke-linecap:butt;stroke-linejoin:miter;stroke-opacity:1"
       d="m 770.17916,2905.8157 c -37.0534,20.4212 33.28706,75.895 22.46288,93.9658 -7.4722,12.4745 -47.82201,-4.0185 -75.22579,52.2357 35.72049,-40.0521 72.16531,-14.9218 89.72928,-30.2585 33.3584,-29.127 -11.25452,-70.4044 -14.74009,-81.3044 -4.66176,-14.5778 -22.22628,-34.6386 -22.22628,-34.6386 z"
       id="path4186-80"
       inkscape:connector-curvature="0"
       sodipodi:nodetypes="cscssc" />
    <path
       style="fill:#ffffff;stroke:none;stroke-width:1.03506"
       d="m 1728.6378,1843.365 c -5.2936,-41.9266 10.6815,-89.4807 22.1666,-104.4826 11.4845,-15.0017 32.0431,-24.2758 51.1378,-32.8842 15.8176,-7.1323 86.2072,-6.8868 136.1858,-5.8964 41.8628,0.8304 86.7198,27.7799 96.8748,70.8135 10.155,43.0321 7.1407,119.8648 -5.2686,144.9415 -12.4095,25.078 -24.6102,52.2766 -97.274,62.1791 -72.6638,9.9013 -162.7109,-5.7997 -184.14,-56.2727 -12.0807,-28.4544 -19.6824,-78.3982 -19.6824,-78.3982 z"
       id="path3286-6-3"
       inkscape:connector-curvature="0"
       sodipodi:nodetypes="csssssssc" />
    <path
       style="fill:#ffffff;stroke:none;stroke-width:1.2112"
       d="m 1752.5223,1696.7319 c -5.1485,-14.3811 10.3889,-30.6925 21.5592,-35.8382 11.17,-5.1456 31.1651,-8.3267 49.7366,-11.2795 15.3844,-2.4464 83.8452,-2.3622 132.4544,-2.0225 40.7157,0.2848 84.3435,9.5287 94.2202,24.2895 9.8769,14.7603 6.9453,41.1144 -5.1242,49.7158 -12.0694,8.602 -23.9357,17.9312 -94.6086,21.328 -70.6726,3.3961 -158.2524,-1.9894 -179.0946,-19.3021 -11.7497,-9.7599 -19.143,-26.891 -19.143,-26.891 z"
       id="path3286-6-3-2"
       inkscape:connector-curvature="0"
       sodipodi:nodetypes="csssssssc" />
    <path
       style="color:#000000;display:inline;overflow:visible;visibility:visible;fill:#ffffff;fill-opacity:1;fill-rule:nonzero;stroke:none;stroke-width:1.176px;marker:none;enable-background:accumulate"
       d="m 1753.0815,2337.6627 c -2.3356,-15.0298 33.8048,-81.8506 176.2904,-71.8305 142.4854,10.0201 162.751,45.8404 164.1712,79.0615 -2.462,34.235 -31.029,59.2129 -52.0515,64.2233 -21.0224,5.0096 -52.6215,11.9635 -110.9519,13.0254 -67.3884,0.045 -107.1139,-2.0569 -149.7853,-29.3454 -40.7033,-24.2044 -25.337,-51.1264 -27.6729,-55.1343 z"
       id="path3365-7"
       inkscape:connector-curvature="0"
       sodipodi:nodetypes="cscsccc" />
    <path
       style="fill:#ffffff;stroke:none;stroke-width:1.02124"
       d="m 1876.0961,2049.8196 c -37.7215,0.2884 -75.4415,10.3931 -105.7316,29.2331 -17.9228,11.7362 -32.0369,28.4715 -35.5444,47.5189 -2.8319,13.9831 -2.8891,28.2087 -4.1604,42.3183 -1.4532,25.9215 1.548,52.3933 12.6247,76.7963 12.4548,25.0646 40.6597,44.4088 72.8626,48.9676 26.0588,4.4566 52.8125,3.9049 79.164,6.3035 41.8338,2.7644 84.0029,4.1953 125.8258,0.5209 32.5602,-2.0775 65.7212,-3.7481 96.7938,-12.814 22.6332,-7.0962 43.9296,-19.2362 56.3376,-36.8943 12.1611,-17.2595 15.5782,-37.6548 15.8779,-57.3707 0.9197,-25.561 -2.6321,-51.8574 -15.876,-75.1947 -13.1492,-20.6148 -36.3641,-35.654 -61.6998,-44.8911 -39.3646,-14.854 -82.2466,-23.6417 -125.5446,-24.0347 -33.8549,-0.8597 -67.7287,-0.1102 -101.5908,-0.4596 -3.1129,-0.011 -6.2259,-0.011 -9.3388,5e-4 z"
       id="path3280-8-0-3"
       inkscape:connector-curvature="0"
       sodipodi:nodetypes="csssc" />
    <path
       style="color:#000000;display:inline;overflow:visible;visibility:visible;fill:#ffffff;fill-opacity:1;fill-rule:nonzero;stroke:none;stroke-width:1px;marker:none;enable-background:accumulate"
       d="m 2043.5678,2501.161 c -35.0529,-23.7474 -46.172,-34.2743 -37.5356,-84.9721 8.6364,-50.6978 -9.5224,-52.9142 -9.5224,-52.9142 l -22.7877,26.3611 c 0,0 -11.1894,109.1725 69.8457,111.5252 z"
       id="path3072-6"
       inkscape:connector-curvature="0" />
    <path
       style="color:#000000;display:inline;overflow:visible;visibility:visible;fill:#ffffff;fill-opacity:1;fill-rule:nonzero;stroke:none;stroke-width:1px;marker:none;enable-background:accumulate"
       d="m 2020.2543,1993.5216 c -38.4707,-17.6819 -51.1646,-26.2444 -50.9531,-77.6721 0.2114,-51.4277 -18.0652,-50.6383 -18.0652,-50.6383 l -18.1596,29.7391 c 0,0 6.8528,109.5303 87.1779,98.5713 z"
       id="path3072-6-3"
       inkscape:connector-curvature="0" />
  </g>
  <g
     inkscape:groupmode="layer"
     id="layer1"
     inkscape:label="txt">
    <text
       id="text4178-3"
       y="1703.0369"
       x="1796.0411"
       style="font-style:normal;font-variant:normal;font-weight:normal;font-stretch:normal;line-height:0%;font-family:Lavi;-inkscape-font-specification:Lavi;text-align:start;letter-spacing:0px;word-spacing:0px;text-anchor:start;fill:#000000;fill-opacity:1;stroke:none"
       xml:space="preserve"><tspan
         y="1703.0369"
         x="1796.0411"
         style="font-size:40.6767px;line-height:1.25;text-align:start;text-anchor:start"
         sodipodi:role="line"
         id="tspan646">Finalmente...</tspan></text>
    <text
       id="text4178-3-36"
       y="1777.5942"
       x="1885.3979"
       style="font-style:normal;font-variant:normal;font-weight:normal;font-stretch:normal;line-height:0%;font-family:Lavi;-inkscape-font-specification:Lavi;text-align:start;letter-spacing:0px;word-spacing:0px;text-anchor:start;fill:#000000;fill-opacity:1;stroke:none"
       xml:space="preserve"><tspan
         y="1777.5942"
         x="1885.3979"
         style="font-size:40.6767px;line-height:1.25;text-align:center;text-anchor:middle"
         sodipodi:role="line"
         id="tspan646-6">Siamo</tspan><tspan
         y="1828.4401"
         x="1885.3979"
         style="font-size:40.6767px;line-height:1.25;text-align:center;text-anchor:middle"
         sodipodi:role="line"
         id="tspan7589">riusciti a porre</tspan><tspan
         y="1879.286"
         x="1885.3979"
         style="font-size:40.6767px;line-height:1.25;text-align:center;text-anchor:middle"
         sodipodi:role="line"
         id="tspan7581">fine alle sue</tspan><tspan
         y="1930.1318"
         x="1885.3979"
         style="font-size:40.6767px;line-height:1.25;text-align:center;text-anchor:middle"
         sodipodi:role="line"
         id="tspan7583">sofferenze!</tspan></text>
    <text
       id="text4178-3-3"
       y="2109.2441"
       x="1955.9628"
       style="font-style:normal;font-variant:normal;font-weight:normal;font-stretch:normal;line-height:0%;font-family:Lavi;-inkscape-font-specification:Lavi;text-align:start;letter-spacing:0px;word-spacing:0px;text-anchor:start;fill:#000000;fill-opacity:1;stroke:none"
       xml:space="preserve"><tspan
         y="2109.2441"
         x="1955.9628"
         style="font-size:40.6767px;line-height:1.25;text-align:center;text-anchor:middle"
         sodipodi:role="line"
         id="tspan441">Sì, è stato difficile,</tspan><tspan
         y="2160.0901"
         x="1955.9628"
         style="font-size:40.6767px;line-height:1.25;text-align:center;text-anchor:middle"
         sodipodi:role="line"
         id="tspan8332">il che spiega</tspan><tspan
         y="2210.9358"
         x="1955.9628"
         style="font-size:40.6767px;line-height:1.25;text-align:center;text-anchor:middle"
         sodipodi:role="line"
         id="tspan8334">perché così tanti</tspan><tspan
         y="2261.7817"
         x="1955.9628"
         style="font-size:40.6767px;line-height:1.25;text-align:center;text-anchor:middle"
         sodipodi:role="line"
         id="tspan8336">sono rimasti lì...</tspan></text>
    <text
       id="text4178-3-3-8"
       y="2341.9531"
       x="1919.269"
       style="font-style:normal;font-variant:normal;font-weight:normal;font-stretch:normal;line-height:0%;font-family:Lavi;-inkscape-font-specification:Lavi;text-align:center;letter-spacing:0px;word-spacing:0px;text-anchor:middle;fill:#000000;fill-opacity:1;stroke:none"
       xml:space="preserve"><tspan
         y="2341.9531"
         x="1919.269"
         style="font-size:40.6767px;line-height:1.25;text-align:center;text-anchor:middle"
         sodipodi:role="line"
         id="tspan875-2">Come sta</tspan><tspan
         y="2392.7991"
         x="1919.269"
         style="font-size:40.6767px;line-height:1.25;text-align:center;text-anchor:middle"
         sodipodi:role="line"
         id="tspan9790">Brasic?</tspan></text>
    <text
       id="text4178-3-3-8-3"
       y="2786.5427"
       x="160.74423"
       style="font-style:normal;font-variant:normal;font-weight:normal;font-stretch:normal;font-size:16.0044px;line-height:0%;font-family:Lavi;-inkscape-font-specification:Lavi;text-align:start;letter-spacing:0px;word-spacing:0px;text-anchor:start;fill:#000000;fill-opacity:1;stroke:none;stroke-width:1"
       xml:space="preserve"><tspan
         y="2786.5427"
         x="160.74423"
         style="font-size:54.2508px;line-height:1.25;text-align:start;text-anchor:start;stroke-width:1"
         sodipodi:role="line"
         id="tspan875-2-7">Brasic?...<tspan
   style="font-weight:bold;stroke-width:1"
   id="tspan1258">Brasic!</tspan></tspan></text>
    <text
       id="text4178-3-3-8-5"
       y="2764.2322"
       x="816.37103"
       style="font-style:normal;font-variant:normal;font-weight:normal;font-stretch:normal;font-size:12.743px;line-height:0%;font-family:Lavi;-inkscape-font-specification:Lavi;text-align:start;letter-spacing:0px;word-spacing:0px;text-anchor:start;fill:#000000;fill-opacity:1;stroke:none;stroke-width:1"
       xml:space="preserve"><tspan
         y="2764.2322"
         x="816.37103"
         style="font-size:43.1951px;line-height:1.25;text-align:center;text-anchor:middle;stroke-width:1"
         sodipodi:role="line"
         id="tspan454">Dannazione,</tspan><tspan
         y="2818.2261"
         x="816.37103"
         style="font-size:43.1951px;line-height:1.25;text-align:center;text-anchor:middle;stroke-width:1"
         sodipodi:role="line"
         id="tspan14896">non mi ero</tspan><tspan
         y="2872.22"
         x="816.37103"
         style="font-size:43.1951px;line-height:1.25;text-align:center;text-anchor:middle;stroke-width:1"
         sodipodi:role="line"
         id="tspan14894">accorto che eri</tspan><tspan
         y="2926.2139"
         x="816.37103"
         style="font-size:43.1951px;line-height:1.25;text-align:center;text-anchor:middle;stroke-width:1"
         sodipodi:role="line"
         id="tspan14892">così malconcio!</tspan></text>
    <text
       id="text4178-3-3-8-3-2"
       y="2797.6079"
       x="1946.531"
       style="font-style:normal;font-variant:normal;font-weight:normal;font-stretch:normal;font-size:17.5168px;line-height:0%;font-family:Lavi;-inkscape-font-specification:Lavi;text-align:start;letter-spacing:0px;word-spacing:0px;text-anchor:start;fill:#000000;fill-opacity:1;stroke:none;stroke-width:1"
       xml:space="preserve"><tspan
         y="2797.6079"
         x="1946.531"
         style="font-size:59.3774px;line-height:1.25;text-align:start;text-anchor:start;stroke-width:1"
         sodipodi:role="line"
         id="tspan875-2-7-2"><tspan
           style="font-weight:bold;stroke-width:1"
           id="tspan1258-8">Guaritrice!</tspan></tspan></text>
    <text
       id="text4178-3-3-8-3-2-9"
       y="2878.3738"
       x="2130.3899"
       style="font-style:normal;font-variant:normal;font-weight:normal;font-stretch:normal;font-size:15.6623px;line-height:0%;font-family:Lavi;-inkscape-font-specification:Lavi;text-align:start;letter-spacing:0px;word-spacing:0px;text-anchor:start;fill:#000000;fill-opacity:1;stroke:none;stroke-width:1"
       xml:space="preserve"><tspan
         y="2878.3738"
         x="2130.3899"
         style="font-size:53.0911px;line-height:1.25;text-align:center;text-anchor:middle;stroke-width:1"
         sodipodi:role="line"
         id="tspan1366">Abbiamo</tspan><tspan
         y="2944.7375"
         x="2130.3899"
         style="font-size:53.0911px;line-height:1.25;text-align:center;text-anchor:middle;stroke-width:1"
         sodipodi:role="line"
         id="tspan15626">bisogno di aiuto,</tspan><tspan
         y="3011.1016"
         x="2130.3899"
         style="font-size:53.0911px;line-height:1.25;text-align:center;text-anchor:middle;stroke-width:1"
         sodipodi:role="line"
         id="tspan15628"><tspan
           style="font-weight:bold"
           id="tspan15634">PRESTO!</tspan></tspan></text>
  </g>
</svg>
