<?xml version="1.0" encoding="UTF-8" standalone="no"?>
<!-- Created with Inkscape (http://www.inkscape.org/) -->

<svg
   id="svg2"
   version="1.1"
   inkscape:version="1.2.2 (b0a8486541, 2022-12-01)"
   width="2481"
   height="3503"
   sodipodi:docname="E38P08.svg"
   xmlns:inkscape="http://www.inkscape.org/namespaces/inkscape"
   xmlns:sodipodi="http://sodipodi.sourceforge.net/DTD/sodipodi-0.dtd"
   xmlns:xlink="http://www.w3.org/1999/xlink"
   xmlns="http://www.w3.org/2000/svg"
   xmlns:svg="http://www.w3.org/2000/svg"
   xmlns:rdf="http://www.w3.org/1999/02/22-rdf-syntax-ns#"
   xmlns:cc="http://creativecommons.org/ns#"
   xmlns:dc="http://purl.org/dc/elements/1.1/">
  <metadata
     id="metadata8">
    <rdf:RDF>
      <cc:Work
         rdf:about="">
        <dc:format>image/svg+xml</dc:format>
        <dc:type
           rdf:resource="http://purl.org/dc/dcmitype/StillImage" />
        <dc:title />
      </cc:Work>
    </rdf:RDF>
  </metadata>
  <defs
     id="defs6">
    <filter
       style="color-interpolation-filters:sRGB"
       inkscape:label="Drop Shadow"
       id="filter5534"
       x="-0.019009977"
       y="-0.09021098"
       width="1.0490441"
       height="1.2327364">
      <feFlood
         flood-opacity="1"
         flood-color="rgb(0,0,0)"
         result="flood"
         id="feFlood5536" />
      <feComposite
         in="flood"
         in2="SourceGraphic"
         operator="in"
         result="composite1"
         id="feComposite5538" />
      <feGaussianBlur
         in="composite1"
         stdDeviation="1"
         result="blur"
         id="feGaussianBlur5540" />
      <feOffset
         dx="2.5"
         dy="2.5"
         result="offset"
         id="feOffset5542" />
      <feComposite
         in="SourceGraphic"
         in2="offset"
         operator="over"
         result="composite2"
         id="feComposite5544" />
    </filter>
  </defs>
  <sodipodi:namedview
     pagecolor="#ffffff"
     bordercolor="#666666"
     borderopacity="1"
     objecttolerance="10"
     gridtolerance="10"
     guidetolerance="10"
     inkscape:pageopacity="0"
     inkscape:pageshadow="2"
     inkscape:window-width="1920"
     inkscape:window-height="1011"
     id="namedview4"
     showgrid="false"
     inkscape:zoom="0.4496133"
     inkscape:cx="1257.7475"
     inkscape:cy="693.92965"
     inkscape:window-x="0"
     inkscape:window-y="32"
     inkscape:window-maximized="1"
     inkscape:current-layer="layer1"
     inkscape:showpageshadow="0"
     inkscape:pagecheckerboard="0"
     inkscape:deskcolor="#d1d1d1" />
  <g
     inkscape:groupmode="layer"
     id="layer2"
     inkscape:label="artwork"
     sodipodi:insensitive="true">
    <image
       xlink:href="../gfx_Pepper-and-Carrot_by-David-Revoy_E38P08.png"
       y="0"
       x="0"
       id="image10"
       height="3503"
       width="2481" />
  </g>
  <g
     inkscape:groupmode="layer"
     id="layer3"
     inkscape:label="speechbubbles">
    <path
       style="color:#000000;display:inline;overflow:visible;visibility:visible;fill:#ffffff;fill-opacity:1;fill-rule:nonzero;stroke:none;stroke-width:0.999994px;marker:none;enable-background:accumulate"
       d="m 1567.4037,126.02054 c -6.0944,16.10211 -40.4673,17.45228 -53.1208,14.17992 25.5066,18.0136 24.6174,29.20583 -10.0136,30.9433 54.6977,26.86926 9.5701,25.81881 1.2562,35.78535 68.0301,1.18702 31.2396,22.41868 17.0799,38.97383 91.9152,-38.00874 83.7462,-5.79467 64.7707,15.59556 26.4598,-19.97243 37.8819,-16.08149 25.0617,7.69105 26.7428,-30.50092 50.0067,-29.61535 42.7547,4.98284 13.9685,-23.64273 44.6275,-22.69518 43.5553,5.50315 17.8775,-27.92433 38.4113,-39.51872 80.2652,-13.10818 -18.2024,-20.55091 2.1295,-39.74491 47.2074,-25.54931 -3.7274,-10.97182 5.2485,-18.51422 25.5193,-22.99308 -26.9366,-6.62771 -31.901,-13.46423 18.1143,-20.82102 -38.0588,-0.71212 -73.5486,-2.17027 -28.8976,-27.25955 -14.0083,-0.60771 -47.2443,20.32843 -31.7485,-40.94064 -24.0879,19.61453 -49.7877,30.44 -82.0176,-10.64699 -15.2527,20.52654 -41.7081,30.68362 -53.2177,5.04463 -4.1366,10.92988 -21.2898,15.04107 -35.8517,15.53902 -5.631,-4.34143 -11.4389,-10.23828 -17.4995,-17.96451 -9.9057,16.22258 -24.7235,27.17923 -53.2177,5.04463 z"
       id="path3549-3-7-3"
       inkscape:connector-curvature="0"
       sodipodi:nodetypes="cccccccccccccccccccc" />
    <path
       style="fill:#ffffff;stroke:none;stroke-width:0.9912"
       d="m 1731.5826,304.32145 c 1.6348,-83.14404 52.0731,-144.32641 279.9395,-131.17492 227.8661,13.15148 344.2359,8.49645 339.8751,122.86706 -4.1238,108.14562 -153.3519,111.80054 -325.876,115.29492 -177.854,3.60198 -287.4713,-30.25317 -293.9386,-106.98706 z"
       id="path3280-81"
       inkscape:connector-curvature="0"
       sodipodi:nodetypes="csssc" />
    <path
       style="fill:#ffffff;fill-rule:evenodd;stroke:none;stroke-width:0.999994px;stroke-linecap:butt;stroke-linejoin:miter;stroke-opacity:1"
       d="m 1494.7724,1761.5817 c -2.0098,19.7995 -7.7849,40.8599 -13.676,46.0561 -5.8913,5.1962 -27.304,11.7217 -20.9981,28.3069 3.1992,10.3066 9.5667,17.9873 6.2224,22.7116 -5.2605,7.4313 -37.3613,4.8901 -43.538,-0.9931 15.8001,12.3315 53.6391,21.8007 57.4553,4.2689 4.0515,-18.6121 -3.5146,-16.7814 -3.8648,-30.6214 4.7772,-16.6998 29.3635,-2.0213 46.0423,-62.5645 5.6455,-31.7624 -27.6431,-7.1645 -27.6431,-7.1645 z"
       id="path1085"
       inkscape:connector-curvature="0"
       sodipodi:nodetypes="cscscsccc" />
    <path
       style="fill:#ffffff;fill-rule:evenodd;stroke:none;stroke-width:0.999994px;stroke-linecap:butt;stroke-linejoin:miter;stroke-opacity:1"
       d="m 1495.3786,1734.9498 c -18.0459,0.2801 -36.706,1.3221 -53.3444,9.0006 -9.7719,4.5627 -15.6855,14.5599 -18.5456,24.5925 -3.5281,11.4528 -2.5055,24.999 5.2721,34.5297 7.2356,8.6642 18.4843,12.4439 29.2477,14.4028 21.537,4.2152 43.8942,7.1311 65.6759,2.9636 16.6466,-3.8013 32.3534,-13.1982 42.2615,-27.2742 3.8407,-7.6158 1.9494,-16.6482 -1.329,-24.1026 -8.3355,-19.7687 -29.0743,-33.1073 -50.369,-33.6622 -6.275,-0.5213 -12.5779,-0.4846 -18.8692,-0.4502 z"
       id="path1365"
       inkscape:connector-curvature="0" />
    <path
       style="display:inline;fill:#ffffff;fill-rule:evenodd;stroke:none;stroke-width:0.999999px;stroke-linecap:butt;stroke-linejoin:miter;stroke-opacity:1"
       d="m 1619.9228,212.68687 c -69.4628,4.13332 -55.0837,53.10639 -63.4888,67.67509 -5.8022,10.05679 -43.9552,-12.31757 -64.3802,34.17132 29.3302,-30.16987 62.9693,-8.16846 71.2923,-13.87627 28.5796,-19.59928 4.7199,-51.48808 42.3477,-51.57698 9.3659,-0.0222 14.229,-36.39316 14.229,-36.39316 z"
       id="path4186-80"
       inkscape:connector-curvature="0"
       sodipodi:nodetypes="cscssc" />
    <path
       style="display:inline;fill:#ffffff;stroke:none;stroke-width:1"
       d="m 1892.7336,3010.9215 c -22.6123,0.775 -45.2717,0.7351 -67.8325,2.6318 -21.4188,2.1223 -43.1071,6.8652 -61.87,18.0478 -18.8605,11.7244 -33.4676,31.4326 -37.1356,53.9087 -2.7212,19.4918 7.4166,39.7058 23.7469,49.8453 14.933,10.0745 32.7807,13.9741 50.1972,16.7799 32.9598,5.8666 66.5058,10.4829 100.0149,7.7205 23.0814,-1.6662 46.1574,-4.1151 68.89,-8.6069 16.7316,-3.5855 33.3711,-10.1051 46.3011,-21.8281 18.5589,-17.2319 23.0431,-47.5859 11.3572,-70.0543 -5.9316,-11.6026 -16.1411,-20.344 -27.4628,-26.1571 -22.3846,-11.3044 -46.9091,-17.6485 -71.6043,-20.8239 -11.487,-1.269 -23.0553,-1.5789 -34.6021,-1.4637 z"
       id="path3280-8-3"
       inkscape:connector-curvature="0"
       sodipodi:nodetypes="csssc" />
    <path
       style="color:#000000;display:inline;overflow:visible;visibility:visible;fill:#ffffff;fill-opacity:1;fill-rule:nonzero;stroke:none;stroke-width:0.999996px;marker:none;enable-background:accumulate"
       d="m 1987.2378,2924.0675 c 0.7412,22.4835 -1.1706,25.1374 -13.1235,28.9922 -11.9535,3.8545 -30.1843,5.9728 -40.9317,24.483 -10.7482,18.5098 -6.5114,24.1246 -7.239,30.7667 -32.209,25.2837 -36.1693,46.3274 -47.2797,51.4024 -11.1103,5.0752 31.07,7.4638 31.07,7.4638 0,0 5.0271,-18.3455 23.9431,-26.6396 18.9158,-8.2941 11.5753,-40.5593 16.9296,-54.1957 5.3544,-13.6364 30.4875,-17.8239 37.0686,-27.9385 6.5818,-10.1143 2.4588,-23.9852 -0.4374,-34.3343 z"
       id="path4538-7"
       inkscape:connector-curvature="0"
       sodipodi:nodetypes="ccscccsscc" />
    <path
       style="display:inline;fill:#ffffff;fill-rule:evenodd;stroke:none;stroke-width:1px;stroke-linecap:butt;stroke-linejoin:miter;stroke-opacity:1"
       d="m 612.40766,2384.8964 c -20.62092,-1.78 -50.52425,10.9133 -33.1802,47.5442 -37.86839,-24.0046 -91.01309,-32.6228 -103.51706,7.3647 -2.10436,-48.9082 -37.73204,-37.3945 -58.68083,-25.6171 19.93718,-20.0798 1.33436,-34.6025 -18.29542,-35.0345 27.88674,-24.1613 10.82415,-49.566 -5.8229,-64.8211 40.98937,10.3254 30.67706,-13.0346 35.28998,-26.5938 35.55127,29.1792 60.84561,21.1225 80.39788,-7.7797 10.80192,14.9989 14.70712,46.6159 52.513,-3.455 -13.44007,42.5824 5.14755,37.5364 34.98129,15.7674 -4.4636,14.4998 -32.20539,37.2528 15.18131,33.3715 -29.36541,14.6273 -35.22496,33.3043 1.13295,59.2534 z"
       id="path4584-8"
       inkscape:connector-curvature="0"
       sodipodi:nodetypes="cccccccccccc" />
    <path
       style="color:#000000;display:inline;overflow:visible;visibility:visible;fill:#ffffff;fill-opacity:1;fill-rule:nonzero;stroke:none;stroke-width:1px;marker:none;enable-background:accumulate"
       d="m 541.24941,2433.9703 c -5.74807,20.7643 -38.16816,22.5061 -50.10288,18.2854 24.05761,23.2288 23.21889,37.6616 -9.44456,39.9015 54.77726,41.8652 10.01398,35.5301 1.18482,46.145 43.01023,14.428 28.75442,36.2948 1.14734,46.3464 49.43608,0.614 37.46832,15.3496 18.75189,36.5542 21.88826,-13.8828 87.34603,-28.3351 67.41542,8.7747 31.71433,-31.7087 37.51308,-27.4341 48.98155,8.4214 9.57977,-30.9183 42.19937,-36.8689 54.67242,-3.5246 10.74473,-45.1268 49.08317,-38.7735 71.90465,-16.903 -12.81091,-15.4353 -4.07505,-40.8509 39.60193,-35.711 -3.51559,-14.1493 2.01303,-32.0078 24.06944,-29.6496 -25.40625,-8.5462 -30.08847,-17.3627 17.08513,-26.8498 -35.89637,-0.9167 -69.37001,-2.7973 -27.25573,-35.1514 -13.21239,-0.7827 -44.5602,26.2143 -29.94469,-52.7913 -38.69619,23.2962 -79.3584,35.2056 -77.35784,-13.7294 -14.3862,26.4686 -39.33876,39.566 -50.19441,6.5051 -8.96135,30.8837 -36.18035,17.9515 -50.32014,-3.1276 -9.34287,20.9186 -23.31883,35.0474 -50.19434,6.504 z"
       id="path3549-3-7-8"
       inkscape:connector-curvature="0"
       sodipodi:nodetypes="ccccccccccccccccccc" />
    <path
       style="color:#000000;display:inline;overflow:visible;visibility:visible;fill:#ffffff;fill-opacity:1;fill-rule:nonzero;stroke:none;stroke-width:1px;marker:none;enable-background:accumulate"
       d="m 837.53957,2746.6022 c 4.98679,-11.8403 33.113,-12.8331 43.46703,-10.4264 -20.87132,-13.2455 -20.1437,-21.4751 8.19365,-22.7529 -47.52226,-23.8718 -8.68769,-20.2595 -1.02784,-26.3127 -37.3138,-8.2268 -20.61921,-18.4652 -13.97606,-28.6574 -42.88852,-0.35 -28.85307,-16.6877 -30.66074,-29.6996 -3.63591,6.1058 -20.90912,24.6944 -21.94843,3.9972 -28.36824,19.7462 -62.53706,32.5013 -65.25017,-2.0547 -11.43005,17.3842 -22.82578,24.7315 -21.94843,3.9972 -28.32006,26.9675 -53.76956,18.4253 -90.09151,-2.786 14.71946,18.6226 2.83146,33.845 -32.70654,21.208 27.1737,13.8916 9.87316,22.5434 -6.71374,25.8366 22.04135,4.8735 26.10349,9.9003 -14.82231,15.31 31.1421,0.5232 60.18238,1.5953 23.64587,20.0438 11.46254,0.4464 46.59081,-0.3898 16.29686,29.5186 19.71042,-14.4222 66.85407,-16.9191 46.12912,14.3153 39.41501,-32.3643 64.79353,-28.4635 74.21136,-9.6113 3.38496,-8.0371 17.42081,-11.0596 29.33621,-11.4262 4.60771,3.1925 9.36002,7.5286 14.31927,13.2097 8.10548,-11.9287 20.23042,-19.9849 43.5464,-3.7092 z"
       id="path3549-3-7"
       inkscape:connector-curvature="0"
       sodipodi:nodetypes="cccccccccccccccccccc" />
    <path
       style="color:#000000;display:inline;overflow:visible;visibility:visible;fill:#ffffff;fill-opacity:1;fill-rule:nonzero;stroke:none;stroke-width:1px;marker:none;enable-background:accumulate"
       d="m 1425.2177,1085.1328 c 80.0918,-82.1121 18.6409,-154.68778 -67.2831,-207.14725 -67.0115,-40.91276 -1.5003,-29.7247 -1.5003,-29.7247 l 14.7972,-9.58081 c 0,0 204.6945,151.5581 53.9862,246.45276 z"
       id="path3072-06-3"
       inkscape:connector-curvature="0"
       sodipodi:nodetypes="csccc" />
    <path
       style="color:#000000;display:inline;overflow:visible;visibility:visible;fill:#ffffff;fill-opacity:1;fill-rule:nonzero;stroke:none;stroke-width:0.999997px;marker:none;enable-background:accumulate"
       d="m 1106.5796,887.55968 c -7.2565,-28.63573 12.0941,-104.69914 160.8523,-98.43498 148.758,6.26381 172.9464,42.05845 176.5746,52.7969 3.6283,10.73837 35.0731,71.58902 -81.0308,87.6967 -116.1039,16.10759 -220.1136,-0.89493 -256.3961,-42.05862 z"
       id="path3525-9-36"
       inkscape:connector-curvature="0" />
    <path
       style="color:#000000;display:inline;overflow:visible;visibility:visible;fill:#ffffff;fill-opacity:1;fill-rule:nonzero;stroke:none;stroke-width:0.999999px;marker:none;enable-background:accumulate"
       d="m 1465.936,890.13421 c -8.9246,-26.999 14.8742,-98.71475 197.8273,-92.80874 182.953,5.90582 212.7018,39.65459 217.164,49.77924 4.4621,10.12456 43.1352,67.49731 -99.6574,82.68433 -142.793,15.18675 -270.7111,-0.84394 -315.3339,-39.65483 z"
       id="path3525-9-3-6-2-1"
       inkscape:connector-curvature="0" />
    <path
       style="color:#000000;display:inline;overflow:visible;visibility:visible;fill:#ffffff;fill-opacity:1;fill-rule:nonzero;stroke:none;stroke-width:1px;marker:none;enable-background:accumulate"
       d="m 1516.3747,968.11345 c -6.7064,-26.81977 11.1772,-98.05945 148.6581,-92.19263 137.4808,5.8666 159.8356,39.39134 163.1887,49.44878 3.3532,10.05735 32.4142,67.04925 -74.8879,82.1353 -107.3023,15.086 -203.427,-0.8383 -236.9589,-39.39145 z"
       id="path3525-9-3-6-2-1-0"
       inkscape:connector-curvature="0" />
    <path
       style="color:#000000;display:inline;overflow:visible;visibility:visible;fill:#ffffff;fill-opacity:1;fill-rule:nonzero;stroke:none;stroke-width:1px;marker:none;enable-background:accumulate"
       d="m 1578.949,1099.4279 c -53.0613,-49.7817 -29.4916,-102.39863 19.7088,-140.05585 65.1289,-49.84897 36.059,-50.96714 36.059,-50.96714 l -49.0441,25.01022 c 0,0 -125.6001,91.47357 -6.7237,166.01277 z"
       id="path3072-6-2-7"
       inkscape:connector-curvature="0"
       sodipodi:nodetypes="csccc" />
    <path
       style="color:#000000;display:inline;overflow:visible;visibility:visible;fill:#ffffff;fill-opacity:1;fill-rule:nonzero;stroke:none;stroke-width:0.999997px;marker:none;enable-background:accumulate"
       d="m 2251.962,1084.6446 c 33.9016,-49.7817 18.8426,-102.39865 -12.5922,-140.05585 -41.6116,-49.84901 -23.0385,-50.96718 -23.0385,-50.96718 l 31.3349,25.01018 c 0,0 80.2475,91.47365 4.2958,166.01285 z"
       id="path3072-6-2-7-2"
       inkscape:connector-curvature="0"
       sodipodi:nodetypes="csccc" />
    <path
       style="color:#000000;display:inline;overflow:visible;visibility:visible;fill:#ffffff;fill-opacity:1;fill-rule:nonzero;stroke:none;stroke-width:1px;marker:none;enable-background:accumulate"
       d="m 1922.3816,936.72518 c -8.2549,-29.38379 13.7579,-107.4339 182.9805,-101.00618 169.2227,6.42741 196.7388,43.15714 200.8662,54.17591 4.1272,11.01897 39.8978,73.45916 -92.1784,89.98762 -132.0763,16.52805 -250.3945,-0.91844 -291.6683,-43.15735 z"
       id="path3525-9-3-6-2"
       inkscape:connector-curvature="0" />
    <path
       style="color:#000000;display:inline;overflow:visible;visibility:visible;fill:#ffffff;fill-opacity:1;fill-rule:nonzero;stroke:none;stroke-width:1px;marker:none;enable-background:accumulate"
       d="m 1531.4569,1700.5719 c -23.8415,-32.5361 -17.0118,-112.1846 147.4558,-108.0653 142.6407,3.5726 168.1199,33.1471 172.2851,43.7947 4.1654,10.6475 38.1779,70.397 -71.8144,92.9197 -109.9923,22.5228 -210.5624,10.9605 -247.9265,-28.6491 z"
       id="path3525"
       inkscape:connector-curvature="0"
       sodipodi:nodetypes="cscsc" />
    <path
       style="color:#000000;display:inline;overflow:visible;visibility:visible;fill:#ffffff;fill-opacity:1;fill-rule:nonzero;stroke:none;stroke-width:1px;marker:none;enable-background:accumulate"
       d="m 1608.4632,1651.2723 c 20.1241,-71.6069 -3.7079,-270.868 -119.0026,-400.0031 125.0458,85.3367 158.4871,339.0967 162.3667,382.4641 3.8796,43.3676 -43.3641,17.539 -43.3641,17.539 z"
       id="path4008-2"
       inkscape:connector-curvature="0"
       sodipodi:nodetypes="ccsc" />
    <path
       style="color:#000000;display:inline;overflow:visible;visibility:visible;fill:#ffffff;fill-opacity:1;fill-rule:nonzero;stroke:none;stroke-width:1px;marker:none;enable-background:accumulate"
       d="m 1653.3284,1553.762 c -15.1993,-15.1771 13.0288,-90.0591 170.3837,-84.2591 157.3549,5.7998 182.8632,36.6675 186.6774,45.9177 3.8142,9.2503 35.6783,52.8472 -87.1823,66.3877 -122.8608,13.5404 -248.6588,-5.8024 -269.8788,-28.0463 z"
       id="path3525-9-3-6"
       inkscape:connector-curvature="0"
       sodipodi:nodetypes="csssc" />
    <path
       style="color:#000000;display:inline;overflow:visible;visibility:visible;fill:#ffffff;fill-opacity:1;fill-rule:nonzero;stroke:none;stroke-width:1px;marker:none;enable-background:accumulate"
       d="m 1676.0256,1480.6912 c -5.3771,-17.9761 9.2031,-65.6473 120.3535,-61.4195 111.1503,4.2277 129.1685,26.7283 131.8627,33.4711 2.6942,6.7428 26.0952,44.9742 -60.6895,54.8444 -86.7848,9.87 -164.4796,-1.0036 -191.5267,-26.896 z"
       id="path3525-9-3-6-6"
       inkscape:connector-curvature="0" />
    <path
       style="color:#000000;display:inline;overflow:visible;visibility:visible;fill:#ffffff;fill-opacity:1;fill-rule:nonzero;stroke:none;stroke-width:0.999997px;marker:none;enable-background:accumulate"
       d="m 1778.1481,1508.2253 c -0.5272,-15.2702 94.1578,-85.7703 13.3509,-218.1116 49.7072,116.6017 -25.1629,190.162 -37.214,205.5192 33.8772,28.7674 1.3368,6.4849 23.8631,12.5924 z"
       id="path4024-3"
       inkscape:connector-curvature="0"
       sodipodi:nodetypes="cccc" />
    <path
       style="fill:#ffffff;fill-rule:evenodd;stroke:none;stroke-width:1px;stroke-linecap:butt;stroke-linejoin:miter;stroke-opacity:1"
       d="m 126.08548,370.21305 c 10.26018,15.35417 22.62658,21.49851 41.11486,0.87563 1.41447,11.81714 14.9794,20.43758 64.38737,1.7507 -28.35747,23.58768 -16.46274,25.49744 0,24.94744 -23.91665,30.55837 -3.52103,25.82146 5.43028,30.20009 -29.31116,18.45767 -25.47052,27.11855 -11.63627,32.82589 -9.88277,11.18171 -16.78717,22.0271 3.87869,29.76202 -16.16202,3.05101 -39.0466,1.67734 -31.80578,20.13339 -25.66332,-11.67655 -43.5739,-8.48147 -58.9571,-0.43808 -13.27252,-10.70024 -14.75704,-26.94921 -51.991021,-10.61125 20.620681,-18.10259 3.168821,-24.45108 -13.172131,-30.96817 30.699572,-17.52421 6.73422,-23.62624 -17.066531,-29.76202 43.028843,-2.10738 30.799885,-21.53438 19.393819,-40.70432 20.147034,3.85058 40.365444,7.98234 50.423814,-28.01132 z"
       id="path4489"
       inkscape:connector-curvature="0"
       sodipodi:nodetypes="cccccccccccccc" />
    <path
       style="color:#000000;display:inline;overflow:visible;visibility:visible;fill:#ffffff;fill-opacity:1;fill-rule:nonzero;stroke:none;stroke-width:1px;marker:none;enable-background:accumulate"
       d="m 677.4423,2687.0412 c -9.52719,38.1772 -125.32681,100.137 -236.77661,73.3634 146.69734,41.456 230.8448,-34.6586 244.57651,-44.3624 13.73188,-9.7041 -7.7999,-29.001 -7.7999,-29.001 z"
       id="path4008"
       inkscape:connector-curvature="0"
       sodipodi:nodetypes="ccsc" />
    <path
       style="color:#000000;display:inline;overflow:visible;visibility:visible;fill:#ffffff;fill-opacity:1;fill-rule:nonzero;stroke:none;stroke-width:1.06903px;marker:none;enable-background:accumulate"
       d="M 145.49805 462.33398 C 129.24373 462.49599 112.40529 464.64299 98.085938 472.85938 C 82.396836 482.24952 73.334437 500.78923 73.950567 518.86873 C 73.906515 531.08749 73.479067 543.88068 78.662088 555.25921 C 83.514806 565.79513 92.482965 573.68624 101.65157 580.44708 C 116.47345 591.04863 134.74893 596.26011 152.88718 596.32773 C 167.81898 596.61294 182.84379 595.26825 197.36914 591.73047 C 209.28037 588.67675 221.15155 583.21672 229.03801 573.46234 C 237.38286 563.38586 242.28144 550.9084 245.34961 538.31055 C 248.6161 523.58902 247.78157 507.35582 240.08294 494.09057 C 231.00883 478.2201 214.04064 467.59528 196.06627 465.08121 C 179.39318 462.06951 162.37311 462.29574 145.49805 462.33398 z "
       id="path3565-4"
       inkscape:connector-curvature="0"
       sodipodi:nodetypes="cscsc" />
    <path
       style="color:#000000;display:inline;overflow:visible;visibility:visible;fill:#ffffff;fill-opacity:1;fill-rule:nonzero;stroke:none;stroke-width:0.999998px;marker:none;enable-background:accumulate"
       d="m 265.0009,600.67547 c -5.46768,2.83014 -11.06784,1.9649 -16.76611,-1.10172 -6.35682,-5.3756 -6.05248,-12.01158 -11.87217,-18.04123 -4.58151,-6.01767 -11.97484,-8.97812 -18.55999,-6.24228 -13.43615,3.52688 -27.11021,6.01164 -40.90801,5.4401 -13.12712,-0.31107 -28.21416,-3.718 -36.46697,-17.07489 -8.28721,-15.08736 -8.38533,-36.69372 0.77056,-51.27141 6.43335,-9.67814 21.93051,-9.47867 26.15659,2.78054 1.97734,8.0063 -0.77049,17.0243 3.28011,24.51384 5.311,12.54346 17.25695,18.96727 28.66235,19.21269 6.74453,1.1864 13.62024,2.15057 20.34467,0.11017 6.6518,-1.04265 13.25685,-5.1738 20.01803,-3.35968 8.5505,2.24193 9.04482,13.18402 10.2824,21.50234 1.32089,7.5416 9.28421,16.86911 16.46152,12.76586 8.35724,-5.1656 21.16696,-12.81517 28.9439,-24.66668 -7.31344,14.9393 -17.82945,26.56695 -30.34688,35.43235 z"
       id="path4496-9"
       inkscape:connector-curvature="0"
       inkscape:transform-center-x="20.385683"
       inkscape:transform-center-y="-25.185021"
       sodipodi:nodetypes="cccccccccccccccc" />
    <path
       style="color:#000000;display:inline;overflow:visible;visibility:visible;fill:#ffffff;fill-opacity:1;fill-rule:nonzero;stroke:none;stroke-width:1px;marker:none;enable-background:accumulate"
       d="m 1862.1189,1393.7901 c -6.2558,-30.7215 10.4263,-112.3249 138.67,-105.6045 128.2437,6.72 149.0965,45.1218 152.2243,56.6423 3.1279,11.5205 30.2364,76.8034 -69.8563,94.0841 -100.0928,17.2806 -189.759,-0.9603 -221.038,-45.1219 z"
       id="path3525-9-3-6-2-1-0-3"
       inkscape:connector-curvature="0" />
    <path
       style="color:#000000;display:inline;overflow:visible;visibility:visible;fill:#ffffff;fill-opacity:1;fill-rule:nonzero;stroke:none;stroke-width:1px;marker:none;enable-background:accumulate"
       d="m 585.89248,2504.6733 c 23.9892,60.3273 -13.67244,120.8938 -108.14839,209.2922 95.37883,-59.1546 151.749,-145.9316 144.69278,-178.8893 -6.16139,-28.7781 -36.54439,-30.4029 -36.54439,-30.4029 z"
       id="path4008-7"
       inkscape:connector-curvature="0"
       sodipodi:nodetypes="ccsc" />
    <path
       style="color:#000000;display:inline;overflow:visible;visibility:visible;fill:#ffffff;fill-opacity:1;fill-rule:nonzero;stroke:none;stroke-width:0.999998px;marker:none;enable-background:accumulate"
       d="m 468.5436,2394.2004 c -40.31312,54.8854 -75.72847,183.1138 -37.91807,292.6003 -61.60457,-144.6628 4.22365,-294.0375 29.7506,-309.3827 26.46987,-15.9121 8.16747,16.7824 8.16747,16.7824 z"
       id="path4008-9"
       inkscape:connector-curvature="0"
       sodipodi:nodetypes="ccsc" />
    <path
       style="color:#000000;display:inline;overflow:visible;visibility:visible;fill:#ffffff;fill-opacity:1;fill-rule:nonzero;stroke:none;stroke-width:1px;marker:none;enable-background:accumulate"
       d="m 2047.3699,1369.6591 c -26.5396,-37.1566 -31.1925,-95.0702 55.8017,-139.0438 -67.3517,47.4021 -55.1996,91.8111 -25.7778,124.8849 25.3992,28.5524 35.2261,42.7019 35.2261,42.7019 z"
       id="path4440-3"
       inkscape:connector-curvature="0"
       sodipodi:nodetypes="ccscc" />
  </g>
  <g
     inkscape:groupmode="layer"
     id="layer1"
     inkscape:label="txt">
    <text
       id="text4178-0-2-1-1"
       y="442.06793"
       x="156.98526"
       style="font-style:normal;font-variant:normal;font-weight:normal;font-stretch:normal;font-size:9.2552px;line-height:0%;font-family:Lavi;-inkscape-font-specification:Lavi;text-align:center;letter-spacing:0px;word-spacing:0px;text-anchor:middle;fill:#000000;fill-opacity:1;stroke:none;stroke-width:1"
       xml:space="preserve"><tspan
         y="442.06793"
         x="161.88722"
         style="font-weight:bold;font-size:31.3726px;line-height:1.25;stroke-width:1"
         sodipodi:role="line"
         id="tspan10508-3">OPS!</tspan></text>
    <text
       id="text4178-0-2-1-19"
       y="527.66827"
       x="159.58171"
       style="font-style:normal;font-variant:normal;font-weight:normal;font-stretch:normal;font-size:9.2552px;line-height:0%;font-family:Lavi;-inkscape-font-specification:Lavi;text-align:center;letter-spacing:0px;word-spacing:0px;text-anchor:middle;fill:#000000;fill-opacity:1;stroke:none;stroke-width:1"
       xml:space="preserve"><tspan
         y="527.66827"
         x="159.58171"
         style="font-weight:normal;font-size:31.3726px;line-height:1.25;stroke-width:1"
         sodipodi:role="line"
         id="tspan10508-8">No, no,</tspan><tspan
         y="566.88403"
         x="159.58171"
         style="font-weight:normal;font-size:31.3726px;line-height:1.25;stroke-width:1"
         sodipodi:role="line"
         id="tspan12091">no!</tspan></text>
    <text
       id="text4178-0"
       y="205.2328"
       x="1675.7623"
       style="font-style:normal;font-variant:normal;font-weight:normal;font-stretch:normal;font-size:13.8279px;line-height:0%;font-family:Lavi;-inkscape-font-specification:Lavi;text-align:center;letter-spacing:0px;word-spacing:0px;text-anchor:middle;fill:#000000;fill-opacity:1;stroke:none;stroke-width:1"
       xml:space="preserve"><tspan
         y="205.2328"
         x="1683.0862"
         style="font-style:normal;font-variant:normal;font-weight:bold;font-stretch:normal;font-size:46.8727px;line-height:1.25;font-family:Lavi;-inkscape-font-specification:'Lavi Bold';stroke-width:1"
         sodipodi:role="line"
         id="tspan4245-6-6">Buah ah ah!</tspan></text>
    <text
       id="text4178-0-2"
       y="234.59265"
       x="2041.3823"
       style="font-style:normal;font-variant:normal;font-weight:normal;font-stretch:normal;line-height:0%;font-family:Lavi;-inkscape-font-specification:Lavi;text-align:center;letter-spacing:0px;word-spacing:0px;text-anchor:middle;fill:#000000;fill-opacity:1;stroke:none"
       xml:space="preserve"><tspan
         y="234.59265"
         x="2041.3823"
         style="font-size:40.6767px;line-height:1.25"
         sodipodi:role="line"
         id="tspan4245-6-6-7">Guarda qua! Credo</tspan><tspan
         y="285.43854"
         x="2041.3823"
         style="font-size:40.6767px;line-height:1.25"
         sodipodi:role="line"
         id="tspan13616">che la nostra guaritrice si sia</tspan><tspan
         y="336.28439"
         x="2041.3823"
         style="font-size:40.6767px;line-height:1.25"
         sodipodi:role="line"
         id="tspan19005">un po' troppo impressionata</tspan><tspan
         y="387.13028"
         x="2041.3823"
         style="font-size:40.6767px;line-height:1.25"
         sodipodi:role="line"
         id="tspan446">al grido della bestia!</tspan></text>
    <text
       xml:space="preserve"
       style="font-style:normal;font-variant:normal;font-weight:normal;font-stretch:normal;font-size:10.42px;line-height:0%;font-family:Lavi;-inkscape-font-specification:Lavi;text-align:center;letter-spacing:0px;word-spacing:0px;text-anchor:middle;fill:#000000;fill-opacity:1;stroke:#000000;stroke-width:3.824;stroke-miterlimit:4;stroke-dasharray:none;stroke-opacity:1"
       x="1657.3848"
       y="845.25244"
       id="text4246-6-5-6-8-2"
       transform="matrix(0.96003343,0,-0.38131292,1.0416304,0,0)"><tspan
         sodipodi:role="line"
         style="font-size:55.1766px;line-height:1.25;fill:#000000;fill-opacity:1;stroke:#000000;stroke-width:3.824;stroke-miterlimit:4;stroke-dasharray:none;stroke-opacity:1"
         x="1657.3848"
         y="845.25244"
         id="tspan4252-7-3-1-7-6">Oh oh oh!</tspan></text>
    <text
       xml:space="preserve"
       style="font-style:normal;font-variant:normal;font-weight:normal;font-stretch:normal;font-size:9.34107px;line-height:0%;font-family:Lavi;-inkscape-font-specification:Lavi;text-align:center;letter-spacing:0px;word-spacing:0px;text-anchor:middle;fill:#000000;fill-opacity:1;stroke:#000000;stroke-width:3.399;stroke-miterlimit:4;stroke-dasharray:none;stroke-opacity:1"
       x="1861.427"
       y="856.27032"
       id="text4246-6-5-6-0-0-7"
       transform="matrix(0.96879238,0,-0.13947748,1.0322129,0,0)"><tspan
         sodipodi:role="line"
         style="font-size:51.342px;line-height:1.25;fill:#000000;fill-opacity:1;stroke:#000000;stroke-width:3.399;stroke-miterlimit:4;stroke-dasharray:none;stroke-opacity:1"
         x="1861.427"
         y="856.27032"
         id="tspan4252-7-3-1-2-9-9">AHAH AH!</tspan></text>
    <text
       id="text4178-0-2-1"
       y="946.56854"
       x="1683.7474"
       style="font-style:normal;font-variant:normal;font-weight:normal;font-stretch:normal;font-size:9.2552px;line-height:0%;font-family:Lavi;-inkscape-font-specification:Lavi;text-align:center;letter-spacing:0px;word-spacing:0px;text-anchor:middle;fill:#000000;fill-opacity:1;stroke:none;stroke-width:1"
       xml:space="preserve"><tspan
         y="946.56854"
         x="1683.7474"
         style="font-size:31.3726px;line-height:1.25;stroke-width:1"
         sodipodi:role="line"
         id="tspan446-2">E in più,</tspan><tspan
         y="985.7843"
         x="1683.7474"
         style="font-weight:bold;font-size:31.3726px;line-height:1.25;stroke-width:1"
         sodipodi:role="line"
         id="tspan10508">è tutta blu!</tspan></text>
    <text
       xml:space="preserve"
       style="font-style:normal;font-variant:normal;font-weight:normal;font-stretch:normal;font-size:8.91093px;line-height:0%;font-family:Lavi;-inkscape-font-specification:Lavi;text-align:center;letter-spacing:0px;word-spacing:0px;text-anchor:middle;fill:#000000;fill-opacity:1;stroke:#000000;stroke-width:3.399;stroke-miterlimit:4;stroke-dasharray:none;stroke-opacity:1"
       x="2345.4421"
       y="885.18958"
       id="text4246-6-5-6-0-0"
       transform="matrix(0.95442151,0,-0.13740852,1.0477551,0,0)"><tspan
         sodipodi:role="line"
         style="font-size:48.9779px;line-height:1.25;fill:#000000;fill-opacity:1;stroke:#000000;stroke-width:3.399;stroke-miterlimit:4;stroke-dasharray:none;stroke-opacity:1"
         x="2345.4421"
         y="885.18958"
         id="tspan4252-7-3-1-2-9">AHAH AH AH!</tspan></text>
    <text
       id="text4178-0-2-1-7"
       y="1343.0605"
       x="2013.8489"
       style="font-style:normal;font-variant:normal;font-weight:normal;font-stretch:normal;font-size:9.2552px;line-height:0%;font-family:Lavi;-inkscape-font-specification:Lavi;text-align:center;letter-spacing:0px;word-spacing:0px;text-anchor:middle;fill:#000000;fill-opacity:1;stroke:none;stroke-width:1"
       xml:space="preserve"><tspan
         y="1343.0605"
         x="2013.8489"
         style="font-weight:normal;font-size:31.3726px;line-height:1.25;stroke-width:1"
         sodipodi:role="line"
         id="tspan10904">E pensate che</tspan><tspan
         y="1382.2762"
         x="2013.8489"
         style="font-weight:normal;font-size:31.3726px;line-height:1.25;stroke-width:1"
         sodipodi:role="line"
         id="tspan11377">anche quella possa</tspan><tspan
         y="1421.4921"
         x="2013.8489"
         style="font-weight:normal;font-size:31.3726px;line-height:1.25;stroke-width:1"
         sodipodi:role="line"
         id="tspan11379">guarire?</tspan></text>
    <text
       id="text4178-0-2-1-7-8"
       y="1471.0532"
       x="1807.2041"
       style="font-style:normal;font-variant:normal;font-weight:normal;font-stretch:normal;font-size:9.2552px;line-height:0%;font-family:Lavi;-inkscape-font-specification:Lavi;text-align:center;letter-spacing:0px;word-spacing:0px;text-anchor:middle;fill:#000000;fill-opacity:1;stroke:none;stroke-width:1"
       xml:space="preserve"><tspan
         y="1471.0532"
         x="1807.2041"
         style="font-weight:normal;font-size:31.3726px;line-height:1.25;stroke-width:1"
         sodipodi:role="line"
         id="tspan11379-3">Arf, che schifo!</tspan></text>
    <text
       xml:space="preserve"
       style="font-style:normal;font-variant:normal;font-weight:normal;font-stretch:normal;line-height:0%;font-family:Lavi;-inkscape-font-specification:Lavi;text-align:center;letter-spacing:0px;word-spacing:0px;text-anchor:middle;fill:#000000;fill-opacity:1;stroke:#000000;stroke-width:3.71961;stroke-miterlimit:4;stroke-dasharray:none;stroke-opacity:1"
       x="2084.0078"
       y="1513.5232"
       id="text4246-6-5-6-0"
       transform="matrix(0.98303641,0.00256037,-0.14417769,1.0168808,0,0)"><tspan
         sodipodi:role="line"
         style="font-size:42.3038px;line-height:1.25;fill:#000000;fill-opacity:1;stroke:#000000;stroke-width:3.71961;stroke-miterlimit:4;stroke-dasharray:none;stroke-opacity:1"
         x="2084.0078"
         y="1513.5232"
         id="tspan4252-7-3-1-2">AHAH AH AH!</tspan></text>
    <text
       xml:space="preserve"
       style="font-style:normal;font-variant:normal;font-weight:normal;font-stretch:normal;line-height:0%;font-family:Lavi;-inkscape-font-specification:Lavi;text-align:center;letter-spacing:0px;word-spacing:0px;text-anchor:middle;fill:#000000;fill-opacity:1;stroke:#000000;stroke-width:4.396;stroke-miterlimit:4;stroke-dasharray:none;stroke-opacity:1"
       x="2017.9332"
       y="1586.5625"
       id="text4246-6-5-6"
       transform="matrix(0.96222298,0.01896228,-0.15900417,1.0361267,0,0)"><tspan
         sodipodi:role="line"
         style="font-size:49.9966px;line-height:1.25;fill:#000000;fill-opacity:1;stroke:#000000;stroke-width:4.396;stroke-miterlimit:4;stroke-dasharray:none;stroke-opacity:1"
         x="2017.9332"
         y="1586.5625"
         id="tspan4252-7-3-1">OHOH OH!</tspan></text>
    <text
       xml:space="preserve"
       style="font-style:normal;font-variant:normal;font-weight:normal;font-stretch:normal;font-size:12.1417px;line-height:0%;font-family:Lavi;-inkscape-font-specification:Lavi;text-align:center;letter-spacing:0px;word-spacing:0px;text-anchor:middle;fill:#000000;fill-opacity:1;stroke:none;stroke-width:1"
       x="1466.2289"
       y="1818.7811"
       id="text4246-3-7-7-6-7-2-9-6-1-4-3-1"
       transform="scale(1.0184904,0.98184529)"><tspan
         sodipodi:role="line"
         style="font-style:normal;font-variant:normal;font-weight:bold;font-stretch:normal;font-size:45.5315px;line-height:1.2;font-family:Lavi;-inkscape-font-specification:'Lavi Bold';stroke-width:1"
         x="1466.2289"
         y="1818.7811"
         id="tspan1249-3">...</tspan></text>
    <text
       xml:space="preserve"
       style="font-style:normal;font-variant:normal;font-weight:normal;font-stretch:normal;font-size:11.1611px;line-height:0%;font-family:Lavi;-inkscape-font-specification:Lavi;text-align:center;letter-spacing:0px;word-spacing:0px;text-anchor:middle;fill:#000000;fill-opacity:1;stroke:none;stroke-width:1.95098;stroke-miterlimit:4;stroke-dasharray:none"
       x="563.37299"
       y="2089.1392"
       id="text4246-6"
       transform="scale(0.88023427,1.1360612)"><tspan
         sodipodi:role="line"
         style="font-style:normal;font-variant:normal;font-weight:normal;font-stretch:normal;font-size:41.8542px;line-height:1.2;font-family:Lavi;-inkscape-font-specification:Lavi;stroke:#000000;stroke-width:1.95098;stroke-miterlimit:4;stroke-dasharray:none;stroke-opacity:1"
         x="563.37299"
         y="2089.1392"
         id="tspan4252-1">EHI!</tspan></text>
    <text
       id="text4178-0-1"
       y="2493.2842"
       x="645.75696"
       style="font-style:normal;font-variant:normal;font-weight:normal;font-stretch:normal;font-size:10.2299px;line-height:0%;font-family:Lavi;-inkscape-font-specification:Lavi;text-align:center;letter-spacing:0px;word-spacing:0px;text-anchor:middle;fill:#000000;fill-opacity:1;stroke:none;stroke-width:1"
       xml:space="preserve"><tspan
         y="2493.2842"
         x="645.75696"
         style="font-weight:bold;font-size:34.6764px;line-height:1.25;stroke-width:1"
         sodipodi:role="line"
         id="tspan4245-6-6-5">Aspetta!</tspan><tspan
         y="2536.6296"
         x="645.75696"
         style="font-size:34.6764px;line-height:1.25;stroke-width:1"
         sodipodi:role="line"
         id="tspan14389">Stavamo solo</tspan><tspan
         y="2579.9751"
         x="645.75696"
         style="font-size:34.6764px;line-height:1.25;stroke-width:1"
         sodipodi:role="line"
         id="tspan14393">scherzando!</tspan></text>
    <text
       id="text4178-0-1-91"
       y="2703.7402"
       x="749.89496"
       style="font-style:normal;font-variant:normal;font-weight:normal;font-stretch:normal;font-size:10.2299px;line-height:0%;font-family:Lavi;-inkscape-font-specification:Lavi;text-align:center;letter-spacing:0px;word-spacing:0px;text-anchor:middle;fill:#000000;fill-opacity:1;stroke:none;stroke-width:1"
       xml:space="preserve"><tspan
         y="2703.7402"
         x="749.89496"
         style="font-size:34.6764px;line-height:1.25;stroke-width:1"
         sodipodi:role="line"
         id="tspan14393-1">Guaritrice!</tspan></text>
    <text
       id="text4178-0-0"
       y="3071.1521"
       x="1884.3115"
       style="font-style:normal;font-variant:normal;font-weight:normal;font-stretch:normal;line-height:0%;font-family:Lavi;-inkscape-font-specification:Lavi;text-align:center;letter-spacing:0px;word-spacing:0px;text-anchor:middle;fill:#000000;fill-opacity:1;stroke:none"
       xml:space="preserve"><tspan
         y="3071.1521"
         x="1884.3115"
         style="font-size:40.6767px;line-height:1.25"
         sodipodi:role="line"
         id="tspan14153">Ben tornata</tspan><tspan
         y="3121.998"
         x="1884.3115"
         style="font-size:40.6767px;line-height:1.25"
         sodipodi:role="line"
         id="tspan14513">tra noi.</tspan></text>
    <text
       xml:space="preserve"
       style="font-style:normal;font-variant:normal;font-weight:normal;font-stretch:normal;line-height:0%;font-family:Lavi;-inkscape-font-specification:Lavi;text-align:center;letter-spacing:0px;word-spacing:0px;text-anchor:middle;fill:#ffffff;fill-opacity:1;stroke:#ffffff;stroke-width:3.822;stroke-miterlimit:4;stroke-dasharray:none;stroke-opacity:1;filter:url(#filter5534)"
       x="2028.7821"
       y="2443.6147"
       id="text4213-0"
       transform="matrix(0.75304346,0,-0.11971288,1.3279446,1.5361129,119.83759)"><tspan
         sodipodi:role="line"
         id="tspan4215"
         x="2028.7821"
         y="2443.6147"
         style="font-size:63.5518px;line-height:1.25;fill:#ffffff;stroke:#ffffff;stroke-width:3.822;stroke-miterlimit:4;stroke-dasharray:none">- FINE -</tspan></text>
  </g>
</svg>
