<?xml version="1.0" encoding="UTF-8" standalone="no"?>
<svg
   xmlns:dc="http://purl.org/dc/elements/1.1/"
   xmlns:cc="http://creativecommons.org/ns#"
   xmlns:rdf="http://www.w3.org/1999/02/22-rdf-syntax-ns#"
   xmlns:svg="http://www.w3.org/2000/svg"
   xmlns="http://www.w3.org/2000/svg"
   xmlns:xlink="http://www.w3.org/1999/xlink"
   xmlns:sodipodi="http://sodipodi.sourceforge.net/DTD/sodipodi-0.dtd"
   xmlns:inkscape="http://www.inkscape.org/namespaces/inkscape"
   sodipodi:docname="E35P10.svg"
   height="3503"
   width="2481"
   inkscape:version="0.91 r13725"
   version="1.1"
   id="svg2">
  <metadata
     id="metadata8">
    <rdf:RDF>
      <cc:Work
         rdf:about="">
        <dc:format>image/svg+xml</dc:format>
        <dc:type
           rdf:resource="http://purl.org/dc/dcmitype/StillImage" />
        <dc:title />
      </cc:Work>
    </rdf:RDF>
  </metadata>
  <defs
     id="defs6" />
  <sodipodi:namedview
     inkscape:pagecheckerboard="0"
     inkscape:snap-global="false"
     inkscape:document-rotation="0"
     inkscape:current-layer="layer1"
     inkscape:window-maximized="1"
     inkscape:window-y="24"
     inkscape:window-x="65"
     inkscape:cy="1905.4391"
     inkscape:cx="1020.0089"
     inkscape:zoom="0.28444888"
     showgrid="false"
     id="namedview4"
     inkscape:window-height="576"
     inkscape:window-width="959"
     inkscape:pageshadow="2"
     inkscape:pageopacity="0"
     guidetolerance="10"
     gridtolerance="10"
     objecttolerance="10"
     borderopacity="1"
     bordercolor="#666666"
     pagecolor="#ffffff" />
  <g
     sodipodi:insensitive="true"
     inkscape:label="artwork"
     id="layer2"
     inkscape:groupmode="layer">
    <image
       sodipodi:absref="/home/denez/Desktop/Link to Projet ADG/AdG 2-Travaux/5-BD pepper trad/35/gfx_Pepper-and-Carrot_by-David-Revoy_E35P10.png"
       xlink:href="../gfx_Pepper-and-Carrot_by-David-Revoy_E35P10.png"
       width="2481"
       height="3503"
       id="image10"
       x="0"
       y="0" />
  </g>
  <g
     inkscape:label="speechbubbles"
     id="layer3"
     inkscape:groupmode="layer">
    <path
       sodipodi:nodetypes="zsssssz"
       inkscape:connector-curvature="0"
       id="path3100-98"
       d="M 1261.291 157.25391 C 1207.7357 157.54489 1153.594 156.77924 1100.9434 168.07031 C 1079.0515 172.63737 1056.7703 178.05516 1037.541 189.92578 C 1014.7661 204.15435 995.86341 225.73768 987.83184 251.63897 C 981.27062 274.19125 985.39243 298.69085 995.30674 319.62389 C 1007.0019 345.58404 1028.2668 367.35364 1054.5756 378.52378 C 1081.5622 391.2018 1110.2419 399.83365 1139.1015 407.07235 C 1181.0204 416.67526 1224.2013 418.26528 1267.0361 419.0483 C 1318.7866 420.54802 1370.8139 423.45207 1422.3754 417.1585 C 1454.2487 413.43906 1486.0071 408.45644 1517.3258 401.42549 C 1548.668 394.18699 1579.903 383.56425 1606.2534 364.65158 C 1618.3453 356.29101 1627.4265 344.1997 1633.6247 330.98008 C 1637.8988 321.88336 1640.9749 312.28247 1643.9727 302.70807 C 1649.4597 283.9668 1651.0927 263.63441 1645.5571 244.70093 C 1638.5385 219.47018 1619.7506 197.97675 1595.9061 187.24726 C 1571.7096 175.34708 1544.9375 170.37134 1518.594 165.73016 C 1480.2608 159.64674 1441.3661 158.84703 1402.6436 157.82525 C 1356.0424 157.11629 1309.4336 157.28069 1262.8288 157.24308 C 1262.3162 157.24669 1261.8036 157.2503 1261.291 157.25391 z "
       style="fill:#ffffff;stroke:none;stroke-width:0.953514" />
    <path
       sodipodi:nodetypes="csscscsssc"
       inkscape:connector-curvature="0"
       id="path4538-8"
       d="m 1448.7795,517.63055 c 2.403,-24.32977 -9.2766,-33.6163 -20.6628,-38.28253 -11.3869,-4.66626 -19.0826,-5.58729 -28.1978,-26.0826 -9.1142,-20.49521 -0.7357,-41.29642 -4.8853,-52.46499 -11.4569,-16.24953 -34.9307,-26.06627 -44.5289,-30.51513 -21.6856,-10.05119 11.3091,-23.29909 11.3091,-23.29909 8.77,-0.30545 47.7455,23.68713 57.7575,33.72157 14.4084,14.44054 -4.0636,48.20741 4.0399,65.52593 7.5675,16.17219 18.2749,17.40774 23.9472,28.63593 5.6729,11.22843 4.8219,31.66667 1.2211,42.76091 z"
       style="color:#000000;display:inline;overflow:visible;visibility:visible;fill:#ffffff;fill-opacity:1;fill-rule:nonzero;stroke:none;stroke-width:0.83737px;marker:none;enable-background:accumulate" />
    <path
       sodipodi:nodetypes="cssssssscc"
       inkscape:connector-curvature="0"
       id="path4546-6-2-0"
       d="m 118.45522,1517.6193 c 4.11077,-51.438 4.70086,-101.1291 59.07414,-130.8314 54.37316,-29.7011 150.16407,-37.1638 270.48394,-28.5241 64.44973,4.6274 145.63975,10.812 197.03337,32.1904 51.39363,21.3784 72.99099,57.9506 67.71701,133.2959 -5.27398,75.3452 -33.73478,108.017 -93.1034,126.8224 -59.36853,18.8069 -149.6451,23.7478 -171.38357,25.6947 -21.73844,1.9468 -89.16153,-0.5439 -156.05505,-9.8815 -66.89339,-9.3376 -112.64824,-15.8581 -132.26834,-41.3038 -30.75772,-32.28 -43.36855,-70.0132 -41.4981,-107.4626 z"
       style="color:#000000;display:inline;overflow:visible;visibility:visible;fill:#ffffff;fill-opacity:1;fill-rule:nonzero;stroke:none;stroke-width:1.20524px;marker:none;enable-background:accumulate" />
    <path
       sodipodi:nodetypes="cccccccc"
       inkscape:connector-curvature="0"
       id="path1303"
       d="m 566.83527,1651.6586 c 4.43847,-15.3188 61.8645,41.4938 43.56991,104.2767 2.42387,27.4208 22.18027,42.2423 21.12076,57.0045 -1.05963,24.2524 -9.53608,35.8508 -36.02508,55.8848 33.90594,-15.8168 54.23301,-33.7608 55.29264,-58.0121 1.05951,-24.2524 -17.71625,-25.1329 -17.14842,-60.0829 1.05952,-10.5449 25.79381,-65.3353 -26.69151,-120.7385 19.07205,-20.0341 -40.1183,21.6675 -40.1183,21.6675 z"
       style="fill:#ffffff;fill-rule:evenodd;stroke:none;stroke-width:1.12465px;stroke-linecap:butt;stroke-linejoin:miter;stroke-opacity:1" />
    <path
       sodipodi:nodetypes="cssssssscc"
       inkscape:connector-curvature="0"
       id="path4546-6-2-0-3"
       d="m 1281.8209,1541.7467 c 2.4753,-37.3903 2.8306,-73.5107 35.5721,-95.1015 32.7413,-21.5896 90.4228,-27.0143 162.8745,-20.7341 38.8092,3.3636 87.6985,7.8593 118.6458,23.3992 30.9472,15.54 43.9521,42.1243 40.7764,96.8929 -3.1756,54.7685 -20.3136,78.5176 -56.063,92.1873 -35.7495,13.6708 -90.1104,17.2623 -103.2004,18.6775 -13.09,1.4151 -53.6897,-0.3954 -93.9703,-7.1829 -40.2806,-6.7874 -67.8322,-11.5272 -79.6466,-30.0237 -18.521,-23.4644 -26.1149,-50.8927 -24.9885,-78.1147 z"
       style="color:#000000;display:inline;overflow:visible;visibility:visible;fill:#ffffff;fill-opacity:1;fill-rule:nonzero;stroke:none;stroke-width:0.79738px;marker:none;enable-background:accumulate" />
    <path
       sodipodi:nodetypes="cssssssscc"
       inkscape:connector-curvature="0"
       id="path4546-6-2-0-3-6"
       d="m 1351.2932,1759.375 c 2.1835,-41.1512 2.4969,-80.9047 31.3788,-104.6672 28.8817,-23.7613 79.7637,-29.7316 143.6745,-22.8197 34.2343,3.702 77.3604,8.6498 104.6596,25.7529 27.2991,17.1029 38.7711,46.3614 35.9697,106.6388 -2.8014,60.2772 -17.9192,86.415 -49.4543,101.4599 -31.5351,15.0458 -79.488,18.9986 -91.035,20.556 -11.5469,1.5576 -47.3606,-0.4349 -82.8927,-7.9053 -35.5322,-7.4703 -59.836,-12.6866 -70.2578,-33.0436 -16.3378,-25.8245 -23.0363,-56.0116 -22.0428,-85.9718 z"
       style="color:#000000;display:inline;overflow:visible;visibility:visible;fill:#ffffff;fill-opacity:1;fill-rule:nonzero;stroke:none;stroke-width:0.785671px;marker:none;enable-background:accumulate" />
    <path
       sodipodi:nodetypes="ccsc"
       inkscape:connector-curvature="0"
       id="path5010-4"
       d="m 1474.8245,1844.8292 c 6.1533,73.3287 -47.1663,130.4434 -118.01,146.3855 114.7363,-9.2052 166.2605,-106.0374 160.9588,-137.1332 -5.191,-30.4467 -42.9488,-9.2523 -42.9488,-9.2523 z"
       style="color:#000000;display:inline;overflow:visible;visibility:visible;fill:#ffffff;fill-opacity:1;fill-rule:nonzero;stroke:none;stroke-width:1.47843px;marker:none;enable-background:accumulate" />
  </g>
  <g
     inkscape:label="txt"
     id="layer1"
     inkscape:groupmode="layer">
    <text
       id="text4246-3-2-2"
       y="234.98175"
       x="1313.0667"
       style="font-style:normal;font-variant:normal;font-weight:normal;font-stretch:normal;font-size:45px;line-height:1.25;font-family:Lavi;-inkscape-font-specification:Lavi;text-align:center;letter-spacing:0px;word-spacing:0px;text-anchor:middle;fill:#000000;fill-opacity:1;stroke:none"
       xml:space="preserve"><tspan
         id="tspan876"
         y="234.98175"
         x="1313.0667"
         sodipodi:role="line"
         style="font-size:45px">Tu sae qe te rendr a</tspan><tspan
         y="291.23175"
         x="1313.0667"
         sodipodi:role="line"
         style="font-size:45px"
         id="tspan5149"> Maettr Wazabi</tspan><tspan
         y="347.48175"
         x="1313.0667"
         sodipodi:role="line"
         style="font-size:45px"
         id="tspan5151">va mal tourner pour tai ?</tspan></text>
    <text
       id="text4246-3-2-2-3"
       y="1439.9784"
       x="411.03455"
       style="font-style:normal;font-variant:normal;font-weight:normal;font-stretch:normal;font-size:45px;line-height:1.25;font-family:Lavi;-inkscape-font-specification:Lavi;text-align:center;letter-spacing:0px;word-spacing:0px;text-anchor:middle;fill:#000000;fill-opacity:1;stroke:none"
       xml:space="preserve"><tspan
         y="1439.9784"
         x="411.03455"
         sodipodi:role="line"
         style="font-size:45px"
         id="tspan7423">Je sae ben, m’ét aviz</tspan><tspan
         y="1496.2284"
         x="411.03455"
         sodipodi:role="line"
         style="font-size:45px"
         id="tspan5172">pâmeins qe n’y a core</tspan><tspan
         y="1552.4784"
         x="411.03455"
         sodipodi:role="line"
         style="font-size:45px"
         id="tspan5174"> mayen de s’entr devizer,</tspan><tspan
         y="1608.7284"
         x="411.03455"
         sodipodi:role="line"
         style="font-size:45px"
         id="tspan5178">de li faere a comprendr.</tspan></text>
    <text
       id="text4246-3-2-2-3-3"
       y="1474.1573"
       x="1460.6498"
       style="font-style:normal;font-variant:normal;font-weight:normal;font-stretch:normal;font-size:45px;line-height:1.25;font-family:Lavi;-inkscape-font-specification:Lavi;text-align:center;letter-spacing:0px;word-spacing:0px;text-anchor:middle;fill:#000000;fill-opacity:1;stroke:none"
       xml:space="preserve"><tspan
         id="tspan912"
         y="1474.1573"
         x="1460.6498"
         sodipodi:role="line"
         style="font-size:45px">Den le fond,</tspan><tspan
         y="1530.4073"
         x="1460.6498"
         sodipodi:role="line"
         style="font-size:45px"
         id="tspan5185">y a pas e cote</tspan><tspan
         y="1586.6573"
         x="1460.6498"
         sodipodi:role="line"
         style="font-size:45px"
         id="tspan5193"> qi peut pas étr</tspan><tspan
         y="1642.9073"
         x="1460.6498"
         sodipodi:role="line"
         style="font-size:45px"
         id="tspan5197">ramarrey</tspan></text>
    <text
       id="text4246-3-2-2-3-3-1"
       y="1725.9688"
       x="1498.4325"
       style="font-style:normal;font-variant:normal;font-weight:normal;font-stretch:normal;font-size:45px;line-height:1.25;font-family:Lavi;-inkscape-font-specification:Lavi;text-align:center;letter-spacing:0px;word-spacing:0px;text-anchor:middle;fill:#000000;fill-opacity:1;stroke:none"
       xml:space="preserve"><tspan
         id="tspan921"
         y="1725.9688"
         x="1498.4325"
         sodipodi:role="line"
         style="font-size:45px">J’ae aprinz</tspan><tspan
         y="1782.2188"
         x="1498.4325"
         sodipodi:role="line"
         style="font-size:45px"
         id="tspan5204"> ella od ûne</tspan><tspan
         y="1838.4688"
         x="1498.4325"
         sodipodi:role="line"
         style="font-size:45px"
         id="tspan5206"> bone amine.</tspan></text>
  </g>
</svg>
