<?xml version="1.0" encoding="UTF-8" standalone="no"?>
<svg
   xmlns:dc="http://purl.org/dc/elements/1.1/"
   xmlns:cc="http://creativecommons.org/ns#"
   xmlns:rdf="http://www.w3.org/1999/02/22-rdf-syntax-ns#"
   xmlns:svg="http://www.w3.org/2000/svg"
   xmlns="http://www.w3.org/2000/svg"
   xmlns:xlink="http://www.w3.org/1999/xlink"
   xmlns:sodipodi="http://sodipodi.sourceforge.net/DTD/sodipodi-0.dtd"
   xmlns:inkscape="http://www.inkscape.org/namespaces/inkscape"
   sodipodi:docname="E35P07.svg"
   height="3503"
   width="2481"
   inkscape:version="0.91 r13725"
   version="1.1"
   id="svg2">
  <metadata
     id="metadata8">
    <rdf:RDF>
      <cc:Work
         rdf:about="">
        <dc:format>image/svg+xml</dc:format>
        <dc:type
           rdf:resource="http://purl.org/dc/dcmitype/StillImage" />
        <dc:title />
      </cc:Work>
    </rdf:RDF>
  </metadata>
  <defs
     id="defs6">
    <filter
       height="1.0447156"
       width="1.0467294"
       y="-0.0023842071"
       x="-0.044353127"
       inkscape:label="soundFX1"
       id="filter4375-4-1-1-1-9-5-8-8-5-5-3-8"
       style="color-interpolation-filters:sRGB">
      <feFlood
         result="flood"
         flood-color="rgb(255,255,255)"
         flood-opacity="1"
         id="feFlood4377-7-9-0-8-1-7-3-1-2-7-6-7" />
      <feComposite
         baseFrequency="0.053999999999999999 0.053999999999999999"
         result="composite1"
         operator="in"
         in="flood"
         in2="SourceGraphic"
         id="feComposite4379-3-8-8-2-77-4-1-0-6-4-7-9" />
      <feMorphology
         result="result3"
         radius="2.9756367599225957"
         operator="dilate"
         id="feMorphology4393-1-0-49-8-9-3-0-1-9-9-5-2" />
      <feComposite
         result="fbSourceGraphic"
         operator="over"
         in="SourceGraphic"
         in2="result3"
         id="feComposite4385-9-5-7-0-8-8-7-5-4-9-3-0" />
      <feColorMatrix
         id="feColorMatrix4544-9-4-4-5-2"
         values="0 0 0 -1 0 0 0 0 -1 0 0 0 0 -1 0 0 0 0 1 0"
         in="fbSourceGraphic"
         result="fbSourceGraphicAlpha" />
      <feTurbulence
         result="turbulence"
         baseFrequency="0.053999999999999999 0.054054054054054057"
         seed="174"
         numOctaves="5"
         type="fractalNoise"
         id="feTurbulence4546-3-6-5-6-3" />
      <feDisplacementMap
         result="fbSourceGraphic"
         xChannelSelector="R"
         yChannelSelector="G"
         scale="6.6"
         in="fbSourceGraphic"
         in2="turbulence"
         id="feDisplacementMap4548-8-0-9-2-7" />
      <feColorMatrix
         id="feColorMatrix4670-7-7-3-9-5"
         values="0 0 0 -1 0 0 0 0 -1 0 0 0 0 -1 0 0 0 0 1 0"
         in="fbSourceGraphic"
         result="fbSourceGraphicAlpha" />
      <feFlood
         in="fbSourceGraphic"
         result="flood"
         flood-color="rgb(255,255,255)"
         flood-opacity="1"
         id="feFlood4672-4-4-5-1-9" />
      <feComposite
         result="composite1"
         operator="in"
         in="flood"
         in2="fbSourceGraphic"
         id="feComposite4674-8-3-7-2-22" />
      <feGaussianBlur
         result="blur"
         stdDeviation="0"
         in="composite1"
         id="feGaussianBlur4676-3-7-08-7-8" />
      <feOffset
         result="offset"
         dy="6"
         dx="-6.3258232761971414"
         id="feOffset4678-6-9-1-0-9" />
      <feComposite
         result="composite2"
         operator="over"
         in="fbSourceGraphic"
         in2="offset"
         id="feComposite4680-4-0-9-9-7" />
    </filter>
  </defs>
  <sodipodi:namedview
     inkscape:pagecheckerboard="0"
     inkscape:snap-global="false"
     inkscape:document-rotation="0"
     inkscape:current-layer="layer1"
     inkscape:window-maximized="1"
     inkscape:window-y="24"
     inkscape:window-x="65"
     inkscape:cy="585.43564"
     inkscape:cx="1276.4505"
     inkscape:zoom="0.23130608"
     showgrid="false"
     id="namedview4"
     inkscape:window-height="576"
     inkscape:window-width="959"
     inkscape:pageshadow="2"
     inkscape:pageopacity="0"
     guidetolerance="10"
     gridtolerance="10"
     objecttolerance="10"
     borderopacity="1"
     bordercolor="#666666"
     pagecolor="#ffffff" />
  <g
     sodipodi:insensitive="true"
     inkscape:label="artwork"
     id="layer2"
     inkscape:groupmode="layer">
    <image
       sodipodi:absref="/home/denez/Desktop/Link to Projet ADG/AdG 2-Travaux/5-BD pepper trad/35/gfx_Pepper-and-Carrot_by-David-Revoy_E35P07.png"
       xlink:href="../gfx_Pepper-and-Carrot_by-David-Revoy_E35P07.png"
       y="0"
       x="0"
       id="image10"
       height="3503"
       width="2481" />
  </g>
  <g
     inkscape:label="speechbubbles"
     id="layer3"
     inkscape:groupmode="layer">
    <path
       sodipodi:nodetypes="csssc"
       inkscape:connector-curvature="0"
       id="path3280-8"
       d="M 1995.7988 260.05078 C 1964.8346 260.68883 1933.4501 271.39102 1910.6133 292.73828 C 1888.6705 313.52792 1875.0946 341.75982 1867.9607 370.82996 C 1863.1314 390.04456 1860.5327 410.65588 1866.2429 429.98279 C 1873.1158 452.45457 1890.1535 470.66452 1910.1292 482.41553 C 1939.7119 500.17313 1974.8788 506.73328 2009.0641 505.6364 C 2044.8756 504.7705 2080.9843 501.72957 2115.5211 491.72609 C 2133.2854 485.94833 2150.5115 475.62925 2160.4501 459.36364 C 2169.7522 444.241 2172.0749 425.91436 2170.8756 408.47888 C 2169.8345 379.11925 2161.0415 350.15566 2145.8673 325.01991 C 2134.923 306.49222 2121.3087 288.66745 2102.579 277.46552 C 2086.4303 267.59598 2067.3769 264.4517 2048.8552 262.48287 C 2031.2503 260.46136 2013.5062 260.00006 1995.7988 260.05078 z "
       style="fill:#ffffff;stroke:none;stroke-width:1.04404" />
    <path
       sodipodi:nodetypes="cccc"
       inkscape:connector-curvature="0"
       id="path4186"
       d="m 1937.2471,432.07438 c -6.2176,11.12141 -85.6078,33.31577 -108.1931,83.17757 30.1276,-36.25015 118.0705,-48.01797 132.9745,-62.07815 51.3058,-16.19189 -3.5494,-23.72277 -24.7814,-21.09942 z"
       style="fill:#ffffff;fill-rule:evenodd;stroke:none;stroke-width:0.934796px;stroke-linecap:butt;stroke-linejoin:miter;stroke-opacity:1" />
    <path
       inkscape:connector-curvature="0"
       id="path4667"
       d="m 1557.7613,1692.8906 134.1326,-31.6108 -24.0947,-23.8017 91.2177,-24.1969 -16.3502,-24.7111 -106.501,38.013 26.5589,28.0558 z"
       style="fill:#ffffff;fill-rule:evenodd;stroke:none;stroke-width:1px;stroke-linecap:butt;stroke-linejoin:miter;stroke-opacity:1" />
    <path
       sodipodi:nodetypes="ccccccccccccccccccc"
       inkscape:connector-curvature="0"
       id="path3549-3-7-8"
       d="m 395.17951,3167.8318 c -8.08185,18.6619 -58.1262,10.3174 -74.90657,6.0688 33.8253,21.9362 32.64605,35.0172 -13.27916,35.9167 74.43189,33.4978 18.71844,34.0668 -4.8853,28.9926 38.16325,17.7527 40.42909,33.9683 1.61318,42.1393 69.50774,2.2759 52.68092,15.2452 26.36538,33.8563 30.77515,-11.85 78.24893,-19.7446 79.93335,13.2682 44.59075,-27.7008 67.59742,-26.571 83.72224,6.3976 13.46926,-27.7524 59.33284,-32.0237 76.87009,-1.3015 15.10723,-40.6183 69.01154,-33.5147 101.09884,-12.8552 -18.01232,-14.4659 -5.72958,-37.249 55.68082,-31.0622 -4.94297,-12.9748 2.83033,-29.0046 33.8419,-26.096 -35.72149,-8.6461 -42.30475,-16.8174 24.02192,-23.7957 -50.47073,-2.0802 -97.53506,-4.9518 -38.32192,-32.8773 -18.57676,-1.1704 -65.51024,30.7099 -44.96061,-40.548 -54.40739,19.8167 -108.72086,20.7746 -105.90805,-23.6066 -20.22719,23.5432 -55.31079,34.5732 -70.57398,4.1646 -12.59976,27.7421 -50.87,15.049 -70.75072,-4.5901 -13.13619,18.6771 -21.77412,52.7905 -59.56141,25.9285 z"
       style="color:#000000;display:inline;overflow:visible;visibility:visible;fill:#ffffff;fill-opacity:1;fill-rule:nonzero;stroke:none;stroke-width:1.19238px;marker:none;enable-background:accumulate" />
    <path
       sodipodi:nodetypes="ccccccccccccccccccc"
       inkscape:connector-curvature="0"
       id="path3549-3-7"
       d="m 399.13538,2971.7241 c 46.32515,46.6958 -46.64465,30.4543 -64.47731,24.0162 46.60885,16.4345 36.15885,43.8191 -12.15421,52.4096 83.41343,44.9742 17.99328,59.9513 1.52468,60.609 55.34989,18.9496 43.23007,33.4731 33.37585,56.9499 108.22594,-26.8552 32.7357,46.2035 32.8367,77.4707 5.39337,-14.0641 88.24141,-146.4956 32.55749,-9.2072 42.08041,-45.484 92.76518,-74.8643 96.78971,4.7328 16.9549,-40.0433 33.85891,-56.9669 32.55748,-9.2073 42.00893,-62.1175 102.93902,-45.7552 140.9136,-28.1985 -49.30569,-47.1673 -19.25749,-43.654 35.52013,-30.5302 -63.73259,-32.3441 -58.32111,-47.1121 15.67921,-43.2174 -32.69525,-11.2255 -38.7209,-22.8046 21.98688,-35.2653 -46.65392,-2.0316 -97.89403,-19.2028 -35.07541,-46.1693 -23.6592,2.3658 -112.10967,-3.2773 -38.53577,-69.3398 -57.74393,24.8605 -117.18724,34.9112 -99.55184,-18.0328 -49.22387,32.1536 -54.3857,51.6485 -64.59512,8.5439 -17.41005,37.4088 -40.02277,14.2383 -64.75692,-4.1082 17.99826,29.2486 -22.20424,46.494 -64.59515,8.5439 z"
       style="color:#000000;display:inline;overflow:visible;visibility:visible;fill:#ffffff;fill-opacity:1;fill-rule:nonzero;stroke:none;stroke-width:1.09607px;marker:none;enable-background:accumulate" />
    <path
       sodipodi:nodetypes="csccccscccc"
       inkscape:connector-curvature="0"
       id="path1089"
       d="m 559.65143,2966.4499 c 7.81388,-49.8207 8.23157,-62.9667 6.02019,-75.0728 -2.2114,-12.106 -16.03862,-8.1385 -26.02653,-3.643 -6.53887,2.9161 -28.34548,24.9309 -13.34891,-11.2886 14.99673,-36.2194 33.04009,-86.6247 37.65555,-102.5126 -15.5946,27.8024 -42.45502,71.0937 -50.25242,84.9947 -7.79723,13.9012 -19.54665,39.459 -22.39666,47.151 -3.46707,9.3577 -1.1372,19.0591 14.63013,17.8664 24.66487,-3.6362 41.86312,-37.8298 13.23772,21.5203 -28.62567,59.3501 4.95095,150.5651 4.95095,150.5651 z"
       style="fill:#ffffff;fill-rule:evenodd;stroke:none;stroke-width:1.61403px;stroke-linecap:butt;stroke-linejoin:miter;stroke-opacity:1" />
    <path
       sodipodi:nodetypes="ccccccccccccccccccc"
       inkscape:connector-curvature="0"
       id="path3549-3-7-8-6"
       d="m 1790.1887,1475.8847 c -3.3468,41.1502 -66.7576,14.5169 -96.8696,4.0415 35.8902,23.1861 63.1344,54.1372 -15.957,52.1926 88.816,41.0933 29.4403,39.0828 15.1247,49.5021 69.737,14.1619 49.695,32.2972 4.9328,42.1635 80.1557,0.6027 60.7513,15.0664 30.4043,35.8801 35.4898,-13.6267 90.2361,-23.4255 92.1787,12.2022 51.4217,-31.1238 77.9529,-30.5176 96.5479,4.6769 15.5327,-30.3484 68.4222,-36.1891 88.646,-3.4597 17.4217,-44.2947 79.5837,-38.0585 116.5865,-16.5914 -20.7716,-15.1506 -6.6072,-40.0975 64.211,-35.0524 -5.7003,-13.8884 3.2639,-31.4175 39.0261,-29.1028 -41.1938,-8.3887 -48.7855,-17.0425 27.7019,-26.3547 -58.2024,-0.8998 -112.4768,-2.7457 -44.1925,-34.503 -21.4226,-0.7685 -72.2502,25.7308 -48.5524,-51.8179 -62.7423,22.8666 -128.6721,34.5563 -125.4284,-13.4763 -23.3259,25.9806 -63.784,38.8363 -81.3854,6.3853 -14.5301,30.314 -58.6631,17.6203 -81.5894,-3.0701 -15.1484,20.5329 -37.8092,34.4011 -81.3852,6.3841 z"
       style="color:#000000;display:inline;overflow:visible;visibility:visible;fill:#ffffff;fill-opacity:1;fill-rule:nonzero;stroke:none;stroke-width:1.33106px;marker:none;enable-background:accumulate" />
  </g>
  <g
     inkscape:label="txt"
     id="layer1"
     inkscape:groupmode="layer">
    <text
       id="text4246-3-2-2"
       y="342.14099"
       x="2020.3785"
       style="font-style:normal;font-variant:normal;font-weight:normal;font-stretch:normal;font-size:45px;line-height:1.25;font-family:Lavi;-inkscape-font-specification:Lavi;text-align:center;letter-spacing:0px;word-spacing:0px;text-anchor:middle;fill:#000000;fill-opacity:1;stroke:none"
       xml:space="preserve"><tspan
         id="tspan885"
         y="342.14099"
         x="2020.3785"
         sodipodi:role="line"
         style="font-size:45px">Il sont a</tspan><tspan
         y="398.39099"
         x="2020.3785"
         sodipodi:role="line"
         style="font-size:45px"
         id="tspan4759">nouz suedr.</tspan><tspan
         y="454.64099"
         x="2020.3785"
         sodipodi:role="line"
         style="font-size:45px"
         id="tspan4765">Ce qe faot !</tspan></text>
    <text
       id="text4246-3-2-2-3"
       y="1551.5004"
       x="1947.5864"
       style="font-style:normal;font-variant:normal;font-weight:normal;font-stretch:normal;font-size:45px;line-height:1.25;font-family:Lavi;-inkscape-font-specification:Lavi;text-align:center;letter-spacing:0px;word-spacing:0px;text-anchor:middle;fill:#000000;fill-opacity:1;stroke:none"
       xml:space="preserve"><tspan
         y="1551.5004"
         x="1947.5864"
         sodipodi:role="line"
         style="font-size:42.5px"
         id="tspan4769">Je vom bétôt nouz</tspan><tspan
         y="1604.6254"
         x="1947.5864"
         sodipodi:role="line"
         style="font-size:42.5px"
         id="tspan4771"> dépoêzoner de yeùz !</tspan></text>
    <text
       id="text4246-3-2-2-3-3"
       y="3047.8477"
       x="531.13611"
       style="font-style:normal;font-variant:normal;font-weight:normal;font-stretch:normal;font-size:50.27859879px;line-height:1.25;font-family:Lavi;-inkscape-font-specification:Lavi;text-align:center;letter-spacing:0px;word-spacing:0px;text-anchor:middle;fill:#000000;fill-opacity:1;stroke:none;stroke-width:1.11730003"
       xml:space="preserve"><tspan
         id="tspan899"
         y="3047.8477"
         x="531.13611"
         sodipodi:role="line"
         style="font-style:normal;font-variant:normal;font-weight:bold;font-stretch:normal;font-size:50.27859879px;font-family:Lavi;-inkscape-font-specification:'Lavi Bold';stroke-width:1.11730003">Je sei</tspan><tspan
         y="3110.6958"
         x="531.13611"
         sodipodi:role="line"
         style="font-style:normal;font-variant:normal;font-weight:bold;font-stretch:normal;font-size:50.27859879px;font-family:Lavi;-inkscape-font-specification:'Lavi Bold';stroke-width:1.11730003"
         id="tspan4777">empressey</tspan><tspan
         y="3173.5442"
         x="531.13611"
         sodipodi:role="line"
         style="font-style:normal;font-variant:normal;font-weight:bold;font-stretch:normal;font-size:50.27859879px;font-family:Lavi;-inkscape-font-specification:'Lavi Bold';stroke-width:1.11730003"
         id="tspan4779"> de vair ça  !</tspan></text>
    <text
       id="text4246-3-2-2-3-3-3"
       y="3262.7009"
       x="529.26379"
       style="font-style:normal;font-variant:normal;font-weight:normal;font-stretch:normal;font-size:57.32479858px;line-height:1.25;font-family:Lavi;-inkscape-font-specification:Lavi;text-align:center;letter-spacing:0px;word-spacing:0px;text-anchor:middle;fill:#000000;fill-opacity:1;stroke:none;stroke-width:1.27388"
       xml:space="preserve"><tspan
         id="tspan1015"
         y="3262.7009"
         x="529.26379"
         sodipodi:role="line"
         style="font-style:normal;font-variant:normal;font-weight:bold;font-stretch:normal;font-size:57.32479858px;font-family:Lavi;-inkscape-font-specification:'Lavi Bold';stroke-width:1.27388">Ahahaha !</tspan></text>
    <text
       transform="matrix(1.0545214,-0.26714456,-0.41513081,1.2309466,1890.7199,857.1408)"
       id="text4580-6-0-0-0-9-3-36"
       y="1584.5073"
       x="787.65729"
       style="font-style:normal;font-variant:normal;font-weight:normal;font-stretch:normal;font-size:105.817px;line-height:1.25;font-family:Lavi;-inkscape-font-specification:Lavi;letter-spacing:0px;word-spacing:0px;fill:#000000;fill-opacity:1;stroke:#030303;stroke-width:0.716208;stroke-miterlimit:4;stroke-dasharray:none;stroke-opacity:1;filter:url(#filter4375-4-1-1-1-9-5-8-8-5-5-3-8)"
       xml:space="preserve"><tspan
         y="1584.5073"
         x="787.65729"
         id="tspan876-6-1"
         sodipodi:role="line"
         style="font-size:195.17px;fill:#000000;fill-opacity:1;stroke:#030303;stroke-width:0.716208;stroke-miterlimit:4;stroke-dasharray:none;stroke-opacity:1">!<tspan
   id="tspan1317"
   style="font-size:173.821px;fill:#000000;stroke:#030303;stroke-opacity:1">!</tspan><tspan
   style="font-size:152.472px;fill:#000000;stroke:#030303;stroke-opacity:1"
   id="tspan1322">!</tspan></tspan></text>
  </g>
</svg>
