<?xml version="1.0" encoding="UTF-8" standalone="no"?>
<svg
   xmlns:dc="http://purl.org/dc/elements/1.1/"
   xmlns:cc="http://creativecommons.org/ns#"
   xmlns:rdf="http://www.w3.org/1999/02/22-rdf-syntax-ns#"
   xmlns:svg="http://www.w3.org/2000/svg"
   xmlns="http://www.w3.org/2000/svg"
   xmlns:xlink="http://www.w3.org/1999/xlink"
   xmlns:sodipodi="http://sodipodi.sourceforge.net/DTD/sodipodi-0.dtd"
   xmlns:inkscape="http://www.inkscape.org/namespaces/inkscape"
   id="svg2"
   version="1.1"
   inkscape:version="1.0.2 (e86c870879, 2021-01-15)"
   width="2481"
   height="3503"
   sodipodi:docname="E34P08.svg">
  <metadata
     id="metadata8">
    <rdf:RDF>
      <cc:Work
         rdf:about="">
        <dc:format>image/svg+xml</dc:format>
        <dc:type
           rdf:resource="http://purl.org/dc/dcmitype/StillImage" />
        <dc:title />
      </cc:Work>
    </rdf:RDF>
  </metadata>
  <defs
     id="defs6" />
  <sodipodi:namedview
     pagecolor="#ffffff"
     bordercolor="#666666"
     borderopacity="1"
     objecttolerance="10"
     gridtolerance="10"
     guidetolerance="10"
     inkscape:pageopacity="0"
     inkscape:pageshadow="2"
     inkscape:window-width="1920"
     inkscape:window-height="1043"
     id="namedview4"
     showgrid="false"
     inkscape:zoom="0.6956522"
     inkscape:cx="-52.238404"
     inkscape:cy="2584.7372"
     inkscape:window-x="0"
     inkscape:window-y="0"
     inkscape:window-maximized="1"
     inkscape:current-layer="layer3"
     inkscape:document-rotation="0"
     inkscape:snap-global="false"
     borderlayer="true" />
  <g
     inkscape:groupmode="layer"
     id="layer2"
     inkscape:label="artwork"
     sodipodi:insensitive="true">
    <image
       sodipodi:absref="/home/martin/peppercarrot/webcomics/new-ep34_The-Knighting-of-Shichimi/lang/gfx_Pepper-and-Carrot_by-David-Revoy_E34P08.png"
       xlink:href="../gfx_Pepper-and-Carrot_by-David-Revoy_E34P08.png"
       width="2481"
       height="3503"
       id="image10"
       x="0"
       y="0" />
  </g>
  <g
     inkscape:groupmode="layer"
     id="layer3"
     inkscape:label="speechbubbles"
     style="display:inline">
    <path
       style="color:#000000;display:inline;overflow:visible;visibility:visible;fill:#ffffff;fill-opacity:1;fill-rule:nonzero;stroke:none;stroke-width:0.770224px;marker:none;enable-background:accumulate"
       d="m 1858.8745,2602.7661 c 24.645,-31.5484 88.5186,-58.8546 134.0691,-29.1667 47.5832,1.2392 31.3766,-27.3129 31.3766,-27.3129 -2.2798,-13.3723 -128.0086,-31.4485 -165.4457,56.4796 z"
       id="path3984-7"
       inkscape:connector-curvature="0"
       sodipodi:nodetypes="cccc" />
    <path
       style="display:inline;fill:#ffffff;stroke:none;stroke-width:1.33372"
       d="m 2139.5807,2621.5134 c -39.732,1.3936 -80.0519,12.4549 -112.5385,36.8284 -52.0268,40.5512 -77.6571,114.0988 -62.1474,179.6353 7.5004,35.6596 29.3504,68.4078 60.4817,86.1028 30.274,17.5884 64.9382,24.7287 99.0946,28.723 50.4803,5.3823 102.0181,-0.9608 150.1128,-17.5893 27.1188,-9.9889 49.3649,-32.6833 59.8113,-60.3993 10.3673,-26.5503 12.2721,-55.6117 12.3085,-83.9544 -0.8573,-43.4538 -15.4633,-86.551 -41.0767,-120.9958 -12.0666,-16.2281 -29.4552,-28.059 -48.6879,-32.9218 -22.5825,-5.6806 -45.6993,-8.551 -68.6603,-12.0453 -16.1452,-2.1394 -32.4067,-3.63 -48.6981,-3.3836 z"
       id="path3280-8-3"
       inkscape:connector-curvature="0"
       sodipodi:nodetypes="csssc" />
    <path
       style="color:#000000;display:inline;overflow:visible;visibility:visible;fill:#ffffff;fill-opacity:1;fill-rule:nonzero;stroke:none;stroke-width:0.69364px;marker:none;enable-background:accumulate"
       d="m 2149.904,2472.571 c -37.856,-0.9701 -76.2211,3.662 -111.7318,17.4105 -13.34,5.29 -26.4945,12.7608 -35.2106,24.7234 -10.9072,15.1252 -16.2292,34.0355 -16.6896,52.7878 -0.095,18.5638 6.5013,37.6624 19.829,50.5903 10.6395,10.1785 24.4378,15.6751 37.8523,20.7364 24.5895,9.1294 50.3645,14.2904 76.2288,17.5432 17.2039,2.1752 34.4781,3.74 51.7677,4.8757 15.3078,0.6093 30.5668,-1.6169 45.4313,-5.1354 21.5349,-4.5131 43.289,-10.3879 62.0703,-22.4672 13.3592,-8.7345 24.6498,-21.7633 29.0445,-37.6643 5.9615,-20.4107 1.438,-43.6413 -11.4351,-60.4231 -10.7368,-15.4162 -23.4948,-29.9854 -39.827,-39.2111 -13.7774,-7.5829 -29.099,-11.3046 -44.1507,-15.0934 -20.7466,-4.9277 -41.9299,-7.7894 -63.1791,-8.6728 z"
       id="path3970-3"
       inkscape:connector-curvature="0"
       sodipodi:nodetypes="cccscsc" />
    <path
       style="display:inline;fill:#ffffff;fill-rule:evenodd;stroke:none;stroke-width:1.31029px;stroke-linecap:butt;stroke-linejoin:miter;stroke-opacity:1"
       d="m 142.15169,2639.0252 c 47.70953,27.8955 38.92496,40.0735 -28.33079,35.9837 107.2265,42.8351 62.96216,49.2464 -4.92715,49.9774 45.57382,15.6456 96.0007,30.956 -8.62241,56.9743 60.63008,4.2183 113.45819,10.1746 9.85418,50.977 53.75227,-1.6758 88.62019,-18.7567 23.79053,36.7827 87.98773,-24.9458 168.33919,-17.0906 122.79114,45.1802 44.22589,-18.3388 116.93472,-64.815 91.15151,-13.9936 20.26252,-16.2306 46.05025,-22.3733 92.38338,8.9959 -9.03491,-22.6233 -36.25657,-58.4779 45.57575,-14.9932 -24.73834,-34.0251 -1.01617,-68.3859 81.61418,-17.9249 -12.30941,-25.6552 -94.02188,-35.3843 7.07393,-61.0395 -69.63701,-2.5587 -48.03667,-19.9247 -3.69526,-40.9814 -82.91994,-11.6374 -41.89331,-25.7279 7.39066,-39.982 -51.36064,-5.4331 -90.98469,-14.5828 -9.85431,-61.972 -89.30172,19.6735 -63.45842,-13.6004 -59.12545,-36.9833 -41.21105,18.5673 -87.81522,47.7106 -91.15163,-7.9964 -55.2832,69.1143 -76.21502,16.2752 -107.16471,-0.9995 -32.19065,82.2398 -105.16355,6.4455 -125.64119,0.9995 41.76044,33.6606 49.05177,48.9014 -43.11236,10.9951 z"
       id="path1096"
       inkscape:connector-curvature="0"
       sodipodi:nodetypes="cccccccccccccccccccc" />
    <path
       style="fill:#ffffff;fill-rule:evenodd;stroke:none;stroke-width:1px;stroke-linecap:butt;stroke-linejoin:miter;stroke-opacity:1"
       d="m 276.69249,2637.35 c 22.24357,147.5922 76.16994,294.7462 66.72409,442.7767 39.32721,-7.5351 57.02691,-43.538 110.60404,61.3044 36.13567,-50.5432 43.46402,-9.9468 54.08883,20.3938 25.92501,-21.2619 53.62712,-17.4156 81.20022,-15.3921 -24.07084,-2.6294 -42.56765,-23.176 -74.42406,-0.7793 -0.99204,-50.5675 -24.7242,-64.2967 -53.19608,-40.6932 -22.25284,-65.4923 -46.37098,-77.5206 -92.38131,-54.9383 1.82968,-175.1557 -47.49605,-279.4592 -67.44658,-422.2765 z"
       id="path1313"
       sodipodi:nodetypes="cccccccccc" />
    <path
       style="color:#000000;display:inline;overflow:visible;visibility:visible;fill:#ffffff;fill-opacity:1;fill-rule:nonzero;stroke:none;stroke-width:1.34517px;marker:none;enable-background:accumulate"
       d="m 120.53571,2952.2227 c 2.69706,-42.4765 8.77753,-76.1738 42.23063,-94.8593 33.45311,-18.6853 94.2786,-22.3584 171.44716,-15.008 41.33565,3.9372 100.06962,9.6703 133.01082,27.4197 32.94129,17.7488 40.08957,47.5133 36.61851,109.7344 -3.47103,62.2209 -15.61014,95.3659 -53.71383,110.7925 -38.10371,15.4267 -102.17213,13.1348 -116.11851,14.7045 -36.46597,-4.9421 -106.77987,2.0672 -151.47957,-11.013 -44.69981,-13.0801 -63.7852,-46.2498 -61.99521,-141.7708 z"
       id="path4546-6-0"
       inkscape:connector-curvature="0"
       sodipodi:nodetypes="cssssscsc" />
    <path
       style="fill:#ffffff;fill-rule:evenodd;stroke:none;stroke-width:1.49986px;stroke-linecap:butt;stroke-linejoin:miter;stroke-opacity:1"
       d="m 217.08242,2649.8057 c 36.90709,-50.2257 39.2881,-5.139 58.31878,36.2923 18.49928,-30.6102 5.37016,-37.0801 47.77595,2.3088 8.80076,-60.6152 28.70148,-43.015 52.77387,-10.9502 -8.33465,-42.6242 -8.81213,-62.5771 28.15389,-25.9228 9.37569,-48.4233 28.08772,-13.1777 54.29681,10.3696 -6.36522,-54.7029 -9.43727,-54.5433 44.24189,-44.9322 -37.30857,-48.1984 12.34553,-26.491 50.27471,-20.7394 -56.92936,-37.391 -36.38571,-30.7833 20.1101,-27.6509 -70.09485,-30.9514 -74.25014,-26.6667 -8.04407,-63.9433 -98.70585,11.1753 -89.4022,9.8366 -24.13193,-55.302 -39.18092,5.5174 -140.98295,82.943 -78.42873,13.8262 -53.48141,18.2513 -77.40978,39.2565 -49.37466,-20.9763 l -19.66776,-1.0234 c -20.37926,21.8995 -44.11621,56.4771 -47.59527,11.6299 -29.76644,33.519 -28.07601,39.1189 -42.23077,-3.4564 -19.66696,57.8645 -22.71029,13.0651 -34.18713,-24.1945 -25.83448,34.7634 -26.07555,74.5428 -42.23077,19.0097 -11.24706,56.5135 -34.0037,16.4098 -66.36284,-10.3684 10.09255,61.5083 12.97253,60.8806 -36.19797,22.4662 18.43992,56.1578 -0.12592,44.3678 -52.285671,41.4758 62.451481,49.6039 42.560661,48.1051 -20.110112,82.9544 35.01382,5.5208 97.345683,-28.793 64.351853,17.2813 77.3397,-28.1852 41.20916,12.7816 22.10011,50.6233 9.0302,3.9868 63.02088,-67.2163 78.44972,1.2223 z"
       id="path1309"
       inkscape:connector-curvature="0"
       sodipodi:nodetypes="ccccccccccccccccccccccccc" />
    <path
       style="display:inline;fill:#ffffff;stroke:none;stroke-width:1.08309"
       d="m 1979.2985,1869.7224 c -44.4061,2.5948 -58.3529,1.5957 -92.47,17.7185 -22.9424,10.8848 -43.9381,24.6941 -60.6139,41.445 -43.4625,42.4263 -66.0451,97.367 -64.501,151.1093 -0.2447,44.6834 14.496,89.7486 46.8976,125.7215 31.0398,35.2462 74.9104,64.1786 127.1322,77.2208 30.5377,7.7966 56.1209,8.812 93.8329,9.7618 57.7573,2.8605 89.7523,1.776 131.0131,-6.2647 37.9495,-8.9263 75.8513,-21.805 105.2136,-43.948 32.453,-24.4639 53.205,-56.8425 68.9765,-89.5215 15.9996,-32.7402 24.6185,-68.3514 18.5707,-102.9091 -5.2852,-35.3097 -15.8161,-70.884 -39.603,-100.9205 -23.2501,-29.1374 -32.5665,-48.3496 -72.0347,-62.416 -51.7495,-19.0788 -64.4033,-15.6451 -129.4222,-16.6659 -16.9735,-0.045 -79.9423,-0.7687 -132.9918,-0.3312 z"
       id="path3280-5"
       inkscape:connector-curvature="0"
       sodipodi:nodetypes="csssccccccccccc" />
    <path
       style="color:#000000;display:inline;overflow:visible;visibility:visible;fill:#ffffff;fill-opacity:1;fill-rule:nonzero;stroke:none;stroke-width:0.869755px;marker:none;enable-background:accumulate"
       d="m 631.52816,1840.5303 c 47.24511,-27.3875 115.83444,-55.1086 154.24551,3.9472 23.5574,-4.8627 69.71482,-40.1263 115.42935,17.7336 -47.53609,-35.9834 -78.50267,-15.4767 -118.07887,4.9225 -18.59072,-41.5285 -83.01307,-49.4207 -140.96132,7.1368 -57.94866,56.5566 -38.62415,45.003 -38.62415,45.003 l 10.52452,-62.5977 z"
       id="path5074-8"
       inkscape:connector-curvature="0"
       sodipodi:nodetypes="ccccsccc" />
    <path
       style="display:inline;fill:#ffffff;stroke:none;stroke-width:1.1926"
       d="m 461.94424,1809.6055 c -41.61649,0.6202 -84.14033,2.8871 -123.19826,14.1083 -51.43276,15.3776 -90.4775,50.1228 -101.51289,89.4906 -7.91741,26.0118 -7.18228,53.7456 4.94829,79.025 11.62793,23.3857 36.66818,42.7535 67.35786,53.7349 15.43604,5.7353 32.28122,9.0777 49.25228,11.4444 28.11233,4.2459 56.51518,7.586 85.09222,9.6772 63.86176,4.2645 130.22705,0.3106 189.33188,-18.7444 20.01214,-6.5084 39.55882,-14.7612 54.29486,-26.7076 20.27082,-17.5909 29.22761,-40.2604 34.61878,-62.4104 6.56559,-28.9396 2.28165,-60.0042 -18.07511,-85.7743 -20.96484,-26.0108 -57.65426,-44.2053 -97.46242,-52.0684 -39.98248,-8.5105 -81.86719,-10.583 -123.30247,-11.8245 -7.11479,-0.084 -14.23111,-0.064 -21.34502,0.049 z"
       id="path3280-5-9"
       inkscape:connector-curvature="0"
       sodipodi:nodetypes="csssc" />
    <path
       style="color:#000000;display:inline;overflow:visible;visibility:visible;fill:#ffffff;fill-opacity:1;fill-rule:nonzero;stroke:none;stroke-width:1.41044px;marker:none;enable-background:accumulate"
       d="m 1555.6131,328.692 c 6.2954,-133.57342 73.7659,-230.454656 306.047,-206.44411 124.4226,12.86115 265.6576,21.01073 257.8777,216.6794 -7.7802,195.66834 -215.3164,162.79617 -257.4224,163.72969 -96.7163,2.14429 -228.4601,10.44678 -272.9256,-49.64304 -28.5305,-38.55559 -33.9589,-82.96107 -33.5767,-124.32194 z"
       id="path4546-7"
       inkscape:connector-curvature="0"
       sodipodi:nodetypes="cssssc" />
    <path
       style="fill:#ffffff;fill-rule:evenodd;stroke:none;stroke-width:1px;stroke-linecap:butt;stroke-linejoin:miter;stroke-opacity:1"
       d="m 1583.1971,228.38894 -0.065,25.78758 C 1064.4433,130.64867 897.1794,416.85146 793.5913,670.33743 810.89342,604.71047 848.83107,539.01086 867.11504,495.25305 921.33848,365.48369 1120.9039,126.81475 1583.1971,228.38894 Z"
       id="path1237"
       sodipodi:nodetypes="cccsc" />
    <path
       style="fill:#ffffff;fill-rule:evenodd;stroke:none;stroke-width:1.07745px;stroke-linecap:butt;stroke-linejoin:miter;stroke-opacity:1"
       d="m 792.00008,200.22561 c 33.7121,12.97476 64.18552,21.04152 53.82517,-32.7734 59.67262,73.06177 51.11263,23.02436 60.55332,5.4622 35.47754,51.61057 66.00304,44.25569 92.51203,-10.9244 14.9859,79.59467 46.3453,41.03052 74.0097,29.1319 -0.067,22.38327 -36.304,58.75533 63.962,16.82898 -23.3402,20.21595 -61.89,54.06155 8.0172,33.79483 -11.3289,5.35959 9.1441,9.60416 0.9908,12.75937 -36.4893,14.12075 -43.292,45.94822 12.0303,57.21953 -39.0932,12.56052 -47.9639,43.98583 -1.9312,80.13352 -58.4566,-24.94281 -49.6253,8.03409 -38.8085,23.94457 -57.4032,-32.71188 -65.4347,-19.61526 -60.5532,5.4622 -18.3198,-22.87975 -39.2236,-32.45983 -79.58358,6.55438 9.02795,-23.43417 -34.88368,-22.77173 -75.40616,14.31454 21.33941,-35.68177 -8.79121,-40.48012 -42.33642,-17.95604 -8.84776,-37.9175 -42.07125,-18.66554 -77.37369,5.46231 28.81487,-37.0083 30.90291,-67.92573 -25.23053,-85.57523 54.398,-21.17144 44.4926,-38.24845 23.54851,-54.62242 20.69208,-15.39734 34.18357,-32.16999 -20.18444,-61.90552 31.78763,4.6228 65.63406,10.58278 31.95869,-27.31132 z"
       id="path4582"
       inkscape:connector-curvature="0"
       sodipodi:nodetypes="cccccccscccccccccccc" />
    <path
       style="fill:#ffffff;fill-rule:evenodd;stroke:none;stroke-width:1.14149px;stroke-linecap:butt;stroke-linejoin:miter;stroke-opacity:1"
       d="m 186.64099,269.10219 c 14.16793,-17.9695 21.6656,-57.67395 -26.96962,-49.84375 39.28832,-24.22773 26.02054,-46.39487 -3.9116,-60.30611 73.97307,21.84758 73.30597,-3.1264 61.65626,-34.98976 47.54155,45.23929 40.41961,-2.73478 35.84699,-20.87523 10.75548,16.73933 13.0223,42.92164 49.60085,2.10678 -0.32028,30.13252 -6.17118,65.92523 62.1714,25.78584 -22.50387,36.76194 -23.29348,63.59943 42.00483,60.23151 -28.38205,11.84018 -67.58994,23.8538 -13.96314,34.38016 -34.61657,-0.92979 -57.61576,1.55757 -42.76886,15.17701 -14.37392,-2.5435 -33.83306,-9.95842 -3.30801,30.50934 -20.80242,-14.97453 -46.52652,-38.26005 -39.11492,-5.59088 -18.23798,-14.68676 -19.40407,6.8976 -15.2404,39.80566 -12.94537,-38.21825 -26.75878,-42.54053 -41.59034,-7.10557 6.55708,-27.98121 3.27152,-63.65454 -44.38626,-25.35425 -12.90735,-2.90399 -11.03497,-2.74842 -20.02718,-3.93075 z"
       id="path1213"
       sodipodi:nodetypes="cccccccccccccccc" />
    <path
       style="fill:#ffffff;fill-rule:evenodd;stroke:none;stroke-width:1.28731px;stroke-linecap:butt;stroke-linejoin:miter;stroke-opacity:1"
       d="M 223.92681,451.40352 C 191.03014,380.78428 162.95416,309.9462 234.75229,234.57441 l -10.34265,-15.32374 c -90.31546,91.35161 -49.21656,162.34365 -0.48283,232.15285 z"
       id="path1217"
       sodipodi:nodetypes="cccc" />
    <path
       style="fill:#ffffff;fill-rule:evenodd;stroke:none;stroke-width:1.08499px;stroke-linecap:butt;stroke-linejoin:miter;stroke-opacity:1"
       d="m 1643.7985,1929.1739 c 96.8015,-46.6867 120.9988,-40.2821 80.5755,28.3512 65.4725,-1.176 123.2483,3.9962 149.8904,34.8462 l 15.5883,-26.0596 c -31.2138,-18.9598 -72.3678,-35.221 -134.1445,-30.1606 20.9177,-34.9284 13.3859,-99.1339 -111.9097,-6.9772 z"
       id="path1284"
       sodipodi:nodetypes="cccccc" />
  </g>
  <g
     inkscape:groupmode="layer"
     id="layer1"
     inkscape:label="txt">
    <text
       xml:space="preserve"
       style="font-style:normal;font-variant:normal;font-weight:normal;font-stretch:normal;font-size:81.3623px;line-height:1.25;font-family:Lavi;-inkscape-font-specification:Lavi;text-align:center;letter-spacing:0px;word-spacing:0px;text-anchor:middle;fill:#000000;fill-opacity:1;stroke:none;stroke-width:1.408;stroke-miterlimit:4;stroke-dasharray:none"
       x="316.34204"
       y="221.56798"
       id="text4246-3-2-2-6-3-7-9-3-3-56-9-3-20"
       transform="matrix(0.93887237,0,-0.13753791,1.0651075,0,0)"><tspan
         style="font-style:normal;font-variant:normal;font-weight:normal;font-stretch:normal;font-size:81.3623px;font-family:Lavi;-inkscape-font-specification:Lavi;stroke:#000000;stroke-width:1.408;stroke-miterlimit:4;stroke-dasharray:none;stroke-opacity:1"
         sodipodi:role="line"
         x="316.34204"
         y="221.56798"
         id="tspan334">?!!</tspan></text>
    <text
       xml:space="preserve"
       style="font-style:normal;font-variant:normal;font-weight:normal;font-stretch:normal;font-size:55.0875px;line-height:1.25;font-family:Lavi;-inkscape-font-specification:Lavi;text-align:center;letter-spacing:0px;word-spacing:0px;text-anchor:middle;fill:#000000;fill-opacity:1;stroke:none;stroke-width:1.22417"
       x="978.4364"
       y="279.84705"
       id="text4246-3-2-2-6-3-7-9-3-3-56-9-3-20-3"
       transform="scale(0.97385246,1.0268496)"><tspan
         style="font-style:normal;font-variant:normal;font-weight:normal;font-stretch:normal;font-size:55.0875px;font-family:Lavi;-inkscape-font-specification:Lavi;stroke-width:1.22417"
         sodipodi:role="line"
         x="978.4364"
         y="279.84705"
         id="tspan880">Der Fluch</tspan><tspan
         style="font-style:normal;font-variant:normal;font-weight:normal;font-stretch:normal;font-size:55.0875px;font-family:Lavi;-inkscape-font-specification:Lavi;stroke-width:1.22417"
         sodipodi:role="line"
         x="978.4364"
         y="348.70642"
         id="tspan888">war für <tspan
   style="font-style:normal;font-variant:normal;font-weight:bold;font-stretch:normal;font-family:Lavi;-inkscape-font-specification:'Lavi Bold'"
   id="tspan80">sie!</tspan></tspan></text>
    <text
       xml:space="preserve"
       style="font-style:normal;font-variant:normal;font-weight:normal;font-stretch:normal;font-size:48.8015px;line-height:1.25;font-family:Lavi;-inkscape-font-specification:Lavi;text-align:center;letter-spacing:0px;word-spacing:0px;text-anchor:middle;fill:#000000;fill-opacity:1;stroke:none;stroke-width:1.08448"
       x="1831.3063"
       y="208.02296"
       id="text4246-3-2-2-6-3-7-9-3-3-56-9-3-20-3-7"><tspan
         style="font-size:48.8015px;stroke-width:1.08448"
         sodipodi:role="line"
         x="1831.3063"
         y="208.02296"
         id="tspan900">Ich habe nur den</tspan><tspan
         style="font-size:48.8015px;stroke-width:1.08448"
         sodipodi:role="line"
         x="1831.3063"
         y="269.02484"
         id="tspan914"><tspan
   style="font-style:italic;font-variant:normal;font-weight:normal;font-stretch:normal;font-family:Lavi;-inkscape-font-specification:'Lavi Italic'"
   id="tspan902">Blendezauber</tspan> auf-</tspan><tspan
         style="font-size:48.8015px;stroke-width:1.08448"
         sodipodi:role="line"
         x="1831.3063"
         y="330.0267"
         id="tspan95">gehoben, durch den</tspan><tspan
         style="font-size:48.8015px;stroke-width:1.08448"
         sodipodi:role="line"
         x="1831.3063"
         y="391.02859"
         id="tspan84">sie ihr junges</tspan><tspan
         style="font-size:48.8015px;stroke-width:1.08448"
         sodipodi:role="line"
         x="1831.3063"
         y="452.03046"
         id="tspan101">Aussehen bewahrt.</tspan></text>
    <text
       xml:space="preserve"
       style="font-style:normal;font-variant:normal;font-weight:normal;font-stretch:normal;font-size:45px;line-height:1.25;font-family:Lavi;-inkscape-font-specification:Lavi;text-align:center;letter-spacing:0px;word-spacing:0px;text-anchor:middle;fill:#000000;fill-opacity:1;stroke:none"
       x="480.54556"
       y="1896.8755"
       id="text4246-3-2-2-6-3-7-9-3-3-56-9-3-20-5"><tspan
         style="font-size:45px"
         sodipodi:role="line"
         x="480.54556"
         y="1896.8755"
         id="tspan924">Den Zauber habe</tspan><tspan
         style="font-size:45px"
         sodipodi:role="line"
         x="480.54556"
         y="1953.1255"
         id="tspan108">ich gleich bei meiner</tspan><tspan
         style="font-size:45px"
         sodipodi:role="line"
         x="480.54556"
         y="2009.3755"
         id="tspan110">Ankunft bemerkt.</tspan></text>
    <text
       xml:space="preserve"
       style="font-style:normal;font-variant:normal;font-weight:normal;font-stretch:normal;font-size:45px;line-height:1.25;font-family:Lavi;-inkscape-font-specification:Lavi;text-align:center;letter-spacing:0px;word-spacing:0px;text-anchor:middle;fill:#000000;fill-opacity:1;stroke:none"
       x="2055.0591"
       y="1949.8672"
       id="text4246-3-2-2-6-3-7-9-3-3-56-9-3-20-5-9"><tspan
         style="font-size:45px"
         sodipodi:role="line"
         x="2055.0591"
         y="1949.8672"
         id="tspan948">Deshalb habe ich</tspan><tspan
         style="font-size:45px"
         sodipodi:role="line"
         x="2055.0591"
         y="2006.1172"
         id="tspan121">Euch einen kleinen</tspan><tspan
         style="font-size:45px"
         sodipodi:role="line"
         x="2055.0591"
         y="2062.3672"
         id="tspan123">Geschmack davon gegeben,</tspan><tspan
         style="font-size:45px"
         sodipodi:role="line"
         x="2055.0591"
         y="2118.6172"
         id="tspan125">was Ihr dafür verdient,</tspan><tspan
         style="font-size:45px"
         sodipodi:role="line"
         x="2055.0591"
         y="2174.8672"
         id="tspan127">Shichimi gegen mich</tspan><tspan
         style="font-size:45px"
         sodipodi:role="line"
         x="2055.0591"
         y="2231.1172"
         id="tspan129">kämpfen zu lassen!</tspan></text>
    <text
       xml:space="preserve"
       style="font-style:normal;font-variant:normal;font-weight:normal;font-stretch:normal;font-size:60px;line-height:1.25;font-family:Lavi;-inkscape-font-specification:Lavi;text-align:center;letter-spacing:2px;word-spacing:0px;text-anchor:middle;fill:#000000;fill-opacity:1;stroke:none;stroke-width:1.32287"
       x="371.23419"
       y="2215.2615"
       id="text4246-3-2-2-6-3-7-9-3-3-56-9-3-20-5-9-0"
       transform="scale(0.860916,1.1615535)"><tspan
         style="font-style:normal;font-variant:normal;font-weight:bold;font-stretch:normal;font-size:60px;font-family:Lavi;-inkscape-font-specification:'Lavi Bold';stroke-width:1.32287"
         sodipodi:role="line"
         x="372.23419"
         y="2215.2615"
         id="tspan992-6">FRECHHEIT!</tspan></text>
    <text
       xml:space="preserve"
       style="font-style:normal;font-variant:normal;font-weight:normal;font-stretch:normal;font-size:58px;line-height:1.25;font-family:Lavi;-inkscape-font-specification:Lavi;text-align:center;letter-spacing:0px;word-spacing:0px;text-anchor:middle;fill:#000000;fill-opacity:1;stroke:none;stroke-width:1.30553"
       x="346.31354"
       y="2747.8157"
       id="text4246-3-2-2-6-3-7-9-3-3-56-9-3-20-5-2"><tspan
         style="font-size:58px;stroke-width:1.30553"
         sodipodi:role="line"
         x="346.31354"
         y="2747.8157"
         id="tspan943-8">Wie kannst</tspan><tspan
         style="font-size:58px;stroke-width:1.30553"
         sodipodi:role="line"
         x="346.31354"
         y="2820.3157"
         id="tspan1085">du es <tspan
   style="font-style:normal;font-variant:normal;font-weight:bold;font-stretch:normal;font-family:Lavi;-inkscape-font-specification:'Lavi Bold'"
   id="tspan950">wagen,</tspan></tspan></text>
    <text
       xml:space="preserve"
       style="font-style:normal;font-variant:normal;font-weight:normal;font-stretch:normal;font-size:50px;line-height:1.25;font-family:Lavi;-inkscape-font-specification:Lavi;text-align:center;letter-spacing:0px;word-spacing:0px;text-anchor:middle;fill:#000000;fill-opacity:1;stroke:none;stroke-width:1.30553"
       x="310.72937"
       y="2922.1687"
       id="text4246-3-2-2-6-3-7-9-3-3-56-9-3-20-5-2-7"><tspan
         style="font-size:50px;stroke-width:1.30553"
         sodipodi:role="line"
         x="310.72937"
         y="2922.1687"
         id="tspan959">und das auch</tspan><tspan
         style="font-size:50px;stroke-width:1.30553"
         sodipodi:role="line"
         x="310.72937"
         y="2984.6687"
         id="tspan143">noch vor</tspan><tspan
         style="font-size:50px;stroke-width:1.30553"
         sodipodi:role="line"
         x="310.72937"
         y="3047.1687"
         id="tspan145">meiner Schule!</tspan></text>
    <text
       xml:space="preserve"
       style="font-style:normal;font-variant:normal;font-weight:normal;font-stretch:normal;font-size:45px;line-height:1.25;font-family:Lavi;-inkscape-font-specification:Lavi;text-align:center;letter-spacing:0px;word-spacing:0px;text-anchor:middle;fill:#000000;fill-opacity:1;stroke:none"
       x="2148.2935"
       y="2544.0259"
       id="text4246-3-2-2-6-3-7-9-3-3-56-9-3-20-5-9-02"><tspan
         style="font-size:45px"
         sodipodi:role="line"
         x="2148.2935"
         y="2544.0259"
         id="tspan992-2">Ihr könnt</tspan><tspan
         style="font-size:45px"
         sodipodi:role="line"
         x="2148.2935"
         y="2600.2759"
         id="tspan1175">froh sein!</tspan></text>
    <text
       xml:space="preserve"
       style="font-style:normal;font-variant:normal;font-weight:normal;font-stretch:normal;font-size:45px;line-height:1.25;font-family:Lavi;-inkscape-font-specification:Lavi;text-align:center;letter-spacing:0px;word-spacing:0px;text-anchor:middle;fill:#000000;fill-opacity:1;stroke:none"
       x="2158.2332"
       y="2723.3838"
       id="text4246-3-2-2-6-3-7-9-3-3-56-9-3-20-5-9-02-2"><tspan
         style="font-size:45px"
         sodipodi:role="line"
         x="2158.2332"
         y="2723.3838"
         id="tspan982">Wenn ich all</tspan><tspan
         style="font-size:45px"
         sodipodi:role="line"
         x="2158.2332"
         y="2779.6338"
         id="tspan156">mein Rea hätte,</tspan><tspan
         style="font-size:45px"
         sodipodi:role="line"
         x="2158.2332"
         y="2835.8838"
         id="tspan158">wäre das nur</tspan><tspan
         style="font-size:45px"
         sodipodi:role="line"
         x="2158.2332"
         y="2892.1338"
         id="tspan160">der Anfang.</tspan></text>
  </g>
</svg>
