<?xml version="1.0" encoding="UTF-8" standalone="no"?>
<svg
   xmlns:dc="http://purl.org/dc/elements/1.1/"
   xmlns:cc="http://creativecommons.org/ns#"
   xmlns:rdf="http://www.w3.org/1999/02/22-rdf-syntax-ns#"
   xmlns:svg="http://www.w3.org/2000/svg"
   xmlns="http://www.w3.org/2000/svg"
   xmlns:xlink="http://www.w3.org/1999/xlink"
   xmlns:sodipodi="http://sodipodi.sourceforge.net/DTD/sodipodi-0.dtd"
   xmlns:inkscape="http://www.inkscape.org/namespaces/inkscape"
   id="svg2"
   version="1.1"
   inkscape:version="1.0.2-2 (e86c870879, 2021-01-15)"
   width="2481"
   height="3503"
   sodipodi:docname="E35P02.svg">
  <metadata
     id="metadata8">
    <rdf:RDF>
      <cc:Work
         rdf:about="">
        <dc:format>image/svg+xml</dc:format>
        <dc:type
           rdf:resource="http://purl.org/dc/dcmitype/StillImage" />
        <dc:title />
      </cc:Work>
    </rdf:RDF>
  </metadata>
  <defs
     id="defs6" />
  <sodipodi:namedview
     pagecolor="#ffffff"
     bordercolor="#666666"
     borderopacity="1"
     objecttolerance="10"
     gridtolerance="10"
     guidetolerance="10"
     inkscape:pageopacity="0"
     inkscape:pageshadow="2"
     inkscape:window-width="2560"
     inkscape:window-height="1390"
     id="namedview4"
     showgrid="false"
     inkscape:window-x="0"
     inkscape:window-y="24"
     inkscape:window-maximized="1"
     inkscape:document-rotation="0"
     inkscape:snap-global="false"
     inkscape:pagecheckerboard="0"
     inkscape:zoom="0.34719488"
     inkscape:cx="1279.3565"
     inkscape:cy="1607.5983"
     inkscape:current-layer="layer1" />
  <g
     inkscape:groupmode="layer"
     id="layer2"
     inkscape:label="artwork"
     sodipodi:insensitive="true">
    <image
       sodipodi:absref="C:\Users\stero\Documents\Kernewek\Pepper and Carrot\webcomics\ep35_The-Reflection\lang\gfx_Pepper-and-Carrot_by-David-Revoy_E35P02.png"
       xlink:href="../gfx_Pepper-and-Carrot_by-David-Revoy_E35P02.png"
       y="0"
       x="0"
       id="image10"
       height="3503"
       width="2481" />
  </g>
  <g
     inkscape:groupmode="layer"
     id="layer3"
     inkscape:label="speechbubbles">
    <path
       style="color:#000000;display:inline;overflow:visible;visibility:visible;fill:#ffffff;fill-opacity:1;fill-rule:nonzero;stroke:none;stroke-width:1.19904px;marker:none;enable-background:accumulate"
       d="m 273.78378,2061.6157 c -8.04177,19.1675 -53.39864,20.7753 -70.09575,16.8793 33.65748,21.4422 32.48407,34.765 -13.21328,36.8328 76.63537,38.6455 14.00993,32.7975 1.65759,42.5961 60.17288,13.3183 40.22849,33.5035 1.6052,42.7821 69.16287,0.5668 52.41953,14.1691 26.23455,33.7429 30.62246,-12.815 77.86069,-22.0302 79.53675,11.4755 44.36951,-29.27 67.26203,-28.6999 83.30685,4.3983 13.40243,-28.5407 59.03845,-34.0335 76.48869,-3.2536 15.03227,-41.6564 68.66913,-35.7917 100.59723,-15.6032 -17.92294,-14.2481 -5.70115,-37.7091 55.40454,-32.9646 -4.91844,-13.0611 2.81629,-29.5461 33.67401,-27.3693 -35.54427,-7.889 -42.09487,-16.0274 23.90271,-24.7849 -50.2203,-0.8463 -97.05111,-2.5822 -38.13176,-32.4479 -18.48459,-0.7227 -62.34134,24.1981 -41.89365,-48.7315 -54.13745,21.5047 -111.02533,32.498 -108.22647,-12.6736 -20.12683,24.4331 -55.03636,36.5232 -70.22383,6.005 -12.53722,28.5084 -50.6176,16.5708 -70.39968,-2.8873 -13.071,19.31 -32.62391,32.3522 -70.2237,6.0039 z"
       id="path3549-3-7-8"
       inkscape:connector-curvature="0"
       sodipodi:nodetypes="ccccccccccccccccccc" />
    <path
       style="fill:#ffffff;stroke:none;stroke-width:1.02077"
       d="m 402.95155,2031.4345 c 26.97915,-0.9305 157.35896,-5.3376 155.33108,84.3602 -2.54084,112.3942 -3.821,163.7545 -143.43924,162.028 -149.95773,-1.8545 -119.77638,-69.6419 -120.95054,-154.5832 -1.03953,-75.1997 36.66343,-89.0869 109.0587,-91.805 z"
       id="path3280-8-6"
       inkscape:connector-curvature="0"
       sodipodi:nodetypes="csssc" />
    <path
       style="color:#000000;display:inline;overflow:visible;visibility:visible;fill:#ffffff;fill-opacity:1;fill-rule:nonzero;stroke:none;stroke-width:1px;marker:none;enable-background:accumulate"
       d="m 596.40058,2341.6788 c -54.36956,-1.3158 -66.37353,-18.0831 -76.5499,-29.227 3.41593,-3.9672 8.07344,-11.8668 8.07344,-11.8668 0,0 -22.49109,-20.0802 -27.87182,-30.4304 -5.38071,-10.3501 9.28192,-17.9731 9.28192,-17.9731 0,0 44.94813,37.9871 57.64264,43.4391 -9.83295,10.5902 -13.21387,16.7305 -18.38931,19.4211 3.1733,8.211 28.66645,25.6349 47.81303,26.6371 z"
       id="path4456-3"
       inkscape:connector-curvature="0" />
    <path
       style="color:#000000;display:inline;overflow:visible;visibility:visible;fill:#ffffff;fill-opacity:1;fill-rule:nonzero;stroke:none;stroke-width:0.803733px;marker:none;enable-background:accumulate"
       d="m 1983.6307,2169.1943 c -4.3305,-56.497 5.9266,-125.335 143.5229,-109.0086 131.1888,15.5659 122.995,36.9633 124.3842,108.6937 1.4636,75.5745 -52.0802,112.1707 -146.0786,104.9253 -55.0849,-4.2457 -109.9759,-8.2642 -121.8285,-104.6104 z"
       id="path5026-4"
       inkscape:connector-curvature="0"
       sodipodi:nodetypes="csssc" />
    <path
       style="color:#000000;display:inline;overflow:visible;visibility:visible;fill:#ffffff;fill-opacity:1;fill-rule:nonzero;stroke:none;stroke-width:1.63768px;marker:none;enable-background:accumulate"
       d="m 2065.086,2229.8886 c -4.2272,-2.5286 -41.7209,44.7549 -41.7209,44.7549 l -35.4466,3.459 1.2502,26.926 -53.4012,-4.5662 35.1739,-8.2914 -1.9242,-26.5703 33.0101,-11.5413 29.8178,-33.9388 z"
       id="path4448"
       inkscape:connector-curvature="0"
       sodipodi:nodetypes="cccccccccc" />
    <path
       style="color:#000000;display:inline;overflow:visible;visibility:visible;fill:#ffffff;fill-opacity:1;fill-rule:nonzero;stroke:none;stroke-width:1.15943px;marker:none;enable-background:accumulate"
       d="m 119.8522,2679.6796 c -6.43508,-35.7832 10.72512,-132.0449 142.64487,-128.8387 131.9196,3.2061 153.37005,47.4601 156.58754,60.8504 3.21759,13.3902 31.10305,88.9259 -71.85863,112.8281 -102.96178,23.9019 -195.19821,5.7864 -227.37378,-44.8398 z"
       id="path3525"
       inkscape:connector-curvature="0" />
    <path
       style="color:#000000;display:inline;overflow:visible;visibility:visible;fill:#ffffff;fill-opacity:1;fill-rule:nonzero;stroke:none;stroke-width:0.8273px;marker:none;enable-background:accumulate"
       d="m 1199.0011,2492.4237 c -18.073,0.8182 -36.4351,1.788 -53.7422,6.9827 -23.1207,7.5173 -41.4321,26.7389 -45.336,48.8922 -1.8974,13.8942 5.745,28.0441 17.9675,36.2747 14.0237,9.8699 31.1232,15.2118 48.16,19.0219 25.6015,5.4774 52.1565,5.2221 78.2486,3.7345 20.7598,-1.3088 41.6527,-4.9224 60.4769,-13.2573 8.3672,-3.5602 16.6877,-8.4478 21.0883,-16.0968 5.8373,-9.7255 6.2569,-21.3487 4.2218,-32.0561 -2.5188,-13.2028 -10.1184,-25.8753 -22.2073,-33.7852 -13.3465,-9.089 -29.8268,-13.2462 -46.0584,-15.6624 -15.1524,-2.2129 -30.4753,-3.2505 -45.7716,-4.2311 -5.6869,-0.2852 -11.3671,-0.132 -17.0476,0.1829 z"
       id="path3525-3"
       inkscape:connector-curvature="0" />
    <path
       style="color:#000000;display:inline;overflow:visible;visibility:visible;fill:#ffffff;fill-opacity:1;fill-rule:nonzero;stroke:none;stroke-width:0.850812px;marker:none;enable-background:accumulate"
       d="m 378.31396,2800.4734 c -21.81603,-6.0365 -24.7236,-21.3438 -23.81085,-34.7307 0.91307,-13.3879 3.43731,-21.6544 -10.14803,-38.2382 -13.58559,-16.5829 -43.44749,-17.8668 -26.36893,-33.9071 2.07754,-10.3968 3.18888,-19.4098 8.63924,-29.73 6.0118,-11.3839 -30.60834,-11.6128 -30.60834,-11.6128 0,0 -9.2601,36.4069 -8.60393,58.2554 0.65624,21.8486 37.98578,15.4181 49.29264,29.8458 10.55851,13.4728 3.54145,36.8172 10.69223,46.6028 7.15061,9.7866 19.89022,13.3481 30.91597,13.5148 z"
       id="path4538-8"
       inkscape:connector-curvature="0"
       sodipodi:nodetypes="csscscsssc" />
    <path
       style="fill:#ffffff;fill-rule:evenodd;stroke:none;stroke-width:1.00018px;stroke-linecap:butt;stroke-linejoin:miter;stroke-opacity:1"
       d="m 683.3565,2839.4097 c 22.47948,-7.6888 8.18259,-27.2917 13.56572,-36.5201 5.55722,-9.5269 47.07364,3.0903 52.88651,-5.37 5.81286,-8.4604 -12.6074,-31.2018 -3.16551,-44.2198 9.44226,-13.0187 37.29048,-1.0958 25.77916,13.6924 -11.51166,14.7889 6.85876,28.7751 -4.63767,39.1332 -19.17293,17.274 -46.18634,1.6002 -58.07288,2.8253 -7.86988,0.8115 -1.86593,15.6117 -9.63373,23.71 -7.76824,8.099 -16.7216,6.749 -16.7216,6.749 z"
       id="path4272-2"
       inkscape:connector-curvature="0"
       sodipodi:nodetypes="csssssssc" />
    <path
       style="fill:#ffffff;stroke:none;stroke-width:1.03835"
       d="m 1757.6864,2734.7823 c -1.258,-33.7766 21.2997,-118.3324 131.3348,-111.9727 110.0352,6.3597 144.4743,43.5131 147.699,103.5506 5.101,94.9786 -52.7885,120.3608 -135.9123,127.3953 -85.6919,7.2524 -144.4514,-57.9436 -143.1215,-118.9732 z"
       id="path3280-8-90"
       inkscape:connector-curvature="0"
       sodipodi:nodetypes="csssc" />
    <path
       style="color:#000000;display:inline;overflow:visible;visibility:visible;fill:#ffffff;fill-opacity:1;fill-rule:nonzero;stroke:none;stroke-width:1px;marker:none;enable-background:accumulate"
       d="m 1981.8954,2716.5742 c 21.7602,57.3157 81.8906,99.8161 102.9782,111.0989 -62.8332,-18.8149 -116.4083,-51.6111 -129.2847,-90.9766 -12.8765,-39.3656 26.3065,-20.1223 26.3065,-20.1223 z"
       id="path4480"
       inkscape:connector-curvature="0" />
    <path
       style="fill:#ffffff;fill-rule:evenodd;stroke:none;stroke-width:0.718592px;stroke-linecap:butt;stroke-linejoin:miter;stroke-opacity:1"
       d="m 1142.7461,1179.1074 c -26.7361,0.1279 -53.5793,1.7115 -79.5812,5.9623 -9.7626,1.6564 -19.4644,3.5855 -28.7196,6.2421 -12.1154,3.7798 -21.2853,10.6837 -28.1464,18.136 -7.79046,8.5506 -12.73978,18.1514 -15.18047,27.983 -1.95151,7.6825 -2.91349,15.465 -3.41983,23.2428 -0.50494,10.7162 1.30421,21.5607 6.64198,31.7227 6.26862,12.6298 16.72952,24.6367 32.12932,33.3454 14.7779,8.0176 32.9966,12.5816 51.2214,15.9293 30.0315,5.2806 61.3217,6.0818 92.2386,6.0719 23.2877,-0.1632 46.4076,-2.6924 68.9315,-6.5016 17.3369,-2.7515 34.6299,-5.8912 51.0251,-10.5789 12.2284,-3.7436 23.5186,-9.4439 30.2552,-17.2927 8.9823,-9.8452 12.9126,-21.2149 16.1916,-32.3809 3.5558,-12.8031 5.329,-26.1161 1.1198,-38.9508 -4.0738,-12.1636 -14.0175,-23.0317 -25.2013,-32.8951 -14.3367,-11.8362 -34.839,-19.8965 -56.5869,-24.3181 -23.423,-4.7839 -48.1475,-5.4938 -72.4906,-5.6915 -13.4756,-0.06 -26.9524,-0.057 -40.4282,-0.026 z"
       id="path1353"
       inkscape:connector-curvature="0"
       sodipodi:nodetypes="cssscscssccc" />
    <path
       style="color:#000000;display:inline;overflow:visible;visibility:visible;fill:#ffffff;fill-opacity:1;fill-rule:nonzero;stroke:none;stroke-width:1.32704px;marker:none;enable-background:accumulate"
       d="m 1567.2167,1263.2749 c -23.3951,-13.5874 -47.4345,-27.8488 -80.2438,-37.3029 -9.419,-2.6108 -19.456,-5.052 -29.7275,-6.2777 -10.8699,-0.2589 -18.5833,3.1803 -21.2691,7.3616 -4.9062,5.8321 -4.0751,13.3543 -14.8239,17.5815 -8.0334,2.9766 -20.4058,1.2285 -30.8948,0.151 -55.5613,-5.5966 -116.4529,-16.3815 -168.9125,-7.1839 -10.3316,2.0201 -20.2049,4.8402 -25.0559,9.4641 -13.7945,11.5007 -11.0257,28.0336 10.0671,40.719 14.9737,7.6682 42.5542,10.484 56.687,4.5569 7.5899,-3.0688 8.1735,-8.3583 5.5139,-13.1861 -1.2458,-8.9607 7.6217,0.022 24.0822,-3.6677 37.2334,-5.6014 77.5291,-14.6477 110.5037,-9.7254 10.0809,1.4739 25.6582,0.1256 35.3315,-0.599 12.5832,-2.5592 14.9137,-9.3886 15.3033,-15.3984 0.7726,-6.1637 0.047,-13.4883 11.1891,-17.2514 6.7172,-3.1499 17.8965,0.5337 26.5328,1.8753 27.2211,5.8451 51.5565,15.088 70.9679,25.6439 1.7031,1.0526 3.2274,2.1441 4.749,3.2392 z"
       id="path4496-9"
       inkscape:connector-curvature="0"
       inkscape:transform-center-x="43.812193"
       inkscape:transform-center-y="17.777857"
       sodipodi:nodetypes="ccccccccccccccccccc" />
    <path
       style="fill:#ffffff;stroke:none;stroke-width:0.86966"
       d="m 870.21516,506.07458 c 4.03551,-79.95564 23.59527,-109.60227 260.85484,-112.65143 328.367,-4.2206 351.3414,63.76808 345.1033,157.5583 -6.7305,101.19365 -200.3957,101.47753 -358.706,98.35148 -273.19102,-5.39418 -244.789,-61.2111 -247.25214,-143.25835 z"
       id="path3280-8-0"
       inkscape:connector-curvature="0"
       sodipodi:nodetypes="csssc" />
    <path
       style="display:inline;fill:#ffffff;stroke:none;stroke-width:0.760991"
       d="m 846.25597,318.63754 c 2.51728,-62.9498 16.90873,-145.15068 149.80284,-146.44194 132.89389,-1.29222 177.61179,38.50078 185.01359,107.2676 14.1784,131.72583 -53.3341,121.41139 -152.8999,135.97035 -102.64159,15.00816 -185.80637,-4.53008 -181.91653,-96.79601 z"
       id="path3280-8-2"
       inkscape:connector-curvature="0"
       sodipodi:nodetypes="csssc" />
    <path
       style="color:#000000;display:inline;overflow:visible;visibility:visible;fill:#ffffff;fill-opacity:1;fill-rule:nonzero;stroke:none;stroke-width:1.12734px;marker:none;enable-background:accumulate"
       d="m 1054.8727,654.26102 c 26.1383,-30.95776 348.576,-53.00464 423.0628,17.01045 51.9098,48.79294 31.8845,142.36388 -12.6087,166.72126 -44.4935,24.35859 -259.3045,31.21923 -320.3574,18.81389 -54.9019,-11.15418 -112.53,-35.16455 -115.5682,-99.06921 -1.2399,-26.0814 -0.6668,-72.51986 25.4715,-103.47639 z"
       id="path4040-5"
       inkscape:connector-curvature="0"
       sodipodi:nodetypes="zssssz" />
    <path
       style="color:#000000;display:inline;overflow:visible;visibility:visible;fill:#ffffff;fill-opacity:1;fill-rule:nonzero;stroke:none;stroke-width:1px;marker:none;enable-background:accumulate"
       d="m 880.35523,328.5815 c -13.93862,-43.79995 -75.39205,-33.32608 -131.42892,10.54697 35.43843,-36.41055 76.35778,-76.93843 143.98747,-47.05147 49.32789,21.79901 14.57754,15.53221 14.57754,15.53221 z"
       id="path4035-4"
       inkscape:connector-curvature="0"
       sodipodi:nodetypes="ccscc" />
    <path
       style="display:inline;fill:#ffffff;fill-rule:evenodd;stroke:none;stroke-width:1.30048px;stroke-linecap:butt;stroke-linejoin:miter;stroke-opacity:1"
       d="m 1548.4515,71.619933 c 24.985,5.793404 24.4053,18.959491 12.7022,17.639048 7.502,22.947809 30.4769,75.029379 10.5214,81.465079 0.3216,63.9758 13.4148,96.99152 -1.5675,133.3805 55.2137,-16.22272 57.3634,11.34478 53.2124,37.36138 20.3681,-34.64111 35.9429,-12.07585 29.8359,19.78535 20.93,-34.83705 45.1859,-50.69323 41.2991,-13.35757 23.6513,-26.97855 24.8612,-39.45512 44.7286,-27.78038 36.1161,-32.36707 51.1793,12.81962 73.0469,32.93992 8.1542,-36.73832 23.3152,-29.5983 49.8625,-10.87598 9.0829,-15.46913 -12.0518,-42.91267 12.7553,-9.1895 -9.9891,-38.67303 40.684,-20.02028 51.0233,-14.32381 -12.6632,-17.39684 9.1057,-22.00167 70.4804,-11.89519 -23.7677,-9.30819 -33.969,-40.04329 13.7163,-61.82426 -62.5354,8.83659 -39.2315,-9.45622 -20.0369,-29.45507 -40.898,-30.71396 -0.2138,-59.34641 20.1138,-88.49783 -41.3041,13.50432 -56.3387,-44.502353 -63.9558,-58.334579 -62.6921,10.543316 -53.3929,4.67716 -47.3762,-0.440896 -38.8414,12.824672 -36.6646,1.446479 -46.7026,-2.724502 -106.7351,15.616521 -102.9554,-0.688504 -125.0299,-9.525581 -8.7451,18.669199 -31.2305,11.414952 -53.7729,4.053771 0.845,15.799861 -12.7693,11.180214 -26.0813,6.987641 -1.7053,6.812619 -14.9264,8.77544 -43.6739,4.198974 20.5299,5.623526 7.8516,6.563777 -55.1011,0.413485 z"
       id="path4289-9-2"
       inkscape:connector-curvature="0"
       sodipodi:nodetypes="cccccccccccccccccccccccc" />
    <path
       style="fill:#ffffff;fill-opacity:1;fill-rule:evenodd;stroke:none;stroke-width:0.979061px;stroke-linecap:butt;stroke-linejoin:miter;stroke-opacity:1"
       d="m 2392.5249,828.31665 c -1.2192,6.34195 -56.3523,55.67385 -21.9235,12.27055 l -32.213,12.12489 c -62.4398,-26.31741 -266.7205,-10.24548 -335.0513,4.27336 l -18.7446,-26.10175 3.7388,21.91163 -21.7325,-32.45316 12.1794,43.70313 -11.4715,-14.83665 4.818,16.38217 -11.1428,-7.96597 1.8848,14.02227 c -25.907,13.02061 -40.6372,38.6939 -46.4729,65.18156 l -20.9217,-2.39962 19.4351,10.35709 c -0.2473,1.60795 -0.4702,3.2159 -0.6541,4.81912 -0.011,0.10971 -0.025,0.22227 -0.035,0.33199 l -21.9906,-3.78341 21.1159,14.1055 c -0.046,0.75385 -0.092,1.5058 -0.1318,2.26627 l -42.0743,-8.83427 41.7186,24.00669 c -0.01,26.96436 3.018,54.63526 4.5854,66.73086 1.0868,8.3859 2.2549,23.9368 8.6041,27.2702 l -39.1869,10.0692 51.9277,-5.4935 c 1.1029,0.1226 2.2289,0.2449 3.3597,0.3675 l -13.4152,3.4243 23.3544,-2.3849 c 2.3898,0.2411 4.8319,0.4809 7.321,0.7194 l -24.1854,7.6712 36.075,-6.5785 c 86.8324,7.6565 272.4573,15.2779 401.9513,-3.2458 l 19.1392,3.9931 -7.3543,-5.7621 c 2.5283,-0.398 5.7736,-0.805 5.9077,-1.2225 l 0.4542,0.1682 -0.3009,-1.2778 c 0.028,-0.2112 0.057,-0.4228 0.086,-0.6363 l 1.5475,2.8101 -1.1631,-14.9918 c 0.7331,-17.4103 0.9216,-37.1654 0.8309,-57.172 l 1.4035,-12.03792 c -2.4259,6.22845 -1.5594,-7.47602 -0.034,-14.52451 l -1.3703,0.97517 c 0.1327,-16.19678 -0.3577,-45.90319 -1,-61.40761 l 0.064,-11.756 c -1.1244,1.12651 -0.4003,-8.98845 -0.014,-17.79623 -1.2346,7.9253 -1.0831,4.5959 -0.5975,-10.81204 -2.0791,4.39065 1.1132,-36.29143 1.6783,-46.48111 z"
       id="path4212-3"
       inkscape:connector-curvature="0"
       sodipodi:nodetypes="ccccccccccccccccccccccsccccccccccccccccccccccccccc" />
    <path
       style="display:inline;fill:#ffffff;fill-rule:evenodd;stroke:none;stroke-width:1.44912px;stroke-linecap:butt;stroke-linejoin:miter;stroke-opacity:1"
       d="m 2102.6149,751.43806 c 0.6806,41.31231 13.5699,99.33289 8.1415,118.1885 4.1542,65.56524 102.9122,-3.97588 46.8489,-17.72263 -23.7511,-36.29813 -38.7836,-65.39219 -54.9904,-100.46587 z"
       id="path4667-2"
       inkscape:connector-curvature="0"
       sodipodi:nodetypes="cccc" />
    <path
       style="color:#000000;display:inline;overflow:visible;visibility:visible;fill:#ffffff;fill-opacity:1;fill-rule:nonzero;stroke:none;stroke-width:0.891997px;marker:none;enable-background:accumulate"
       d="m 733.40911,2654.7496 c -27.56406,-0.098 -56.09893,5.1296 -78.89518,19.5074 -15.71474,9.8584 -27.22154,26.2721 -26.5013,43.7335 0.5462,14.2429 10.67174,27.0138 23.82523,34.6216 14.99922,8.6903 32.87844,12.1176 50.28903,14.7287 30.09288,4.0973 60.63079,3.3432 90.94509,4.9003 19.15466,0.6389 38.82433,0.9884 57.32549,-4.1125 16.58778,-6.0439 26.85665,-21.5133 28.51318,-36.9608 1.71378,-15.5734 -0.66261,-32.4583 -11.62804,-45.2137 -10.31828,-11.5412 -26.31477,-17.3952 -41.83511,-21.357 -29.86665,-7.3926 -61.09068,-10.2257 -92.03839,-9.8475 z"
       id="path3525-3-5"
       inkscape:connector-curvature="0" />
    <path
       style="fill:#ffffff;fill-rule:evenodd;stroke:none;stroke-width:1.00018px;stroke-linecap:butt;stroke-linejoin:miter;stroke-opacity:1"
       d="m 1223.463,2688.0374 c 17.4992,-16.0693 -3.4666,-28.2803 -2.2428,-38.8936 1.2634,-10.9567 44.3518,-16.0746 46.2777,-26.1572 1.9258,-10.0826 -24.0767,-23.5119 -20.6577,-39.2259 3.4191,-15.7147 33.7111,-15.9794 29.1078,2.1868 -4.6033,18.167 17.8374,23.5982 11.4686,37.7013 -10.6216,23.5196 -41.6554,20.0139 -52.0494,25.9095 -6.8814,3.9037 4.5609,15.0468 0.6993,25.5829 -3.8618,10.5369 -12.6035,12.8962 -12.6035,12.8962 z"
       id="path4272-2-3"
       inkscape:connector-curvature="0"
       sodipodi:nodetypes="csssssssc" />
    <path
       style="color:#000000;display:inline;overflow:visible;visibility:visible;fill:#ffffff;fill-opacity:1;fill-rule:nonzero;stroke:none;stroke-width:1.08681px;marker:none;enable-background:accumulate"
       d="m 1536.4732,2522.3224 c -8.4128,19.7338 -57.9061,21.9845 -76.2118,18.2182 37.161,21.5056 36.1352,35.1623 -13.721,37.8903 84.4173,38.545 15.926,33.3934 2.6267,43.5918 65.9565,12.8342 36.879,30.1632 25.4982,47.2005 75.528,-0.3425 51.322,27.0397 54.9088,48.5677 6.2125,-10.1977 36.0497,-41.3812 38.5223,-7.0964 0.016,-6.488 48.6771,-60.8477 123.506,-9.4692 -2.2882,-26.8993 22.8746,-32.7435 47.5632,4.1555 -8.7721,-40.161 76.5488,-29.5513 121.8615,-17.4684 -23.2342,-24.1109 12.5778,-34.3802 50.9711,-29.9904 -5.6207,-13.3079 7.1395,-22.6579 36.243,-28.4736 -38.9612,-7.6032 -46.2697,-15.8481 25.6239,-25.6962 -54.8508,-0.1964 -106.0176,-1.3483 -42.2578,-32.7151 -20.1967,-0.492 -67.6047,25.6094 -46.6769,-49.338 -34.2582,24.3307 -71.0389,37.9775 -118.413,-11.5311 -21.5076,25.285 -59.3926,38.132 -76.5607,7.0859 -5.7105,13.3936 -30.3306,18.707 -51.2996,19.5706 -8.2123,-5.1921 -16.7146,-12.2772 -25.6233,-21.587 -13.9015,19.9474 -35.0008,33.5613 -76.5606,7.0849 z"
       id="path3549-3-7-9-6"
       inkscape:connector-curvature="0"
       sodipodi:nodetypes="cccccccccccccccccccc" />
    <path
       style="color:#000000;display:inline;overflow:visible;visibility:visible;fill:#ffffff;fill-opacity:1;fill-rule:nonzero;stroke:none;stroke-width:1.22149px;marker:none;enable-background:accumulate"
       d="m 1834.6942,302.71538 c 13.3969,25.86728 33.5213,54.90113 39.2123,61.39746 7.9957,-8.63868 17.0744,-15.33555 24.0331,-20.64544 9.0197,12.83333 45.9509,74.58787 45.5696,92.05922 3.355,-43.2627 -19.8328,-91.86712 -36.9856,-111.86967 -10.7606,5.90497 -16.2791,10.46235 -22.0396,13.47435 -9.2965,-9.62452 -29.0289,-46.10687 -29.0289,-46.10687 z"
       id="path5066-8"
       inkscape:connector-curvature="0" />
  </g>
  <g
     inkscape:groupmode="layer"
     id="layer1"
     inkscape:label="txt">
    <text
       xml:space="preserve"
       style="font-style:normal;font-variant:normal;font-weight:normal;font-stretch:normal;font-size:45px;line-height:1.25;font-family:Lavi;-inkscape-font-specification:Lavi;text-align:center;letter-spacing:0px;word-spacing:0px;text-anchor:middle;fill:#000000;fill-opacity:1;stroke:none"
       x="1018.2072"
       y="250.12212"
       id="text4246-3-2-2"><tspan
         style="font-size:45px"
         sodipodi:role="line"
         x="1018.2072"
         y="250.12212"
         id="tspan911">My a wra</tspan><tspan
         style="font-size:45px"
         sodipodi:role="line"
         x="1018.2072"
         y="306.37213"
         id="tspan88">kelli ow</tspan><tspan
         style="font-size:45px"
         sodipodi:role="line"
         x="1018.2072"
         y="362.62213"
         id="tspan90">gordoth,</tspan></text>
    <text
       xml:space="preserve"
       style="font-style:normal;font-variant:normal;font-weight:normal;font-stretch:normal;font-size:45px;line-height:1.25;font-family:Lavi;-inkscape-font-specification:Lavi;text-align:center;letter-spacing:0px;word-spacing:0px;text-anchor:middle;fill:#000000;fill-opacity:1;stroke:none"
       x="1167.5723"
       y="475.56839"
       id="text4246-3-2-2-3"><tspan
         style="font-size:45px"
         sodipodi:role="line"
         x="1167.5723"
         y="475.56839"
         id="tspan928">ha'n lewyer ma ha'n </tspan><tspan
         style="font-size:45px"
         sodipodi:role="line"
         x="1167.5723"
         y="531.81836"
         id="tspan97">dhragon re beu prest</tspan><tspan
         style="font-size:45px"
         sodipodi:role="line"
         x="1167.5723"
         y="588.06836"
         id="tspan99">a-dryv dhyn dres ourys.</tspan></text>
    <text
       xml:space="preserve"
       style="font-style:normal;font-variant:normal;font-weight:normal;font-stretch:normal;font-size:45px;line-height:1.25;font-family:Lavi;-inkscape-font-specification:Lavi;text-align:center;letter-spacing:0px;word-spacing:0px;text-anchor:middle;fill:#000000;fill-opacity:1;stroke:none"
       x="1263.569"
       y="697.07538"
       id="text4246-3-2-2-3-6"><tspan
         style="font-size:45px"
         sodipodi:role="line"
         x="1263.569"
         y="697.07538"
         id="tspan956">Ny vydh kudyn</tspan><tspan
         style="font-size:45px"
         sodipodi:role="line"
         x="1263.569"
         y="753.32538"
         id="tspan110">dhedha a'gan kachya</tspan><tspan
         style="font-size:45px"
         sodipodi:role="line"
         x="1263.569"
         y="809.57538"
         id="tspan112">pan lenthyn.</tspan></text>
    <text
       xml:space="preserve"
       style="font-style:normal;font-variant:normal;font-weight:normal;font-stretch:normal;font-size:59.5686px;line-height:1.25;font-family:Lavi;-inkscape-font-specification:Lavi;text-align:center;letter-spacing:0px;word-spacing:0px;text-anchor:middle;fill:#000000;fill-opacity:1;stroke:none;stroke-width:1.32375"
       x="1790.1418"
       y="189.64172"
       id="text4246-3-2-2-3-6-3"><tspan
         style="font-size:59.5686px;stroke-width:1.32375"
         sodipodi:role="line"
         x="1790.1418"
         y="189.64172"
         id="tspan1079">Ass en vy</tspan><tspan
         style="font-size:59.5686px;stroke-width:1.32375"
         sodipodi:role="line"
         x="1790.1418"
         y="264.10248"
         id="tspan116">gocki!</tspan></text>
    <text
       xml:space="preserve"
       style="font-style:normal;font-variant:normal;font-weight:normal;font-stretch:normal;font-size:45px;line-height:1.25;font-family:Lavi;-inkscape-font-specification:Lavi;text-align:center;letter-spacing:0px;word-spacing:0px;text-anchor:middle;fill:#000000;fill-opacity:1;stroke:none"
       x="2153.592"
       y="917.40289"
       id="text4246-3-2-2-3-6-2"><tspan
         style="font-size:45px"
         sodipodi:role="line"
         x="2153.592"
         y="917.40289"
         id="tspan966">Certan en i</tspan><tspan
         style="font-size:45px"
         sodipodi:role="line"
         x="2153.592"
         y="973.65289"
         id="tspan123">dhe gildenna</tspan><tspan
         style="font-size:45px"
         sodipodi:role="line"
         x="2153.592"
         y="1029.9028"
         id="tspan125">nans yw ourys!</tspan></text>
    <text
       xml:space="preserve"
       style="font-style:normal;font-variant:normal;font-weight:normal;font-stretch:normal;font-size:45px;line-height:1.25;font-family:Lavi;-inkscape-font-specification:Lavi;text-align:center;letter-spacing:0px;word-spacing:0px;text-anchor:middle;fill:#000000;fill-opacity:1;stroke:none"
       x="1158.7565"
       y="1246.7683"
       id="text4246-3-2-2-3-6-2-7"><tspan
         style="font-size:45px"
         sodipodi:role="line"
         x="1158.7565"
         y="1246.7683"
         id="tspan979">A kallen</tspan><tspan
         style="font-size:45px"
         sodipodi:role="line"
         x="1158.7565"
         y="1303.0183"
         id="tspan140">aga voydya.</tspan></text>
    <text
       xml:space="preserve"
       style="font-style:normal;font-variant:normal;font-weight:normal;font-stretch:normal;font-size:45px;line-height:1.25;font-family:Lavi;-inkscape-font-specification:Lavi;text-align:center;letter-spacing:0px;word-spacing:0px;text-anchor:middle;fill:#000000;fill-opacity:1;stroke:none"
       x="416.16843"
       y="2096.4697"
       id="text4246-3-2-2-3-6-2-7-2"><tspan
         style="font-size:45px"
         sodipodi:role="line"
         x="416.16843"
         y="2096.4697"
         id="tspan1171-9"><tspan
   style="font-style:normal;font-variant:normal;font-weight:bold;font-stretch:normal;font-family:Lavi;-inkscape-font-specification:'Lavi Bold'"
   id="tspan889">NA.</tspan> </tspan><tspan
         style="font-style:normal;font-variant:normal;font-weight:bold;font-stretch:normal;font-size:45px;font-family:Lavi;-inkscape-font-specification:'Lavi Bold'"
         sodipodi:role="line"
         x="416.16843"
         y="2152.7197"
         id="tspan1220">Res yw dhymm</tspan><tspan
         style="font-size:45px"
         sodipodi:role="line"
         x="416.16843"
         y="2208.9697"
         id="tspan885">aga goheles!</tspan></text>
    <text
       xml:space="preserve"
       style="font-style:normal;font-variant:normal;font-weight:normal;font-stretch:normal;font-size:45px;line-height:1.25;font-family:Lavi;-inkscape-font-specification:Lavi;text-align:center;letter-spacing:0px;word-spacing:0px;text-anchor:middle;fill:#000000;fill-opacity:1;stroke:none"
       x="2118.9019"
       y="2116.7319"
       id="text4246-3-2-2-3-6-2-7-2-2"><tspan
         style="font-size:45px"
         sodipodi:role="line"
         x="2118.9019"
         y="2116.7319"
         id="tspan1271">Kyns i</tspan><tspan
         style="font-size:45px"
         sodipodi:role="line"
         x="2118.9019"
         y="2172.9819"
         id="tspan153">dh'agan</tspan><tspan
         style="font-size:45px"
         sodipodi:role="line"
         x="2118.9019"
         y="2229.2319"
         id="tspan155">kachya!</tspan></text>
    <text
       xml:space="preserve"
       style="font-style:normal;font-variant:normal;font-weight:normal;font-stretch:normal;font-size:45px;line-height:1.25;font-family:Lavi;-inkscape-font-specification:Lavi;text-align:center;letter-spacing:0px;word-spacing:0px;text-anchor:middle;fill:#000000;fill-opacity:1;stroke:none"
       x="273.79352"
       y="2629.6626"
       id="text4246-3-2-2-3-6-2-7-2-3"><tspan
         style="font-size:45px"
         sodipodi:role="line"
         x="273.79352"
         y="2629.6626"
         id="tspan903">Mes ynwedh</tspan><tspan
         style="font-size:45px"
         sodipodi:role="line"
         x="273.79352"
         y="2685.9126"
         id="tspan159">my yw...</tspan></text>
    <text
       xml:space="preserve"
       style="font-style:normal;font-variant:normal;font-weight:normal;font-stretch:normal;font-size:45px;line-height:1.25;font-family:Lavi;-inkscape-font-specification:Lavi;text-align:center;letter-spacing:0px;word-spacing:0px;text-anchor:middle;fill:#000000;fill-opacity:1;stroke:none"
       x="762.94037"
       y="2724.3162"
       id="text4246-3-2-2-3-6-2-7-2-3-3-3"><tspan
         style="font-size:45px"
         x="762.94037"
         y="2724.3162"
         id="tspan1318-9-6"
         sodipodi:role="line">...fest...</tspan><tspan
         style="font-size:45px"
         x="762.94037"
         y="2780.5662"
         id="tspan1356-7"
         sodipodi:role="line" /></text>
    <text
       xml:space="preserve"
       style="font-style:normal;font-variant:normal;font-weight:normal;font-stretch:normal;font-size:45px;line-height:1.25;font-family:Lavi;-inkscape-font-specification:Lavi;text-align:center;letter-spacing:0px;word-spacing:0px;text-anchor:middle;fill:#000000;fill-opacity:1;stroke:none"
       x="1218.5862"
       y="2507.2249"
       id="text4246-3-2-2-3-6-2-7-2-3-3"><tspan
         style="font-size:45px"
         sodipodi:role="line"
         x="1218.5862"
         y="2507.2249"
         id="tspan1318-9" /><tspan
         style="font-size:45px"
         sodipodi:role="line"
         x="1225.6174"
         y="2563.4749"
         id="tspan1356">...skwith... </tspan></text>
    <text
       xml:space="preserve"
       style="font-style:normal;font-variant:normal;font-weight:normal;font-stretch:normal;font-size:64.434px;line-height:1.25;font-family:Lavi;-inkscape-font-specification:Lavi;text-align:center;letter-spacing:0px;word-spacing:0px;text-anchor:middle;fill:#000000;fill-opacity:1;stroke:none;stroke-width:1.43187"
       x="1696.2407"
       y="2630.5286"
       id="text4246-3-2-2-3-6-2-7-2-3-3-4"><tspan
         style="font-style:normal;font-variant:normal;font-weight:bold;font-stretch:normal;font-size:64.434px;font-family:Lavi;-inkscape-font-specification:'Lavi Bold';stroke-width:1.43187"
         sodipodi:role="line"
         x="1696.2407"
         y="2630.5286"
         id="tspan1356-4">BYDH WAR!</tspan></text>
    <text
       xml:space="preserve"
       style="font-style:normal;font-variant:normal;font-weight:normal;font-stretch:normal;font-size:45px;line-height:1.25;font-family:Lavi;-inkscape-font-specification:Lavi;text-align:center;letter-spacing:0px;word-spacing:0px;text-anchor:middle;fill:#000000;fill-opacity:1;stroke:none"
       x="1902.3512"
       y="2728.8708"
       id="text4246-3-2-2-3-6-2-7-2-3-5"><tspan
         style="font-size:45px"
         sodipodi:role="line"
         x="1902.3512"
         y="2728.8708"
         id="tspan1072">Keskreun, </tspan><tspan
         style="font-size:45px"
         sodipodi:role="line"
         x="1902.3512"
         y="2785.1208"
         id="tspan1074">Pepper!</tspan></text>
  </g>
</svg>
