<?xml version="1.0" encoding="UTF-8" standalone="no"?>
<!-- Created with Inkscape (http://www.inkscape.org/) -->

<svg
   xmlns:dc="http://purl.org/dc/elements/1.1/"
   xmlns:cc="http://creativecommons.org/ns#"
   xmlns:rdf="http://www.w3.org/1999/02/22-rdf-syntax-ns#"
   xmlns:svg="http://www.w3.org/2000/svg"
   xmlns="http://www.w3.org/2000/svg"
   xmlns:xlink="http://www.w3.org/1999/xlink"
   xmlns:sodipodi="http://sodipodi.sourceforge.net/DTD/sodipodi-0.dtd"
   xmlns:inkscape="http://www.inkscape.org/namespaces/inkscape"
   id="svg2"
   version="1.1"
   inkscape:version="0.92.3 (2405546, 2018-03-11)"
   width="2481"
   height="3503"
   sodipodi:docname="E27P03.svg">
  <metadata
     id="metadata8">
    <rdf:RDF>
      <cc:Work
         rdf:about="">
        <dc:format>image/svg+xml</dc:format>
        <dc:type
           rdf:resource="http://purl.org/dc/dcmitype/StillImage" />
        <dc:title />
      </cc:Work>
    </rdf:RDF>
  </metadata>
  <defs
     id="defs6">
    <filter
       style="color-interpolation-filters:sRGB"
       id="filter4375-4-1-1-1-9"
       inkscape:label="deevad outline effect">
      <feFlood
         id="feFlood4377-7-9-0-8-1"
         flood-opacity="1"
         flood-color="rgb(0,0,0)"
         result="flood" />
      <feComposite
         id="feComposite4379-3-8-8-2-77"
         in2="SourceGraphic"
         in="flood"
         operator="in"
         result="composite1" />
      <feMorphology
         id="feMorphology4393-1-0-49-8-9"
         operator="dilate"
         radius="4"
         result="result3" />
      <feComposite
         id="feComposite4385-9-5-7-0-8"
         in2="result3"
         in="SourceGraphic"
         operator="over"
         result="composite2" />
    </filter>
    <filter
       style="color-interpolation-filters:sRGB"
       id="filter4375-4-1-1-1-9-5"
       inkscape:label="deevad outline effect">
      <feFlood
         id="feFlood4377-7-9-0-8-1-8"
         flood-opacity="1"
         flood-color="rgb(0,0,0)"
         result="flood" />
      <feComposite
         id="feComposite4379-3-8-8-2-77-0"
         in2="SourceGraphic"
         in="flood"
         operator="in"
         result="composite1" />
      <feMorphology
         id="feMorphology4393-1-0-49-8-9-0"
         operator="dilate"
         radius="4"
         result="result3" />
      <feComposite
         id="feComposite4385-9-5-7-0-8-0"
         in2="result3"
         in="SourceGraphic"
         operator="over"
         result="composite2" />
    </filter>
  </defs>
  <sodipodi:namedview
     pagecolor="#ffffff"
     bordercolor="#666666"
     borderopacity="1"
     objecttolerance="10"
     gridtolerance="10"
     guidetolerance="10"
     inkscape:pageopacity="0"
     inkscape:pageshadow="2"
     inkscape:window-width="1366"
     inkscape:window-height="713"
     id="namedview4"
     showgrid="false"
     inkscape:zoom="0.42773946"
     inkscape:cx="1237.2452"
     inkscape:cy="588.26268"
     inkscape:window-x="0"
     inkscape:window-y="27"
     inkscape:window-maximized="1"
     inkscape:current-layer="layer1"
     inkscape:snap-global="false" />
  <g
     inkscape:groupmode="layer"
     id="layer2"
     inkscape:label="artwork"
     sodipodi:insensitive="true">
    <image
       sodipodi:absref="/home/juanjo/Comics/Pepper and Carrot/webcomics-master_181103/ep27_Coriander-s-Invention/lang/es/../gfx_Pepper-and-Carrot_by-David-Revoy_E27P03.png"
       xlink:href="../gfx_Pepper-and-Carrot_by-David-Revoy_E27P03.png"
       width="2481"
       height="3503"
       id="image10"
       x="0"
       y="0" />
  </g>
  <g
     inkscape:groupmode="layer"
     id="layer3"
     inkscape:label="speechbubbles">
    <path
       style="fill:#ffffff;fill-rule:evenodd;stroke:none;stroke-width:1.02555799px;stroke-linecap:butt;stroke-linejoin:miter;stroke-opacity:1"
       d="m 1149.3245,1570.5543 c 2.9557,-53.626 1.1077,-90.2813 24.7648,-103.2707 23.6573,-12.9893 203.3987,-13.3753 217.8985,-12.3899 14.4997,0.9854 45.2484,7.0285 57.9994,3.9415 12.7506,-3.0868 49.684,-4.0741 69.0965,-0.474 19.4126,3.6 103.2608,4.0801 113.2776,14.7962 10.0165,10.7163 35.0404,40.2038 34.5804,73.1681 -0.4602,32.9643 -11.9574,50.2516 -24.183,68.4275 -12.2257,18.1758 -56.1562,44.3095 -81.8964,43.6246 -25.7404,-0.6849 -111.6352,2.2845 -126.0873,2.6709 -14.4521,0.3863 -104.2329,6.9053 -134.743,7.7209 -30.5099,0.8155 -77.0292,-12.0497 -108.2076,-30.4382 -31.1783,-18.3886 -42.4999,-67.7769 -42.4999,-67.7769 z"
       id="path263"
       inkscape:connector-curvature="0"
       sodipodi:nodetypes="ccccccccssccc" />
    <path
       style="fill:#ffffff;fill-rule:evenodd;stroke:none;stroke-width:1px;stroke-linecap:butt;stroke-linejoin:miter;stroke-opacity:1"
       d="m 1252.6692,1467.8179 c 0,0 -14.7372,-14.1832 -28.1318,-24.3459 -13.1591,-9.9839 -23.1743,-37.0399 -19.4243,-57.7963 -18.1089,29.447 -5.815,53.6299 11.889,81.0614 15.1315,24.8588 35.6671,1.0808 35.6671,1.0808 z"
       id="path265"
       inkscape:connector-curvature="0"
       sodipodi:nodetypes="csccc" />
    <path
       style="fill:#ffffff;fill-rule:evenodd;stroke:none;stroke-width:0.89891255px;stroke-linecap:butt;stroke-linejoin:miter;stroke-opacity:1"
       d="m 1910.3552,1847.135 c 28.7703,-25.9849 92.1726,-39.578 141.8668,-40.2998 49.6942,-0.7218 180.4686,7.218 223.6241,19.4888 43.1555,12.2706 83.065,26.5855 79.1419,61.9537 -3.9234,35.3684 -15.6931,72.1802 -23.5395,85.1728 -7.8464,12.9924 -32.6935,33.2029 -57.5407,44.7516 -24.8471,11.5489 -109.8504,14.4362 -139.9285,14.4362 -30.0781,0 -134.6975,-8.6617 -156.9291,-19.4887 -22.2317,-10.827 -68.0027,-28.8722 -75.8492,-61.3533 -7.8464,-32.481 -3.9233,-85.1726 9.1542,-104.6613 z"
       id="path267"
       inkscape:connector-curvature="0"
       sodipodi:nodetypes="csccccscsc" />
    <path
       style="fill:#ffffff;fill-rule:evenodd;stroke:none;stroke-width:1px;stroke-linecap:butt;stroke-linejoin:miter;stroke-opacity:1"
       d="m 1817.1743,1897.7489 c 53.571,-19.7367 111.3904,-9.3727 131.1271,16.0031 19.7367,25.3757 16.4282,45.0866 16.4282,45.0866 l -21.6164,9.3985 c 0,14.3171 5.8835,-17.1392 -7.2743,-30.7446 -12.9359,-13.376 -35.6882,-34.1046 -57.3046,-37.8639 -21.6164,-3.7594 -50.0819,-2.8196 -61.36,-1.8797 z"
       id="path269"
       inkscape:connector-curvature="0"
       sodipodi:nodetypes="ccccscc" />
    <path
       style="fill:#ffffff;fill-rule:evenodd;stroke:none;stroke-width:0.97405636px;stroke-linecap:butt;stroke-linejoin:miter;stroke-opacity:1"
       d="m 249.36181,2436.3916 c 24.50315,-15.379 80.86044,-19.9022 105.3636,-25.3301 24.50318,-5.428 57.58244,-0.9046 73.50952,-1.8093 15.92704,-0.9047 60.03273,-5.4279 72.28432,-4.5233 12.25159,0.9046 90.66173,5.428 106.58877,6.3326 15.92708,0.9046 84.53594,5.4279 91.8869,22.6162 7.35094,17.1884 29.40379,50.6606 18.37736,66.9445 -11.02642,16.2837 -24.50316,44.3278 -56.35728,54.279 -31.85412,9.9512 -80.86045,26.2349 -138.44289,28.0441 -57.58245,1.8094 -137.21774,-5.4277 -149.46932,-5.4277 -12.25159,0 -77.18496,0.9046 -102.91329,-21.7118 -25.72833,-22.6163 -44.1057,-47.9466 -40.43024,-70.5627 3.67548,-22.6164 19.60255,-48.8515 19.60255,-48.8515 z"
       id="path271"
       inkscape:connector-curvature="0" />
    <path
       style="fill:#ffffff;fill-rule:evenodd;stroke:none;stroke-width:1px;stroke-linecap:butt;stroke-linejoin:miter;stroke-opacity:1"
       d="m 549.40558,2567.868 c 0,0 -6.17962,40.1675 -4.9437,48.819 1.23593,8.6515 12.35924,48.201 19.77478,58.0884 -19.15682,-22.2466 -31.51605,-51.2908 -33.9879,-61.1782 -2.47184,-9.8874 -1.23592,-50.0549 -1.23592,-50.0549 z"
       id="path273"
       inkscape:connector-curvature="0" />
    <path
       style="fill:#ffffff;fill-rule:evenodd;stroke:none;stroke-width:1.03607857px;stroke-linecap:butt;stroke-linejoin:miter;stroke-opacity:1"
       d="m 854.26939,2397.2192 c 39.66873,-5.6852 30.5144,7.8173 64.8431,7.1066 34.3287,-0.7106 104.51181,-7.8172 121.29481,-14.2131 9.1542,-3.5533 9.9171,2.132 9.9171,2.132 0,0 28.2259,1.4213 33.5659,2.8426 5.3399,1.4213 25.9372,10.6598 33.5658,8.5279 7.6286,-2.132 20.5972,-5.6853 20.5972,-5.6853 0,0 -0.7628,47.614 -1.5257,51.1672 -0.7628,3.5533 -6.1029,30.5582 -6.1029,39.7968 0,9.2385 4.5772,23.4516 3.8142,27.7156 -0.7628,4.2639 9.9173,14.9237 9.9173,14.9237 l -28.9888,0.7107 -19.8343,2.132 -8.3914,-2.132 -35.8545,2.8426 -20.5972,0.7107 1.5257,-4.264 -88.49169,4.264 3.8143,-6.3959 -30.5144,1.4213 -11.4429,6.3959 -3.81429,-5.6853 -25.93725,0.7107 -13.73148,6.3959 7.6286,-13.5025 -11.4429,-7.8172 -2.28857,-104.4664 6.86573,-4.264 z"
       id="path275"
       inkscape:connector-curvature="0" />
    <path
       style="fill:#ffffff;fill-rule:evenodd;stroke:none;stroke-width:1.02539635px;stroke-linecap:butt;stroke-linejoin:miter;stroke-opacity:1"
       d="m 1116.5743,2437.016 c 34.4667,-4.9746 57.4445,9.2385 65.8697,7.8172 8.4253,-1.4213 35.9987,-10.6598 45.1898,-9.9492 9.1911,0.7107 67.4018,8.5279 85.018,5.6853 17.6163,-2.8427 56.6787,0 62.8061,-0.7107 6.1273,-0.7106 30.637,-14.2131 37.5305,-14.2131 6.8933,0 18.3821,6.3959 43.6579,-9.2385 -10.7231,18.477 -16.8505,31.2688 -16.8505,31.2688 0,0 26.8075,-7.1065 37.5303,-7.1065 10.7231,0 19.1484,3.5532 24.5098,1.4213 5.3615,-2.132 34.4668,-2.8426 39.0624,-2.8426 4.5956,0 16.0843,-3.5533 21.4459,-3.5533 5.3615,0 54.3809,4.2639 61.2743,4.2639 6.8933,0 71.2312,-7.1066 78.1245,-7.1066 6.8933,0 38.2964,2.132 51.3173,-2.8426 1.5318,14.2131 -3.0638,48.3246 -3.0638,56.1418 0,7.8173 0.7659,17.7664 0.7659,24.1624 -11.4888,7.1065 -19.9142,21.3196 -19.9142,21.3196 0,0 19.1483,3.5533 24.5097,0.7107 5.3615,-2.8426 2.2978,52.5885 3.0638,63.2484 0.766,10.6598 -9.1911,0.7106 -9.1911,0.7106 0,0 -1.5319,7.8172 -7.6593,9.2386 -6.1274,1.4213 -114.1232,-0.7107 -126.378,-0.7107 -12.2549,0 -16.0846,3.5533 -16.0846,3.5533 h -52.849 l -1.5319,-6.3959 -23.7436,4.2639 -32.1691,4.9746 -19.1481,3.5533 -10.7229,-2.8426 -52.8492,0.7106 -45.9556,1.4213 11.4889,-10.6598 -119.4847,7.8172 -55.1468,1.4213 -50.5513,6.3959 -9.957,-22.741 -5.3616,-49.0352 c 0,0 -3.0637,-13.5026 5.3616,-15.6345 8.4252,-2.1319 -6.1274,-4.2639 -7.6593,-17.0557 -1.5319,-12.7918 -6.1273,-45.482 -6.1273,-45.482 l 9.957,-2.8426 -12.2548,-7.1066 z"
       id="path277"
       inkscape:connector-curvature="0" />
    <path
       style="fill:#ffffff;fill-rule:evenodd;stroke:none;stroke-width:0.99999994px;stroke-linecap:butt;stroke-linejoin:miter;stroke-opacity:1"
       d="m 1327.3521,2751.2587 c 32.6788,-36.3054 55.3539,-80.3905 55.3539,-94.0051 8.6697,12.9662 8.0028,10.373 8.0028,10.373 0,0 14.6721,-38.8987 14.0051,-62.8862 -0.6667,-23.9875 26.6766,-24.6358 30.0111,-19.4493 3.3345,5.1864 9.47,23.9875 9.47,23.9875 l -4.1347,13.6145 -4.0015,-3.2415 c 0,0 -15.3389,40.1952 -17.3397,44.7334 -2.0008,4.5382 -10.6705,23.9876 -10.6705,23.9876 l -2.6677,-11.6696 -14.6721,10.373 0.6669,16.2077 -8.003,-7.1314 c 0,0 -0.6667,9.7247 -4.0014,14.9112 -3.3346,5.1864 -24.0089,27.8774 -26.6765,31.1189 -2.6676,3.2415 -25.3427,9.0763 -25.3427,9.0763 z"
       id="path279"
       inkscape:connector-curvature="0" />
    <path
       style="fill:#ffffff;fill-rule:evenodd;stroke:none;stroke-width:1px;stroke-linecap:butt;stroke-linejoin:miter;stroke-opacity:1"
       d="m 1862.0808,2412.5674 7.2398,7.358 36.7802,-4.3215 7.3553,-8.3665 c 0,0 16.3451,8.3665 21.2486,5.5777 4.9035,-2.7889 24.5176,-4.6481 24.5176,-4.6481 l 7.3553,7.4369 17.9796,-2.7888 c 0,0 41.68,7.4369 51.487,6.5072 9.8071,-0.9295 26.9694,-10.2256 26.9694,-10.2256 0,0 33.5075,10.2256 38.411,8.3664 4.9035,-1.8592 13.8933,-2.7887 13.8933,-2.7887 l 10.6243,20.4515 c 0,0 21.2486,-19.522 21.2486,-28.8181 13.8934,-0.9297 32.6902,0 35.9592,-1.8593 3.2691,-1.8592 4.9036,11.1554 4.9036,11.1554 l 9.807,6.5073 c 0,0 24.5176,-20.4515 26.9694,-24.1699 2.4518,-3.7185 18.7969,-2.789 18.7969,-2.789 0,0 22.8831,0.9297 26.1521,0 3.269,-0.9295 17.1623,0.9297 29.4212,1.8592 12.2588,0.9298 24.5176,0.9298 33.5074,-2.7887 2.4518,15.8034 0,72.51 -0.8173,79.0173 -8.9898,15.8034 -17.9796,45.5512 -25.3348,51.1289 19.6141,-11.1555 19.6141,-14.8739 26.9693,-22.3108 -0.8172,23.2405 -7.3552,72.51 -8.1725,78.0878 13.0761,-12.085 11.4416,-9.2962 9.8071,-4.6481 -1.6346,4.6481 -6.5381,18.5923 -8.1726,29.7476 -1.6345,11.1554 0,25.0997 -1.6345,32.5366 -1.6345,7.437 -3.269,17.6628 -3.269,17.6628 0,0 -32.6902,11.1553 -38.411,13.0146 -5.7208,1.8592 -56.3905,1.8592 -69.4666,1.8592 -13.0761,0 -32.6902,2.7888 -41.68,1.8592 4.9036,-10.2257 8.1726,-17.6627 8.1726,-17.6627 0,0 -40.8627,4.6481 -50.6698,6.5074 -9.8071,1.8592 -50.6698,-8.3666 -59.6596,-7.4369 -8.9898,0.9295 -58.8423,2.7887 -71.9184,3.7184 -13.076,0.9295 -45.7662,2.7888 -58.025,5.5777 -12.2588,2.7888 -49.0353,4.648 -57.2078,4.648 -8.1726,0 -23.7004,0.9297 -23.7004,0.9297 0,0 -1.6345,-33.4661 -1.6345,-45.5512 0,-12.085 -4.0863,-71.5804 -0.8173,-78.0877 3.269,-6.5074 5.7208,-52.0586 5.7208,-56.7066 0,-4.6481 -7.7109,-40.4078 -7.7109,-40.4078 z"
       id="path283"
       inkscape:connector-curvature="0"
       sodipodi:nodetypes="ccccscccccsccccccccccccccccccccscccccsscssscc" />
    <path
       style="fill:#ffffff;fill-rule:evenodd;stroke:none;stroke-width:0.99999994px;stroke-linecap:butt;stroke-linejoin:miter;stroke-opacity:1"
       d="m 1928.0456,2832.7023 c -13.1433,-30.6118 9.2927,-109.1953 20.1114,-126.6745 0,-10.6243 -4.641,-22.8831 -4.641,-22.8831 0,0 -11.6028,4.9035 -14.6968,10.6243 -3.0941,5.7208 13.1497,-34.3247 22.4319,-40.8627 9.2823,-6.538 -6.9616,-37.5937 -6.9616,-37.5937 0,0 -31.7143,26.1521 -33.2613,37.5937 -1.547,11.4416 -10.0557,70.2839 -6.1881,80.9082 3.8676,10.6243 6.1881,4.9035 9.2821,0.8172 3.0942,-4.0862 11.6029,-12.2588 16.244,-15.5278 -7.7353,19.6141 -20.1115,84.1772 -2.3206,113.5984 z"
       id="path285"
       inkscape:connector-curvature="0"
       sodipodi:nodetypes="ccccccssccc" />
  </g>
  <g
     inkscape:groupmode="layer"
     id="layer1"
     inkscape:label="txt">
    <text
       xml:space="preserve"
       style="font-style:normal;font-variant:normal;font-weight:normal;font-stretch:normal;line-height:0%;font-family:Lavi;-inkscape-font-specification:Lavi;text-align:center;letter-spacing:0px;word-spacing:0px;text-anchor:middle;fill:#000000;fill-opacity:1;stroke:none"
       x="1407.3555"
       y="1510.687"
       id="text4246"><tspan
         sodipodi:role="line"
         style="font-size:45px;line-height:1.20000005"
         x="1407.3555"
         y="1510.687"
         id="tspan794">Vais a entender</tspan><tspan
         sodipodi:role="line"
         style="font-size:45px;line-height:1.20000005"
         x="1407.3555"
         y="1564.687"
         id="tspan74">enseguida por qué</tspan><tspan
         sodipodi:role="line"
         style="font-size:45px;line-height:1.20000005"
         x="1407.3555"
         y="1618.687"
         id="tspan880">quería construir esto.</tspan></text>
    <text
       xml:space="preserve"
       style="font-style:normal;font-variant:normal;font-weight:normal;font-stretch:normal;line-height:0%;font-family:Lavi;-inkscape-font-specification:Lavi;text-align:center;letter-spacing:0px;word-spacing:0px;text-anchor:middle;fill:#000000;fill-opacity:1;stroke:none"
       x="2125.2803"
       y="1872.3798"
       id="text4246-3"><tspan
         sodipodi:role="line"
         style="font-size:45px;line-height:1.20000005"
         x="2125.2803"
         y="1872.3798"
         id="tspan66"> Tiene que ver</tspan><tspan
         sodipodi:role="line"
         style="font-size:45px;line-height:1.20000005"
         x="2125.2803"
         y="1926.3798"
         id="tspan88">con mi preocupación</tspan><tspan
         sodipodi:role="line"
         style="font-size:45px;line-height:1.20000005"
         x="2125.2803"
         y="1980.3798"
         id="tspan904">por la coronación.</tspan></text>
    <text
       xml:space="preserve"
       style="font-style:normal;font-variant:normal;font-weight:normal;font-stretch:normal;line-height:0%;font-family:Lavi;-inkscape-font-specification:Lavi;text-align:center;letter-spacing:0px;word-spacing:0px;text-anchor:middle;fill:#000000;fill-opacity:1;stroke:none"
       x="474.53574"
       y="2481.4622"
       id="text4246-3-3"><tspan
         sodipodi:role="line"
         style="font-size:45px;line-height:1.20000005"
         x="474.53574"
         y="2481.4622"
         id="tspan927">Dejadme presentaros</tspan><tspan
         sodipodi:role="line"
         style="font-size:45px;line-height:1.20000005"
         x="474.53574"
         y="2535.4622"
         id="tspan937">mi último invento...</tspan></text>
    <text
       xml:space="preserve"
       style="font-style:normal;font-variant:normal;font-weight:normal;font-stretch:normal;line-height:0%;font-family:Lavi;-inkscape-font-specification:Lavi;text-align:center;letter-spacing:0px;word-spacing:0px;text-anchor:middle;fill:#000000;fill-opacity:1;stroke:none"
       x="1013.3394"
       y="2462.7529"
       id="text4246-3-3-2"><tspan
         sodipodi:role="line"
         style="font-style:normal;font-variant:normal;font-weight:normal;font-stretch:normal;font-size:32px;line-height:1.39999998;font-family:'Press Start 2P';-inkscape-font-specification:'Press Start 2P'"
         x="1013.3394"
         y="2462.7529"
         id="tspan881">¡Hola,</tspan><tspan
         sodipodi:role="line"
         style="font-style:normal;font-variant:normal;font-weight:normal;font-stretch:normal;font-size:32px;line-height:1.39999998;font-family:'Press Start 2P';-inkscape-font-specification:'Press Start 2P'"
         x="1013.3394"
         y="2507.553"
         id="tspan885">mundo!</tspan></text>
    <text
       xml:space="preserve"
       style="font-style:normal;font-variant:normal;font-weight:normal;font-stretch:normal;line-height:0%;font-family:Lavi;-inkscape-font-specification:Lavi;text-align:center;letter-spacing:0px;word-spacing:0px;text-anchor:middle;fill:#000000;fill-opacity:1;stroke:none"
       x="1445.948"
       y="2493.7439"
       id="text4246-3-3-2-2"><tspan
         sodipodi:role="line"
         style="font-style:normal;font-variant:normal;font-weight:normal;font-stretch:normal;font-size:32px;line-height:1.39999998;font-family:'Press Start 2P';-inkscape-font-specification:'Press Start 2P'"
         x="1461.948"
         y="2493.7439"
         id="tspan171">Yo soy su </tspan><tspan
         sodipodi:role="line"
         style="font-style:normal;font-variant:normal;font-weight:normal;font-stretch:normal;font-size:32px;line-height:1.39999998;font-family:'Press Start 2P';-inkscape-font-specification:'Press Start 2P'"
         x="1461.948"
         y="2549.7439"
         id="tspan873">ROBOT PSIC<tspan
   style="font-size:41.33333588px"
   id="tspan108">Ó</tspan>LOGO. </tspan><tspan
         sodipodi:role="line"
         style="font-style:normal;font-variant:normal;font-weight:normal;font-stretch:normal;font-size:32px;line-height:1.39999998;font-family:'Press Start 2P';-inkscape-font-specification:'Press Start 2P'"
         x="1445.948"
         y="2596.4106"
         id="tspan875">¡Bip, Bip!</tspan></text>
    <text
       xml:space="preserve"
       style="font-style:normal;font-variant:normal;font-weight:normal;font-stretch:normal;line-height:0%;font-family:Lavi;-inkscape-font-specification:Lavi;letter-spacing:0px;word-spacing:0px;fill:#000000;fill-opacity:1;stroke:#000000;stroke-width:2.15795588;stroke-miterlimit:4;stroke-dasharray:none;stroke-opacity:1;filter:url(#filter4375-4-1-1-1-9)"
       x="787.65729"
       y="1584.5073"
       id="text4580"
       transform="matrix(0.46879428,-0.12606586,-0.08654633,0.61214652,623.13411,2085.4411)"><tspan
         sodipodi:role="line"
         id="tspan4582"
         x="787.65729"
         y="1584.5073"
         style="font-style:normal;font-variant:normal;font-weight:bold;font-stretch:normal;font-size:80.40014648px;line-height:1.25;font-family:Lavi;-inkscape-font-specification:'Lavi Bold';fill:#ffffff;stroke-width:2.15795588">¡Clic!</tspan></text>
    <text
       xml:space="preserve"
       style="font-style:normal;font-variant:normal;font-weight:normal;font-stretch:normal;line-height:0%;font-family:Lavi;-inkscape-font-specification:Lavi;letter-spacing:0px;word-spacing:0px;fill:#000000;fill-opacity:1;stroke:#000000;stroke-width:2.15795588;stroke-miterlimit:4;stroke-dasharray:none;stroke-opacity:1;filter:url(#filter4375-4-1-1-1-9-5)"
       x="787.65729"
       y="1584.5073"
       id="text4580-4"
       transform="matrix(0.46879428,-0.12606586,-0.08654633,0.61214652,2027.5227,1975.6976)"><tspan
         sodipodi:role="line"
         id="tspan4582-7"
         x="787.65729"
         y="1584.5073"
         style="font-style:normal;font-variant:normal;font-weight:bold;font-stretch:normal;font-size:80.40014648px;line-height:1.25;font-family:Lavi;-inkscape-font-specification:'Lavi Bold';fill:#ffffff;stroke-width:2.15795588">¡Tap!</tspan></text>
    <text
       id="text925"
       y="2469.8889"
       x="2087.0667"
       style="font-style:normal;font-variant:normal;font-weight:normal;font-stretch:normal;line-height:0%;font-family:Lavi;-inkscape-font-specification:Lavi;text-align:center;letter-spacing:0px;word-spacing:0px;text-anchor:middle;fill:#000000;fill-opacity:1;stroke:none"
       xml:space="preserve"><tspan
         id="tspan909"
         y="2469.8889"
         x="2087.0667"
         style="font-style:normal;font-variant:normal;font-weight:normal;font-stretch:normal;font-size:32px;line-height:1.29999995;font-family:'Press Start 2P';-inkscape-font-specification:'Press Start 2P'"
         sodipodi:role="line">Por favor,</tspan><tspan
         y="2511.489"
         x="2087.0667"
         style="font-style:normal;font-variant:normal;font-weight:normal;font-stretch:normal;font-size:32px;line-height:1.29999995;font-family:'Press Start 2P';-inkscape-font-specification:'Press Start 2P'"
         sodipodi:role="line"
         id="tspan116">túmbese sobre</tspan><tspan
         y="2553.0889"
         x="2087.0667"
         style="font-style:normal;font-variant:normal;font-weight:normal;font-stretch:normal;font-size:32px;line-height:1.29999995;font-family:'Press Start 2P';-inkscape-font-specification:'Press Start 2P'"
         sodipodi:role="line"
         id="tspan118">el diván para</tspan><tspan
         y="2594.689"
         x="2087.0667"
         style="font-style:normal;font-variant:normal;font-weight:normal;font-stretch:normal;font-size:32px;line-height:1.29999995;font-family:'Press Start 2P';-inkscape-font-specification:'Press Start 2P'"
         sodipodi:role="line"
         id="tspan120">una sesión</tspan><tspan
         id="tspan923"
         y="2636.2888"
         x="2087.0667"
         style="font-style:normal;font-variant:normal;font-weight:normal;font-stretch:normal;font-size:32px;line-height:1.29999995;font-family:'Press Start 2P';-inkscape-font-specification:'Press Start 2P'"
         sodipodi:role="line">gratuita.</tspan></text>
  </g>
</svg>
