<?xml version="1.0" encoding="UTF-8" standalone="no"?>
<!-- Created with Inkscape (http://www.inkscape.org/) -->

<svg
   xmlns:dc="http://purl.org/dc/elements/1.1/"
   xmlns:cc="http://creativecommons.org/ns#"
   xmlns:rdf="http://www.w3.org/1999/02/22-rdf-syntax-ns#"
   xmlns:svg="http://www.w3.org/2000/svg"
   xmlns="http://www.w3.org/2000/svg"
   xmlns:xlink="http://www.w3.org/1999/xlink"
   xmlns:sodipodi="http://sodipodi.sourceforge.net/DTD/sodipodi-0.dtd"
   xmlns:inkscape="http://www.inkscape.org/namespaces/inkscape"
   id="svg2"
   version="1.1"
   inkscape:version="0.91 r13725"
   width="2481"
   height="3503"
   sodipodi:docname="go_E29P03.svg">
  <metadata
     id="metadata8">
    <rdf:RDF>
      <cc:Work
         rdf:about="">
        <dc:format>image/svg+xml</dc:format>
        <dc:type
           rdf:resource="http://purl.org/dc/dcmitype/StillImage" />
        <dc:title></dc:title>
      </cc:Work>
    </rdf:RDF>
  </metadata>
  <defs
     id="defs6" />
  <sodipodi:namedview
     pagecolor="#ffffff"
     bordercolor="#666666"
     borderopacity="1"
     objecttolerance="10"
     gridtolerance="10"
     guidetolerance="10"
     inkscape:pageopacity="0"
     inkscape:pageshadow="2"
     inkscape:window-width="959"
     inkscape:window-height="576"
     id="namedview4"
     showgrid="false"
     inkscape:zoom="0.3740595"
     inkscape:cx="2040.1387"
     inkscape:cy="563.75523"
     inkscape:window-x="65"
     inkscape:window-y="24"
     inkscape:window-maximized="1"
     inkscape:current-layer="layer1" />
  <g
     inkscape:groupmode="layer"
     id="layer2"
     inkscape:label="artwork"
     sodipodi:insensitive="true">
    <image
       sodipodi:absref="/home/denez/Docs Activites/Activite 3- Projet Gallo/Projet ADG/AdG 2-Travaux/5-BD pepper trad/29-go/../gfx_Pepper-and-Carrot_by-David-Revoy_E29P03.png"
       xlink:href="../gfx_Pepper-and-Carrot_by-David-Revoy_E29P03.png"
       width="2481"
       height="3503"
       id="image10"
       x="0"
       y="0" />
  </g>
  <g
     inkscape:groupmode="layer"
     id="layer3"
     inkscape:label="speechbubbles">
    <path
       style="color:#000000;display:inline;overflow:visible;visibility:visible;fill:#ffffff;fill-opacity:1;fill-rule:nonzero;stroke:none;stroke-width:0.99999994px;marker:none;enable-background:accumulate"
       d="m 176.3096,205.96901 c 3.53664,-26.62382 5.43404,-60.59843 46.78299,-75.62622 41.34895,-15.02779 128.83288,-17.7922 219.71142,-12.51509 48.67944,2.8267 129.19244,-0.0987 166.50229,15.19077 24.37661,9.98947 36.8589,33.31133 32.24355,72.31502 -4.61534,39.00365 -26.6798,59.31682 -71.7139,68.66575 -45.03411,9.34893 -90.17514,9.03196 -129.48637,8.59783 -37.95629,-0.41917 -67.3933,-0.87465 -117.88063,-6.15834 -50.48733,-5.28369 -107.20063,-7.42879 -121.81928,-20.74391 -9.15091,-8.33494 -15.47621,-16.64272 -19.39364,-24.9286 -3.91743,-8.28588 -5.427,-16.54986 -4.94643,-24.79721 z"
       id="path4546-6"
       inkscape:connector-curvature="0"
       sodipodi:nodetypes="csssssssssc" />
    <path
       style="color:#000000;display:inline;overflow:visible;visibility:visible;fill:#ffffff;fill-opacity:1;fill-rule:nonzero;stroke:none;stroke-width:1px;marker:none;enable-background:accumulate"
       d="m 1768.3237,153.47088 c 35.5427,-35.7225 498.6003,-57.751438 562.8361,19.47099 40.7616,49.0024 24.8125,234.3177 -27.234,269.827 -61.2533,41.79071 -403.6037,30.46494 -489.7048,7.17083 -81.9165,-22.16198 -84.9425,-98.07112 -89.0738,-171.81292 -1.6862,-30.0969 7.6335,-88.9333 43.1765,-124.6559 z"
       id="path4040-4"
       inkscape:connector-curvature="0"
       sodipodi:nodetypes="zssssz" />
    <path
       style="color:#000000;display:inline;overflow:visible;visibility:visible;fill:#ffffff;fill-opacity:1;fill-rule:nonzero;stroke:none;stroke-width:0.99999994px;marker:none;enable-background:accumulate"
       d="m 1868.0981,534.50586 c 3.5038,-25.57365 11.4034,-45.86179 54.8636,-57.11161 43.4605,-11.24984 122.4818,-18.35761 222.7347,-13.93218 53.7011,2.3705 130.0052,5.82243 172.8006,16.50849 42.7953,10.68608 52.082,33.50254 47.5726,70.96376 -4.5094,37.46119 -20.2798,57.41664 -69.782,66.70451 -49.5022,9.28785 -132.7365,7.90812 -150.8548,8.85302 -47.3745,-2.97542 -138.7225,1.24461 -196.794,-6.63052 -58.0715,-7.87513 -82.8661,-27.8454 -80.5407,-85.35547 z"
       id="path4546-6-0"
       inkscape:connector-curvature="0"
       sodipodi:nodetypes="cssssscsc" />
    <path
       style="color:#000000;display:inline;overflow:visible;visibility:visible;fill:#ffffff;fill-opacity:1;fill-rule:nonzero;stroke:none;stroke-width:1px;marker:none;enable-background:accumulate"
       d="m 117.19323,1721.3722 c 3.65317,-32.6112 4.17755,-64.0952 52.49709,-83.237 48.31955,-19.1418 133.44553,-24.4413 240.3695,-19.6868 57.27424,2.5467 129.42495,5.9792 175.09667,19.2159 45.67171,13.2367 64.86444,36.2774 60.17764,84.0419 -4.6868,47.7643 -29.97882,68.6328 -82.73762,80.9015 -52.75879,12.2686 -132.98438,15.9381 -152.30258,17.3015 -19.31819,1.3634 -79.23469,0.1886 -138.68054,-5.3278 -59.44585,-5.5163 -100.10652,-9.3732 -117.54221,-25.3767 -27.33329,-20.2667 -38.54011,-44.0963 -36.87795,-67.8325 z"
       id="path4546-6-2"
       inkscape:connector-curvature="0"
       sodipodi:nodetypes="cssssssscc" />
    <path
       style="color:#000000;display:inline;overflow:visible;visibility:visible;fill:#ffffff;fill-opacity:1;fill-rule:nonzero;stroke:none;stroke-width:1px;marker:none;enable-background:accumulate"
       d="m 521.869,1649.1001 c 16.11108,-12.2669 15.86616,-23.0299 15.86632,-28.1369 10e-5,-5.107 -4.54529,-18.6761 -3.34265,-24.7247 1.02193,-4.995 3.12956,-18.1154 7.70997,-16.7463 4.58049,1.369 41.01203,26.2432 51.36903,17.3665 10.35713,-8.8768 11.10734,-20.8369 5.69423,-31.5145 -5.41309,-10.6777 -12.30128,-24.7121 -5.30101,-32.1137 7.00027,-7.4017 18.59276,-5.447 23.97197,-2.6844 5.3792,2.7626 35.49917,23.7296 45.22292,25.6243 9.7237,1.8947 23.71407,1.7027 43.50196,-19.9526 -14.8657,10.0411 -26.23617,15.9908 -34.47171,12.561 -8.23568,-3.4298 -23.77359,-8.4777 -30.56794,-16.4657 -6.79439,-7.9881 -19.06179,-24.7851 -27.96463,-25.3584 -8.9028,-0.5734 -30.44585,-2.3321 -37.17011,6.2487 -6.72431,8.5806 -9.50599,21.5672 -1.38826,37.7993 4.40691,11.1306 5.56687,16.9279 3.01621,18.7834 -2.55071,1.8553 -15.98612,-1.694 -23.40319,-10.6812 -7.41712,-8.9873 -15.67928,-14.4795 -30.30826,-9.5821 -15.5687,3.9577 -23.51473,25.3051 -27.43064,29.9131 -2.73121,11.1832 -10.25128,59.7905 -19.09981,53.7189 z"
       id="path5058"
       inkscape:connector-curvature="0"
       sodipodi:nodetypes="cscsssssscssssccscccc" />
    <path
       style="color:#000000;display:inline;overflow:visible;visibility:visible;fill:#ffffff;fill-opacity:1;fill-rule:nonzero;stroke:none;stroke-width:0.99999994px;marker:none;enable-background:accumulate"
       d="m 518.80211,1954.8179 c 41.88567,-16.0639 408.58575,-14.2596 472.23634,-9.0905 48.78525,3.9619 106.72025,4.2063 145.16295,18.4002 38.4427,14.1939 52.5817,36.0762 52.7743,80.6818 0.1941,44.9529 -21.1591,84.683 -66.5768,94.1289 -45.4175,9.4459 -88.7109,10.336 -105.2263,10.8608 -10.9869,0.3491 -57.26091,1.2939 -88.63852,1.5265 -37.14375,0.2754 -300.3747,3.398 -358.46239,-12.6036 -63.90059,-22.732 -92.77057,-44.1087 -96.73283,-82.9515 -3.56864,-65.6299 18.04145,-89.6757 45.46325,-100.9526 z"
       id="path4546-6-28"
       inkscape:connector-curvature="0"
       sodipodi:nodetypes="cssssssccc" />
    <path
       style="fill:#ffffff;fill-rule:evenodd;stroke:none;stroke-width:1px;stroke-linecap:butt;stroke-linejoin:miter;stroke-opacity:1"
       d="m 1323.8016,1984.7216 c 28.8356,-4.5331 58.196,-6.8902 29.1661,-39.0973 40.2304,15.9013 101.614,24.7011 127.3674,-9.3315 21.0416,32.4151 72.5215,18.1393 103.6089,9.2863 -22.7459,39.1099 18.3414,35.1498 48.6838,26.2972 -58.1387,44.4003 -27.6095,58.521 -4.7008,75.2441 -57.1366,-12.3727 -96.278,-0.2731 -77.1628,27.9538 -47.2189,-29.2045 -101.7044,-23.5745 -85.7998,4.2937 -11.7134,-13.2298 -10.4746,-40.9431 -73.6465,1.7915 19.9656,-44.5555 -6.2049,-39.8788 -48.5754,-17.9152 6.6404,-15.1762 46.1072,-38.2538 -20.3703,-35.8306 41.5231,-14.4273 55.9482,-25.3946 1.4294,-42.692 z"
       id="path4584"
       inkscape:connector-curvature="0"
       sodipodi:nodetypes="cccccccccccc" />
    <path
       style="color:#000000;display:inline;overflow:visible;visibility:visible;fill:#ffffff;fill-opacity:1;fill-rule:nonzero;stroke:none;stroke-width:1px;marker:none;enable-background:accumulate"
       d="m 1472.7384,2047.3416 c 0.2312,29.9074 3.2778,68.8487 8.7074,74.7102 -9.1366,-3.6864 -17.8817,-5.2616 -24.6773,-6.6173 -2.08,14.7875 9.0067,61.8116 14.5567,88.5609 -25.1053,-37.9041 -39.0273,-94.4 -38.8725,-117.7051 8.4834,5.8822 16.5056,8.882 21.4065,8.8433 5.497,-10.4938 -6.7061,-51.3933 -7.3939,-51.6226 z"
       id="path5066"
       inkscape:connector-curvature="0"
       sodipodi:nodetypes="cccccccc" />
    <path
       style="color:#000000;display:inline;overflow:visible;visibility:visible;fill:#ffffff;fill-opacity:1;fill-rule:nonzero;stroke:none;stroke-width:1px;marker:none;enable-background:accumulate"
       d="m 214.04851,2862.7364 c 32.22727,-23.9997 438.71369,-42.539 496.95755,9.3418 36.95935,32.9215 59.9252,142.465 12.73361,166.3214 -55.53956,28.0764 -403.3725,26.6999 -481.44203,11.0501 -74.27529,-14.8892 -66.32554,-43.451 -70.07147,-92.9932 -1.5289,-20.2202 9.59481,-69.7204 41.82234,-93.7201 z"
       id="path4040-4-0"
       inkscape:connector-curvature="0"
       sodipodi:nodetypes="zssssz" />
    <path
       style="color:#000000;display:inline;overflow:visible;visibility:visible;fill:#ffffff;fill-opacity:1;fill-rule:nonzero;stroke:none;stroke-width:0.99999994px;marker:none;enable-background:accumulate"
       d="m 228.90595,3056.5433 c 48.94679,-22.0366 445.13994,-30.454 535.37182,10.0818 69.8399,31.3749 38.22607,213.3636 -29.67441,244.6274 -65.4173,30.1204 -398.78354,26.8226 -483.85634,6.3136 -80.93818,-19.5124 -83.92805,-86.3458 -88.01001,-151.2709 -1.66606,-26.4985 17.22213,-87.7153 66.16894,-109.7519 z"
       id="path4040-4-0-6"
       inkscape:connector-curvature="0"
       sodipodi:nodetypes="zssssz" />
    <path
       style="color:#000000;display:inline;overflow:visible;visibility:visible;fill:#ffffff;fill-opacity:1;fill-rule:nonzero;stroke:none;stroke-width:1px;marker:none;enable-background:accumulate"
       d="m 1736.2595,2882.4633 c 35.8206,-32.6436 485.5061,-38.0019 567.2374,17.7929 65.5948,44.7791 41.8116,214.1229 -27.447,246.5718 -66.7257,31.2622 -406.7599,27.8394 -493.5342,6.553 -82.5571,-20.2521 -85.6068,-89.6189 -89.7704,-157.0053 -1.6993,-27.5029 7.6933,-81.2685 43.5142,-113.9124 z"
       id="path4040-4-0-6-3"
       inkscape:connector-curvature="0"
       sodipodi:nodetypes="zssssz" />
    <path
       style="display:inline;fill:#ffffff;fill-rule:evenodd;stroke:none;stroke-width:1px;stroke-linecap:butt;stroke-linejoin:miter;stroke-opacity:1"
       d="m 1736.956,3150.2871 c 62.9816,23.6939 78.8455,18.3468 77.7644,-36.7289 30.0482,59.516 74.4997,61.3918 86.8664,32.0679 39.7816,25.2051 64.6287,18.1349 84.3556,0 7.3527,23.3227 23.1208,13.9112 36.767,12.7527 4.4946,5.2766 45.0046,16.9566 107.37,-0.5097 4.0396,6.9841 9.4816,12.9986 46.012,-2.4859 9.464,28.3478 39.8285,-1.5711 70.9356,-33.5595 -19.3806,39.327 -11.3442,44.8817 13.4203,29.8306 -11.3221,16.1952 -18.094,28.7321 24.923,1.243 -14.7267,29.893 23.9092,9.3746 86.273,-33.5594 -31.1953,31.7365 -113.9183,85.226 -59.4323,80.7912 -7.5985,9.356 -34.7016,17.5077 46.012,32.3165 -15.0681,6.3488 -61.0707,-2.9287 -22.6963,23.9523 5.1415,3.1422 -12.0707,5.061 20.7793,13.3359 -19.3918,-0.5629 -31.2842,1.4482 -13.4203,13.6724 -35.397,-0.661 -22.1529,12.1929 3.8343,28.5876 -51.2598,-21.0297 -54.0806,-13.3866 -55.5981,-4.9717 -64.2434,-28.6707 -85.682,-18.2145 -72.27,4.9096 -28.3692,-31.2227 -95.018,-14.8219 -98.3586,10.0057 -9.8988,-24.0089 -120.1327,-28.9731 -145.4715,-2.548 15.7049,-28.1589 -17.2766,-14.8988 -50.4289,-4.4746 18.1549,-31.6061 -27.9199,-22.2982 -86.273,8.452 32.6775,-34.902 -4.4364,-22.2946 -59.4324,2.4859 20.7793,-34.2877 -13.0617,-50.8697 -93.9415,-52.2036 38.7116,-12.368 61.2859,-27.9328 21.0891,-55.9324 45.3133,8.2446 33.8008,-15.1367 1.8114,-45.5538 49.425,24.9661 48.394,11.6241 29.1095,-21.8758 z"
       id="path4508"
       inkscape:connector-curvature="0"
       sodipodi:nodetypes="cccccccccccccccccccccccccccc" />
    <path
       style="color:#000000;display:inline;overflow:visible;visibility:visible;fill:#ffffff;fill-opacity:1;fill-rule:nonzero;stroke:none;stroke-width:1px;marker:none;enable-background:accumulate"
       d="m 731.14816,2946.5981 c 58.74459,-31.8831 133.6737,-22.4689 151.46532,-4.8409 -26.0629,-31.5484 -110.87474,-48.9787 -156.02352,-29.9411 -36.86673,19.522 4.5582,34.782 4.5582,34.782 z"
       id="path4480"
       inkscape:connector-curvature="0"
       sodipodi:nodetypes="cccc" />
    <path
       style="color:#000000;display:inline;overflow:visible;visibility:visible;fill:#ffffff;fill-opacity:1;fill-rule:nonzero;stroke:none;stroke-width:0.99999994px;marker:none;enable-background:accumulate"
       d="m 1721.525,3105.1967 c -45.0341,26.3761 -102.4755,18.588 -116.1149,4.0048 19.9802,26.0992 84.9979,40.5188 119.6093,24.7695 28.2623,-16.1501 -3.4944,-28.7743 -3.4944,-28.7743 z"
       id="path4480-2"
       inkscape:connector-curvature="0"
       sodipodi:nodetypes="cccc"
       inkscape:transform-center-x="-155.62645"
       inkscape:transform-center-y="34.210293" />
    <path
       style="fill:#ffffff;stroke:none;stroke-width:1"
       d="m 240.20205,385.0669 c -58.13838,-27.45721 -59.25417,-104.2317 6.40363,-135.1495 33.25786,-15.66089 31.21798,-5.00947 31.21798,-5.00947 l -6.80518,-52.3863 c 0,0 17.27652,-20.93641 -34.72953,12.43271 -52.00605,33.36911 -110.96723,129.16604 3.9131,180.11256 z"
       id="path3063"
       inkscape:connector-curvature="0"
       sodipodi:nodetypes="cscczc" />
    <path
       style="color:#000000;display:inline;overflow:visible;visibility:visible;fill:#ffffff;fill-opacity:1;fill-rule:nonzero;stroke:none;stroke-width:0.99999994px;marker:none;enable-background:accumulate"
       d="m 1452.7839,260.97042 c 32.5901,-37.14844 120.5249,-77.58678 199.7918,-73.40468 42.0311,2.21755 81.2853,18.77332 113.3871,43.73164 54.8474,16.58165 18.1095,-34.39627 18.1095,-34.39627 -9.1911,-10.4538 -45.1517,-22.91599 -79.6603,-28.40181 -77.1713,-12.26787 -186.4105,2.0063 -251.6281,92.47112 z"
       id="path3984"
       inkscape:connector-curvature="0"
       sodipodi:nodetypes="csccsc" />
    <path
       style="color:#000000;display:inline;overflow:visible;visibility:visible;fill:#ffffff;fill-opacity:1;fill-rule:nonzero;stroke:none;stroke-width:1px;marker:none;enable-background:accumulate"
       d="m 876.44075,2262.2076 c 27.46212,-10.0522 29.72719,-13.3589 28.53705,-27.8918 -1.19034,-14.5328 -9.92446,-26.5364 7.13822,-46.8557 17.0627,-20.3194 23.42581,-21.4269 33.84191,-22.8653 -10.7962,-15.1116 -24.19769,-37.3822 -37.83781,-39.5812 -13.64004,-2.1992 45.1695,-29.6441 45.1695,-29.6441 0,0 22.75583,46.3627 21.99513,70.4189 -5.53179,28.827 -31.7847,25.0277 -45.6068,37.2789 -13.82198,12.2511 -2.66123,31.1992 -11.63877,43.0536 -8.97788,11.8543 -27.71027,14.1688 -41.59843,16.0867 z"
       id="path4538"
       inkscape:connector-curvature="0"
       sodipodi:nodetypes="cccccccscc" />
    <path
       style="color:#000000;display:inline;overflow:visible;visibility:visible;fill:#ffffff;fill-opacity:1;fill-rule:nonzero;stroke:none;stroke-width:0.94894397px;marker:none;enable-background:accumulate"
       d="m 1769.2555,1056.2795 c 6.5519,-9.252 22.2105,-18.1835 57.85,-23.2313 35.6393,-5.048 79.5723,-3.874 127.0554,-2.8008 47.483,1.0732 47.2921,0.2256 90.4794,0.2343 45.9613,0.011 80.5776,4.9243 108.0062,33.8751 27.4286,28.9507 29.5596,60.5024 29.4012,96.7323 -0.1584,36.23 3.3057,67.909 -22.079,92.307 -25.3847,24.3978 -67.2742,48.6367 -116.6194,52.6468 -49.3451,4.0103 -167.6142,8.0881 -227.5202,-16.8711 -59.9063,-24.9596 -67.0823,-55.9706 -70.1286,-132.365 -1.2432,-31.1798 -2.6523,-63.5195 23.555,-100.5273 z"
       id="path4040"
       inkscape:connector-curvature="0"
       sodipodi:nodetypes="sssszzzzsss" />
    <path
       style="color:#000000;display:inline;overflow:visible;visibility:visible;fill:#ffffff;fill-opacity:1;fill-rule:nonzero;stroke:none;stroke-width:1.0653249px;marker:none;enable-background:accumulate"
       d="m 1896.6758,1219.0726 c -41.8665,122.7323 -35.3869,185.6777 42.5567,264.4098 -47.4291,-53.5721 -48.443,-140.458 -27.8836,-196.5656 17.5953,-48.018 24.528,-47.5096 24.528,-47.5096 z"
       id="path4440"
       inkscape:connector-curvature="0"
       sodipodi:nodetypes="ccscc" />
  </g>
  <g
     inkscape:groupmode="layer"
     id="layer1"
     inkscape:label="txt">
    <text
       xml:space="preserve"
       style="font-style:normal;font-variant:normal;font-weight:normal;font-stretch:normal;line-height:0%;font-family:Lavi;-inkscape-font-specification:Lavi;text-align:center;letter-spacing:0px;word-spacing:0px;text-anchor:middle;fill:#000000;fill-opacity:1;stroke:none"
       x="410.53223"
       y="159.9449"
       id="text4246"
       sodipodi:linespacing="0%"><tspan
         sodipodi:role="line"
         style="font-size:45px;line-height:1.20000005"
         x="410.53223"
         y="159.9449"
         id="tspan823">Hâhâ,</tspan><tspan
         sodipodi:role="line"
         style="font-size:45px;line-height:1.20000005"
         x="410.53223"
         y="213.9449"
         id="tspan5838">ça va étr maniere</tspan><tspan
         sodipodi:role="line"
         style="font-size:45px;line-height:1.20000005"
         x="410.53223"
         y="267.94492"
         id="tspan5840">de nijon !</tspan></text>
    <text
       xml:space="preserve"
       style="font-style:normal;font-variant:normal;font-weight:normal;font-stretch:normal;line-height:0%;font-family:Lavi;-inkscape-font-specification:Lavi;text-align:center;letter-spacing:0px;word-spacing:0px;text-anchor:middle;fill:#000000;fill-opacity:1;stroke:none"
       x="2040.8622"
       y="199.0822"
       id="text4246-3"
       sodipodi:linespacing="0%"><tspan
         sodipodi:role="line"
         style="font-size:45px;line-height:1.20000005"
         x="2040.8622"
         y="199.0822"
         id="tspan854">Bon aloure, en peut dire</tspan><tspan
         sodipodi:role="line"
         style="font-size:45px;line-height:1.20000005"
         x="2040.8622"
         y="253.0822"
         id="tspan5875"> q’ét levae sus coment</tspan><tspan
         sodipodi:role="line"
         style="font-size:45px;line-height:1.20000005"
         x="2040.8622"
         y="307.08221"
         id="tspan5877">enterluzer lez loês</tspan><tspan
         sodipodi:role="line"
         style="font-size:45px;line-height:1.20000005"
         x="2040.8622"
         y="361.08221"
         id="tspan5879">aprés tertous lez</tspan><tspan
         sodipodi:role="line"
         style="font-size:45px;line-height:1.20000005"
         x="2040.8622"
         y="415.08221"
         id="tspan5881"> graements démanciclae !</tspan></text>
    <text
       xml:space="preserve"
       style="font-style:normal;font-variant:normal;font-weight:normal;font-stretch:normal;font-size:11.76516151px;line-height:0%;font-family:Lavi;-inkscape-font-specification:Lavi;text-align:center;letter-spacing:0px;word-spacing:0px;text-anchor:middle;fill:#000000;fill-opacity:1;stroke:none"
       x="2071.6499"
       y="541.69647"
       id="text4246-3-5"
       sodipodi:linespacing="0%"
       transform="scale(1.0199605,0.98043012)"><tspan
         sodipodi:role="line"
         style="font-size:44.11935425px;line-height:1.20000005"
         x="2071.6499"
         y="541.69647"
         id="tspan900">Depeis lez pus petits</tspan><tspan
         sodipodi:role="line"
         style="font-size:44.11935425px;line-height:1.20000005"
         x="2071.6499"
         y="594.63971"
         id="tspan5885"> diq’ez pus grands.</tspan></text>
    <text
       xml:space="preserve"
       style="font-style:normal;font-variant:normal;font-weight:normal;font-stretch:normal;line-height:0%;font-family:Lavi;-inkscape-font-specification:Lavi;text-align:center;letter-spacing:0px;word-spacing:0px;text-anchor:middle;fill:#000000;fill-opacity:1;stroke:none"
       x="379.26578"
       y="1678.55"
       id="text4246-3-5-1"
       sodipodi:linespacing="0%"><tspan
         sodipodi:role="line"
         style="font-size:45px;line-height:1.20000005"
         x="386.42886"
         y="1678.55"
         id="tspan927">‘ét sur qe dit </tspan><tspan
         sodipodi:role="line"
         style="font-size:45px;line-height:1.20000005"
         x="379.26578"
         y="1732.55"
         id="tspan5894">de memme,</tspan><tspan
         sodipodi:role="line"
         style="font-size:45px;line-height:1.20000005"
         x="379.26578"
         y="1786.55"
         id="tspan5892"> ét taloure pus cller…</tspan></text>
    <text
       xml:space="preserve"
       style="font-style:normal;font-variant:normal;font-weight:normal;font-stretch:normal;line-height:0%;font-family:Lavi;-inkscape-font-specification:Lavi;text-align:center;letter-spacing:0px;word-spacing:0px;text-anchor:middle;fill:#000000;fill-opacity:1;stroke:none"
       x="1979.9979"
       y="1106.0626"
       id="text4246-3-5-1-0"
       sodipodi:linespacing="0%"><tspan
         sodipodi:role="line"
         style="font-size:45px;line-height:1.20000005"
         x="1987.161"
         y="1106.0626"
         id="tspan962">Âââ ! </tspan><tspan
         sodipodi:role="line"
         style="font-size:45px;line-height:1.20000005"
         x="1979.9979"
         y="1160.0626"
         id="tspan5905">Je vaz vouz</tspan><tspan
         sodipodi:role="line"
         style="font-size:45px;line-height:1.20000005"
         x="1979.9979"
         y="1214.0626"
         id="tspan5907">amontrer  od just</tspan><tspan
         sodipodi:role="line"
         style="font-size:45px;line-height:1.20000005"
         x="1979.9979"
         y="1268.0626"
         id="tspan5913"> ren q’un cas.</tspan></text>
    <text
       xml:space="preserve"
       style="font-style:normal;font-variant:normal;font-weight:normal;font-stretch:normal;line-height:0%;font-family:Lavi;-inkscape-font-specification:Lavi;text-align:center;letter-spacing:0px;word-spacing:0px;text-anchor:middle;fill:#000000;fill-opacity:1;stroke:none"
       x="839.19385"
       y="2004.5769"
       id="text4246-3-5-1-0-0"
       sodipodi:linespacing="0%"><tspan
         sodipodi:role="line"
         style="font-size:45px;line-height:1.20000005"
         x="839.19385"
         y="2004.5769"
         id="tspan5920">Laessez-mai ren q’ûne</tspan><tspan
         sodipodi:role="line"
         style="font-size:45px;line-height:1.20000005"
         x="839.19385"
         y="2058.5769"
         id="tspan5922">petite berouey od un petit de</tspan><tspan
         sodipodi:role="line"
         style="font-size:45px;line-height:1.20000005"
         x="839.19385"
         y="2112.5769"
         id="tspan5924">jinjin de Chaoche-a-Oey…</tspan></text>
    <text
       xml:space="preserve"
       style="font-style:normal;font-variant:normal;font-weight:normal;font-stretch:normal;line-height:0%;font-family:Lavi;-inkscape-font-specification:Lavi;text-align:center;letter-spacing:0px;word-spacing:0px;text-anchor:middle;fill:#000000;fill-opacity:1;stroke:none"
       x="1475.0964"
       y="2022.1494"
       id="text4246-3-5-1-0-0-8"
       sodipodi:linespacing="0%"><tspan
         sodipodi:role="line"
         style="font-size:45px;line-height:1.20000005"
         x="1475.0964"
         y="2022.1494"
         id="tspan1006-2">Terouae !</tspan></text>
    <text
       xml:space="preserve"
       style="font-style:normal;font-variant:normal;font-weight:normal;font-stretch:normal;font-size:10.15074348px;line-height:0%;font-family:Lavi;-inkscape-font-specification:Lavi;text-align:center;letter-spacing:0px;word-spacing:0px;text-anchor:middle;opacity:0.5;fill:#000000;fill-opacity:1;stroke:none;stroke-width:1"
       x="1565.6989"
       y="1755.6455"
       id="text4246-37"
       transform="matrix(0.95687977,-0.3398346,0.04566864,1.0288442,0,0)"><tspan
         sodipodi:role="line"
         style="font-style:normal;font-variant:normal;font-weight:bold;font-stretch:normal;font-size:38.06529236px;line-height:1.20000005;font-family:Lavi;-inkscape-font-specification:'Lavi Bold';stroke-width:1"
         x="1565.6989"
         y="1755.6455"
         id="tspan4252-5">GRAT</tspan></text>
    <text
       xml:space="preserve"
       style="font-style:normal;font-variant:normal;font-weight:normal;font-stretch:normal;font-size:8.30989456px;line-height:0%;font-family:Lavi;-inkscape-font-specification:Lavi;text-align:center;letter-spacing:0px;word-spacing:0px;text-anchor:middle;opacity:0.5;fill:#000000;fill-opacity:1;stroke:none;stroke-width:0.99999994"
       x="1771.7487"
       y="1590.5714"
       id="text4246-37-9"
       transform="matrix(1.0008589,-0.17574317,-0.12562566,1.0212007,0,0)"><tspan
         sodipodi:role="line"
         style="font-style:normal;font-variant:normal;font-weight:bold;font-stretch:normal;font-size:31.16210556px;line-height:1.20000005;font-family:Lavi;-inkscape-font-specification:'Lavi Bold';stroke-width:0.99999994"
         x="1771.7487"
         y="1590.5714"
         id="tspan4252-5-2">GRAT</tspan></text>
    <text
       xml:space="preserve"
       style="font-style:normal;font-variant:normal;font-weight:normal;font-stretch:normal;line-height:0%;font-family:Lavi;-inkscape-font-specification:Lavi;text-align:center;letter-spacing:0px;word-spacing:0px;text-anchor:middle;fill:#000000;fill-opacity:1;stroke:none"
       x="461.76913"
       y="2910.1687"
       id="text4246-3-5-1-0-0-8-9"
       sodipodi:linespacing="0%"><tspan
         sodipodi:role="line"
         style="font-size:45px;line-height:1.20000005"
         x="461.76913"
         y="2910.1687"
         id="tspan1200">Aregardez ste picron</tspan><tspan
         sodipodi:role="line"
         style="font-size:45px;line-height:1.20000005"
         x="461.76913"
         y="2964.1687"
         id="tspan5941"> qi taent prinz</tspan><tspan
         sodipodi:role="line"
         style="font-size:45px;line-height:1.20000005"
         x="461.76913"
         y="3018.1687"
         id="tspan5943">entr deuz pavaes.</tspan></text>
    <text
       xml:space="preserve"
       style="font-style:normal;font-variant:normal;font-weight:normal;font-stretch:normal;line-height:0%;font-family:Lavi;-inkscape-font-specification:Lavi;text-align:center;letter-spacing:0px;word-spacing:0px;text-anchor:middle;fill:#000000;fill-opacity:1;stroke:none"
       x="471.62576"
       y="3115.9048"
       id="text4246-3-5-1-0-0-8-9-3"
       sodipodi:linespacing="0%"><tspan
         sodipodi:role="line"
         style="font-size:45px;line-height:1.20000005"
         x="471.62576"
         y="3115.9048"
         id="tspan1237">De l’avair terouae e</tspan><tspan
         sodipodi:role="line"
         style="font-size:45px;line-height:1.20000005"
         x="471.62576"
         y="3169.9048"
         id="tspan5959">ramassae, ça qi fera pas</tspan><tspan
         sodipodi:role="line"
         style="font-size:45px;line-height:1.20000005"
         x="471.62576"
         y="3223.9048"
         id="tspan5965"> se le prendr den lez piets</tspan><tspan
         sodipodi:role="line"
         style="font-size:45px;line-height:1.20000005"
         x="471.62576"
         y="3277.9048"
         id="tspan5967">pour  qheuq’un.</tspan></text>
    <text
       xml:space="preserve"
       style="font-style:normal;font-variant:normal;font-weight:normal;font-stretch:normal;line-height:0%;font-family:Lavi;-inkscape-font-specification:Lavi;text-align:center;letter-spacing:0px;word-spacing:0px;text-anchor:middle;fill:#000000;fill-opacity:1;stroke:none"
       x="2024.1924"
       y="2941.4075"
       id="text4246-3-5-1-0-0-8-9-3-9"
       sodipodi:linespacing="0%"><tspan
         sodipodi:role="line"
         style="font-size:45px;line-height:1.20000005"
         x="2031.3555"
         y="2941.4075"
         id="tspan1289">Un petit chanjement a bon </tspan><tspan
         sodipodi:role="line"
         style="font-size:45px;line-height:1.20000005"
         x="2024.1924"
         y="2995.4075"
         id="tspan5985">den le grand graement</tspan><tspan
         sodipodi:role="line"
         style="font-size:45px;line-height:1.20000005"
         x="2024.1924"
         y="3049.4075"
         id="tspan5991">démanciclae de la viy,</tspan><tspan
         sodipodi:role="line"
         style="font-size:45px;line-height:1.20000005"
         x="2024.1924"
         y="3103.4075"
         id="tspan5983">ça qi peut porter a grand.</tspan></text>
    <text
       xml:space="preserve"
       style="font-style:normal;font-variant:normal;font-weight:normal;font-stretch:normal;font-size:11.48328495px;line-height:0%;font-family:Lavi;-inkscape-font-specification:Lavi;text-align:center;letter-spacing:0px;word-spacing:0px;text-anchor:middle;fill:#000000;fill-opacity:1;stroke:none;stroke-width:1"
       x="2024.8721"
       y="3209.3684"
       id="text4246-3-5-1-0-0-8-9-3-9-8"
       sodipodi:linespacing="0%"><tspan
         sodipodi:role="line"
         style="font-size:61.24419022px;line-height:1.20000005;stroke-width:1"
         x="2024.8721"
         y="3209.3684"
         id="tspan1289-6">‘ét ça qe c’ét,</tspan><tspan
         sodipodi:role="line"
         style="font-size:61.24419022px;line-height:1.20000005;stroke-width:1"
         x="2024.8721"
         y="3282.8613"
         id="tspan5993">Chaoche-a-Oeys !</tspan></text>
  </g>
</svg>
