<?xml version="1.0" encoding="UTF-8" standalone="no"?>
<!-- Created with Inkscape (http://www.inkscape.org/) -->

<svg
   xmlns:dc="http://purl.org/dc/elements/1.1/"
   xmlns:cc="http://creativecommons.org/ns#"
   xmlns:rdf="http://www.w3.org/1999/02/22-rdf-syntax-ns#"
   xmlns:svg="http://www.w3.org/2000/svg"
   xmlns="http://www.w3.org/2000/svg"
   xmlns:xlink="http://www.w3.org/1999/xlink"
   xmlns:sodipodi="http://sodipodi.sourceforge.net/DTD/sodipodi-0.dtd"
   xmlns:inkscape="http://www.inkscape.org/namespaces/inkscape"
   id="svg2"
   version="1.1"
   inkscape:version="0.92.2 (5c3e80d, 2017-08-06)"
   width="2481"
   height="3503"
   sodipodi:docname="Pepper-and-Carrot_by-David-Revoy_E13P05.svg">
  <metadata
     id="metadata8">
    <rdf:RDF>
      <cc:Work
         rdf:about="">
        <dc:format>image/svg+xml</dc:format>
        <dc:type
           rdf:resource="http://purl.org/dc/dcmitype/StillImage" />
        <dc:title />
      </cc:Work>
    </rdf:RDF>
  </metadata>
  <defs
     id="defs6">
    <filter
       style="color-interpolation-filters:sRGB"
       id="filter5561"
       inkscape:label="deevad outline effect">
      <feFlood
         id="feFlood5563"
         flood-opacity="1"
         flood-color="rgb(0,0,0)"
         result="flood" />
      <feComposite
         id="feComposite5565"
         in2="SourceGraphic"
         in="flood"
         operator="in"
         result="composite1" />
      <feMorphology
         id="feMorphology5567"
         operator="dilate"
         radius="4.0999999999999996 6.0999999999999996"
         result="result3" />
      <feComposite
         id="feComposite5569"
         in2="result3"
         in="SourceGraphic"
         operator="over"
         result="composite2" />
    </filter>
    <filter
       style="color-interpolation-filters:sRGB;"
       id="filter5561-2"
       inkscape:label="Rough and Dilate"
       y="-0.2"
       height="1.4"
       inkscape:menu="Distort"
       inkscape:menu-tooltip="Create a turbulent contour around">
      <feFlood
         id="feFlood5563-5"
         flood-opacity="1"
         flood-color="rgb(0,0,0)"
         result="flood" />
      <feComposite
         id="feComposite5565-5"
         in2="SourceGraphic"
         in="flood"
         operator="in"
         result="composite1" />
      <feMorphology
         id="feMorphology5567-9"
         operator="dilate"
         radius="5.5"
         result="result3" />
      <feComposite
         id="feComposite5569-5"
         in2="result3"
         in="SourceGraphic"
         operator="over"
         result="fbSourceGraphic" />
      <feColorMatrix
         result="fbSourceGraphicAlpha"
         in="fbSourceGraphic"
         values="0 0 0 -1 0 0 0 0 -1 0 0 0 0 -1 0 0 0 0 1 0"
         id="feColorMatrix4476" />
      <feMorphology
         id="feMorphology4478"
         radius="7"
         operator="dilate"
         result="result8"
         in="fbSourceGraphic" />
      <feComposite
         id="feComposite4480"
         in2="result8"
         result="result10"
         in="fbSourceGraphic"
         operator="arithmetic"
         k1="0.5"
         k3="0.5" />
      <feTurbulence
         id="feTurbulence4482"
         result="result11"
         type="fractalNoise"
         numOctaves="3"
         baseFrequency="0.07" />
      <feDisplacementMap
         id="feDisplacementMap4484"
         in2="result11"
         result="result12"
         in="result10"
         xChannelSelector="R"
         scale="10" />
      <feComposite
         id="feComposite4486"
         in2="result12"
         operator="arithmetic"
         result="result13"
         in="fbSourceGraphic"
         k1="0.25"
         k2="0.25"
         k3="0.75" />
    </filter>
    <filter
       style="color-interpolation-filters:sRGB;"
       inkscape:label="Colorize"
       id="filter2646">
      <feColorMatrix
         type="hueRotate"
         values="180"
         result="color1"
         id="feColorMatrix2642" />
      <feColorMatrix
         values="-1 0 0 0 1 0 -1 0 0 1 0 0 -1 0 1 -0.21 -0.72 -0.07 2 0 "
         result="fbSourceGraphic"
         id="feColorMatrix2644" />
      <feColorMatrix
         result="fbSourceGraphicAlpha"
         in="fbSourceGraphic"
         values="0 0 0 -1 0 0 0 0 -1 0 0 0 0 -1 0 0 0 0 1 0"
         id="feColorMatrix2704" />
      <feComposite
         in2="fbSourceGraphic"
         id="feComposite2706"
         operator="arithmetic"
         k1="0"
         k2="1.2"
         result="composite1"
         in="fbSourceGraphic" />
      <feColorMatrix
         id="feColorMatrix2708"
         in="composite1"
         values="1"
         type="saturate"
         result="colormatrix1" />
      <feFlood
         id="feFlood2710"
         flood-opacity="1"
         flood-color="rgb(158,67,0)"
         result="flood1" />
      <feBlend
         in2="colormatrix1"
         id="feBlend2712"
         in="flood1"
         mode="multiply"
         result="blend1" />
      <feBlend
         in2="blend1"
         id="feBlend2714"
         mode="screen"
         result="blend2" />
      <feColorMatrix
         id="feColorMatrix2716"
         in="blend2"
         values="1"
         type="saturate"
         result="colormatrix2" />
      <feComposite
         in2="fbSourceGraphic"
         id="feComposite2718"
         in="colormatrix2"
         operator="in"
         k2="1"
         result="fbSourceGraphic" />
      <feColorMatrix
         result="fbSourceGraphicAlpha"
         in="fbSourceGraphic"
         values="0 0 0 -1 0 0 0 0 -1 0 0 0 0 -1 0 0 0 0 1 0"
         id="feColorMatrix2832" />
      <feComposite
         in2="fbSourceGraphic"
         id="feComposite2834"
         operator="arithmetic"
         k1="0"
         k2="1.2"
         result="composite1"
         in="fbSourceGraphic" />
      <feColorMatrix
         id="feColorMatrix2836"
         in="composite1"
         values="0"
         type="saturate"
         result="colormatrix1" />
      <feFlood
         id="feFlood2838"
         flood-opacity="1"
         flood-color="rgb(115,224,255)"
         result="flood1" />
      <feBlend
         in2="colormatrix1"
         id="feBlend2840"
         in="flood1"
         mode="normal"
         result="blend1" />
      <feBlend
         in2="blend1"
         id="feBlend2842"
         mode="multiply"
         result="blend2" />
      <feColorMatrix
         id="feColorMatrix2844"
         in="blend2"
         values="1"
         type="saturate"
         result="colormatrix2" />
      <feComposite
         in2="fbSourceGraphic"
         id="feComposite2846"
         in="colormatrix2"
         operator="in"
         k2="1"
         result="fbSourceGraphic" />
      <feColorMatrix
         result="fbSourceGraphicAlpha"
         in="fbSourceGraphic"
         values="0 0 0 -1 0 0 0 0 -1 0 0 0 0 -1 0 0 0 0 1 0"
         id="feColorMatrix2848" />
      <feComposite
         in2="fbSourceGraphic"
         id="feComposite2850"
         operator="arithmetic"
         k1="0"
         k2="1.2"
         result="composite1"
         in="fbSourceGraphic" />
      <feColorMatrix
         id="feColorMatrix2852"
         in="composite1"
         values="0"
         type="saturate"
         result="colormatrix1" />
      <feFlood
         id="feFlood2854"
         flood-opacity="1"
         flood-color="rgb(0,86,110)"
         result="flood1" />
      <feBlend
         in2="colormatrix1"
         id="feBlend2856"
         in="flood1"
         mode="normal"
         result="blend1" />
      <feBlend
         in2="blend1"
         id="feBlend2858"
         mode="normal"
         result="blend2" />
      <feColorMatrix
         id="feColorMatrix2860"
         in="blend2"
         values="1"
         type="saturate"
         result="colormatrix2" />
      <feComposite
         in2="fbSourceGraphic"
         id="feComposite2862"
         in="colormatrix2"
         operator="in"
         k2="1"
         result="fbSourceGraphic" />
      <feColorMatrix
         result="fbSourceGraphicAlpha"
         in="fbSourceGraphic"
         values="0 0 0 -1 0 0 0 0 -1 0 0 0 0 -1 0 0 0 0 1 0"
         id="feColorMatrix2864" />
      <feComposite
         in2="fbSourceGraphic"
         id="feComposite2866"
         operator="arithmetic"
         k1="0"
         k2="1.2"
         result="composite1"
         in="fbSourceGraphic" />
      <feColorMatrix
         id="feColorMatrix2868"
         in="composite1"
         values="0"
         type="saturate"
         result="colormatrix1" />
      <feFlood
         id="feFlood2870"
         flood-opacity="1"
         flood-color="rgb(0,86,110)"
         result="flood1" />
      <feBlend
         in2="colormatrix1"
         id="feBlend2872"
         in="flood1"
         mode="normal"
         result="blend1" />
      <feBlend
         in2="blend1"
         id="feBlend2874"
         mode="normal"
         result="blend2" />
      <feColorMatrix
         id="feColorMatrix2876"
         in="blend2"
         values="1"
         type="saturate"
         result="colormatrix2" />
      <feComposite
         in2="fbSourceGraphic"
         id="feComposite2878"
         in="colormatrix2"
         operator="in"
         k2="1"
         result="fbSourceGraphic" />
      <feColorMatrix
         result="fbSourceGraphicAlpha"
         in="fbSourceGraphic"
         values="0 0 0 -1 0 0 0 0 -1 0 0 0 0 -1 0 0 0 0 1 0"
         id="feColorMatrix2880" />
      <feComposite
         in2="fbSourceGraphic"
         id="feComposite2882"
         operator="arithmetic"
         k1="0"
         k2="1.2"
         result="composite1"
         in="fbSourceGraphic" />
      <feColorMatrix
         id="feColorMatrix2884"
         in="composite1"
         values="0"
         type="saturate"
         result="colormatrix1" />
      <feFlood
         id="feFlood2886"
         flood-opacity="1"
         flood-color="rgb(0,140,180)"
         result="flood1" />
      <feBlend
         in2="colormatrix1"
         id="feBlend2888"
         in="flood1"
         mode="normal"
         result="blend1" />
      <feBlend
         in2="blend1"
         id="feBlend2890"
         mode="normal"
         result="blend2" />
      <feColorMatrix
         id="feColorMatrix2892"
         in="blend2"
         values="1"
         type="saturate"
         result="colormatrix2" />
      <feComposite
         in2="fbSourceGraphic"
         id="feComposite2894"
         in="colormatrix2"
         operator="in"
         k2="1"
         result="composite2" />
    </filter>
    <filter
       style="color-interpolation-filters:sRGB"
       id="filter5561-7"
       inkscape:label="deevad outline effect">
      <feFlood
         id="feFlood5563-56"
         flood-opacity="1"
         flood-color="rgb(0,0,0)"
         result="flood" />
      <feComposite
         id="feComposite5565-9"
         in2="SourceGraphic"
         in="flood"
         operator="in"
         result="composite1" />
      <feMorphology
         id="feMorphology5567-7"
         operator="dilate"
         radius="4.0999999999999996 6.0999999999999996"
         result="result3" />
      <feComposite
         id="feComposite5569-1"
         in2="result3"
         in="SourceGraphic"
         operator="over"
         result="composite2" />
    </filter>
    <clipPath
       clipPathUnits="userSpaceOnUse"
       id="clipPath1023">
      <path
         style="fill:#000000;fill-opacity:1;stroke:none;stroke-width:1px;stroke-linecap:butt;stroke-linejoin:miter;stroke-opacity:1"
         d="m 647.00271,3314.0699 c 0,0 -6.62913,-11.9324 5.74524,-11.2695 12.37437,0.6629 0.22097,0.221 0.22097,0.221 0,0 15.02602,-17.0148 17.23573,-15.689 2.20971,1.3259 11.26951,13.2583 11.49048,14.1422 0.22097,0.8839 4.41942,-6.1872 4.41942,-6.1872 0,0 -9.72272,-12.5954 -5.08233,-15.468 4.64039,-2.8726 3.31456,-2.8726 3.31456,-2.8726 0,0 3.0936,-2.6516 1.32583,-9.5017 -1.76777,-6.8501 0,0.2209 0,0.2209 0,0 -20.10835,1.5468 -22.31806,-6.6291 -2.20971,-8.1759 10.16466,-5.0823 14.14214,-4.4194 3.97747,0.6629 12.37436,-1.7678 12.37436,-1.7678 0,0 3.31457,-1.5468 9.94369,8.8388 6.62913,10.3857 1.5468,17.4567 1.5468,17.4567 0,0 9.72272,4.1985 11.26951,21.8762 1.5468,17.6776 21.21321,1.1048 21.21321,1.1048 0,0 1.32582,-10.3856 10.82757,-7.734 9.50175,2.6517 13.25825,23.8649 -10.82757,31.8198 -24.08583,7.955 -24.08583,8.3969 -24.08583,8.3969 0,0 3.0936,7.955 -5.96621,13.9212 -9.05981,5.9662 -0.44194,0.8839 -0.44194,0.8839 0,0 2.43068,1.7678 11.93242,20.1083 9.50175,18.3406 3.0936,3.7565 3.0936,3.7565 0,0 7.07106,-1.9887 15.02602,-16.1308 1.57695,-2.8035 15.92369,-31.2365 20.71889,-32.0411 3.03669,-0.5095 -5.21103,12.0525 -3.23287,13.2841 2.66532,1.6594 3.29321,3.2431 4.84311,7.0032 0.97229,2.3588 -9.38314,7.0965 -9.11121,8.6069 4.43707,24.6449 53.73625,-0.1677 53.73625,-0.1677 l 51.70718,-328.3627 -102.53048,-203.2932 -266.93281,-3.5355 37.1231,153.7957 -81.31728,143.1891 76.01398,141.4214 98.99495,129.0469 15.90991,-12.3743 20.77126,1.7677 c 0,0 -17.23573,-10.6066 2.65165,-19.4454 19.88738,-8.8388 11.49048,-4.8613 11.49048,-4.8613 0,0 3.53554,-7.955 11.04855,-8.8389 7.51301,-0.8839 0,-8.3969 0,-8.3969 0,0 -19.44544,-9.7227 -28.28427,-21.8761 z"
         id="path1025"
         inkscape:connector-curvature="0"
         clip-path="none"
         sodipodi:nodetypes="csccscscscssccccccccsccccssssccccccccccscscc" />
    </clipPath>
  </defs>
  <sodipodi:namedview
     pagecolor="#ffffff"
     bordercolor="#666666"
     borderopacity="1"
     objecttolerance="10"
     gridtolerance="10"
     guidetolerance="10"
     inkscape:pageopacity="0"
     inkscape:pageshadow="2"
     inkscape:window-width="1366"
     inkscape:window-height="705"
     id="namedview4"
     showgrid="false"
     inkscape:zoom="0.2"
     inkscape:cx="1562.3432"
     inkscape:cy="1190.8326"
     inkscape:window-x="-8"
     inkscape:window-y="-8"
     inkscape:window-maximized="1"
     inkscape:current-layer="layer1" />
  <g
     inkscape:groupmode="layer"
     id="layer2"
     inkscape:label="artwork"
     sodipodi:insensitive="true">
    <image
       sodipodi:absref="E:\Users\jamesmichael\Downloads\Compressed\eps\peppercarrot_ep13_translation-master\peppercarrot_ep13_translation-master\ph\../gfx_Pepper-and-Carrot_by-David-Revoy_E13P05.png"
       xlink:href="../gfx_Pepper-and-Carrot_by-David-Revoy_E13P05.png"
       y="0"
       x="0"
       id="image10"
       height="3503"
       width="2481" />
  </g>
  <g
     inkscape:groupmode="layer"
     id="layer3"
     inkscape:label="speechbubbles" />
  <g
     inkscape:groupmode="layer"
     id="layer1"
     inkscape:label="txt">
    <path
       sodipodi:nodetypes="ccccccccccccccccc"
       inkscape:connector-curvature="0"
       id="path1020"
       d="m 802.56059,3159.1282 c -48.20306,-8.7425 -15.74767,-42.8625 -1.26255,-42.3217 -19.69606,-32.5428 -10.7368,-44.2103 8.96225,-47.401 -25.03294,4.6155 -31.20847,-69.8475 -3.68444,-112.8352 -18.75325,5.0591 -60.05912,-11.4249 -65.61326,-45.9066 -13.70817,44.4538 -52.39134,37.6191 -59.90309,-47.0582 -4.86233,63.749 -26.96194,82.406 -64.71887,4.7978 -2.36843,23.4269 31.29311,93.8634 -69.92641,61.2193 23.73028,65.1189 27.52037,183.1679 -36.21707,205.4667 26.242,18.3749 57.36989,76.9546 13.45536,110.9951 83.88659,-22.1034 61.83303,57.1334 55.12595,77.9986 32.65826,-40.819 51.86492,-46.4741 41.8136,49.18 60.02593,-93.8704 57.76453,4.0631 70.66309,20.6565 23.15305,-75.2596 72.8202,-67.4673 103.34768,-29.8048 -30.95837,-81.2147 -32.64743,-109.7395 2.78293,-84.841 -42.47727,-60.7274 1.30723,-64.3454 6.31077,-59.3697 0,0 -60.36477,-38.067 -1.13594,-60.7758 z"
       style="color:#000000;display:inline;overflow:visible;visibility:visible;opacity:1;fill:#ffffff;fill-opacity:1;fill-rule:nonzero;stroke:none;stroke-width:1.12258732px;marker:none;enable-background:accumulate"
       clip-path="url(#clipPath1023)" />
    <path
       style="fill:#ffffff;fill-rule:evenodd;stroke:none;stroke-width:1.18377042px;stroke-linecap:butt;stroke-linejoin:miter;stroke-opacity:1"
       d="m 223.87915,2997.312 c 27.8055,48.419 21.02112,75.1925 16.69414,103.5036 49.12869,-38.7054 45.65692,4.029 53.31757,27.9095 20.45382,-37.7729 41.54809,-47.2077 57.14871,6.9591 14.34682,-33.1482 28.35655,-57.0141 61.97137,-8.3858 3.95762,-17.228 2.15906,-47.5034 48.84043,-18.7347 -13.17473,-32.0005 -3.91276,-53.9191 21.17999,-68.7242 -29.47578,-29.1991 -20.70918,-62.0043 -12.45937,-94.7605 -50.15979,14.9098 -41.55861,-21.5962 -48.70299,-44.3249 -38.25617,57.6127 -46.37435,31.2879 -55.21949,6.988 -25.09942,54.4166 -34.47557,10.8406 -41.70876,-7.8214 -16.31751,77.959 -32.62742,21.9574 -48.6254,7.791 -3.17661,17.9759 5.12044,45.4769 -36.96632,31.1503 8.27132,46.3867 -7.41311,44.7771 -15.46988,58.45 z"
       id="path4572"
       inkscape:connector-curvature="0"
       sodipodi:nodetypes="cccccccccccccc" />
    <path
       style="fill:#ffffff;fill-rule:evenodd;stroke:none;stroke-width:1.069911px;stroke-linecap:butt;stroke-linejoin:miter;stroke-opacity:1"
       d="m 118.70453,2860.5797 c 30.92433,-24.9735 37.15974,-52.217 0,-83.4504 20.66865,-6.7443 53.90688,10.1187 35.9629,-69.1446 27.10659,32.1381 52.68014,42.8615 73.39367,-14.3059 14.52339,69.9666 37.57337,44.9624 60.91674,16.6901 -2.74705,59.9224 15.09276,67.5046 41.83441,52.4546 -5.87408,25.9497 -28.95467,56.0917 13.21085,70.3368 -32.03617,16.1502 -39.80006,38.0701 -19.08235,66.7604 -28.59707,-18.6201 -57.31538,-37.5768 -55.77919,27.4194 -17.36983,-35.4174 -34.73967,-57.0225 -52.10952,-3.5763 -7.84516,-66.9774 -62.28807,-43.2349 -43.84149,30.4273 -23.09296,-62.1229 -25.28264,-94.4828 -54.50602,-93.6114 z"
       id="path4564"
       inkscape:connector-curvature="0"
       sodipodi:nodetypes="cccccccccccc" />
    <text
       xml:space="preserve"
       style="color:#000000;font-style:normal;font-variant:normal;font-weight:normal;font-stretch:normal;line-height:0%;font-family:Arial;-inkscape-font-specification:Arial;letter-spacing:0.02734961px;word-spacing:0px;clip-rule:nonzero;display:inline;overflow:visible;visibility:visible;opacity:1;isolation:auto;mix-blend-mode:normal;color-interpolation:sRGB;color-interpolation-filters:linearRGB;solid-color:#000000;solid-opacity:1;fill:#ffffff;fill-opacity:1;fill-rule:nonzero;stroke:#ffffff;stroke-width:1.11559534;stroke-linecap:butt;stroke-linejoin:miter;stroke-miterlimit:4;stroke-dasharray:none;stroke-dashoffset:0;stroke-opacity:1;marker:none;filter:url(#filter5561);color-rendering:auto;image-rendering:auto;shape-rendering:auto;text-rendering:auto;enable-background:accumulate"
       x="1705.2566"
       y="1742.2045"
       id="text4251"
       transform="matrix(1.1711291,-0.6244068,0,3.0910067,-383.37072,-2560.6915)"><tspan
         sodipodi:role="line"
         id="tspan4253"
         x="1705.2566"
         y="1742.2045"
         style="font-style:normal;font-variant:normal;font-weight:normal;font-stretch:normal;font-size:160.11950684px;line-height:1.25;font-family:Lavi;-inkscape-font-specification:Lavi"><tspan
           style="font-size:90px"
           id="tspan4349">C</tspan><tspan
           id="tspan4353"
           style="font-size:68.36567688px">R</tspan><tspan
           id="tspan4357"
           style="font-size:60.7694931px">Ash</tspan><tspan
           id="tspan4365"
           style="font-size:45.57711792px"> ! </tspan><tspan
           id="tspan4369"
           style="font-size:72.51364136px">!</tspan></tspan></text>
    <text
       xml:space="preserve"
       style="font-style:normal;font-variant:normal;font-weight:normal;font-stretch:normal;line-height:0%;font-family:Lavi;-inkscape-font-specification:Lavi;text-align:center;letter-spacing:0px;word-spacing:0px;text-anchor:middle;fill:#00ccff;fill-opacity:1;stroke:#00ccff;"
       x="1380.453"
       y="2829.2837"
       id="text4246-3"
       transform="skewX(-22.458186)"><tspan
         sodipodi:role="line"
         style="font-size:45px;line-height:1.25;fill:#00ccff;stroke:#00ccff;stroke-width:1.89999998;stroke-miterlimit:4;stroke-dasharray:none;stroke-opacity:1;"
         x="1380.453"
         y="2829.2837"
         id="tspan4152-3"> WAAAG!</tspan></text>
    <text
       id="text4530"
       y="2994.0713"
       x="354.42157"
       style="font-style:normal;font-variant:normal;font-weight:normal;font-stretch:normal;line-height:0%;font-family:Lavi;-inkscape-font-specification:Lavi;text-align:center;letter-spacing:0px;word-spacing:0px;text-anchor:middle;fill:#ff0066;fill-opacity:1;stroke:none;"
       xml:space="preserve"><tspan
         id="tspan4532"
         y="2994.0713"
         x="362.33173"
         style="font-size:45px;line-height:1.25;fill:#ff0066;"
         sodipodi:role="line">Hays! </tspan><tspan
         y="3050.3213"
         x="354.42157"
         style="font-size:45px;line-height:1.25;fill:#ff0066;"
         sodipodi:role="line"
         id="tspan1010">Nanaman?</tspan></text>
    <text
       id="text4530-7"
       y="2974.5876"
       x="681.95819"
       style="font-style:normal;font-variant:normal;font-weight:normal;font-stretch:normal;line-height:0%;font-family:Lavi;-inkscape-font-specification:Lavi;text-align:center;letter-spacing:0px;word-spacing:0px;text-anchor:middle;fill:#ff7f2a;fill-opacity:1;stroke:#ff7f2a;stroke-width:0.5;stroke-miterlimit:4;stroke-dasharray:none;stroke-opacity:1;"
       xml:space="preserve"
       transform="scale(0.99127735,1.0087994)"><tspan
         id="tspan4532-4"
         y="2974.5876"
         x="690.32684"
         style="font-size:47.60832977px;line-height:1.25;fill:#ff7f2a;stroke:#ff7f2a;stroke-width:0.5;stroke-miterlimit:4;stroke-dasharray:none;stroke-opacity:1;fill-opacity:1;"
         sodipodi:role="line"> </tspan><tspan
         y="3034.0981"
         x="690.32684"
         style="font-size:47.60832977px;line-height:1.25;fill:#ff7f2a;stroke:#ff7f2a;stroke-width:0.5;stroke-miterlimit:4;stroke-dasharray:none;stroke-opacity:1;fill-opacity:1;"
         sodipodi:role="line"
         id="tspan4552">Ibaba </tspan><tspan
         y="3093.6084"
         x="681.95819"
         style="font-size:47.60832977px;line-height:1.25;fill:#ff7f2a;stroke:#ff7f2a;stroke-width:0.5;stroke-miterlimit:4;stroke-dasharray:none;stroke-opacity:1;fill-opacity:1;"
         sodipodi:role="line"
         id="tspan1012">mo yan !</tspan><tspan
         y="3153.1189"
         x="690.32684"
         style="font-size:47.60832977px;line-height:1.25;fill:#ff7f2a;stroke:#ff7f2a;stroke-width:0.5;stroke-miterlimit:4;stroke-dasharray:none;stroke-opacity:1;fill-opacity:1;"
         sodipodi:role="line"
         id="tspan1014">pusa </tspan><tspan
         y="3212.6294"
         x="681.95819"
         style="font-size:47.60832977px;line-height:1.25;fill:#ff7f2a;stroke:#ff7f2a;stroke-width:0.5;stroke-miterlimit:4;stroke-dasharray:none;stroke-opacity:1;fill-opacity:1;"
         sodipodi:role="line"
         id="tspan989">ka!</tspan></text>
    <flowRoot
       xml:space="preserve"
       id="flowRoot4214"
       style="font-style:normal;font-variant:normal;font-weight:normal;font-stretch:normal;line-height:0.01%;font-family:Lavi;-inkscape-font-specification:'Lavi, Normal';text-align:center;letter-spacing:0px;word-spacing:0px;writing-mode:lr-tb;text-anchor:middle;fill:#000000;fill-opacity:1;stroke:none;stroke-width:1px;stroke-linecap:butt;stroke-linejoin:miter;stroke-opacity:1"><flowRegion
         id="flowRegion4216"><rect
           id="rect4218"
           width="51.45779"
           height="55.745937"
           x="277.30032"
           y="428.39709" /></flowRegion><flowPara
         id="flowPara4220"
         style="font-size:47.00374985px;line-height:1.25"> </flowPara></flowRoot>    <flowRoot
       xml:space="preserve"
       id="flowRoot4222"
       style="font-style:normal;font-variant:normal;font-weight:normal;font-stretch:normal;line-height:0.01%;font-family:Lavi;-inkscape-font-specification:'Lavi, Normal';text-align:center;letter-spacing:0px;word-spacing:0px;writing-mode:lr-tb;text-anchor:middle;fill:#000000;fill-opacity:1;stroke:none;stroke-width:1px;stroke-linecap:butt;stroke-linejoin:miter;stroke-opacity:1"><flowRegion
         id="flowRegion4224"><rect
           id="rect4226"
           width="75.757301"
           height="67.181"
           x="370.21021"
           y="379.79807" /></flowRegion><flowPara
         id="flowPara4228"
         style="font-size:47.00374985px;line-height:1.25"> </flowPara></flowRoot>    <path
       style="fill:#ffffff;fill-opacity:1;stroke:none"
       d="m 302.65714,1212.2229 c 26.42236,6.4878 36.58475,12.512 31.8422,16.2194 10.83998,1.8536 14.90501,50.0482 4.74255,58.853 -0.67752,0.927 -5.41999,3.7072 -3.38752,4.1707 2.03248,0.4633 14.22742,-0.9268 16.2599,0.9267 2.03248,1.8538 -18.29237,28.2681 -15.58246,29.1949 2.71008,0.9268 65.03967,-16.6828 73.84701,-12.512 8.80743,4.1707 4.06504,14.829 6.77503,15.2926 2.70983,0.4633 27.77733,-2.3171 31.16484,-1.8538 3.38735,0.4635 9.4847,14.3657 12.87221,14.8291 3.38752,0.4634 18.96998,-6.0243 21.67998,-5.5609 2.70999,0.4635 1.35487,12.0486 4.74239,12.512 3.38751,0.4634 18.29236,-9.7315 20.32493,-9.2681 2.03239,0.4634 9.48495,23.6339 12.87238,25.024 3.38751,1.3903 25.06732,-25.4874 27.09988,-25.9508 2.0324,-0.4635 14.90477,31.5118 17.61485,31.9752 2.71,0.4635 16.25982,-21.7803 18.29238,-21.3169 2.03247,0.4634 14.90485,13.4391 17.61477,14.3658 2.70999,0.9267 20.32493,-28.7314 23.03484,-28.7314 2.71008,0 25.74484,12.5121 27.77741,14.829 2.03247,2.3171 4.06486,-12.0485 6.77486,-12.0485 2.71,0 33.87475,8.3413 34.55235,7.878 0.67744,-0.4635 -4.74255,-9.2683 -2.71008,-9.2683 2.03248,0 23.21491,-7.6024 35.94053,-4.9448 19.12128,-5.1598 73.13627,23.9446 73.13627,23.9446 0,0 -30.48731,-37.9996 -27.09996,-40.7799 3.38751,-2.7806 15.58263,0.4633 16.26006,-0.9269 0.67744,-1.3903 -7.45247,-7.4146 -5.42016,-9.2683 2.03265,-1.8536 25.06749,-9.2681 27.09988,-11.585 2.03256,-2.3172 -10.16238,-8.3416 -7.45246,-9.7318 2.71007,-1.3902 42.68241,-10.195 43.35986,-12.5121 0.67743,-2.317 -20.32486,-13.4387 -17.61494,-16.6826 2.71,-3.2439 10.16246,-4.6341 9.48494,-6.9511 -0.67751,-2.3171 -13.54998,-5.0976 -12.87246,-7.4147 0.6776,-2.317 7.45248,-13.9023 9.48495,-15.7559 2.03248,-1.8536 -14.22742,-0.9268 -14.22742,-2.7804 0,-1.8536 59.61967,-51.4385 58.26455,-65.3408 -21.00228,8.8048 -92.81682,24.5607 -115.17406,20.8535 -22.35749,-3.7074 -13.54991,-26.8777 -16.93733,-28.268 -3.38752,-1.3903 -28.45493,7.878 -31.84244,4.634 -3.38744,-3.2437 -4.7424,-9.2681 -7.45248,-9.2681 -2.70983,0 -18.29237,12.9754 -21.67972,12.5121 -3.38751,-0.4635 -35.22979,-20.8533 -39.97235,-21.3169 -4.74238,-0.4633 -23.03476,7.878 -27.0998,8.3414 -4.06495,0.4634 -7.45238,-11.1218 -10.83989,-10.195 -3.38752,0.9267 -25.06733,9.2682 -28.45467,8.3414 -3.38753,-0.9268 -6.09752,-4.6341 -8.8076,-3.7072 -2.70983,0.9267 -14.90485,4.634 -14.90485,4.634 0,0 -8.80744,-2.7805 -12.87239,-2.7805 -4.06495,0 -31.84218,15.2925 -35.2297,16.2193 -3.38752,0.9268 -43.96135,-16.4221 -41.92887,-19.2027 2.03255,-2.7804 -19.04576,19.6662 -23.78823,21.0564 -4.7424,1.3901 -48.39105,-50.9985 -49.74594,-49.6082 -1.35503,1.3902 24.00118,57.0226 19.93614,57.4861 -4.06496,0.4634 -13.5499,2.317 -13.5499,2.317 l 1.35495,2.7805 c 0,0 -28.45475,-7.4145 -31.84227,-10.1949 -3.38743,-2.7805 2.03257,12.0485 4.06504,15.7559 -12.19486,-3.7074 -48.10217,-11.5853 -50.812,-13.9023 -2.71009,-2.3172 4.7423,8.3413 8.80726,11.5852 -5.41992,-1.3903 -10.16247,-1.8537 -10.16247,-1.8537 l 15.58246,11.1219 -4.74256,0.9268 c 0,0 10.16247,5.0976 10.16247,7.4146 0,2.317 -26.4222,5.0975 -26.4222,5.0975 0,0 10.8399,4.1706 8.12991,6.4877 -2.71008,2.317 -9.48503,3.7072 -9.48503,3.7072 l -1.35487,6.0244 z"
       id="path5888"
       inkscape:connector-curvature="0"
       sodipodi:nodetypes="cccccccccscsccccssscscscccccccscccsscsscsccsccccssccccccccsccccsccccc" />
    <g
       id="g2636"
       style="opacity:0.733">
      <path
         inkscape:transform-center-y="-28.696351"
         inkscape:transform-center-x="-20.79395"
         sodipodi:nodetypes="csssscssssssc"
         inkscape:connector-curvature="0"
         id="path3023"
         d="m 475.52341,399.55087 c -45.86351,9.85544 -53.78367,-12.3773 -61.689,-39.13568 -7.90534,-26.75819 -13.49264,-52.75515 -23.79024,-57.64708 -10.2976,-4.89195 -24.30257,0.32473 -34.44405,6.81001 -10.14159,6.48541 -15.93756,-8.9339 -23.23356,-24.92114 -7.2961,-15.98727 -56.22029,-81.20882 -56.22029,-81.20882 0,0 11.52393,83.06646 19.37723,106.03233 7.8533,22.96585 10.66177,31.43885 15.1493,38.95308 4.48763,7.51426 17.00674,22.95171 28.29249,21.37237 11.28573,-1.57914 21.50892,-13.32321 29.90447,-18.11658 8.39548,-4.79358 20.93698,5.81852 29.25832,23.65267 8.32133,17.83413 30.43229,52.88177 48.5013,46.73467 18.06901,-6.14712 28.89403,-22.52583 28.89403,-22.52583 z"
         style="fill:#ffffff;stroke:none;stroke-width:1.3775146" />
      <path
         sodipodi:nodetypes="zsssssz"
         inkscape:connector-curvature="0"
         id="path3330-4"
         d="m 207.4606,233.83156 c 22.97626,-59.98191 147.94629,-54.86141 189.52613,-28.87433 41.57967,25.98683 57.05123,70.74216 58.98515,86.62314 1.9338,15.88087 -2.9009,89.51052 -24.17429,103.94782 -21.27331,14.43719 -82.19236,21.65576 -103.46576,21.65576 -21.27331,0 -89.18249,-9.18921 -106.36683,-30.31817 -16.43852,-20.21205 -37.48077,-93.05243 -14.5044,-153.03422 z"
         style="color:#000000;display:inline;overflow:visible;visibility:visible;fill:#ffffff;fill-opacity:1;fill-rule:nonzero;stroke:none;stroke-width:1.32405353px;marker:none;enable-background:accumulate" />
      <path
         sodipodi:nodetypes="ccccccccccccccccccccccccccccc"
         inkscape:connector-curvature="0"
         id="path3549-3-3-0"
         d="m 143.97089,132.38514 c 23.73359,11.17899 47.94224,22.24748 5.00281,48.94148 40.47473,-6.35793 15.54103,8.38947 5.4851,18.33629 72.40509,-18.74057 25.36785,12.76124 7.36862,32.04858 16.18566,-7.52529 42.13084,-29.07942 31.99985,1.22454 5.12891,-1.31005 11.20119,-5.21616 13.63333,0.89553 6.57294,-4.0726 11.42409,-5.06172 14.20949,-2.35089 6.51522,-7.50896 10.67916,-9.44222 10.51553,-1.11439 6.14509,-6.17202 7.97313,-3.97711 9.46617,-1.13317 10.5891,-13.29779 14.40447,-9.42463 18.46906,-6.18284 6.00258,-7.99049 12.84907,-6.03363 20.40375,4.27359 8.11074,-13.62736 16.57995,-12.63773 25.24993,-3.45584 1.75965,-10.77439 6.8078,-21.50565 12.23767,1.1004 3.52688,-1.74837 5.95797,-15.93147 17.44401,7.93761 1.37718,-25.98851 42.37423,-16.37838 59.4549,-2.88199 -4.81845,-20.27503 4.20045,-29.31705 33.20326,-8.52424 1.66798,-8.0987 10.55269,-11.24009 25.87704,-9.95834 -15.57962,-10.08893 -16.30108,-15.68655 20.10488,-10.06152 -25.30313,-8.48668 -48.61136,-16.93755 -9.06599,-24.2627 -9.18208,-3.35378 -39.47694,3.60616 -5.76354,-33.97395 -23.6455,8.00401 -45.02501,9.81062 -51.05674,-24.36343 -12.82581,8.72919 -26.94043,12.9143 -37.66953,-7.83966 -10.21903,9.45122 -24.26836,6.88657 -31.52631,2.04082 -2.15005,10.51289 -17.38595,26.42219 -37.21658,-3.27205 4.18975,16.75074 0.40144,43.24383 -22.5543,-1.05532 -0.58917,7.62394 8.49446,49.30506 -56.66331,-1.66633 7.69953,33.5526 -13.88868,13.72289 -31.00159,2.05018 8.24496,21.09782 -4.68539,22.48629 -32.69891,9.83606 21.44474,20.27651 -0.84114,14.38517 -14.9086,13.41158 z"
         style="color:#000000;display:inline;overflow:visible;visibility:visible;fill:#ffffff;fill-opacity:1;fill-rule:nonzero;stroke:none;stroke-width:1px;marker:none;enable-background:accumulate" />
    </g>
    <text
       xml:space="preserve"
       style="font-style:normal;font-variant:normal;font-weight:normal;font-stretch:normal;line-height:0%;font-family:Lavi;-inkscape-font-specification:Lavi;text-align:center;letter-spacing:0px;word-spacing:0px;text-anchor:middle;fill:#d40055;fill-opacity:1;stroke:#d40055;"
       x="328.23169"
       y="305.86917"
       id="text4246-9-0"><tspan
         sodipodi:role="line"
         style="font-size:45px;line-height:1.25;fill:#d40055;stroke:#d40055;"
         x="328.23169"
         y="305.86917"
         id="tspan4233">Shichimi...</tspan><tspan
         sodipodi:role="line"
         style="font-size:45px;line-height:1.25;fill:#d40055;stroke:#d40055;"
         x="336.14185"
         y="362.11917"
         id="tspan2621">Huli n... </tspan><tspan
         sodipodi:role="line"
         style="font-size:45px;line-height:1.25;fill:#d40055;stroke:#d40055;"
         x="328.23169"
         y="380.65271"
         id="tspan4206" /></text>
    <g
       id="g2640"
       style="filter:url(#filter2646);opacity:0.542"
       transform="matrix(1,0,-0.26158562,1,323.05924,0)">
      <text
         transform="matrix(0.94233824,-0.0424298,-0.25463011,1.0726551,0,0)"
         id="text4246-9-0-9"
         y="1206.4581"
         x="940.69141"
         style="font-style:normal;font-variant:normal;font-weight:normal;font-stretch:normal;line-height:0%;font-family:Lavi;-inkscape-font-specification:Lavi;text-align:center;letter-spacing:0px;word-spacing:0px;text-anchor:middle;fill:#000000;fill-opacity:1;stroke:#000000;stroke-width:2.72444701;stroke-miterlimit:4;stroke-dasharray:none;stroke-opacity:1"
         xml:space="preserve"><tspan
           id="tspan4206-3"
           y="1206.4581"
           x="953.3197"
           style="font-size:71.84114838px;line-height:1.25;stroke:#000000;stroke-width:2.72444701;stroke-miterlimit:4;stroke-dasharray:none;stroke-opacity:1"
           sodipodi:role="line">Hinde<tspan
   id="tspan2902"
   style="font-size:53.33333206px">E</tspan><tspan
   style="font-size:64px"
   id="tspan2898">E</tspan>EH !!! </tspan></text>
    </g>
    <path
       style="color:#000000;display:inline;overflow:visible;visibility:visible;fill:#000000;fill-opacity:1;fill-rule:nonzero;stroke:none;stroke-width:1px;marker:none;enable-background:accumulate"
       d="m 886.47708,501.3257 14.63576,-4.89304 4.44778,26.21506 26.22964,-16.52319 c 0,0 11.89283,13.9973 17.88539,15.01285 5.9926,1.01557 -3.84951,12.82731 -3.84951,12.82731 0,0 13.09141,14.2004 15.16567,17.54736 -4.72512,9.68327 -15.76552,21.29171 -15.76552,21.29171 l 49.27708,29.31921 -21.54975,-26.11788 27.26668,-14.84943 -16.59453,-26.77593 7.6752,-3.19273 -18.43845,-21.0974 16.48005,-16.67761 -13.41407,-11.2595 8.32087,-9.07413 10.8555,12.32392 5.46303,-27.53129 19.4989,0.30905 18.324,-22.35594 2.1323,-21.70278 19.9298,-13.5795 -2.8876,-32.95783 23.8781,-13.49158 -8.2048,-38.8564 3.2779,-37.70088 -15.2579,-5.5812 18.7157,-14.80114 -19.8907,-7.86405 45.6007,-24.65614 -25.7066,-45.4444 14.453,-37.54932 -16.8595,-8.38341 15.6154,-21.06978 c -11.1632,1.60287 -9.2037,-9.5899 -9.2037,-9.5899 0,0 -122.91904,-2.31614 -196.64115,0.57235 z"
       id="path4448"
       inkscape:connector-curvature="0"
       sodipodi:nodetypes="ccccsccccccccccccccccccccccccccccccccc" />
    <text
       xml:space="preserve"
       style="font-style:normal;font-variant:normal;font-weight:normal;font-stretch:normal;line-height:0%;font-family:Lavi;-inkscape-font-specification:Lavi;text-align:center;letter-spacing:0px;word-spacing:0px;text-anchor:middle;fill:#ffffff;fill-opacity:1;stroke:#ffffff;stroke-width:1.59633911;stroke-miterlimit:4;stroke-dasharray:none;stroke-opacity:1"
       x="1051.0415"
       y="186.04254"
       id="text4246-9-0-9-2"
       transform="scale(0.92299533,1.0834291)"><tspan
         sodipodi:role="line"
         style="font-style:normal;font-variant:normal;font-weight:normal;font-stretch:normal;font-size:52.7338295px;line-height:1.25;font-family:'Drukaatie burti';-inkscape-font-specification:'Drukaatie burti';fill:#ffffff;stroke:#ffffff;stroke-width:1.59633911;stroke-miterlimit:4;stroke-dasharray:none;stroke-opacity:1"
         x="1051.0415"
         y="186.04254"
         id="tspan4206-3-2"> MUAH</tspan><tspan
         sodipodi:role="line"
         style="font-style:normal;font-variant:normal;font-weight:normal;font-stretch:normal;font-size:52.7338295px;line-height:1.25;font-family:'Drukaatie burti';-inkscape-font-specification:'Drukaatie burti';fill:#ffffff;stroke:#ffffff;stroke-width:1.59633911;stroke-miterlimit:4;stroke-dasharray:none;stroke-opacity:1"
         x="1051.0415"
         y="251.95982"
         id="tspan4331">HAHA</tspan><tspan
         sodipodi:role="line"
         style="font-style:normal;font-variant:normal;font-weight:normal;font-stretch:normal;font-size:52.7338295px;line-height:1.25;font-family:'Drukaatie burti';-inkscape-font-specification:'Drukaatie burti';fill:#ffffff;stroke:#ffffff;stroke-width:1.59633911;stroke-miterlimit:4;stroke-dasharray:none;stroke-opacity:1"
         x="1051.0415"
         y="317.87711"
         id="tspan4333">HAHA</tspan><tspan
         sodipodi:role="line"
         style="font-style:normal;font-variant:normal;font-weight:normal;font-stretch:normal;font-size:52.7338295px;line-height:1.25;font-family:'Drukaatie burti';-inkscape-font-specification:'Drukaatie burti';fill:#ffffff;stroke:#ffffff;stroke-width:1.59633911;stroke-miterlimit:4;stroke-dasharray:none;stroke-opacity:1"
         x="1051.0415"
         y="383.7944"
         id="tspan4335">!!!</tspan></text>
    <path
       style="color:#000000;display:inline;overflow:visible;visibility:visible;fill:#ffffff;fill-opacity:1;fill-rule:nonzero;stroke:none;stroke-width:1px;marker:none;enable-background:accumulate"
       d="m 2002.3958,1011.5534 c -8.3332,26.9654 -55.3334,29.2267 -72.6353,23.7454 34.8769,30.1659 33.6611,48.9084 -13.6921,51.8184 79.4119,54.3669 14.5176,46.1398 1.7177,59.9257 62.353,18.7361 34.4556,42.0534 23.3546,65.2655 71.6687,0.7971 42.7793,29.0766 29.4933,51.766 18.7588,-11.9213 66.443,-62.9584 68.1798,-15.8216 41.2197,-42.5186 64.8324,-48.9741 77.7316,5.2875 21.5055,-44.5879 57.6299,-33.7764 66.5869,2.4531 32.8497,-70.0522 74.3261,-11.7372 110.5795,6.39 -10.4929,-24.109 -15.5385,-93.4342 56.3052,-49.5668 -28.8015,-34.0138 13.4515,-39.6927 41.1688,-47.1928 -36.8319,-11.099 -43.6201,-22.5473 24.7688,-34.8674 -52.0398,-1.1918 -100.5674,-3.6334 -39.5132,-45.6487 -19.1545,-1.0168 -70.8774,11.6529 -23.8901,-83.3297 -131.0053,94.9902 -76.9125,-115.87944 -68.8102,-240.02617 -57.0507,198.45137 -74.8187,311.76547 -124.6047,236.36289 -19.3769,48.95128 -62.4692,45.63758 -83.9726,4.99108 -13.5445,27.1669 -33.8059,45.5143 -72.768,8.4476 z"
       id="path3549-3-7"
       inkscape:connector-curvature="0"
       sodipodi:nodetypes="ccccccccccccccccccc" />
    <path
       style="color:#000000;display:inline;overflow:visible;visibility:visible;fill:#ffffff;fill-opacity:1;fill-rule:nonzero;stroke:none;stroke-width:1px;marker:none;enable-background:accumulate"
       d="m 1729.8159,539.26594 c 46.7749,-243.52358 56.0215,-217.3243 61.228,-177.34797 37.2184,-53.36968 76.6554,-35.69967 115.9664,-22.06754 8.529,-16.02938 7.5022,-40.23882 40.2775,-35.51254 -5.9514,-15.46821 3.932,-26.50583 27.9443,-33.59054 -33.5466,-8.47116 -26.3367,-18.9561 33.3916,-31.18493 -46.2714,0.33388 -62.2978,-21.16508 -11.3871,-58.41694 -17.0763,-0.36792 -96.0287,52.19167 -85.2046,-35.46859 -26.6733,28.73942 -56.4362,45.03697 -100.8924,-12.24102 -9.9066,23.41628 -26.4446,39.51444 -63.9007,9.05052 -5.2978,23.11038 -46.8438,26.22072 -62.6233,22.0144 33.2944,24.71024 33.6882,40.65055 -8.1052,44.34592 74.6953,44.1063 16.4722,38.82523 6.186,50.86101 56.7871,14.29526 33.8414,34.78688 25.7955,54.78204 63.6588,-1.17633 47.3712,32.45594 21.324,224.77618 z"
       id="path3549-3-6"
       inkscape:connector-curvature="0"
       sodipodi:nodetypes="ccccccccccccccc" />
    <text
       xml:space="preserve"
       style="font-style:normal;font-variant:normal;font-weight:normal;font-stretch:normal;line-height:0%;font-family:Lavi;-inkscape-font-specification:Lavi;text-align:center;letter-spacing:0px;word-spacing:0px;text-anchor:middle;fill:#cb1e1e;fill-opacity:1;stroke:#cb1e1e;stroke-width:2.57091856;stroke-miterlimit:4;stroke-dasharray:none;stroke-opacity:1;"
       x="2046.1486"
       y="247.88857"
       id="text4246-9-0-9-5"
       transform="scale(0.88838522,1.1256378)"><tspan
         sodipodi:role="line"
         style="font-size:67.79273987px;line-height:1.25;stroke:#cb1e1e;stroke-width:2.57091856;stroke-miterlimit:4;stroke-dasharray:none;stroke-opacity:1;fill:#cb1e1e;"
         x="2046.1486"
         y="247.88857"
         id="tspan4206-3-4"><tspan
           style="font-size:84.92830658px;stroke-width:2.57091856;fill:#cb1e1e;stroke:#cb1e1e;stroke-opacity:1;"
           id="tspan4275-0"> G</tspan><tspan
           id="tspan4391"
           style="font-size:64.87578583px;stroke-width:2.57091856;fill:#cb1e1e;stroke:#cb1e1e;stroke-opacity:1;">RR</tspan><tspan
           id="tspan4389"
           style="font-size:76.67138672px;stroke-width:2.57091856;fill:#cb1e1e;stroke:#cb1e1e;stroke-opacity:1;">!</tspan><tspan
           id="tspan4387"
           style="font-size:82.56918335px;stroke-width:2.57091856;fill:#cb1e1e;stroke:#cb1e1e;stroke-opacity:1;">!</tspan><tspan
           id="tspan4385"
           style="font-size:88.46697998px;stroke-width:2.57091856;fill:#cb1e1e;stroke:#cb1e1e;stroke-opacity:1;">!</tspan></tspan></text>
    <g
       aria-label="MAGBABAYAD KA! ..."
       transform="matrix(0.51796203,0,-0.05334273,1.1387841,-37.867739,407.93292)"
       style="font-style:normal;font-variant:normal;font-weight:normal;font-stretch:normal;font-size:16.56458664px;line-height:0%;font-family:Lavi;-inkscape-font-specification:Lavi;text-align:center;letter-spacing:0px;word-spacing:0px;text-anchor:middle;fill:#d40000;fill-opacity:1;stroke:#d40000;stroke-width:1.3803823"
       id="text4437">
      <path
         d="m 3995.5038,647.34388 q 0.039,-0.23185 0.077,-1.54568 0.077,-1.31384 0.1545,-3.28459 0.116,-1.97075 0.1933,-4.36656 0.1159,-2.39582 0.1932,-4.75299 0.1159,-2.39582 0.1545,-4.52114 0.077,-2.12532 0.116,-3.55508 v -4.59842 -4.63706 l -14.3749,16.88663 q -0.8502,1.0047 -1.623,1.62297 -0.7342,0.61828 -2.0867,0.61828 -0.6183,0 -1.3525,-0.2705 -0.6955,-0.27049 -1.0047,-0.85012 -0.2318,-0.38643 -0.7342,-1.19791 -0.4637,-0.81149 -1.0819,-1.81618 -0.5797,-1.0047 -1.2366,-2.08668 -0.6569,-1.12063 -1.2752,-2.08668 -0.5796,-1.0047 -1.0433,-1.77754 -0.4637,-0.77284 -0.6956,-1.15927 -0.3478,-0.54099 -1.0047,-1.50704 -0.6569,-0.96606 -1.3524,-1.93211 -0.6956,-0.96605 -1.2752,-1.7389 -0.541,-0.77284 -0.657,-0.88877 l -0.5409,-0.57963 -2.164,22.83753 q -0.039,0.15457 -0.1546,0.85013 -0.1159,0.65691 -0.3091,1.62297 -0.1546,0.96605 -0.3864,2.12532 -0.1932,1.15926 -0.4251,2.27989 -0.1932,1.08198 -0.3864,2.08668 -0.1932,0.96605 -0.3478,1.58432 -0.1546,0.69556 -0.3478,1.85483 -0.1932,1.12062 -0.5023,2.43446 -0.2705,1.31383 -0.7342,2.66631 -0.4251,1.35247 -1.0434,2.4731 -0.6182,1.08198 -1.4684,1.77754 -0.8501,0.69556 -1.9707,0.69556 -1.5071,0 -2.3186,-0.81149 -0.8114,-0.81148 -0.8114,-2.31853 v -0.88877 q 0.6569,-1.77754 1.2365,-3.74829 0.6183,-1.97075 1.1206,-3.98015 0.5024,-2.04803 0.8888,-4.01878 0.4251,-2.0094 0.7728,-3.78694 1.5457,-8.96498 2.2799,-17.92997 0.7342,-9.00363 0.6569,-18.16183 0.3092,-1.1979 1.198,-1.93211 0.8887,-0.77284 2.1639,-0.77284 0.8501,0 1.5071,0.46371 0.6569,0.4637 1.1979,1.12062 l 11.4381,15.65008 2.9368,4.59842 17.9686,-20.94406 q 0.6955,-0.77284 1.2365,-1.04334 0.541,-0.27049 1.4684,-0.27049 0.541,0 1.1207,0.15457 0.6182,0.15456 1.0819,0.4637 0.5024,0.2705 0.8115,0.77285 0.3478,0.4637 0.3478,1.08198 v 11.3608 l -1.3138,33.92783 q -0.039,0.541 -0.077,1.66162 0,1.08198 -0.1159,2.39581 -0.077,1.31384 -0.3478,2.7436 -0.2319,1.39112 -0.7342,2.55038 -0.5024,1.12063 -1.3139,1.85483 -0.7728,0.7342 -1.9321,0.7342 -0.3864,0 -0.9274,-0.15457 -0.541,-0.15457 -1.0433,-0.38642 -0.4637,-0.2705 -0.8115,-0.65692 -0.3478,-0.38642 -0.3478,-0.85013 v -2.4731 z"
         style="font-size:79.13919067px;line-height:1.25;text-align:end;text-anchor:end;fill:#d40000;stroke:#d40000;stroke-width:3.34143257;stroke-miterlimit:4;stroke-dasharray:none;stroke-opacity:1"
         id="path2907"
         inkscape:connector-curvature="0" />
      <path
         d="m 4048.1731,659.05247 q 0,-2.78224 0.2318,-5.56448 0.2319,-2.78224 0.5024,-5.56447 0.2705,-2.78224 0.5023,-5.56448 0.2319,-2.78223 0.2319,-5.56447 h -25.3879 q -0.1546,6.02818 -1.2366,12.095 -1.082,6.02818 -2.8209,11.90179 -0.1545,0.54099 -0.4637,1.08199 -0.3091,0.50234 -0.7342,0.96605 -0.425,0.42506 -0.9274,0.69556 -0.5023,0.27049 -1.0047,0.27049 -0.6569,0 -1.1979,-0.34778 -0.541,-0.38642 -0.9274,-0.92741 -0.3864,-0.57963 -0.6183,-1.23655 -0.1932,-0.69556 -0.1932,-1.35247 v -0.88877 q 0.3864,-1.58433 0.9274,-3.4778 0.541,-1.93211 1.0434,-3.9415 0.5023,-2.0094 0.8887,-3.94151 0.4251,-1.9321 0.5797,-3.55508 l 1.7389,-20.01665 q 0.1932,-2.27989 1.082,-4.55977 0.8887,-2.27989 2.2798,-4.36657 1.4298,-2.08668 3.246,-3.90286 1.8548,-1.85483 3.9415,-3.2073 2.1253,-1.35248 4.3666,-2.12532 2.2798,-0.77285 4.5597,-0.77285 4.0575,0 6.8783,1.42976 2.8596,1.42976 4.753,3.82558 1.9321,2.35717 3.0141,5.48719 1.082,3.13002 1.623,6.56917 0.5796,3.43916 0.6956,6.95559 0.1545,3.4778 0.1545,6.56918 v 5.10076 q -0.039,0.7342 -0.1545,2.31853 -0.116,1.54569 -0.2705,3.51644 -0.1546,1.93211 -0.3865,4.09607 -0.1932,2.16397 -0.3864,4.13472 -0.1546,1.93211 -0.3091,3.51644 -0.1546,1.54568 -0.1932,2.31853 -0.2319,1.04334 -1.082,1.81618 -0.8115,0.77284 -1.9321,0.77284 -1.0434,0 -1.8935,-0.57963 -0.8115,-0.61827 -1.1206,-1.58433 z m -23.9195,-29.63856 q 0,0.11593 1.082,0.19321 1.0819,0.0386 2.7435,0.0773 1.6617,0.0386 3.6324,0.0773 1.9708,0 3.7869,0 1.8162,0 3.2073,0.0386 1.3912,0 1.8549,0 1.5457,0.0386 3.13,0.0386 1.5843,-0.0386 2.8595,-0.11593 1.2752,-0.0773 2.048,-0.19321 0.8115,-0.11593 0.8115,-0.30914 -0.1932,-3.43915 -0.5023,-6.60781 -0.3092,-3.16866 -1.2752,-5.56448 -0.9661,-2.43445 -2.8595,-3.86422 -1.8935,-1.4684 -5.2554,-1.4684 -2.3185,0 -4.3665,0.77285 -2.0481,0.77284 -3.7483,2.12532 -1.6616,1.31383 -3.0141,3.09137 -1.3138,1.77754 -2.2413,3.74829 -0.9274,1.97075 -1.4297,4.01879 -0.4637,2.04803 -0.4637,3.9415 z"
         style="font-size:79.13919067px;line-height:1.25;text-align:end;text-anchor:end;fill:#d40000;stroke:#d40000;stroke-width:3.34143257;stroke-miterlimit:4;stroke-dasharray:none;stroke-opacity:1"
         id="path2909"
         inkscape:connector-curvature="0" />
      <path
         d="m 4061.7365,631.92565 q 0,-6.49188 1.9707,-11.32216 2.0094,-4.83027 5.4872,-8.07621 3.4778,-3.28459 8.2308,-5.06213 4.753,-1.81618 10.2788,-2.27989 1.1207,-0.11592 3.0141,0 1.9321,0.11593 4.1347,0.46371 2.2413,0.34778 4.5212,0.96605 2.3185,0.61828 4.1733,1.54569 1.8549,0.92741 3.0141,2.24125 1.1979,1.27519 1.1979,2.9368 0,1.46841 -0.8887,2.27989 -0.8502,0.81149 -2.0867,0.81149 h -0.9661 q -2.5117,-0.96606 -4.4052,-1.89347 -1.8548,-0.92741 -3.6323,-1.58433 -1.7389,-0.69556 -3.671,-1.00469 -1.9322,-0.34778 -4.5985,-0.11593 -3.8642,0.34778 -7.4579,1.66161 -3.5551,1.31384 -6.3373,3.74829 -2.7436,2.43446 -4.4052,6.06683 -1.623,3.63236 -1.623,8.6172 0,3.51644 0.1159,6.83967 0.1546,3.28459 0.6183,6.18275 0.5023,2.89816 1.4298,5.29398 0.9274,2.39581 2.5117,4.13471 1.623,1.70026 3.9801,2.66631 2.3572,0.92741 5.6804,0.92741 0.657,0 2.3959,-0.27049 1.7775,-0.30914 4.0187,-0.85013 2.2799,-0.54099 4.753,-1.27519 2.4731,-0.7342 4.5212,-1.58433 2.048,-0.88877 3.3618,-1.85482 1.3525,-0.96606 1.3525,-1.97076 v -11.47672 q -0.4637,-0.0386 -1.6616,-0.15457 -1.1979,-0.15457 -2.5117,-0.30914 -1.3139,-0.15457 -2.5118,-0.2705 -1.1592,-0.15456 -1.623,-0.19321 -0.8501,-0.11592 -1.9707,-0.30913 -1.082,-0.23186 -2.0867,-0.65692 -0.966,-0.42507 -1.6616,-1.19791 -0.6569,-0.81148 -0.6569,-2.08668 0,-0.61827 0.1932,-1.1979 0.2318,-0.61828 0.6183,-1.08199 0.3864,-0.4637 0.8887,-0.7342 0.541,-0.30913 1.1593,-0.30913 h 0.2319 q 0.2318,0.0386 0.8501,0.19321 0.6183,0.11592 1.3138,0.27049 0.6956,0.15457 1.3139,0.30914 0.6182,0.11593 0.8501,0.15457 l 10.7425,0.92741 q 0.3091,0.0386 0.7342,0.23185 0.4251,0.19321 0.8115,0.50235 0.3864,0.30914 0.6569,0.7342 0.2705,0.38642 0.2705,0.81149 v 25.50384 q 0,0.50235 -0.3091,0.92741 -0.3092,0.42507 -0.7342,0.7342 -0.4251,0.2705 -0.9274,0.46371 -0.4637,0.15457 -0.8115,0.15457 -0.6569,0 -1.1593,-0.23185 -0.5023,-0.2705 -0.8888,-0.65692 -0.3477,-0.42507 -0.6182,-0.96606 -0.2705,-0.54099 -0.5024,-1.12062 -1.9707,1.27519 -4.5984,2.31853 -2.589,1.0047 -5.3713,1.7389 -2.7822,0.69556 -5.5258,1.04334 -2.7436,0.38642 -5.0235,0.38642 -4.212,0 -7.342,-1.19791 -3.13,-1.1979 -5.3713,-3.36187 -2.2412,-2.16396 -3.7096,-5.17805 -1.4298,-3.01409 -2.2799,-6.64646 -0.8115,-3.63236 -1.1593,-7.76707 -0.3091,-4.13472 -0.3091,-8.53993 z"
         style="font-size:79.13919067px;line-height:1.25;text-align:end;text-anchor:end;fill:#d40000;stroke:#d40000;stroke-width:3.34143257;stroke-miterlimit:4;stroke-dasharray:none;stroke-opacity:1"
         id="path2911"
         inkscape:connector-curvature="0" />
      <path
         d="m 4120.2794,662.87804 q -1.0047,-0.30914 -1.3911,-1.15926 -0.3478,-0.88877 -0.3478,-1.89347 0,-1.08198 0.4251,-2.4731 0.4637,-1.39112 1.0433,-2.82088 0.6183,-1.42976 1.1979,-2.70495 0.5796,-1.27519 0.8115,-2.08668 1.3525,-4.40521 2.3185,-9.08091 0.9661,-4.67571 1.5457,-9.4287 0.6183,-4.79163 0.8888,-9.54461 0.2705,-4.79164 0.2705,-9.39006 -1.3525,0 -2.6663,0.2705 -1.2752,0.23185 -2.5891,0.54099 -1.2751,0.30914 -2.5503,0.57963 -1.2752,0.23186 -2.5891,0.23186 -1.4297,0 -2.3185,-0.81149 -0.8888,-0.85013 -0.8888,-2.24125 0,-1.4684 1.3912,-2.43445 1.4297,-1.0047 3.6323,-1.62298 2.2413,-0.61827 4.9076,-0.92741 2.7049,-0.30914 5.2167,-0.42506 2.5504,-0.11593 4.5984,-0.11593 2.0867,0 3.0914,0 7.3806,0 12.1723,0.96606 4.7916,0.96605 7.5738,2.66631 2.7823,1.70025 3.8642,4.05743 1.1207,2.31853 1.1207,5.06212 0,2.31853 -1.1593,3.86422 -1.1593,1.54569 -3.0141,2.62767 -1.8162,1.04334 -4.1347,1.77754 -2.2799,0.69556 -4.5984,1.27519 -2.2799,0.57963 -4.328,1.19791 -2.048,0.57963 -3.4005,1.4684 2.1254,0.77285 4.4439,1.7389 2.3572,0.96605 4.6371,2.16396 2.2798,1.15927 4.3279,2.58903 2.0867,1.42976 3.6323,3.24594 1.5844,1.77754 2.5118,3.9415 0.9274,2.16397 0.9274,4.75299 0,3.43916 -1.4298,5.87362 -1.3911,2.43445 -3.7483,4.09607 -2.3185,1.62297 -5.3326,2.58902 -2.9754,0.96606 -6.1441,1.46841 -3.13,0.50234 -6.1827,0.65691 -3.0528,0.11593 -5.4872,0.11593 -1.7003,0 -3.0141,-0.0386 -1.3139,-0.0386 -2.6663,-0.11593 -1.3139,-0.11593 -2.8982,-0.23185 -1.5457,-0.11593 -3.671,-0.2705 z m 6.5692,-5.91225 q 0.1545,0 0.7342,0.0386 0.6182,0 1.3525,0.0386 0.7342,0 1.4297,0.0386 0.6956,0 1.082,0 1.082,0 3.2073,0 2.164,-0.0386 4.7143,-0.23185 2.5504,-0.23185 5.2167,-0.69556 2.705,-0.4637 4.869,-1.39112 2.2026,-0.92741 3.5937,-2.39581 1.4297,-1.4684 1.4297,-3.63237 0,-1.85482 -0.8115,-3.51644 -0.7728,-1.70025 -2.0866,-3.13001 -1.3139,-1.46841 -3.0141,-2.66631 -1.7003,-1.23655 -3.4778,-2.20261 -1.7776,-1.00469 -3.5165,-1.70025 -1.7002,-0.7342 -3.0913,-1.19791 -0.7729,-0.19321 -1.8935,-0.46371 -1.1206,-0.30913 -2.164,-0.57963 -1.0433,-0.2705 -1.8161,-0.42506 -0.7342,-0.15457 -0.7342,-0.11593 l -0.1933,0.42506 q -0.4637,2.7436 -1.0433,5.79633 -0.541,3.01409 -1.2365,6.10547 -0.6956,3.09137 -1.5457,6.10546 -0.8502,2.97545 -1.8935,5.56448 z m 6.801,-45.44321 q -0.039,0.50235 -0.1159,1.70026 -0.039,1.15926 -0.1546,2.66631 -0.077,1.4684 -0.1932,3.13001 -0.077,1.62298 -0.1932,3.13002 -0.077,1.4684 -0.1546,2.66631 -0.039,1.15927 -0.077,1.66162 v 0.23185 0.19321 q 0.3864,0 1.5844,-0.23185 1.2365,-0.2705 2.8981,-0.69556 1.7003,-0.46371 3.7097,-1.04334 2.0094,-0.61828 4.0574,-1.35248 2.0867,-0.7342 3.9801,-1.54569 1.9322,-0.85012 3.4392,-1.70025 1.507,-0.88877 2.3958,-1.77754 0.9274,-0.88877 0.9661,-1.7389 0.039,-1.4684 -0.7342,-2.4731 -0.7342,-1.04334 -2.0481,-1.70026 -1.3138,-0.65691 -3.0141,-0.96605 -1.6616,-0.34778 -3.4391,-0.46371 -1.7776,-0.15457 -3.5165,-0.11592 -1.7389,0.0386 -3.1686,0.15457 -1.4298,0.0773 -2.3572,0.19321 -0.9274,0.0773 -1.1206,0.0773 z"
         style="font-size:79.13919067px;line-height:1.25;text-align:end;text-anchor:end;fill:#d40000;stroke:#d40000;stroke-width:3.34143257;stroke-miterlimit:4;stroke-dasharray:none;stroke-opacity:1"
         id="path2913"
         inkscape:connector-curvature="0" />
      <path
         d="m 4200.7324,659.05247 q 0,-2.78224 0.2319,-5.56448 0.2318,-2.78224 0.5023,-5.56447 0.2705,-2.78224 0.5024,-5.56448 0.2318,-2.78223 0.2318,-5.56447 h -25.3879 q -0.1546,6.02818 -1.2365,12.095 -1.082,6.02818 -2.8209,11.90179 -0.1546,0.54099 -0.4637,1.08199 -0.3092,0.50234 -0.7342,0.96605 -0.4251,0.42506 -0.9274,0.69556 -0.5024,0.27049 -1.0047,0.27049 -0.657,0 -1.1979,-0.34778 -0.541,-0.38642 -0.9275,-0.92741 -0.3864,-0.57963 -0.6182,-1.23655 -0.1932,-0.69556 -0.1932,-1.35247 v -0.88877 q 0.3864,-1.58433 0.9274,-3.4778 0.541,-1.93211 1.0433,-3.9415 0.5024,-2.0094 0.8888,-3.94151 0.425,-1.9321 0.5796,-3.55508 l 1.7389,-20.01665 q 0.1932,-2.27989 1.082,-4.55977 0.8888,-2.27989 2.2799,-4.36657 1.4297,-2.08668 3.2459,-3.90286 1.8548,-1.85483 3.9415,-3.2073 2.1253,-1.35248 4.3666,-2.12532 2.2799,-0.77285 4.5598,-0.77285 4.0574,0 6.8783,1.42976 2.8595,1.42976 4.753,3.82558 1.9321,2.35717 3.0141,5.48719 1.0819,3.13002 1.6229,6.56917 0.5797,3.43916 0.6956,6.95559 0.1546,3.4778 0.1546,6.56918 v 5.10076 q -0.039,0.7342 -0.1546,2.31853 -0.1159,1.54569 -0.2705,3.51644 -0.1546,1.93211 -0.3864,4.09607 -0.1932,2.16397 -0.3865,4.13472 -0.1545,1.93211 -0.3091,3.51644 -0.1546,1.54568 -0.1932,2.31853 -0.2319,1.04334 -1.082,1.81618 -0.8115,0.77284 -1.9321,0.77284 -1.0433,0 -1.8935,-0.57963 -0.8114,-0.61827 -1.1206,-1.58433 z m -23.9195,-29.63856 q 0,0.11593 1.082,0.19321 1.082,0.0386 2.7436,0.0773 1.6616,0.0386 3.6323,0.0773 1.9708,0 3.787,0 1.8162,0 3.2073,0.0386 1.3911,0 1.8548,0 1.5457,0.0386 3.13,0.0386 1.5844,-0.0386 2.8595,-0.11593 1.2752,-0.0773 2.0481,-0.19321 0.8115,-0.11593 0.8115,-0.30914 -0.1932,-3.43915 -0.5024,-6.60781 -0.3091,-3.16866 -1.2752,-5.56448 -0.966,-2.43445 -2.8595,-3.86422 -1.8935,-1.4684 -5.2553,-1.4684 -2.3186,0 -4.3666,0.77285 -2.048,0.77284 -3.7483,2.12532 -1.6616,1.31383 -3.0141,3.09137 -1.3138,1.77754 -2.2412,3.74829 -0.9274,1.97075 -1.4298,4.01879 -0.4637,2.04803 -0.4637,3.9415 z"
         style="font-size:79.13919067px;line-height:1.25;text-align:end;text-anchor:end;fill:#d40000;stroke:#d40000;stroke-width:3.34143257;stroke-miterlimit:4;stroke-dasharray:none;stroke-opacity:1"
         id="path2915"
         inkscape:connector-curvature="0" />
      <path
         d="m 4221.5219,662.87804 q -1.0047,-0.30914 -1.3911,-1.15926 -0.3478,-0.88877 -0.3478,-1.89347 0,-1.08198 0.4251,-2.4731 0.4637,-1.39112 1.0433,-2.82088 0.6183,-1.42976 1.1979,-2.70495 0.5797,-1.27519 0.8115,-2.08668 1.3525,-4.40521 2.3186,-9.08091 0.966,-4.67571 1.5456,-9.4287 0.6183,-4.79163 0.8888,-9.54461 0.2705,-4.79164 0.2705,-9.39006 -1.3525,0 -2.6663,0.2705 -1.2752,0.23185 -2.589,0.54099 -1.2752,0.30914 -2.5504,0.57963 -1.2752,0.23186 -2.589,0.23186 -1.4298,0 -2.3186,-0.81149 -0.8887,-0.85013 -0.8887,-2.24125 0,-1.4684 1.3911,-2.43445 1.4297,-1.0047 3.6323,-1.62298 2.2413,-0.61827 4.9076,-0.92741 2.705,-0.30914 5.2167,-0.42506 2.5504,-0.11593 4.5984,-0.11593 2.0867,0 3.0914,0 7.3806,0 12.1723,0.96606 4.7916,0.96605 7.5738,2.66631 2.7823,1.70025 3.8643,4.05743 1.1206,2.31853 1.1206,5.06212 0,2.31853 -1.1593,3.86422 -1.1592,1.54569 -3.0141,2.62767 -1.8162,1.04334 -4.1347,1.77754 -2.2799,0.69556 -4.5984,1.27519 -2.2799,0.57963 -4.3279,1.19791 -2.0481,0.57963 -3.4005,1.4684 2.1253,0.77285 4.4438,1.7389 2.3572,0.96605 4.6371,2.16396 2.2799,1.15927 4.3279,2.58903 2.0867,1.42976 3.6324,3.24594 1.5843,1.77754 2.5117,3.9415 0.9274,2.16397 0.9274,4.75299 0,3.43916 -1.4297,5.87362 -1.3912,2.43445 -3.7483,4.09607 -2.3186,1.62297 -5.3327,2.58902 -2.9754,0.96606 -6.1441,1.46841 -3.13,0.50234 -6.1827,0.65691 -3.0527,0.11593 -5.4872,0.11593 -1.7003,0 -3.0141,-0.0386 -1.3138,-0.0386 -2.6663,-0.11593 -1.3138,-0.11593 -2.8982,-0.23185 -1.5457,-0.11593 -3.671,-0.2705 z m 6.5692,-5.91225 q 0.1546,0 0.7342,0.0386 0.6183,0 1.3525,0.0386 0.7342,0 1.4297,0.0386 0.6956,0 1.082,0 1.082,0 3.2073,0 2.164,-0.0386 4.7144,-0.23185 2.5503,-0.23185 5.2167,-0.69556 2.7049,-0.4637 4.8689,-1.39112 2.2026,-0.92741 3.5937,-2.39581 1.4298,-1.4684 1.4298,-3.63237 0,-1.85482 -0.8115,-3.51644 -0.7729,-1.70025 -2.0867,-3.13001 -1.3138,-1.46841 -3.0141,-2.66631 -1.7003,-1.23655 -3.4778,-2.20261 -1.7775,-1.00469 -3.5164,-1.70025 -1.7003,-0.7342 -3.0914,-1.19791 -0.7729,-0.19321 -1.8935,-0.46371 -1.1206,-0.30913 -2.1639,-0.57963 -1.0434,-0.2705 -1.8162,-0.42506 -0.7342,-0.15457 -0.7342,-0.11593 l -0.1932,0.42506 q -0.4637,2.7436 -1.0434,5.79633 -0.541,3.01409 -1.2365,6.10547 -0.6956,3.09137 -1.5457,6.10546 -0.8501,2.97545 -1.8935,5.56448 z m 6.801,-45.44321 q -0.039,0.50235 -0.1159,1.70026 -0.039,1.15926 -0.1546,2.66631 -0.077,1.4684 -0.1932,3.13001 -0.077,1.62298 -0.1932,3.13002 -0.077,1.4684 -0.1546,2.66631 -0.039,1.15927 -0.077,1.66162 v 0.23185 0.19321 q 0.3864,0 1.5843,-0.23185 1.2365,-0.2705 2.8981,-0.69556 1.7003,-0.46371 3.7097,-1.04334 2.0094,-0.61828 4.0574,-1.35248 2.0867,-0.7342 3.9802,-1.54569 1.9321,-0.85012 3.4391,-1.70025 1.5071,-0.88877 2.3958,-1.77754 0.9274,-0.88877 0.9661,-1.7389 0.039,-1.4684 -0.7342,-2.4731 -0.7342,-1.04334 -2.048,-1.70026 -1.3139,-0.65691 -3.0141,-0.96605 -1.6616,-0.34778 -3.4392,-0.46371 -1.7775,-0.15457 -3.5164,-0.11592 -1.7389,0.0386 -3.1687,0.15457 -1.4297,0.0773 -2.3572,0.19321 -0.9274,0.0773 -1.1206,0.0773 z"
         style="font-size:79.13919067px;line-height:1.25;text-align:end;text-anchor:end;fill:#d40000;stroke:#d40000;stroke-width:3.34143257;stroke-miterlimit:4;stroke-dasharray:none;stroke-opacity:1"
         id="path2917"
         inkscape:connector-curvature="0" />
      <path
         d="m 4301.975,659.05247 q 0,-2.78224 0.2318,-5.56448 0.2319,-2.78224 0.5024,-5.56447 0.2705,-2.78224 0.5023,-5.56448 0.2319,-2.78223 0.2319,-5.56447 h -25.388 q -0.1545,6.02818 -1.2365,12.095 -1.082,6.02818 -2.8209,11.90179 -0.1546,0.54099 -0.4637,1.08199 -0.3091,0.50234 -0.7342,0.96605 -0.4251,0.42506 -0.9274,0.69556 -0.5024,0.27049 -1.0047,0.27049 -0.6569,0 -1.1979,-0.34778 -0.541,-0.38642 -0.9274,-0.92741 -0.3864,-0.57963 -0.6183,-1.23655 -0.1932,-0.69556 -0.1932,-1.35247 v -0.88877 q 0.3864,-1.58433 0.9274,-3.4778 0.541,-1.93211 1.0433,-3.9415 0.5024,-2.0094 0.8888,-3.94151 0.4251,-1.9321 0.5796,-3.55508 l 1.7389,-20.01665 q 0.1933,-2.27989 1.082,-4.55977 0.8888,-2.27989 2.2799,-4.36657 1.4298,-2.08668 3.246,-3.90286 1.8548,-1.85483 3.9415,-3.2073 2.1253,-1.35248 4.3665,-2.12532 2.2799,-0.77285 4.5598,-0.77285 4.0574,0 6.8783,1.42976 2.8595,1.42976 4.753,3.82558 1.9321,2.35717 3.0141,5.48719 1.082,3.13002 1.623,6.56917 0.5796,3.43916 0.6955,6.95559 0.1546,3.4778 0.1546,6.56918 v 5.10076 q -0.039,0.7342 -0.1546,2.31853 -0.1159,1.54569 -0.2705,3.51644 -0.1545,1.93211 -0.3864,4.09607 -0.1932,2.16397 -0.3864,4.13472 -0.1546,1.93211 -0.3092,3.51644 -0.1545,1.54568 -0.1932,2.31853 -0.2318,1.04334 -1.0819,1.81618 -0.8115,0.77284 -1.9322,0.77284 -1.0433,0 -1.8934,-0.57963 -0.8115,-0.61827 -1.1206,-1.58433 z m -23.9196,-29.63856 q 0,0.11593 1.082,0.19321 1.082,0.0386 2.7436,0.0773 1.6616,0.0386 3.6324,0.0773 1.9707,0 3.7869,0 1.8162,0 3.2073,0.0386 1.3911,0 1.8548,0 1.5457,0.0386 3.1301,0.0386 1.5843,-0.0386 2.8595,-0.11593 1.2752,-0.0773 2.048,-0.19321 0.8115,-0.11593 0.8115,-0.30914 -0.1932,-3.43915 -0.5023,-6.60781 -0.3092,-3.16866 -1.2752,-5.56448 -0.9661,-2.43445 -2.8596,-3.86422 -1.8934,-1.4684 -5.2553,-1.4684 -2.3185,0 -4.3666,0.77285 -2.048,0.77284 -3.7483,2.12532 -1.6616,1.31383 -3.014,3.09137 -1.3139,1.77754 -2.2413,3.74829 -0.9274,1.97075 -1.4297,4.01879 -0.4638,2.04803 -0.4638,3.9415 z"
         style="font-size:79.13919067px;line-height:1.25;text-align:end;text-anchor:end;fill:#d40000;stroke:#d40000;stroke-width:3.34143257;stroke-miterlimit:4;stroke-dasharray:none;stroke-opacity:1"
         id="path2919"
         inkscape:connector-curvature="0" />
      <path
         d="m 4335.7096,661.33235 q 0.1159,-2.74359 0.077,-5.64175 0,-2.93681 -0.1159,-5.87362 -0.1159,-2.97544 -0.3478,-5.87361 -0.2318,-2.9368 -0.5023,-5.6804 0,-0.42506 -0.1546,-0.85013 -0.1546,-0.42506 -0.5023,-0.65691 l -10.6653,-10.04697 q -1.7002,-1.58433 -3.4778,-3.82558 -1.7775,-2.24124 -3.2459,-4.79163 -1.4298,-2.55038 -2.3958,-5.17805 -0.9274,-2.66631 -0.9274,-5.10077 0,-1.31383 0.8114,-1.97075 0.8502,-0.69556 2.2413,-0.69556 1.0433,0 1.8935,0.77284 0.8887,0.77285 1.6229,2.0094 0.7729,1.19791 1.3911,2.70495 0.657,1.4684 1.2366,2.93681 0.5796,1.42976 1.082,2.70495 0.541,1.23655 1.0433,1.93211 2.6663,3.43915 5.7963,6.6851 3.1301,3.2073 6.6851,5.75768 1.1979,-1.54569 2.4731,-3.16866 1.3139,-1.66161 2.5118,-3.36187 1.2365,-1.70025 2.3572,-3.43915 1.1206,-1.7389 2.048,-3.55508 0.3864,-0.85013 0.7342,-2.08668 0.3864,-1.23655 0.7728,-2.58903 0.4251,-1.35247 0.9274,-2.70495 0.5024,-1.35248 1.1207,-2.39581 0.6569,-1.08199 1.507,-1.7389 0.8501,-0.69556 2.0094,-0.69556 1.3138,0 2.2413,0.61827 0.9274,0.57964 0.9274,1.97075 0,1.97076 -0.6569,4.212 -0.6183,2.24125 -1.623,4.44385 -1.0047,2.20261 -2.2026,4.212 -1.1979,2.00939 -2.2799,3.51644 l -8.5013,11.78587 -0.2318,0.42506 v 1.85482 q 0,3.98015 0.3091,8.19215 0.3478,4.21199 0.3478,8.19214 0,0.61827 0.077,1.54569 0.077,0.92741 0.077,1.97075 0,1.0047 -0.1159,2.00939 -0.077,1.0047 -0.4637,1.81618 -0.3478,0.81149 -1.0047,1.31384 -0.6569,0.50235 -1.7389,0.50235 -1.082,0 -1.9707,-0.46371 -0.8888,-0.46371 -1.1979,-1.70026 z"
         style="font-size:79.13919067px;line-height:1.25;text-align:end;text-anchor:end;fill:#d40000;stroke:#d40000;stroke-width:3.34143257;stroke-miterlimit:4;stroke-dasharray:none;stroke-opacity:1"
         id="path2921"
         inkscape:connector-curvature="0" />
      <path
         d="m 4391.0065,659.05247 q 0,-2.78224 0.2319,-5.56448 0.2318,-2.78224 0.5023,-5.56447 0.2705,-2.78224 0.5024,-5.56448 0.2318,-2.78223 0.2318,-5.56447 h -25.3879 q -0.1545,6.02818 -1.2365,12.095 -1.082,6.02818 -2.8209,11.90179 -0.1546,0.54099 -0.4637,1.08199 -0.3091,0.50234 -0.7342,0.96605 -0.4251,0.42506 -0.9274,0.69556 -0.5024,0.27049 -1.0047,0.27049 -0.6569,0 -1.1979,-0.34778 -0.541,-0.38642 -0.9274,-0.92741 -0.3865,-0.57963 -0.6183,-1.23655 -0.1932,-0.69556 -0.1932,-1.35247 v -0.88877 q 0.3864,-1.58433 0.9274,-3.4778 0.541,-1.93211 1.0433,-3.9415 0.5024,-2.0094 0.8888,-3.94151 0.4251,-1.9321 0.5796,-3.55508 l 1.7389,-20.01665 q 0.1932,-2.27989 1.082,-4.55977 0.8888,-2.27989 2.2799,-4.36657 1.4298,-2.08668 3.2459,-3.90286 1.8549,-1.85483 3.9415,-3.2073 2.1254,-1.35248 4.3666,-2.12532 2.2799,-0.77285 4.5598,-0.77285 4.0574,0 6.8783,1.42976 2.8595,1.42976 4.753,3.82558 1.9321,2.35717 3.0141,5.48719 1.082,3.13002 1.623,6.56917 0.5796,3.43916 0.6955,6.95559 0.1546,3.4778 0.1546,6.56918 v 5.10076 q -0.039,0.7342 -0.1546,2.31853 -0.1159,1.54569 -0.2705,3.51644 -0.1546,1.93211 -0.3864,4.09607 -0.1932,2.16397 -0.3864,4.13472 -0.1546,1.93211 -0.3092,3.51644 -0.1545,1.54568 -0.1932,2.31853 -0.2318,1.04334 -1.082,1.81618 -0.8114,0.77284 -1.9321,0.77284 -1.0433,0 -1.8934,-0.57963 -0.8115,-0.61827 -1.1207,-1.58433 z m -23.9195,-29.63856 q 0,0.11593 1.082,0.19321 1.082,0.0386 2.7436,0.0773 1.6616,0.0386 3.6324,0.0773 1.9707,0 3.7869,0 1.8162,0 3.2073,0.0386 1.3911,0 1.8548,0 1.5457,0.0386 3.13,0.0386 1.5844,-0.0386 2.8596,-0.11593 1.2752,-0.0773 2.048,-0.19321 0.8115,-0.11593 0.8115,-0.30914 -0.1932,-3.43915 -0.5024,-6.60781 -0.3091,-3.16866 -1.2751,-5.56448 -0.9661,-2.43445 -2.8596,-3.86422 -1.8934,-1.4684 -5.2553,-1.4684 -2.3185,0 -4.3666,0.77285 -2.048,0.77284 -3.7483,2.12532 -1.6616,1.31383 -3.0141,3.09137 -1.3138,1.77754 -2.2412,3.74829 -0.9274,1.97075 -1.4298,4.01879 -0.4637,2.04803 -0.4637,3.9415 z"
         style="font-size:79.13919067px;line-height:1.25;text-align:end;text-anchor:end;fill:#d40000;stroke:#d40000;stroke-width:3.34143257;stroke-miterlimit:4;stroke-dasharray:none;stroke-opacity:1"
         id="path2923"
         inkscape:connector-curvature="0" />
      <path
         d="m 4407.7,659.3616 q 2.7049,-5.33262 4.4825,-11.20623 1.7775,-5.91225 2.8208,-12.01772 1.082,-6.14411 1.5071,-12.32685 0.425,-6.18275 0.425,-12.09501 -1.3911,0 -2.6663,0.30914 -1.2752,0.30914 -2.5504,0.69556 -1.2751,0.38642 -2.5503,0.69556 -1.2752,0.30914 -2.5891,0.30914 -1.4684,0 -2.2798,-0.73421 -0.8115,-0.77284 -0.8115,-2.27988 0,-1.54569 1.0047,-2.55039 1.0433,-1.04334 2.6663,-1.62297 1.6616,-0.61828 3.671,-0.88877 2.048,-0.30914 4.0188,-0.38642 2.0094,-0.0773 3.7483,-0.0386 1.7775,0 2.8595,0 4.0961,0 8.2308,0.92741 4.1733,0.92741 7.9989,2.74359 3.8642,1.77754 7.2261,4.36657 3.3619,2.55038 5.835,5.87361 2.5117,3.28459 3.9415,7.26473 1.4297,3.9415 1.4297,8.46264 0,5.40991 -1.7775,9.66055 -1.7389,4.21199 -4.8303,7.41929 -3.0527,3.16866 -7.2261,5.37127 -4.1733,2.16396 -9.0036,3.51644 -4.8303,1.35247 -10.1243,1.89346 -5.2553,0.54099 -10.5493,0.42507 -0.541,0.19321 -0.9274,0.23185 -0.3478,0 -0.8501,0 -1.4298,0 -2.2799,-0.85013 -0.8501,-0.85013 -0.8501,-2.27989 z m 13.5634,-21.05999 q -0.8502,4.59842 -2.0867,9.08092 -1.1979,4.44385 -2.8209,8.8877 h 0.6956 q 4.1733,0.23185 8.1921,-0.19321 4.0574,-0.42507 7.6898,-1.54569 3.6324,-1.12062 6.6851,-2.89816 3.0527,-1.81619 5.294,-4.28929 2.2412,-2.4731 3.4778,-5.60311 1.2752,-3.16866 1.2752,-6.99424 0,-3.09137 -1.0434,-5.98954 -1.0433,-2.89816 -2.8595,-5.44854 -1.8162,-2.58903 -4.2506,-4.71435 -2.4345,-2.12532 -5.2167,-3.63236 -2.7436,-1.54569 -5.7191,-2.39582 -2.9754,-0.85013 -5.8736,-0.85013 h -0.7728 l -0.2319,0.23186 q 0,3.01409 -0.2318,6.45324 -0.1932,3.40051 -0.541,6.87831 -0.3478,3.43915 -0.7729,6.80102 -0.425,3.32323 -0.8887,6.22139 z"
         style="font-size:79.13919067px;line-height:1.25;text-align:end;text-anchor:end;fill:#d40000;stroke:#d40000;stroke-width:3.34143257;stroke-miterlimit:4;stroke-dasharray:none;stroke-opacity:1"
         id="path2925"
         inkscape:connector-curvature="0" />
      <path
         d="m 4499.9002,636.52407 q -0.077,0.46371 -0.2319,1.42976 -0.1159,0.92742 -0.3091,2.12532 -0.1932,1.19791 -0.4251,2.51175 -0.2318,1.31383 -0.425,2.51174 -0.1933,1.15926 -0.3865,2.12532 -0.1545,0.92741 -0.2318,1.35247 -0.1546,0.65692 -0.3478,2.0094 -0.1546,1.35247 -0.4637,2.97545 -0.2705,1.62297 -0.7342,3.36187 -0.4251,1.73889 -1.1206,3.16866 -0.6569,1.39111 -1.623,2.31853 -0.9661,0.88877 -2.2799,0.88877 -1.4684,0 -2.2799,-0.92742 -0.8115,-0.96605 -0.8115,-2.35717 v -0.65692 l 1.9708,-6.37596 2.6663,-12.98377 q 0.039,-0.30914 0.1546,-1.42976 0.1545,-1.12062 0.3091,-2.70495 0.1546,-1.62298 0.3478,-3.4778 0.1932,-1.89347 0.3478,-3.70965 0.1932,-1.85482 0.3477,-3.40051 0.1546,-1.58433 0.2319,-2.58903 0.039,-0.54099 0.077,-1.62297 0.039,-1.08198 0.077,-2.43446 0.039,-1.35247 0.077,-2.85952 0.077,-1.54569 0.1159,-2.89816 0.039,-1.35248 0.039,-2.43446 0.039,-1.08198 0.039,-1.62297 0.2705,-1.12063 1.0047,-1.85483 0.7342,-0.77284 1.9707,-0.77284 0.9661,0 1.623,0.34778 0.6569,0.30914 1.0433,0.88877 0.4251,0.57963 0.5797,1.35248 0.1545,0.7342 0.1545,1.58433 0,1.66161 -0.077,3.78693 -0.039,2.12532 -0.1159,4.17336 -0.039,2.00939 -0.1159,3.70964 -0.077,1.66162 -0.1159,2.39582 5.8736,-4.90756 12.1336,-9.11956 6.2987,-4.25064 12.9065,-7.99893 0.5796,-0.50235 1.0433,-0.57963 0.5024,-0.0773 1.2752,-0.0773 1.3911,0 2.2799,0.85012 0.8888,0.81149 0.8888,2.20261 0,0.57963 -0.2705,1.35247 -0.2319,0.73421 -0.8115,1.08199 l -15.6114,9.85375 -10.3175,7.92165 q -0.4251,0.23185 -0.4251,0.54099 v 0.11593 q 2.1254,1.58433 4.6371,3.59372 2.5504,1.97075 5.0621,4.28928 2.5504,2.31853 4.9076,4.90756 2.3958,2.58903 4.212,5.40991 1.8162,2.78223 2.8981,5.75768 1.1207,2.97545 1.1207,6.02818 0,1.39112 -1.0047,2.20261 -0.9661,0.77284 -2.2026,0.77284 -0.4251,0 -1.2366,-1.0047 -0.8115,-1.04334 -1.9707,-2.74359 -1.1593,-1.70026 -2.5891,-3.90286 -1.4297,-2.24125 -3.0913,-4.63706 -1.623,-2.43446 -3.4392,-4.83028 -1.8162,-2.43446 -3.7096,-4.52113 -1.8549,-2.08668 -3.787,-3.67101 -1.8934,-1.58433 -3.7869,-2.35717 z"
         style="font-size:79.13919067px;line-height:1.25;text-align:end;text-anchor:end;fill:#d40000;stroke:#d40000;stroke-width:3.34143257;stroke-miterlimit:4;stroke-dasharray:none;stroke-opacity:1"
         id="path2927"
         inkscape:connector-curvature="0" />
      <path
         d="m 4570.3063,659.05247 q 0,-2.78224 0.2318,-5.56448 0.2319,-2.78224 0.5024,-5.56447 0.2705,-2.78224 0.5023,-5.56448 0.2319,-2.78223 0.2319,-5.56447 h -25.388 q -0.1545,6.02818 -1.2365,12.095 -1.082,6.02818 -2.8209,11.90179 -0.1546,0.54099 -0.4637,1.08199 -0.3091,0.50234 -0.7342,0.96605 -0.4251,0.42506 -0.9274,0.69556 -0.5024,0.27049 -1.0047,0.27049 -0.6569,0 -1.1979,-0.34778 -0.541,-0.38642 -0.9274,-0.92741 -0.3864,-0.57963 -0.6183,-1.23655 -0.1932,-0.69556 -0.1932,-1.35247 v -0.88877 q 0.3864,-1.58433 0.9274,-3.4778 0.541,-1.93211 1.0433,-3.9415 0.5024,-2.0094 0.8888,-3.94151 0.4251,-1.9321 0.5796,-3.55508 l 1.7389,-20.01665 q 0.1933,-2.27989 1.082,-4.55977 0.8888,-2.27989 2.2799,-4.36657 1.4298,-2.08668 3.246,-3.90286 1.8548,-1.85483 3.9415,-3.2073 2.1253,-1.35248 4.3665,-2.12532 2.2799,-0.77285 4.5598,-0.77285 4.0574,0 6.8783,1.42976 2.8595,1.42976 4.753,3.82558 1.9321,2.35717 3.0141,5.48719 1.082,3.13002 1.623,6.56917 0.5796,3.43916 0.6955,6.95559 0.1546,3.4778 0.1546,6.56918 v 5.10076 q -0.039,0.7342 -0.1546,2.31853 -0.1159,1.54569 -0.2705,3.51644 -0.1545,1.93211 -0.3864,4.09607 -0.1932,2.16397 -0.3864,4.13472 -0.1546,1.93211 -0.3092,3.51644 -0.1545,1.54568 -0.1932,2.31853 -0.2318,1.04334 -1.0819,1.81618 -0.8115,0.77284 -1.9322,0.77284 -1.0433,0 -1.8934,-0.57963 -0.8115,-0.61827 -1.1206,-1.58433 z m -23.9196,-29.63856 q 0,0.11593 1.082,0.19321 1.082,0.0386 2.7436,0.0773 1.6616,0.0386 3.6324,0.0773 1.9707,0 3.7869,0 1.8162,0 3.2073,0.0386 1.3911,0 1.8548,0 1.5457,0.0386 3.1301,0.0386 1.5843,-0.0386 2.8595,-0.11593 1.2752,-0.0773 2.048,-0.19321 0.8115,-0.11593 0.8115,-0.30914 -0.1932,-3.43915 -0.5023,-6.60781 -0.3092,-3.16866 -1.2752,-5.56448 -0.9661,-2.43445 -2.8596,-3.86422 -1.8934,-1.4684 -5.2553,-1.4684 -2.3185,0 -4.3666,0.77285 -2.048,0.77284 -3.7483,2.12532 -1.6616,1.31383 -3.014,3.09137 -1.3139,1.77754 -2.2413,3.74829 -0.9274,1.97075 -1.4297,4.01879 -0.4638,2.04803 -0.4638,3.9415 z"
         style="font-size:79.13919067px;line-height:1.25;text-align:end;text-anchor:end;fill:#d40000;stroke:#d40000;stroke-width:3.34143257;stroke-miterlimit:4;stroke-dasharray:none;stroke-opacity:1"
         id="path2929"
         inkscape:connector-curvature="0" />
      <path
         d="m 4586.42,657.08171 q 0,-1.31383 0.5024,-2.43445 0.5023,-1.15927 1.3525,-2.0094 0.8501,-0.85012 2.0094,-1.35247 1.1592,-0.50235 2.4731,-0.50235 1.3524,0 2.4731,0.50235 1.1206,0.50235 1.9321,1.39112 0.8115,0.85012 1.2365,2.00939 0.4637,1.12062 0.4637,2.39581 0,1.2752 -0.4637,2.43446 -0.425,1.15927 -1.2365,2.04804 -0.8115,0.85013 -1.9321,1.35247 -1.1207,0.50235 -2.4731,0.50235 -1.3139,0 -2.4731,-0.50235 -1.1593,-0.50234 -2.0094,-1.35247 -0.8502,-0.85013 -1.3525,-2.0094 -0.5024,-1.15926 -0.5024,-2.4731 z m 4.7144,-16.15243 2.5504,-14.95452 1.1979,-20.59629 q 0.077,-1.23655 1.0433,-2.00939 0.9661,-0.81149 2.1253,-0.81149 1.0047,0 1.7003,0.34778 0.6956,0.30914 1.1206,0.88877 0.4251,0.57964 0.6183,1.39112 0.1932,0.77285 0.1932,1.70026 v 1.31383 l -1.1593,18.93467 q 0,0.15457 -0.1159,0.88877 -0.1159,0.69556 -0.2705,1.77754 -0.1546,1.04334 -0.3864,2.31853 -0.2319,1.2752 -0.4251,2.51175 -0.1932,1.23655 -0.3864,2.35717 -0.1932,1.12062 -0.3091,1.85482 -0.1932,0.88877 -0.3864,2.0094 -0.1933,1.08198 -0.6183,2.04803 -0.3864,0.92742 -1.1206,1.58433 -0.7342,0.65692 -1.9708,0.65692 -1.507,0 -2.4731,-0.92741 -0.9274,-0.96606 -0.9274,-2.43446 z"
         style="font-size:79.13919067px;line-height:1.25;text-align:end;text-anchor:end;fill:#d40000;stroke:#d40000;stroke-width:3.34143257;stroke-miterlimit:4;stroke-dasharray:none;stroke-opacity:1"
         id="path2931"
         inkscape:connector-curvature="0" />
      <path
         d="m 4636.8481,657.77727 q 0,-1.15926 0.4251,-2.2026 0.4637,-1.04334 1.1979,-1.81618 0.7728,-0.77285 1.8161,-1.19791 1.0434,-0.46371 2.2027,-0.46371 1.1592,0 2.2026,0.46371 1.0433,0.42506 1.8161,1.19791 0.7729,0.77284 1.1979,1.81618 0.4638,1.04334 0.4638,2.2026 0,1.15927 -0.4638,2.20261 -0.425,1.04334 -1.1979,1.81618 -0.7728,0.7342 -1.8161,1.19791 -1.0434,0.42506 -2.2026,0.42506 -1.1593,0 -2.2027,-0.42506 -1.0433,-0.46371 -1.8161,-1.19791 -0.7342,-0.77284 -1.1979,-1.81618 -0.4251,-1.04334 -0.4251,-2.20261 z"
         style="font-size:79.13919067px;line-height:1.25;text-align:end;text-anchor:end;fill:#d40000;stroke:#d40000;stroke-width:3.34143257;stroke-miterlimit:4;stroke-dasharray:none;stroke-opacity:1"
         id="path2933"
         inkscape:connector-curvature="0" />
      <path
         d="m 4658.4877,657.77727 q 0,-1.15926 0.4251,-2.2026 0.4637,-1.04334 1.1979,-1.81618 0.7729,-0.77285 1.8162,-1.19791 1.0433,-0.46371 2.2026,-0.46371 1.1593,0 2.2026,0.46371 1.0433,0.42506 1.8162,1.19791 0.7728,0.77284 1.1979,1.81618 0.4637,1.04334 0.4637,2.2026 0,1.15927 -0.4637,2.20261 -0.4251,1.04334 -1.1979,1.81618 -0.7729,0.7342 -1.8162,1.19791 -1.0433,0.42506 -2.2026,0.42506 -1.1593,0 -2.2026,-0.42506 -1.0433,-0.46371 -1.8162,-1.19791 -0.7342,-0.77284 -1.1979,-1.81618 -0.4251,-1.04334 -0.4251,-2.20261 z"
         style="font-size:79.13919067px;line-height:1.25;text-align:end;text-anchor:end;fill:#d40000;stroke:#d40000;stroke-width:3.34143257;stroke-miterlimit:4;stroke-dasharray:none;stroke-opacity:1"
         id="path2935"
         inkscape:connector-curvature="0" />
      <path
         d="m 4680.1273,657.77727 q 0,-1.15926 0.4251,-2.2026 0.4637,-1.04334 1.1979,-1.81618 0.7728,-0.77285 1.8162,-1.19791 1.0433,-0.46371 2.2026,-0.46371 1.1593,0 2.2026,0.46371 1.0433,0.42506 1.8162,1.19791 0.7728,0.77284 1.1979,1.81618 0.4637,1.04334 0.4637,2.2026 0,1.15927 -0.4637,2.20261 -0.4251,1.04334 -1.1979,1.81618 -0.7729,0.7342 -1.8162,1.19791 -1.0433,0.42506 -2.2026,0.42506 -1.1593,0 -2.2026,-0.42506 -1.0434,-0.46371 -1.8162,-1.19791 -0.7342,-0.77284 -1.1979,-1.81618 -0.4251,-1.04334 -0.4251,-2.20261 z"
         style="font-size:79.13919067px;line-height:1.25;text-align:end;text-anchor:end;fill:#d40000;stroke:#d40000;stroke-width:3.34143257;stroke-miterlimit:4;stroke-dasharray:none;stroke-opacity:1"
         id="path2937"
         inkscape:connector-curvature="0" />
    </g>
    <text
       transform="matrix(1.0367088,-0.54286285,-0.02673176,2.0753496,137.71231,-926.71154)"
       id="text4443"
       y="1742.2045"
       x="1705.2566"
       style="color:#000000;font-style:normal;font-variant:normal;font-weight:normal;font-stretch:normal;line-height:0%;font-family:Arial;-inkscape-font-specification:Arial;letter-spacing:0.02734961px;word-spacing:0px;clip-rule:nonzero;display:inline;overflow:visible;visibility:visible;opacity:1;isolation:auto;mix-blend-mode:normal;color-interpolation:sRGB;color-interpolation-filters:linearRGB;solid-color:#000000;solid-opacity:1;fill:#ffffff;fill-opacity:1;fill-rule:nonzero;stroke:#ffffff;stroke-width:1.11559534;stroke-linecap:butt;stroke-linejoin:miter;stroke-miterlimit:4;stroke-dasharray:none;stroke-dashoffset:0;stroke-opacity:1;marker:none;filter:url(#filter5561);color-rendering:auto;image-rendering:auto;shape-rendering:auto;text-rendering:auto;enable-background:accumulate"
       xml:space="preserve"><tspan
         style="font-style:normal;font-variant:normal;font-weight:normal;font-stretch:normal;font-size:160.11950684px;line-height:1.25;font-family:Lavi;-inkscape-font-specification:Lavi"
         y="1742.2045"
         x="1705.2566"
         id="tspan4445"
         sodipodi:role="line"><tspan
           style="font-size:45.57711792px"
           id="tspan4455">Break ! </tspan><tspan
           style="font-size:72.51364136px"
           id="tspan4457">!</tspan></tspan></text>
    <text
       xml:space="preserve"
       style="color:#000000;font-style:normal;font-variant:normal;font-weight:normal;font-stretch:normal;line-height:0%;font-family:Arial;-inkscape-font-specification:Arial;letter-spacing:0.02734961px;word-spacing:0px;clip-rule:nonzero;display:inline;overflow:visible;visibility:visible;opacity:1;isolation:auto;mix-blend-mode:normal;color-interpolation:sRGB;color-interpolation-filters:linearRGB;solid-color:#000000;solid-opacity:1;fill:#ffffff;fill-opacity:1;fill-rule:nonzero;stroke:#ffffff;stroke-width:1.11559534;stroke-linecap:butt;stroke-linejoin:miter;stroke-miterlimit:4;stroke-dasharray:none;stroke-dashoffset:0;stroke-opacity:1;marker:none;filter:url(#filter5561);color-rendering:auto;image-rendering:auto;shape-rendering:auto;text-rendering:auto;enable-background:accumulate"
       x="1705.2566"
       y="1742.2045"
       id="text4459"
       transform="matrix(1.2754967,0.26029613,-0.64379413,2.706703,1069.1753,-1958.4847)"><tspan
         sodipodi:role="line"
         id="tspan4461"
         x="1705.2566"
         y="1742.2045"
         style="font-style:normal;font-variant:normal;font-weight:normal;font-stretch:normal;font-size:160.11950684px;line-height:1.25;font-family:Lavi;-inkscape-font-specification:Lavi"><tspan
           id="tspan4465"
           style="font-size:45.57711792px">P<tspan
   style="font-size:39.41930008px"
   id="tspan4477">LOi<tspan
   style="font-size:32.84941483px"
   id="tspan4479">NK </tspan>!</tspan>!</tspan><tspan
           id="tspan4467"
           style="font-size:72.51364136px" /></tspan></text>
    <text
       transform="matrix(0.9799019,-0.52733317,-0.09273463,2.8026154,152.09075,-625.87526)"
       id="text4469"
       y="1742.2045"
       x="1705.2566"
       style="color:#000000;font-style:normal;font-variant:normal;font-weight:normal;font-stretch:normal;line-height:0%;font-family:Arial;-inkscape-font-specification:Arial;letter-spacing:0.02734961px;word-spacing:0px;clip-rule:nonzero;display:inline;overflow:visible;visibility:visible;opacity:1;isolation:auto;mix-blend-mode:normal;color-interpolation:sRGB;color-interpolation-filters:linearRGB;solid-color:#000000;solid-opacity:1;fill:#ffffff;fill-opacity:1;fill-rule:nonzero;stroke:#ffffff;stroke-width:1.11559534;stroke-linecap:butt;stroke-linejoin:miter;stroke-miterlimit:4;stroke-dasharray:none;stroke-dashoffset:0;stroke-opacity:1;marker:none;filter:url(#filter5561);color-rendering:auto;image-rendering:auto;shape-rendering:auto;text-rendering:auto;enable-background:accumulate"
       xml:space="preserve"
       inkscape:transform-center-x="14.686271"
       inkscape:transform-center-y="36.699667"><tspan
         style="font-style:normal;font-variant:normal;font-weight:normal;font-stretch:normal;font-size:160.11950684px;line-height:1.25;font-family:Lavi;-inkscape-font-specification:Lavi"
         y="1742.2045"
         x="1705.2566"
         id="tspan4471"
         sodipodi:role="line"><tspan
           style="font-size:45.57711792px"
           id="tspan4473"><tspan
   style="font-size:40.07628632px"
   id="tspan4481">FAP !</tspan>!</tspan><tspan
           style="font-size:72.51364136px"
           id="tspan4475" /></tspan></text>
    <text
       xml:space="preserve"
       style="font-style:normal;font-variant:normal;font-weight:normal;font-stretch:normal;font-size:9.56086349px;line-height:0%;font-family:Lavi;-inkscape-font-specification:Lavi;text-align:center;letter-spacing:0px;word-spacing:0px;text-anchor:middle;fill:#ff6600;fill-opacity:1;stroke:#ff7f2a;stroke-width:1.51380336;stroke-miterlimit:4;stroke-dasharray:none;"
       x="2174.1572"
       y="2936.1025"
       id="text4246-3-9"
       transform="matrix(0.97756652,0,-0.49902212,1.0229483,0,0)"><tspan
         sodipodi:role="line"
         style="font-size:43.21726227px;line-height:1.25;stroke:#ff7f2a;stroke-width:1.82472885;stroke-miterlimit:4;stroke-dasharray:none;stroke-opacity:1;fill:#ff6600;fill-opacity:1;"
         x="2174.1572"
         y="2936.1025"
         id="tspan4152-3-4"> CARROT!</tspan></text>
    <flowRoot
       xml:space="preserve"
       id="flowRoot2623"
       style="font-style:normal;font-variant:normal;font-weight:normal;font-stretch:normal;font-size:40px;line-height:1.25;font-family:Lavi;-inkscape-font-specification:Lavi;letter-spacing:0px;word-spacing:0px;fill:#d40055;fill-opacity:1;stroke:none;"
       transform="matrix(1.3021605,0,0,1.3021605,340.11871,-123.59232)"><flowRegion
         id="flowRegion2625"
         style="font-style:normal;font-variant:normal;font-weight:normal;font-stretch:normal;font-family:Lavi;-inkscape-font-specification:Lavi;fill:#d40055;"><rect
           id="rect2627"
           width="210.36427"
           height="77.781754"
           x="-90.156113"
           y="204.34686"
           style="font-style:normal;font-variant:normal;font-weight:normal;font-stretch:normal;font-family:Lavi;-inkscape-font-specification:Lavi;fill:#d40055;" /></flowRegion><flowPara
         id="flowPara2629">Pepper!</flowPara></flowRoot>    <text
       transform="matrix(1.0367088,-0.54286285,-0.02673176,2.0753496,105.29491,-834.55988)"
       id="text4443-7"
       y="1742.2045"
       x="1705.2566"
       style="color:#000000;font-style:normal;font-variant:normal;font-weight:normal;font-stretch:normal;line-height:0%;font-family:Arial;-inkscape-font-specification:Arial;letter-spacing:0.02734961px;word-spacing:0px;clip-rule:nonzero;display:inline;overflow:visible;visibility:visible;opacity:1;isolation:auto;mix-blend-mode:normal;color-interpolation:sRGB;color-interpolation-filters:linearRGB;solid-color:#000000;solid-opacity:1;fill:#ffffff;fill-opacity:1;fill-rule:nonzero;stroke:#ffffff;stroke-width:1.11559534;stroke-linecap:butt;stroke-linejoin:miter;stroke-miterlimit:4;stroke-dasharray:none;stroke-dashoffset:0;stroke-opacity:1;marker:none;filter:url(#filter5561-7);color-rendering:auto;image-rendering:auto;shape-rendering:auto;text-rendering:auto;enable-background:accumulate"
       xml:space="preserve"><tspan
         style="font-style:normal;font-variant:normal;font-weight:normal;font-stretch:normal;font-size:160.11950684px;line-height:1.25;font-family:Lavi;-inkscape-font-specification:Lavi"
         y="1742.2045"
         x="1705.2566"
         id="tspan4445-8"
         sodipodi:role="line"><tspan
           style="font-size:45.57711792px"
           id="tspan4455-8">Break ! </tspan><tspan
           style="font-size:72.51364136px"
           id="tspan4457-7">!</tspan></tspan></text>
    <path
       style="opacity:1;fill:#ffffff;fill-opacity:1;stroke:#6c5353;stroke-width:0;stroke-miterlimit:4;stroke-dasharray:none;stroke-opacity:1"
       d="m 195.3033,3054.2567 c 0.0905,-4.9648 6.13276,-4.3933 6.25,0 l 2,74.375 -1.33924,43.1067 1.33924,25.2683 c -0.94231,3.9196 -5.69367,4.691 -6.25,0 l -1.37794,-34.3254 1.37794,-67.1746 z"
       id="rect1029"
       inkscape:connector-curvature="0"
       sodipodi:nodetypes="ccccccccc" />
    <path
       sodipodi:nodetypes="ccccccccc"
       inkscape:connector-curvature="0"
       id="path1032"
       d="m 449.85137,3121.9777 c 0.0905,-2.7231 6.13276,-2.4096 6.25,0 l 2,40.7939 -1.33924,23.6435 1.33924,13.8594 c -0.94231,2.1499 -5.69367,2.573 -6.25,0 l -1.37794,-18.8271 1.37794,-36.8445 z"
       style="opacity:1;fill:#ffffff;fill-opacity:1;stroke:#6c5353;stroke-width:0;stroke-miterlimit:4;stroke-dasharray:none;stroke-opacity:1" />
    <path
       style="opacity:1;fill:#ffffff;fill-opacity:1;stroke:#6c5353;stroke-width:0;stroke-miterlimit:4;stroke-dasharray:none;stroke-opacity:1"
       d="m 452.78887,3220.3012 c 0.0802,-3.1921 5.43586,-2.4074 5.53977,0 l 1.77273,11.2456 -1.18705,6.5177 1.18705,3.8205 c -0.45824,2.3401 -4.50658,3.2127 -5.53977,0 l -1.22136,-5.1899 1.22136,-10.1569 z"
       id="path1034"
       inkscape:connector-curvature="0"
       sodipodi:nodetypes="ccccccccc" />
    <path
       sodipodi:nodetypes="ccccccccc"
       inkscape:connector-curvature="0"
       id="path1036"
       d="m 189.39159,2910.0581 c 0.0802,-3.1921 5.43586,-2.4074 5.53977,0 l 1.77273,11.2456 -1.18705,6.5177 1.18705,3.8205 c -0.45824,2.3401 -4.50658,3.2127 -5.53977,0 l -1.22136,-5.1899 1.22136,-10.1569 z"
       style="opacity:1;fill:#ffffff;fill-opacity:1;stroke:#6c5353;stroke-width:0;stroke-miterlimit:4;stroke-dasharray:none;stroke-opacity:1" />
    <path
       style="opacity:1;fill:#ffffff;fill-opacity:1;stroke:#6c5353;stroke-width:0;stroke-miterlimit:4;stroke-dasharray:none;stroke-opacity:1"
       d="m 193.30697,3004.934 c 0.23502,-3.1844 5.54628,-2.1408 5.53324,0.2688 l 1.22491,11.3184 -1.50195,6.4524 1.00025,3.8736 c -0.57127,2.3152 -4.65718,2.9903 -5.53325,-0.2688 l -0.96806,-5.243 1.71283,-10.0857 z"
       id="path1038"
       inkscape:connector-curvature="0"
       sodipodi:nodetypes="ccccccccc" />
    <path
       style="opacity:1;fill:#ffffff;fill-opacity:1;stroke:#6c5353;stroke-width:0;stroke-miterlimit:4;stroke-dasharray:none;stroke-opacity:1"
       d="m 192.84506,2982.5672 c 0.32669,-5.0713 5.70776,-5.4641 5.53324,0.2689 2.95859,7.3573 -1.15044,1.7106 0.68304,8.811 -0.57126,2.3151 -4.65718,2.9902 -5.53324,-0.2688 -1.04684,-8.3034 1.15609,-0.8985 -0.68304,-8.8111 z"
       id="path1040"
       inkscape:connector-curvature="0"
       sodipodi:nodetypes="ccccc" />
  </g>
</svg>
