<?xml version="1.0" encoding="UTF-8" standalone="no"?>
<!-- Created with Inkscape (http://www.inkscape.org/) -->

<svg
   xmlns:dc="http://purl.org/dc/elements/1.1/"
   xmlns:cc="http://creativecommons.org/ns#"
   xmlns:rdf="http://www.w3.org/1999/02/22-rdf-syntax-ns#"
   xmlns:svg="http://www.w3.org/2000/svg"
   xmlns="http://www.w3.org/2000/svg"
   xmlns:xlink="http://www.w3.org/1999/xlink"
   xmlns:sodipodi="http://sodipodi.sourceforge.net/DTD/sodipodi-0.dtd"
   xmlns:inkscape="http://www.inkscape.org/namespaces/inkscape"
   id="svg2"
   version="1.1"
   inkscape:version="0.92.2 (5c3e80d, 2017-08-06)"
   width="2481"
   height="3503"
   sodipodi:docname="Pepper-and-Carrot_by-David-Revoy_E13P06.svg">
  <metadata
     id="metadata8">
    <rdf:RDF>
      <cc:Work
         rdf:about="">
        <dc:format>image/svg+xml</dc:format>
        <dc:type
           rdf:resource="http://purl.org/dc/dcmitype/StillImage" />
        <dc:title />
      </cc:Work>
    </rdf:RDF>
  </metadata>
  <defs
     id="defs6">
    <linearGradient
       id="linearGradient1154"
       inkscape:collect="always">
      <stop
         id="stop1150"
         offset="0"
         style="stop-color:#ffe6ae;stop-opacity:1" />
      <stop
         id="stop1152"
         offset="1"
         style="stop-color:#6c5d53;stop-opacity:1" />
    </linearGradient>
    <linearGradient
       id="linearGradient1055"
       inkscape:collect="always">
      <stop
         id="stop1051"
         offset="0"
         style="stop-color:#ffffff;stop-opacity:1" />
      <stop
         id="stop1053"
         offset="1"
         style="stop-color:#6c5d53;stop-opacity:1" />
    </linearGradient>
    <linearGradient
       inkscape:collect="always"
       id="linearGradient1016">
      <stop
         style="stop-color:#ffe680;stop-opacity:1"
         offset="0"
         id="stop1012" />
      <stop
         style="stop-color:#6c5d53;stop-opacity:1"
         offset="1"
         id="stop1014" />
    </linearGradient>
    <linearGradient
       inkscape:collect="always"
       id="linearGradient981">
      <stop
         style="stop-color:#917c6f;stop-opacity:1"
         offset="0"
         id="stop977" />
      <stop
         style="stop-color:#ffeeaa;stop-opacity:1"
         offset="1"
         id="stop979" />
    </linearGradient>
    <filter
       style="color-interpolation-filters:sRGB"
       id="filter4375-5-4-9"
       inkscape:label="deevad outline effect">
      <feFlood
         id="feFlood4377-0-3-0"
         flood-opacity="1"
         flood-color="rgb(255,255,255)"
         result="flood" />
      <feComposite
         id="feComposite4379-6-6-2"
         in2="SourceGraphic"
         in="flood"
         operator="in"
         result="composite1" />
      <feMorphology
         id="feMorphology4393-0-9-2"
         operator="dilate"
         radius="4"
         result="result3" />
      <feComposite
         id="feComposite4385-7-5-85"
         in2="result3"
         in="SourceGraphic"
         operator="over"
         result="composite2" />
    </filter>
    <filter
       style="color-interpolation-filters:sRGB"
       id="filter4375-5-4-9-2"
       inkscape:label="deevad outline effect">
      <feFlood
         id="feFlood4377-0-3-0-0"
         flood-opacity="1"
         flood-color="rgb(255,255,255)"
         result="flood" />
      <feComposite
         id="feComposite4379-6-6-2-2"
         in2="SourceGraphic"
         in="flood"
         operator="in"
         result="composite1" />
      <feMorphology
         id="feMorphology4393-0-9-2-0"
         operator="dilate"
         radius="4"
         result="result3" />
      <feComposite
         id="feComposite4385-7-5-85-7"
         in2="result3"
         in="SourceGraphic"
         operator="over"
         result="composite2" />
    </filter>
    <filter
       style="color-interpolation-filters:sRGB"
       id="filter4375-5-4-9-3"
       inkscape:label="deevad outline effect">
      <feFlood
         id="feFlood4377-0-3-0-1"
         flood-opacity="1"
         flood-color="rgb(255,255,255)"
         result="flood" />
      <feComposite
         id="feComposite4379-6-6-2-26"
         in2="SourceGraphic"
         in="flood"
         operator="in"
         result="composite1" />
      <feMorphology
         id="feMorphology4393-0-9-2-8"
         operator="dilate"
         radius="4"
         result="result3" />
      <feComposite
         id="feComposite4385-7-5-85-2"
         in2="result3"
         in="SourceGraphic"
         operator="over"
         result="composite2" />
    </filter>
    <filter
       inkscape:collect="always"
       style="color-interpolation-filters:sRGB"
       id="filter4552-8-9-4"
       x="-0.010508748"
       width="1.0210176"
       y="-0.11101427"
       height="1.2220285">
      <feGaussianBlur
         inkscape:collect="always"
         stdDeviation="1.6224608"
         id="feGaussianBlur4554-6-3-2" />
    </filter>
    <linearGradient
       inkscape:collect="always"
       xlink:href="#linearGradient981"
       id="linearGradient975"
       x1="1988.2074"
       y1="1785.1725"
       x2="1805.2437"
       y2="1860.391"
       gradientUnits="userSpaceOnUse" />
    <linearGradient
       inkscape:collect="always"
       xlink:href="#linearGradient1154"
       id="linearGradient1018"
       x1="2085.7883"
       y1="2286.29"
       x2="2180.3196"
       y2="2017.9431"
       gradientUnits="userSpaceOnUse" />
    <linearGradient
       inkscape:collect="always"
       xlink:href="#linearGradient1016"
       id="linearGradient1033"
       gradientUnits="userSpaceOnUse"
       x1="2052.75"
       y1="1898.75"
       x2="2157.6875"
       y2="2016.625"
       gradientTransform="translate(-4,-4)" />
    <linearGradient
       inkscape:collect="always"
       xlink:href="#linearGradient981"
       id="linearGradient1041"
       x1="1634.9705"
       y1="1108.171"
       x2="1632.4445"
       y2="1407.0471"
       gradientUnits="userSpaceOnUse" />
    <linearGradient
       inkscape:collect="always"
       xlink:href="#linearGradient1016"
       id="linearGradient1045"
       gradientUnits="userSpaceOnUse"
       x1="1618.214"
       y1="1224.0833"
       x2="1626.3456"
       y2="982.16431"
       gradientTransform="translate(2,6)" />
    <linearGradient
       inkscape:collect="always"
       xlink:href="#linearGradient1055"
       id="linearGradient1049"
       gradientUnits="userSpaceOnUse"
       x1="1805.2435"
       y1="1829.897"
       x2="1866.2317"
       y2="1819.7323"
       gradientTransform="translate(-6)" />
    <clipPath
       clipPathUnits="userSpaceOnUse"
       id="clipPath1110">
      <path
         style="fill:#000000;fill-opacity:1;stroke:none;stroke-width:1px;stroke-linecap:butt;stroke-linejoin:miter;stroke-opacity:1"
         d="m 1764.429,1871.8075 c 0,0 130.8125,96.3125 174.6563,136.5625 43.8437,40.25 132.9687,-38.0938 132.9687,-38.0938 0,0 61.8125,-158.125 35.2188,-250.125 -26.5938,-92 -125.0625,-132.25 -178.25,-125.7812 -53.1875,6.4687 -168.9063,-12.9375 -178.25,87.6875 -9.3438,100.625 -25.1563,156.6875 13.6562,189.75 z"
         id="path1112"
         inkscape:connector-curvature="0" />
    </clipPath>
    <filter
       inkscape:collect="always"
       style="color-interpolation-filters:sRGB"
       id="filter1208"
       x="-0.0063748454"
       width="1.0127497"
       y="-0.058357853"
       height="1.1167157">
      <feGaussianBlur
         inkscape:collect="always"
         stdDeviation="0.89018317"
         id="feGaussianBlur1210" />
    </filter>
  </defs>
  <sodipodi:namedview
     pagecolor="#ffffff"
     bordercolor="#666666"
     borderopacity="1"
     objecttolerance="10"
     gridtolerance="10"
     guidetolerance="10"
     inkscape:pageopacity="0"
     inkscape:pageshadow="2"
     inkscape:window-width="1366"
     inkscape:window-height="705"
     id="namedview4"
     showgrid="false"
     inkscape:zoom="0.24595019"
     inkscape:cx="1484.5042"
     inkscape:cy="3288.476"
     inkscape:window-x="-8"
     inkscape:window-y="-8"
     inkscape:window-maximized="1"
     inkscape:current-layer="layer1" />
  <g
     inkscape:groupmode="layer"
     id="layer2"
     inkscape:label="artwork"
     sodipodi:insensitive="true">
    <image
       sodipodi:absref="E:\Users\jamesmichael\Downloads\Compressed\peppercarrot_ep13_translation-master\peppercarrot_ep13_translation-master\ph\../gfx_Pepper-and-Carrot_by-David-Revoy_E13P06.png"
       xlink:href="../gfx_Pepper-and-Carrot_by-David-Revoy_E13P06.png"
       width="2481"
       height="3503"
       id="image10"
       x="0"
       y="0" />
  </g>
  <g
     inkscape:groupmode="layer"
     id="layer3"
     inkscape:label="speechbubbles" />
  <g
     inkscape:groupmode="layer"
     id="layer1"
     inkscape:label="txt">
    <text
       xml:space="preserve"
       style="color:#000000;font-style:normal;font-variant:normal;font-weight:normal;font-stretch:normal;line-height:0%;font-family:Lavi;-inkscape-font-specification:'Lavi, Normal';text-align:center;letter-spacing:0px;word-spacing:0px;writing-mode:lr-tb;text-anchor:middle;clip-rule:nonzero;display:inline;overflow:visible;visibility:visible;opacity:1;isolation:auto;mix-blend-mode:normal;color-interpolation:sRGB;color-interpolation-filters:linearRGB;solid-color:#000000;solid-opacity:1;fill:#000000;fill-opacity:1;fill-rule:nonzero;stroke:#000000;stroke-width:0.90000004;stroke-linecap:butt;stroke-linejoin:miter;stroke-miterlimit:4;stroke-dasharray:none;stroke-dashoffset:0;stroke-opacity:1;filter:url(#filter4375-5-4-9);color-rendering:auto;image-rendering:auto;shape-rendering:auto;text-rendering:auto;enable-background:accumulate"
       x="1367.1063"
       y="691.71692"
       id="text4136"
       transform="matrix(0.6322045,0.15033006,0,0.79645319,201.11125,-80.537932)"><tspan
         sodipodi:role="line"
         id="tspan4138"
         x="1367.1063"
         y="691.71692"
         style="font-size:47.00374985px;line-height:1.25">PaK</tspan></text>
    <flowRoot
       xml:space="preserve"
       id="flowRoot2987-4-9-3-6-3-8-7-2-7-2"
       style="font-style:normal;font-variant:normal;font-weight:normal;font-stretch:normal;line-height:0.01%;font-family:Lavi;-inkscape-font-specification:Lavi;text-align:center;letter-spacing:0px;word-spacing:0px;text-anchor:middle;fill:#ffffff;fill-opacity:1;stroke:none"
       transform="translate(347.26927,3351.8198)"><flowRegion
         id="flowRegion2989-5-4-5-5-3-0-6-76-8-1"><rect
           id="rect2991-7-9-6-21-9-8-0-3-1-7"
           width="2283.5913"
           height="41.535503"
           x="-248.6331"
           y="9.6225204"
           style="font-style:normal;font-variant:normal;font-weight:normal;font-stretch:normal;font-family:Lavi;-inkscape-font-specification:Lavi;text-align:center;text-anchor:middle;fill:#ffffff;fill-opacity:1" /></flowRegion><flowPara
         style="font-size:32.97025299px;line-height:1.25;text-align:center;text-anchor:middle;fill:#ffffff;fill-opacity:1"
         id="flowPara3272-6-3-1">11/2015 - Art &amp; Scenario: David Revoy    Translation: Paolo Abes</flowPara></flowRoot>    <g
       id="g1064"
       transform="translate(10.16466,6.098796)"
       style=""
       clip-path="url(#clipPath1110)">
      <path
         style="color:#000000;display:inline;overflow:visible;visibility:visible;fill:url(#linearGradient1049);fill-opacity:1;fill-rule:nonzero;stroke:none;stroke-width:1.00800002;stroke-miterlimit:4;stroke-dasharray:none;marker:none;enable-background:accumulate"
         d="m 1822.7433,1690.3808 c 20.0998,-28.8431 163.4655,-56.4692 204.1592,17.6881 33.9665,61.8974 31.787,183.1604 0.6786,228.7351 -31.6926,46.4306 -152.4682,30.0315 -199.1486,7.7966 -43.958,-20.9382 -43.1626,-71.5472 -41.9637,-159.7609 0.4894,-36.0031 16.1749,-65.616 36.2745,-94.4589 z"
         id="path1047"
         inkscape:connector-curvature="0"
         sodipodi:nodetypes="zssssz" />
      <path
         sodipodi:nodetypes="zssssz"
         inkscape:connector-curvature="0"
         id="path4040-4-5-3"
         d="m 1828.7433,1690.3808 c 20.0998,-28.8431 163.4655,-56.4692 204.1592,17.6881 33.9665,61.8974 31.787,183.1604 0.6786,228.7351 -31.6926,46.4306 -152.4682,30.0315 -199.1486,7.7966 -43.958,-20.9382 -43.1626,-71.5472 -41.9637,-159.7609 0.4894,-36.0031 16.1749,-65.616 36.2745,-94.4589 z"
         style="color:#000000;display:inline;overflow:visible;visibility:visible;fill:url(#linearGradient975);fill-opacity:1;fill-rule:nonzero;stroke:none;stroke-width:1.00800002;stroke-miterlimit:4;stroke-dasharray:none;marker:none;enable-background:accumulate" />
      <text
         id="text1134"
         y="1751.3297"
         x="1926.1328"
         style="font-style:normal;font-variant:normal;font-weight:normal;font-stretch:normal;line-height:0%;font-family:Lavi;-inkscape-font-specification:Lavi;text-align:center;letter-spacing:0px;word-spacing:0px;text-anchor:middle;fill:#ffffff;fill-opacity:1;stroke:none"
         xml:space="preserve"><tspan
           y="1751.3297"
           x="1933.283"
           style="font-size:40.67671585px;line-height:1.25;fill:#ffffff"
           sodipodi:role="line"
           id="tspan1126">Ikaw </tspan><tspan
           y="1802.1757"
           x="1933.283"
           style="font-size:40.67671585px;line-height:1.25;fill:#ffffff"
           sodipodi:role="line"
           id="tspan1128">padin ang </tspan><tspan
           y="1853.0215"
           x="1933.283"
           style="font-size:40.67671585px;line-height:1.25;fill:#ffffff"
           sodipodi:role="line"
           id="tspan1130">loyal knight </tspan><tspan
           y="1903.8674"
           x="1926.1328"
           style="font-size:40.67671585px;line-height:1.25;fill:#ffffff"
           sodipodi:role="line"
           id="tspan1132">ko ...</tspan></text>
      <text
         xml:space="preserve"
         style="font-style:normal;font-variant:normal;font-weight:normal;font-stretch:normal;line-height:0%;font-family:Lavi;-inkscape-font-specification:Lavi;text-align:center;letter-spacing:0px;word-spacing:0px;text-anchor:middle;fill:#241c1c;fill-opacity:1;stroke:none;"
         x="1925.1326"
         y="1751.3297"
         id="text4178"><tspan
           id="tspan3603"
           sodipodi:role="line"
           style="font-size:40.67671585px;line-height:1.25;fill:#241c1c;"
           x="1932.2827"
           y="1751.3297">Ikaw </tspan><tspan
           id="tspan892"
           sodipodi:role="line"
           style="font-size:40.67671585px;line-height:1.25;fill:#241c1c;"
           x="1932.2827"
           y="1802.1757">padin ang </tspan><tspan
           id="tspan894"
           sodipodi:role="line"
           style="font-size:40.67671585px;line-height:1.25;fill:#241c1c;"
           x="1932.2827"
           y="1853.0215">loyal knight </tspan><tspan
           id="tspan896"
           sodipodi:role="line"
           style="font-size:40.67671585px;line-height:1.25;fill:#241c1c;"
           x="1925.1326"
           y="1903.8674">ko ...</tspan></text>
    </g>
    <path
       inkscape:connector-curvature="0"
       id="path1031"
       d="m 2120.5654,1855.2207 c -42.0348,-0.035 -79.7395,11.937 -89.6683,30.3613 -21.1811,39.3054 -35.6117,48.6506 -38.2259,128.7207 -3.8962,119.3313 -2.1023,189.1798 44.2208,217.7129 38.8547,23.9329 126.4113,42.8913 177.9567,18.6289 10.2702,15.3654 10.5256,27.2691 -28.1468,39.6856 64.4202,-3.3321 92.5157,-22.5843 67.0088,-66.3535 -0.2377,-2.2244 -2.0196,-4.5461 -4.8572,-6.8223 31.0088,-65.8199 37.8507,-243.151 -2.812,-307.4688 -24.6345,-38.9654 -77.8365,-54.4255 -125.4761,-54.4648 z"
       style="color:#000000;display:inline;overflow:visible;visibility:visible;fill:url(#linearGradient1033);fill-opacity:1;fill-rule:nonzero;stroke:none;stroke-width:1.2468704px;marker:none;enable-background:accumulate" />
    <path
       style="color:#000000;display:inline;overflow:visible;visibility:visible;fill:url(#linearGradient1018);fill-opacity:1;fill-rule:nonzero;stroke:none;stroke-width:1.2468704px;marker:none;enable-background:accumulate"
       d="m 2124.5654,1859.2207 c -42.0348,-0.035 -79.7395,11.937 -89.6683,30.3613 -21.1811,39.3054 -35.6117,48.6506 -38.2259,128.7207 -3.8962,119.3313 -2.1023,189.1798 44.2208,217.7129 38.8547,23.9329 126.4113,42.8913 177.9567,18.6289 10.2702,15.3654 10.5256,27.2691 -28.1468,39.6856 64.4202,-3.3321 92.5157,-22.5843 67.0088,-66.3535 -0.2377,-2.2244 -2.0196,-4.5461 -4.8572,-6.8223 31.0088,-65.8199 37.8507,-243.151 -2.812,-307.4688 -24.6345,-38.9654 -77.8365,-54.4255 -125.4761,-54.4648 z"
       id="path3978"
       inkscape:connector-curvature="0" />
    <path
       sodipodi:nodetypes="zssssz"
       inkscape:connector-curvature="0"
       id="path1043"
       d="m 1519.9678,941.6211 c 22.8582,-30.5193 185.8988,-59.7515 232.177,18.7159 38.6279,65.4953 36.1494,193.8066 0.7718,242.0304 -36.0419,49.1293 -173.3923,31.7771 -226.4787,8.2496 -49.9907,-22.1549 -49.0862,-75.7055 -47.7227,-169.0467 0.5566,-38.0957 18.3946,-69.4298 41.2526,-99.9492 z"
       style="color:#000000;display:inline;overflow:visible;visibility:visible;opacity:1;fill:url(#linearGradient1045);fill-opacity:1;fill-rule:nonzero;stroke:none;stroke-width:1.43559122px;marker:none;enable-background:accumulate" />
    <path
       style="color:#000000;display:inline;overflow:visible;visibility:visible;fill:url(#linearGradient1041);fill-opacity:1;fill-rule:nonzero;stroke:none;stroke-width:1.43559122px;marker:none;enable-background:accumulate;opacity:1"
       d="m 1517.9678,935.6211 c 22.8582,-30.5193 185.8988,-59.7515 232.177,18.7159 38.6279,65.4953 36.1494,193.8066 0.7718,242.0304 -36.0419,49.1293 -173.3923,31.7771 -226.4787,8.2496 -49.9907,-22.1549 -49.0862,-75.7055 -47.7227,-169.0467 0.5566,-38.0957 18.3946,-69.4298 41.2526,-99.9492 z"
       id="path4040-4-5-3-6"
       inkscape:connector-curvature="0"
       sodipodi:nodetypes="zssssz" />
    <text
       xml:space="preserve"
       style="font-style:normal;font-variant:normal;font-weight:normal;font-stretch:normal;line-height:0%;font-family:Lavi;-inkscape-font-specification:Lavi;text-align:center;letter-spacing:0px;word-spacing:0px;text-anchor:middle;fill:#241c1c;fill-opacity:1;stroke:none;"
       x="1626.5067"
       y="970.81787"
       id="text1124"><tspan
         id="tspan1114"
         sodipodi:role="line"
         style="font-size:40.67671585px;line-height:1.25;fill:#241c1c;"
         x="1633.6569"
         y="970.81787">Aww </tspan><tspan
         id="tspan1116"
         sodipodi:role="line"
         style="font-size:40.67671585px;line-height:1.25;fill:#241c1c;"
         x="1633.6569"
         y="1021.6638">Carrot, </tspan><tspan
         id="tspan1118"
         sodipodi:role="line"
         style="font-size:40.67671585px;line-height:1.25;fill:#241c1c;"
         x="1633.6569"
         y="1072.5098">wag ka na </tspan><tspan
         id="tspan1120"
         sodipodi:role="line"
         style="font-size:40.67671585px;line-height:1.25;fill:#241c1c;"
         x="1633.657"
         y="1123.3556">sumimangot </tspan><tspan
         id="tspan1122"
         sodipodi:role="line"
         style="font-size:40.67671585px;line-height:1.25;fill:#241c1c;"
         x="1633.6569"
         y="1174.2015">jan! </tspan></text>
    <text
       xml:space="preserve"
       style="font-style:normal;font-variant:normal;font-weight:normal;font-stretch:normal;line-height:0%;font-family:Lavi;-inkscape-font-specification:Lavi;text-align:center;letter-spacing:0px;word-spacing:0px;text-anchor:middle;fill:#000000;fill-opacity:1;stroke:none"
       x="2139.6177"
       y="1951.7864"
       id="text1148"><tspan
         id="tspan1136"
         sodipodi:role="line"
         style="font-size:40.67671585px;line-height:1.25;fill:#000000"
         x="2146.7678"
         y="1951.7864">... </tspan><tspan
         id="tspan1138"
         sodipodi:role="line"
         style="font-size:40.67671585px;line-height:1.25;fill:#000000"
         x="2146.7678"
         y="2002.6323">stay put ka </tspan><tspan
         id="tspan1140"
         sodipodi:role="line"
         style="font-size:40.67671585px;line-height:1.25;fill:#000000"
         x="2139.6177"
         y="2053.478">lang jan!</tspan><tspan
         id="tspan1142"
         sodipodi:role="line"
         style="font-size:40.67671585px;line-height:1.25;fill:#000000"
         x="2139.6177"
         y="2104.324">hahahahaha</tspan><tspan
         id="tspan1144"
         sodipodi:role="line"
         style="font-size:40.67671585px;line-height:1.25;fill:#000000"
         x="2146.7678"
         y="2155.1699">naglalaro </tspan><tspan
         id="tspan1146"
         sodipodi:role="line"
         style="font-size:40.67671585px;line-height:1.25;fill:#000000"
         x="2139.6177"
         y="2206.0159">lang kami!</tspan></text>
    <text
       xml:space="preserve"
       style="color:#000000;font-style:normal;font-variant:normal;font-weight:normal;font-stretch:normal;line-height:0%;font-family:Lavi;-inkscape-font-specification:'Lavi, Normal';text-align:center;letter-spacing:0px;word-spacing:0px;writing-mode:lr-tb;text-anchor:middle;clip-rule:nonzero;display:inline;overflow:visible;visibility:visible;opacity:1;isolation:auto;mix-blend-mode:normal;color-interpolation:sRGB;color-interpolation-filters:linearRGB;solid-color:#000000;solid-opacity:1;fill:#000000;fill-opacity:1;fill-rule:nonzero;stroke:#000000;stroke-width:0.90000004;stroke-linecap:butt;stroke-linejoin:miter;stroke-miterlimit:4;stroke-dasharray:none;stroke-dashoffset:0;stroke-opacity:1;filter:url(#filter4375-5-4-9-3);color-rendering:auto;image-rendering:auto;shape-rendering:auto;text-rendering:auto;enable-background:accumulate"
       x="1367.1063"
       y="691.71692"
       id="text4136-1"
       transform="matrix(0.86619653,-0.09897381,-0.04163634,1.0337332,990.71602,2420.1286)"><tspan
         sodipodi:role="line"
         id="tspan4138-8"
         x="1367.1063"
         y="691.71692"
         style="font-size:47.00374985px;line-height:1.25">Grrrr</tspan></text>
    <text
       id="text4178-6-5-9-0-7"
       style="font-style:normal;font-variant:normal;font-weight:normal;font-stretch:normal;line-height:0%;font-family:Lavi;-inkscape-font-specification:Lavi;text-align:center;letter-spacing:0px;word-spacing:0px;text-anchor:middle;opacity:0.43399999;fill:#412525;fill-opacity:1;stroke:none;filter:url(#filter4552-8-9-4)"
       xml:space="preserve"
       y="3129.8394"
       x="1318.7137"
       transform="matrix(0.79399618,0.00599505,-0.16710117,0.70250588,566.35987,930.47685)"><tspan
         y="3129.8394"
         x="1318.7137"
         style="font-style:normal;font-variant:normal;font-weight:normal;font-stretch:normal;font-size:40.67671585px;line-height:1.25;font-family:Fondamento;-inkscape-font-specification:Fondamento;fill:#412525;fill-opacity:1"
         sodipodi:role="line"
         id="tspan4293-1-6-3-5">Citadels &amp; Phoenixes</tspan></text>
    <use
       x="0"
       y="0"
       xlink:href="#text4178-6-5-9-0-7"
       id="use4664"
       transform="matrix(-0.08333857,0.4312511,-1.1395718,0.00256786,4640.5157,2371.6815)"
       width="2481"
       height="3503" />
    <use
       x="0"
       y="0"
       xlink:href="#text4178-6-5-9-0-7"
       id="use4690"
       transform="matrix(-0.8491704,0.01629325,-0.01626883,-0.77654093,2306.6523,5181.0156)"
       width="2481"
       height="3503" />
    <use
       x="0"
       y="0"
       xlink:href="#use4664"
       id="use4692"
       transform="matrix(-0.76157318,0.78737844,-1.1562027,-0.81859716,5585.5693,4517.5604)"
       width="2481"
       height="3503" />
    <use
       x="0"
       y="0"
       xlink:href="#use4664"
       id="use4694"
       transform="matrix(0.2413678,0.96175958,-1.2866298,0.18042315,4666.0569,751.999)"
       width="2481"
       height="3503" />
    <text
       id="text4178-6-5-9-0-7-0"
       style="font-style:normal;font-variant:normal;font-weight:normal;font-stretch:normal;line-height:0%;font-family:Lavi;-inkscape-font-specification:Lavi;text-align:center;letter-spacing:0px;word-spacing:0px;text-anchor:middle;opacity:0.43399999;fill:#ffd947;fill-opacity:1;stroke:none;filter:url(#filter1208);"
       xml:space="preserve"
       y="3129.8394"
       x="1318.7137"
       transform="matrix(0.79298761,0.00753598,0.0219157,0.88307326,108.80567,-1536.6899)"><tspan
         y="3129.8394"
         x="1318.7137"
         style="font-style:normal;font-variant:normal;font-weight:normal;font-stretch:normal;font-size:40.67671585px;line-height:1.25;font-family:Fondamento;-inkscape-font-specification:Fondamento;fill:#ffd947;fill-opacity:1;"
         sodipodi:role="line"
         id="tspan4293-1-6-3-5-4">Prinsesa Coriander</tspan></text>
    <text
       xml:space="preserve"
       style="font-style:normal;font-variant:normal;font-weight:normal;font-stretch:normal;line-height:0%;font-family:Lavi;-inkscape-font-specification:Lavi;text-align:center;letter-spacing:0px;word-spacing:0px;text-anchor:middle;fill:#000000;fill-opacity:1;stroke:#000000;stroke-width:3.82173181;stroke-miterlimit:4;stroke-dasharray:none;stroke-opacity:1"
       x="2059.5447"
       y="2616.4343"
       id="text4213"
       transform="matrix(0.75304346,0,-0.11971288,1.3279446,0,0)"><tspan
         sodipodi:role="line"
         id="tspan4215"
         x="2059.5447"
         y="2616.4343"
         style="font-size:63.55184174px;line-height:1.25;stroke-width:3.82173181;stroke-miterlimit:4;stroke-dasharray:none">- Wak -</tspan></text>
    <text
       transform="matrix(0.28748374,0.14909896,-0.65903124,0.26591764,3002.6373,1539.8144)"
       x="1318.7137"
       y="3129.8394"
       xml:space="preserve"
       style="font-style:normal;font-variant:normal;font-weight:normal;font-stretch:normal;line-height:0%;font-family:Lavi;-inkscape-font-specification:Lavi;text-align:center;letter-spacing:0px;word-spacing:0px;text-anchor:middle;opacity:0.43399999;fill:#412525;fill-opacity:1;stroke:none;filter:url(#filter4552-8-9-4)"
       id="text4208"><tspan
         id="tspan4210"
         sodipodi:role="line"
         style="font-style:normal;font-variant:normal;font-weight:normal;font-stretch:normal;font-size:40.67671585px;line-height:1.25;font-family:Fondamento;-inkscape-font-specification:Fondamento;fill:#412525;fill-opacity:1"
         x="1318.7137"
         y="3129.8394">Citadels &amp; Phoenixes</tspan></text>
    <text
       xml:space="preserve"
       style="font-style:normal;font-weight:normal;font-size:40px;line-height:1.25;font-family:sans-serif;letter-spacing:0px;word-spacing:0px;fill:#000000;fill-opacity:1;stroke:none"
       x="646.47235"
       y="990.29608"
       id="text873"><tspan
         sodipodi:role="line"
         id="tspan871"
         x="646.47235"
         y="1026.7893" /></text>
  </g>
  <g
     inkscape:groupmode="layer"
     id="layer4"
     inkscape:label="translatornotes"
     sodipodi:insensitive="true">
    <path
       style="color:#000000;clip-rule:nonzero;display:inline;overflow:visible;visibility:visible;opacity:0.481;isolation:auto;mix-blend-mode:normal;color-interpolation:sRGB;color-interpolation-filters:linearRGB;solid-color:#000000;solid-opacity:1;fill:#ffe680;fill-opacity:1;fill-rule:nonzero;stroke:#565656;stroke-width:1.2;stroke-linecap:butt;stroke-linejoin:miter;stroke-miterlimit:4;stroke-dasharray:none;stroke-dashoffset:0;stroke-opacity:1;marker:none;color-rendering:auto;image-rendering:auto;shape-rendering:auto;text-rendering:auto;enable-background:accumulate"
       d="m 2869.1119,2666.8499 0.031,-189.0352 h -304.7581 v 90.9805 h -10 v -15.6308 l -30.9824,26.9824 30.9824,26.9804 v -16.6171 h 10 v 76.3398 z"
       id="rect4191-6"
       inkscape:connector-curvature="0"
       sodipodi:nodetypes="cccccccccccc" />
    <path
       inkscape:connector-curvature="0"
       id="path3446"
       d="m 2783.3764,3192.9784 0.05,-123.1118 h -219.0416 v 51.414 h -10 v -15.6308 l -30.9824,26.9824 30.9824,26.9804 v -16.6171 h 10 v 49.9425 z"
       style="color:#000000;clip-rule:nonzero;display:inline;overflow:visible;visibility:visible;opacity:0.481;isolation:auto;mix-blend-mode:normal;color-interpolation:sRGB;color-interpolation-filters:linearRGB;solid-color:#000000;solid-opacity:1;fill:#ffe680;fill-opacity:1;fill-rule:nonzero;stroke:#565656;stroke-width:1.2;stroke-linecap:butt;stroke-linejoin:miter;stroke-miterlimit:4;stroke-dasharray:none;stroke-dashoffset:0;stroke-opacity:1;marker:none;color-rendering:auto;image-rendering:auto;shape-rendering:auto;text-rendering:auto;enable-background:accumulate"
       sodipodi:nodetypes="cccccccccccc" />
    <g
       id="hidden775"
       transform="translate(0.71529609,2.0802066)">
      <text
         xml:space="preserve"
         x="2673.2529"
         y="3104.3228"
         id="tspan500"
         inkscape:label="hidden775-1"
         style="font-style:normal;font-variant:normal;font-weight:normal;font-stretch:normal;font-size:25.3333px;font-family:Lavi;-inkscape-font-specification:Lavi;text-align:center;text-anchor:middle;fill:#000000;fill-opacity:0.48">The other one is</text>
      <text
         xml:space="preserve"
         x="2674.8276"
         y="3138.1768"
         id="tspan500-5"
         inkscape:label="hidden775-2"
         style="font-style:normal;font-variant:normal;font-weight:normal;font-stretch:normal;font-size:25.3333px;font-family:Lavi;-inkscape-font-specification:Lavi;text-align:center;text-anchor:middle;fill:#000000;fill-opacity:0.48">at the bottom of</text>
      <text
         xml:space="preserve"
         x="2678.3032"
         y="3171.2534"
         id="tspan500-1"
         inkscape:label="hidden775-3"
         style="font-style:normal;font-variant:normal;font-weight:normal;font-stretch:normal;font-size:25.3333px;font-family:Lavi;-inkscape-font-specification:Lavi;text-align:center;text-anchor:middle;fill:#000000;fill-opacity:0.48">the game board.</text>
    </g>
    <g
       id="hidden752">
      <text
         xml:space="preserve"
         x="2717.1084"
         y="2513.7415"
         id="text775"
         inkscape:label="hidden752-1"
         style="font-style:normal;font-variant:normal;font-weight:normal;font-stretch:normal;font-size:25.3333px;font-family:Lavi;-inkscape-font-specification:Lavi;text-align:center;text-anchor:middle;fill:#000000;fill-opacity:0.48">If you wish to translate</text>
      <text
         xml:space="preserve"
         x="2719.0498"
         y="2548.2856"
         id="text775-2"
         inkscape:label="hidden752-2"
         style="font-style:normal;font-variant:normal;font-weight:normal;font-stretch:normal;font-size:25.3333px;font-family:Lavi;-inkscape-font-specification:Lavi;text-align:center;text-anchor:middle;fill:#000000;fill-opacity:0.48">&quot;Citadels &amp; Phoenixes&quot;,</text>
      <text
         xml:space="preserve"
         x="2721.8564"
         y="2580.3147"
         id="text775-3"
         inkscape:label="hidden752-3"
         style="font-style:normal;font-variant:normal;font-weight:normal;font-stretch:normal;font-size:25.3333px;font-family:Lavi;-inkscape-font-specification:Lavi;text-align:center;text-anchor:middle;fill:#000000;fill-opacity:0.48">there are 2 text entries,</text>
      <text
         xml:space="preserve"
         x="2717.8718"
         y="2612.3584"
         id="text775-6"
         inkscape:label="hidden752-4"
         style="font-style:normal;font-variant:normal;font-weight:normal;font-stretch:normal;font-size:25.3333px;font-family:Lavi;-inkscape-font-specification:Lavi;text-align:center;text-anchor:middle;fill:#000000;fill-opacity:0.48">one of which is on the</text>
      <text
         xml:space="preserve"
         x="2720.1343"
         y="2642.4993"
         id="text775-0"
         inkscape:label="hidden752-5"
         style="font-style:normal;font-variant:normal;font-weight:normal;font-stretch:normal;font-size:25.3333px;font-family:Lavi;-inkscape-font-specification:Lavi;text-align:center;text-anchor:middle;fill:#000000;fill-opacity:0.48">book with the dice on it.</text>
    </g>
  </g>
</svg>
