<?xml version="1.0" encoding="UTF-8" standalone="no"?>
<!-- Created with Inkscape (http://www.inkscape.org/) -->

<svg
   id="svg2"
   version="1.1"
   inkscape:version="1.3 (1:1.3+202307231459+0e150ed6c4)"
   width="2481"
   height="3503"
   sodipodi:docname="E19P01.svg"
   xmlns:inkscape="http://www.inkscape.org/namespaces/inkscape"
   xmlns:sodipodi="http://sodipodi.sourceforge.net/DTD/sodipodi-0.dtd"
   xmlns:xlink="http://www.w3.org/1999/xlink"
   xmlns="http://www.w3.org/2000/svg"
   xmlns:svg="http://www.w3.org/2000/svg"
   xmlns:rdf="http://www.w3.org/1999/02/22-rdf-syntax-ns#"
   xmlns:cc="http://creativecommons.org/ns#"
   xmlns:dc="http://purl.org/dc/elements/1.1/">
  <sodipodi:namedview
     pagecolor="#ffffff"
     bordercolor="#666666"
     inkscape:pageopacity="0"
     inkscape:pageshadow="2"
     inkscape:window-width="1920"
     inkscape:window-height="997"
     id="namedview70"
     showgrid="false"
     inkscape:zoom="0.42773946"
     inkscape:cx="1327.9112"
     inkscape:cy="2581.0104"
     inkscape:current-layer="layer3"
     inkscape:window-x="0"
     inkscape:window-y="0"
     inkscape:window-maximized="1"
     borderopacity="1.0"
     inkscape:pagecheckerboard="0"
     inkscape:showpageshadow="0"
     inkscape:deskcolor="#d1d1d1" />
  <metadata
     id="metadata8">
    <rdf:RDF>
      <cc:Work
         rdf:about="">
        <dc:format>image/svg+xml</dc:format>
        <dc:type
           rdf:resource="http://purl.org/dc/dcmitype/StillImage" />
        <dc:title />
      </cc:Work>
    </rdf:RDF>
  </metadata>
  <defs
     id="defs6" />
  <sodipodi:namedview
     pagecolor="#ffffff"
     bordercolor="#666666"
     borderopacity="1"
     objecttolerance="10"
     gridtolerance="10"
     guidetolerance="10"
     inkscape:pageopacity="0"
     inkscape:pageshadow="2"
     inkscape:window-width="1920"
     inkscape:window-height="1025"
     id="namedview4"
     showgrid="false"
     inkscape:zoom="0.31941595"
     inkscape:cx="1410.2665"
     inkscape:cy="585.67346"
     inkscape:window-x="0"
     inkscape:window-y="26"
     inkscape:window-maximized="1"
     inkscape:current-layer="layer1"
     showguides="false" />
  <g
     inkscape:groupmode="layer"
     id="layer2"
     inkscape:label="artwork"
     sodipodi:insensitive="true">
    <image
       xlink:href="../gfx_Pepper-and-Carrot_by-David-Revoy_E19P01.png"
       width="2481"
       height="3503"
       id="image10"
       x="0"
       y="0" />
  </g>
  <g
     inkscape:groupmode="layer"
     id="layer3"
     inkscape:label="speechbubbles">
    <path
       style="color:#000000;display:inline;overflow:visible;visibility:visible;fill:#b6b6b6;fill-opacity:1;fill-rule:nonzero;stroke:none;stroke-width:1.0327px;marker:none;enable-background:accumulate"
       d="m 1016.7629,1944.6884 c -4.2795,-29.8516 29.2453,-65.8653 150.6177,-57.9056 121.3728,7.9598 145.2494,21.984 148.8343,60.2936 1.4863,15.8826 -30.8404,40.5945 -48.7479,44.5744 -17.9075,3.9798 -92.1447,4.5754 -121.9906,1.3916 -29.8455,-3.1839 -93.8935,-10.1473 -111.8009,-24.4749 -17.9075,-14.3274 -14.9228,-20.6952 -16.9126,-23.8791 z"
       id="path3365"
       inkscape:connector-curvature="0"
       sodipodi:nodetypes="csssssc" />
    <path
       style="color:#000000;display:inline;overflow:visible;visibility:visible;fill:#b6b6b6;fill-opacity:1;fill-rule:nonzero;stroke:none;stroke-width:1.01634px;marker:none;enable-background:accumulate"
       d="m 1339.2346,2080.3149 c -8.8916,55.8481 -49.131,80.8149 -82.523,95.9594 -62.3188,23.9873 -127.6242,11.9476 -190.4108,-0.9988 -32.5753,-9.2031 -66.1303,-48.8788 -62.7243,-102.4511 3.2917,-48.0212 34.8719,-79.3152 65.3104,-83.7761 44.6219,-15.5685 91.1584,-23.1525 136.5287,-9.9076 38.958,7.562 80.6808,9.6119 115.3794,39.4797 11.5958,15.7815 16.0511,39.4113 18.4396,61.6945 z"
       id="path3365-3"
       inkscape:connector-curvature="0" />
    <path
       style="fill:#b6b6b6;stroke:none;stroke-width:0.985563;fill-opacity:1"
       d="m 1008.0799,2278.7326 c 5.6814,-61.1296 50.0615,-94.2078 115.2028,-102.7224 79.8617,-18.1694 154.2997,-26.4937 233.9951,-9.0843 52.1145,14.4009 94.9448,16.0358 135.4337,57.3717 26.8494,30.3166 36.5167,145.0459 -6.9712,174.7806 -45.2716,43.4721 -166.5801,53.103 -227.9559,51.9147 -88.3402,1.7892 -165.7618,-6.1273 -209.3885,-42.335 -40.7933,-34.7386 -45.8724,-84.6729 -40.316,-129.9253 z"
       id="path3065"
       inkscape:connector-curvature="0"
       sodipodi:nodetypes="cccccccc" />
    <path
       style="display:inline;fill:#b6b6b6;stroke:none;fill-opacity:1"
       d="m 1627.1894,2302.8164 c -21.9558,36.2988 -64.6442,61.9501 -96.7367,35.7869 -19.4449,-15.8524 -29.1134,-28.291 -29.1134,-28.291 l -6.3679,30.9322 20.7854,19.5483 c 0,0 65.508,31.9103 111.4326,-57.9764 z"
       id="path3063-1"
       inkscape:connector-curvature="0"
       sodipodi:nodetypes="cscccc" />
    <path
       style="color:#000000;display:inline;overflow:visible;visibility:visible;fill:#b6b6b6;fill-opacity:1;fill-rule:nonzero;stroke:none;stroke-width:0.827713px;marker:none;enable-background:accumulate"
       d="m 1954.9739,2264.8094 c 17.6774,-12.6614 87.2882,-23.538 156.8115,-22.2099 69.5237,1.3282 136.1573,8.282 176.8911,39.5097 60.0145,46.0083 32.6791,151.2014 1.5957,168.9028 -22.5276,12.8288 -89.951,24.3393 -154.5284,25.6337 -64.5776,1.2945 -126.309,-7.6269 -156.469,-19.2199 -26.0291,-10.0054 -63.9525,-37.2326 -67.0489,-103.0829 -1.2638,-26.8764 7.3932,-64.2105 42.748,-89.5335 z"
       id="path4040"
       inkscape:connector-curvature="0"
       sodipodi:nodetypes="ssssssss" />
    <path
       style="color:#000000;display:inline;overflow:visible;visibility:visible;fill:#b6b6b6;fill-opacity:1;fill-rule:nonzero;stroke:none;stroke-width:1px;marker:none;enable-background:accumulate"
       d="m 2091.5868,2265.1496 c -12.6779,-33.6245 -30.9699,-60.7293 -65.977,-55.676 52.3023,-18.546 92.9308,35.3617 103.6224,53.2726 10.6914,17.9109 -37.6454,2.4034 -37.6454,2.4034 z"
       id="path5010"
       inkscape:connector-curvature="0" />
    <path
       style="color:#000000;display:inline;overflow:visible;visibility:visible;fill:#ffe4a0;fill-opacity:1;fill-rule:nonzero;stroke:none;stroke-width:0.995214px;marker:none;enable-background:accumulate"
       d="m 540.41164,2751.5328 c -1.08487,-22.9307 10.89806,-39.3621 56.45967,-54.3373 45.56184,-14.975 110.22293,-7.8326 127.18869,-7.3385 79.61589,2.3186 106.29282,10.0618 122.56482,26.9091 16.27208,16.847 20.42921,13.1452 19.85414,42.3245 -0.51486,26.1236 -5.11421,38.4004 -24.64065,44.016 -19.52655,5.6157 -169.5347,12.049 -192.62968,11.7988 -22.61174,-0.2451 -51.40139,-3.0535 -73.8197,-12.2522 -21.16344,-8.6838 -33.8925,-28.1896 -34.97729,-51.1204 z"
       id="path3373"
       inkscape:connector-curvature="0"
       sodipodi:nodetypes="zsssssssz" />
    <path
       style="color:#000000;display:inline;overflow:visible;visibility:visible;fill:#ffe4a0;fill-opacity:1;fill-rule:nonzero;stroke:none;stroke-width:0.88749838px;marker:none;enable-background:accumulate"
       d="m 743.41122,2862.4057 c 8.31371,-67.0863 71.57832,-90.4123 252.16583,-94.4196 47.23135,-1.048 126.79445,6.9803 163.88505,22.6229 37.0907,15.6426 58.2102,69.4865 52.6678,118.6446 -11.0849,98.3163 -126.9096,81.9292 -158.7788,83.086 -31.8695,1.1568 -251.21088,4.3304 -282.65199,-40.2891 -30.15137,-42.7891 -28.67349,-68.8248 -27.28789,-89.6448 z"
       id="path4546"
       inkscape:connector-curvature="0"
       sodipodi:nodetypes="csssssc" />
    <path
       style="color:#000000;display:inline;overflow:visible;visibility:visible;fill:#ffe4a0;fill-opacity:1;fill-rule:nonzero;stroke:none;stroke-width:0.880453px;marker:none;enable-background:accumulate"
       d="m 926.98829,2985.8994 c 25.28611,-42.4872 162.81971,-38.8602 208.57961,-20.4526 45.7598,18.4073 65.5421,23.4094 64.9151,61.358 -0.587,35.5277 -15.3438,68.7281 -38.7559,78.9545 -23.412,10.2263 -78.3041,10.0146 -101.7161,10.0146 -23.412,0 -98.14824,-6.509 -117.06016,-21.4754 -18.0911,-14.3168 -41.24877,-65.9121 -15.96255,-108.3991 z"
       id="path3330"
       inkscape:connector-curvature="0"
       sodipodi:nodetypes="zsssssz" />
    <path
       style="color:#000000;display:inline;overflow:visible;visibility:visible;fill:#ffe4a0;fill-opacity:1;fill-rule:nonzero;stroke:none;stroke-width:1px;marker:none;enable-background:accumulate"
       d="m 929.99953,3158.9683 c 39.78505,-10.9584 53.20162,-17.1208 58.43434,-65.1641 5.23266,-48.0433 23.16173,-44.6696 23.16173,-44.6696 l 14.7504,30.3838 c 0,0 -18.3423,101.2684 -96.34647,79.4499 z"
       id="path3072"
       inkscape:connector-curvature="0" />
    <path
       style="fill:#b6b6b6;fill-rule:evenodd;stroke:none;stroke-width:1px;stroke-linecap:butt;stroke-linejoin:miter;stroke-opacity:1;fill-opacity:1"
       d="m 1891.4248,3239.5273 c 26.3898,2.1524 60.7586,-8.5621 39.4235,-40.9681 38.3979,25.9662 74.7721,30.83 113.0657,2.4031 -5.5978,28.6978 57.0153,30.9119 78.4695,11.9225 -6.546,29.906 23.5543,31.0596 48.7068,32.0091 -53.2076,36.5615 -25.2677,48.1891 -4.3022,61.9598 -52.2903,-10.1884 -39.6437,10.4551 -45.8893,22.1285 -44.8572,-26.449 -77.4789,-20.1718 -103.251,4.4257 -13.479,-13.3768 -17.7099,-41.0242 -67.3998,1.4752 18.2722,-36.6892 -5.6785,-32.8382 -44.4553,-14.7522 8.9214,-8.4337 46.471,-30.9658 -14.3679,-28.9705 9.5003,-2.97 17.1236,-6.2033 22.4963,-9.7524 5.3727,-3.5491 -29.1749,-13.0242 -28.6769,-17.2571 0.4981,-4.2329 36.0419,-3.2235 30.9182,-8.2451 -5.1237,-5.0215 -13.2451,-10.4635 -24.7376,-16.3785 z"
       id="path4584"
       inkscape:connector-curvature="0"
       sodipodi:nodetypes="cccccccccccsssc" />
    <path
       style="color:#000000;display:inline;overflow:visible;visibility:visible;fill:#b6b6b6;fill-opacity:1;fill-rule:nonzero;stroke:none;stroke-width:1px;marker:none;enable-background:accumulate"
       d="m 1929.0839,3276.1051 c -26.7744,0.1934 -96.6935,-12.0611 -103.8888,-13.0148 6.0705,-5.4371 10.1298,-10.8932 13.4021,-15.1162 -13.7156,-0.9263 -59.5001,-2.596 -79.7676,1.5975 50.7453,-11.4228 73.8083,-12.6417 95.8809,-9.8645 -2.9601,5.998 -5.8701,9.4267 -7.3188,12.6033 18.7307,6.708 117.9634,8.8349 106.078,1.4065 z"
       id="path5066"
       inkscape:connector-curvature="0"
       sodipodi:nodetypes="cccccccc" />
  </g>
  <g
     inkscape:groupmode="layer"
     id="layer1"
     inkscape:label="txt"
     style="display:inline">
    <text
       xml:space="preserve"
       style="font-style:normal;font-variant:normal;font-weight:normal;font-stretch:normal;line-height:0%;font-family:Lavi;-inkscape-font-specification:Lavi;text-align:center;letter-spacing:0px;word-spacing:0px;text-anchor:middle;fill:#000000;fill-opacity:1;stroke:none"
       x="1172.7803"
       y="1952.9803"
       id="text4246-3-9"><tspan
         sodipodi:role="line"
         style="font-size:45px;line-height:1.25"
         x="1179.8115"
         y="1952.9803"
         id="tspan4183-8">Noter grem. </tspan></text>
    <text
       xml:space="preserve"
       style="font-style:normal;font-variant:normal;font-weight:normal;font-stretch:normal;line-height:1.25;font-family:Lavi;-inkscape-font-specification:Lavi;text-align:center;letter-spacing:0px;word-spacing:0px;text-anchor:middle;fill:#000000;fill-opacity:1;stroke:none"
       x="1169.7997"
       y="2038.2527"
       id="text4246-3"><tspan
         sodipodi:role="line"
         style="font-size:45px;line-height:1.25"
         x="1169.7997"
         y="2038.2527"
         id="tspan63">Nima te</tspan><tspan
         sodipodi:role="line"
         style="font-size:45px;line-height:1.25"
         x="1169.7997"
         y="2094.5027"
         id="tspan2063">smisla gledati</tspan><tspan
         sodipodi:role="line"
         style="font-size:45px;line-height:1.25"
         x="1169.7997"
         y="2150.7527"
         id="tspan2065">kopati …</tspan></text>
    <text
       xml:space="preserve"
       style="font-style:normal;font-variant:normal;font-weight:normal;font-stretch:normal;line-height:0%;font-family:Lavi;-inkscape-font-specification:Lavi;text-align:center;letter-spacing:0px;word-spacing:0px;text-anchor:middle;fill:#000000;fill-opacity:1;stroke:none"
       x="1261.4269"
       y="2242.6494"
       id="text4246-3-7"><tspan
         sodipodi:role="line"
         style="font-size:45px;line-height:1.25"
         x="1261.4269"
         y="2242.6494"
         id="tspan77">Zakoplji mi vse te</tspan><tspan
         sodipodi:role="line"
         style="font-size:45px;line-height:1.25"
         x="1261.4269"
         y="2298.8994"
         id="tspan2076">spodletele napoje in se</tspan><tspan
         sodipodi:role="line"
         style="font-size:45px;line-height:1.25"
         x="1261.4269"
         y="2355.1494"
         id="tspan2078">potem vrni noter</tspan><tspan
         sodipodi:role="line"
         style="font-size:45px;line-height:1.25"
         x="1261.4269"
         y="2411.3994"
         id="tspan2080">počivat.</tspan></text>
    <text
       xml:space="preserve"
       style="font-style:normal;font-variant:normal;font-weight:normal;font-stretch:normal;line-height:0%;font-family:Lavi;-inkscape-font-specification:Lavi;text-align:center;letter-spacing:0px;word-spacing:0px;text-anchor:middle;fill:#000000;fill-opacity:1;stroke:none"
       x="2118.9514"
       y="2317.9248"
       id="text4246-3-7-6"><tspan
         sodipodi:role="line"
         style="font-size:45px;line-height:1.25"
         x="2118.9514"
         y="2317.9248"
         id="tspan2091">Pri tem tempu</tspan><tspan
         sodipodi:role="line"
         style="font-size:45px;line-height:1.25"
         x="2118.9514"
         y="2374.1748"
         id="tspan2095">bo čudež že, če ti</tspan><tspan
         sodipodi:role="line"
         style="font-size:45px;line-height:1.25"
         x="2118.9514"
         y="2430.4248"
         id="tspan439">uspe do jutri.</tspan></text>
    <text
       xml:space="preserve"
       style="font-style:normal;font-variant:normal;font-weight:normal;font-stretch:normal;line-height:0%;font-family:Lavi;-inkscape-font-specification:Lavi;text-align:center;letter-spacing:0px;word-spacing:0px;text-anchor:middle;fill:#000000;fill-opacity:1;stroke:none"
       x="702.15601"
       y="2763.082"
       id="text4246-3-7-6-7"><tspan
         sodipodi:role="line"
         style="font-size:45px;line-height:1.25"
         x="702.15601"
         y="2763.082"
         id="tspan3987">Saj hitim, no!</tspan></text>
    <text
       xml:space="preserve"
       style="font-style:normal;font-variant:normal;font-weight:normal;font-stretch:normal;line-height:0%;font-family:Lavi;-inkscape-font-specification:Lavi;text-align:center;letter-spacing:0px;word-spacing:0px;text-anchor:middle;fill:#000000;fill-opacity:1;stroke:none"
       x="981.51941"
       y="2833.3462"
       id="text4246-3-7-6-7-0"><tspan
         sodipodi:role="line"
         style="font-size:45px;line-height:1.25"
         x="981.51941"
         y="2833.3462"
         id="tspan92">Pa sploh, zakaj</tspan><tspan
         sodipodi:role="line"
         style="font-size:45px;line-height:1.25"
         x="981.51941"
         y="2889.5962"
         id="tspan4770">moramo zmeraj <tspan
   style="stroke:#000000;stroke-width:1.3;stroke-miterlimit:4;stroke-dasharray:none;stroke-opacity:1"
   id="tspan4772">čisto</tspan></tspan><tspan
         sodipodi:role="line"
         style="font-size:45px;line-height:1.25"
         x="981.51941"
         y="2945.8462"
         id="tspan2158"><tspan
           style="stroke:#000000;stroke-width:1.3;stroke-miterlimit:4;stroke-dasharray:none;stroke-opacity:1"
           id="tspan2160">vse zakopati?</tspan></tspan><tspan
         sodipodi:role="line"
         style="font-size:45px;line-height:1.25"
         x="981.51941"
         y="2964.7659"
         id="tspan2154" /></text>
    <text
       xml:space="preserve"
       style="font-style:normal;font-variant:normal;font-weight:normal;font-stretch:normal;line-height:0%;font-family:Lavi;-inkscape-font-specification:Lavi;text-align:center;letter-spacing:0px;word-spacing:0px;text-anchor:middle;fill:#000000;fill-opacity:1;stroke:none"
       x="1060.2854"
       y="3023.5972"
       id="text4246-3-7-6-7-0-9"><tspan
         sodipodi:role="line"
         style="font-size:45px;line-height:1.25"
         x="1060.2854"
         y="3023.5972"
         id="tspan85">Ne bi bilo</tspan><tspan
         sodipodi:role="line"
         style="font-size:45px;line-height:1.25"
         x="1060.2854"
         y="3079.8472"
         id="tspan2164">bolje, če …</tspan></text>
    <text
       xml:space="preserve"
       style="font-style:normal;font-variant:normal;font-weight:normal;font-stretch:normal;line-height:0%;font-family:Lavi;-inkscape-font-specification:Lavi;text-align:center;letter-spacing:0px;word-spacing:0px;text-anchor:middle;fill:#000000;fill-opacity:1;stroke:none"
       x="2037.533"
       y="3281.2891"
       id="text4246-3-7-6-7-0-9-3"><tspan
         sodipodi:role="line"
         style="font-size:45px;line-height:1.25"
         x="2037.533"
         y="3281.2891"
         id="tspan4464-5">Če <tspan
   style="stroke:#000000;stroke-width:2.6;stroke-miterlimit:4;stroke-dasharray:none;stroke-opacity:1"
   id="tspan4493">KAJ</tspan>?</tspan></text>
  </g>
</svg>
