<?xml version="1.0" encoding="UTF-8" standalone="no"?>
<!-- Created with Inkscape (http://www.inkscape.org/) -->

<svg
   id="svg2"
   version="1.1"
   inkscape:version="1.3 (1:1.3+202307231459+0e150ed6c4)"
   width="2481"
   height="3503"
   sodipodi:docname="E24P06.svg"
   xmlns:inkscape="http://www.inkscape.org/namespaces/inkscape"
   xmlns:sodipodi="http://sodipodi.sourceforge.net/DTD/sodipodi-0.dtd"
   xmlns:xlink="http://www.w3.org/1999/xlink"
   xmlns="http://www.w3.org/2000/svg"
   xmlns:svg="http://www.w3.org/2000/svg"
   xmlns:rdf="http://www.w3.org/1999/02/22-rdf-syntax-ns#"
   xmlns:cc="http://creativecommons.org/ns#"
   xmlns:dc="http://purl.org/dc/elements/1.1/">
  <metadata
     id="metadata8">
    <rdf:RDF>
      <cc:Work
         rdf:about="">
        <dc:format>image/svg+xml</dc:format>
        <dc:type
           rdf:resource="http://purl.org/dc/dcmitype/StillImage" />
        <dc:title />
      </cc:Work>
    </rdf:RDF>
  </metadata>
  <defs
     id="defs6">
    <filter
       style="color-interpolation-filters:sRGB"
       id="filter4375-4-1-1-1-9"
       inkscape:label="deevad outline effect">
      <feFlood
         id="feFlood4377-7-9-0-8-1"
         flood-opacity="1"
         flood-color="rgb(0,0,0)"
         result="flood" />
      <feComposite
         id="feComposite4379-3-8-8-2-77"
         in2="SourceGraphic"
         in="flood"
         operator="in"
         result="composite1" />
      <feMorphology
         id="feMorphology4393-1-0-49-8-9"
         operator="dilate"
         radius="4"
         result="result3" />
      <feComposite
         id="feComposite4385-9-5-7-0-8"
         in2="result3"
         in="SourceGraphic"
         operator="over"
         result="composite2" />
    </filter>
    <filter
       inkscape:label="deevad trembling effect"
       inkscape:menu="Distort"
       inkscape:menu-tooltip="Paint objects with a transparent turbulence which wraps around color edges"
       height="1.0043702"
       y="-0.0021850919"
       width="1.0014586"
       x="-0.00072930019"
       style="color-interpolation-filters:sRGB;"
       id="filter1125">
      <feGaussianBlur
         stdDeviation="0.01"
         result="result10"
         id="feGaussianBlur1107"
         baseFrequency="0.019" />
      <feBlend
         in2="result10"
         mode="normal"
         in="result10"
         result="fbSourceGraphic"
         id="feBlend1109" />
      <feGaussianBlur
         stdDeviation="0.01"
         result="result8"
         in="fbSourceGraphic"
         id="feGaussianBlur1111" />
      <feTurbulence
         seed="0"
         result="result7"
         type="fractalNoise"
         numOctaves="1"
         baseFrequency="0.0040000000000000001"
         id="feTurbulence1113" />
      <feComposite
         in2="result8"
         result="result6"
         operator="in"
         in="result8"
         id="feComposite1115"
         baseFrequency="0.0089999999999999993" />
      <feDisplacementMap
         in2="result6"
         in="result7"
         xChannelSelector="R"
         yChannelSelector="G"
         scale="41.013071895424837"
         result="result4"
         id="feDisplacementMap1117" />
      <feComposite
         in2="result4"
         result="result2"
         operator="arithmetic"
         in="result8"
         k1="1"
         k3="1"
         id="feComposite1119"
         scale="41"
         k2="0"
         k4="0" />
      <feComposite
         in2="result2"
         result="fbSourceGraphic"
         in="fbSourceGraphic"
         operator="in"
         id="feComposite1121" />
      <feDisplacementMap
         in2="result4"
         yChannelSelector="G"
         scale="49.700000000000003"
         xChannelSelector="R"
         id="feDisplacementMap1123" />
    </filter>
    <filter
       style="color-interpolation-filters:sRGB"
       id="filter4375-4-1-1-1-9-5-8"
       inkscape:label="Drop Shadow">
      <feFlood
         id="feFlood4377-7-9-0-8-1-7-3"
         flood-opacity="1"
         flood-color="rgb(200,55,55)"
         result="flood" />
      <feComposite
         id="feComposite4379-3-8-8-2-77-4-1"
         in2="SourceGraphic"
         in="flood"
         operator="in"
         result="composite1" />
      <feMorphology
         id="feMorphology4393-1-0-49-8-9-3-0"
         operator="dilate"
         radius="6.2000000000000002"
         result="result3" />
      <feComposite
         id="feComposite4385-9-5-7-0-8-8-7"
         in2="result3"
         in="SourceGraphic"
         operator="over"
         result="fbSourceGraphic" />
      <feColorMatrix
         result="fbSourceGraphicAlpha"
         in="fbSourceGraphic"
         values="0 0 0 -1 0 0 0 0 -1 0 0 0 0 -1 0 0 0 0 1 0"
         id="feColorMatrix4544" />
      <feTurbulence
         id="feTurbulence4546"
         type="fractalNoise"
         numOctaves="3"
         seed="37"
         baseFrequency="0.129 0.0050000000000000001"
         result="turbulence" />
      <feDisplacementMap
         id="feDisplacementMap4548"
         in2="turbulence"
         in="fbSourceGraphic"
         scale="6.6"
         yChannelSelector="G"
         xChannelSelector="R"
         result="fbSourceGraphic" />
      <feColorMatrix
         result="fbSourceGraphicAlpha"
         in="fbSourceGraphic"
         values="0 0 0 -1 0 0 0 0 -1 0 0 0 0 -1 0 0 0 0 1 0"
         id="feColorMatrix4670" />
      <feFlood
         id="feFlood4672"
         flood-opacity="1"
         flood-color="rgb(80,22,22)"
         result="flood"
         in="fbSourceGraphic" />
      <feComposite
         id="feComposite4674"
         in2="fbSourceGraphic"
         in="flood"
         operator="in"
         result="composite1" />
      <feGaussianBlur
         id="feGaussianBlur4676"
         in="composite1"
         stdDeviation="0"
         result="blur" />
      <feOffset
         id="feOffset4678"
         dx="6"
         dy="6"
         result="offset" />
      <feComposite
         id="feComposite4680"
         in2="offset"
         in="fbSourceGraphic"
         operator="over"
         result="composite2" />
    </filter>
    <filter
       inkscape:label="deevad trembling effect"
       inkscape:menu="Distort"
       inkscape:menu-tooltip="Paint objects with a transparent turbulence which wraps around color edges"
       height="1.0030614"
       y="-0.001530686"
       width="1.0009873"
       x="-0.00049367362"
       style="color-interpolation-filters:sRGB"
       id="filter1125-2">
      <feGaussianBlur
         stdDeviation="0.01"
         result="result10"
         id="feGaussianBlur1107-0"
         baseFrequency="0.019" />
      <feBlend
         in2="result10"
         mode="normal"
         in="result10"
         result="fbSourceGraphic"
         id="feBlend1109-2" />
      <feGaussianBlur
         stdDeviation="0.01"
         result="result8"
         in="fbSourceGraphic"
         id="feGaussianBlur1111-3" />
      <feTurbulence
         seed="0"
         result="result7"
         type="fractalNoise"
         numOctaves="1"
         baseFrequency="0.0040000000000000001"
         id="feTurbulence1113-7" />
      <feComposite
         in2="result8"
         result="result6"
         operator="in"
         in="result8"
         id="feComposite1115-5"
         baseFrequency="0.0089999999999999993" />
      <feDisplacementMap
         in2="result6"
         in="result7"
         xChannelSelector="R"
         yChannelSelector="G"
         scale="41.013072"
         result="result4"
         id="feDisplacementMap1117-9" />
      <feComposite
         k4="0"
         k2="0"
         in2="result4"
         result="result2"
         operator="arithmetic"
         in="result8"
         k1="1"
         k3="1"
         id="feComposite1119-2"
         scale="41" />
      <feComposite
         in2="result2"
         result="fbSourceGraphic"
         in="fbSourceGraphic"
         operator="in"
         id="feComposite1121-2" />
      <feDisplacementMap
         in2="result4"
         yChannelSelector="G"
         scale="49.7"
         xChannelSelector="R"
         id="feDisplacementMap1123-8" />
    </filter>
    <filter
       inkscape:label="deevad trembling effect"
       inkscape:menu="Distort"
       inkscape:menu-tooltip="Paint objects with a transparent turbulence which wraps around color edges"
       height="1.0043702"
       y="-0.0021850919"
       width="1.0013491"
       x="-0.00067453403"
       style="color-interpolation-filters:sRGB"
       id="filter1125-1">
      <feGaussianBlur
         stdDeviation="0.01"
         result="result10"
         id="feGaussianBlur1107-2"
         baseFrequency="0.019" />
      <feBlend
         in2="result10"
         mode="normal"
         in="result10"
         result="fbSourceGraphic"
         id="feBlend1109-9" />
      <feGaussianBlur
         stdDeviation="0.01"
         result="result8"
         in="fbSourceGraphic"
         id="feGaussianBlur1111-31" />
      <feTurbulence
         seed="0"
         result="result7"
         type="fractalNoise"
         numOctaves="1"
         baseFrequency="0.0040000000000000001"
         id="feTurbulence1113-9" />
      <feComposite
         in2="result8"
         result="result6"
         operator="in"
         in="result8"
         id="feComposite1115-4"
         baseFrequency="0.0089999999999999993" />
      <feDisplacementMap
         in2="result6"
         in="result7"
         xChannelSelector="R"
         yChannelSelector="G"
         scale="41.013072"
         result="result4"
         id="feDisplacementMap1117-7" />
      <feComposite
         k4="0"
         k2="0"
         in2="result4"
         result="result2"
         operator="arithmetic"
         in="result8"
         k1="1"
         k3="1"
         id="feComposite1119-8"
         scale="41" />
      <feComposite
         in2="result2"
         result="fbSourceGraphic"
         in="fbSourceGraphic"
         operator="in"
         id="feComposite1121-4" />
      <feDisplacementMap
         in2="result4"
         yChannelSelector="G"
         scale="49.7"
         xChannelSelector="R"
         id="feDisplacementMap1123-5" />
    </filter>
    <filter
       inkscape:label="deevad trembling effect"
       inkscape:menu="Distort"
       inkscape:menu-tooltip="Paint objects with a transparent turbulence which wraps around color edges"
       height="1.0043702"
       y="-0.0021850919"
       width="1.0008522"
       x="-0.00042607927"
       style="color-interpolation-filters:sRGB"
       id="filter1125-1-1">
      <feGaussianBlur
         stdDeviation="0.01"
         result="result10"
         id="feGaussianBlur1107-2-0"
         baseFrequency="0.019" />
      <feBlend
         in2="result10"
         mode="normal"
         in="result10"
         result="fbSourceGraphic"
         id="feBlend1109-9-6" />
      <feGaussianBlur
         stdDeviation="0.01"
         result="result8"
         in="fbSourceGraphic"
         id="feGaussianBlur1111-31-3" />
      <feTurbulence
         seed="0"
         result="result7"
         type="fractalNoise"
         numOctaves="1"
         baseFrequency="0.0040000000000000001"
         id="feTurbulence1113-9-2" />
      <feComposite
         in2="result8"
         result="result6"
         operator="in"
         in="result8"
         id="feComposite1115-4-0"
         baseFrequency="0.0089999999999999993" />
      <feDisplacementMap
         in2="result6"
         in="result7"
         xChannelSelector="R"
         yChannelSelector="G"
         scale="41.013072"
         result="result4"
         id="feDisplacementMap1117-7-6" />
      <feComposite
         k4="0"
         k2="0"
         in2="result4"
         result="result2"
         operator="arithmetic"
         in="result8"
         k1="1"
         k3="1"
         id="feComposite1119-8-1"
         scale="41" />
      <feComposite
         in2="result2"
         result="fbSourceGraphic"
         in="fbSourceGraphic"
         operator="in"
         id="feComposite1121-4-5" />
      <feDisplacementMap
         in2="result4"
         yChannelSelector="G"
         scale="49.7"
         xChannelSelector="R"
         id="feDisplacementMap1123-5-5" />
    </filter>
  </defs>
  <sodipodi:namedview
     pagecolor="#ffffff"
     bordercolor="#666666"
     borderopacity="1"
     objecttolerance="10"
     gridtolerance="10"
     guidetolerance="10"
     inkscape:pageopacity="0"
     inkscape:pageshadow="2"
     inkscape:window-width="1920"
     inkscape:window-height="997"
     id="namedview4"
     showgrid="false"
     inkscape:zoom="0.26450001"
     inkscape:cx="982.98673"
     inkscape:cy="2291.1152"
     inkscape:window-x="0"
     inkscape:window-y="0"
     inkscape:window-maximized="1"
     inkscape:current-layer="layer3"
     inkscape:showpageshadow="0"
     inkscape:pagecheckerboard="0"
     inkscape:deskcolor="#d1d1d1" />
  <g
     inkscape:groupmode="layer"
     id="layer2"
     inkscape:label="artwork"
     sodipodi:insensitive="true">
    <image
       xlink:href="../gfx_Pepper-and-Carrot_by-David-Revoy_E24P06.png"
       width="2481"
       height="3503"
       id="image10"
       x="0"
       y="0" />
  </g>
  <g
     inkscape:groupmode="layer"
     id="layer3"
     inkscape:label="speechbubbles"
     style="display:inline">
    <path
       style="color:#000000;display:inline;overflow:visible;visibility:visible;fill:#ffe4a0;fill-opacity:1;fill-rule:nonzero;stroke:none;stroke-width:0.921765px;marker:none;enable-background:accumulate"
       d="m 1132.5936,474.98129 c -88.3052,0.7289 -219.38568,-12.81807 -249.53471,-60.48919 -30.1489,-47.67116 -32.99089,-126.18829 15.04515,-159.05564 48.03587,-32.86733 134.91466,-49.92682 211.67266,-48.44133 76.7582,1.48551 179.4645,25.17874 207.827,69.92526 28.3625,44.7464 17.2614,147.37741 -78.2805,176.80865 -95.542,29.43135 -106.7296,21.25225 -106.7296,21.25225 z"
       id="path3970"
       inkscape:connector-curvature="0"
       sodipodi:nodetypes="cccscsc" />
    <path
       style="color:#000000;display:inline;overflow:visible;visibility:visible;fill:#ffe4a0;fill-opacity:1;fill-rule:nonzero;stroke:none;stroke-width:0.981091px;marker:none;enable-background:accumulate"
       d="m 1044.6474,573.9362 c -1.8172,-72.12369 17.2032,-159.02835 203.1988,-167.88663 128.384,-6.11443 248.4336,62.31427 230.5996,145.50334 -15.842,73.89752 -76.6072,146.73458 -183.8189,149.22159 -107.2114,2.48701 -239.0767,-17.40927 -249.9795,-126.8383 z"
       id="path3565"
       inkscape:connector-curvature="0"
       sodipodi:nodetypes="csssc" />
    <path
       style="fill:#ffe4a0;fill-rule:evenodd;stroke:none;stroke-width:1.10827863px;stroke-linecap:butt;stroke-linejoin:miter;stroke-opacity:1;fill-opacity:1"
       d="m 1076.3647,224.52905 c -35.4882,-1.88303 -86.95131,11.5448 -57.1025,50.296 -65.17087,-25.39403 -156.63204,-34.5111 -178.15119,7.79105 -3.62151,-51.73967 -47.30244,-37.69039 -83.35495,-25.2315 34.31154,-21.24192 -28.79073,-31.70774 -62.57325,-32.16467 70.00713,-45.85796 32.08147,-59.20123 3.43225,-75.339 70.54202,10.92223 52.7947,-13.7893 60.73348,-28.13373 61.18314,30.86852 104.7143,22.34544 138.36344,-8.22912 18.58992,15.86671 25.3107,49.31402 90.37401,-3.65542 -23.13014,45.04669 8.85886,39.70893 60.20221,16.67968 -7.6818,15.33945 -55.42493,39.40883 26.1267,35.30341 -50.5373,15.47391 -60.6215,35.23169 1.9498,62.6833 z"
       id="path4584"
       inkscape:connector-curvature="0"
       sodipodi:nodetypes="cccccccccccc" />
    <path
       style="fill:#ffe4a0;fill-rule:evenodd;stroke:none;stroke-width:1px;stroke-linecap:butt;stroke-linejoin:miter;stroke-opacity:1;fill-opacity:1"
       d="m 1470.4601,660.2173 c 0,0 -18.7783,34.21336 -32.6212,27.91452 -13.843,-6.29892 -20.1572,-51.27318 -20.1572,-51.27318 0,0 -32.4046,35.857 -65.1595,12.26987 -32.7549,-23.58713 -32.8885,-75.08869 -12.3448,-56.25529 20.5438,18.83335 46.1365,71.22989 89.4202,2.96484 3.1607,69.22326 7.7961,64.32775 13.5666,66.07787 5.7706,1.75017 32.6213,-27.91444 40.3036,-37.66207 0.7828,49.71 2.2491,82.99287 66.864,59.24511 -31.5265,23.16855 -74.9291,26.8574 -79.8717,-23.28167 z"
       id="path4394"
       inkscape:connector-curvature="0"
       sodipodi:nodetypes="cscsscsccc" />
    <path
       style="color:#000000;display:inline;overflow:visible;visibility:visible;fill:#ffe4a0;fill-opacity:1;fill-rule:nonzero;stroke:none;stroke-width:1px;marker:none;enable-background:accumulate"
       d="m 305.70819,2324.3406 c 3.646,-50.9841 54.92648,-89.1272 189.49396,-81.8777 72.08158,3.8832 153.90315,5.8319 149.39762,80.5055 -4.50561,74.6734 -122.07753,74.792 -146.32561,76.9563 -24.24807,2.1645 -150.72738,-3.4677 -173.11298,-28.4549 -14.01287,-15.6412 -19.6739,-31.355 -19.45299,-47.1292 z"
       id="path4546-6"
       inkscape:connector-curvature="0"
       sodipodi:nodetypes="cssssc" />
    <path
       style="color:#000000;display:inline;overflow:visible;visibility:visible;fill:#ffe4a0;fill-opacity:1;fill-rule:nonzero;stroke:none;stroke-width:1px;marker:none;enable-background:accumulate"
       d="m 534.38829,2463.1918 c -5.60468,-24.2441 -12.05036,-25.1738 -25.83978,-29.9145 -13.78934,-4.7407 -29.4176,-13.271 -41.18387,-37.0527 -10.53976,-33.3197 -47.6517,-107.184 10.02392,-71.238 21.72968,10.3487 11.80541,52.372 17.48145,69.9483 5.67608,17.5761 30.50929,21.843 37.76565,34.8227 7.25638,12.9796 5.56819,19.9435 1.75263,33.4342 z"
       id="path4538"
       inkscape:connector-curvature="0"
       sodipodi:nodetypes="ccccccc" />
    <text
       xml:space="preserve"
       style="font-style:normal;font-variant:normal;font-weight:normal;font-stretch:normal;font-size:7.70021px;line-height:0%;font-family:Lavi;-inkscape-font-specification:Lavi;text-align:center;letter-spacing:0px;word-spacing:0px;text-anchor:middle;fill:#d16044;fill-opacity:1;stroke:none;stroke-width:1;filter:url(#filter1125)"
       x="410.73367"
       y="1900.4603"
       id="text4246-3-7-9-5-1-6-2-1"
       transform="matrix(0.85125208,-0.62031869,0.33985863,0.92708066,7.5614365,3.7807182)"><tspan
         sodipodi:role="line"
         style="font-size:28.8758px;line-height:1.25;fill:#d16044;fill-opacity:1;stroke-width:0.824252"
         x="410.73367"
         y="1900.4603"
         id="tspan1222-5">BRRrrr</tspan></text>
    <text
       xml:space="preserve"
       style="font-style:normal;font-variant:normal;font-weight:normal;font-stretch:normal;font-size:7.70021px;line-height:0%;font-family:Lavi;-inkscape-font-specification:Lavi;text-align:center;letter-spacing:0px;word-spacing:0px;text-anchor:middle;fill:#d16044;fill-opacity:1;stroke:none;stroke-width:1;filter:url(#filter1125)"
       x="1985.7361"
       y="1448.5387"
       id="text4246-3-7-9-5-1-6-2-1-2"
       transform="matrix(1.0442184,0.1379611,-0.3933369,0.90568678,0,0)"><tspan
         sodipodi:role="line"
         style="font-size:28.8758px;line-height:1.25;fill:#d16044;fill-opacity:1;stroke-width:0.824252"
         x="1985.7361"
         y="1448.5387"
         id="tspan1222-5-7">BRRr</tspan></text>
    <text
       xml:space="preserve"
       style="font-style:normal;font-variant:normal;font-weight:normal;font-stretch:normal;font-size:7.70021px;line-height:0%;font-family:Lavi;-inkscape-font-specification:Lavi;text-align:center;letter-spacing:0px;word-spacing:0px;text-anchor:middle;fill:#d16044;fill-opacity:1;stroke:none;stroke-width:1;filter:url(#filter1125)"
       x="655.12885"
       y="1771.0082"
       id="text4246-3-7-9-5-1-6-2-1-2-0"
       transform="matrix(0.87668998,-0.58381506,0.30040284,0.94060651,1.8903591,-5.6710774)"><tspan
         sodipodi:role="line"
         style="font-size:28.8758px;line-height:1.25;fill:#d16044;fill-opacity:1;stroke-width:0.824252"
         x="655.12885"
         y="1771.0082"
         id="tspan1222-5-7-9">BRRrrr</tspan></text>
    <text
       xml:space="preserve"
       style="font-style:normal;font-variant:normal;font-weight:normal;font-stretch:normal;font-size:7.70021px;line-height:0%;font-family:Lavi;-inkscape-font-specification:Lavi;text-align:center;letter-spacing:0px;word-spacing:0px;text-anchor:middle;fill:#d16044;fill-opacity:1;stroke:none;stroke-width:1;filter:url(#filter1125)"
       x="777.14801"
       y="1966.9062"
       id="text4246-3-7-9-5-1-6-2-1-2-0-3"
       transform="matrix(0.98150035,-0.38220729,0.09168173,0.98314644,15.122873,-5.6710774)"><tspan
         sodipodi:role="line"
         style="font-size:28.8758px;line-height:1.25;fill:#d16044;fill-opacity:1;stroke-width:0.824252"
         x="777.14801"
         y="1966.9062"
         id="tspan1222-5-7-9-6">BRRrrr</tspan></text>
    <text
       xml:space="preserve"
       style="font-style:normal;font-variant:normal;font-weight:normal;font-stretch:normal;font-size:7.70021px;line-height:0%;font-family:Lavi;-inkscape-font-specification:Lavi;text-align:center;letter-spacing:0px;word-spacing:0px;text-anchor:middle;fill:#d16044;fill-opacity:1;stroke:none;stroke-width:1;filter:url(#filter1125)"
       x="1923.7697"
       y="875.89478"
       id="text4246-3-7-9-5-1-6-2-1-2-06"
       transform="matrix(0.99644593,0.34135151,-0.56436057,0.8102343,1.8903591,-1.8903591)"><tspan
         sodipodi:role="line"
         style="font-size:28.8758px;line-height:1.25;fill:#d16044;fill-opacity:1;stroke-width:0.824252"
         x="1923.7697"
         y="875.89478"
         id="tspan1222-5-7-2">BRRrrr</tspan></text>
    <text
       xml:space="preserve"
       style="font-style:normal;font-variant:normal;font-weight:normal;font-stretch:normal;font-size:7.70021px;line-height:0%;font-family:Lavi;-inkscape-font-specification:Lavi;text-align:center;letter-spacing:0px;word-spacing:0px;text-anchor:middle;fill:#d16044;fill-opacity:1;stroke:none;stroke-width:1;filter:url(#filter1125)"
       x="2065.241"
       y="1539.2544"
       id="text4246-3-7-9-5-1-6-2-1-2-06-6"
       transform="matrix(1.0442184,0.1379611,-0.3933369,0.90568678,0,0)"><tspan
         sodipodi:role="line"
         style="font-size:28.8758px;line-height:1.25;fill:#d16044;fill-opacity:1;stroke-width:0.824252"
         x="2065.241"
         y="1539.2544"
         id="tspan1222-5-7-2-1">BRrr</tspan></text>
    <text
       xml:space="preserve"
       style="font-style:normal;font-variant:normal;font-weight:normal;font-stretch:normal;font-size:14.5587px;line-height:0%;font-family:Lavi;-inkscape-font-specification:Lavi;text-align:center;letter-spacing:0px;word-spacing:0px;text-anchor:middle;fill:#ebe9e2;fill-opacity:1;stroke:none;stroke-width:1"
       x="1686.5544"
       y="2585.2935"
       id="text4246-3-7-9-5-1-6-2-1-8"
       transform="matrix(1.0600479,-0.23035956,-0.08957656,0.96281952,0,0)"><tspan
         sodipodi:role="line"
         style="font-size:54.595px;line-height:1.25;fill:#ebe9e2;fill-opacity:1;stroke-width:0.824252"
         x="1686.5544"
         y="2585.2935"
         id="tspan1222-5-79">?</tspan></text>
    <text
       xml:space="preserve"
       style="font-style:normal;font-variant:normal;font-weight:normal;font-stretch:normal;font-size:14.5587px;line-height:0%;font-family:Lavi;-inkscape-font-specification:Lavi;text-align:center;letter-spacing:0px;word-spacing:0px;text-anchor:middle;fill:#ebe9e2;fill-opacity:1;stroke:none;stroke-width:1"
       x="2356.5422"
       y="2734.1533"
       id="text4246-3-7-9-5-1-6-2-1-8-3"
       transform="matrix(1.0600479,-0.23035956,-0.08957656,0.96281952,0,0)"><tspan
         sodipodi:role="line"
         style="font-size:54.595px;line-height:1.25;fill:#ebe9e2;fill-opacity:1;stroke-width:0.824252"
         x="2356.5422"
         y="2734.1533"
         id="tspan1222-5-79-6">!!</tspan></text>
    <text
       xml:space="preserve"
       style="font-style:normal;font-variant:normal;font-weight:normal;font-stretch:normal;font-size:7.70021px;line-height:0%;font-family:Lavi;-inkscape-font-specification:Lavi;text-align:center;letter-spacing:0px;word-spacing:0px;text-anchor:middle;opacity:0.626;fill:#d0be4d;fill-opacity:1;stroke:none;stroke-width:0.611505;filter:url(#filter1125-1)"
       x="1985.7361"
       y="1448.5387"
       id="text4246-3-7-9-5-1-6-2-1-2-03"
       transform="matrix(1.652839,0.44181846,-0.82392782,1.3977215,-1562.5452,-302.4474)"><tspan
         sodipodi:role="line"
         style="font-size:28.8758px;line-height:1.25;fill:#d0be4d;fill-opacity:1;stroke-width:0.504034"
         x="1985.7361"
         y="1448.5387"
         id="tspan1222-5-7-6">BRRr</tspan></text>
    <text
       xml:space="preserve"
       style="font-style:normal;font-variant:normal;font-weight:normal;font-stretch:normal;font-size:7.70021px;line-height:0%;font-family:Lavi;-inkscape-font-specification:Lavi;text-align:center;letter-spacing:0px;word-spacing:0px;text-anchor:middle;opacity:0.752;fill:#d0be4d;fill-opacity:1;stroke:none;stroke-width:0.63965;filter:url(#filter1125-1-1)"
       x="1985.7361"
       y="1448.5387"
       id="text4246-3-7-9-5-1-6-2-1-2-03-4"
       transform="matrix(1.5358218,0.41629511,-0.77005201,1.3826539,-1269.5728,-224.41367)"><tspan
         sodipodi:role="line"
         style="font-size:28.8758px;line-height:1.25;fill:#d0be4d;fill-opacity:1;stroke-width:0.527232"
         x="1985.7361"
         y="1448.5387"
         id="tspan1222-5-7-6-7">BRRrrrr</tspan></text>
    <text
       xml:space="preserve"
       style="font-style:normal;font-variant:normal;font-weight:normal;font-stretch:normal;font-size:12.0068px;line-height:0%;font-family:Lavi;-inkscape-font-specification:Lavi;text-align:center;letter-spacing:0px;word-spacing:0px;text-anchor:middle;fill:#d5b179;fill-opacity:1;stroke:none;stroke-width:1"
       x="1044.0333"
       y="3546.3018"
       id="text4246-3-7-9-5-1-6-2-1-8-3-6"
       transform="matrix(1.2153283,-0.20092692,-0.10269811,0.83980175,0,0)"><tspan
         sodipodi:role="line"
         style="font-size:45.0256px;line-height:1.25;fill:#d5b179;fill-opacity:1;stroke-width:0.824252"
         x="1044.0333"
         y="3546.3018"
         id="tspan1222-5-79-6-5">!!</tspan></text>
    <path
       style="fill:#ffe4a0;stroke:none;stroke-width:0.757729;fill-opacity:1"
       d="m 1523.8174,2646.3965 c -2.4315,-30.3805 2.5221,-96.4003 267.3539,-94.0465 266.7266,2.3705 288.2988,48.4614 303.4894,102.0289 26.9815,95.1445 -162.6026,92.7218 -323.5452,92.36 -219.9476,-0.4943 -249.8683,-45.45 -247.2981,-100.3424 z"
       id="path3280-8"
       inkscape:connector-curvature="0"
       sodipodi:nodetypes="csssc" />
    <path
       style="color:#000000;display:inline;overflow:visible;visibility:visible;fill:#ffe4a0;fill-opacity:1;fill-rule:nonzero;stroke:none;stroke-width:1.21322px;marker:none;enable-background:accumulate"
       d="m 1570.8972,2846.8536 c 5.72,-96.6589 78.2913,-167.8235 267.4823,-150.8809 101.3411,9.0752 216.4041,14.7103 209.2003,156.301 -7.204,141.5906 -172.5759,139.032 -206.7068,142.5647 -34.1315,3.5331 -211.9651,-10.149 -243.1612,-58.0935 -19.5282,-30.012 -27.3085,-59.964 -26.8146,-89.8913 z"
       id="path4546"
       inkscape:connector-curvature="0"
       sodipodi:nodetypes="cssssc" />
    <path
       style="color:#000000;display:inline;overflow:visible;visibility:visible;fill:#ffe4a0;fill-opacity:1;fill-rule:nonzero;stroke:none;stroke-width:1px;marker:none;enable-background:accumulate"
       d="m 1405.2078,2785.0833 c 27.2189,10.6931 31.1073,9.721 39.8563,-1.9442 8.7489,-11.6652 17.4978,-31.1073 43.7446,-34.9957 26.2468,-3.8884 38.8841,5.8326 47.633,11.6652 1.9442,-18.4699 21.8114,-47.3326 13.0625,-58.0257 -8.7489,-10.6932 23.8774,9.4206 23.8774,9.4206 0,0 8.749,47.633 -7.7768,65.1309 -16.5257,17.4978 -53.4656,-4.8605 -71.9356,-4.8605 -18.4699,0 -32.0794,26.2467 -46.6609,29.163 -14.5816,2.9163 -30.1352,-7.7768 -41.8005,-15.5536 z"
       id="path4538-7"
       inkscape:connector-curvature="0"
       sodipodi:nodetypes="ccscccsscc" />
  </g>
  <g
     inkscape:groupmode="layer"
     id="layer1"
     inkscape:label="txt"
     style="display:inline">
    <text
       xml:space="preserve"
       style="font-style:normal;font-variant:normal;font-weight:normal;font-stretch:normal;font-size:13.688px;line-height:0%;font-family:Lavi;-inkscape-font-specification:Lavi;text-align:center;letter-spacing:0px;word-spacing:0px;text-anchor:middle;fill:#000000;fill-opacity:1;stroke:#000000;stroke-width:1.8;stroke-miterlimit:4;stroke-dasharray:none;stroke-opacity:1"
       x="980.36102"
       y="199.19418"
       id="text4246-3-7-9-5-1-6-2"
       transform="matrix(0.92840736,0,-0.16338778,1.0771134,0,0)"><tspan
         sodipodi:role="line"
         style="font-size:51.33px;line-height:1.25;stroke:#000000;stroke-width:1.8;stroke-miterlimit:4;stroke-dasharray:none;stroke-opacity:1"
         x="980.36102"
         y="199.19418"
         id="tspan1222">KORENČEK!</tspan></text>
    <text
       xml:space="preserve"
       style="font-style:normal;font-variant:normal;font-weight:normal;font-stretch:normal;line-height:0%;font-family:Lavi;-inkscape-font-specification:Lavi;text-align:center;letter-spacing:0px;word-spacing:0px;text-anchor:middle;fill:#000000;fill-opacity:1;stroke:none"
       x="1098.8235"
       y="289.21799"
       id="text4246-7-6-1-7-6"><tspan
         sodipodi:role="line"
         style="font-size:45px;line-height:1.25"
         x="1098.8235"
         y="289.21799"
         id="tspan852">Čez minutko</tspan><tspan
         sodipodi:role="line"
         style="font-size:45px;line-height:1.25"
         x="1098.8235"
         y="345.46799"
         id="tspan10450">se vrnem s Timijano,</tspan><tspan
         sodipodi:role="line"
         style="font-size:45px;line-height:1.25"
         x="1098.8235"
         y="401.71799"
         id="tspan10452">Kajenko in Kumino.</tspan></text>
    <text
       xml:space="preserve"
       style="font-style:normal;font-variant:normal;font-weight:normal;font-stretch:normal;line-height:0%;font-family:Lavi;-inkscape-font-specification:Lavi;text-align:center;letter-spacing:0px;word-spacing:0px;text-anchor:middle;fill:#000000;fill-opacity:1;stroke:none"
       x="1261.2998"
       y="481.98633"
       id="text4246-7-6-1-7-6-3"><tspan
         sodipodi:role="line"
         style="font-size:45px;line-height:1.25"
         x="1261.2998"
         y="481.98633"
         id="tspan148">Ne dotikaj</tspan><tspan
         sodipodi:role="line"
         style="font-size:45px;line-height:1.25"
         x="1261.2998"
         y="538.23633"
         id="tspan1021">se drevesa, dokler</tspan><tspan
         sodipodi:role="line"
         style="font-size:45px;line-height:1.25"
         x="1261.2998"
         y="594.48633"
         id="tspan10460">ne pridem nazaj.</tspan><tspan
         sodipodi:role="line"
         style="font-size:45px;line-height:1.25"
         x="1261.2998"
         y="650.73633"
         id="tspan10464">A je jasno?</tspan></text>
    <text
       xml:space="preserve"
       style="font-style:normal;font-variant:normal;font-weight:normal;font-stretch:normal;line-height:0%;font-family:Lavi;-inkscape-font-specification:Lavi;text-align:center;letter-spacing:0px;word-spacing:0px;text-anchor:middle;fill:#000000;fill-opacity:1;stroke:none"
       x="480.39154"
       y="2309.71"
       id="text4246-7-6-1-7-6-3-5"><tspan
         sodipodi:role="line"
         style="font-size:45px;line-height:1.25"
         x="480.39154"
         y="2309.71"
         id="tspan10476">Prima! Takoj</tspan><tspan
         sodipodi:role="line"
         style="font-size:45px;line-height:1.25"
         x="480.39154"
         y="2365.96"
         id="tspan10480">se vrnem.</tspan></text>
    <text
       xml:space="preserve"
       style="font-style:normal;font-variant:normal;font-weight:normal;font-stretch:normal;line-height:0%;font-family:Lavi;-inkscape-font-specification:Lavi;text-align:center;letter-spacing:0px;word-spacing:0px;text-anchor:middle;fill:#000000;fill-opacity:1;stroke:none"
       x="1807.4852"
       y="2631.4919"
       id="text4246-7-6-1-7-6-3-5-6"><tspan
         sodipodi:role="line"
         style="font-size:45px;line-height:1.25"
         x="1807.4852"
         y="2631.4919"
         id="tspan779">Pripravite se, da boste</tspan><tspan
         sodipodi:role="line"
         style="font-size:45px;line-height:1.25"
         x="1807.4852"
         y="2687.7419"
         id="tspan129">osuple od presenečenja!</tspan></text>
    <text
       xml:space="preserve"
       style="font-style:normal;font-variant:normal;font-weight:normal;font-stretch:normal;line-height:0%;font-family:Lavi;-inkscape-font-specification:Lavi;text-align:center;letter-spacing:0px;word-spacing:0px;text-anchor:middle;fill:#000000;fill-opacity:1;stroke:none"
       x="1807.7158"
       y="2768.4487"
       id="text4246-7-6-1-7-6-3-5-6-4"><tspan
         sodipodi:role="line"
         x="1807.7158"
         y="2768.4487"
         id="tspan1454-4"
         style="font-size:45px;line-height:1.25">Nikoli še niste</tspan><tspan
         sodipodi:role="line"
         x="1807.7158"
         y="2824.6987"
         style="font-size:45px;line-height:1.25"
         id="tspan10781">videle česa takega.</tspan><tspan
         sodipodi:role="line"
         x="1807.7158"
         y="2880.9487"
         style="font-size:45px;line-height:1.25"
         id="tspan10783">Pridite z menoj gor,</tspan><tspan
         sodipodi:role="line"
         x="1807.7158"
         y="2937.1987"
         style="font-size:45px;line-height:1.25"
         id="tspan10497">da vam pokažem …</tspan></text>
    <text
       xml:space="preserve"
       style="font-style:normal;font-variant:normal;font-weight:normal;font-stretch:normal;font-size:7.70021px;line-height:0%;font-family:Lavi;-inkscape-font-specification:Lavi;text-align:center;letter-spacing:0px;word-spacing:0px;text-anchor:middle;fill:#653b1f;fill-opacity:1;stroke:none;stroke-width:0.328084;stroke-miterlimit:4;stroke-dasharray:none;stroke-opacity:1;filter:url(#filter1125-2)"
       x="1985.7361"
       y="1448.5387"
       id="text4246-3-7-9-5-1-6-2-1-2-9"
       transform="matrix(3.1180716,-0.69723004,-0.16135131,3.0155836,-3915.2949,-1485.9898)"
       inkscape:transform-center-x="-27.787838"
       inkscape:transform-center-y="38.482173"><tspan
         sodipodi:role="line"
         style="font-size:28.8758px;line-height:1.25;fill:#653b1f;fill-opacity:1;stroke:none;stroke-width:0.328084;stroke-miterlimit:4;stroke-dasharray:none;stroke-opacity:1"
         x="1985.7361"
         y="1448.5387"
         id="tspan1222-5-7-7"> Šruuf!!</tspan></text>
  </g>
</svg>
