<?xml version="1.0" encoding="UTF-8" standalone="no"?>
<!-- Created with Inkscape (http://www.inkscape.org/) -->

<svg
   id="svg2"
   version="1.1"
   inkscape:version="1.2.1 (9c6d41e410, 2022-07-14)"
   width="2481"
   height="3503"
   sodipodi:docname="E28P08.svg"
   xmlns:inkscape="http://www.inkscape.org/namespaces/inkscape"
   xmlns:sodipodi="http://sodipodi.sourceforge.net/DTD/sodipodi-0.dtd"
   xmlns:xlink="http://www.w3.org/1999/xlink"
   xmlns="http://www.w3.org/2000/svg"
   xmlns:svg="http://www.w3.org/2000/svg"
   xmlns:rdf="http://www.w3.org/1999/02/22-rdf-syntax-ns#"
   xmlns:cc="http://creativecommons.org/ns#"
   xmlns:dc="http://purl.org/dc/elements/1.1/">
  <metadata
     id="metadata8">
    <rdf:RDF>
      <cc:Work
         rdf:about="">
        <dc:format>image/svg+xml</dc:format>
        <dc:type
           rdf:resource="http://purl.org/dc/dcmitype/StillImage" />
        <dc:title />
      </cc:Work>
    </rdf:RDF>
  </metadata>
  <defs
     id="defs6" />
  <sodipodi:namedview
     pagecolor="#ffffff"
     bordercolor="#666666"
     borderopacity="1"
     objecttolerance="10"
     gridtolerance="10"
     guidetolerance="10"
     inkscape:pageopacity="0"
     inkscape:pageshadow="2"
     inkscape:window-width="1920"
     inkscape:window-height="947"
     id="namedview4"
     showgrid="false"
     inkscape:zoom="0.51498715"
     inkscape:cx="954.39275"
     inkscape:cy="2259.2797"
     inkscape:window-x="0"
     inkscape:window-y="92"
     inkscape:window-maximized="1"
     inkscape:current-layer="layer1"
     inkscape:showpageshadow="2"
     inkscape:pagecheckerboard="0"
     inkscape:deskcolor="#d1d1d1" />
  <g
     inkscape:groupmode="layer"
     id="layer2"
     inkscape:label="artwork"
     sodipodi:insensitive="true">
    <image
       xlink:href="../gfx_Pepper-and-Carrot_by-David-Revoy_E28P08.png"
       y="0"
       x="0"
       id="image10"
       height="3503"
       width="2481" />
  </g>
  <g
     inkscape:groupmode="layer"
     id="layer3"
     inkscape:label="speechbubbles">
    <path
       style="fill:#ffffff;fill-rule:evenodd;stroke:none;stroke-width:0.98556405px;stroke-linecap:butt;stroke-linejoin:miter;stroke-opacity:1"
       d="m 157.51781,1270.3143 c 16.2931,-46.5444 49.8377,-66.0083 60.38028,-71.0859 10.54258,-5.0775 60.38028,-14.3864 75.71496,-14.3864 15.33468,0 150.47149,-4.2313 177.30718,1.6925 26.83567,5.9239 76.67336,23.6953 92.00803,48.2368 15.33467,24.5415 34.50303,70.2395 26.83568,99.0123 -7.66734,28.7729 -11.50101,67.7008 -53.67136,92.2423 -42.17034,24.5414 -185.93294,31.3116 -224.26962,29.6191 -38.33668,-1.6925 -88.17437,-4.2312 -119.80213,-24.5414 -31.62776,-20.3103 -51.75453,-65.1622 -50.79611,-93.935 0.95842,-28.7727 16.29309,-66.8543 16.29309,-66.8543 z"
       id="path1079"
       inkscape:connector-curvature="0" />
    <path
       style="fill:#ffffff;fill-rule:evenodd;stroke:none;stroke-width:1px;stroke-linecap:butt;stroke-linejoin:miter;stroke-opacity:1"
       d="m 227.53576,1416.2623 c -20.60902,44.7713 -22.74099,55.4311 -24.1623,72.4869 -1.42132,17.0557 14.92377,43.35 35.5328,50.4565 20.60902,7.1066 33.40083,29.8476 24.1623,45.482 -9.23853,15.6345 -46.19264,77.4615 23.45165,96.6493 -66.80167,-29.1369 -24.16231,-76.7509 -17.05575,-87.4107 7.10656,-10.6599 19.89837,-34.8222 -8.52787,-60.4058 -28.42624,-25.5836 -38.37542,-39.7967 0,-89.5427 38.37542,-49.7459 -33.40083,-27.7155 -33.40083,-27.7155 z"
       id="path1081"
       inkscape:connector-curvature="0"
       sodipodi:nodetypes="ccccccssc" />
    <path
       style="fill:#ffffff;fill-rule:evenodd;stroke:none;stroke-width:0.95624369px;stroke-linecap:butt;stroke-linejoin:miter;stroke-opacity:1"
       d="m 311.19244,2090.3614 c 20.66455,-33.5164 55.468,-45.5479 88.09623,-44.6885 32.62824,0.8594 109.84838,7.7345 128.33772,7.7345 18.48933,0 101.14752,-4.297 139.21379,-2.5782 38.06627,1.7188 51.41025,6.1985 65.71898,28.533 10.87608,15.469 18.0221,36.2612 14.82543,61.3577 -6.41003,50.3239 -22.90121,54.4876 -62.05508,62.222 -39.15388,7.7346 -147.91465,7.7346 -204.47026,8.594 -56.5556,0.8594 -130.28166,-2.4201 -155.29664,-20.4674 -25.01498,-18.0472 -40.47275,-55.1593 -14.37017,-100.7071 z"
       id="path1083"
       inkscape:connector-curvature="0"
       sodipodi:nodetypes="cssscscscc" />
    <path
       style="fill:#ffffff;fill-rule:evenodd;stroke:none;stroke-width:1px;stroke-linecap:butt;stroke-linejoin:miter;stroke-opacity:1"
       d="m 521.52769,2076.2416 c -21.62867,-11.7413 -40.78548,-28.4263 -40.78548,-37.6957 0,-9.2694 14.83108,-37.0777 -11.74127,-37.6957 -26.57236,-0.6179 -37.69567,6.1796 -37.07771,-3.7077 0.61796,-9.8874 8.03351,-25.9544 21.62866,-30.2802 -31.51605,12.3593 -34.60585,34.6059 -27.19031,40.7855 7.41554,6.1796 10.67283,9.5522 36.18391,8.6549 20.28805,2.4824 -29.05118,18.071 7.69137,66.7364 32.13401,21.6287 51.29083,-6.7975 51.29083,-6.7975 z"
       id="path1085"
       inkscape:connector-curvature="0"
       sodipodi:nodetypes="cscscsccc" />
    <path
       style="fill:#ffffff;fill-rule:evenodd;stroke:none;stroke-width:0.99999994px;stroke-linecap:butt;stroke-linejoin:miter;stroke-opacity:1"
       d="m 1196.7567,1374.4067 c -2.0612,-17.5917 -18.7863,-50.2645 -51.4246,-16.1368 13.4861,-40.6864 -2.0483,-45.8436 -20.2475,-47.7381 14.3275,-14.6662 26.8461,-29.914 8.3492,-55.134 24.1301,-8.2443 29.8524,-28.7456 21.6847,-58.496 24.2775,23.2401 46.106,36.0759 52.4648,-16.8093 7.8988,41.4017 36.9104,48.8809 51.4071,4.7067 -2.1364,34.4681 6.0078,43.2805 21.8243,32.946 -9.212,21.6913 -6.6421,38.149 8.3629,49.0828 -25.8737,22.9443 -22.3046,36.8913 4.6106,43.7038 -43.282,5.9825 -37.4678,34.4558 -39.319,55.8065 -20.9277,-33.2159 -62.9528,-0.075 -57.7125,8.0684 z"
       id="path1087"
       inkscape:connector-curvature="0"
       sodipodi:nodetypes="cccccccccccc" />
    <path
       style="fill:#ffffff;fill-rule:evenodd;stroke:none;stroke-width:1px;stroke-linecap:butt;stroke-linejoin:miter;stroke-opacity:1"
       d="m 1191.0392,1352.1713 c -8.4109,39.2505 -9.8127,49.5304 -9.8127,58.8758 0,9.3453 7.2361,5.602 12.611,1.6262 3.5164,-2.5819 16.3596,-20.7842 5.6125,8.1864 -10.7472,28.9706 -24.2979,69.1557 -28.0361,81.7719 10.2799,-22.4289 27.5688,-57.474 32.7088,-68.6884 5.1399,-11.2144 13.3039,-31.7117 15.4198,-37.8487 2.574,-7.4657 2.2967,-14.9288 -5.6521,-13.2604 -12.5951,3.9915 -24.253,31.4839 -4.6278,-16.1775 19.6253,-47.6613 11.2144,-117.2842 11.2144,-117.2842 z"
       id="path1089"
       inkscape:connector-curvature="0"
       sodipodi:nodetypes="csccccscccc" />
    <path
       style="fill:#ffffff;fill-rule:evenodd;stroke:none;stroke-width:0.96909082px;stroke-linecap:butt;stroke-linejoin:miter;stroke-opacity:1"
       d="m 1337.1364,1194.2431 c 1.5846,-26.7819 -12.6773,-27.5935 14.2617,-28.405 26.9388,-0.8116 313.7594,-0.8116 366.0527,-0.8116 52.2934,0 93.4941,15.4199 112.5099,37.3324 19.0157,21.9124 50.0244,63.9836 -13.3615,88.3307 -63.3857,24.3473 -249.6895,13.9276 -320.9985,12.3045 -71.3089,-1.6233 -148.9566,-6.5016 -167.9722,-29.2257 -19.0158,-22.724 9.5079,-79.5253 9.5079,-79.5253 z"
       id="path1109"
       inkscape:connector-curvature="0"
       sodipodi:nodetypes="ccsccccc" />
    <path
       style="fill:#ffffff;fill-rule:evenodd;stroke:none;stroke-width:1.00000012px;stroke-linecap:butt;stroke-linejoin:miter;stroke-opacity:1"
       d="m 1690.8655,1296.6223 c 39.9911,28.5164 55.6635,46.8036 60.8709,58.9545 5.2075,12.1509 29.8934,57.7184 -19.1923,79.4903 68.3758,-16.3339 54.1954,-94.5494 8.7584,-145.0296 -14.0327,-11.4527 -50.437,6.5848 -50.437,6.5848 z"
       id="path1111"
       inkscape:connector-curvature="0"
       sodipodi:nodetypes="ccccc" />
    <path
       style="fill:#ffffff;fill-rule:evenodd;stroke:none;stroke-width:0.99061108px;stroke-linecap:butt;stroke-linejoin:miter;stroke-opacity:1"
       d="m 1996.5516,2024.4233 c -3.9766,-20.8641 2.1441,-44.097 18.3925,-59.4628 22.6857,-21.7705 55.5459,-29.9002 86.1403,-30.1199 14.5477,-0.1194 28.95,2.2435 42.6828,6.3638 45.6207,7.0417 93.0161,-6.4474 138.1586,4.2685 18.9808,4.6494 37.0347,15.6016 46.5877,32.3451 16.7483,37.594 15.7158,79.9963 13.9974,120.6338 -0.7568,11.5234 -0.4939,23.1153 -1.7385,34.5936 -4.7759,27.935 -24.2286,52.8825 -49.9772,66.3923 -25.7684,13.9288 -55.9705,18.6443 -84.6246,15.6263 -45.3028,2.5713 -92.1596,5.5877 -135.4224,-8.3209 -27.7919,-9.1594 -54.0795,-26.9162 -66.1891,-53.5038 -14.8084,-31.1273 -12.6171,-66.8544 -10.0233,-100.6537 0.723,-9.3854 1.5069,-18.7696 2.0158,-28.1623 z"
       id="path1113"
       inkscape:connector-curvature="0" />
    <path
       style="fill:#ffffff;fill-rule:evenodd;stroke:none;stroke-width:1px;stroke-linecap:butt;stroke-linejoin:miter;stroke-opacity:1"
       d="m 1888.6765,2156.0399 c 42.1519,38.9095 103.7586,57.2834 162.1228,3.2424 58.3643,-54.0409 82.1423,-58.3642 82.1423,-58.3642 0,0 -3.2425,50.7985 -58.3642,83.2231 -55.1218,32.4245 -125.375,41.0711 -185.9009,-28.1013 z"
       id="path1128"
       inkscape:connector-curvature="0" />
  </g>
  <g
     inkscape:groupmode="layer"
     id="layer1"
     inkscape:label="txt">
    <text
       xml:space="preserve"
       style="font-style:normal;font-variant:normal;font-weight:normal;font-stretch:normal;line-height:0%;font-family:Lavi;-inkscape-font-specification:Lavi;text-align:center;letter-spacing:0px;word-spacing:0px;text-anchor:middle;fill:#000000;fill-opacity:1;stroke:none"
       x="366.13651"
       y="1248.4037"
       id="text4246"><tspan
         sodipodi:role="line"
         style="font-size:45px;line-height:1.2"
         x="366.13651"
         y="1248.4037"
         id="tspan827">Eg fekk</tspan><tspan
         sodipodi:role="line"
         style="font-size:45px;line-height:1.2"
         x="366.13651"
         y="1302.4037"
         id="tspan876">forresten endeleg</tspan><tspan
         sodipodi:role="line"
         style="font-size:45px;line-height:1.2"
         x="366.13651"
         y="1356.4037"
         id="tspan858">treft gudmødrene</tspan><tspan
         sodipodi:role="line"
         style="font-size:45px;line-height:1.2"
         x="366.13651"
         y="1410.4037"
         id="tspan873">dine, Pepar.</tspan></text>
    <text
       xml:space="preserve"
       style="font-style:normal;font-variant:normal;font-weight:normal;font-stretch:normal;line-height:0%;font-family:Lavi;-inkscape-font-specification:Lavi;text-align:center;letter-spacing:0px;word-spacing:0px;text-anchor:middle;fill:#000000;fill-opacity:1;stroke:none"
       x="526.16211"
       y="2113.4351"
       id="text4246-3"><tspan
         sodipodi:role="line"
         style="font-size:45px;line-height:1.2"
         x="526.16211"
         y="2113.4351"
         id="tspan872">Dei er verkeleg</tspan><tspan
         sodipodi:role="line"
         style="font-size:45px;line-height:1.2"
         x="526.16211"
         y="2167.4351"
         id="tspan880">noko for seg sjølve.</tspan></text>
    <text
       xml:space="preserve"
       style="font-style:normal;font-variant:normal;font-weight:normal;font-stretch:normal;font-size:24.343px;line-height:0%;font-family:Lavi;-inkscape-font-specification:Lavi;text-align:center;letter-spacing:0px;word-spacing:0px;text-anchor:middle;fill:#000000;fill-opacity:1;stroke:none;stroke-width:1"
       x="1522.0032"
       y="1199.5613"
       id="text4246-3-5"
       transform="matrix(0.91106211,0,-0.15422983,1.09762,0,0)"><tspan
         sodipodi:role="line"
         style="font-size:91.2863px;line-height:1.2;stroke-width:1"
         x="1522.0032"
         y="1199.5613"
         id="tspan872-2">!!!</tspan></text>
    <text
       xml:space="preserve"
       style="font-style:normal;font-variant:normal;font-weight:normal;font-stretch:normal;line-height:0%;font-family:Lavi;-inkscape-font-specification:Lavi;text-align:center;letter-spacing:0px;word-spacing:0px;text-anchor:middle;fill:#000000;fill-opacity:1;stroke:none"
       x="1578.9889"
       y="1252.6771"
       id="text4246-3-9"><tspan
         sodipodi:role="line"
         style="font-size:45px;line-height:1.2"
         x="1578.9889"
         y="1252.6771"
         id="tspan920">Altså, du er så heldig!</tspan></text>
    <text
       xml:space="preserve"
       style="font-style:normal;font-variant:normal;font-weight:normal;font-stretch:normal;line-height:0%;font-family:Lavi;-inkscape-font-specification:Lavi;text-align:center;letter-spacing:0px;word-spacing:0px;text-anchor:middle;fill:#000000;fill-opacity:1;stroke:none"
       x="2168.0952"
       y="2014.8156"
       id="text4246-3-9-0"><tspan
         sodipodi:role="line"
         style="font-size:45px;line-height:1.2"
         x="2168.0952"
         y="2014.8156"
         id="tspan949">Du får sikkert</tspan><tspan
         sodipodi:role="line"
         style="font-size:45px;line-height:1.2"
         x="2168.0952"
         y="2068.8157"
         id="tspan893">lov av dei til</tspan><tspan
         sodipodi:role="line"
         style="font-size:45px;line-height:1.2"
         x="2168.0952"
         y="2122.8157"
         id="tspan899">å gjera nett</tspan><tspan
         sodipodi:role="line"
         style="font-size:45px;line-height:1.2"
         x="2168.0952"
         y="2176.8157"
         id="tspan868">kva du vil.</tspan></text>
    <text
       xml:space="preserve"
       style="font-style:normal;font-variant:normal;font-weight:normal;font-stretch:normal;line-height:0%;font-family:Lavi;-inkscape-font-specification:Lavi;text-align:center;letter-spacing:0px;word-spacing:0px;text-anchor:middle;fill:#000000;fill-opacity:1;stroke:none"
       x="1378.5385"
       y="2356.502"
       id="text4246-3-9-0-6-1"><tspan
         sodipodi:role="line"
         style="font-size:45px;line-height:1.2"
         x="1378.5385"
         y="2356.502"
         id="tspan869">Eller dansa og</tspan><tspan
         sodipodi:role="line"
         style="font-size:45px;line-height:1.2"
         x="1378.5385"
         y="2410.502"
         id="tspan943">kosa deg utan å</tspan><tspan
         sodipodi:role="line"
         style="font-size:45px;line-height:1.2"
         x="1378.5385"
         y="2464.502"
         id="tspan945">måtta bry deg om</tspan><tspan
         sodipodi:role="line"
         style="font-size:45px;line-height:1.2"
         x="1378.5385"
         y="2518.502"
         id="tspan921">kva folk måtte</tspan><tspan
         sodipodi:role="line"
         style="font-size:45px;line-height:1.2"
         x="1378.5385"
         y="2572.502"
         id="tspan923">meina!</tspan></text>
    <text
       xml:space="preserve"
       style="font-style:normal;font-variant:normal;font-weight:normal;font-stretch:normal;line-height:0%;font-family:Lavi;-inkscape-font-specification:Lavi;text-align:center;letter-spacing:0px;word-spacing:0px;text-anchor:middle;fill:#000000;fill-opacity:1;stroke:none"
       x="601.82458"
       y="2363.3579"
       id="text4246-3-9-0-6-1-3"><tspan
         sodipodi:role="line"
         style="font-size:45px;line-height:1.2"
         x="601.82458"
         y="2363.3579"
         id="tspan923-5">Som å droppa å</tspan><tspan
         sodipodi:role="line"
         style="font-size:45px;line-height:1.2"
         x="601.82458"
         y="2417.3579"
         id="tspan652">vera overdrive</tspan><tspan
         sodipodi:role="line"
         style="font-size:45px;line-height:1.2"
         x="601.82458"
         y="2471.3579"
         id="tspan654">høfleg utan</tspan><tspan
         sodipodi:role="line"
         style="font-size:45px;line-height:1.2"
         x="601.82458"
         y="2525.3579"
         id="tspan656">å måtta frykta</tspan><tspan
         sodipodi:role="line"
         style="font-size:45px;line-height:1.2"
         x="601.82458"
         y="2579.3579"
         id="tspan658">ei diplomatisk</tspan><tspan
         sodipodi:role="line"
         style="font-size:45px;line-height:1.2"
         x="601.82458"
         y="2633.3579"
         id="tspan660">krise.</tspan></text>
    <text
       xml:space="preserve"
       style="font-style:normal;font-variant:normal;font-weight:normal;font-stretch:normal;line-height:0%;font-family:Lavi;-inkscape-font-specification:Lavi;text-align:center;letter-spacing:0px;word-spacing:0px;text-anchor:middle;fill:#000000;fill-opacity:1;stroke:none"
       x="1871.3203"
       y="2356.502"
       id="text4246-3-9-0-6-1-0"><tspan
         sodipodi:role="line"
         style="font-size:45px;line-height:1.2"
         x="1871.3203"
         y="2356.502"
         id="tspan881">Eller prøva all maten</tspan><tspan
         sodipodi:role="line"
         style="font-size:45px;line-height:1.2"
         x="1871.3203"
         y="2410.502"
         id="tspan962">på bufféen utan</tspan><tspan
         sodipodi:role="line"
         style="font-size:45px;line-height:1.2"
         x="1871.3203"
         y="2464.502"
         id="tspan964">å vera uroa for at</tspan><tspan
         sodipodi:role="line"
         style="font-size:45px;line-height:1.2"
         x="1871.3203"
         y="2518.502"
         id="tspan966">nokon skulle koma</tspan><tspan
         sodipodi:role="line"
         style="font-size:45px;line-height:1.2"
         x="1871.3203"
         y="2572.502"
         id="tspan950">til å sjå deg!</tspan></text>
  </g>
</svg>
