<?xml version="1.0" encoding="UTF-8" standalone="no"?>
<!-- Created with Inkscape (http://www.inkscape.org/) -->

<svg
   xmlns:dc="http://purl.org/dc/elements/1.1/"
   xmlns:cc="http://creativecommons.org/ns#"
   xmlns:rdf="http://www.w3.org/1999/02/22-rdf-syntax-ns#"
   xmlns:svg="http://www.w3.org/2000/svg"
   xmlns="http://www.w3.org/2000/svg"
   xmlns:xlink="http://www.w3.org/1999/xlink"
   xmlns:sodipodi="http://sodipodi.sourceforge.net/DTD/sodipodi-0.dtd"
   xmlns:inkscape="http://www.inkscape.org/namespaces/inkscape"
   id="svg2"
   version="1.1"
   inkscape:version="0.92.2 (5c3e80d, 2017-08-06)"
   width="2481"
   height="3503"
   sodipodi:docname="Pepper-and-Carrot_by-David-Revoy_E14P01.svg"
   inkscape:export-filename="E:\Users\jamesmichael\Downloads\Compressed\eps\peppercarrot_ep14_translation-master\peppercarrot_ep14_translation-master\ph\Pepper-and-Carrot_by-David-Revoy_E14P01.png"
   inkscape:export-xdpi="98.181801"
   inkscape:export-ydpi="98.181801">
  <metadata
     id="metadata8">
    <rdf:RDF>
      <cc:Work
         rdf:about="">
        <dc:format>image/svg+xml</dc:format>
        <dc:type
           rdf:resource="http://purl.org/dc/dcmitype/StillImage" />
        <dc:title />
      </cc:Work>
    </rdf:RDF>
  </metadata>
  <defs
     id="defs6">
    <filter
       inkscape:collect="always"
       style="color-interpolation-filters:sRGB"
       id="filter5841"
       x="-0.0028565165"
       width="1.005713"
       y="-0.017347847"
       height="1.0346957">
      <feGaussianBlur
         inkscape:collect="always"
         stdDeviation="0.3401381"
         id="feGaussianBlur5843" />
    </filter>
    <filter
       inkscape:collect="always"
       style="color-interpolation-filters:sRGB"
       id="filter4781"
       x="-0.010545129"
       width="1.0210903"
       y="-0.061422802"
       height="1.1228456">
      <feGaussianBlur
         inkscape:collect="always"
         stdDeviation="0.46603759"
         id="feGaussianBlur4783" />
    </filter>
    <filter
       inkscape:collect="always"
       style="color-interpolation-filters:sRGB"
       id="filter4813"
       x="-0.066799245"
       width="1.1335985"
       y="-0.093713716"
       height="1.1874274">
      <feGaussianBlur
         inkscape:collect="always"
         stdDeviation="0.88793856"
         id="feGaussianBlur4815" />
    </filter>
    <filter
       inkscape:collect="always"
       style="color-interpolation-filters:sRGB"
       id="filter4833"
       x="-0.012663071"
       width="1.0253261"
       y="-0.031112596"
       height="1.0622252">
      <feGaussianBlur
         inkscape:collect="always"
         stdDeviation="0.52769825"
         id="feGaussianBlur4835" />
    </filter>
    <filter
       inkscape:collect="always"
       style="color-interpolation-filters:sRGB"
       id="filter4206"
       x="-0.012391832"
       width="1.0247837"
       y="-0.057763632"
       height="1.1155273">
      <feGaussianBlur
         inkscape:collect="always"
         stdDeviation="0.53741041"
         id="feGaussianBlur4208" />
    </filter>
    <clipPath
       clipPathUnits="userSpaceOnUse"
       id="clipPath944">
      <path
         style="color:#000000;display:inline;overflow:visible;visibility:visible;fill:#ffffff;fill-opacity:1;fill-rule:nonzero;stroke:#000000;stroke-width:1.23606145px;stroke-opacity:1;marker:none;enable-background:accumulate"
         d="m 1927.7725,1542.3321 c 5.5049,-107.7427 26.8986,-174.0405 45.8767,-208.2828 20.3056,-36.6376 136.2877,-35.5559 165.3139,-39.3366 29.0262,-3.7803 100.8143,9.5802 137.3474,75.7379 36.5329,66.1582 40.0613,133.6474 40.5618,184.6833 0.5004,51.0359 -2.6189,196.9276 -50.5867,228.7171 -44.6134,29.5665 -148.3631,43.0456 -174.887,35.4846 -26.5239,-7.5608 -116.3208,-0.8335 -141.3434,-89.6736 -25.0226,-88.8407 -21.7823,-123.0624 -22.2827,-187.3299 z"
         id="path946"
         inkscape:connector-curvature="0"
         sodipodi:nodetypes="csssssssc"
         clip-path="none" />
    </clipPath>
    <filter
       inkscape:collect="always"
       style="color-interpolation-filters:sRGB"
       id="filter956"
       x="-0.002096928"
       width="1.0041939"
       y="-0.00280548"
       height="1.005611">
      <feGaussianBlur
         inkscape:collect="always"
         stdDeviation="0.90817935"
         id="feGaussianBlur958" />
    </filter>
    <clipPath
       clipPathUnits="userSpaceOnUse"
       id="clipPath1116">
      <path
         style="fill:#ffffff;stroke:none;stroke-width:1.35224867"
         d="m 1239.0157,1385.3969 c -2.4018,118.4982 -89.0692,188.8061 -130.3679,199.141 -32.6189,8.1628 -151.41775,66.7338 -184.35122,5.0553 51.82602,-63.0878 49.85691,-75.1168 44.66573,-105.2536 -5.22815,-30.3515 -46.54928,-55.8366 -70.44587,-65.7741 -17.48306,-92.9364 -4.49253,-148.8825 13.57301,-208.1733 19.06168,-62.5601 66.9483,-97.714 109.17315,-117.2979 52.4307,-24.3171 118.2664,-7.8586 159.217,42.3162 41.5079,50.8582 60.9379,131.4886 58.5361,249.9864 z"
         id="path1118"
         inkscape:connector-curvature="0"
         sodipodi:nodetypes="zscscsssz" />
    </clipPath>
    <clipPath
       clipPathUnits="userSpaceOnUse"
       id="clipPath1126">
      <path
         sodipodi:nodetypes="zscscsssz"
         inkscape:connector-curvature="0"
         id="path1128"
         d="m 1239.0157,1385.3969 c -2.4018,118.4982 -89.0692,188.8061 -130.3679,199.141 -32.6189,8.1628 -151.41775,66.7338 -184.35122,5.0553 51.82602,-63.0878 49.85691,-75.1168 44.66573,-105.2536 -5.22815,-30.3515 -46.54928,-55.8366 -70.44587,-65.7741 -17.48306,-92.9364 -4.49253,-148.8825 13.57301,-208.1733 19.06168,-62.5601 66.9483,-97.714 109.17315,-117.2979 52.4307,-24.3171 118.2664,-7.8586 159.217,42.3162 41.5079,50.8582 60.9379,131.4886 58.5361,249.9864 z"
         style="fill:#000000;stroke:none;stroke-width:1.35224867"
         clip-path="none" />
    </clipPath>
    <filter
       inkscape:collect="always"
       style="color-interpolation-filters:sRGB"
       id="filter1138"
       x="-0.0032512722"
       width="1.0065025"
       y="-0.0022054475"
       height="1.0044109">
      <feGaussianBlur
         inkscape:collect="always"
         stdDeviation="0.38530511"
         id="feGaussianBlur1140" />
    </filter>
    <filter
       inkscape:collect="always"
       style="color-interpolation-filters:sRGB"
       id="filter1142"
       x="-0.0056120052"
       width="1.011224"
       y="-0.005042507"
       height="1.010085">
      <feGaussianBlur
         inkscape:collect="always"
         stdDeviation="0.38530511"
         id="feGaussianBlur1144" />
    </filter>
  </defs>
  <sodipodi:namedview
     pagecolor="#ffffff"
     bordercolor="#666666"
     borderopacity="1"
     objecttolerance="10"
     gridtolerance="10"
     guidetolerance="10"
     inkscape:pageopacity="0"
     inkscape:pageshadow="2"
     inkscape:window-width="1366"
     inkscape:window-height="705"
     id="namedview4"
     showgrid="false"
     inkscape:zoom="0.27851542"
     inkscape:cx="1462.9715"
     inkscape:cy="2594.1191"
     inkscape:window-x="-8"
     inkscape:window-y="-8"
     inkscape:window-maximized="1"
     inkscape:current-layer="layer3" />
  <g
     inkscape:groupmode="layer"
     id="layer2"
     inkscape:label="artwork"
     sodipodi:insensitive="true">
    <image
       sodipodi:absref="E:\Users\jamesmichael\Downloads\Compressed\eps\peppercarrot_ep14_translation-master\peppercarrot_ep14_translation-master\ph\../gfx_Pepper-and-Carrot_by-David-Revoy_E14P01.png"
       xlink:href="../gfx_Pepper-and-Carrot_by-David-Revoy_E14P01.png"
       y="0"
       x="0"
       id="image10"
       height="3503"
       width="2481" />
  </g>
  <g
     inkscape:groupmode="layer"
     id="layer3"
     inkscape:label="speechbubbles">
    <path
       style="fill:#ffffff;stroke:none;stroke-width:1.10214686;filter:url(#filter1138)"
       d="m 1195.1559,1413.6632 c -1.9576,96.5816 -72.5958,153.8854 -106.256,162.3093 -33.6601,8.4234 -122.98883,37.9063 -156.64898,-75.8136 -33.66008,-113.7201 -21.77402,-169.3398 -3.55545,-229.1329 15.5362,-50.9894 54.566,-79.6415 88.98133,-95.6033 42.7335,-19.8196 96.3927,-6.4052 129.7694,34.4897 33.8309,41.4518 49.6673,107.1694 47.7097,203.7508 z"
       id="path3100"
       inkscape:connector-curvature="0"
       sodipodi:nodetypes="zsssssz"
       clip-path="url(#clipPath1116)" />
    <path
       style="color:#000000;display:inline;overflow:visible;visibility:visible;fill:#ffffff;fill-opacity:1;fill-rule:nonzero;stroke:none;stroke-width:1.46847558px;marker:none;enable-background:accumulate;filter:url(#filter1142)"
       d="m 928.00518,1652.5877 c 128.06152,-45.485 143.67652,-104.1493 162.40352,-162.4394 18.727,-58.2901 -79.4894,23.5669 -79.4894,23.5669 0,0 29.9648,45.9588 -82.91412,138.8725 z"
       id="path5002"
       inkscape:connector-curvature="0"
       sodipodi:nodetypes="cscc" />
    <path
       sodipodi:nodetypes="cssccccccsccsccccccccccccccccccsccc"
       inkscape:connector-curvature="0"
       id="path915"
       d="m 1461.7683,1236.5187 c -5.7912,-4.3666 -17.6189,-25.2428 -19.2989,-37.6999 -2.4179,-17.929 -13.3789,-19.1152 -18.9787,-16.8045 -19.5036,8.0478 -37.3394,47.9952 -33.9806,66.1734 3.5905,23.338 -10.7714,-105.9187 -10.7714,-105.9187 l 1014.3065,5.3857 25.1333,753.9977 -73.95,17.5355 c -5.9947,-10.9486 -7.6195,-18.1514 -18.867,-33.6023 0,0 41.7161,-49.2128 35.3602,-73.5952 -6.1281,-23.5085 -85.7615,1.1612 -102.2287,18.6958 m 0,0 c -0.8608,-1.1939 -28.0433,-20.0131 -80.4284,-30.8805 -54.0674,-11.2163 -125.1227,-12.9892 -167.0773,22.2311 h -1.7952 c -36.7983,-18.347 -78.4719,-33.4637 -94.3229,-22.9211 6.3277,0 -5.7964,-46.1979 -14.7537,-46.0031 2.028,0.199 6.1223,-6.6825 1.4847,-9.8895 9.346,-8.9273 11.5563,-11.0968 8.3929,-18.4716 5.2566,-8.0708 9.5594,-16.9842 9.5594,-16.9842 6.7714,-18.2334 19.2261,-14.2952 17.5036,-27.8261 8.019,-1.3762 10.5267,-5.5081 8.9762,-11.6691 4.9237,-0.9354 7.6705,-4.0478 7.8078,-9.7696 -1.5091,-19.2831 7.4382,-15.9106 12.3885,-21.1981 0,0 33.2118,-42.188 -0.4488,-78.5414 11.7928,-6.9813 -1.5126,-12.4226 -4.4881,-10.7715 10.1234,-59.124 54.2046,-180.1198 9.8738,-246.8444 -9.1605,-14.6131 -30.1232,-5.8422 -33.2118,-0.4488 0,0 -54.7546,-2.244 -62.3843,43.5344 8.4154,14.0256 -55.5379,-56.5983 -125.8875,-78.7626 -29.2055,-9.2014 -61.0454,-9.5972 -103.4535,-15.4872 -20.4561,-21.2649 -37.1662,-56.7652 -75.412,-52.1905 -14.5964,1.7458 -38.8069,17.7901 -51.6007,31.0965 v 0 c 2.1025,-1.1213 -26.5066,-17.053 -57.4474,7.6298"
       style="fill:#ffffff;fill-opacity:1;stroke:none;stroke-width:1px;stroke-linecap:butt;stroke-linejoin:miter;stroke-opacity:1;filter:url(#filter956)"
       clip-path="url(#clipPath944)" />
    <path
       style="fill:#ffffff;fill-opacity:1;stroke:none;stroke-width:1.06522489"
       d="m 209.80091,2370.7177 c -8.7263,-157.7944 39.4193,-215.5738 169.3799,-223.077 129.9605,-7.5033 163.1225,80.762 173.8884,135.4771 10.766,54.7155 -6.2233,195.5743 -84.9485,265.8396 -78.7252,70.265 -215.383,-0.8643 -233.3414,-43.9389 -17.9584,-43.0746 -22.9842,-93.0271 -24.9784,-134.3008 z"
       id="path3238"
       inkscape:connector-curvature="0" />
    <path
       style="color:#000000;display:inline;overflow:visible;visibility:visible;fill:#ffffff;fill-opacity:1;fill-rule:nonzero;stroke:none;stroke-width:1.12071776px;marker:none;enable-background:accumulate"
       d="m 1054.388,3328.0757 c -34.6556,85.3656 -62.34297,128.687 -171.62933,124.8894 -109.28639,-3.7979 -129.67514,-17.9489 -144.4962,-38.7122 -14.82087,-20.7629 -45.45149,-142.1319 -34.68955,-224.4657 10.76213,-82.334 63.39194,-167.3227 170.58902,-161.3197 107.19706,6.0033 110.3358,16.9527 127.25376,33.4807 44.6443,43.6149 87.6279,180.7619 52.9723,266.1275 z"
       id="path4530"
       inkscape:connector-curvature="0"
       sodipodi:nodetypes="zsssssz" />
    <path
       style="fill:#ffffff;stroke:none;stroke-width:1.3557353"
       d="m 1115.6147,3139.5751 c -4.4588,54.2079 -23.1031,42.4081 -45.1235,26.5921 -22.0203,-15.8157 -42.8747,-33.2578 -49.1817,-27.3682 -6.307,5.8897 -6.0202,24.3941 -3.7902,40.1878 2.2302,15.7943 -10.7788,7.911 -24.59832,1.0134 -13.81933,-6.8971 -75.13457,-16.0302 -75.13457,-16.0302 0,0 65.00406,62.0096 84.17869,74.5241 19.1749,12.5146 26.2263,17.2198 32.9943,19.4117 6.7679,2.192 21.5229,3.4222 23.2517,-9.1692 1.7289,-12.5911 -4.4071,-33.1151 -5.8237,-45.6811 -1.4163,-12.5661 9.7407,-15.6242 25.2038,-8.1109 15.4628,7.5128 47.3343,16.5661 47.4,-6.7922 0.066,-23.3586 -9.3773,-48.5778 -9.3773,-48.5778 z"
       id="path3023"
       inkscape:connector-curvature="0"
       sodipodi:nodetypes="csssscssssssc"
       inkscape:transform-center-x="48.714242"
       inkscape:transform-center-y="24.926989" />
    <text
       id="text1114"
       y="1283.6677"
       x="1057.7021"
       style="font-style:normal;font-variant:normal;font-weight:normal;font-stretch:normal;line-height:0%;font-family:Lavi;-inkscape-font-specification:Lavi;text-align:center;letter-spacing:0px;word-spacing:0px;text-anchor:middle;fill:#4d4d4d;fill-opacity:1;stroke:none;"
       xml:space="preserve"
       clip-path="url(#clipPath1126)"><tspan
         id="tspan1104"
         y="1283.6677"
         x="1065.6123"
         style="font-size:45px;line-height:1.25;fill:#4d4d4d;"
         sodipodi:role="line">tignan mo </tspan><tspan
         id="tspan1106"
         y="1339.9177"
         x="1057.7021"
         style="font-size:45px;line-height:1.25;fill:#4d4d4d;"
         sodipodi:role="line">nga naman!</tspan><tspan
         id="tspan1108"
         y="1396.1677"
         x="1065.6123"
         style="font-size:45px;line-height:1.25;fill:#4d4d4d;"
         sodipodi:role="line">Tapos </tspan><tspan
         id="tspan1110"
         y="1452.4177"
         x="1065.6123"
         style="font-size:45px;line-height:1.25;fill:#4d4d4d;"
         sodipodi:role="line">na ang </tspan><tspan
         id="tspan1112"
         y="1508.6677"
         x="1057.7021"
         style="font-size:45px;line-height:1.25;fill:#4d4d4d;"
         sodipodi:role="line">bakasyon!</tspan></text>
  </g>
  <g
     inkscape:groupmode="layer"
     id="layer1"
     inkscape:label="txt"
     style="opacity:1">
    <text
       xml:space="preserve"
       style="font-style:normal;font-variant:normal;font-weight:normal;font-stretch:normal;line-height:0%;font-family:Lavi;-inkscape-font-specification:Lavi;text-align:center;letter-spacing:0px;word-spacing:0px;text-anchor:middle;fill:#000000;fill-opacity:1;stroke:none"
       x="1039.3318"
       y="1913.4773"
       id="text4246-7"><tspan
         sodipodi:role="line"
         style="font-size:45px;line-height:1.25"
         x="1039.3318"
         y="1916.9651"
         id="tspan876" /></text>
    <text
       xml:space="preserve"
       style="font-style:normal;font-variant:normal;font-weight:normal;font-stretch:normal;line-height:0%;font-family:Lavi;-inkscape-font-specification:Lavi;text-align:center;letter-spacing:0px;word-spacing:0px;text-anchor:middle;fill:#000000;fill-opacity:1;stroke:none"
       x="379.85007"
       y="2265.5369"
       id="text4246-7-9"><tspan
         sodipodi:role="line"
         style="font-size:45px;line-height:1.25"
         x="379.85007"
         y="2265.5369"
         id="tspan3052">Hmm... iha,</tspan><tspan
         sodipodi:role="line"
         style="font-size:45px;line-height:1.25"
         x="387.76022"
         y="2321.7869"
         id="tspan1152">W'la na tayong </tspan><tspan
         sodipodi:role="line"
         style="font-size:45px;line-height:1.25"
         x="387.76022"
         y="2378.0369"
         id="tspan1148">pinulbos na </tspan><tspan
         sodipodi:role="line"
         style="font-size:45px;line-height:1.25"
         x="387.76022"
         y="2434.2869"
         id="tspan1158">pangil ng </tspan><tspan
         sodipodi:role="line"
         style="font-size:45px;line-height:1.25"
         x="379.85007"
         y="2490.5369"
         id="tspan1160">Mandragon</tspan></text>
    <text
       xml:space="preserve"
       style="font-style:normal;font-variant:normal;font-weight:normal;font-stretch:normal;line-height:0%;font-family:Lavi;-inkscape-font-specification:Lavi;text-align:center;letter-spacing:0px;word-spacing:0px;text-anchor:middle;fill:#000000;fill-opacity:1;stroke:none"
       x="886.04724"
       y="3159.177"
       id="text4246-7-9-4"><tspan
         sodipodi:role="line"
         style="font-size:45px;line-height:1.25"
         x="893.9574"
         y="3159.177"
         id="tspan3065">Mukhang </tspan><tspan
         sodipodi:role="line"
         style="font-size:45px;line-height:1.25"
         x="893.9574"
         y="3215.427"
         id="tspan4864">hindi na tayo </tspan><tspan
         sodipodi:role="line"
         style="font-size:45px;line-height:1.25"
         x="886.04724"
         y="3271.677"
         id="tspan4866">makakapagklase</tspan><tspan
         sodipodi:role="line"
         style="font-size:45px;line-height:1.25"
         x="886.04724"
         y="3327.927"
         id="tspan4868"> dahil wala yon...</tspan></text>
    <use
       x="0"
       y="0"
       xlink:href="#use4664"
       id="use4694"
       transform="matrix(0.2413678,0.96175958,-1.2866298,0.18042315,4666.0569,751.999)"
       width="2481"
       height="3503"
       style="" />
    <use
       x="0"
       y="0"
       xlink:href="#use4664"
       id="use4694-6"
       transform="matrix(0.2413678,0.96175958,-1.2866298,0.18042315,4666.0569,751.999)"
       width="2481"
       height="3503"
       style="" />
    <use
       x="0"
       y="0"
       xlink:href="#use4664"
       id="use4694-3"
       transform="matrix(0.2413678,0.96175958,-1.2866298,0.18042315,4666.0569,751.999)"
       width="2481"
       height="3503"
       style="" />
    <text
       id="text4178-6-5-9-0-7"
       style="font-style:normal;font-variant:normal;font-weight:normal;font-stretch:normal;line-height:0%;font-family:Lavi;-inkscape-font-specification:Lavi;text-align:center;letter-spacing:0px;word-spacing:0px;text-anchor:middle;opacity:0.81800022;fill:#412525;fill-opacity:1;stroke:none;filter:url(#filter5841)"
       xml:space="preserve"
       y="3129.8394"
       x="1318.7137"
       transform="matrix(-0.48561898,0.57780873,-1.2237792,0.19411318,6288.9822,1634.4755)"><tspan
         y="3129.8394"
         x="1318.7137"
         style="font-style:normal;font-variant:normal;font-weight:normal;font-stretch:normal;font-size:40.67671585px;line-height:1.25;font-family:Fondamento;-inkscape-font-specification:Fondamento;fill:#412525;fill-opacity:1"
         sodipodi:role="line"
         id="tspan4293-1-6-3-5">Dragon's Tooth</tspan></text>
    <text
       xml:space="preserve"
       style="font-style:normal;font-variant:normal;font-weight:normal;font-stretch:normal;line-height:0%;font-family:Arial;-inkscape-font-specification:Arial;letter-spacing:0px;word-spacing:0px;opacity:0.64499996;fill:#221415;fill-opacity:1;stroke:#000000;stroke-width:0.3171955;stroke-linecap:butt;stroke-linejoin:miter;stroke-miterlimit:4;stroke-dasharray:none;stroke-opacity:1;filter:url(#filter4813)"
       x="1164.8857"
       y="1027.0621"
       id="text4191"><tspan
         sodipodi:role="line"
         id="tspan4193"
         x="1164.8857"
         y="1027.0621"
         style="font-style:normal;font-variant:normal;font-weight:normal;font-stretch:normal;font-size:30.86254311px;line-height:1.25;font-family:Fondamento;-inkscape-font-specification:Fondamento">33</tspan></text>
    <text
       xml:space="preserve"
       style="font-style:normal;font-variant:normal;font-weight:normal;font-stretch:normal;line-height:0%;font-family:Arial;-inkscape-font-specification:Arial;letter-spacing:0px;word-spacing:0px;opacity:0.744;fill:#221415;fill-opacity:1;stroke:#502a2a;stroke-width:0.99138767;stroke-linecap:butt;stroke-linejoin:miter;stroke-miterlimit:4;stroke-dasharray:none;stroke-opacity:1;filter:url(#filter4833)"
       x="705.80756"
       y="803.86755"
       id="text4243"
       transform="matrix(1.1833786,0,0,1.563351,-128.39435,-471.4696)"><tspan
         sodipodi:role="line"
         x="708.0368"
         y="803.86755"
         id="tspan4247"
         style="font-style:normal;font-variant:normal;font-weight:normal;font-stretch:normal;font-size:18.26206207px;line-height:1.25;font-family:Fondamento;-inkscape-font-specification:Fondamento;text-align:center;text-anchor:middle;stroke:#502a2a;stroke-width:0.99138767;stroke-miterlimit:4;stroke-dasharray:none;stroke-opacity:1"> </tspan><tspan
         sodipodi:role="line"
         x="705.80756"
         y="826.69513"
         style="font-style:normal;font-variant:normal;font-weight:normal;font-stretch:normal;font-size:18.26206207px;line-height:1.25;font-family:Fondamento;-inkscape-font-specification:Fondamento;text-align:center;text-anchor:middle;stroke:#502a2a;stroke-width:0.99138767;stroke-miterlimit:4;stroke-dasharray:none;stroke-opacity:1"
         id="tspan3069">PROPERTY</tspan></text>
    <text
       xml:space="preserve"
       style="font-style:normal;font-variant:normal;font-weight:normal;font-stretch:normal;line-height:0%;font-family:Arial;-inkscape-font-specification:Arial;text-align:start;letter-spacing:0px;word-spacing:0px;text-anchor:start;opacity:0.744;fill:#241516;fill-opacity:1;stroke:#5a2c2c;stroke-width:0.90251106;stroke-linecap:butt;stroke-linejoin:miter;stroke-miterlimit:4;stroke-dasharray:none;stroke-opacity:1;filter:url(#filter4206)"
       x="632.77014"
       y="779.69183"
       id="text4357"
       transform="matrix(1.0944522,0,0,1.3152093,-42.772409,-232.97148)"><tspan
         sodipodi:role="line"
         id="tspan4359"
         x="632.77014"
         y="779.69183"
         style="font-style:normal;font-variant:normal;font-weight:normal;font-stretch:normal;font-size:29.94702911px;line-height:1.25;font-family:Fondamento;-inkscape-font-specification:Fondamento;text-align:start;text-anchor:start;stroke:#5a2c2c;stroke-width:0.90251106;stroke-miterlimit:4;stroke-dasharray:none;stroke-opacity:1">WITCH</tspan></text>
    <text
       xml:space="preserve"
       style="font-style:normal;font-variant:normal;font-weight:normal;font-stretch:normal;line-height:0%;font-family:Arial;-inkscape-font-specification:Arial;letter-spacing:0px;word-spacing:0px;opacity:0.58800001;fill:#010202;fill-opacity:1;stroke:#3e1b1b;stroke-width:0.95986927;stroke-linecap:butt;stroke-linejoin:miter;stroke-miterlimit:4;stroke-dasharray:none;stroke-opacity:1;filter:url(#filter4781);"
       x="653.07074"
       y="748.37018"
       id="text4385"
       transform="matrix(0.94204175,0,0,1.1970137,45.699837,-142.27445)"><tspan
         sodipodi:role="line"
         id="tspan4387"
         x="653.07074"
         y="748.37018"
         style="font-style:normal;font-variant:normal;font-weight:normal;font-stretch:normal;font-size:24.29540443px;line-height:1.25;font-family:Fondamento;-inkscape-font-specification:Fondamento;stroke:#3e1b1b;stroke-width:0.95986927;stroke-miterlimit:4;stroke-dasharray:none;stroke-opacity:1;fill:#010202;fill-opacity:1;">BABALA</tspan></text>
    <text
       transform="matrix(0.94204175,0,0,1.1970137,45.699837,-142.27445)"
       id="text866"
       y="748.37018"
       x="653.07074"
       style="font-style:normal;font-variant:normal;font-weight:normal;font-stretch:normal;line-height:0%;font-family:Arial;-inkscape-font-specification:Arial;letter-spacing:0px;word-spacing:0px;opacity:0.58800001;fill:#010202;fill-opacity:1;stroke:#3e1b1b;stroke-width:0.95986927;stroke-linecap:butt;stroke-linejoin:miter;stroke-miterlimit:4;stroke-dasharray:none;stroke-opacity:1;filter:url(#filter4781);"
       xml:space="preserve"><tspan
         style="font-style:normal;font-variant:normal;font-weight:normal;font-stretch:normal;font-size:24.29540443px;line-height:1.25;font-family:Fondamento;-inkscape-font-specification:Fondamento;stroke:#3e1b1b;stroke-width:0.95986927;stroke-miterlimit:4;stroke-dasharray:none;stroke-opacity:1;fill:#010202;fill-opacity:1;"
         y="748.37018"
         x="653.07074"
         id="tspan864"
         sodipodi:role="line">BABALA</tspan></text>
    <flowRoot
       xml:space="preserve"
       id="flowRoot878"
       style="fill:black;fill-opacity:1;stroke:none;font-family:sans-serif;font-style:normal;font-weight:normal;font-size:40px;line-height:1.25;letter-spacing:0px;word-spacing:0px"><flowRegion
         id="flowRegion880"><rect
           id="rect882"
           width="281.85153"
           height="348.27515"
           x="427.26538"
           y="1695.2007" /></flowRegion><flowPara
         id="flowPara884" /></flowRoot>    <flowRoot
       xml:space="preserve"
       id="flowRoot895"
       style="font-style:normal;font-variant:normal;font-weight:normal;font-stretch:normal;font-size:40px;line-height:1.25;font-family:Lavi;-inkscape-font-specification:Lavi;text-align:center;letter-spacing:0px;word-spacing:0px;text-anchor:middle;fill:#4d4d4d;fill-opacity:1;stroke:none;"
       transform="translate(1543.5029,-352.38501)"><flowRegion
         id="flowRegion897"
         style="font-style:normal;font-variant:normal;font-weight:normal;font-stretch:normal;font-family:Lavi;-inkscape-font-specification:Lavi;text-align:center;text-anchor:middle;fill:#4d4d4d;"><rect
           id="rect899"
           width="280.05627"
           height="464.96536"
           x="445.21771"
           y="1718.5387"
           style="font-style:normal;font-variant:normal;font-weight:normal;font-stretch:normal;font-family:Lavi;-inkscape-font-specification:Lavi;text-align:center;text-anchor:middle;fill:#4d4d4d;" /></flowRegion><flowPara
         id="flowPara901">Magsimula </flowPara><flowPara
         id="flowPara909">tayo ng aralin </flowPara><flowPara
         id="flowPara903">tungkol sa mga potions ng</flowPara><flowPara
         id="flowPara905">sinaunang panahon at ang </flowPara><flowPara
         id="flowPara907">kani-kanilang mga sangkap.</flowPara></flowRoot>    <text
       xml:space="preserve"
       style="font-style:normal;font-weight:normal;font-size:40px;line-height:1.25;font-family:sans-serif;letter-spacing:0px;word-spacing:0px;fill:#000000;fill-opacity:1;stroke:none"
       x="646.28375"
       y="2262.4941"
       id="text1164"><tspan
         sodipodi:role="line"
         id="tspan1162"
         x="646.28375"
         y="2262.4941" /></text>
  </g>
</svg>
