<?xml version="1.0" encoding="UTF-8" standalone="no"?>
<!-- Created with Inkscape (http://www.inkscape.org/) -->

<svg
   xmlns:dc="http://purl.org/dc/elements/1.1/"
   xmlns:cc="http://creativecommons.org/ns#"
   xmlns:rdf="http://www.w3.org/1999/02/22-rdf-syntax-ns#"
   xmlns:svg="http://www.w3.org/2000/svg"
   xmlns="http://www.w3.org/2000/svg"
   xmlns:xlink="http://www.w3.org/1999/xlink"
   xmlns:sodipodi="http://sodipodi.sourceforge.net/DTD/sodipodi-0.dtd"
   xmlns:inkscape="http://www.inkscape.org/namespaces/inkscape"
   id="svg2"
   version="1.1"
   inkscape:version="0.92.2 5c3e80d, 2017-08-06"
   width="2481"
   height="3503"
   sodipodi:docname="E24P02.svg">
  <metadata
     id="metadata8">
    <rdf:RDF>
      <cc:Work
         rdf:about="">
        <dc:format>image/svg+xml</dc:format>
        <dc:type
           rdf:resource="http://purl.org/dc/dcmitype/StillImage" />
        <dc:title />
      </cc:Work>
    </rdf:RDF>
  </metadata>
  <defs
     id="defs6">
    <filter
       style="color-interpolation-filters:sRGB"
       id="filter4375-4-1-1-1-9"
       inkscape:label="deevad outline effect">
      <feFlood
         id="feFlood4377-7-9-0-8-1"
         flood-opacity="1"
         flood-color="rgb(0,0,0)"
         result="flood" />
      <feComposite
         id="feComposite4379-3-8-8-2-77"
         in2="SourceGraphic"
         in="flood"
         operator="in"
         result="composite1" />
      <feMorphology
         id="feMorphology4393-1-0-49-8-9"
         operator="dilate"
         radius="4"
         result="result3" />
      <feComposite
         id="feComposite4385-9-5-7-0-8"
         in2="result3"
         in="SourceGraphic"
         operator="over"
         result="composite2" />
    </filter>
  </defs>
  <sodipodi:namedview
     pagecolor="#ffffff"
     bordercolor="#666666"
     borderopacity="1"
     objecttolerance="10"
     gridtolerance="10"
     guidetolerance="10"
     inkscape:pageopacity="0"
     inkscape:pageshadow="2"
     inkscape:window-width="1920"
     inkscape:window-height="1046"
     id="namedview4"
     showgrid="false"
     inkscape:zoom="0.62174313"
     inkscape:cx="1661.2459"
     inkscape:cy="346.65175"
     inkscape:window-x="0"
     inkscape:window-y="0"
     inkscape:window-maximized="1"
     inkscape:current-layer="layer3"
     inkscape:snap-global="false"
     showguides="true" />
  <g
     inkscape:groupmode="layer"
     id="layer2"
     inkscape:label="artwork"
     sodipodi:insensitive="true">
    <image
       sodipodi:absref="/home/rjq/Arts_and_Crafts/Translation P&amp;C/webcomics/ep24_The-Unity-Tree/lang/mx/../gfx_Pepper-and-Carrot_by-David-Revoy_E24P02.png"
       xlink:href="../gfx_Pepper-and-Carrot_by-David-Revoy_E24P02.png"
       y="0"
       x="0"
       id="image10"
       height="3503"
       width="2481" />
  </g>
  <g
     inkscape:groupmode="layer"
     id="layer3"
     inkscape:label="speechbubbles">
    <path
       style="fill:#ffffff;stroke:none;stroke-width:1"
       d="m 982.44668,963.21044 c 66.78462,-8.3585 124.60912,2.64527 139.88052,10.79944 15.2714,8.15417 30.4649,23.90227 39.0915,30.01622 28.7973,20.4096 19.5754,129.0627 7.271,140.3007 -9.6554,8.8186 -16.2763,36.2571 -57.0181,45.4147 -40.7418,9.1577 -115.6983,13.464 -140.74321,4.9601 -25.04495,-8.5039 -78.22363,-2.3232 -92.93153,-56.8555 -14.70791,-54.5324 -1.80053,-140.64367 45.30823,-158.5729 26.55736,-10.10749 59.14159,-16.06276 59.14159,-16.06276 z"
       id="path3286"
       inkscape:connector-curvature="0"
       sodipodi:nodetypes="csssssssc" />
    <path
       style="color:#000000;display:inline;overflow:visible;visibility:visible;fill:#ffffff;fill-opacity:1;fill-rule:nonzero;stroke:none;stroke-width:1px;marker:none;enable-background:accumulate"
       d="m 2235.2039,1351.7255 c -166.3352,-2.9996 -213.7021,-13.1279 -212.7392,-167.961 0.9628,-154.833 62.36,-194.30637 151.8783,-197.39467 86.9037,-3.08819 154.5086,16.01507 172.0646,58.90887 20.2832,45.8237 12.8475,98.6049 18.9072,139.7183 9.3188,35.253 -0.5678,105.5352 -18.8001,125.4809 -18.1675,19.875 -77.4171,42.0993 -111.3108,41.2476 z"
       id="path3365"
       inkscape:connector-curvature="0"
       sodipodi:nodetypes="cscccsc" />
    <path
       style="color:#000000;display:inline;overflow:visible;visibility:visible;fill:#ffffff;fill-opacity:1;fill-rule:nonzero;stroke:none;stroke-width:1px;marker:none;enable-background:accumulate"
       d="m 1190.4458,1312.0824 c -70.0617,-6.5837 -91.3329,-16.7984 -111.4751,-72.4567 -20.1421,-55.6582 0.6832,-59.9839 0.6832,-59.9839 0,0 10.9679,110.8571 110.7919,132.4406 z"
       id="path5002"
       inkscape:connector-curvature="0" />
    <path
       style="color:#000000;display:inline;overflow:visible;visibility:visible;fill:#ffffff;fill-opacity:1;fill-rule:nonzero;stroke:none;stroke-width:1px;marker:none;enable-background:accumulate"
       d="m 2050.7762,1376.6106 c 37.4574,14.4492 67.4988,-7.5666 86.7222,-51.9063 19.2234,-44.3397 35.3495,-35.8085 35.3495,-35.8085 l 5.0926,33.3889 c 0,0 -35.4044,96.209 -127.1643,54.3259 z"
       id="path3072"
       inkscape:connector-curvature="0"
       sodipodi:nodetypes="csccc" />
    <path
       style="color:#000000;display:inline;overflow:visible;visibility:visible;fill:#ffffff;fill-opacity:1;fill-rule:nonzero;stroke:none;stroke-width:1px;marker:none;enable-background:accumulate"
       d="M 65.403388,2355.4056 C 55.172407,2228.5179 -53.502477,2147.2044 321.77182,2137.0085 c 101.24878,-2.7508 218.14975,-18.828 234.29382,166.9053 16.14392,185.7331 -147.13283,201.8436 -180.16511,210.4713 -33.03226,8.628 -189.30752,10.624 -241.37058,-37.2555 -29.24172,-26.892 -64.701043,-82.5873 -69.126562,-121.724 z"
       id="path4546"
       inkscape:connector-curvature="0"
       sodipodi:nodetypes="cssssc" />
    <path
       style="color:#000000;display:inline;overflow:visible;visibility:visible;fill:#ffffff;fill-opacity:1;fill-rule:nonzero;stroke:none;stroke-width:1.11183155px;marker:none;enable-background:accumulate"
       d="m 946.4099,2693.0823 c -78.98874,5.3064 -198.8743,-8.0881 -234.47383,-75.9542 -35.59935,-67.8659 -47.73914,-159.5578 -10.61978,-209.6582 37.11919,-50.1004 107.33908,-101.4221 176.38062,-102.9531 69.04144,-1.5314 165.33189,27.9807 198.80399,91.6802 33.4722,63.6992 42.0116,213.4628 -38.2911,260.8514 -80.30274,47.3887 -91.7999,36.0339 -91.7999,36.0339 z"
       id="path3970"
       inkscape:connector-curvature="0" />
    <path
       style="color:#000000;display:inline;overflow:visible;visibility:visible;fill:#ffffff;fill-opacity:1;fill-rule:nonzero;stroke:none;stroke-width:0.94302368px;marker:none;enable-background:accumulate"
       d="m 967.99896,2975.3696 c -51.74784,2.8141 -130.28832,-4.2891 -153.6106,-40.2789 -23.32216,-35.9894 -31.27528,-84.6141 -6.95732,-111.1826 24.31785,-26.5684 70.32092,-53.7845 115.55202,-54.5964 45.23103,-0.812 108.31384,14.8383 130.24224,48.6184 21.9286,33.7799 27.5229,113.2002 -25.0856,138.3306 -52.60864,25.1305 -60.14074,19.1089 -60.14074,19.1089 z"
       id="path3970-4"
       inkscape:connector-curvature="0" />
    <path
       style="fill:#ffffff;fill-rule:evenodd;stroke:none;stroke-width:1px;stroke-linecap:butt;stroke-linejoin:miter;stroke-opacity:1"
       d="m 346.57119,2616.5493 c -63.2798,-44.5839 -68.79168,-98.8369 -22.99541,-144.2951 18.90772,-28.5006 -29.49137,-44.6932 -49.46806,0.8803 2.52314,18.0735 -60.406,94.8559 72.46347,143.4148 z"
       id="path4278"
       inkscape:connector-curvature="0"
       sodipodi:nodetypes="cccc" />
    <path
       style="color:#000000;display:inline;overflow:visible;visibility:visible;fill:#ffffff;fill-opacity:1;fill-rule:nonzero;stroke:none;stroke-width:1px;marker:none;enable-background:accumulate"
       d="m 759.98513,2733.1259 c 40.56205,-7.5931 54.44696,-12.612 63.67875,-60.0495 9.2317,-47.4376 26.81589,-42.5763 26.81589,-42.5763 l 12.15811,31.5107 c 0,0 -26.74612,99.3801 -102.65275,71.1151 z"
       id="path3072-5"
       inkscape:connector-curvature="0" />
    <path
       style="color:#000000;display:inline;overflow:visible;visibility:visible;fill:#ffffff;fill-opacity:1;fill-rule:nonzero;stroke:none;stroke-width:1px;marker:none;enable-background:accumulate"
       d="m 739.08809,2819.3997 c 21.8597,19.4259 25.84476,19.8547 38.08065,11.9234 12.23579,-7.9313 27.1542,-23.1621 53.13132,-17.7581 84.05943,-18.1201 113.76084,72.1324 -3.48563,23.5751 -17.33625,-6.3711 -39.16416,13.5701 -53.85665,11.2775 -14.69258,-2.2926 -25.60297,-17.6945 -33.86969,-29.0179 z"
       id="path4538"
       inkscape:connector-curvature="0"
       sodipodi:nodetypes="cccccc" />
    <path
       style="fill:#ffffff;fill-rule:evenodd;stroke:none;stroke-width:1px;stroke-linecap:butt;stroke-linejoin:miter;stroke-opacity:1"
       d="m 1291.1624,3127.8607 c 0.5686,10.4744 -0.113,23.6329 -9.9268,30.0553 -11.9584,5.1653 -24.2082,-3.1255 -33.7969,-9.3933 -3.1436,-2.7404 0.5547,3.3653 0.3009,4.9057 2.3239,9.271 3.6222,21.7394 -4.9664,28.3296 -10.595,6.3827 -23.9606,0.906 -33.9698,-3.162 4.141,10.5219 9.1834,23.7411 2.1337,34.1459 -4.6372,4.8605 -12.507,4.7389 -18.3755,3.7188 4.6149,7.7867 5.1895,20.5116 -4.3645,24.9576 -4.3269,2.4985 -10.9532,1.9958 -14.6584,2.1307 8.0986,8.223 15.5258,21.3496 9.0589,32.4552 -3.5467,5.6104 -9.5163,9.2526 -15.5944,11.8075 9.482,1.4638 21.4692,6.897 21.5422,17.699 0.3121,6.2044 -4.9832,12.6724 -7.7105,16.3021 11.0461,-3.657 24.5486,-8.0578 35.3594,-1.6865 4.9033,4.3376 6.1219,11.3206 5.2696,17.4659 11.3359,-6.7451 23.1665,-3.1032 36.8113,1.8665 8.331,4.2687 12.7052,13.1731 14.7883,21.7415 14.7864,-10.3056 32.5716,-22.2696 51.7104,-17.5322 13.5566,3.8127 21.9352,15.884 30.4715,25.9104 4.1506,-10.9197 11.8612,-23.586 24.9893,-24.7084 13.0324,0.893 19.1707,14.1398 25.3357,23.4681 1.1973,4.7372 4.3591,8.3689 5.5743,6.2627 5.4777,-11.4025 12.9173,-24.5647 26.3851,-27.8824 14.072,-0.713 23.6143,11.7618 31.2383,21.4821 3.1906,-11.9549 9.7116,-26.1665 23.4657,-28.8733 13.6821,-0.3696 22.3066,12.2415 28.6489,22.3163 2.8965,4.0011 5.26,8.3384 8.0962,12.3783 2.2371,-10.476 7.3286,-31.4008 19.6211,-31.6483 11.4904,0.042 20.5042,8.1687 28.9126,14.7361 0.098,-11.7615 12.5273,-22.7171 24.6142,-18.7604 15.4684,3.1866 29.8255,1.9502 42.9213,9.7419 -3.8276,-8.8412 -7.0536,-21.9949 2.1668,-28.7949 5.1874,-3.1806 11.7275,-2.7263 17.4395,-1.4012 -5.4092,-9.4286 -4.7543,-23.7535 5.8386,-29.4501 5.7635,-3.7818 12.7602,-4.9573 19.2931,-6.8545 -11.756,-8.1121 -30.0708,-18.531 -26.6961,-33.6239 1.1508,-6.7661 13.4127,-16.0495 16.2784,-20.6553 -31.0307,10.0843 -29.4847,-4.7448 -10.2422,-20.9795 2.345,-4.0947 1.313,-4.0272 -2.5983,-1.2676 -10.6309,5.9221 -22.123,13.2363 -34.8043,12.5342 -9.3107,-3.9731 -6.615,-24.6408 -0.3575,-31.1349 -14.3199,5.4243 -30.2239,12.0428 -45.7812,7.7328 -10.1143,-6.361 -8.8991,-20.5119 -4.0799,-29.7637 1.7573,-3.7857 -0.6019,-1.2802 -2.7915,0.4924 -8.3457,6.5677 -18.0479,14.1483 -29.2447,13.9181 -10.4404,-3.2638 -12.5335,-16.5572 -8.96,-25.4179 0.031,-2.2162 2.6526,-8.5102 -0.804,-4.0524 -6.71,6.5087 -18.1007,23.2331 -28.2666,21.0586 -4.9455,-1.9101 -5.6235,-15.6961 -7.1424,-20.4596 -4.8518,7.596 -15.7851,24.2342 -25.9719,21.0402 -9.4034,-4.129 -10.7196,-15.5551 -11.0093,-24.3988 -3.3798,8.1531 -9.9379,14.4007 -20.3866,14.8017 -10.9048,-0.9284 -15.5608,-35.0387 -18.0129,-43.9573 -0.7579,-2.7677 -3.8477,-8.8656 -2.4077,4.4042 -3.0145,7.6932 -9.5105,39.4139 -19.0947,37.0392 -11.685,-3.9107 -13.1168,-11.7297 -16.5794,-21.7233 -2.8867,8.8678 -9.9708,19.6049 -20.8268,18.5393 -13.3681,-2.4059 -18.5906,-17.0643 -24.3999,-26.8331 -0.9866,11.3796 -4.1207,25.5407 -15.7571,30.8533 -11.8126,2.7867 -21.2574,-7.4797 -26.9439,-16.2296 -4.2655,-5.4437 -8.0728,-11.2099 -11.8257,-16.9956 l 0.063,1.0273 z m 177.6057,240.3398 c 0,0.015 0.013,-0.05 0,0 z"
       id="path1504"
       inkscape:connector-curvature="0"
       sodipodi:nodetypes="cccccccccccccccccccccccccccccccccccccccccccccccccccccccccccccccccc" />
    <path
       style="fill:#ffffff;stroke:none;stroke-width:0.99999994"
       d="m 1452.7195,2949.0485 c 13.6365,51.0487 1.8285,73.4399 -12.8291,87.351 -14.6575,13.9112 -29.2574,24.6287 -30.4169,39.0049 -1.1585,14.3763 4.3679,32.4449 9.991,45.1906 5.6233,12.7459 -8.7567,28.7391 -16.1641,41.0823 -7.4074,12.3434 -32.4176,87.9891 -32.4176,87.9891 0,0 45.6605,-29.3056 57.0155,-43.5686 11.3552,-14.2629 -1.5936,-24.3112 1.6003,-31.5097 3.1938,-7.1984 16.2252,-28.4819 13.3417,-43.3703 -2.8832,-14.8884 -6.8861,-37.3598 -11.1969,-47.9831 -4.3108,-10.6233 8.1814,-20.8918 17.4263,-34.2439 9.2448,-13.3519 26.0549,-36.6775 19.2727,-60.0623 -6.7821,-23.3848 -15.6229,-39.88 -15.6229,-39.88 z"
       id="path3023"
       inkscape:connector-curvature="0"
       sodipodi:nodetypes="csssscssssssc" />
    <path
       style="color:#000000;display:inline;overflow:visible;visibility:visible;fill:#ffffff;fill-opacity:1;fill-rule:nonzero;stroke:none;stroke-width:1px;marker:none;enable-background:accumulate"
       d="m 1805.1943,2316.7331 c -1.7851,-38.0564 -1.1108,-75.183 73.8621,-100.0361 74.9731,-24.8531 206.044,-12.5854 233.8709,-10.8732 45.4203,2.7946 165.0863,9.9363 191.8623,37.8962 26.7761,27.9597 30.7956,61.2059 28.085,91.3412 -2.4971,27.7618 -14.3082,67.5414 -46.4395,76.8613 -32.1314,9.32 -262.0499,23.1758 -299.5364,16.9626 -37.4865,-6.2132 -95.3203,-14.9135 -127.4513,-33.5534 -32.5747,-18.897 -52.4681,-40.5422 -54.2531,-78.5986 z"
       id="path3373"
       inkscape:connector-curvature="0"
       sodipodi:nodetypes="zsssssssz" />
    <path
       style="color:#000000;display:inline;overflow:visible;visibility:visible;fill:#ffffff;fill-opacity:1;fill-rule:nonzero;stroke:none;stroke-width:1px;marker:none;enable-background:accumulate"
       d="m 2031.8102,2507.7263 c 30.9235,-44.7181 56.4448,-90.7801 41.0641,-127.8508 -21.7419,-52.4025 -15.1545,-27.3052 -15.1545,-27.3052 l 48.1596,27.1477 c 4.0617,-2.2231 16.5042,46.8286 -74.0692,128.0083 z"
       id="path3072-1"
       inkscape:connector-curvature="0"
       sodipodi:nodetypes="csccc" />
    <path
       style="display:inline;fill:#ffffff;stroke:none;stroke-width:0.93433809"
       d="m 1798.2796,3258.043 c 3.5038,-79.2115 37.5631,-117.1731 86.3656,-136.5003 48.8025,-19.3272 336.4802,-13.9584 394.7721,7.5163 58.2916,21.4749 63.034,76.7245 65.126,137.5738 0.7924,70.4589 -67.7248,100.1019 -101.6155,108.6918 -33.8905,8.5899 -305.7598,15.44 -378.4522,-16.1741 -66.196,-28.8684 -66.196,-101.1075 -66.196,-101.1075 z"
       id="path3008"
       inkscape:connector-curvature="0"
       sodipodi:nodetypes="ccccccc" />
    <path
       style="color:#000000;display:inline;overflow:visible;visibility:visible;fill:#ffffff;fill-opacity:1;fill-rule:nonzero;stroke:none;stroke-width:1px;marker:none;enable-background:accumulate"
       d="m 2046.452,3138.2749 c 31.2021,-26.3616 74.0861,-59.4473 33.587,-95.3422 1.3128,2.6276 75.7675,26.7026 -7.7455,112.4393 -83.5133,85.7365 -101.538,90.3039 -101.538,90.3039 z"
       id="path4064"
       inkscape:connector-curvature="0"
       sodipodi:nodetypes="ccscc"
       inkscape:transform-center-x="86.439437"
       inkscape:transform-center-y="119.77252" />
    <g
       id="g5381"
       transform="matrix(-1.943999,-0.03507888,0.02110171,-1.1694129,2814.7591,4709.8659)"
       style="display:inline;fill:#ffffff;stroke-width:0.82700133">
      <path
         inkscape:connector-curvature="0"
         id="path5263"
         d="m 1231.4261,3164.2107 c -4.7051,-6.6655 -8.3522,-20.2367 -8.3522,-21.805 0,-1.5684 0.3921,-7.4497 0.3921,-7.4497 l -3.1367,-1.1763 2.7446,-5.0971 -3.1367,0.3921 c 0,0 8.4753,-16.4011 10.0436,-19.1457 1.5684,-2.7446 4.313,-9.018 4.313,-9.018 0,0 11.2013,-0.9423 14.338,-2.1186 3.1367,-1.1762 12.5468,-11.3705 12.5468,-11.3705 0,0 11.3706,5.4892 15.6836,6.2734 4.3129,0.7842 24.3095,1.9604 27.8383,0 3.5288,-1.9605 7.0576,-4.7051 7.0576,-4.7051 0,0 9.018,-0.7841 11.3705,-1.9604 2.3526,-1.1763 6.6655,-3.9209 6.6655,-3.9209 0,0 7.4497,0.7842 10.5864,0.3921 3.1367,-0.3921 17.644,0 19.2124,0 1.5683,0 12.5468,6.6655 12.5468,6.6655 l 7.0576,6.6655 c 0,0 5.8813,-0.3921 8.626,-1.1763 2.7446,-0.7841 5.0971,3.1367 5.0971,3.1367 0,0 10.3649,28.9788 11.9333,33.6838 1.5683,4.7051 2.3525,14.1152 2.3525,14.1152 0,0 -4.313,7.4497 -6.6655,10.5864 -2.3525,3.1367 -9.018,10.5864 -12.5468,13.331 -3.5288,2.7446 -7.8418,7.0576 -12.1548,4.313 -4.313,-2.7446 -8.6259,-2.3525 -10.1943,-0.3921 -1.5684,1.9604 -12.9389,15.6836 -16.8598,14.1152 -3.9209,-1.5684 -17.2519,-3.9209 -21.1728,-7.4497 -3.9209,-3.5288 -10.1943,4.7051 -12.9389,2.3525 -2.7446,-2.3525 -6.6655,-6.6655 -9.4102,-6.6655 -2.7446,0 -40.639,11.3296 -44.5599,9.7612 -3.9209,-1.5684 -13.5936,-9.7859 -15.9461,-11.3542 -2.3526,-1.5684 -8.2339,-10.9785 -8.2339,-10.9785 z"
         style="color:#000000;display:inline;overflow:visible;visibility:visible;fill:#ffffff;fill-opacity:1;fill-rule:nonzero;stroke:none;stroke-width:0.82700133px;marker:none;enable-background:accumulate"
         sodipodi:nodetypes="cscccccccccccccssccccccsssssscssccc" />
    </g>
    <path
       style="color:#000000;display:inline;overflow:visible;visibility:visible;fill:#ffffff;fill-opacity:1;fill-rule:nonzero;stroke:none;stroke-width:1px;marker:none;enable-background:accumulate"
       d="m 214.82896,1030.4867 c 6.80442,0.878 -13.01369,58.3529 -13.01369,58.3529 0,0 37.57996,20.9895 40.57677,25.605 -3.12032,14.3994 -21.44854,49.3771 -21.44854,49.3771 l 47.969,66.5041 -32.27308,-66.6621 30.22524,-55.2358 -42.64068,-25.4823 18.48922,-41.6529 z"
       id="path4448-7"
       inkscape:connector-curvature="0"
       sodipodi:nodetypes="cccccccccc" />
    <path
       style="color:#000000;display:inline;overflow:visible;visibility:visible;fill:#ffffff;fill-opacity:1;fill-rule:nonzero;stroke:none;stroke-width:1px;marker:none;enable-background:accumulate"
       d="m 1181.3418,1264.7261 c -13.8665,-3.5055 -55.1437,-19.0159 -6.106,-17.5657 -59.3797,-25.0538 -32.5866,-43.8491 -10.6916,-63.0001 -18.1994,-6.138 -47.6034,-8.1294 -37.3738,-24.7898 -19.517,1.4993 -31.4964,-4.8263 -36.7506,-18.1339 -14.8623,16.6729 -27.349,19.2808 -33.8988,-13.2573 -5.9732,24.2527 -19.7877,28.8493 -57.79865,-1.6874 -2.7979,8.899 11.59785,29.2427 -92.86732,14.4217 31.06193,16.9622 71.33888,54.7798 -4.02112,72.0652 26.93842,7.6306 44.11746,17.9678 2.13299,34.3899 27.2039,5.1866 25.23782,27.2561 17.97888,35.0755 34.45627,-14.845 53.77794,-13.3862 52.4848,8.8739 63.60652,-34.4878 49.19912,-4.5663 62.32942,2.0745 25.1052,-28.2285 46.7116,-14.0788 69.7714,-7.7794 7.3512,-33.4408 43.8059,-20.6979 74.8104,-20.6871 z"
       id="path3549-3-78"
       inkscape:connector-curvature="0"
       sodipodi:nodetypes="ccccccccccccccc" />
  </g>
  <g
     inkscape:groupmode="layer"
     id="layer1"
     inkscape:label="txt"
     style="display:inline">
    <text
       xml:space="preserve"
       style="font-style:normal;font-variant:normal;font-weight:normal;font-stretch:normal;line-height:0%;font-family:Lavi;-inkscape-font-specification:Lavi;letter-spacing:0px;word-spacing:0px;fill:#000000;fill-opacity:1;stroke:#000000;stroke-width:1.03244162;stroke-miterlimit:4;stroke-dasharray:none;stroke-opacity:1;filter:url(#filter4375-4-1-1-1-9)"
       x="787.65729"
       y="1584.5073"
       id="text4580"
       transform="matrix(0.99628009,-0.49104872,-0.18392799,1.3011878,1393.6124,-1187.4855)"><tspan
         sodipodi:role="line"
         id="tspan4582"
         x="787.65729"
         y="1584.5073"
         style="font-size:70px;line-height:1.25;fill:#ffffff;stroke-width:1.03244162"><tspan
           style="font-size:80.40014648px;stroke-width:1.03244162"
           id="tspan4617">¡Sl<tspan
   style="font-size:67.99041748px"
   id="tspan835">a</tspan><tspan
   style="font-size:63.13396072px"
   id="tspan837">m</tspan>!</tspan></tspan></text>
    <text
       xml:space="preserve"
       style="font-style:normal;font-variant:normal;font-weight:normal;font-stretch:normal;line-height:0%;font-family:Lavi;-inkscape-font-specification:Lavi;text-align:center;letter-spacing:0px;word-spacing:0px;text-anchor:middle;fill:#000000;fill-opacity:1;stroke:none;stroke-width:1.60000002;stroke-miterlimit:4;stroke-dasharray:none"
       x="1023.5315"
       y="1034.0934"
       id="text4246-7-6-2-04"><tspan
         sodipodi:role="line"
         style="font-size:45px;line-height:1.25;stroke:none;stroke-width:1.60000002;stroke-miterlimit:4;stroke-dasharray:none;stroke-opacity:1"
         x="1023.5315"
         y="1034.0934"
         id="tspan1010">¡¿Un invierno</tspan><tspan
         sodipodi:role="line"
         style="font-size:45px;line-height:1.25;stroke:none;stroke-width:1.60000002;stroke-miterlimit:4;stroke-dasharray:none;stroke-opacity:1"
         x="1023.5315"
         y="1090.3434"
         id="tspan906">sin un árbol de</tspan><tspan
         sodipodi:role="line"
         style="font-size:45px;line-height:1.25;stroke:none;stroke-width:1.60000002;stroke-miterlimit:4;stroke-dasharray:none;stroke-opacity:1"
         x="1023.5315"
         y="1146.5934"
         id="tspan908">la unión?!</tspan></text>
    <text
       xml:space="preserve"
       style="font-style:normal;font-variant:normal;font-weight:normal;font-stretch:normal;line-height:0%;font-family:Lavi;-inkscape-font-specification:Lavi;text-align:center;letter-spacing:0px;word-spacing:0px;text-anchor:middle;fill:#000000;fill-opacity:1;stroke:none;stroke-width:1.60000002;stroke-miterlimit:4;stroke-dasharray:none"
       x="2196.6575"
       y="1073.6553"
       id="text4246-7-6-2-04-3"><tspan
         sodipodi:role="line"
         style="font-size:45px;line-height:1.25;stroke:none;stroke-width:1.60000002;stroke-miterlimit:4;stroke-dasharray:none;stroke-opacity:1"
         x="2196.6575"
         y="1073.6553"
         id="tspan924">Es más,</tspan><tspan
         sodipodi:role="line"
         style="font-size:45px;line-height:1.25;stroke:none;stroke-width:1.60000002;stroke-miterlimit:4;stroke-dasharray:none;stroke-opacity:1"
         x="2196.6575"
         y="1129.9053"
         id="tspan934">¡¿Qué tal si me</tspan><tspan
         sodipodi:role="line"
         style="font-size:45px;line-height:1.25;stroke:none;stroke-width:1.60000002;stroke-miterlimit:4;stroke-dasharray:none;stroke-opacity:1"
         x="2196.6575"
         y="1186.1553"
         id="tspan926">pongo a hacer</tspan><tspan
         sodipodi:role="line"
         style="font-size:45px;line-height:1.25;stroke:none;stroke-width:1.60000002;stroke-miterlimit:4;stroke-dasharray:none;stroke-opacity:1"
         x="2196.6575"
         y="1242.4053"
         id="tspan928">mi propio árbol</tspan><tspan
         sodipodi:role="line"
         style="font-size:45px;line-height:1.25;stroke:none;stroke-width:1.60000002;stroke-miterlimit:4;stroke-dasharray:none;stroke-opacity:1"
         x="2196.6575"
         y="1298.6553"
         id="tspan930">con magia?!</tspan></text>
    <text
       xml:space="preserve"
       style="font-style:normal;font-variant:normal;font-weight:normal;font-stretch:normal;line-height:0%;font-family:Lavi;-inkscape-font-specification:Lavi;text-align:center;letter-spacing:0px;word-spacing:0px;text-anchor:middle;fill:#000000;fill-opacity:1;stroke:none;stroke-width:1.60000002;stroke-miterlimit:4;stroke-dasharray:none"
       x="320.74161"
       y="2256.5608"
       id="text4246-7-6-2-04-3-5"><tspan
         sodipodi:role="line"
         style="font-size:45px;line-height:1.25;stroke:none;stroke-width:1.60000002;stroke-miterlimit:4;stroke-dasharray:none;stroke-opacity:1"
         x="320.74161"
         y="2256.5608"
         id="tspan1135">¡Y sabes! Tal vez</tspan><tspan
         sodipodi:role="line"
         style="font-size:45px;line-height:1.25;stroke:none;stroke-width:1.60000002;stroke-miterlimit:4;stroke-dasharray:none;stroke-opacity:1"
         x="320.74161"
         y="2312.8108"
         id="tspan938">combino la magia de</tspan><tspan
         sodipodi:role="line"
         style="font-size:45px;line-height:1.25;stroke:none;stroke-width:1.60000002;stroke-miterlimit:4;stroke-dasharray:none;stroke-opacity:1"
         x="320.74161"
         y="2369.0608"
         id="tspan3784">Hippiah con la de</tspan><tspan
         sodipodi:role="line"
         style="font-size:45px;line-height:1.25;stroke:none;stroke-width:1.60000002;stroke-miterlimit:4;stroke-dasharray:none;stroke-opacity:1"
         x="320.74161"
         y="2425.3108"
         id="tspan952">Chaosah... Sería la</tspan><tspan
         sodipodi:role="line"
         style="font-size:45px;line-height:1.25;stroke:none;stroke-width:1.60000002;stroke-miterlimit:4;stroke-dasharray:none;stroke-opacity:1"
         x="320.74161"
         y="2481.5608"
         id="tspan954">primera vez...</tspan><tspan
         sodipodi:role="line"
         style="font-size:45px;line-height:1.25;stroke:none;stroke-width:1.60000002;stroke-miterlimit:4;stroke-dasharray:none;stroke-opacity:1"
         x="320.74161"
         y="2500.0942"
         id="tspan1139" /></text>
    <text
       xml:space="preserve"
       style="font-style:normal;font-variant:normal;font-weight:normal;font-stretch:normal;line-height:0%;font-family:Lavi;-inkscape-font-specification:Lavi;text-align:center;letter-spacing:0px;word-spacing:0px;text-anchor:middle;fill:#000000;fill-opacity:1;stroke:none;stroke-width:1.60000002;stroke-miterlimit:4;stroke-dasharray:none"
       x="890.89014"
       y="2421.5317"
       id="text4246-7-6-2-04-3-5-0"><tspan
         sodipodi:role="line"
         style="font-size:45px;line-height:1.25;stroke:none;stroke-width:1.60000002;stroke-miterlimit:4;stroke-dasharray:none;stroke-opacity:1"
         x="890.89014"
         y="2421.5317"
         id="tspan1259">Un árbol grande,</tspan><tspan
         sodipodi:role="line"
         style="font-size:45px;line-height:1.25;stroke:none;stroke-width:1.60000002;stroke-miterlimit:4;stroke-dasharray:none;stroke-opacity:1"
         x="890.89014"
         y="2477.7817"
         id="tspan1263">verde, iluminado</tspan><tspan
         sodipodi:role="line"
         style="font-size:45px;line-height:1.25;stroke:none;stroke-width:1.60000002;stroke-miterlimit:4;stroke-dasharray:none;stroke-opacity:1"
         x="890.89014"
         y="2534.0317"
         id="tspan960">con estrellas y</tspan><tspan
         sodipodi:role="line"
         style="font-size:45px;line-height:1.25;stroke:none;stroke-width:1.60000002;stroke-miterlimit:4;stroke-dasharray:none;stroke-opacity:1"
         x="890.89014"
         y="2590.2817"
         id="tspan962">pequeños sistemas</tspan><tspan
         sodipodi:role="line"
         style="font-size:45px;line-height:1.25;stroke:none;stroke-width:1.60000002;stroke-miterlimit:4;stroke-dasharray:none;stroke-opacity:1"
         x="890.89014"
         y="2646.5317"
         id="tspan964">solares!</tspan></text>
    <text
       xml:space="preserve"
       style="font-style:normal;font-variant:normal;font-weight:normal;font-stretch:normal;font-size:10.77101231px;line-height:0%;font-family:Lavi;-inkscape-font-specification:Lavi;text-align:center;letter-spacing:0px;word-spacing:0px;text-anchor:middle;fill:#000000;fill-opacity:1;stroke:none;stroke-width:1.60000002;stroke-miterlimit:4;stroke-dasharray:none"
       x="920.44263"
       y="2867.075"
       id="text4246-7-6-2-04-3-5-0-7"
       transform="scale(1.0118702,0.98826905)"><tspan
         sodipodi:role="line"
         style="font-size:40.39129639px;line-height:1.25;stroke:none;stroke-width:1.60000002;stroke-miterlimit:4;stroke-dasharray:none;stroke-opacity:1"
         x="920.44263"
         y="2867.075"
         id="tspan1139-8-9">¡Ay</tspan><tspan
         sodipodi:role="line"
         style="font-size:40.39129639px;line-height:1.25;stroke:none;stroke-width:1.60000002;stroke-miterlimit:4;stroke-dasharray:none;stroke-opacity:1"
         x="920.44263"
         y="2917.564"
         id="tspan1257">sería lo más</tspan><tspan
         sodipodi:role="line"
         style="font-size:40.39129639px;line-height:1.25;stroke:none;stroke-width:1.60000002;stroke-miterlimit:4;stroke-dasharray:none;stroke-opacity:1"
         x="920.44263"
         y="2968.0532"
         id="tspan968">perfecto!</tspan></text>
    <flowRoot
       xml:space="preserve"
       id="flowRoot1245"
       style="font-style:normal;font-variant:normal;font-weight:normal;font-stretch:normal;font-size:0.66666669px;line-height:318.00000668%;font-family:Neuropolitical;-inkscape-font-specification:Neuropolitical;text-align:center;letter-spacing:0px;word-spacing:0px;writing-mode:lr-tb;text-anchor:middle;fill:#000000;fill-opacity:1;stroke:none;stroke-width:1px;stroke-linecap:butt;stroke-linejoin:miter;stroke-opacity:1"><flowRegion
         id="flowRegion1247"><rect
           id="rect1249"
           width="13.224999"
           height="3.3062499"
           x="790.19373"
           y="2848.3625" /></flowRegion><flowPara
         id="flowPara1251" /></flowRoot>    <text
       xml:space="preserve"
       style="font-style:normal;font-variant:normal;font-weight:normal;font-stretch:normal;line-height:0%;font-family:Lavi;-inkscape-font-specification:Lavi;text-align:center;letter-spacing:0px;word-spacing:0px;text-anchor:middle;fill:#000000;fill-opacity:1;stroke:none"
       x="1421.4324"
       y="3231.7283"
       id="text4246"><tspan
         sodipodi:role="line"
         style="font-size:45px;line-height:1.25"
         x="1421.4324"
         y="3231.7283"
         id="tspan4252">Además será algo...</tspan></text>
    <text
       xml:space="preserve"
       style="font-style:normal;font-variant:normal;font-weight:normal;font-stretch:normal;line-height:0%;font-family:Lavi;-inkscape-font-specification:Lavi;text-align:center;letter-spacing:0px;word-spacing:0px;text-anchor:middle;fill:#000000;fill-opacity:1;stroke:none"
       x="2290.2168"
       y="3310.0198"
       id="text4246-6"
       transform="skewX(-14.861122)"><tspan
         sodipodi:role="line"
         style="font-size:74.66666412px;line-height:1.25"
         x="2290.2168"
         y="3310.0198"
         id="tspan4252-1">¡Creativo!</tspan></text>
    <text
       xml:space="preserve"
       style="font-style:normal;font-variant:normal;font-weight:normal;font-stretch:normal;line-height:0%;font-family:Lavi;-inkscape-font-specification:Lavi;text-align:center;letter-spacing:0px;word-spacing:0px;text-anchor:middle;fill:#000000;fill-opacity:1;stroke:none"
       x="2070.5388"
       y="2272.896"
       id="text4246-2"><tspan
         sodipodi:role="line"
         style="font-size:45px;line-height:1.25"
         x="2070.5388"
         y="2272.896"
         id="tspan1426">Pero no hay manera</tspan><tspan
         sodipodi:role="line"
         style="font-size:45px;line-height:1.25"
         x="2070.5388"
         y="2329.146"
         id="tspan975">de producir ésa</tspan><tspan
         sodipodi:role="line"
         style="font-size:45px;line-height:1.25"
         x="2070.5388"
         y="2385.396"
         id="tspan977">magia en éste lugar...</tspan></text>
    <text
       xml:space="preserve"
       style="font-style:normal;font-variant:normal;font-weight:normal;font-stretch:normal;line-height:0%;font-family:Lavi;-inkscape-font-specification:Lavi;text-align:center;letter-spacing:0px;word-spacing:0px;text-anchor:middle;fill:#000000;fill-opacity:1;stroke:none"
       x="2068.9495"
       y="3178.2639"
       id="text4246-2-3"><tspan
         sodipodi:role="line"
         style="font-size:45px;line-height:1.25"
         x="2068.9495"
         y="3178.2639"
         id="tspan1436">...mis madrinas lo</tspan><tspan
         sodipodi:role="line"
         style="font-size:45px;line-height:1.25"
         x="2068.9495"
         y="3234.5139"
         id="tspan988">notarían al instante, ya</tspan><tspan
         sodipodi:role="line"
         style="font-size:45px;line-height:1.25"
         x="2068.9495"
         y="3290.7639"
         id="tspan990">que no es un hechizo de</tspan><tspan
         sodipodi:role="line"
         style="font-size:45px;line-height:1.25"
         x="2068.9495"
         y="3347.0139"
         id="tspan992">destrucción.</tspan></text>
    <text
       xml:space="preserve"
       style="font-style:normal;font-variant:normal;font-weight:normal;font-stretch:normal;font-size:9.86460209px;line-height:0%;font-family:Lavi;-inkscape-font-specification:Lavi;text-align:center;letter-spacing:0px;word-spacing:0px;text-anchor:middle;opacity:0.553;fill:#ffffff;fill-opacity:1;stroke:#ffffff;stroke-width:0.41015577;stroke-miterlimit:4;stroke-dasharray:none;stroke-opacity:1"
       x="1723.8367"
       y="993.6333"
       id="text4246-8"
       transform="matrix(1.0148684,-0.23351779,-0.23771225,1.0400462,0,0)"><tspan
         sodipodi:role="line"
         style="font-size:25.28764343px;line-height:1.25;fill:#ffffff;stroke:#ffffff;stroke-width:0.41015577;stroke-miterlimit:4;stroke-dasharray:none;stroke-opacity:1"
         x="1723.8367"
         y="993.6333"
         id="tspan4150-8">tap</tspan></text>
    <text
       xml:space="preserve"
       style="font-style:normal;font-variant:normal;font-weight:normal;font-stretch:normal;font-size:9.86460209px;line-height:0%;font-family:Lavi;-inkscape-font-specification:Lavi;text-align:center;letter-spacing:0px;word-spacing:0px;text-anchor:middle;opacity:0.553;fill:#ffffff;fill-opacity:1;stroke:#ffffff;stroke-width:0.41015577;stroke-miterlimit:4;stroke-dasharray:none;stroke-opacity:1"
       x="659.43341"
       y="516.69019"
       id="text4246-8-3"
       transform="matrix(1.0294788,0.15704104,-0.60436617,0.87917276,0,0)"><tspan
         sodipodi:role="line"
         style="font-size:25.28764343px;line-height:1.25;fill:#ffffff;stroke:#ffffff;stroke-width:0.41015577;stroke-miterlimit:4;stroke-dasharray:none;stroke-opacity:1"
         x="659.43341"
         y="516.69019"
         id="tspan4150-8-6">Ffff</tspan></text>
    <text
       xml:space="preserve"
       style="font-style:normal;font-variant:normal;font-weight:normal;font-stretch:normal;font-size:13.87211895px;line-height:0%;font-family:Lavi;-inkscape-font-specification:Lavi;text-align:center;letter-spacing:0px;word-spacing:0px;text-anchor:middle;fill:#000000;fill-opacity:1;stroke:#000000;stroke-width:1.60000002;stroke-miterlimit:4;stroke-dasharray:none;stroke-opacity:1"
       x="1265.1823"
       y="1197.7053"
       id="text4246-7-6-2-04-7"
       transform="skewX(-10.479117)"><tspan
         sodipodi:role="line"
         style="font-size:52.02044678px;line-height:1.25;stroke:#000000;stroke-width:1.60000002;stroke-miterlimit:4;stroke-dasharray:none;stroke-opacity:1"
         x="1265.1823"
         y="1201.7373"
         id="tspan1006-5" /><tspan
         sodipodi:role="line"
         style="font-size:52.02044678px;line-height:1.25;stroke:#000000;stroke-width:1.60000002;stroke-miterlimit:4;stroke-dasharray:none;stroke-opacity:1"
         x="1265.1823"
         y="1201.7373"
         id="tspan1008-6" /><tspan
         sodipodi:role="line"
         style="font-size:52.02044678px;line-height:1.25;stroke:#000000;stroke-width:1.60000002;stroke-miterlimit:4;stroke-dasharray:none;stroke-opacity:1"
         x="1265.1823"
         y="1245.3379"
         id="tspan1010-2">¡Nunca!</tspan></text>
    <text
       xml:space="preserve"
       style="font-style:normal;font-variant:normal;font-weight:normal;font-stretch:normal;line-height:0%;font-family:Lavi;-inkscape-font-specification:Lavi;text-align:center;letter-spacing:0px;word-spacing:0px;text-anchor:middle;display:inline;fill:#000000;fill-opacity:1;stroke:#000000;stroke-width:1.10000002;stroke-miterlimit:4;stroke-dasharray:none;stroke-opacity:1"
       x="811.54419"
       y="1010.7184"
       id="text4246-7-6-2"
       transform="skewX(-26.235822)"><tspan
         sodipodi:role="line"
         style="font-size:45px;line-height:1.25;stroke:#000000;stroke-width:1.10000002;stroke-miterlimit:4;stroke-dasharray:none;stroke-opacity:1"
         x="811.54419"
         y="1010.7184"
         id="tspan1069-6">Gurrrrr....!!!</tspan></text>
  </g>
</svg>
