<?xml version="1.0" encoding="UTF-8" standalone="no"?>
<!-- Created with Inkscape (http://www.inkscape.org/) -->

<svg
   id="svg2"
   version="1.1"
   inkscape:version="1.2.2 (b0a8486541, 2022-12-01)"
   width="2481"
   height="3503"
   sodipodi:docname="E38P04.svg"
   xmlns:inkscape="http://www.inkscape.org/namespaces/inkscape"
   xmlns:sodipodi="http://sodipodi.sourceforge.net/DTD/sodipodi-0.dtd"
   xmlns:xlink="http://www.w3.org/1999/xlink"
   xmlns="http://www.w3.org/2000/svg"
   xmlns:svg="http://www.w3.org/2000/svg"
   xmlns:rdf="http://www.w3.org/1999/02/22-rdf-syntax-ns#"
   xmlns:cc="http://creativecommons.org/ns#"
   xmlns:dc="http://purl.org/dc/elements/1.1/">
  <metadata
     id="metadata8">
    <rdf:RDF>
      <cc:Work
         rdf:about="">
        <dc:format>image/svg+xml</dc:format>
        <dc:type
           rdf:resource="http://purl.org/dc/dcmitype/StillImage" />
        <dc:title />
      </cc:Work>
    </rdf:RDF>
  </metadata>
  <defs
     id="defs6">
    <rect
       x="1023.9013"
       y="2467.522"
       width="229.90996"
       height="163.07567"
       id="rect1892" />
    <filter
       style="color-interpolation-filters:sRGB"
       id="filter4375-4-1-1-1-9-5-8-8-3-3"
       inkscape:label="Drop Shadow"
       x="-0.044641632"
       y="-0.086534368"
       width="1.0758945"
       height="1.2215658">
      <feFlood
         id="feFlood4377-7-9-0-8-1-7-3-1-6-61"
         flood-opacity="1"
         flood-color="rgb(87,166,204)"
         result="flood"
         radius="5.0999999999999996" />
      <feComposite
         id="feComposite4379-3-8-8-2-77-4-1-0-7-2"
         in2="SourceGraphic"
         in="flood"
         operator="in"
         result="composite1"
         baseFrequency="0.053999999999999999 0.053999999999999999" />
      <feMorphology
         id="feMorphology4393-1-0-49-8-9-3-0-1-5-9"
         operator="dilate"
         radius="5.1272503082614058"
         result="result3" />
      <feComposite
         id="feComposite4385-9-5-7-0-8-8-7-5-3-3"
         in2="result3"
         in="SourceGraphic"
         operator="over"
         result="fbSourceGraphic"
         numOctaves="4" />
      <feColorMatrix
         result="fbSourceGraphicAlpha"
         in="fbSourceGraphic"
         values="0 0 0 -1 0 0 0 0 -1 0 0 0 0 -1 0 0 0 0 1 0"
         id="feColorMatrix4544-9-5-1" />
      <feTurbulence
         id="feTurbulence4546-3-6-9"
         type="fractalNoise"
         numOctaves="4.4123222748815163"
         seed="172"
         baseFrequency="0.062 0.054054054054054057"
         result="turbulence" />
      <feDisplacementMap
         id="feDisplacementMap4548-8-2-4"
         in2="turbulence"
         in="fbSourceGraphic"
         scale="10.781991"
         yChannelSelector="G"
         xChannelSelector="R"
         result="fbSourceGraphic" />
      <feColorMatrix
         result="fbSourceGraphicAlpha"
         in="fbSourceGraphic"
         values="0 0 0 -1 0 0 0 0 -1 0 0 0 0 -1 0 0 0 0 1 0"
         id="feColorMatrix4670-7-9-7"
         scale="10.800000000000001" />
      <feFlood
         id="feFlood4672-4-1-8"
         flood-opacity="0"
         flood-color="rgb(45,8,0)"
         result="flood"
         in="fbSourceGraphic"
         dx="-2.3999999999999999" />
      <feComposite
         id="feComposite4674-8-2-4"
         in2="fbSourceGraphic"
         in="flood"
         operator="in"
         result="composite1" />
      <feGaussianBlur
         id="feGaussianBlur4676-3-7-50"
         in="composite1"
         stdDeviation="0"
         result="blur" />
      <feOffset
         id="feOffset4678-6-0-3"
         dx="-2.3696682464454994"
         dy="3.1000000000000001"
         result="offset" />
      <feComposite
         id="feComposite4680-4-9-6"
         in2="offset"
         in="fbSourceGraphic"
         operator="over"
         result="composite2" />
    </filter>
  </defs>
  <sodipodi:namedview
     pagecolor="#ffffff"
     bordercolor="#666666"
     borderopacity="1"
     objecttolerance="10"
     gridtolerance="10"
     guidetolerance="10"
     inkscape:pageopacity="0"
     inkscape:pageshadow="2"
     inkscape:window-width="1888"
     inkscape:window-height="1144"
     id="namedview4"
     showgrid="false"
     inkscape:zoom="0.37405948"
     inkscape:cx="1392.8266"
     inkscape:cy="1625.4099"
     inkscape:window-x="32"
     inkscape:window-y="0"
     inkscape:window-maximized="1"
     inkscape:current-layer="layer1"
     inkscape:showpageshadow="0"
     inkscape:pagecheckerboard="0"
     inkscape:deskcolor="#d1d1d1" />
  <g
     inkscape:groupmode="layer"
     id="layer2"
     inkscape:label="artwork"
     sodipodi:insensitive="true">
    <image
       xlink:href="../gfx_Pepper-and-Carrot_by-David-Revoy_E38P04.png"
       y="0"
       x="0"
       id="image10"
       height="3503"
       width="2481" />
  </g>
  <path
     style="color:#000000;display:inline;overflow:visible;visibility:visible;fill:#ffffff;fill-opacity:1;fill-rule:nonzero;stroke:none;stroke-width:0.999999px;marker:none;enable-background:accumulate"
     d="m 1707.5542,2031.0517 c -33.7241,86.288 24.3827,161.6365 22.7214,224.0306 -1.747,56.5345 3.233,81.3805 -4.3176,97.0072 17.6416,12.3945 24.5002,64.0279 36.8009,50.5952 12.3008,-13.4333 -14.2555,45.5813 -14.2555,45.5813 0,0 -48.406,-3.2408 -62.0153,-45.6293 -13.6092,-42.3886 16.053,-109.3925 19.9573,-147.9407 3.9042,-38.5479 -18.8728,-78.7992 -18.6406,-110.548 0.2313,-31.7496 -0.8231,-80.519 19.7494,-113.0963 z"
     id="path4538-7"
     inkscape:connector-curvature="0"
     sodipodi:nodetypes="cccccsscc" />
  <path
     style="color:#000000;display:inline;overflow:visible;visibility:visible;fill:#ffffff;fill-opacity:1;fill-rule:nonzero;stroke:none;stroke-width:1px;marker:none;enable-background:accumulate"
     d="m 415.71737,1808.757 c -26.98194,-21.2495 -52.89928,-35.4635 -53.40136,-63.9201 -2.29747,-22.5355 26.57239,-51.1483 24.36276,-80.9123 -2.20836,-29.7644 -27.4773,-50.6445 -37.02194,-58.8715 22.30057,-6.5256 52.6529,-24.219 68.20209,-17.1468 15.54933,7.0723 -18.02024,-23.9979 -18.02024,-23.9979 0,0 -61.18955,1.7064 -78.39293,24.023 -17.20326,22.3169 33.76744,57.5933 38.70283,77.8883 4.93526,20.2947 -22.06026,49.9447 -21.76674,66.6599 0.29238,48.3513 64.6098,67.6632 77.33553,76.2774 z"
     id="path4538-7-3"
     inkscape:connector-curvature="0"
     sodipodi:nodetypes="ccscccsscc" />
  <g
     inkscape:groupmode="layer"
     id="layer3"
     inkscape:label="speechbubbles">
    <path
       style="display:inline;fill:#ffffff;stroke:none;stroke-width:1.02351"
       d="m 1081.7789,2194.2628 c -72.8326,1.019 -145.78704,15.7744 -201.68732,43.6043 -32.08738,16.0475 -57.51629,37.4891 -67.12054,61.8492 -11.59091,27.6756 -11.17374,56.4354 -9.48825,84.7343 1.69617,26.4719 4.12639,53.0133 0.7166,79.476 -0.64022,6.0638 -2.19917,12.109 -1.45081,18.1964 1.06539,14.7755 5.9296,29.3392 10.98716,43.7873 9.6984,23.7957 27.67444,47.1034 57.70035,64.4105 26.45783,15.1997 60.8038,24.8815 96.34319,30.2475 80.18872,13.7916 165.10282,14.6848 247.69462,9.6566 39.4952,-2.4134 79.3914,-6.0807 116.0421,-15.487 22.3771,-5.6477 44.166,-12.24 64.3311,-20.2967 21.3547,-8.7347 39.4027,-20.6344 49.3934,-34.8785 10.4295,-14.3013 13.3546,-29.9568 15.1879,-45.3378 4.2081,-29.9112 3.8662,-59.9641 2.7423,-89.9455 -1.0342,-19.4083 -1.5824,-38.8247 -2.3984,-58.2354 -1.9889,-30.1646 -9.2217,-60.6773 -29.2147,-88.6776 -15.5347,-21.6327 -41.2107,-41.2324 -75.7426,-53.3742 -32.8577,-11.8223 -70.419,-17.9981 -107.76,-22.7541 -51.6533,-6.2221 -104.5946,-7.215 -157.1609,-7.0227 -3.0387,-0.023 -6.0767,0.03 -9.1152,0.048 z"
       id="path3280-5"
       inkscape:connector-curvature="0"
       sodipodi:nodetypes="csssc" />
    <path
       style="color:#000000;display:inline;overflow:visible;visibility:visible;fill:#ffffff;fill-opacity:1;fill-rule:nonzero;stroke:none;stroke-width:0.999999px;marker:none;enable-background:accumulate"
       d="m 1194.4261,2219.843 c 45.8361,-19.5196 82.587,-105.5394 -49.1007,-120.7493 127.103,-6.1934 159.2541,38.4346 96.4979,159.5477 -28.3877,54.7848 -31.2357,-25.6942 -31.2357,-25.6942 z"
       id="path4035-4"
       inkscape:connector-curvature="0"
       sodipodi:nodetypes="ccscc" />
    <path
       style="fill:#ffffff;stroke:none;stroke-width:0.999999"
       d="m 809.73291,126.59835 c -35.05645,0.24114 -70.8204,2.45344 -103.80141,12.76758 -31.44304,10.1501 -53.48837,35.6673 -56.63121,62.6674 -2.5757,21.1681 3.55642,43.6754 20.49457,60.3432 16.17688,15.7324 40.22483,24.9198 64.67956,28.94 23.46851,3.8265 47.46346,4.9192 71.34387,5.5228 27.16181,0.4799 54.35312,-0.1369 81.45745,-1.5572 26.34695,-2.4681 52.62215,-10.7227 71.50278,-26.1426 16.75657,-13.2877 27.46169,-32.1555 25.99254,-51.3185 -0.78901,-21.9245 -10.72053,-44.0357 -29.67988,-59.98155 -15.00682,-11.50473 -35.10944,-17.07178 -54.67748,-21.40324 -29.50434,-6.50133 -60.06429,-10.13503 -90.68079,-9.83789 z"
       id="path3280-10"
       inkscape:connector-curvature="0"
       sodipodi:nodetypes="csssc" />
    <path
       style="display:inline;fill:#ffffff;stroke:none;stroke-width:1"
       d="m 1267.9188,543.85448 c -43.6866,-16.7148 -73.9387,-64.6419 -41.3589,-116.27864 19.7402,-31.2873 35.1022,-48.40898 35.1022,-48.40898 l -37.5089,2.15924 -24.2698,34.33821 c 0,0 -40.3372,98.02142 68.0354,128.19017 z"
       id="path3063-1-6"
       inkscape:connector-curvature="0"
       sodipodi:nodetypes="cscccc" />
    <path
       style="fill:#ffffff;fill-rule:evenodd;stroke:none;stroke-width:1px;stroke-linecap:butt;stroke-linejoin:miter;stroke-opacity:1"
       d="m 2151.4643,1034.3276 c 3.813,13.612 19.8117,22.2508 22.7974,32.4416 0.4278,4.9156 -2.7714,8.4856 -4.8902,12.015 -3.7283,5.4459 -18.0962,30.0091 -18.5828,37.712 -0.1397,9.1352 8.308,16.0816 14.6894,12.2332 4.8705,-2.3897 8.8711,-0.1294 9.728,-6.4196 2.4151,-8.411 16.5023,-41.9245 20.2796,-49.1746 2.4202,-6.4816 0.7708,-14.7433 -3.4765,-19.2722 -6.907,-9.4821 -17.1682,-11.5411 -25.2954,-18.8894 -10.7486,-11.6758 9.6447,-50.61274 16.4743,-64.02001 -6.1842,2.90653 -37.7876,56.72531 -31.7238,63.37401 z"
       id="path4272-2"
       inkscape:connector-curvature="0"
       sodipodi:nodetypes="ccssscccccc" />
    <path
       style="fill:#ffffff;stroke:none;stroke-width:1.01401"
       d="m 839.95007,249.55948 c -34.72185,2.27987 -67.09467,14.29474 -100.03836,23.10405 -22.25837,6.47531 -44.76957,15.73525 -59.47387,32.25888 -23.38563,25.39473 -32.90738,58.45043 -33.62074,90.51725 -0.73031,38.37927 9.19342,77.20748 30.62151,110.87762 19.17766,26.83319 51.90221,44.92664 86.79708,52.3465 38.60689,8.78514 79.13158,8.17654 118.48709,4.16161 35.03368,-4.30252 69.18524,-16.34603 96.18615,-36.48948 25.40537,-18.35165 45.89427,-43.30565 52.14147,-71.91932 4.9274,-22.89441 3.2349,-46.29513 3.1857,-69.44514 -0.8284,-24.2941 -5.4471,-49.49227 -20.9581,-70.21448 -18.56748,-25.38584 -48.67325,-43.29238 -81.3557,-52.28077 -29.45468,-9.01434 -60.7719,-13.27159 -91.97223,-12.91672 z"
       id="path3100-98"
       inkscape:connector-curvature="0"
       sodipodi:nodetypes="zsssssz" />
    <path
       style="fill:#ffffff;fill-rule:evenodd;stroke:none;stroke-width:0.999993px;stroke-linecap:butt;stroke-linejoin:miter;stroke-opacity:1"
       d="m 2080.5895,1165.4071 c 3.3262,-33.8764 41.6859,-52.579 72.7741,-46.9784 25.8394,-0.5847 58.872,1.1633 72.6458,26.8263 12.4489,28.269 -14.5084,63.1107 -45.0957,59.1001 -34.2198,3.0609 -75.2376,0.8924 -98.1895,-28.3999 -1.9106,-3.1256 -2.7073,-6.9264 -2.1347,-10.5481 z"
       id="path1285"
       inkscape:connector-curvature="0" />
    <path
       style="fill:#ffffff;fill-rule:evenodd;stroke:none;stroke-width:0.999996px;stroke-linecap:butt;stroke-linejoin:miter;stroke-opacity:1"
       d="m 1365.2549,139.55552 c -48.8797,0.007 -98.3408,-0.65971 -146.0957,5.93561 -39.6012,6.0203 -77.2845,18.27748 -105.804,37.14052 -12.0409,8.33387 -19.7397,18.89865 -26.35,29.47965 -14.6372,24.41378 -17.3232,52.12463 -6.9119,78.05501 12.1268,32.0219 42.4754,61.98204 85.8421,79.65362 21.6558,8.67443 46.8838,13.05639 71.7978,12.98701 31.8301,0.94711 63.6252,0.37597 95.447,0.90815 45.4901,0.01 91.5861,-0.49531 135.4688,-8.07048 30.2178,-5.37741 58.8619,-15.8283 78.2006,-32.06202 24.0738,-19.40163 35.5556,-44.98514 34.0672,-70.33127 -0.2515,-29.59517 -12.0427,-59.80708 -37.0435,-85.19097 -19.3429,-17.77163 -48.8867,-29.66121 -79.5803,-36.90527 -31.8405,-7.66161 -65.5836,-11.08601 -99.0381,-11.59956 z"
       id="path1289"
       inkscape:connector-curvature="0"
       sodipodi:nodetypes="csssssssscc" />
    <path
       style="color:#000000;display:inline;overflow:visible;visibility:visible;fill:#ffffff;fill-opacity:1;fill-rule:nonzero;stroke:none;stroke-width:0.999999px;marker:none;enable-background:accumulate"
       d="m 709.23042,635.12039 c 90.9194,5.17139 103.93742,-82.12184 83.66659,-148.47756 -20.27099,-66.35455 -5.51814,-41.54615 -5.51814,-41.54615 l 34.28339,7.09789 c 0,0 57.50435,216.25637 -112.43184,182.92582 z"
       id="path3072-56"
       inkscape:connector-curvature="0"
       sodipodi:nodetypes="ccccc" />
    <path
       style="color:#000000;display:inline;overflow:visible;visibility:visible;fill:#ffffff;fill-opacity:1;fill-rule:nonzero;stroke:none;stroke-width:1px;marker:none;enable-background:accumulate"
       d="m 1087.4572,1915.5501 c 46.4378,6.848 72.1287,-9.9568 84.9916,-22.9791 -3.3421,-5.4461 -12.3203,-21.4734 -12.3203,-21.4734 -2.9694,-0.642 38.2293,-17.701 48.172,-30.028 9.0834,-11.2616 -11.5309,-29.4873 -11.5309,-29.4873 -14.2164,-16.9604 9.1287,12.7285 -70.3691,48.6913 9.7254,14.621 15.6982,22.6585 19.4108,29.6818 -3.9586,3.8647 -36.6798,26.5229 -58.3541,25.5947 z"
       id="path4456-3"
       inkscape:connector-curvature="0"
       sodipodi:nodetypes="cccscccc"
       inkscape:transform-center-x="-4.1291461"
       inkscape:transform-center-y="8.0335027" />
    <path
       style="color:#000000;display:inline;overflow:visible;visibility:visible;fill:#ffffff;fill-opacity:1;fill-rule:nonzero;stroke:none;stroke-width:0.999994px;marker:none;enable-background:accumulate"
       d="m 1142.6046,1636.7194 c -5.8299,24.4807 -38.7112,26.5342 -50.8156,21.5582 24.3998,27.3861 23.5491,44.402 -9.5789,47.0429 55.5564,49.3581 10.1564,41.8891 1.2016,54.4038 43.622,17.0103 29.1634,42.7908 1.1636,54.6415 50.1393,0.7238 38.0014,18.0967 19.0187,43.0964 22.1996,-16.3674 56.4448,-28.137 57.6598,14.6566 32.1655,-37.3837 48.7612,-36.6556 60.3929,5.6174 9.716,-36.4522 42.7995,-43.4676 55.4501,-4.1554 10.8975,-53.2037 49.7814,-45.7132 72.9274,-19.9285 -6.4965,-9.0988 -19.7873,-50.1567 39.6405,-32.2972 13.3461,4.0109 20.795,-5.8494 10.9919,-16.2535 -17.3381,-18.831 -12.8326,-24.8398 9.5375,-22.0595 -25.7677,-10.0759 -26.1093,-26.9186 21.7354,-38.1037 -36.4071,-1.0808 -70.3568,-3.2979 -27.6435,-41.4425 -13.4003,-0.923 -84.308,-10.4707 -19.3525,-56.8663 -59.3612,26.5622 -77.526,20.1206 -54.0956,-25.8266 -68.7783,49.1202 -79.7695,53.2149 -86.2891,11.9359 -9.0889,36.411 -36.695,21.1642 -51.036,-3.6877 -9.4757,24.6627 -23.6505,41.3202 -50.9082,7.6682 z"
       id="path3549-3-7-8"
       inkscape:connector-curvature="0"
       sodipodi:nodetypes="ccccccccccsccccccccc" />
    <path
       style="fill:#ffffff;stroke:none;stroke-width:0.999992"
       d="m 308.65261,1434.1719 c -18.81276,2.9763 -37.38465,11.7166 -56.59047,8.3712 -12.48762,-2.1917 -25.53503,-6.9266 -37.97498,-1.8645 -23.71727,12.8831 -43.97401,34.3762 -69.26918,43.0913 -10.15849,4.1981 -20.21082,12.9857 -22.81485,26.2508 -4.83667,20.8472 -1.14338,43.4083 -7.80457,63.7953 -2.1896,7.9213 -4.03316,17.8682 0.82939,24.9302 6.94645,10.0131 18.45999,13.4131 24.83479,24.1937 5.91757,8.7285 11.69784,18.9852 21.14756,22.3049 12.83547,5.5004 25.98157,9.9618 38.56381,16.301 21.73921,8.9573 45.03281,11.6561 67.86062,9.3105 40.04149,-1.7708 80.01587,-6.4123 120.11714,-5.6499 17.63109,-0.651 35.83422,-1.4572 52.29679,-9.9154 12.86222,-10.4239 17.86074,-30.7007 31.94252,-39.3673 8.98262,-6.2471 19.69252,-11.4585 24.57279,-23.3425 5.23697,-12.8335 2.0462,-28.1021 -3.67633,-39.8602 -5.67446,-12.9268 -7.85236,-27.8006 -7.04247,-42.3381 -0.0283,-11.0665 -0.98613,-23.7382 -8.37525,-31.4694 -9.32448,-9.6447 -22.22509,-10.0026 -33.16865,-15.4526 -12.66353,-5.5497 -24.3959,-14.3775 -37.69609,-17.6553 -10.92128,-2.2443 -21.89692,0.6886 -32.5619,3.3526 -11.79985,2.1175 -24.16545,0.4227 -34.94062,-5.9465 -9.72278,-4.4031 -19.66254,-9.4506 -30.25005,-9.0398 z"
       id="path3280-7"
       inkscape:connector-curvature="0"
       sodipodi:nodetypes="csssc" />
    <path
       style="fill:#ffffff;stroke:none;stroke-width:1.00001"
       d="m 1021.5107,1583.5797 c 21.9748,-10.7543 31.2087,-25.4057 28.0037,-43.8617 43.0671,5.6944 52.8264,0.1243 80.1264,-23.0425 44.419,6.7466 96.813,15.0877 160.5193,7.6911 7.6153,19.9338 24.499,44.6302 46.7426,60.7608 -35.7855,28.6087 -22.5108,52.6157 -21.3633,74.9803 -41.5192,-5.3138 -43.9663,4.4901 -82.6807,16.1908 l -117.892,-4.9184 c -11.7807,-17.6539 -37.1324,-20.0182 -63.4588,-21.2847 3.7357,-21.9333 -6.3367,-51.7987 -29.9972,-66.5157 z"
       id="path3280-7-1"
       inkscape:connector-curvature="0"
       sodipodi:nodetypes="cccccccccc" />
    <path
       style="color:#000000;display:inline;overflow:visible;visibility:visible;fill:#ffffff;fill-opacity:1;fill-rule:nonzero;stroke:none;stroke-width:1px;marker:none;enable-background:accumulate"
       d="m 1742.1379,1431.1622 c -50.7985,-0.1765 -102.9832,5.0813 -149.3826,25.9611 -43.6128,18.6394 -69.6418,65.1879 -66.7729,109.7456 1.0136,21.4848 8.0465,42.7297 20.9706,60.4726 14.1877,20.0408 35.1008,35.5461 58.8945,44.0804 44.4532,17.7439 93.1049,23.2738 140.9617,24.481 61.3691,0.8027 122.8425,-8.3825 181.1473,-26.4674 22.431,-7.5992 45.3154,-19.172 57.3927,-39.5234 18.4954,-30.522 20.3417,-68.3703 9.9172,-101.6927 -6.5142,-21.4002 -20.0813,-40.7375 -38.5779,-54.5059 -21.853,-16.8591 -49.2178,-25.1555 -76.1351,-31.583 -45.2546,-10.2669 -92.1177,-11.1544 -138.4155,-10.9683 z"
       id="path3365-90"
       inkscape:connector-curvature="0"
       sodipodi:nodetypes="csssssc" />
    <path
       style="color:#000000;display:inline;overflow:visible;visibility:visible;fill:#ffffff;fill-opacity:1;fill-rule:nonzero;stroke:none;stroke-width:1px;marker:none;enable-background:accumulate"
       d="m 1689.6997,2497.7274 c -20.6097,0.1577 -41.6873,1.5534 -61.0335,8.7582 -17.3296,6.6796 -30.5816,20.976 -37.1296,37.2665 -6.1919,15.4657 -9.6879,32.4148 -6.4172,48.8576 3.4387,18.1043 18.6034,33.5276 37.3159,38.7263 16.5121,5.2856 33.6173,8.8791 50.8799,11.1739 20.8731,2.6565 41.9847,3.7457 63.0401,3.168 28.424,-1.2562 56.6466,-5.9563 83.9218,-13.5248 12.1702,-3.8011 23.9645,-10.3549 31.0272,-20.6817 9.3206,-13.0283 12.3661,-29.3936 10.3616,-44.8183 -2.0781,-14.2546 -9.8677,-27.6169 -21.3259,-37.1416 -13.4897,-11.5281 -30.7338,-18.2519 -48.0911,-22.8504 -33.2978,-8.7577 -68.2425,-8.9914 -102.5492,-8.9337 z"
       id="path3365-90-4"
       inkscape:connector-curvature="0"
       sodipodi:nodetypes="csssssc" />
    <path
       style="color:#000000;display:inline;overflow:visible;visibility:visible;fill:#ffffff;fill-opacity:1;fill-rule:nonzero;stroke:none;stroke-width:0.999995px;marker:none;enable-background:accumulate"
       d="m 1690.9219,2384.2987 c -18.5109,0.1521 -37.4421,1.4982 -54.8182,8.447 -15.5647,6.4422 -27.467,20.2306 -33.3483,35.9422 -5.5614,14.9162 -8.7015,31.2631 -5.7638,47.1216 3.0887,17.4608 16.7091,32.3362 33.5157,37.3501 14.8306,5.0978 30.1939,8.5636 45.6988,10.7769 18.7474,2.5622 37.709,3.6125 56.6203,3.0554 25.5294,-1.2116 50.878,-5.7446 75.3755,-13.0442 10.9307,-3.666 21.524,-9.987 27.8674,-19.9468 8.3716,-12.5653 11.1068,-28.3491 9.3065,-43.2257 -1.8663,-13.7481 -8.8629,-26.6357 -19.1541,-35.8217 -12.116,-11.1186 -27.604,-17.6035 -43.1938,-22.0385 -29.907,-8.4465 -61.293,-8.672 -92.106,-8.6163 z"
       id="path3365-90-4-4"
       inkscape:connector-curvature="0"
       sodipodi:nodetypes="csssssc" />
    <path
       style="color:#000000;display:inline;overflow:visible;visibility:visible;fill:#ffffff;fill-opacity:1;fill-rule:nonzero;stroke:none;stroke-width:0.999999px;marker:none;enable-background:accumulate"
       d="m 1619.6473,2277.7277 c -5.2278,17.3535 -34.7133,18.809 -45.5678,15.2817 21.88,19.4135 21.1171,31.4749 -8.5898,33.3483 49.8192,34.9881 9.1076,29.6937 1.0775,38.5654 39.1173,12.0583 24.4262,16.4741 8.3283,29.7836 44.9614,0.5125 39.4704,12.4678 20.5929,29.9454 28.162,-10.0221 43.3904,-22.6987 40.8824,19.9447 24.2185,-23.6799 51.6845,-34.4125 68.4039,3.0116 11.9825,-25.4798 24.338,-39.6068 45.9145,-2.5 -5.896,-39.9458 33.4633,-28.657 60.301,-17.4854 -6.3728,-10.6779 4.413,-38.3974 30.6744,-25.9626 -17.8391,-17.4597 4.5023,-19.9526 21.8909,-24.779 -23.1066,-7.1428 -27.3651,-14.5105 15.5387,-22.4393 -32.6472,-0.7671 -63.0911,-2.3382 -24.7887,-29.3781 -12.0166,-0.6539 -40.527,21.908 -27.2343,-44.1215 -20.6631,21.1385 -42.7087,32.8054 -70.356,-11.4739 -29.0736,34.4805 -33.1133,-0.9201 -42.9862,-28.5513 -3.5486,11.7793 -17.7299,45.2539 -30.2212,45.7914 -4.8304,-4.6796 -13.0104,-6.0912 -18.2093,-14.4175 -8.4974,17.4831 -21.2083,29.2914 -45.6512,5.4365 z"
       id="path3549-3-7-1"
       inkscape:connector-curvature="0"
       sodipodi:nodetypes="cccccccccccccccccccc" />
    <path
       style="display:inline;fill:#ffffff;fill-rule:evenodd;stroke:none;stroke-width:0.999998px;stroke-linecap:butt;stroke-linejoin:miter;stroke-opacity:1"
       d="m 1897.9975,1762.1171 c -93.6968,5.0406 -112.3781,-54.02 -108.9143,-74.5283 3.4638,-20.5079 35.2288,-62.9834 31.0406,-47.1737 -6.2946,23.7614 -12.0556,106.1175 77.8737,121.702 z"
       id="path4293"
       inkscape:connector-curvature="0"
       sodipodi:nodetypes="cssc" />
  </g>
  <g
     inkscape:groupmode="layer"
     id="layer1"
     inkscape:label="txt">
    <text
       id="text4178-0"
       y="194.41461"
       x="816.0921"
       style="font-style:normal;font-variant:normal;font-weight:normal;font-stretch:normal;line-height:0%;font-family:Lavi;-inkscape-font-specification:Lavi;text-align:center;letter-spacing:0px;word-spacing:0px;text-anchor:middle;fill:#000000;fill-opacity:1;stroke:none"
       xml:space="preserve"><tspan
         y="194.41461"
         x="816.0921"
         style="font-size:40.6767px;line-height:1.25"
         sodipodi:role="line"
         id="tspan494">Ist das nicht</tspan><tspan
         y="245.26048"
         x="816.0921"
         style="font-size:40.6767px;line-height:1.25"
         sodipodi:role="line"
         id="tspan1842">offensichtlich?</tspan></text>
    <text
       id="text4178-0-9"
       y="325.28806"
       x="844.46021"
       style="font-style:normal;font-variant:normal;font-weight:normal;font-stretch:normal;line-height:0%;font-family:Lavi;-inkscape-font-specification:Lavi;text-align:center;letter-spacing:0px;word-spacing:0px;text-anchor:middle;fill:#000000;fill-opacity:1;stroke:none"
       xml:space="preserve"><tspan
         y="325.28806"
         x="844.46021"
         style="font-size:40.6767px;line-height:1.25"
         sodipodi:role="line"
         id="tspan502">Ich habe mich </tspan><tspan
         y="376.13394"
         x="844.46021"
         style="font-size:40.6767px;line-height:1.25"
         sodipodi:role="line"
         id="tspan1853">entschlossen, </tspan><tspan
         y="426.9798"
         x="844.46021"
         style="font-size:40.6767px;line-height:1.25"
         sodipodi:role="line"
         id="tspan1855">alles aufzugeben </tspan><tspan
         y="477.82568"
         x="844.46021"
         style="font-size:40.6767px;line-height:1.25"
         sodipodi:role="line"
         id="tspan1857">und ganz neu</tspan><tspan
         y="528.67157"
         x="844.46021"
         style="font-size:40.6767px;line-height:1.25"
         sodipodi:role="line"
         id="tspan1859">anzufangen.</tspan></text>
    <text
       id="text4178-0-8"
       y="226.88895"
       x="1326.9369"
       style="font-style:normal;font-variant:normal;font-weight:normal;font-stretch:normal;line-height:0%;font-family:Lavi;-inkscape-font-specification:Lavi;text-align:center;letter-spacing:0px;word-spacing:0px;text-anchor:middle;fill:#000000;fill-opacity:1;stroke:none"
       xml:space="preserve"><tspan
         y="226.88895"
         x="1326.9369"
         style="font-style:normal;font-variant:normal;font-weight:normal;font-stretch:normal;font-size:40.6767px;line-height:1.25;font-family:Lavi;-inkscape-font-specification:Lavi"
         sodipodi:role="line"
         id="tspan876">Von nun an bin ich die</tspan><tspan
         y="277.73483"
         x="1326.9369"
         style="font-size:40.6767px;line-height:1.25"
         sodipodi:role="line"
         id="tspan870"><tspan
   id="tspan1865"
   style="font-weight:bold;font-size:40.6767px;line-height:1.25">große Heilerin</tspan><tspan
   style="font-weight:bold"
   id="tspan880"> Peph'Ra</tspan>,</tspan><tspan
         y="328.58069"
         x="1326.9369"
         style="font-size:40.6767px;line-height:1.25"
         sodipodi:role="line"
         id="tspan872">wie du sehen kannst.</tspan></text>
    <text
       id="text4178-0-8-3"
       y="1164.1686"
       x="2158.5315"
       style="font-style:normal;font-variant:normal;font-weight:normal;font-stretch:normal;font-size:18.1011px;line-height:0%;font-family:Lavi;-inkscape-font-specification:Lavi;text-align:center;letter-spacing:0px;word-spacing:0px;text-anchor:middle;fill:#000000;fill-opacity:1;stroke:none;stroke-width:1"
       xml:space="preserve"><tspan
         y="1164.1686"
         x="2158.5315"
         style="font-size:61.3576px;line-height:1.25;stroke-width:1"
         sodipodi:role="line"
         id="tspan10165-3">...</tspan></text>
    <text
       id="text4178-0-8-1"
       y="1510.6494"
       x="308.03033"
       style="font-style:normal;font-variant:normal;font-weight:normal;font-stretch:normal;line-height:0%;font-family:Lavi;-inkscape-font-specification:Lavi;text-align:center;letter-spacing:0px;word-spacing:0px;text-anchor:middle;fill:#000000;fill-opacity:1;stroke:none;stroke-width:1.2;stroke-dasharray:none"
       xml:space="preserve"><tspan
         y="1510.6494"
         x="308.03033"
         style="font-size:40.6767px;line-height:1.25;stroke-width:1.2;stroke-dasharray:none"
         sodipodi:role="line"
         id="tspan1183"> Du fragst dich</tspan><tspan
         y="1561.4952"
         x="308.03033"
         style="font-size:40.6767px;line-height:1.25;stroke-width:1.2;stroke-dasharray:none"
         sodipodi:role="line"
         id="tspan1867">vielleicht</tspan><tspan
         y="1612.3412"
         x="308.03033"
         style="font-size:40.6767px;line-height:1.25;stroke-width:1.2;stroke-dasharray:none"
         sodipodi:role="line"
         id="tspan2150"><tspan
   style="font-style:normal;font-variant:normal;font-weight:bold;font-stretch:normal;font-family:Lavi;-inkscape-font-specification:'Lavi Bold'"
   id="tspan600">&quot;Aber Warum&quot;</tspan>?!</tspan></text>
    <text
       id="text4178-0-8-1-5"
       y="1601.9043"
       x="1180.2919"
       style="font-style:normal;font-variant:normal;font-weight:normal;font-stretch:normal;line-height:0%;font-family:Lavi;-inkscape-font-specification:Lavi;text-align:center;letter-spacing:0px;word-spacing:0px;text-anchor:middle;fill:#000000;fill-opacity:1;stroke:none"
       xml:space="preserve"><tspan
         y="1601.9043"
         x="1180.2919"
         style="font-weight:bold;font-size:40.6767px;line-height:1.25"
         sodipodi:role="line"
         id="tspan10454">Ganz Einfach!</tspan></text>
    <text
       id="text4178-0-8-1-5-0"
       y="1735.2906"
       x="1242.7445"
       style="font-style:normal;font-variant:normal;font-weight:normal;font-stretch:normal;font-size:16.2678px;line-height:0%;font-family:Lavi;-inkscape-font-specification:Lavi;text-align:center;letter-spacing:1.0542px;word-spacing:0px;text-anchor:middle;fill:#000000;fill-opacity:1;stroke:#000000;stroke-width:1.7;stroke-dasharray:none;stroke-opacity:1"
       xml:space="preserve"
       transform="scale(0.99980073,1.0001993)"><tspan
         y="1735.2906"
         x="1242.7445"
         style="font-weight:bold;font-size:55.1434px;line-height:1.25;stroke:#000000;stroke-width:1.7;stroke-dasharray:none;stroke-opacity:1"
         sodipodi:role="line"
         id="tspan1498">Ich hab's</tspan><tspan
         y="1804.2198"
         x="1243.2716"
         style="font-weight:bold;font-size:55.1434px;line-height:1.25;stroke:#000000;stroke-width:1.7;stroke-dasharray:none;stroke-opacity:1"
         sodipodi:role="line"
         id="tspan1838">SATT!</tspan></text>
    <text
       id="text4178-0-8-1-5-2"
       y="2269.2268"
       x="1135.2467"
       style="font-style:normal;font-variant:normal;font-weight:normal;font-stretch:normal;line-height:0%;font-family:Lavi;-inkscape-font-specification:Lavi;text-align:center;letter-spacing:0px;word-spacing:0px;text-anchor:middle;fill:#000000;fill-opacity:1;stroke:none"
       xml:space="preserve"><tspan
         y="2269.2268"
         x="1135.2467"
         style="font-size:40.6767px;line-height:1.25"
         sodipodi:role="line"
         id="tspan1675">Ich <tspan
   style="font-style:normal;font-variant:normal;font-weight:bold;font-stretch:normal;font-family:Lavi;-inkscape-font-specification:'Lavi Bold'"
   id="tspan1914">habe es satt</tspan>, </tspan><tspan
         y="2320.0728"
         x="1135.2467"
         style="font-size:40.6767px;line-height:1.25"
         sodipodi:role="line"
         id="tspan1679">dauernd gejagt zu werden,</tspan><tspan
         y="2370.9185"
         x="1135.2467"
         style="font-size:40.6767px;line-height:1.25"
         sodipodi:role="line"
         id="tspan1886">ich <tspan
   style="font-style:normal;font-variant:normal;font-weight:bold;font-stretch:normal;font-family:Lavi;-inkscape-font-specification:'Lavi Bold'"
   id="tspan1916">habe es </tspan><tspan
   style="font-style:normal;font-variant:normal;font-weight:bold;font-stretch:normal;font-family:Lavi;-inkscape-font-specification:'Lavi Bold'"
   id="tspan1888">satt</tspan>,</tspan><tspan
         y="2421.7644"
         x="1135.2467"
         style="font-size:40.6767px;line-height:1.25"
         sodipodi:role="line"
         id="tspan1884">dass alle über mich lachen,</tspan><tspan
         y="2472.6104"
         x="1135.2467"
         style="font-size:40.6767px;line-height:1.25"
         sodipodi:role="line"
         id="tspan1703"> und vor allem <tspan
   style="font-style:normal;font-variant:normal;font-weight:bold;font-stretch:normal;font-family:Lavi;-inkscape-font-specification:'Lavi Bold'"
   id="tspan1908">habe ich es satt</tspan>,</tspan><tspan
         y="2523.4563"
         x="1135.2467"
         style="font-size:40.6767px;line-height:1.25"
         sodipodi:role="line"
         id="tspan1689">nach einem so intensiven Studium </tspan><tspan
         y="2574.302"
         x="1135.2467"
         style="font-size:40.6767px;line-height:1.25"
         sodipodi:role="line"
         id="tspan1906">keine Arbeit zu finden!</tspan></text>
    <text
       id="text4178-0-5-4-6-9"
       y="1506.8777"
       x="1763.7437"
       style="font-style:normal;font-variant:normal;font-weight:normal;font-stretch:normal;line-height:0%;font-family:Lavi;-inkscape-font-specification:Lavi;text-align:center;letter-spacing:0px;word-spacing:0px;text-anchor:middle;fill:#000000;fill-opacity:1;stroke:none"
       xml:space="preserve"><tspan
         y="1506.8777"
         x="1763.7437"
         style="font-size:40.6767px;line-height:1.25"
         sodipodi:role="line"
         id="tspan1827">Zumindest werde</tspan><tspan
         y="1557.7235"
         x="1763.7437"
         style="font-size:40.6767px;line-height:1.25"
         sodipodi:role="line"
         id="tspan2033">ich hier gebraucht und</tspan><tspan
         y="1608.5695"
         x="1763.7437"
         style="font-size:40.6767px;line-height:1.25"
         sodipodi:role="line"
         id="tspan2045">für <tspan
   style="font-style:normal;font-variant:normal;font-weight:bold;font-stretch:normal;font-family:Lavi;-inkscape-font-specification:'Lavi Bold'"
   id="tspan2037">meine </tspan>Fähigkeiten</tspan><tspan
         y="1659.4153"
         x="1763.7437"
         style="font-size:40.6767px;line-height:1.25"
         sodipodi:role="line"
         id="tspan2035">geschätzt!</tspan></text>
    <text
       id="text4178-0-5"
       y="2370.7153"
       x="1714.1775"
       style="font-style:normal;font-variant:normal;font-weight:normal;font-stretch:normal;font-size:14.6308px;line-height:0%;font-family:Lavi;-inkscape-font-specification:Lavi;text-align:center;letter-spacing:0px;word-spacing:0px;text-anchor:middle;fill:#000000;fill-opacity:1;stroke:none;stroke-width:0.999999"
       xml:space="preserve"><tspan
         y="2370.7153"
         x="1714.1775"
         style="font-weight:bold;font-size:49.5944px;line-height:1.25;stroke-width:0.999999"
         sodipodi:role="line"
         id="tspan4245-6-6-5">Heilerin!</tspan></text>
    <text
       id="text4178-0-5-4"
       y="2445.6521"
       x="1722.2692"
       style="font-style:normal;font-variant:normal;font-weight:normal;font-stretch:normal;font-size:10.4011px;line-height:0%;font-family:Lavi;-inkscape-font-specification:Lavi;text-align:center;letter-spacing:0px;word-spacing:0px;text-anchor:middle;fill:#000000;fill-opacity:1;stroke:none;stroke-width:1"
       xml:space="preserve"><tspan
         y="2445.6521"
         x="1722.2692"
         style="font-size:35.2567px;line-height:1.25;stroke-width:1"
         sodipodi:role="line"
         id="tspan1931">Geh nicht so</tspan><tspan
         y="2489.7229"
         x="1722.2692"
         style="font-size:35.2567px;line-height:1.25;stroke-width:1"
         sodipodi:role="line"
         id="tspan1871">weit weg!</tspan></text>
    <text
       id="text4178-0-5-4-6"
       y="2560.5781"
       x="1726.424"
       style="font-style:normal;font-variant:normal;font-weight:normal;font-stretch:normal;font-size:10.4011px;line-height:0%;font-family:Lavi;-inkscape-font-specification:Lavi;text-align:center;letter-spacing:0px;word-spacing:0px;text-anchor:middle;fill:#000000;fill-opacity:1;stroke:none;stroke-width:1"
       xml:space="preserve"><tspan
         y="2560.5781"
         x="1726.424"
         style="font-size:35.2567px;line-height:1.25;stroke-width:1"
         sodipodi:role="line"
         id="tspan15177">Vinya hat es</tspan><tspan
         y="2604.6489"
         x="1726.424"
         style="font-size:35.2567px;line-height:1.25;stroke-width:1"
         sodipodi:role="line"
         id="tspan1938">böse erwischt.</tspan></text>
    <text
       xml:space="preserve"
       style="font-style:normal;font-variant:normal;font-weight:normal;font-stretch:normal;line-height:0%;font-family:Lavi;-inkscape-font-specification:Lavi;letter-spacing:3.02325px;word-spacing:0px;fill:#daf9ff;fill-opacity:1;stroke:#00bfff;stroke-width:0.808288;stroke-miterlimit:4;stroke-dasharray:none;stroke-opacity:1;filter:url(#filter4375-4-1-1-1-9-5-8-8-3-3)"
       x="787.65729"
       y="1584.5073"
       id="text4580-6-0-0-3"
       transform="matrix(0.63625061,-0.3004975,0.12503652,1.0615485,234.6135,1589.0183)"><tspan
         sodipodi:role="line"
         id="tspan4582-1-1-0-6"
         x="787.65729"
         y="1584.5073"
         style="font-style:normal;font-variant:normal;font-weight:bold;font-stretch:normal;font-size:70px;line-height:1.25;font-family:Lavi;-inkscape-font-specification:'Lavi Bold';fill:#daf9ff;fill-opacity:1;stroke:#00bfff;stroke-width:0.808288;stroke-opacity:1"><tspan
           style="font-size:68.6116px;fill:#daf9ff;fill-opacity:1;stroke:#00bfff;stroke-width:0.808288;stroke-opacity:1"
           id="tspan853-6">Bzing</tspan><tspan
           style="font-size:79.977px;fill:#daf9ff;fill-opacity:1;stroke:#00bfff;stroke-width:0.808288;stroke-opacity:1"
           id="tspan929" /></tspan></text>
    <text
       xml:space="preserve"
       id="text1890"
       style="font-style:normal;font-weight:normal;font-size:40px;line-height:1.25;font-family:sans-serif;letter-spacing:0px;word-spacing:0px;white-space:pre;shape-inside:url(#rect1892);display:inline;fill:#000000;fill-opacity:1;stroke:none" />
  </g>
</svg>
