<?xml version="1.0" encoding="UTF-8" standalone="no"?>
<!-- Created with Inkscape (http://www.inkscape.org/) -->

<svg
   id="svg2"
   version="1.1"
   inkscape:version="1.3 (0e150ed6c4, 2023-07-21)"
   width="2481"
   height="3503"
   sodipodi:docname="E11P03.svg"
   xmlns:inkscape="http://www.inkscape.org/namespaces/inkscape"
   xmlns:sodipodi="http://sodipodi.sourceforge.net/DTD/sodipodi-0.dtd"
   xmlns:xlink="http://www.w3.org/1999/xlink"
   xmlns="http://www.w3.org/2000/svg"
   xmlns:svg="http://www.w3.org/2000/svg"
   xmlns:rdf="http://www.w3.org/1999/02/22-rdf-syntax-ns#"
   xmlns:cc="http://creativecommons.org/ns#"
   xmlns:dc="http://purl.org/dc/elements/1.1/">
  <metadata
     id="metadata8">
    <rdf:RDF>
      <cc:Work
         rdf:about="">
        <dc:format>image/svg+xml</dc:format>
        <dc:type
           rdf:resource="http://purl.org/dc/dcmitype/StillImage" />
        <dc:title />
      </cc:Work>
    </rdf:RDF>
  </metadata>
  <defs
     id="defs6" />
  <sodipodi:namedview
     pagecolor="#ffffff"
     bordercolor="#666666"
     borderopacity="1"
     objecttolerance="10"
     gridtolerance="10"
     guidetolerance="10"
     inkscape:pageopacity="0"
     inkscape:pageshadow="2"
     inkscape:window-width="1920"
     inkscape:window-height="1012"
     id="namedview4"
     showgrid="false"
     inkscape:zoom="0.46000001"
     inkscape:cx="1256.5217"
     inkscape:cy="2741.3043"
     inkscape:window-x="0"
     inkscape:window-y="0"
     inkscape:window-maximized="1"
     inkscape:current-layer="layer3"
     inkscape:showpageshadow="0"
     inkscape:pagecheckerboard="0"
     inkscape:deskcolor="#d1d1d1" />
  <g
     inkscape:groupmode="layer"
     id="layer2"
     inkscape:label="artwork"
     sodipodi:insensitive="true">
    <image
       xlink:href="../gfx_Pepper-and-Carrot_by-David-Revoy_E11P03.png"
       y="0"
       x="0"
       id="image10"
       height="3503"
       width="2481" />
  </g>
  <g
     inkscape:groupmode="layer"
     id="layer3"
     inkscape:label="speechbubbles">
    <path
       style="color:#000000;display:inline;overflow:visible;visibility:visible;fill:#ffffff;fill-opacity:1;fill-rule:nonzero;stroke:none;stroke-width:0.973456px;marker:none;enable-background:accumulate"
       d="m 360.26604,1706.2607 c 24.04886,-40.1993 68.17318,-78.4566 134.51494,-92.161 66.34161,-13.7042 199.57313,-13.0186 221.13426,-8.4504 21.56094,4.5679 140.9543,22.4975 166.6616,45.3382 25.7075,22.8404 55.69089,57.1005 63.15445,86.3363 7.46355,29.2358 0.82925,99.5847 -23.21965,115.1163 -24.04884,15.5316 -133.51253,49.3356 -197.36645,51.1628 -63.85392,1.8274 -212.2932,-12.7907 -254.58608,-22.8404 -42.29289,-10.05 -87.0735,-22.8407 -100.34178,-54.8174 -13.2684,-31.9767 -38.14652,-74.0034 -9.95129,-119.6844 z"
       id="path3533"
       inkscape:connector-curvature="0"
       sodipodi:nodetypes="cscssssssc" />
    <path
       style="color:#000000;display:inline;overflow:visible;visibility:visible;fill:#ffffff;fill-opacity:1;fill-rule:nonzero;stroke:none;stroke-width:1px;marker:none;enable-background:accumulate"
       d="m 883.77495,1745.1358 c 44.44471,-22.895 116.41795,-23.2688 129.48195,54.9811 34.6887,14.392 59.3221,29.36 66.1093,93.306 -13.8854,-45.9668 -26.6681,-69.4371 -79.48608,-86.6191 -11.9779,-39.1913 -54.96889,-53.3177 -104.25568,-15.6318 -49.28677,37.6861 -33.32019,31.3976 -33.32019,31.3976 l 7.61389,-70.6093 z"
       id="path5074"
       inkscape:connector-curvature="0"
       sodipodi:nodetypes="ccccsccc" />
    <path
       style="color:#000000;display:inline;overflow:visible;visibility:visible;fill:#ffffff;fill-opacity:1;fill-rule:nonzero;stroke:none;stroke-width:1.0097px;marker:none;enable-background:accumulate"
       d="m 427.00546,3267.1357 c 13.41132,-72.593 88.68309,-108.6749 373.04534,-102.6317 187.67004,3.9883 349.1519,28.2356 331.2702,134.6221 -17.8818,106.3866 -239.41274,86.6284 -328.35892,87.1485 -96.90895,0.5666 -291.06182,-7.0227 -335.49703,-44.4364 -27.81546,-23.42 -42.69479,-52.1736 -40.45959,-74.7025 z"
       id="path4546"
       inkscape:connector-curvature="0"
       sodipodi:nodetypes="cssssc" />
    <path
       style="color:#000000;display:inline;overflow:visible;visibility:visible;fill:#ffffff;fill-opacity:1;fill-rule:nonzero;stroke:none;stroke-width:1px;marker:none;enable-background:accumulate"
       d="m 864.63199,3060.5665 c 0.60281,11.3961 -3.90053,24.3054 -14.49788,29.8517 -6.26937,2.9571 -13.12333,-0.3682 -19.60868,1.3149 -8.87735,1.5616 -18.01,6.891 -21.21457,15.6855 -1.28873,7.3535 -1.66184,14.8598 -3.54402,22.1198 -6.24452,27.0879 -20.48884,51.5362 -36.47793,73.9732 -7.62671,10.2253 -17.42411,20.6311 -30.69918,22.5037 -16.91193,2.4112 -35.58812,-7.3657 -41.12612,-23.9467 -4.24769,-12.8746 0.8534,-29.2189 13.57707,-35.1775 4.99059,-2.2215 10.9702,-1.7273 15.56727,1.1924 14.43991,5.8871 31.3544,-0.8817 40.91121,-12.4204 4.79054,-6.1289 8.8992,-12.7729 13.1404,-19.2807 5.92186,-10.2134 8.0838,-21.9616 9.83284,-33.4772 1.72742,-9.2342 9.43403,-15.789 17.09132,-20.4126 5.97558,-3.4223 12.70194,-5.5492 19.57067,-6.0961 13.02136,4.8612 28.92892,-6.929 27.86447,-20.8444 -0.80433,-17.6009 -2.89862,-35.1132 -5.41793,-52.5463 6.94885,18.5661 14.27056,37.5149 15.03106,57.5607 z"
       id="path4496"
       inkscape:connector-curvature="0" />
  </g>
  <g
     inkscape:groupmode="layer"
     id="layer1"
     inkscape:label="txt">
    <path
       style="color:#000000;display:inline;overflow:visible;visibility:visible;fill:#ffffff;fill-opacity:1;fill-rule:nonzero;stroke:none;stroke-width:0.928093px;marker:none;enable-background:accumulate"
       d="m 83.746627,104.08241 c -22.681436,19.1256 -28.081769,42.80488 -25.921644,53.73373 2.160152,10.92884 32.402041,61.93036 34.562184,75.59153 2.160139,13.66116 -30.241899,74.68068 -23.761491,94.71702 6.480409,20.03633 18.942052,74.53922 104.267414,80.00351 89.24242,4.51108 375.68601,39.45294 437.92667,-39.02019 C 668.35241,285.5598 676.71052,124.97854 602.17916,94.064298 555.73634,77.670922 136.66994,51.259439 83.746627,104.08241 Z"
       id="path4464"
       inkscape:connector-curvature="0"
       sodipodi:nodetypes="cssscccc" />
    <flowRoot
       xml:space="preserve"
       id="flowRoot2987-4-9-3-5-9-8-3-5"
       style="font-style:normal;font-variant:normal;font-weight:normal;font-stretch:normal;line-height:0.01%;font-family:Lavi;-inkscape-font-specification:Lavi;text-align:center;letter-spacing:0px;word-spacing:0px;text-anchor:middle;fill:#000000;fill-opacity:1;stroke:none"
       transform="translate(5.8563513,-143.93913)"><flowRegion
         id="flowRegion2989-5-4-5-8-9-5-4-2"><rect
           id="rect2991-7-9-6-5-7-5-4-9"
           width="497.70953"
           height="358.25998"
           x="120.55251"
           y="265.53046"
           style="font-style:normal;font-variant:normal;font-weight:normal;font-stretch:normal;font-family:Lavi;-inkscape-font-specification:Lavi;text-align:center;text-anchor:middle" /></flowRegion><flowPara
         style="font-size:45px;line-height:1.25;text-align:center;text-anchor:middle"
         id="flowPara3030-8-1-8-7-8-3">El nuevo rey de Acren es demasiado dulce y bueno con sus súbditos. El pueblo debe temer</flowPara><flowPara
         style="font-size:45px;line-height:1.25;text-align:center;text-anchor:middle"
         id="flowPara2">a su rey.</flowPara></flowRoot>
    <path
       style="color:#000000;display:inline;overflow:visible;visibility:visible;fill:#ffffff;fill-opacity:1;fill-rule:nonzero;stroke:none;stroke-width:1px;marker:none;enable-background:accumulate"
       d="m 559.88244,363.72232 c -13.14604,32.78603 12.63645,114.47239 62.26505,127.10564 -70.18554,-4.07502 -99.34113,-76.97331 -105.63042,-99.95904 -6.28929,-22.98575 43.36537,-27.1466 43.36537,-27.1466 z"
       id="path5010"
       inkscape:connector-curvature="0"
       sodipodi:nodetypes="ccsc" />
    <flowRoot
       xml:space="preserve"
       id="flowRoot2987-4-9-3-5-9-8-3-5-4"
       style="font-style:normal;font-variant:normal;font-weight:normal;font-stretch:normal;line-height:0.01%;font-family:Lavi;-inkscape-font-specification:Lavi;text-align:center;letter-spacing:0px;word-spacing:0px;text-anchor:middle;fill:#000000;fill-opacity:1;stroke:none"
       transform="translate(249.42086,1385.7635)"><flowRegion
         id="flowRegion2989-5-4-5-8-9-5-4-2-2"><rect
           id="rect2991-7-9-6-5-7-5-4-9-5"
           width="538.14276"
           height="365.75751"
           x="120.55251"
           y="265.53046"
           style="font-style:normal;font-variant:normal;font-weight:normal;font-stretch:normal;font-family:Lavi;-inkscape-font-specification:Lavi;text-align:center;text-anchor:middle" /></flowRegion><flowPara
         style="font-size:45px;line-height:1.25;text-align:center;text-anchor:middle"
         id="flowPara3030-8-1-8-7-8-3-5">Tu primera misión</flowPara><flowPara
         style="font-size:45px;line-height:1.25;text-align:center;text-anchor:middle"
         id="flowPara1">será intimidar al monarca para poder manejar sus decisiones.</flowPara></flowRoot>
    <flowRoot
       xml:space="preserve"
       id="flowRoot2987-4-9-3-5-9-8-3-5-4-6"
       style="font-style:normal;font-variant:normal;font-weight:normal;font-stretch:normal;line-height:0.01%;font-family:Lavi;-inkscape-font-specification:Lavi;text-align:center;letter-spacing:0px;word-spacing:0px;text-anchor:middle;fill:#000000;fill-opacity:1;stroke:none"
       transform="translate(276.05126,2929.9233)"><flowRegion
         id="flowRegion2989-5-4-5-8-9-5-4-2-2-2"><rect
           id="rect2991-7-9-6-5-7-5-4-9-5-2"
           width="773.47736"
           height="368.10104"
           x="120.55251"
           y="265.53046"
           style="font-style:normal;font-variant:normal;font-weight:normal;font-stretch:normal;font-family:Lavi;-inkscape-font-specification:Lavi;text-align:center;text-anchor:middle" /></flowRegion><flowPara
         style="font-size:45px;line-height:1.25;text-align:center;text-anchor:middle"
         id="flowPara3">¡Una auténtica bruja de</flowPara><flowPara
         style="font-size:45px;line-height:1.25;text-align:center;text-anchor:middle"
         id="flowPara5">Chaosah es capaz de influenciar</flowPara><flowPara
         style="font-size:45px;line-height:1.25;text-align:center;text-anchor:middle"
         id="flowPara4">a quien tiene el poder!</flowPara></flowRoot>
  </g>
</svg>
