<?xml version="1.0" encoding="UTF-8" standalone="no"?>
<!-- Created With Inkscape (http://www.inkscape.org/) -->

<svg
   xmlns:dc="http://purl.org/dc/elements/1.1/"
   xmlns:cc="http://creativecommons.org/ns#"
   xmlns:rdf="http://www.w3.org/1999/02/22-rdf-syntax-ns#"
   xmlns:svg="http://www.w3.org/2000/svg"
   xmlns="http://www.w3.org/2000/svg"
   xmlns:xlink="http://www.w3.org/1999/xlink"
   xmlns:sodipodi="http://sodipodi.sourceforge.net/DTD/sodipodi-0.dtd"
   xmlns:inkscape="http://www.inkscape.org/namespaces/inkscape"
   id="svg2"
   version="1.1"
   inkscape:version="0.92.5 (2060ec1f9f, 2020-04-08)"
   width="2481"
   height="3503"
   sodipodi:docname="E11P02.svg"
   viewBox="0 0 2481 3503">
  <metadata
     id="metadata8">
    <rdf:RDF>
      <cc:Work
         rdf:about="">
        <dc:format>image/svg+xml</dc:format>
        <dc:type
           rdf:resource="http://purl.org/dc/dcmitype/StillImage" />
        <dc:title />
      </cc:Work>
    </rdf:RDF>
  </metadata>
  <defs
     id="defs6">
    <filter
       style="color-interpolation-filters:sRGB"
       id="filter4375-4-1-1-1"
       inkscape:label="deevad outline effect">
      <feFlood
         id="feFlood4377-7-9-0-8"
         flood-opacity="1"
         flood-color="rgb(55,104,53)"
         result="flood" />
      <feComposite
         id="feComposite4379-3-8-8-2"
         in2="SourceGraphic"
         in="flood"
         operator="in"
         result="composite1" />
      <feMorphology
         id="feMorphology4393-1-0-49-8"
         operator="dilate"
         radius="4"
         result="result3" />
      <feComposite
         id="feComposite4385-9-5-7-0"
         in2="result3"
         in="SourceGraphic"
         operator="over"
         result="composite2" />
    </filter>
  </defs>
  <sodipodi:namedview
     pagecolor="#ffffff"
     bordercolor="#666666"
     borderopacity="1"
     objecttolerance="10"
     gridtolerance="10"
     guidetolerance="10"
     inkscape:pageopacity="0"
     inkscape:pageshadow="2"
     inkscape:window-width="1866"
     inkscape:window-height="1016"
     id="namedview4"
     showgrid="false"
     inkscape:zoom="0.40000002"
     inkscape:cx="906.31682"
     inkscape:cy="1039.8806"
     inkscape:window-x="54"
     inkscape:window-y="27"
     inkscape:window-maximized="1"
     inkscape:current-layer="layer1" />
  <g
     inkscape:groupmode="layer"
     id="layer2"
     inkscape:label="artwork"
     sodipodi:insensitive="true">
    <image
       sodipodi:absref="/home/user/lojban/webcomics/ep11_The-Witches-of-Chaosah/lang/jb/../gfx_Pepper-and-Carrot_by-David-Revoy_E11P02.png"
       xlink:href="../gfx_Pepper-and-Carrot_by-David-Revoy_E11P02.png"
       y="0"
       x="0"
       id="image10"
       height="3503"
       width="2481" />
  </g>
  <g
     inkscape:groupmode="layer"
     id="layer3"
     inkscape:label="speechbubbles">
    <path
       style="fill:#ffffff;fill-opacity:1;stroke:none;stroke-width:0.90605754"
       d="m 117.17998,216.92195 c -7.55953,-80.07275 34.48866,-81.23895 79.05752,-92.15972 46.50386,-11.3949 387.05548,-31.914875 448.45603,22.33356 33.71184,29.78498 32.21868,143.60276 -58.1503,176.99271 -59.39781,21.94657 -289.48669,38.65574 -381.76011,2.55338 -29.93827,-11.71347 -76.0862,-46.71227 -87.60314,-109.71993 z"
       id="path3659"
       inkscape:connector-curvature="0"
       sodipodi:nodetypes="cssssc" />
    <path
       style="fill:#ffffff;fill-opacity:1;stroke:none;stroke-width:0.90335053"
       d="m 830.33733,472.16484 c 6.40804,73.06387 -21.97108,101.77561 -60.33661,111.70417 -40.0312,10.35961 -342.86357,33.69567 -395.63404,-15.84912 -28.97353,-27.20245 -66.5781,-144.07426 11.22646,-174.46708 51.13947,-19.97661 286.00512,-24.30834 389.00692,-3.65406 27.97407,5.60946 45.90314,24.76917 55.73727,82.26609 z"
       id="path3659-3"
       inkscape:connector-curvature="0"
       sodipodi:nodetypes="cssssc" />
    <path
       style="color:#000000;display:inline;overflow:visible;visibility:visible;fill:#ffffff;fill-opacity:1;fill-rule:nonzero;stroke:none;stroke-width:1px;marker:none;enable-background:accumulate"
       d="m 725.76198,560.62095 c 15.2137,41.75381 60.90819,86.34357 149.80787,69.67515 -89.85178,-4.43964 -113.17241,-40.85544 -119.9781,-76.16592 -6.8056,-35.31052 -14.65449,-50.62321 -14.65449,-50.62321 z"
       id="path4440"
       inkscape:connector-curvature="0"
       sodipodi:nodetypes="ccscc" />
    <path
       style="fill:#ffffff;fill-opacity:1;stroke:none;stroke-width:0.97744489"
       d="m 1567.138,822.88567 c 34.2979,8.22512 47.6357,16.39264 41.6818,21.82448 14.0374,2.22864 21.2728,70.41769 8.5502,83.27741 -0.8341,1.33944 -1.4223,2.0226 -4.1897,6.03894 6.7228,-1.14648 18.2846,-1.83877 20.9792,0.71454 2.6945,2.55363 -22.3851,40.75809 -18.8566,41.9724 3.5287,1.21419 83.0705,-26.05423 94.5862,-20.46499 11.516,5.58913 8.9387,17.24113 9.36,21.43472 4.2812,-1.26098 36.2565,-4.9159 40.0593,-3.7778 4.1889,2.14836 16.2853,16.78836 17.1934,20.5527 2.8378,-2.49793 25.7249,-8.23174 27.6902,-8.68467 2.3513,1.97133 6.105,13.60068 6.6268,17.5669 3.6098,-3.71007 23.1543,-14.47361 25.7913,-13.8916 2.6366,0.58222 15.7053,30.9407 17.6164,35.009 2.1044,-3.6079 31.2259,-37.065 33.8242,-37.79714 2.5983,-0.73211 22.6262,37.66924 24.0127,44.69064 2.9304,-6.513 20.0366,-31.48358 22.6736,-30.9014 2.6368,0.5821 20.3322,16.6884 23.2816,19.7207 0.4407,-6.2602 24.9837,-41.48991 28.4737,-41.58984 3.4903,-0.0999 33.6753,16.79248 36.3892,20.003 -0.7604,-7.09211 4.735,-17.2346 8.2251,-17.33454 3.4902,-0.0999 40.6915,8.55862 44.8259,9.89671 -2.2348,-2.70227 -6.4924,-12.96725 -3.8749,-13.0422 2.6177,-0.0749 37.9311,7.30007 45.7562,11.84301 -2.7902,-9.19384 82.1444,8.82904 95.5092,11.07616 -8.0583,-8.45989 -40.8407,-52.75848 -36.5936,-56.82599 4.2474,-4.06763 16.0346,-2.13974 20.9024,-1.91383 -6.0342,-6.36825 -9.9054,-10.23888 -7.365,-12.94229 2.5408,-2.70333 19.0225,-16.64318 34.4203,-17.42682 -10.6577,-7.65208 -10.0017,-13.52461 -10.0017,-13.52461 0,0 45.4754,-15.6262 55.3228,-19.34074 -7.7443,-3.17584 -26.7335,-18.30637 -23.3782,-23.00608 3.3555,-4.69971 4.2599,-6.45595 11.9269,-10.20638 -5.6007,-1.64446 -17.6621,-6.72859 -16.8857,-10.03911 0.7765,-3.31054 2.4588,-18.77586 11.5615,-22.69127 -7.6886,1.33684 -18.3615,-0.78959 -18.4384,-3.41807 -0.077,-2.62836 15.8971,-50.96713 29.0151,-63.15581 -26.6828,13.25944 -45.5475,-14.17622 -74.3408,-13.3518 -28.7937,0.82444 -17.4859,-0.7071 -21.8484,-0.58218 -4.3627,0.1249 -36.6406,1.24712 -41.0032,1.37202 -4.3626,0.1249 -6.1192,-0.22078 -9.6094,-0.12085 -3.4899,0.0999 -23.5426,1.20869 -27.9051,1.3336 -4.3626,0.12491 -45.3981,0.38911 -51.5059,0.56399 -6.1076,0.17487 -29.6553,1.2055 -34.8907,1.35541 -5.2351,0.14989 -9.6104,-0.16042 -13.9731,-0.0355 -4.3626,0.12491 -32.273,1.28047 -36.6355,1.40536 -4.3627,0.12492 -11.3812,-1.00192 -14.8714,-0.90198 -3.49,0.0999 -15.666,1.81596 -15.666,1.81596 0,0 -11.3463,0.20608 -16.5815,0.35597 -5.2352,0.14991 -40.9885,1.8666 -45.351,1.99152 -4.3627,0.12492 -43.0323,1.65055 -40.4148,1.5756 2.6177,-0.0749 -38.1106,0.75201 -44.2181,0.92689 -6.1076,0.1749 -17.4331,1.14387 -19.1781,1.19384 -1.7451,0.05 -13.9682,0.0918 -19.2034,0.24171 -5.2351,0.14992 -17.4475,0.59858 -17.4475,0.59858 l 1.7484,0.0687 c 0,0 -36.6588,0.61408 -41.0215,0.73899 -4.3626,0.1249 2.6374,0.59764 5.2549,0.52272 -15.7055,0.44966 -61.9668,1.1803 -65.4567,1.28022 -3.4903,0.0999 6.1219,0.3197 11.3571,0.1698 -6.9801,0.19986 -13.0904,0.29569 -13.0904,0.29569 l 20.0823,-0.0998 -6.1067,0.21447 c 0,0 -16.2148,32.57473 -16.1186,35.86027 0.096,3.28543 -33.8169,8.20247 -33.8169,8.20247 0,0 14.1334,5.51408 10.7394,8.89955 -3.394,3.38548 -12.0616,5.60662 -12.0616,5.60662 l -1.4948,8.59244 z"
       id="path5888"
       inkscape:connector-curvature="0"
       sodipodi:nodetypes="ccccccccccccccccccscscsccscccccccccscscsscccccccssccccccsccccccsccccc" />
    <path
       style="color:#000000;display:inline;overflow:visible;visibility:visible;fill:#ffffff;fill-opacity:1;fill-rule:nonzero;stroke:none;stroke-width:1.06342375px;marker:none;enable-background:accumulate"
       d="m 1958.4592,1256.7971 c 11.727,-12.3606 88.5689,-47.8623 92.8863,0.7246 55.266,-59.1692 89.827,-42.0203 136.2525,0.037 5.7804,-41.0197 41.289,-41.1115 91.1399,-13.7223 -13.9503,-29.8532 16.8912,-28.4203 58.5621,-31.7865 -50.9198,-15.4948 -58.2737,-27.2591 43.2354,-29.7017 -75.0083,-8.1574 -144.7199,-17.0355 -47.5396,-48.6168 -27.486,-3.5505 -100.6205,23.5465 -48.2838,-70.8469 -54.5786,26.6867 -118.355,11.7789 -167.5414,-59.3916 -13.1808,55.1545 -51.3887,113.6193 -101.3168,56.5989 -32.1654,66.6788 -89.1402,9.7032 -106.621,-18.4058 7.7342,40.1017 19.3379,65.4703 -49.7594,61.834 103.3505,62.2584 -4.3359,49.6096 -25.7618,60.9486 86.2135,26.1802 51.3222,40.6004 30.3599,61.1039 70.6119,-18.6985 96.2848,2.7269 94.3877,31.2248 z"
       id="path3549-3"
       inkscape:connector-curvature="0"
       sodipodi:nodetypes="cccccccccccccccc" />
    <path
       style="color:#000000;display:inline;overflow:visible;visibility:visible;fill:#ffffff;fill-opacity:1;fill-rule:nonzero;stroke:none;stroke-width:1px;marker:none;enable-background:accumulate"
       d="m 2203.9792,1109.7454 c 31.2445,-19.0795 65.3939,-45.1286 72.8188,-52.0388 -12.6929,-4.9848 -23.0556,-11.472 -31.2287,-16.3975 15.0721,-11.6274 88.769,-61.68328 111.5806,-65.98197 -56.9232,8.44886 -115.9924,42.49157 -138.9231,63.43247 9.6363,8.2294 16.5681,12.0437 21.5327,16.4887 -10.8446,11.026 -54.7604,38.6986 -54.7604,38.6986 z"
       id="path5066"
       inkscape:connector-curvature="0" />
    <flowRoot
       transform="matrix(0.90617713,0,-0.22078013,1.6225798,1676.8105,681.53838)"
       style="font-style:normal;font-variant:normal;font-weight:normal;font-stretch:normal;line-height:0.01%;font-family:Lavi;-inkscape-font-specification:Lavi;text-align:center;letter-spacing:0px;word-spacing:0px;text-anchor:middle;fill:#000000;fill-opacity:1;stroke:#000000;stroke-width:2.30830574;stroke-miterlimit:4;stroke-dasharray:none;stroke-opacity:1"
       id="flowRoot4212-3-7-8-6"
       xml:space="preserve"><flowRegion
         id="flowRegion4214-6-7-8-3"><rect
           style="font-style:normal;font-variant:normal;font-weight:normal;font-stretch:normal;font-family:Lavi;-inkscape-font-specification:Lavi;text-align:center;text-anchor:middle;stroke:#000000;stroke-width:2.30830574;stroke-miterlimit:4;stroke-dasharray:none;stroke-opacity:1"
           y="265.53046"
           x="120.55251"
           height="355.03918"
           width="798.1947"
           id="rect4216-4-0-26-5" /></flowRegion><flowPara
         style="font-size:48px;line-height:1.25;text-align:center;letter-spacing:5.20896292px;text-anchor:middle;stroke:#000000;stroke-width:2.30830574;stroke-miterlimit:4;stroke-dasharray:none;stroke-opacity:1"
         id="flowPara4358-7-1">.i ca'e smaji</flowPara></flowRoot>    <path
       style="color:#000000;display:inline;overflow:visible;visibility:visible;fill:#ffffff;fill-opacity:1;fill-rule:nonzero;stroke:none;stroke-width:1px;marker:none;enable-background:accumulate"
       d="m 1656.6816,860.45168 c -13.9641,31.64222 -47.0315,92.97319 -58.4788,103.42969 -21.9016,-16.83532 -67.233,-35.37975 -70.1513,-31.16101 -2.9182,4.21879 -13.389,87.83874 -20.8852,89.90244 -7.4962,2.0635 -34.1354,0.2416 -43.4933,-4.6298 28.7475,11.2032 51.3462,17.6477 61.1996,11.5672 6.8904,-3.7469 14.3961,-69.18877 14.6661,-73.72212 22.6435,8.32968 67.3012,30.28541 76.7272,30.0624 9.2475,-7.76375 44.7564,-37.65222 72.5931,-88.86226 27.8366,-51.21011 -32.1774,-36.58654 -32.1774,-36.58654 z"
       id="path5901"
       inkscape:connector-curvature="0"
       sodipodi:nodetypes="ccccccccsc" />
    <path
       style="color:#000000;display:inline;overflow:visible;visibility:visible;fill:#ffffff;fill-opacity:1;fill-rule:nonzero;stroke:none;stroke-width:0.9869681px;marker:none;enable-background:accumulate"
       d="m 188.56454,1751.9276 c 9.36729,5.6784 24.02442,4.5425 16.07834,-10.4759 14.10993,7.9832 18.2653,9.5897 12.08843,-4.3098 10.77585,7.2851 22.49452,8.1327 20.85579,-8.3375 30.83209,18.4815 122.95684,5.2077 162.1646,7.3406 39.20775,2.1327 144.35594,0.4266 155.04896,0 10.69305,-0.4265 92.67277,0 99.8016,0 7.12863,0 35.64334,4.6921 44.55416,7.2513 13.36619,-3.4124 29.8805,-12.8164 29.8805,-12.8164 0,0 0.41626,25.1865 3.08955,26.4662 2.67331,1.2797 15.44465,-1.5097 23.29181,-2.5641 -5.19114,4.2573 -23.29181,17.4935 -20.6185,17.9199 2.67311,0.4267 21.57612,1.5068 28.81952,2.1505 -5.79458,2.6968 -21.69088,14.4851 -20.79998,14.9118 12.3245,13.8916 19.53906,11.3367 29.87376,8.1765 -4.94432,7.3827 -17.3036,11.7884 -19.70535,15.6821 1.72861,3.847 3.84513,5.604 13.36615,14.0764 -10.78507,-5.6607 -13.13461,-1.7474 -15.85769,1.8455 1.25053,8.9617 3.4842,18.1964 2.00884,33.3638 -1.74185,17.907 -3.42796,36.1347 -11.4478,45.5188 4.45552,4.2655 9.56583,11.9974 17.0957,15.139 -6.97613,1.1747 -15.33361,11.6525 -14.44232,13.785 0.89111,2.133 7.04533,10.1442 16.67455,14.2428 -9.14928,0.4032 -15.87909,1.6836 -21.22551,3.8163 -0.89146,3.4125 5.44207,12.077 7.08939,18.8743 -4.76831,-2.6813 -28.84946,-10.908 -32.83516,-11.34 -1.48223,1.817 -2.61264,9.3175 -1.4346,18.6798 -142.09303,-47.5589 -447.28041,-12.5734 -465.00211,-11.0836 -8.01973,0 -22.13509,0.7972 -36.98263,10.1771 9.4705,-12.9243 12.96805,-22.8184 12.96805,-22.8184 0,0 -21.23376,-2.055 -34.54049,1.6624 9.26854,-7.039 14.71218,-14.433 13.82107,-15.7127 -0.8911,-1.2796 -16.46009,-1.7626 -28.29248,1.2222 4.58283,-4.4519 21.15566,-14.6349 20.26456,-16.7676 -9.21629,0.4682 -34.1654,-33.1811 -19.90814,-132.9945 -0.63898,-8.7898 -7.16274,-13.9595 -18.80184,-18.722 19.84102,-5.0093 47.62455,-7.7989 33.05927,-24.3598 z"
       id="path3915"
       inkscape:connector-curvature="0"
       sodipodi:nodetypes="ccccsssccsccccccccscccccccccccccccccc" />
    <path
       style="color:#000000;display:inline;overflow:visible;visibility:visible;fill:#ffffff;fill-opacity:1;fill-rule:nonzero;stroke:none;stroke-width:1px;marker:none;enable-background:accumulate"
       d="m 1105.0928,1799.5625 c -91.2283,-62.9886 -159.18424,-107.2113 -244.09747,-102.7556 -84.91309,4.4557 -100.49843,21.9951 -109.53087,27.7757 5.18785,12.9068 23.75593,31.6134 30.75182,34.7014 -22.33894,2.4552 -76.54188,62.7404 -110.47938,56.3411 -64.61909,-12.1847 -273.97666,-3.5558 -101.72794,36.5684 172.24873,40.1242 192.34114,-78.0027 263.45059,-85.6848 -16.89501,-9.5809 -49.34755,-27.5154 -45.74516,-34.2065 3.60245,-6.6909 69.55744,-22.806 102.86379,-16.4917 33.30653,6.3141 121.98932,17.5367 214.51462,83.752 z"
       id="path3923"
       inkscape:connector-curvature="0"
       sodipodi:nodetypes="csccszccsc" />
    <path
       style="fill:#ffffff;fill-rule:evenodd;stroke:none;stroke-width:1px;stroke-linecap:butt;stroke-linejoin:miter;stroke-opacity:1"
       d="m 206.04914,1667.4613 c 1.89036,73.724 51.0397,194.707 109.64083,189.0359 58.60114,-5.6711 34.02647,-28.3554 34.02647,-28.3554 0,0 -83.1758,26.465 -117.20227,-160.6805 -34.02646,-187.1456 -26.46503,0 -26.46503,0 z"
       id="path4413"
       inkscape:connector-curvature="0" />
    <path
       style="fill:#ffffff;stroke:none;stroke-width:0.82394743"
       d="m 1403.6369,3204.0198 c -1.9567,39.3883 29.9163,48.7567 62.3379,54.8306 32.4214,6.0738 133.7069,1.5657 127.3566,-46.775 -6.3503,-48.3407 -55.1401,-55.8169 -95.6226,-54.3405 -40.4828,1.4762 -87.3686,9.042 -94.0719,46.2849 z"
       id="path3938"
       inkscape:connector-curvature="0"
       sodipodi:nodetypes="csssc" />
    <path
       style="color:#000000;display:inline;overflow:visible;visibility:visible;fill:#ffffff;fill-opacity:1;fill-rule:nonzero;stroke:none;stroke-width:1px;marker:none;enable-background:accumulate"
       d="m 1540.2936,3223.4008 c 69.6255,-26.0651 66.8892,-87.8398 67.0296,-99.678 -16.9624,16.0862 -19.0601,54.2993 -76.9475,76.9629 -25.1607,9.8509 9.9179,22.7151 9.9179,22.7151 z"
       id="path3940"
       inkscape:connector-curvature="0"
       sodipodi:nodetypes="ccsc" />
    <flowRoot
       xml:space="preserve"
       id="flowRoot3056-6"
       style="font-style:normal;font-variant:normal;font-weight:normal;font-stretch:normal;line-height:0.01%;font-family:Arial;-inkscape-font-specification:Arial;letter-spacing:0px;word-spacing:0px;fill:#000000;fill-opacity:1;stroke:none"
       transform="matrix(0.92403899,-0.0431397,-0.21669727,0.91096764,438.69829,2648.7462)"><flowRegion
         id="flowRegion3058-8"><rect
           id="rect3060-0"
           width="343.2529"
           height="151.69978"
           x="1244.4525"
           y="652.80212" /></flowRegion><flowPara
         id="flowPara3062-10"
         style="font-style:normal;font-variant:normal;font-weight:normal;font-stretch:normal;font-size:48px;line-height:1.25;font-family:Lavi;-inkscape-font-specification:Lavi">.i'a sai</flowPara></flowRoot>    <path
       style="fill:#ffffff;stroke:none;stroke-width:0.98029655"
       d="m 91.828065,2831.9116 c -39.11374,-230.4286 45.998245,-158.5669 307.952575,-165.4701 204.8347,-5.398 314.0742,46.8451 317.86055,153.6861 3.66747,103.4868 -87.02648,187.3345 -279.34445,189.6913 -192.318,2.3567 -344.970293,-26.3306 -346.468675,-177.9073 z"
       id="path3270"
       inkscape:connector-curvature="0"
       sodipodi:nodetypes="csssc" />
    <path
       style="fill:#ffffff;stroke:none"
       d="m 740.22487,3021.0768 c -63.31546,24.471 -150.43401,11.8981 -179.52399,-58.4059 -17.62562,-42.5973 -22.73968,-69.8786 -22.73968,-69.8786 l -34.70784,34.4178 16.75558,49.0193 c 0,0 76.59683,114.726 220.21593,44.8474 z"
       id="path3063"
       inkscape:connector-curvature="0"
       sodipodi:nodetypes="cscccc" />
    <path
       style="color:#000000;display:inline;overflow:visible;visibility:visible;fill:#ffffff;fill-opacity:1;fill-rule:nonzero;stroke:none;stroke-width:1px;marker:none;enable-background:accumulate"
       d="m 619.86864,1677.5782 c -9.46388,-5.616 -24.20596,-4.3826 -16.11053,10.5826 -14.25167,-7.8892 -18.44386,-9.468 -12.13619,4.3901 -10.89194,-7.2133 -22.69013,-7.983 -20.93223,8.476 -31.14868,-18.2761 -123.76676,-4.39 -163.23591,-6.2622 -39.46913,-1.8719 -145.26923,0.5333 -156.02688,1.031 -10.75767,0.4976 -93.25726,0.6162 -100.43106,0.6636 -7.17358,0.047 -35.89915,-4.455 -44.88308,-6.9548 -13.427937,3.5012 -29.984277,13.0148 -29.984277,13.0148 0,0 -0.5853,-25.1832 -3.28391,-26.4451 -2.69863,-1.2619 -15.53208,1.6123 -23.42177,2.7189 5.19575,-4.2917 23.32312,-17.648 20.63014,-18.0566 -2.6928,-0.4089 -21.72216,-1.3633 -29.015501,-1.9588 5.813301,-2.7353 21.731971,-14.629 20.832631,-15.0498 -12.49402,-13.8094 -19.737198,-11.2065 -30.11617,-7.9777 4.92671,-7.4154 17.33482,-11.9032 19.72598,-15.8128 -5.97926,-3.5003 -15.373082,-11.1557 -13.543451,-13.9872 1.829523,-2.8311 14.142651,3.1902 23.507191,2.915 -2.78085,-2.4914 -20.14194,-10.6899 -7.38416,-36.6954 7.89416,-16.0916 0.79133,-37.6769 8.79974,-47.1141 -4.51181,-4.2358 -9.70544,-11.9336 -17.30355,-15.025 7.01236,-1.2211 15.35332,-11.7542 14.44232,-13.8808 -0.91083,-2.127 -7.1568,-10.0971 -16.87383,-14.1316 9.20432,-0.464 15.96811,-1.7891 21.33416,-3.9573 0.87454,-3.4184 -5.55619,-12.0406 -7.25882,-18.8268 4.81611,2.6496 29.1035,10.716 33.1172,11.1214 1.47957,-1.8268 2.56755,-9.3346 1.32021,-18.6889 143.303477,46.613 450.184557,9.599 468.008177,7.9914 8.07032,-0.053 22.26944,-0.9444 37.14864,-10.4228 -9.44483,12.987 -12.89907,22.9041 -12.89907,22.9041 0,0 21.38126,1.9138 34.74737,-1.892 -9.28049,7.1005 -14.70961,14.5305 -13.80442,15.8042 0.90517,1.2737 16.57555,1.6532 28.46285,-1.4103 -4.58232,4.4823 -21.1924,14.7753 -20.28158,16.902 9.27132,-0.5294 34.60012,32.9532 20.91247,132.8592 0.7011,8.7854 7.30016,13.9116 19.04414,18.5966 -19.93307,5.1411 -47.8734,8.1154 -33.10683,24.5791 z"
       id="path3915-2"
       inkscape:connector-curvature="0"
       sodipodi:nodetypes="ccccsssccsccccccccscccccccccccccccccc" />
  </g>
  <g
     inkscape:groupmode="layer"
     id="layer1"
     inkscape:label="txt">
    <flowRoot
       xml:space="preserve"
       id="flowRoot2987-4-9-3"
       style="font-style:normal;font-variant:normal;font-weight:normal;font-stretch:normal;line-height:0.01%;font-family:Lavi;-inkscape-font-specification:Lavi;text-align:center;letter-spacing:0px;word-spacing:0px;text-anchor:middle;fill:#000000;fill-opacity:1;stroke:none"
       transform="translate(30.338554,-121.63334)"><flowRegion
         id="flowRegion2989-5-4-5"><rect
           id="rect2991-7-9-6"
           width="468.18622"
           height="276.71347"
           x="120.55251"
           y="265.53046"
           style="font-style:normal;font-variant:normal;font-weight:normal;font-stretch:normal;font-family:Lavi;-inkscape-font-specification:Lavi;text-align:center;text-anchor:middle" /></flowRegion><flowPara
         style="font-size:45px;line-height:1.25;text-align:center;text-anchor:middle"
         id="flowPara3584">doi la .piper. do stati ju'o .i ku'i no drata be do cu cerda fi mi'a</flowPara></flowRoot>    <flowRoot
       xml:space="preserve"
       id="flowRoot2987-4-9-3-5"
       style="font-style:normal;font-variant:normal;font-weight:normal;font-stretch:normal;line-height:0.01%;font-family:Lavi;-inkscape-font-specification:Lavi;text-align:center;letter-spacing:0px;word-spacing:0px;text-anchor:middle;fill:#000000;fill-opacity:1;stroke:none"
       transform="translate(236.54252,138.97206)"><flowRegion
         id="flowRegion2989-5-4-5-8"><rect
           id="rect2991-7-9-6-5"
           width="449.28259"
           height="263.48093"
           x="120.55251"
           y="265.53046"
           style="font-style:normal;font-variant:normal;font-weight:normal;font-stretch:normal;font-family:Lavi;-inkscape-font-specification:Lavi;text-align:center;text-anchor:middle" /></flowRegion><flowPara
         style="font-size:45px;line-height:1.25;text-align:center;text-anchor:middle"
         id="flowPara3030-8-1">.i do bilga le ka co'a dunli le te makfa pe</flowPara><flowPara
         style="font-size:45px;line-height:1.25;text-align:center;text-anchor:middle"
         id="flowPara3397">la kalsa le ka kusru</flowPara></flowRoot>    <flowRoot
       xml:space="preserve"
       id="flowRoot2987-4-9-3-5-9"
       style="font-style:normal;font-variant:normal;font-weight:normal;font-stretch:normal;line-height:0.01%;font-family:Lavi;-inkscape-font-specification:Lavi;text-align:center;letter-spacing:0px;word-spacing:0px;text-anchor:middle;fill:#000000;fill-opacity:1;stroke:none"
       transform="translate(1519.8735,526.25598)"><flowRegion
         id="flowRegion2989-5-4-5-8-9"><rect
           id="rect2991-7-9-6-5-7"
           width="568.84778"
           height="193.91568"
           x="120.55251"
           y="265.53046"
           style="font-style:normal;font-variant:normal;font-weight:normal;font-stretch:normal;font-family:Lavi;-inkscape-font-specification:Lavi;text-align:center;text-anchor:middle" /></flowRegion><flowPara
         style="font-size:45px;line-height:1.25;text-align:center;text-anchor:middle"
         id="flowPara3586">.i ku'i mi na djica le nu mi na'o kusru .i la'e di'u ranxi .y. ro da</flowPara></flowRoot>    <flowRoot
       xml:space="preserve"
       id="flowRoot2987-4-9-3-5-9-8"
       style="font-style:normal;font-variant:normal;font-weight:normal;font-stretch:normal;line-height:0.01%;font-family:Lavi;-inkscape-font-specification:Lavi;text-align:center;letter-spacing:0px;word-spacing:0px;text-anchor:middle;fill:#000000;fill-opacity:1;stroke:none"
       transform="translate(-37.157499,1272.1126)"><flowRegion
         id="flowRegion2989-5-4-5-8-9-5"><rect
           id="rect2991-7-9-6-5-7-5"
           width="568.84778"
           height="193.91568"
           x="120.55251"
           y="265.53046"
           style="font-style:normal;font-variant:normal;font-weight:normal;font-stretch:normal;font-family:Lavi;-inkscape-font-specification:Lavi;text-align:center;text-anchor:middle" /></flowRegion><flowPara
         style="font-size:45px;line-height:1.25;text-align:center;text-anchor:middle"
         id="flowPara3348">.i ja gau mi'a do</flowPara><flowPara
         style="font-size:45px;line-height:1.25;text-align:center;text-anchor:middle"
         id="flowPara3590">co'u ka'e zukte lo makfa</flowPara></flowRoot>    <flowRoot
       xml:space="preserve"
       id="flowRoot2987-4-9-3-5-9-8-3"
       style="font-style:normal;font-variant:normal;font-weight:normal;font-stretch:normal;line-height:0.01%;font-family:Lavi;-inkscape-font-specification:Lavi;text-align:center;letter-spacing:0px;word-spacing:0px;text-anchor:middle;fill:#000000;fill-opacity:1;stroke:none"
       transform="translate(80.552501,1495.8893)"><flowRegion
         id="flowRegion2989-5-4-5-8-9-5-4"><rect
           id="rect2991-7-9-6-5-7-5-4"
           width="525.72278"
           height="228.41568"
           x="114.80251"
           y="256.90546"
           style="font-style:normal;font-variant:normal;font-weight:normal;font-stretch:normal;line-height:110.00000238%;font-family:Lavi;-inkscape-font-specification:Lavi;text-align:center;text-anchor:middle"
           ry="0" /></flowRegion><flowPara
         style="font-size:45px;line-height:110.00000238%;text-align:center;text-anchor:middle"
         id="flowPara3030-8-1-8-7-8">gi'e co'a cmalu je bebna se rirni be no da gi'e malmisno tu'a la rebla be lo ricyratcu</flowPara></flowRoot>    <flowRoot
       xml:space="preserve"
       id="flowRoot2987-4-9-3-5-9-8-3-5"
       style="font-style:normal;font-variant:normal;font-weight:normal;font-stretch:normal;line-height:0.01%;font-family:Lavi;-inkscape-font-specification:Lavi;text-align:center;letter-spacing:0px;word-spacing:0px;text-anchor:middle;fill:#000000;fill-opacity:1;stroke:none"
       transform="translate(7.355213,2439.2102)"><flowRegion
         id="flowRegion2989-5-4-5-8-9-5-4-2"><rect
           id="rect2991-7-9-6-5-7-5-4-9"
           width="532.22278"
           height="367.04068"
           x="120.55251"
           y="265.53046"
           style="font-style:normal;font-variant:normal;font-weight:normal;font-stretch:normal;font-family:Lavi;-inkscape-font-specification:Lavi;text-align:center;text-anchor:middle" /></flowRegion><flowPara
         style="font-size:45px;line-height:1.25;text-align:center;text-anchor:middle"
         id="flowPara3030-8-1-8-7-8-3">.i la .kumin. ba zgana</flowPara><flowPara
         style="font-size:45px;line-height:1.25;text-align:center;text-anchor:middle"
         id="flowPara76">jersi do gi'e sidju do .i je</flowPara><flowPara
         style="font-size:45px;line-height:1.25;text-align:center;text-anchor:middle"
         id="flowPara71">gau ky. mi'a djuno le du'u tai ma kau do zenba </flowPara><flowPara
         style="font-size:45px;line-height:1.25;text-align:center;text-anchor:middle"
         id="flowPara3594">le ka certu</flowPara><flowPara
         style="font-size:45px;line-height:1.25;text-align:center;text-anchor:middle"
         id="flowPara3592"> </flowPara></flowRoot>    <flowRoot
       xml:space="preserve"
       id="flowRoot2987-7-9-9-7-0-3-4-1"
       style="font-style:normal;font-variant:normal;font-weight:normal;font-stretch:normal;line-height:0.01%;font-family:Lavi;-inkscape-font-specification:Lavi;letter-spacing:0px;word-spacing:0px;fill:#000000;fill-opacity:1;stroke:#000000;stroke-width:0.99236238;stroke-miterlimit:4;stroke-dasharray:none;stroke-opacity:1;filter:url(#filter4375-4-1-1-1)"
       transform="matrix(1.1967542,-0.56289093,0.22908574,2.2717035,1801.2719,2593.0489)"><flowRegion
         id="flowRegion2989-4-5-8-7-41-7-62-2"
         style="stroke-width:5.40286207"><rect
           id="rect2991-45-1-3-3-8-0-4-6"
           width="319.66232"
           height="56.089447"
           x="120.55251"
           y="265.53046"
           style="font-style:normal;font-variant:normal;font-weight:normal;font-stretch:normal;font-family:Lavi;-inkscape-font-specification:Lavi;fill:#000000;fill-opacity:1;stroke:#000000;stroke-width:0.99236238;stroke-miterlimit:4;stroke-dasharray:none;stroke-opacity:1" /></flowRegion><flowPara
         id="flowPara2995-4-1-5-0-7-2-6-4"
         style="font-weight:normal;font-size:48px;line-height:1.25;-inkscape-font-specification:Lavi;letter-spacing:7.06853437px;fill:#ffffff;fill-opacity:1;stroke:#ffffff;stroke-width:0.99236238;stroke-linejoin:miter;stroke-miterlimit:4;stroke-dasharray:none;stroke-opacity:1">.puf.</flowPara></flowRoot>  </g>
</svg>
