<?xml version="1.0" encoding="UTF-8" standalone="no"?>
<!-- Created with Inkscape (http://www.inkscape.org/) -->

<svg
   xmlns:dc="http://purl.org/dc/elements/1.1/"
   xmlns:cc="http://creativecommons.org/ns#"
   xmlns:rdf="http://www.w3.org/1999/02/22-rdf-syntax-ns#"
   xmlns:svg="http://www.w3.org/2000/svg"
   xmlns="http://www.w3.org/2000/svg"
   xmlns:xlink="http://www.w3.org/1999/xlink"
   xmlns:sodipodi="http://sodipodi.sourceforge.net/DTD/sodipodi-0.dtd"
   xmlns:inkscape="http://www.inkscape.org/namespaces/inkscape"
   id="svg2"
   version="1.1"
   inkscape:version="0.92.2 2405546, 2018-03-11"
   width="2481"
   height="2753"
   sodipodi:docname="E12P05.svg">
  <metadata
     id="metadata8">
    <rdf:RDF>
      <cc:Work
         rdf:about="">
        <dc:format>image/svg+xml</dc:format>
        <dc:type
           rdf:resource="http://purl.org/dc/dcmitype/StillImage" />
        <dc:title></dc:title>
      </cc:Work>
    </rdf:RDF>
  </metadata>
  <defs
     id="defs6">
    <filter
       style="color-interpolation-filters:sRGB"
       id="filter4375-4-1-1-15-1-3-3"
       inkscape:label="deevad outline effect">
      <feFlood
         id="feFlood4377-7-9-0-4-4-4-7"
         flood-opacity="1"
         flood-color="rgb(255,255,255)"
         result="flood" />
      <feComposite
         id="feComposite4379-3-8-8-6-0-7-4"
         in2="SourceGraphic"
         in="flood"
         operator="in"
         result="composite1" />
      <feMorphology
         id="feMorphology4393-1-0-49-8-2-7-3"
         operator="dilate"
         radius="0.69999999999999996"
         result="result3" />
      <feComposite
         id="feComposite4385-9-5-7-2-1-2-9"
         in2="result3"
         in="SourceGraphic"
         operator="over"
         result="composite2" />
    </filter>
    <filter
       style="color-interpolation-filters:sRGB"
       id="filter4375-4-1-1-15-1-3-3-5"
       inkscape:label="deevad outline effect">
      <feFlood
         id="feFlood4377-7-9-0-4-4-4-7-2"
         flood-opacity="1"
         flood-color="rgb(255,255,255)"
         result="flood" />
      <feComposite
         id="feComposite4379-3-8-8-6-0-7-4-9"
         in2="SourceGraphic"
         in="flood"
         operator="in"
         result="composite1" />
      <feMorphology
         id="feMorphology4393-1-0-49-8-2-7-3-8"
         operator="dilate"
         radius="0.69999999999999996"
         result="result3" />
      <feComposite
         id="feComposite4385-9-5-7-2-1-2-9-9"
         in2="result3"
         in="SourceGraphic"
         operator="over"
         result="composite2" />
    </filter>
    <linearGradient
       inkscape:collect="always"
       xlink:href="#linearGradient4240"
       id="linearGradient4254"
       gradientUnits="userSpaceOnUse"
       x1="1115.3353"
       y1="1088.5996"
       x2="1246.5587"
       y2="1088.5996"
       gradientTransform="matrix(1.3563276,-0.13268864,0.8109775,1.1333236,-1338.8958,15.30079)" />
    <linearGradient
       id="linearGradient4240"
       inkscape:collect="always">
      <stop
         id="stop4282"
         offset="0"
         style="stop-color:#507e72;stop-opacity:1;" />
      <stop
         id="stop4284"
         offset="1"
         style="stop-color:#507e72;stop-opacity:0;" />
    </linearGradient>
    <filter
       style="color-interpolation-filters:sRGB"
       id="filter4375-4-1-7-3-7-6"
       inkscape:label="deevad outline effect">
      <feFlood
         id="feFlood4377-7-9-2-4-1-8"
         flood-opacity="1"
         flood-color="rgb(60,100,48)"
         result="flood" />
      <feComposite
         id="feComposite4379-3-8-5-4-75-5"
         in2="SourceGraphic"
         in="flood"
         operator="in"
         result="composite1" />
      <feMorphology
         id="feMorphology4393-1-0-4-5-8-4"
         operator="dilate"
         radius="4"
         result="result3" />
      <feComposite
         id="feComposite4385-9-5-2-1-5-1"
         in2="result3"
         in="SourceGraphic"
         operator="over"
         result="composite2" />
    </filter>
    <filter
       style="color-interpolation-filters:sRGB"
       id="filter4375-4-1-1-15-1-3-3-5-9"
       inkscape:label="deevad outline effect">
      <feFlood
         id="feFlood4377-7-9-0-4-4-4-7-2-5"
         flood-opacity="1"
         flood-color="rgb(255,255,255)"
         result="flood" />
      <feComposite
         id="feComposite4379-3-8-8-6-0-7-4-9-7"
         in2="SourceGraphic"
         in="flood"
         operator="in"
         result="composite1" />
      <feMorphology
         id="feMorphology4393-1-0-49-8-2-7-3-8-2"
         operator="dilate"
         radius="0.69999999999999996"
         result="result3" />
      <feComposite
         id="feComposite4385-9-5-7-2-1-2-9-9-6"
         in2="result3"
         in="SourceGraphic"
         operator="over"
         result="composite2" />
    </filter>
    <linearGradient
       inkscape:collect="always"
       xlink:href="#linearGradient4240"
       id="linearGradient4254-1"
       gradientUnits="userSpaceOnUse"
       x1="1115.3353"
       y1="1088.5996"
       x2="1246.5587"
       y2="1088.5996"
       gradientTransform="matrix(1.552431,-0.06570507,0.80657008,1.4670405,-1679.9507,-558.01827)" />
    <filter
       style="color-interpolation-filters:sRGB"
       id="filter4375-4-1-7-3-7-6-6"
       inkscape:label="deevad outline effect">
      <feFlood
         id="feFlood4377-7-9-2-4-1-8-6"
         flood-opacity="1"
         flood-color="rgb(210,24,2)"
         result="flood" />
      <feComposite
         id="feComposite4379-3-8-5-4-75-5-4"
         in2="SourceGraphic"
         in="flood"
         operator="in"
         result="composite1" />
      <feMorphology
         id="feMorphology4393-1-0-4-5-8-4-3"
         operator="dilate"
         radius="4"
         result="result3" />
      <feComposite
         id="feComposite4385-9-5-2-1-5-1-4"
         in2="result3"
         in="SourceGraphic"
         operator="over"
         result="composite2" />
    </filter>
  </defs>
  <sodipodi:namedview
     pagecolor="#ffffff"
     bordercolor="#666666"
     borderopacity="1"
     objecttolerance="10"
     gridtolerance="10"
     guidetolerance="10"
     inkscape:pageopacity="0"
     inkscape:pageshadow="2"
     inkscape:window-width="1920"
     inkscape:window-height="1033"
     id="namedview4"
     showgrid="false"
     inkscape:zoom="1.0003729"
     inkscape:cx="1276.3673"
     inkscape:cy="1070.5367"
     inkscape:window-x="0"
     inkscape:window-y="47"
     inkscape:window-maximized="0"
     inkscape:current-layer="layer1" />
  <g
     inkscape:groupmode="layer"
     id="layer2"
     inkscape:label="artwork"
     sodipodi:insensitive="true">
    <image
       sodipodi:absref="/home/midgard/git/peppercarrot/comics/ep12_Autumn-Clearout/lang/ca/../gfx_Pepper-and-Carrot_by-David-Revoy_E12P05.png"
       xlink:href="../gfx_Pepper-and-Carrot_by-David-Revoy_E12P05.png"
       y="0"
       x="0"
       id="image10"
       height="2753"
       width="2481" />
  </g>
  <g
     inkscape:groupmode="layer"
     id="layer3"
     inkscape:label="speechbubbles">
    <path
       style="fill:#ffffff;stroke:none"
       d="m 1681.6427,1802.1841 c -4.6488,-72.4836 -60.4335,-103.5482 -86.0018,-113.9028 -25.5681,-10.3549 -134.8139,-25.8871 -206.8695,-25.8871 -72.0557,0 -251.0321,5.1772 -281.2489,7.7662 -30.217,2.5888 -113.89476,54.3625 -116.21902,100.9591 -2.32438,46.5967 11.62182,77.661 53.46062,106.1367 41.8389,28.4758 302.1686,41.4191 318.4391,38.8305 16.2704,-2.5888 232.4377,-20.7095 246.3837,-28.4758 13.9462,-7.7661 69.7313,-28.4754 72.0558,-85.4268 z"
       id="path3278-1-8-8-1-7"
       inkscape:connector-curvature="0" />
    <flowRoot
       xml:space="preserve"
       id="flowRoot4133-6-9-4-8-5-3-8"
       style="color:#000000;font-style:normal;font-variant:normal;font-weight:normal;font-stretch:normal;line-height:0.01%;font-family:Arial;-inkscape-font-specification:Arial;letter-spacing:0.00204969px;word-spacing:0px;display:inline;overflow:visible;visibility:visible;fill:#000000;fill-opacity:1;fill-rule:nonzero;stroke:none;stroke-width:0.10959909;stroke-linecap:butt;stroke-linejoin:miter;stroke-miterlimit:4;stroke-dasharray:none;stroke-dashoffset:0;stroke-opacity:1;marker:none;filter:url(#filter4375-4-1-1-15-1-3-3-5-9);enable-background:accumulate"
       transform="matrix(5.6080074,-2.1990123,-4.8835593,12.092115,-425.78786,-9011.02)"><flowRegion
         id="flowRegion4135-2-9-3-5-2-6-3"
         style="fill:url(#linearGradient4254-1);fill-opacity:1;stroke-width:0.86646658"><rect
           id="rect4137-1-7-1-2-1-4-2"
           width="200.00224"
           height="39.051064"
           x="1125.3193"
           y="1078.5308"
           style="color:#000000;letter-spacing:0.00204969px;display:inline;overflow:visible;visibility:visible;fill:#000000;fill-opacity:1;fill-rule:nonzero;stroke:none;stroke-width:0.10959909;stroke-linecap:butt;stroke-linejoin:miter;stroke-miterlimit:4;stroke-dasharray:none;stroke-dashoffset:0;stroke-opacity:1;marker:none;enable-background:accumulate" /></flowRegion><flowPara
         id="flowPara4139-2-8-6-8-6-3-1"
         style="color:#000000;font-style:normal;font-variant:normal;font-weight:normal;font-stretch:normal;font-size:17.85409164px;line-height:125%;font-family:Lavi;-inkscape-font-specification:Lavi;letter-spacing:0.00204969px;word-spacing:0.00204969px;display:inline;overflow:visible;visibility:visible;fill:#000000;fill-opacity:1;fill-rule:nonzero;stroke:none;stroke-width:0.10959909;stroke-linecap:butt;stroke-linejoin:miter;stroke-miterlimit:4;stroke-dasharray:none;stroke-dashoffset:0;stroke-opacity:1;marker:none;enable-background:accumulate">wo<flowSpan
   style="font-size:15.71809769px;fill:#000000;fill-opacity:1;stroke:none;stroke-width:0.10959909;stroke-miterlimit:4;stroke-dasharray:none"
   id="flowSpan3145-5">oo</flowSpan><flowSpan
   style="font-size:10.73411274px;fill:#000000;fill-opacity:1;stroke:none;stroke-width:0.10959909;stroke-miterlimit:4;stroke-dasharray:none"
   id="flowSpan3137-4">wo</flowSpan><flowSpan
   style="font-size:7.88612223px;fill:#000000;fill-opacity:1;stroke:none;stroke-width:0.10959909;stroke-miterlimit:4;stroke-dasharray:none"
   id="flowSpan3133-5">owo</flowSpan><flowSpan
   style="font-size:6.46212626px;fill:#000000;fill-opacity:1;stroke:none;stroke-width:0.10959909;stroke-miterlimit:4;stroke-dasharray:none"
   id="flowSpan3127-2">owoo</flowSpan></flowPara></flowRoot>    <flowRoot
       xml:space="preserve"
       id="flowRoot4133-6-9-4-8-5-3"
       style="color:#000000;font-style:normal;font-variant:normal;font-weight:normal;font-stretch:normal;line-height:0.01%;font-family:Arial;-inkscape-font-specification:Arial;letter-spacing:0.00204969px;word-spacing:0px;display:inline;overflow:visible;visibility:visible;fill:#000000;fill-opacity:1;fill-rule:nonzero;stroke:none;stroke-width:0.10959909;stroke-linecap:butt;stroke-linejoin:miter;stroke-miterlimit:4;stroke-dasharray:none;stroke-dashoffset:0;stroke-opacity:1;marker:none;filter:url(#filter4375-4-1-1-15-1-3-3-5);enable-background:accumulate"
       transform="matrix(6.0069187,-1.6117164,-6.6288254,15.24104,1022.2165,-14455.53)"><flowRegion
         id="flowRegion4135-2-9-3-5-2-6"
         style="fill:url(#linearGradient4254);fill-opacity:1;stroke-width:0.86646658"><rect
           id="rect4137-1-7-1-2-1-4"
           width="200.00224"
           height="39.051064"
           x="1125.3193"
           y="1078.5308"
           style="color:#000000;letter-spacing:0.00204969px;display:inline;overflow:visible;visibility:visible;fill:#000000;fill-opacity:1;fill-rule:nonzero;stroke:none;stroke-width:0.10959909;stroke-linecap:butt;stroke-linejoin:miter;stroke-miterlimit:4;stroke-dasharray:none;stroke-dashoffset:0;stroke-opacity:1;marker:none;enable-background:accumulate" /></flowRegion><flowPara
         id="flowPara4139-2-8-6-8-6-3"
         style="color:#000000;font-style:normal;font-variant:normal;font-weight:normal;font-stretch:normal;font-size:17.85409164px;line-height:125%;font-family:Lavi;-inkscape-font-specification:Lavi;letter-spacing:0.00204969px;word-spacing:0.00204969px;display:inline;overflow:visible;visibility:visible;fill:#000000;fill-opacity:1;fill-rule:nonzero;stroke:none;stroke-width:0.10959909;stroke-linecap:butt;stroke-linejoin:miter;stroke-miterlimit:4;stroke-dasharray:none;stroke-dashoffset:0;stroke-opacity:1;marker:none;enable-background:accumulate">wo<flowSpan
   style="font-size:15.71809769px;fill:#000000;fill-opacity:1;stroke:none;stroke-width:0.10959909;stroke-miterlimit:4;stroke-dasharray:none"
   id="flowSpan3145">oo</flowSpan><flowSpan
   style="font-size:10.73411274px;fill:#000000;fill-opacity:1;stroke:none;stroke-width:0.10959909;stroke-miterlimit:4;stroke-dasharray:none"
   id="flowSpan3137">wo</flowSpan><flowSpan
   style="font-size:7.88612223px;fill:#000000;fill-opacity:1;stroke:none;stroke-width:0.10959909;stroke-miterlimit:4;stroke-dasharray:none"
   id="flowSpan3133">owo</flowSpan><flowSpan
   style="font-size:6.46212626px;fill:#000000;fill-opacity:1;stroke:none;stroke-width:0.10959909;stroke-miterlimit:4;stroke-dasharray:none"
   id="flowSpan3127">owoo</flowSpan></flowPara></flowRoot>    <path
       style="fill:#ffffff;stroke:none;stroke-width:1"
       d="m 807.57681,171.69185 c 3.05906,-42.20102 39.76687,-60.28718 56.5913,-66.31579 16.82443,-6.028712 88.71068,-15.071845 136.12499,-15.071845 47.4145,0 165.1853,3.014307 185.0688,4.521618 19.8833,1.507208 74.9451,31.650577 76.4747,58.779867 1.5295,27.12917 -7.6475,45.21522 -35.1784,61.79417 -27.5309,16.57905 -198.8341,24.11486 -209.5406,22.60766 -10.7064,-1.50721 -152.94949,-12.05733 -162.12644,-16.57895 -9.17695,-4.52151 -45.88476,-16.57884 -47.41435,-49.73673 z"
       id="path3278"
       inkscape:connector-curvature="0" />
    <path
       style="fill:#ffffff;stroke:none;stroke-width:1"
       d="m 903.09621,270.52629 c 3.82487,-35.4172 49.72225,-50.596 70.75856,-55.65551 21.03633,-5.0596 110.91883,-12.64904 170.20303,-12.64904 59.2843,0 206.5384,2.52975 231.3994,3.79476 24.8611,1.26493 93.7073,26.56275 95.6198,49.33099 1.9123,22.76815 -9.5622,37.94687 -43.985,51.86075 -34.4233,13.91396 -248.6111,20.23839 -261.9978,18.97347 -13.3868,-1.26492 -191.23943,-10.11912 -202.71376,-13.91388 -11.47436,-3.79467 -57.37171,-13.91379 -59.28423,-41.74154 z"
       id="path3278-1"
       inkscape:connector-curvature="0" />
    <path
       style="fill:#ffffff;stroke:none;stroke-width:1"
       d="m 1057.5843,369.21872 c 3.8191,-49.442 49.6477,-70.63143 70.6526,-77.69445 21.0049,-7.06314 110.7527,-17.65792 169.9481,-17.65792 59.1956,0 206.229,3.53151 231.0528,5.29745 24.8239,1.76582 93.567,37.08128 95.4766,68.86549 1.9094,31.78408 -9.5478,52.97339 -43.9191,72.397 -34.3718,19.42374 -248.2387,28.25257 -261.6055,26.48676 -13.3667,-1.76582 -190.9529,-14.12617 -202.41,-19.42362 -11.4572,-5.29732 -57.2858,-19.42349 -59.1955,-58.27071 z"
       id="path3278-1-8"
       inkscape:connector-curvature="0" />
    <path
       style="fill:#ffffff;stroke:none"
       d="m 1609.9532,533.14034 c -4.236,-58.17746 -55.0669,-83.11065 -78.3647,-91.42158 -23.2976,-8.31106 -122.8419,-20.77774 -188.4988,-20.77774 -65.657,0 -228.74,4.15546 -256.2735,6.23342 -27.5336,2.07779 -103.78039,43.63283 -105.89836,81.03271 -2.11778,37.39972 10.59002,62.33278 48.71316,85.18818 38.1236,22.85554 275.3354,33.24425 290.161,31.16646 14.8258,-2.07781 211.7965,-16.62199 224.5042,-22.85541 12.7078,-6.23325 63.5389,-22.85524 65.657,-68.56604 z"
       id="path3278-1-8-8"
       inkscape:connector-curvature="0" />
    <flowRoot
       xml:space="preserve"
       id="flowRoot2987-7-9-9-7-0-3-5-2-6-5"
       style="font-style:normal;font-variant:normal;font-weight:normal;font-stretch:normal;line-height:0.01%;font-family:Lavi;-inkscape-font-specification:Lavi;letter-spacing:0px;word-spacing:0px;fill:#000000;fill-opacity:1;stroke:#000000;stroke-width:1.41363204;stroke-miterlimit:4;stroke-dasharray:none;stroke-opacity:1;filter:url(#filter4375-4-1-7-3-7-6)"
       transform="matrix(0.5891546,-0.22646943,-0.18155182,0.95514375,2198.6609,974.75851)"
       inkscape:transform-center-x="159.45651"
       inkscape:transform-center-y="-79.772276"><flowRegion
         id="flowRegion2989-4-5-8-7-41-7-68-63-1-5"
         style="stroke-width:7.69644117"><rect
           id="rect2991-45-1-3-3-8-0-3-6-32-1"
           width="319.66232"
           height="56.089447"
           x="120.55251"
           y="265.53046"
           style="font-style:normal;font-variant:normal;font-weight:normal;font-stretch:normal;font-family:Lavi;-inkscape-font-specification:Lavi;fill:#000000;fill-opacity:1;stroke:#000000;stroke-width:1.41363204;stroke-miterlimit:4;stroke-dasharray:none;stroke-opacity:1" /></flowRegion><flowPara
         id="flowPara2995-4-1-5-0-7-2-5-3-0-4"
         style="font-weight:normal;font-size:48px;line-height:1.25;-inkscape-font-specification:Lavi;letter-spacing:7.06853437px;fill:#ffffff;fill-opacity:1;stroke:#ffffff;stroke-width:1.41363204;stroke-linejoin:miter;stroke-miterlimit:4;stroke-dasharray:none;stroke-opacity:1">Bam</flowPara></flowRoot>    <path
       style="fill:#ffffff;stroke:none;stroke-width:1"
       d="m 1597.0907,1589.7396 c -4.8195,-85.1007 -62.6559,-121.5725 -89.1644,-133.7298 -26.5085,-12.157 -139.7716,-30.3931 -214.477,-30.3931 -74.7056,0 -260.2639,6.0787 -291.592,9.1181 -31.32809,3.0394 -118.083,63.8253 -120.49288,118.5329 -2.4096,54.7077 12.04955,91.1793 55.42674,124.6116 43.37745,33.4327 313.28074,48.6289 330.14954,45.5896 16.8689,-3.0394 240.9856,-24.3142 255.4445,-33.4325 14.459,-9.1179 72.2955,-33.432 74.7055,-100.2968 z"
       id="path3278-1-8-8-1"
       inkscape:connector-curvature="0" />
    <flowRoot
       xml:space="preserve"
       id="flowRoot2987-4-9-3-1-0-2-9-5-2-5"
       style="font-style:normal;font-variant:normal;font-weight:normal;font-stretch:normal;line-height:0.01%;font-family:Lavi;-inkscape-font-specification:Lavi;text-align:center;letter-spacing:0px;word-spacing:0px;text-anchor:middle;fill:#000000;fill-opacity:1;stroke:none"
       transform="translate(771.04366,1206.3276)"><flowRegion
         id="flowRegion2989-5-4-5-6-5-0-4-0-2-0"><rect
           id="rect2991-7-9-6-4-5-0-8-8-4-9"
           width="698.59161"
           height="261.04257"
           x="120.55251"
           y="235.09567"
           style="font-style:normal;font-variant:normal;font-weight:normal;font-stretch:normal;font-family:Lavi;-inkscape-font-specification:Lavi;text-align:center;text-anchor:middle;stroke:none" /></flowRegion><flowPara
         style="font-size:45px;line-height:1.25;text-align:center;text-anchor:middle;stroke:none"
         id="flowPara4406-6">Vet-t'ho aquí:</flowPara><flowPara
         style="font-size:45px;line-height:1.25;text-align:center;text-anchor:middle;stroke:none"
         id="flowPara4482">Pràcticament tot gravita a l'òrbita estable or punts de Lagrange i es quedarà flotant allà.</flowPara></flowRoot>    <flowRoot
       xml:space="preserve"
       id="flowRoot2987-7-9-9-7-0-3-5-2-6-5-0"
       style="font-style:normal;font-variant:normal;font-weight:normal;font-stretch:normal;line-height:0.01%;font-family:Lavi;-inkscape-font-specification:Lavi;letter-spacing:0px;word-spacing:0px;fill:#000000;fill-opacity:1;stroke:#000000;stroke-width:1.31635857;stroke-miterlimit:4;stroke-dasharray:none;stroke-opacity:1;filter:url(#filter4375-4-1-7-3-7-6-6)"
       transform="matrix(0.76790941,-0.19478108,-0.15035117,0.82149688,2091.5307,2161.0857)"
       inkscape:transform-center-x="221.5852"
       inkscape:transform-center-y="-68.610248"><flowRegion
         id="flowRegion2989-4-5-8-7-41-7-68-63-1-5-5"
         style="stroke-width:7.16684103"><rect
           id="rect2991-45-1-3-3-8-0-3-6-32-1-1"
           width="319.66232"
           height="56.089447"
           x="120.55251"
           y="265.53046"
           style="font-style:normal;font-variant:normal;font-weight:normal;font-stretch:normal;font-family:Lavi;-inkscape-font-specification:Lavi;fill:#000000;fill-opacity:1;stroke:#000000;stroke-width:1.31635857;stroke-miterlimit:4;stroke-dasharray:none;stroke-opacity:1" /></flowRegion><flowPara
         id="flowPara2995-4-1-5-0-7-2-5-3-0-4-9"
         style="font-weight:normal;font-size:48px;line-height:1.25;-inkscape-font-specification:Lavi;letter-spacing:7.06853437px;fill:#ffffff;fill-opacity:1;stroke:#ffffff;stroke-width:1.31635857;stroke-linejoin:miter;stroke-miterlimit:4;stroke-dasharray:none;stroke-opacity:1">?!</flowPara></flowRoot>  </g>
  <g
     inkscape:groupmode="layer"
     id="layer1"
     inkscape:label="txt">
    <path
       style="color:#000000;display:inline;overflow:visible;visibility:visible;fill:#ffffff;fill-opacity:1;fill-rule:nonzero;stroke:none;stroke-width:1px;marker:none;enable-background:accumulate"
       d="m 1542.6918,1978.7505 c -23.5239,-11.1209 -47.3263,-22.1625 -68.631,-37.2577 -13.8627,-9.8561 -26.3376,-22.6047 -32.6733,-38.6498 -6.7592,-16.8449 -7.6403,-35.3512 -7.1522,-53.2877 0.6811,-12.418 3.068,-25.7204 11.6939,-35.2524 7.6429,-8.5397 20.1613,-10.9047 31.0001,-8.4349 4.0363,0.2274 -1.4641,4.3023 -1.6728,6.5427 -12.7185,24.8701 -18.1367,54.2103 -11.4736,81.6335 5.8285,24.5885 21.7446,45.7666 41.3302,61.2744 11.5441,9.2618 24.3106,16.9164 37.5787,23.4319 z"
       id="path5002"
       inkscape:connector-curvature="0" />
    <path
       style="color:#000000;fill:#ffffff;fill-opacity:1;fill-rule:nonzero;stroke:none;stroke-width:1px;marker:none;visibility:visible;display:inline;overflow:visible;enable-background:accumulate"
       d="m 1573.5471,709.7989 c -90.6618,-25.67208 -117.8362,-31.32311 -132.6544,-97.94835 -13.6852,-61.53108 -39.1014,-8.58271 -39.1014,-8.58271 0,0 -7.8461,95.91633 171.7558,106.53106 z"
       id="path3984"
       inkscape:connector-curvature="0"
       sodipodi:nodetypes="cscc" />
    <flowRoot
       xml:space="preserve"
       id="flowRoot2987-4-9-3-1-0-2"
       style="font-style:normal;font-variant:normal;font-weight:normal;font-stretch:normal;line-height:0.01%;font-family:Lavi;-inkscape-font-specification:Lavi;text-align:center;letter-spacing:0px;word-spacing:0px;text-anchor:middle;fill:#000000;fill-opacity:1;stroke:none"
       transform="translate(603.1774,-132.0178)"><flowRegion
         id="flowRegion2989-5-4-5-6-5-0"><rect
           id="rect2991-7-9-6-4-5-0"
           width="602.40173"
           height="310.73996"
           x="120.55251"
           y="265.53046"
           style="font-style:normal;font-variant:normal;font-weight:normal;font-stretch:normal;font-family:Lavi;-inkscape-font-specification:Lavi;text-align:center;text-anchor:middle;stroke:none" /></flowRegion><flowPara
         style="font-size:45px;line-height:1.25;text-align:center;text-anchor:middle;stroke:none"
         id="flowPara4444">...I para atenció.</flowPara></flowRoot>    <flowRoot
       xml:space="preserve"
       id="flowRoot2987-4-9-3-1-0-2-9"
       style="font-style:normal;font-variant:normal;font-weight:normal;font-stretch:normal;line-height:0.01%;font-family:Lavi;-inkscape-font-specification:Lavi;text-align:center;letter-spacing:0px;word-spacing:0px;text-anchor:middle;fill:#000000;fill-opacity:1;stroke:none"
       transform="translate(780.04399,-34.308125)"><flowRegion
         id="flowRegion2989-5-4-5-6-5-0-4"><rect
           id="rect2991-7-9-6-4-5-0-8"
           width="576.52673"
           height="60.614937"
           x="120.55251"
           y="265.53046"
           style="font-style:normal;font-variant:normal;font-weight:normal;font-stretch:normal;font-family:Lavi;-inkscape-font-specification:Lavi;text-align:center;text-anchor:middle;stroke:none" /></flowRegion><flowPara
         style="font-size:45px;line-height:1.25;text-align:center;text-anchor:middle;stroke:none"
         id="flowPara4444-7">La massa és insuficient!</flowPara></flowRoot>    <flowRoot
       xml:space="preserve"
       id="flowRoot2987-4-9-3-1-0-2-9-5"
       style="font-style:normal;font-variant:normal;font-weight:normal;font-stretch:normal;line-height:0.01%;font-family:Lavi;-inkscape-font-specification:Lavi;text-align:center;letter-spacing:0px;word-spacing:0px;text-anchor:middle;fill:#000000;fill-opacity:1;stroke:none"
       transform="translate(883.77264,42.588572)"><flowRegion
         id="flowRegion2989-5-4-5-6-5-0-4-0"><rect
           id="rect2991-7-9-6-4-5-0-8-8"
           width="682.90173"
           height="146.86493"
           x="120.55251"
           y="265.53046"
           style="font-style:normal;font-variant:normal;font-weight:normal;font-stretch:normal;font-family:Lavi;-inkscape-font-specification:Lavi;text-align:center;text-anchor:middle;stroke:none" /></flowRegion><flowPara
         style="font-size:45px;line-height:1.25;text-align:center;text-anchor:middle;stroke:none"
         id="flowPara3076">El camp gravitacional</flowPara><flowPara
         style="font-size:45px;line-height:1.25;text-align:center;text-anchor:middle;stroke:none"
         id="flowPara3080">diferencial és feble!</flowPara></flowRoot>    <flowRoot
       xml:space="preserve"
       id="flowRoot2987-4-9-3-1-0-2-9-5-2"
       style="font-style:normal;font-variant:normal;font-weight:normal;font-stretch:normal;line-height:0.01%;font-family:Lavi;-inkscape-font-specification:Lavi;text-align:center;letter-spacing:0px;word-spacing:0px;text-anchor:middle;fill:#000000;fill-opacity:1;stroke:none"
       transform="translate(819.50606,180.39165)"><flowRegion
         id="flowRegion2989-5-4-5-6-5-0-4-0-2"><rect
           id="rect2991-7-9-6-4-5-0-8-8-4"
           width="694.24384"
           height="182.78175"
           x="120.55251"
           y="265.53046"
           style="font-style:normal;font-variant:normal;font-weight:normal;font-stretch:normal;font-family:Lavi;-inkscape-font-specification:Lavi;text-align:center;text-anchor:middle;stroke:none" /></flowRegion><flowPara
         style="font-size:45px;line-height:1.25;text-align:center;text-anchor:middle;stroke:none"
         id="flowPara3637">Fins i tot l'última òrbita</flowPara><flowPara
         style="font-size:45px;line-height:1.25;text-align:center;text-anchor:middle;stroke:none"
         id="flowPara3088">circular estable és</flowPara><flowPara
         style="font-size:45px;line-height:1.25;text-align:center;text-anchor:middle;stroke:none"
         id="flowPara3094">massa petita!</flowPara></flowRoot>    <flowRoot
       xml:space="preserve"
       id="flowRoot2987-4-9-3-1-0-2-9-5-2-50"
       style="font-style:normal;font-variant:normal;font-weight:normal;font-stretch:normal;line-height:0.01%;font-family:Lavi;-inkscape-font-specification:Lavi;text-align:center;letter-spacing:0px;word-spacing:0px;text-anchor:middle;fill:#000000;fill-opacity:1;stroke:none"
       transform="translate(863.04371,1444.0768)"><flowRegion
         id="flowRegion2989-5-4-5-6-5-0-4-0-2-3"><rect
           id="rect2991-7-9-6-4-5-0-8-8-4-7"
           width="694.24384"
           height="182.78175"
           x="120.55251"
           y="265.53046"
           style="font-style:normal;font-variant:normal;font-weight:normal;font-stretch:normal;font-family:Lavi;-inkscape-font-specification:Lavi;text-align:center;text-anchor:middle;stroke:none" /></flowRegion><flowPara
         style="font-size:45px;line-height:1.25;text-align:center;text-anchor:middle;stroke:none"
         id="flowPara3652">Mentre que un hortizó dels esdeveniments una mica més gran, hauria funcionat!</flowPara></flowRoot>  </g>
</svg>
