<?xml version="1.0" encoding="UTF-8" standalone="no"?>
<!-- Created with Inkscape (http://www.inkscape.org/) -->

<svg
   id="svg2"
   version="1.1"
   inkscape:version="1.3 (1:1.3+202307231459+0e150ed6c4)"
   width="2481"
   height="3503"
   sodipodi:docname="E17P02.svg"
   xmlns:inkscape="http://www.inkscape.org/namespaces/inkscape"
   xmlns:sodipodi="http://sodipodi.sourceforge.net/DTD/sodipodi-0.dtd"
   xmlns:xlink="http://www.w3.org/1999/xlink"
   xmlns="http://www.w3.org/2000/svg"
   xmlns:svg="http://www.w3.org/2000/svg"
   xmlns:rdf="http://www.w3.org/1999/02/22-rdf-syntax-ns#"
   xmlns:cc="http://creativecommons.org/ns#"
   xmlns:dc="http://purl.org/dc/elements/1.1/">
  <sodipodi:namedview
     pagecolor="#ffffff"
     bordercolor="#666666"
     inkscape:pageopacity="0"
     inkscape:pageshadow="2"
     inkscape:window-width="1920"
     inkscape:window-height="997"
     id="namedview70"
     showgrid="false"
     inkscape:zoom="0.26124924"
     inkscape:cx="700.48051"
     inkscape:cy="2124.4081"
     inkscape:current-layer="layer1"
     inkscape:window-x="0"
     inkscape:window-y="0"
     inkscape:window-maximized="1"
     borderopacity="1"
     inkscape:showpageshadow="0"
     inkscape:pagecheckerboard="0"
     inkscape:deskcolor="#d1d1d1" />
  <metadata
     id="metadata8">
    <rdf:RDF>
      <cc:Work
         rdf:about="">
        <dc:format>image/svg+xml</dc:format>
        <dc:type
           rdf:resource="http://purl.org/dc/dcmitype/StillImage" />
      </cc:Work>
    </rdf:RDF>
  </metadata>
  <defs
     id="defs6">
    <filter
       style="color-interpolation-filters:sRGB;"
       id="filter4375-4-1-1-1-9-5"
       inkscape:label="Drop Shadow"
       x="-0.011210875"
       y="-0.073867165"
       width="1.0324671"
       height="1.2139218">
      <feFlood
         id="feFlood4377-7-9-0-8-1-7"
         flood-opacity="1"
         flood-color="rgb(108,125,133)"
         result="flood" />
      <feComposite
         id="feComposite4379-3-8-8-2-77-4"
         in2="SourceGraphic"
         in="flood"
         operator="in"
         result="composite1" />
      <feMorphology
         id="feMorphology4393-1-0-49-8-9-3"
         operator="dilate"
         radius="6.2000000000000002"
         result="result3" />
      <feComposite
         id="feComposite4385-9-5-7-0-8-8"
         in2="result3"
         in="SourceGraphic"
         operator="over"
         result="fbSourceGraphic" />
      <feColorMatrix
         result="fbSourceGraphicAlpha"
         in="fbSourceGraphic"
         values="0 0 0 -1 0 0 0 0 -1 0 0 0 0 -1 0 0 0 0 1 0"
         id="feColorMatrix4544" />
      <feTurbulence
         id="feTurbulence4546"
         type="fractalNoise"
         numOctaves="3"
         seed="37"
         baseFrequency="0.129 0.0050000000000000001"
         result="turbulence"
         in="fbSourceGraphic" />
      <feDisplacementMap
         id="feDisplacementMap4548"
         in2="turbulence"
         in="fbSourceGraphic"
         scale="6.6"
         yChannelSelector="G"
         xChannelSelector="R"
         result="fbSourceGraphic" />
      <feColorMatrix
         result="fbSourceGraphicAlpha"
         in="fbSourceGraphic"
         values="0 0 0 -1 0 0 0 0 -1 0 0 0 0 -1 0 0 0 0 1 0"
         id="feColorMatrix4670" />
      <feFlood
         id="feFlood4672"
         flood-opacity="1"
         flood-color="rgb(17,52,65)"
         result="flood"
         in="fbSourceGraphic" />
      <feComposite
         id="feComposite4674"
         in2="fbSourceGraphic"
         in="flood"
         operator="in"
         result="composite1" />
      <feGaussianBlur
         id="feGaussianBlur4676"
         in="composite1"
         stdDeviation="0"
         result="blur" />
      <feOffset
         id="feOffset4678"
         dx="6"
         dy="6"
         result="offset" />
      <feComposite
         id="feComposite4680"
         in2="offset"
         in="fbSourceGraphic"
         operator="over"
         result="composite2" />
    </filter>
    <filter
       inkscape:collect="always"
       style="color-interpolation-filters:sRGB"
       id="filter1003"
       x="-0.12990955"
       width="1.2598191"
       y="-0.090352919"
       height="1.1807058">
      <feGaussianBlur
         inkscape:collect="always"
         stdDeviation="0.83150736"
         id="feGaussianBlur1005" />
    </filter>
    <filter
       inkscape:collect="always"
       style="color-interpolation-filters:sRGB"
       id="filter1213"
       x="-0.14499305"
       width="1.2899861"
       y="-0.10301171"
       height="1.2060234">
      <feGaussianBlur
         inkscape:collect="always"
         stdDeviation="1.5985037"
         id="feGaussianBlur1215" />
    </filter>
  </defs>
  <sodipodi:namedview
     pagecolor="#ffffff"
     bordercolor="#666666"
     borderopacity="1"
     objecttolerance="10"
     gridtolerance="10"
     guidetolerance="10"
     inkscape:pageopacity="0"
     inkscape:pageshadow="2"
     inkscape:window-width="1920"
     inkscape:window-height="1025"
     id="namedview4"
     showgrid="false"
     inkscape:zoom="0.24456143"
     inkscape:cx="418.96963"
     inkscape:cy="925.67436"
     inkscape:window-x="0"
     inkscape:window-y="26"
     inkscape:window-maximized="1"
     inkscape:current-layer="layer3" />
  <g
     inkscape:groupmode="layer"
     id="layer2"
     inkscape:label="artwork"
     sodipodi:insensitive="true">
    <image
       xlink:href="../gfx_Pepper-and-Carrot_by-David-Revoy_E17P02.png"
       y="0"
       x="0"
       id="image10"
       height="3503"
       width="2481" />
  </g>
  <g
     inkscape:groupmode="layer"
     id="layer3"
     inkscape:label="speechbubbles">
    <path
       style="color:#000000;display:inline;overflow:visible;visibility:visible;fill:#ffe4a0;fill-opacity:1;fill-rule:nonzero;stroke:none;stroke-width:0.929963px;marker:none;enable-background:accumulate"
       d="m 154.77635,1064.4965 c -7.61145,-132.27935 140.64855,-96.50761 213.87658,-94.82617 83.07613,5.86487 179.19229,1.87188 171.45939,126.39157 -6.67987,29.2896 -13.35986,60.3024 -37.40774,70.6399 -24.04801,10.3377 -195.05538,24.121 -223.11129,17.2293 -28.05591,-6.8916 -73.47983,-8.6147 -97.52759,-29.2897 -24.37973,-20.9604 -25.95342,-47.9331 -27.28935,-90.1449 z"
       id="path3373"
       inkscape:connector-curvature="0"
       sodipodi:nodetypes="cccsssc" />
    <path
       style="color:#000000;display:inline;overflow:visible;visibility:visible;fill:#ffe4a0;fill-opacity:1;fill-rule:nonzero;stroke:none;stroke-width:1.04891px;marker:none;enable-background:accumulate"
       d="m 130.68871,1266.366 c 5.26207,-77.5814 86.06401,-135.3156 299.17399,-123.429 114.15318,6.367 243.70664,9.8512 237.32084,123.4858 -6.38593,113.6345 -192.51605,113.0706 -230.8822,116.2116 -38.36614,3.141 -238.65536,-6.2326 -274.34458,-44.4079 -22.34062,-23.8969 -31.45998,-47.8512 -31.26805,-71.8605 z"
       id="path4546-6"
       inkscape:connector-curvature="0"
       sodipodi:nodetypes="cssssc" />
    <path
       style="color:#000000;display:inline;overflow:visible;visibility:visible;fill:#ffe4a0;fill-opacity:1;fill-rule:nonzero;stroke:none;stroke-width:1px;marker:none;enable-background:accumulate"
       d="m 587.23586,1174.1904 c 51.27116,-41.1633 149.8778,-85.2003 264.98554,-18.484 117.45563,-13.9265 159.1674,-5.368 226.1925,56.8954 -72.139,-47.9191 -116.24059,-67.2081 -241.86362,-37.1297 -45.09623,-48.2708 -163.72454,-46.4191 -206.10579,10.6331 -42.38126,57.0523 -17.46921,58.1114 -17.46921,58.1114 l -39.32225,-53.5754 z"
       id="path5074"
       inkscape:connector-curvature="0"
       sodipodi:nodetypes="ccccsccc" />
    <path
       style="color:#000000;display:inline;overflow:visible;visibility:visible;fill:#ffe4a0;fill-opacity:1;fill-rule:nonzero;stroke:none;stroke-width:1.00947px;marker:none;enable-background:accumulate"
       d="m 1827.6157,1652.7381 c -10.8402,-66.3649 -28.4265,-221.017 193.7974,-206.4997 222.2238,14.5172 291.7118,24.3463 307.239,96.6109 5.3507,24.9025 47.3407,163.8521 -126.1023,201.1823 -173.443,37.33 -361.1621,-0.014 -374.9341,-91.2935 z"
       id="path3525"
       inkscape:connector-curvature="0"
       sodipodi:nodetypes="csssc" />
    <path
       style="color:#000000;display:inline;overflow:visible;visibility:visible;fill:#ffe4a0;fill-opacity:1;fill-rule:nonzero;stroke:none;stroke-width:1px;marker:none;enable-background:accumulate"
       d="m 1598.781,1488.4356 c 107.0984,73.703 229.4839,140.1632 303.5843,70.4763 79.5488,-74.8108 107.3574,-10.2915 107.3574,-10.2915 l -114.9117,66.5528 c -85.3574,-3.2446 -142.9698,20.7038 -296.03,-126.7376 z"
       id="path3072-1"
       inkscape:connector-curvature="0"
       sodipodi:nodetypes="csccc" />
    <path
       style="fill:#ffe4a0;fill-rule:evenodd;stroke:none;stroke-width:0.960556px;stroke-linecap:butt;stroke-linejoin:miter;stroke-opacity:1;fill-opacity:1"
       d="m 2021.7446,3027.9635 c -30.9307,-8.8446 -33.7805,-19.1954 -7.3501,-31.117 -29.1838,-0.3537 -24.5508,-7.5288 -12.0301,-16.2951 -45.0089,-33.3859 -41.3783,-63.6391 -36.6038,-93.8186 -34.8756,23.0691 -41.8328,-0.5425 -54.904,-13.9312 -1.2421,34.3429 -9.949,14.9738 -20.739,-19.3825 0.6308,43.7411 -4.5694,48.6783 -15.0869,18.2301 -2.3107,28.4283 -10.5792,41.3998 -25.6957,36.6044 -19.6236,31.3586 -36.4108,0.5515 -54.115,-10.1626 -0.1163,29.0887 -11.3612,33.0944 -26.1544,29.1034 -3.8606,13.367 -5.1428,31.6068 -26.824,11.3022 0.7752,23.773 -10.8451,10.0336 -18.6561,7.8218 11.0941,10.5007 -2.9186,18.257 -45.8109,22.8565 17.4012,2.253 17.9342,11.4876 -1.4415,28.9626 26.5357,5.1995 29.1061,19.2875 19.0868,38.0447 32.0972,14.8671 8.8438,44.3373 -0.5983,70.1638 25.8889,-18.2808 48.2892,-24.2698 59.9606,7.5432 37.3207,-37.8172 33.8167,-21.8438 32.174,-8.3228 20.1507,-38.5885 24.0551,-10.7477 32.7975,-2.6881 64.6418,-58.7628 69.7913,-18.7362 88.8581,-1.8206 -2.9153,-46.7053 15.6816,-33.6847 34.3676,-20.4173 -8.0312,-37.8936 3.3361,-29.4619 14.2976,-21.9985 -2.0664,-16.7495 5.9273,-24.0969 27.4848,-18.7673 -16.5074,-9.4802 -8.3971,-14.2565 36.9828,-11.9111 z"
       id="path4289"
       inkscape:connector-curvature="0"
       sodipodi:nodetypes="cccccccccccccccccccccccc" />
    <path
       style="display:inline;fill:#ffe4a0;fill-rule:evenodd;stroke:none;stroke-width:1.13411px;stroke-linecap:butt;stroke-linejoin:miter;stroke-opacity:1;fill-opacity:1"
       d="m 1010.408,2959.8099 c 38.7816,37.5242 60.872,22.2647 60.2063,-64.9596 18.5025,94.2566 31.3423,115.3372 38.9572,68.8965 24.4959,39.9178 39.7958,28.7206 51.9428,0 4.5274,36.9367 14.2367,22.0313 22.6396,20.1967 2.7675,8.3566 -6.7379,29.1182 31.6641,1.4565 2.4876,11.0609 5.8385,20.5862 28.3324,-3.9369 5.8275,44.8949 24.5248,-2.4882 43.6792,-53.1489 -11.9338,62.2829 -6.9853,71.08 8.2637,47.2433 -6.9718,25.6486 -11.1415,45.5035 15.3466,1.9686 -9.0682,47.3421 14.7223,14.8466 53.1234,-53.1487 -19.2089,50.2617 -70.1463,134.974 -36.5961,127.9506 -4.6788,14.8171 -21.3677,27.7272 28.3324,51.1801 -9.2783,10.0548 -37.6048,-4.6381 -13.9754,37.9338 3.1658,4.9763 -7.4327,8.0151 12.7949,21.1202 -11.9405,-0.8914 -19.2634,2.2936 -8.2637,21.6532 -21.7959,-1.0467 -13.6408,19.3102 2.3611,45.2748 -31.5636,-33.305 -33.3006,-21.2006 -34.2351,-7.8738 -39.5584,-45.4063 -41.8806,-31.1104 -47.2206,-21.6532 -19.2817,0.3542 -38.5635,-5.3638 -57.8455,45.2748 -5.0496,-31.4959 -15.1735,-55.7394 -57.8452,-33.4639 18.7361,-40.0683 -7.9184,-14.5406 -28.3324,1.9684 11.1791,-50.0552 -17.1919,-17.204 -53.1234,31.4955 20.1215,-55.2748 -2.7317,-35.3084 -36.596,3.937 12.795,-54.302 -8.0429,-80.5633 -57.84532,-82.6758 23.83702,-19.5874 37.73742,-44.2375 12.98576,-88.5811 27.90216,13.0571 36.22496,0.9288 16.52716,-47.2432 30.4338,39.5391 16.5967,-17.8106 4.7221,-70.8649 z"
       id="path4508"
       inkscape:connector-curvature="0"
       sodipodi:nodetypes="cccccccccccccccccccccccccccc" />
    <path
       style="color:#000000;display:inline;overflow:visible;visibility:visible;fill:#ffe4a0;fill-opacity:1;fill-rule:nonzero;stroke:none;stroke-width:1.13339px;marker:none;enable-background:accumulate"
       d="m 1060.1866,3021.1956 c 2.6669,-35.7819 14.6208,-35.4753 55.7797,-3.1104 -10.861,-63.8119 44.3984,-66.829 95.8996,-73.3016 -5.9065,-17.9297 -28.7096,-38.5217 8.2566,-49.6967 -19.8556,-10.6866 -19.9195,-24.9038 -2.3249,-42.271 -41.1052,8.2755 -56.5661,3.1808 -7.9496,-35.3242 -45.8853,21.875 -89.8268,41.3488 -72.5214,-14.8218 -17.3756,7.6453 -27.0697,52.1158 -95.1227,-29.229 -0.7703,37.456 -69.05589,68.272 -102.5904,19.9208 16.97695,40.2873 -38.67266,86.5196 -64.76735,54.1736 15.50167,22.5855 2.68952,44.6725 -16.84479,48.3722 55.46166,5.9759 44.33542,19.666 5.94384,42.3776 114.23385,3.5451 51.36811,26.108 51.92795,41.3815 69.54157,-14.0473 65.07233,14.4911 75.02847,35.6473 66.22568,-64.5316 46.10588,-53.0051 69.28498,5.8817 z"
       id="path3549-3"
       inkscape:connector-curvature="0"
       sodipodi:nodetypes="ccccccccccccccc" />
    <path
       style="color:#000000;display:inline;overflow:visible;visibility:visible;fill:#ffe4a0;fill-opacity:1;fill-rule:nonzero;stroke:none;stroke-width:1px;marker:none;enable-background:accumulate"
       d="m 1277.5997,2760.8322 c -19.5615,40.7796 -33.035,85.0836 -59.6702,121.7686 l 36.9411,-16.3257 c -2.4291,18.1745 -15.3705,32.7378 -24.7423,48.5275 l 24.5574,-6.2226 c -6.265,42.818 -28.5529,75.9128 -43.0963,113.7071 l 41.8898,-14.3246 c 10.1498,-40.0092 13.603,-81.2573 31.285,-119.873 l -24.6408,3.5837 c 4.2067,-14.2131 8.9951,-28.2748 16.3821,-41.6607 l -30.4947,7.2955 z"
       id="path4032"
       inkscape:connector-curvature="0"
       sodipodi:nodetypes="cccccccccccc" />
  </g>
  <g
     inkscape:groupmode="layer"
     id="layer1"
     inkscape:label="txt">
    <text
       xml:space="preserve"
       style="font-style:normal;font-variant:normal;font-weight:normal;font-stretch:normal;line-height:0%;font-family:Lavi;-inkscape-font-specification:Lavi;text-align:center;letter-spacing:0px;word-spacing:0px;text-anchor:middle;fill:#000000;fill-opacity:1;stroke:none"
       x="345.55624"
       y="1026.2769"
       id="text4246"><tspan
         sodipodi:role="line"
         style="font-size:45px;line-height:1.25"
         x="345.55624"
         y="1026.2769"
         id="tspan4175">No, tako.</tspan><tspan
         sodipodi:role="line"
         style="font-size:45px;line-height:1.25"
         x="345.55624"
         y="1082.5269"
         id="tspan3351">Proti deželi</tspan><tspan
         sodipodi:role="line"
         style="font-size:45px;line-height:1.25"
         x="345.55624"
         y="1138.7769"
         id="tspan85">zahajajočih lun.</tspan></text>
    <text
       xml:space="preserve"
       style="font-style:normal;font-variant:normal;font-weight:normal;font-stretch:normal;line-height:0%;font-family:Lavi;-inkscape-font-specification:Lavi;text-align:center;letter-spacing:0px;word-spacing:0px;text-anchor:middle;fill:#000000;fill-opacity:1;stroke:none"
       x="402.03839"
       y="1221.3492"
       id="text4246-6"><tspan
         sodipodi:role="line"
         style="font-weight:normal;font-size:45px;line-height:1.25"
         x="402.03839"
         y="1221.3492"
         id="tspan1635">Šičimi nama lahko</tspan><tspan
         sodipodi:role="line"
         style="font-weight:normal;font-size:45px;line-height:1.25"
         x="402.03839"
         y="1277.5992"
         id="tspan1639">pove, kako se pridruživa</tspan><tspan
         sodipodi:role="line"
         style="font-weight:normal;font-size:45px;line-height:1.25"
         x="402.03839"
         y="1333.8492"
         id="tspan1641">aškim čarovnicam.</tspan></text>
    <text
       xml:space="preserve"
       style="font-style:normal;font-variant:normal;font-weight:normal;font-stretch:normal;line-height:0%;font-family:Lavi;-inkscape-font-specification:Lavi;text-align:center;letter-spacing:0px;word-spacing:0px;text-anchor:middle;fill:#000000;fill-opacity:1;stroke:none"
       x="2076.8506"
       y="1522.6947"
       id="text4246-6-9"><tspan
         sodipodi:role="line"
         style="font-size:45px;line-height:1.25"
         x="2076.8506"
         y="1522.6947"
         id="tspan3384">Korenček, poišči</tspan><tspan
         sodipodi:role="line"
         style="font-size:45px;line-height:1.25"
         x="2076.8506"
         y="1578.9447"
         id="tspan81">zemljevid in kompas.</tspan><tspan
         sodipodi:role="line"
         style="font-size:45px;line-height:1.25"
         x="2076.8506"
         y="1635.1947"
         id="tspan3388">Preveč oblačno je, da</tspan><tspan
         sodipodi:role="line"
         style="font-size:45px;line-height:1.25"
         x="2076.8506"
         y="1691.4447"
         id="tspan77">bi videla, kam grem.</tspan></text>
    <text
       xml:space="preserve"
       style="font-style:normal;font-variant:normal;font-weight:normal;font-stretch:normal;line-height:0%;font-family:Lavi;-inkscape-font-specification:Lavi;text-align:center;letter-spacing:0px;word-spacing:0px;text-anchor:middle;fill:#000000;fill-opacity:1;stroke:none"
       x="1949.7035"
       y="1557.4618"
       id="text4246-6-9-6"><tspan
         sodipodi:role="line"
         style="font-size:45px;line-height:1.25"
         x="1956.7347"
         y="1557.4618"
         id="tspan4297"> </tspan></text>
    <text
       xml:space="preserve"
       style="font-style:normal;font-variant:normal;font-weight:normal;font-stretch:normal;line-height:0%;font-family:Lavi;-inkscape-font-specification:Lavi;text-align:center;letter-spacing:0px;word-spacing:0px;text-anchor:middle;fill:#000000;fill-opacity:1;stroke:#000000;stroke-width:2.4;stroke-miterlimit:4;stroke-dasharray:none;stroke-opacity:1"
       x="1297.8024"
       y="2708.6787"
       id="text4246-6-9-0"
       transform="matrix(0.92763131,0,-0.05816983,1.0780145,0,0)"><tspan
         sodipodi:role="line"
         style="font-size:59.707px;line-height:1.25;stroke:#000000;stroke-width:2.4;stroke-miterlimit:4;stroke-dasharray:none;stroke-opacity:1"
         x="1297.8024"
         y="2708.6787"
         id="tspan4305-5">PIŠUKA!</tspan></text>
    <text
       xml:space="preserve"
       style="font-style:normal;font-variant:normal;font-weight:normal;font-stretch:normal;line-height:0%;font-family:Lavi;-inkscape-font-specification:Lavi;text-align:center;letter-spacing:0px;word-spacing:0px;text-anchor:middle;fill:#000000;fill-opacity:1;stroke:none"
       x="1166.4515"
       y="3045.6765"
       id="text4246-6-9-8"><tspan
         sodipodi:role="line"
         style="font-size:45px;line-height:1.25"
         x="1166.4515"
         y="3045.6765"
         id="tspan4395">Vrtinčenje</tspan><tspan
         sodipodi:role="line"
         style="font-size:45px;line-height:1.25"
         x="1166.4515"
         y="3101.9265"
         id="tspan1647">zraka!</tspan></text>
    <text
       xml:space="preserve"
       style="font-style:normal;font-variant:normal;font-weight:normal;font-stretch:normal;line-height:0%;font-family:Lavi;-inkscape-font-specification:Lavi;text-align:center;letter-spacing:0px;word-spacing:0px;text-anchor:middle;fill:#000000;fill-opacity:1;stroke:#000000;stroke-width:2.4;stroke-miterlimit:4;stroke-dasharray:none;stroke-opacity:1"
       x="2021.7845"
       y="3022.6675"
       id="text4246-6-9-8-8"
       transform="matrix(0.95440174,0,-0.25660426,1.0477768,0,0)"><tspan
         sodipodi:role="line"
         style="font-size:42.9481px;line-height:1.25;stroke:#000000;stroke-width:2.4;stroke-miterlimit:4;stroke-dasharray:none;stroke-opacity:1"
         x="2021.7845"
         y="3022.6675"
         id="tspan4395-0">DRŽI SE!</tspan></text>
    <text
       xml:space="preserve"
       style="font-style:normal;font-variant:normal;font-weight:normal;font-stretch:normal;line-height:0%;font-family:Lavi;-inkscape-font-specification:Lavi;text-align:center;letter-spacing:0px;word-spacing:0px;text-anchor:middle;fill:#000000;fill-opacity:1;stroke:none"
       x="1724.0342"
       y="3389.1704"
       id="text4246-6-9-0-4"
       transform="matrix(0.95609098,-0.27508698,0.05700764,1.0295233,0,0)"><tspan
         sodipodi:role="line"
         style="font-size:59.707px;line-height:1.25;stroke:#000000;stroke-width:4.24583;stroke-miterlimit:4;stroke-dasharray:none;stroke-opacity:1"
         x="1724.0342"
         y="3389.1704"
         id="tspan4305-5-1">O, ne!!!</tspan></text>
    <path
       style="color:#000000;display:inline;overflow:visible;visibility:visible;fill:#ffe4a0;fill-opacity:1;fill-rule:nonzero;stroke:none;stroke-width:1px;marker:none;enable-background:accumulate"
       d="m 1981.554,2965.8845 c -2.8344,-2.7596 17.6625,-50.4745 17.6625,-50.4745 0,0 0.362,-14.576 1.0191,-17.668 7.9691,-5.303 20.5629,-9.8345 20.5629,-9.8345 l -1.9493,-38.8861 -7.2418,31.926 -20.2953,2.7706 -1.7964,23.9372 -36.789,19.3605 z"
       id="path4448"
       inkscape:connector-curvature="0"
       sodipodi:nodetypes="cccccccccc" />
    <text
       xml:space="preserve"
       style="font-style:normal;font-variant:normal;font-weight:normal;font-stretch:normal;line-height:0%;font-family:Lavi;-inkscape-font-specification:Lavi;letter-spacing:0px;word-spacing:0px;fill:#ffffff;fill-opacity:1;stroke:#98b9ca;stroke-width:0.992362;stroke-miterlimit:4;stroke-dasharray:none;stroke-opacity:1;filter:url(#filter4375-4-1-1-1-9-5)"
       x="787.65729"
       y="1584.5073"
       id="text4580-6"
       transform="matrix(1.0541866,-0.30592674,-0.45361635,1.4058514,1555.6885,244.62886)"><tspan
         sodipodi:role="line"
         id="tspan4582-1"
         x="787.65729"
         y="1584.5073"
         style="font-size:70px;line-height:1.25;fill:#ffffff;fill-opacity:1;stroke:#98b9ca;stroke-opacity:1"><tspan
           style="font-size:93.1495px;fill:#ffffff;fill-opacity:1;stroke:#98b9ca;stroke-opacity:1"
           id="tspan4315">BrrUuuuUum!</tspan><tspan
           style="font-size:114.732px;fill:#ffffff;fill-opacity:1;stroke:#98b9ca;stroke-opacity:1"
           id="tspan4313">!</tspan></tspan></text>
    <ellipse
       style="color:#000000;clip-rule:nonzero;display:inline;overflow:visible;visibility:visible;opacity:1;isolation:auto;mix-blend-mode:normal;color-interpolation:sRGB;color-interpolation-filters:linearRGB;solid-color:#000000;solid-opacity:1;vector-effect:none;fill:#ccc0b2;fill-opacity:1;fill-rule:nonzero;stroke:none;stroke-width:0.819063;stroke-linecap:butt;stroke-linejoin:miter;stroke-miterlimit:4;stroke-dasharray:none;stroke-dashoffset:0;stroke-opacity:1;marker:none;paint-order:markers stroke fill;filter:url(#filter1213);color-rendering:auto;image-rendering:auto;shape-rendering:auto;text-rendering:auto;enable-background:accumulate"
       id="path1007"
       cx="-1314.3951"
       cy="2284.5508"
       rx="13.22963"
       ry="18.621227"
       transform="matrix(0.72758993,-0.68601232,0.6318505,0.77509028,-4.0245567e-7,-3.4202376e-6)" />
    <text
       xml:space="preserve"
       style="font-style:normal;font-variant:normal;font-weight:normal;font-stretch:normal;line-height:0%;font-family:Lavi;-inkscape-font-specification:Lavi;text-align:center;letter-spacing:0px;word-spacing:0px;text-anchor:middle;display:inline;opacity:0.6;fill:#230800;fill-opacity:1;stroke:#0a0a0a;stroke-width:1.12461;stroke-opacity:1;filter:url(#filter1003)"
       x="-447.29675"
       y="2872.5061"
       id="text4246-85"
       transform="matrix(0.48659421,0.56934496,-0.54012331,0.48694312,2253.9135,1540.9136)"><tspan
         sodipodi:role="line"
         style="font-style:normal;font-variant:normal;font-weight:normal;font-stretch:normal;font-size:40.1424px;line-height:127%;font-family:Fondamento;-inkscape-font-specification:Fondamento;fill:#230800;fill-opacity:1;stroke:#0a0a0a;stroke-width:1.28985;stroke-opacity:1"
         x="-447.29675"
         y="2872.5061"
         id="tspan4172">S</tspan></text>
  </g>
</svg>
