<?xml version="1.0" encoding="UTF-8" standalone="no"?>
<svg
   xmlns:dc="http://purl.org/dc/elements/1.1/"
   xmlns:cc="http://creativecommons.org/ns#"
   xmlns:rdf="http://www.w3.org/1999/02/22-rdf-syntax-ns#"
   xmlns:svg="http://www.w3.org/2000/svg"
   xmlns="http://www.w3.org/2000/svg"
   xmlns:xlink="http://www.w3.org/1999/xlink"
   xmlns:sodipodi="http://sodipodi.sourceforge.net/DTD/sodipodi-0.dtd"
   xmlns:inkscape="http://www.inkscape.org/namespaces/inkscape"
   id="svg2"
   version="1.1"
   inkscape:version="1.0.2 (e86c8708, 2021-01-15)"
   width="2481"
   height="3503"
   sodipodi:docname="E35P09.svg">
  <metadata
     id="metadata8">
    <rdf:RDF>
      <cc:Work
         rdf:about="">
        <dc:format>image/svg+xml</dc:format>
        <dc:type
           rdf:resource="http://purl.org/dc/dcmitype/StillImage" />
        <dc:title />
      </cc:Work>
    </rdf:RDF>
  </metadata>
  <defs
     id="defs6">
    <filter
       style="color-interpolation-filters:sRGB"
       id="filter4375-4-1-1-1-9-5-8-8-5-5-3-3"
       inkscape:label="soundFX1"
       x="-0.024097853"
       y="-0.0012978443"
       width="1.024925"
       height="1.0039616">
      <feFlood
         id="feFlood4377-7-9-0-8-1-7-3-1-2-7-6-6"
         flood-opacity="1"
         flood-color="rgb(52,52,52)"
         result="flood" />
      <feComposite
         id="feComposite4379-3-8-8-2-77-4-1-0-6-4-7-7"
         in2="SourceGraphic"
         in="flood"
         operator="in"
         result="composite1"
         baseFrequency="0.053999999999999999 0.053999999999999999" />
      <feMorphology
         id="feMorphology4393-1-0-49-8-9-3-0-1-9-9-5-5"
         operator="dilate"
         radius="4.0330969769021738"
         result="result3" />
      <feComposite
         id="feComposite4385-9-5-7-0-8-8-7-5-4-9-3-3"
         in2="result3"
         in="SourceGraphic"
         operator="over"
         result="fbSourceGraphic" />
      <feColorMatrix
         result="fbSourceGraphicAlpha"
         in="fbSourceGraphic"
         values="0 0 0 -1 0 0 0 0 -1 0 0 0 0 -1 0 0 0 0 1 0"
         id="feColorMatrix4544-9-4-4-5-5" />
      <feTurbulence
         id="feTurbulence4546-3-6-5-6-6"
         type="fractalNoise"
         numOctaves="4"
         seed="147"
         baseFrequency="0.053999999999999999 0.054054054054054057"
         result="turbulence" />
      <feDisplacementMap
         id="feDisplacementMap4548-8-0-9-2-2"
         in2="turbulence"
         in="fbSourceGraphic"
         scale="10.561763"
         yChannelSelector="G"
         xChannelSelector="R"
         result="fbSourceGraphic" />
      <feColorMatrix
         result="fbSourceGraphicAlpha"
         in="fbSourceGraphic"
         values="0 0 0 -1 0 0 0 0 -1 0 0 0 0 -1 0 0 0 0 1 0"
         id="feColorMatrix4670-7-7-3-9-9" />
      <feFlood
         id="feFlood4672-4-4-5-1-1"
         flood-opacity="1"
         flood-color="rgb(28,28,28)"
         result="flood"
         in="fbSourceGraphic" />
      <feComposite
         id="feComposite4674-8-3-7-2-2"
         in2="fbSourceGraphic"
         in="flood"
         operator="in"
         result="composite1" />
      <feGaussianBlur
         id="feGaussianBlur4676-3-7-08-7-7"
         in="composite1"
         stdDeviation="0"
         result="blur" />
      <feOffset
         id="feOffset4678-6-9-1-0-0"
         dx="-10.48377497279229"
         dy="0.39217365321829334"
         result="offset" />
      <feComposite
         id="feComposite4680-4-0-9-9-9"
         in2="offset"
         in="fbSourceGraphic"
         operator="over"
         result="composite2" />
    </filter>
  </defs>
  <sodipodi:namedview
     pagecolor="#ffffff"
     bordercolor="#666666"
     borderopacity="1"
     objecttolerance="10"
     gridtolerance="10"
     guidetolerance="10"
     inkscape:pageopacity="0"
     inkscape:pageshadow="2"
     inkscape:window-width="960"
     inkscape:window-height="1114"
     id="namedview4"
     showgrid="false"
     inkscape:zoom="0.25863546"
     inkscape:cx="1283.0309"
     inkscape:cy="1766.9658"
     inkscape:window-x="960"
     inkscape:window-y="25"
     inkscape:window-maximized="0"
     inkscape:current-layer="layer1"
     inkscape:document-rotation="0"
     inkscape:snap-global="false"
     inkscape:pagecheckerboard="0" />
  <g
     inkscape:groupmode="layer"
     id="layer2"
     inkscape:label="artwork"
     sodipodi:insensitive="true">
    <image
       sodipodi:absref="/Users/gand/Documents/Pepper&amp;Carrot/ep35_The-Reflection/lang/gfx_Pepper-and-Carrot_by-David-Revoy_E35P09.png"
       xlink:href="../gfx_Pepper-and-Carrot_by-David-Revoy_E35P09.png"
       width="2481"
       height="3503"
       id="image10"
       x="0"
       y="0" />
  </g>
  <g
     inkscape:groupmode="layer"
     id="layer3"
     inkscape:label="speechbubbles">
    <path
       style="display:inline;fill:#ffffff;fill-rule:evenodd;stroke:none;stroke-width:1.24552px;stroke-linecap:butt;stroke-linejoin:miter;stroke-opacity:1"
       d="m 293.51608,814.38125 c 50.0028,13.12958 53.69208,24.23792 9.08857,33.23954 47.94885,4.09246 39.64086,10.95001 18.21068,18.45118 70.78738,40.40127 61.90566,71.34297 51.15016,102.06212 59.56139,-19.49539 66.64683,2.16338 66.36018,23.34222 17.12829,-29.97327 38.51703,-13.89562 37.01127,12.16329 17.72914,-30.19616 42.41956,-45.70038 44.34432,-15.55465 22.12821,-24.27406 21.3847,-34.33732 45.77641,-27.43044 35.28279,-30.04752 59.91793,4.07493 87.99421,17.45682 2.99168,-30.18086 21.86571,-32.90467 45.80341,-26.87305 7.63454,-13.38319 11.49798,-32.15342 45.19043,-8.30877 1.01455,-24.77738 18.79703,-9.03127 31.42692,-5.73833 -17.22969,-12.31681 6.55601,-18.57917 77.51989,-17.87959 -28.39298,-4.55937 -45.09907,-27.77411 5.02771,-50.78848 -69.07172,14.49855 -45.86739,-2.82895 -27.58838,-21.02165 -51.34092,-19.52935 -10.27231,-47.15383 7.73828,-72.75806 -51.4878,16.01187 -117.42585,20.72347 -97.85763,-15.48361 -65.00127,34.4931 -57.70223,18.35889 -53.69971,4.53281 -36.84592,37.48512 -40.58489,8.08614 -54.18285,-1.39584 -111.93749,52.74884 -116.55027,10.54099 -146.27098,-9.45209 0.29711,48.85578 -29.02541,32.96535 -58.47048,16.80787 9.55636,40.36146 -8.32141,30.15787 -25.62559,21.01189 1.78522,17.65047 -12.06482,24.2572 -46.99553,15.97278 26.22803,11.94797 12.43372,15.87107 -61.95129,7.64404 z"
       id="path4289-9-2"
       inkscape:connector-curvature="0"
       sodipodi:nodetypes="cccccccccccccccccccccccc" />
    <path
       style="display:inline;fill:#ffffff;fill-rule:evenodd;stroke:none;stroke-width:0.988989px;stroke-linecap:butt;stroke-linejoin:miter;stroke-opacity:1"
       d="M 963.27671,1015.5732 C 855.1456,974.16786 728.54706,920.87912 712.01736,938.41898 l -4.63952,-34.71076 c 24.01825,-8.63206 180.13442,72.14698 255.89887,111.86498 z"
       id="path1881"
       sodipodi:nodetypes="cccc" />
    <text
       xml:space="preserve"
       style="font-style:normal;font-variant:normal;font-weight:normal;font-stretch:normal;font-size:145.675px;line-height:1.25;font-family:Lavi;-inkscape-font-specification:Lavi;letter-spacing:0px;word-spacing:0px;fill:#ffffff;fill-opacity:1;stroke:#ffffff;stroke-width:0.74524;stroke-miterlimit:4;stroke-dasharray:none;stroke-opacity:1;filter:url(#filter4375-4-1-1-1-9-5-8-8-5-5-3-3)"
       id="text4580-6-0-0-0-9-3-3"
       transform="matrix(0.6234491,0.267428,-0.65521393,1.0449346,2153.6335,-849.35717)"
       x="662.92181"
       y="1440.271"
       inkscape:transform-center-x="-7.7973551"
       inkscape:transform-center-y="-49.154777"><tspan
         style="font-size:145.675px;fill:#ffffff;fill-opacity:1;stroke:#ffffff;stroke-width:0.74524;stroke-miterlimit:4;stroke-dasharray:none;stroke-opacity:1"
         id="tspan876-6-6"
         rotate="0 0 0 0 0 0 0 0"><tspan
           id="tspan2853"
           style="font-size:117.986px;stroke-width:0.74524"
           dy="0 20 25 30 35 40 50">SWoosh!</tspan></tspan><textPath
         xlink:href="#path974"
         id="textPath2837"
         style="stroke-width:0.74524" /></text>
    <path
       style="display:inline;fill:#ffffff;fill-rule:evenodd;stroke:none;stroke-width:1.01939px;stroke-linecap:butt;stroke-linejoin:miter;stroke-opacity:1"
       d="m 830.08562,1480.6944 c -105.88939,56.3352 -99.87906,44.9732 -78.78344,-5.6415 -72.83282,61.8405 -75.24838,37.9758 -63.96002,9.4473 -47.79433,46.6816 -68.88997,37.0592 -74.77432,0.4213 -0.29125,50.5223 -22.67947,30.6984 -32.55324,15.5802 -2.98365,14.9378 -18.58054,41.5612 -45.57948,1.3677 0.23736,13.1191 14.87392,44.3025 -40.79319,-2.7715 13.98926,51.9812 -35.30931,-1.6985 -62.97735,-40.1636 17.29512,47.3839 10.18796,54.131 -11.80806,36.0833 10.0839,19.4964 16.12345,34.5992 -22.08858,1.6246 13.14215,36.0172 -5.52679,31.7105 -46.74388,-6.8317 27.6758,38.2277 63.49611,76.5457 23.09111,63.991 6.7629,11.2579 30.81152,20.9642 -40.69068,39.2466 13.37527,7.5905 54.12544,-3.8409 20.18884,28.8056 -4.54811,3.8193 10.71467,6.0504 -18.37967,16.2052 17.18741,-0.7775 27.73501,1.5921 11.93622,16.4394 31.37449,-0.974 19.67268,14.6112 -3.31469,34.5342 45.37554,-25.646 96.79108,-47.589 64.62814,-10.4072 56.86195,-34.9368 62.90434,-9.7791 52.68824,6.7473 34.08698,-28.1968 55.39263,-23.9117 83.24405,14.5356 7.21064,-24.0514 21.73946,-42.6157 83.20897,-25.9799 -27.04614,-30.3947 11.37199,-11.1491 40.78957,1.2704 -16.18592,-38.069 24.71661,-13.2552 76.53234,23.5796 -29.06867,-41.9756 4.13731,-46.3032 52.95969,-16.6595 -25.77091,-44.4142 -42.25237,-54.0153 82.97681,-13.033 -105.798,-41.6451 -83.41587,-69.0663 -18.98819,-98.5238 -65.66311,-1.6302 -70.84696,-7.6523 -23.87968,-35.882 -92.33339,7.4778 -36.47851,-19.3616 -6.92951,-53.9856 z"
       id="path4508-2"
       inkscape:connector-curvature="0"
       sodipodi:nodetypes="cccccccccccccccccccccccccccc" />
    <path
       style="fill:#ffffff;fill-rule:evenodd;stroke:none;stroke-width:0.999998px;stroke-linecap:butt;stroke-linejoin:miter;stroke-opacity:1"
       d="m 981.01706,1712.6543 -82.47964,-69.3619 -21.73828,-20.9157 -3.89619,33.8993 c -113.19185,-60.793 -107.41261,-104.6482 -123.16199,-63.0392 -19.42613,51.3227 45.72551,35.5105 135.52361,93.9205 4.43214,-8.2819 5.06237,-18.0952 6.91438,-27.2171 z"
       id="path1111-3-3"
       inkscape:connector-curvature="0"
       sodipodi:nodetypes="ccccsccc" />
  </g>
  <g
     inkscape:groupmode="layer"
     id="layer1"
     inkscape:label="txt">
    <text
       xml:space="preserve"
       style="font-style:normal;font-variant:normal;font-weight:normal;font-stretch:normal;font-size:64.9135px;line-height:1.25;font-family:Lavi;-inkscape-font-specification:Lavi;text-align:center;letter-spacing:0px;word-spacing:0px;text-anchor:middle;fill:#ffffff;fill-opacity:1;stroke:none;stroke-width:1.44252;"
       x="330.38358"
       y="306.20593"
       id="text4246-3-2-2"
       transform="scale(0.96891819,1.0320789)"><tspan
         style="font-style:normal;font-variant:normal;font-weight:bold;font-stretch:normal;font-size:64.9135px;font-family:Lavi;-inkscape-font-specification:'Lavi Bold';stroke-width:1.44252;fill:#ffffff;"
         sodipodi:role="line"
         x="330.38358"
         y="306.20593"
         id="tspan915">NO!</tspan><tspan
         style="font-style:normal;font-variant:normal;font-weight:bold;font-stretch:normal;font-size:64.9135px;font-family:Lavi;-inkscape-font-specification:'Lavi Bold';stroke-width:1.44252;fill:#ffffff;"
         sodipodi:role="line"
         x="330.38358"
         y="387.34781"
         id="tspan905" /></text>
    <text
       xml:space="preserve"
       style="font-style:normal;font-variant:normal;font-weight:normal;font-stretch:normal;font-size:45px;line-height:1.25;font-family:Lavi;-inkscape-font-specification:Lavi;text-align:center;letter-spacing:0px;word-spacing:0px;text-anchor:middle;fill:#ffffff;fill-opacity:1;stroke:none"
       x="2086.762"
       y="299.48114"
       id="text4246-3-2-2-3"><tspan
         style="font-style:normal;font-variant:normal;font-weight:bold;font-stretch:normal;font-size:45px;font-family:Lavi;-inkscape-font-specification:'Lavi Bold';fill:#ffffff"
         sodipodi:role="line"
         x="2086.762"
         y="299.48114"
         id="tspan904">Questo non è</tspan><tspan
         style="font-style:normal;font-variant:normal;font-weight:bold;font-stretch:normal;font-size:45px;font-family:Lavi;-inkscape-font-specification:'Lavi Bold';fill:#ffffff"
         sodipodi:role="line"
         x="2086.762"
         y="356.25778"
         id="tspan906">quello che</tspan><tspan
         style="font-style:normal;font-variant:normal;font-weight:bold;font-stretch:normal;font-size:45px;font-family:Lavi;-inkscape-font-specification:'Lavi Bold';fill:#ffffff"
         sodipodi:role="line"
         x="2086.762"
         y="413.03442"
         id="tspan57">sono!</tspan></text>
    <text
       xml:space="preserve"
       style="font-style:normal;font-variant:normal;font-weight:normal;font-stretch:normal;font-size:68.846px;line-height:1.25;font-family:Lavi;-inkscape-font-specification:Lavi;text-align:center;letter-spacing:0px;word-spacing:0px;text-anchor:middle;fill:#000000;fill-opacity:1;stroke:none;stroke-width:0.956195"
       x="615.79883"
       y="896.21271"
       id="text4246-3-2-2-3-5"
       transform="matrix(0.95619489,-0.06824752,0,1.0458119,0,0)"><tspan
         sodipodi:role="line"
         x="626.55603"
         y="896.21271"
         id="tspan906-6"
         style="font-style:normal;font-variant:normal;font-weight:bold;font-stretch:normal;font-size:68.846px;font-family:Lavi;-inkscape-font-specification:'Lavi Bold';stroke-width:0.956195">STOOOOP!!! </tspan></text>
    <text
       xml:space="preserve"
       style="font-style:normal;font-variant:normal;font-weight:normal;font-stretch:normal;font-size:56.8892px;line-height:1.25;font-family:Lavi;-inkscape-font-specification:Lavi;text-align:center;letter-spacing:0px;word-spacing:0px;text-anchor:middle;fill:#000000;fill-opacity:1;stroke:none;stroke-width:1.20164"
       x="592.07495"
       y="1609.231"
       id="text4246-3-2-2-3-1"><tspan
         style="font-style:normal;font-variant:normal;font-weight:bold;font-stretch:normal;font-size:56.8892px;font-family:Lavi;-inkscape-font-specification:'Lavi Bold';stroke-width:1.20164"
         sodipodi:role="line"
         x="592.07495"
         y="1609.231"
         id="tspan1006">MI ARRENDO!</tspan></text>
  </g>
</svg>
