<?xml version="1.0" encoding="UTF-8" standalone="no"?>
<svg
   xmlns:dc="http://purl.org/dc/elements/1.1/"
   xmlns:cc="http://creativecommons.org/ns#"
   xmlns:rdf="http://www.w3.org/1999/02/22-rdf-syntax-ns#"
   xmlns:svg="http://www.w3.org/2000/svg"
   xmlns="http://www.w3.org/2000/svg"
   xmlns:xlink="http://www.w3.org/1999/xlink"
   xmlns:sodipodi="http://sodipodi.sourceforge.net/DTD/sodipodi-0.dtd"
   xmlns:inkscape="http://www.inkscape.org/namespaces/inkscape"
   id="svg2"
   version="1.1"
   inkscape:version="1.0.2 (e86c870879, 2021-01-15)"
   width="2481"
   height="3503"
   sodipodi:docname="E34P05.svg">
  <metadata
     id="metadata8">
    <rdf:RDF>
      <cc:Work
         rdf:about="">
        <dc:format>image/svg+xml</dc:format>
        <dc:type
           rdf:resource="http://purl.org/dc/dcmitype/StillImage" />
        <dc:title />
      </cc:Work>
    </rdf:RDF>
  </metadata>
  <defs
     id="defs6">
    <filter
       style="color-interpolation-filters:sRGB"
       id="filter4375-4-1-1-1-9-5-8-8-5-5-3-3"
       inkscape:label="soundFX1">
      <feFlood
         id="feFlood4377-7-9-0-8-1-7-3-1-2-7-6-6"
         flood-opacity="1"
         flood-color="rgb(52,52,52)"
         result="flood" />
      <feComposite
         id="feComposite4379-3-8-8-2-77-4-1-0-6-4-7-7"
         in2="SourceGraphic"
         in="flood"
         operator="in"
         result="composite1"
         baseFrequency="0.053999999999999999 0.053999999999999999" />
      <feMorphology
         id="feMorphology4393-1-0-49-8-9-3-0-1-9-9-5-5"
         operator="dilate"
         radius="4.0330969769021738"
         result="result3" />
      <feComposite
         id="feComposite4385-9-5-7-0-8-8-7-5-4-9-3-3"
         in2="result3"
         in="SourceGraphic"
         operator="over"
         result="fbSourceGraphic" />
      <feColorMatrix
         result="fbSourceGraphicAlpha"
         in="fbSourceGraphic"
         values="0 0 0 -1 0 0 0 0 -1 0 0 0 0 -1 0 0 0 0 1 0"
         id="feColorMatrix4544-9-4-4-5-5" />
      <feTurbulence
         id="feTurbulence4546-3-6-5-6-6"
         type="fractalNoise"
         numOctaves="4"
         seed="147"
         baseFrequency="0.053999999999999999 0.054054054054054057"
         result="turbulence" />
      <feDisplacementMap
         id="feDisplacementMap4548-8-0-9-2-2"
         in2="turbulence"
         in="fbSourceGraphic"
         scale="10.561763"
         yChannelSelector="G"
         xChannelSelector="R"
         result="fbSourceGraphic" />
      <feColorMatrix
         result="fbSourceGraphicAlpha"
         in="fbSourceGraphic"
         values="0 0 0 -1 0 0 0 0 -1 0 0 0 0 -1 0 0 0 0 1 0"
         id="feColorMatrix4670-7-7-3-9-9" />
      <feFlood
         id="feFlood4672-4-4-5-1-1"
         flood-opacity="1"
         flood-color="rgb(28,28,28)"
         result="flood"
         in="fbSourceGraphic" />
      <feComposite
         id="feComposite4674-8-3-7-2-2"
         in2="fbSourceGraphic"
         in="flood"
         operator="in"
         result="composite1" />
      <feGaussianBlur
         id="feGaussianBlur4676-3-7-08-7-7"
         in="composite1"
         stdDeviation="0"
         result="blur" />
      <feOffset
         id="feOffset4678-6-9-1-0-0"
         dx="-10.48377497279229"
         dy="0.39217365321829334"
         result="offset" />
      <feComposite
         id="feComposite4680-4-0-9-9-9"
         in2="offset"
         in="fbSourceGraphic"
         operator="over"
         result="composite2" />
    </filter>
    <filter
       inkscape:collect="always"
       style="color-interpolation-filters:sRGB"
       id="filter1624"
       x="-0.066465521"
       width="1.132931"
       y="-0.12921093"
       height="1.2584219">
      <feGaussianBlur
         inkscape:collect="always"
         stdDeviation="4.7367523"
         id="feGaussianBlur1626" />
    </filter>
    <filter
       inkscape:collect="always"
       style="color-interpolation-filters:sRGB"
       id="filter1624-1"
       x="-0.066465519"
       width="1.132931"
       y="-0.12921093"
       height="1.2584219">
      <feGaussianBlur
         inkscape:collect="always"
         stdDeviation="4.7367523"
         id="feGaussianBlur1626-9" />
    </filter>
    <filter
       inkscape:collect="always"
       style="color-interpolation-filters:sRGB"
       id="filter1624-1-7"
       x="-0.066465519"
       width="1.132931"
       y="-0.12921093"
       height="1.2584219">
      <feGaussianBlur
         inkscape:collect="always"
         stdDeviation="4.7367523"
         id="feGaussianBlur1626-9-8" />
    </filter>
  </defs>
  <sodipodi:namedview
     pagecolor="#ffffff"
     bordercolor="#666666"
     borderopacity="1"
     objecttolerance="10"
     gridtolerance="10"
     guidetolerance="10"
     inkscape:pageopacity="0"
     inkscape:pageshadow="2"
     inkscape:window-width="1920"
     inkscape:window-height="967"
     id="namedview4"
     showgrid="false"
     inkscape:zoom="0.52900002"
     inkscape:cx="1245.9262"
     inkscape:cy="533.14163"
     inkscape:window-x="0"
     inkscape:window-y="72"
     inkscape:window-maximized="1"
     inkscape:current-layer="layer3"
     inkscape:document-rotation="0"
     inkscape:snap-global="false"
     borderlayer="true" />
  <g
     inkscape:groupmode="layer"
     id="layer2"
     inkscape:label="artwork"
     sodipodi:insensitive="true">
    <image
       sodipodi:absref="/felles/omsetting/pepper-carrot/webcomics/new-ep34_The-Knighting-of-Shichimi/lang/gfx_Pepper-and-Carrot_by-David-Revoy_E34P05.png"
       xlink:href="../gfx_Pepper-and-Carrot_by-David-Revoy_E34P05.png"
       width="2481"
       height="3503"
       id="image10"
       x="0"
       y="0" />
  </g>
  <g
     inkscape:groupmode="layer"
     id="layer3"
     inkscape:label="speechbubbles"
     style="display:inline">
    <path
       style="display:inline;fill:#ffffff;fill-rule:evenodd;stroke:none;stroke-width:1.15361px;stroke-linecap:butt;stroke-linejoin:miter;stroke-opacity:1"
       d="m 2156.6331,845.63213 c -29.0535,0.0448 -58.0753,1.75634 -86.9778,4.48548 -15.3843,1.14992 -30.2243,5.54994 -44.8454,9.97588 -13.6746,4.38097 -27.3282,9.10059 -40.0395,15.63706 -16.4601,8.72157 -31.2062,21.55912 -38.6398,38.25039 -6.2435,13.37817 -9.9148,27.69181 -12.7773,42.01543 -4.2855,27.74964 2.8635,57.50333 21.781,79.40303 21.6004,25.5472 55.7523,40.6041 90.1661,41.2312 72.5964,6.3845 146.1182,8.8914 218.5202,-0.856 24.2558,-3.3434 48.6969,-10.4428 68.1553,-25.0299 21.3119,-16.2081 32.7365,-42.3221 32.5685,-67.93385 0.1043,-24.29132 -13.178,-47.42624 -26.5563,-66.48378 -18.8415,-26.83989 -33.6777,-39.24102 -61.948,-53.06586 -27.4522,-10.93671 -68.7412,-15.43481 -98.5869,-17.10039 -6.9289,-0.44542 -13.8763,-0.60167 -20.8201,-0.52869 z"
       id="path1076"
       inkscape:connector-curvature="0"
       sodipodi:nodetypes="cccccccccccsccc" />
    <path
       style="color:#000000;display:inline;overflow:visible;visibility:visible;fill:#ffffff;fill-opacity:1;fill-rule:nonzero;stroke:none;stroke-width:1.46145px;marker:none;enable-background:accumulate"
       d="m 1316.3185,251.16188 c -2.2644,42.53042 1.7168,56.36097 3.8754,98.8162 1.0959,17.62277 2.1462,35.49529 8.4551,52.53542 2.5991,4.99722 8.2701,8.54442 13.6861,11.64959 9.7607,5.07579 20.7457,8.43728 31.3772,12.19736 32.8633,10.47863 68.4318,13.87854 103.4715,16.63874 46.6179,2.89626 93.0269,-3.12669 139.351,-6.29247 26.6161,-2.15877 54.0438,-4.76965 78.0436,-14.70056 23.0078,-10.24245 38.7165,-28.012 49.4771,-46.53257 15.4708,-26.18746 21.9565,-56.34693 13.4757,-84.71146 -7.0314,-25.51119 -12.7065,-50.76494 -29.981,-68.9967 -18.1934,-19.20177 -44.9062,-31.1821 -71.0468,-35.64257 -67.0876,-11.44739 -138.6031,-21.20974 -209.3054,-8.49961 -49.3037,8.86332 -126.425,19.42902 -130.8795,73.53863 z"
       id="path4546-6-5-5"
       inkscape:connector-curvature="0"
       sodipodi:nodetypes="ccccccccccassc" />
    <path
       style="color:#000000;display:inline;overflow:visible;visibility:visible;fill:#ffffff;fill-opacity:1;fill-rule:nonzero;stroke:none;stroke-width:0.600991px;marker:none;enable-background:accumulate"
       d="m 670.35742,769.71094 c -12.2973,0.9647 -24.88043,3.61674 -35.31645,10.49777 -8.26937,6.01073 -15.67977,13.16759 -22.32417,20.92215 -6.62645,7.92618 -12.45435,16.68654 -16.1348,26.37998 -3.14551,10.49958 -1.35181,21.73717 1.78536,32.01289 2.82779,8.96948 7.68064,17.87175 15.78303,23.07197 6.94429,4.14841 15.32919,4.36127 23.18225,3.9754 9.46419,-0.29273 19.23433,0.27025 28.00976,4.15103 9.04638,3.43181 18.21763,7.73729 28.11679,7.43852 13.77277,-0.35998 26.75813,-6.06737 38.3739,-13.09874 14.74173,-9.08988 26.7992,-23.24144 31.53588,-40.07628 2.84106,-10.03042 2.47383,-20.87049 -0.8408,-30.74109 -3.01302,-9.29937 -7.98249,-18.10356 -15.00292,-24.96219 -5.74301,-5.42623 -13.1915,-8.71524 -20.86833,-10.30244 -10.75987,-2.41067 -21.91535,-2.58388 -32.57378,-5.52158 -7.80876,-1.66324 -15.63484,-4.45051 -23.72572,-3.74739 z"
       id="path4040-41"
       inkscape:connector-curvature="0"
       sodipodi:nodetypes="zssssz" />
    <path
       style="color:#000000;display:inline;overflow:visible;visibility:visible;fill:#ffffff;fill-opacity:1;fill-rule:nonzero;stroke:none;stroke-width:0.88869px;marker:none;enable-background:accumulate"
       d="m 563.75153,295.2722 c -16.10124,0.45006 -32.36783,1.02566 -48.12751,8.56949 -4.63437,2.12966 -9.1604,6.00002 -12.77466,12.46111 -3.44446,5.88975 -6.23888,14.10655 -6.6386,23.50231 -0.44364,8.51255 0.25258,17.04741 0.92714,25.42667 0.90975,9.12508 2.92783,18.29489 6.67581,23.91591 4.64099,7.38408 10.32754,10.99679 15.75958,15.1065 11.08113,7.63817 22.8768,9.14099 34.48174,9.12279 18.14602,0.20776 36.32078,-1.7668 54.30075,-6.91729 8.22542,-2.99664 15.96451,-12.7962 20.50281,-27.36325 2.75123,-9.24765 3.7905,-20.85695 2.24817,-31.34516 -2.70254,-21.52028 -11.68343,-38.52336 -22.02879,-44.06095 -6.79838,-3.82434 -13.85685,-4.89654 -20.83349,-6.5216 -8.14189,-1.50394 -16.32103,-1.95994 -24.49295,-1.89653 z"
       id="path4040-4-5-3-6"
       inkscape:connector-curvature="0"
       sodipodi:nodetypes="zssssz" />
    <path
       style="fill:#ffffff;fill-rule:evenodd;stroke:none;stroke-width:1.1023px;stroke-linecap:butt;stroke-linejoin:miter;stroke-opacity:1"
       d="m 571.2458,115.87537 c -30.73971,0.06 -61.38579,2.8147 -92.1105,3.42681 -28.93448,0.84502 -58.0161,1.35134 -86.64493,5.90823 -20.86993,3.13687 -41.2453,10.8338 -57.9866,23.47331 -8.30065,6.22774 -15.15453,14.01096 -22.01677,21.65588 -6.80456,7.95388 -13.23704,16.45959 -17.18138,26.13538 -6.09939,15.90957 -6.13602,33.60907 -1.99227,49.97304 3.69408,13.49569 12.2365,25.61939 23.79391,33.91414 13.10097,9.66713 28.82864,15.32538 44.66048,19.16744 24.0073,5.43648 48.79588,5.41581 73.2851,6.60693 75.75045,2.79181 151.56935,0.29158 227.26704,-2.76757 34.70383,-2.1954 69.73309,-4.74322 103.32377,-14.0351 15.73773,-6.93639 28.15732,-19.50206 37.40998,-33.44455 8.08925,-14.08632 9.43135,-30.81679 7.75429,-46.59384 -1.79046,-20.68371 -11.9108,-40.82827 -28.56517,-54.019 -21.70867,-18.88432 -49.98795,-29.66935 -78.71846,-33.0504 -20.65264,-2.8886 -41.44569,-5.09385 -62.313,-5.66153 -20.33782,-0.0157 -40.67015,-0.50445 -61.00595,-0.68357 -2.98648,-0.0229 -5.97303,-0.007 -8.95954,-0.006 z"
       id="path1299"
       inkscape:connector-curvature="0" />
    <path
       style="color:#000000;display:inline;overflow:visible;visibility:visible;fill:#ffffff;fill-opacity:1;fill-rule:nonzero;stroke:none;stroke-width:1px;marker:none;enable-background:accumulate"
       d="m 603.64274,397.13421 c -14.17455,40.88456 44.77094,72.82978 100.67006,54.05497 -23.16137,8.79652 -79.7912,49.66875 -144.52484,-46.85819 -30.03766,-44.79037 28.99451,-4.6799 28.99451,-4.6799 z"
       id="path4035-4"
       inkscape:connector-curvature="0"
       sodipodi:nodetypes="ccscc" />
    <path
       style="color:#000000;display:inline;overflow:visible;visibility:visible;fill:#ffffff;fill-opacity:1;fill-rule:nonzero;stroke:none;stroke-width:0.65663px;marker:none;enable-background:accumulate"
       d="m 611.41244,701.29174 c 17.11413,0.19349 18.72502,1.92575 19.18724,12.28702 0.46185,10.36191 -1.67076,26.02679 10.09463,35.89667 11.76506,9.87056 19.1963,13.36617 25.49665,11.79439 -5.19491,13.1306 -2.83584,31.62853 -10.75775,36.51466 -7.9219,4.88611 26.05967,-2.07377 26.05967,-2.07377 0,0 9.21399,-27.86213 6.82755,-44.34007 -2.3864,-16.4779 -28.23087,-11.38908 -37.42309,-16.46871 -9.19219,-5.07958 -7.20814,-26.722 -13.49221,-32.72081 -6.28377,-5.99953 -17.59228,-2.98484 -25.99269,-0.88938 z"
       id="path4538-7"
       inkscape:connector-curvature="0"
       sodipodi:nodetypes="ccscccsscc" />
    <path
       style="color:#000000;display:inline;overflow:visible;visibility:visible;fill:#ffffff;fill-opacity:1;fill-rule:nonzero;stroke:none;stroke-width:1.01366px;marker:none;enable-background:accumulate"
       d="m 1598.5835,596.86203 c 14.1467,-11.40413 29.0076,-23.09483 38.4486,-39.96949 2.5984,-4.85383 4.9981,-10.05752 6.0756,-15.49957 0.016,-5.8546 -3.8969,-10.34151 -8.4908,-12.17778 -6.4361,-3.18874 -14.5628,-3.42982 -19.4026,-9.63069 -3.4195,-4.61758 -1.8272,-11.14779 -0.9156,-16.72114 2.5699,-14.17326 6.8395,-28.1699 7.4104,-42.5769 1.5793,-16.24635 2.1988,-33.38893 -3.7408,-48.10801 -2.4394,-5.7727 -5.7341,-11.37091 -10.8601,-14.41865 -12.7918,-8.51566 -30.6307,-8.53627 -43.8564,1.70558 -7.9407,7.39354 -10.3193,22.05002 -3.5557,30.23691 3.5085,4.38614 9.2515,5.18736 14.4155,4.19228 9.6748,0.1491 18.2991,6.65319 22.6959,15.89335 3.7428,7.54995 5.2552,16.51182 4.6927,25.40135 2.0644,12.09608 -3.5504,23.92983 -6.6517,35.52848 -1.3509,5.3164 -2.467,11.0518 -1.4466,16.34944 3.0779,7.03972 10.5313,8.927 17.0498,9.68941 6.6944,0.98385 14.6099,1.26357 18.9566,7.63463 3.5752,3.9219 -0.1424,9.62907 -1.3852,14.17636 -5.6681,14.18394 -15.0865,26.49538 -26.0468,36.02362 -1.0987,0.82439 -2.2436,1.54861 -3.3927,2.27078 z"
       id="path4496-9"
       inkscape:connector-curvature="0"
       inkscape:transform-center-x="21.004464"
       inkscape:transform-center-y="-25.902749" />
    <path
       style="color:#000000;display:inline;overflow:visible;visibility:visible;fill:#ffffff;fill-opacity:1;fill-rule:nonzero;stroke:none;stroke-width:1.03729px;marker:none;enable-background:accumulate"
       d="m 2109.2559,751.99134 c -20.4103,6.10083 -40.0468,16.85113 -53.8,33.41265 -10.7709,14.46078 -16.5835,31.98514 -19.9326,49.53175 -1.4068,8.93082 -2.2092,18.35818 0.5,27.10829 3.2554,6.18918 11.8987,8.09797 17.7559,4.53442 7.5966,-3.5917 11.8306,-12.98928 9.3278,-21.03888 -1.6093,-16.53808 1.3652,-33.26989 6.7533,-48.89003 5.7833,-15.14652 16.5635,-28.06938 29.7192,-37.41611 3.7487,-2.79439 7.6932,-5.31046 11.6413,-7.81045 -0.655,0.18946 -1.3099,0.37891 -1.9649,0.56836 z"
       id="path5010-4"
       inkscape:connector-curvature="0"
       sodipodi:nodetypes="ccsc" />
    <path
       style="fill:#ffffff;stroke:none;stroke-width:1.00962"
       d="m 1694.6966,1472.3525 c -45.2399,1.9207 -89.88,23.5759 -116.9189,59.5519 -10.3545,14.1662 -14.9862,31.5853 -16.061,48.8011 -2.6607,26.1893 -2.2577,52.5488 -2.6945,78.8283 0.848,18.42 7.3076,37.3301 21.215,50.2307 17.3346,17.5119 41.5517,26.7038 65.7103,30.6406 38.0695,7.059 77.0071,5.6894 115.5163,4.3047 30.2772,-1.6408 61.4003,-8.243 86.5428,-25.6654 20.7623,-14.2178 35.9747,-36.832 38.7768,-61.7555 3.0873,-23.3392 -0.8243,-46.7948 -3.8998,-69.9242 -3.7,-23.9268 -10.133,-48.3988 -25.3614,-67.9404 -18.9343,-24.1142 -48.5635,-38.5823 -78.9201,-42.8707 -27.7199,-4.3314 -55.9144,-4.3212 -83.9055,-4.2011 z"
       id="path3280-10"
       inkscape:connector-curvature="0"
       sodipodi:nodetypes="csssc" />
    <path
       style="color:#000000;display:inline;overflow:visible;visibility:visible;fill:#ffffff;fill-opacity:1;fill-rule:nonzero;stroke:none;stroke-width:0.730994px;marker:none;enable-background:accumulate"
       d="m 1702.9596,1182.3633 c -36.3989,0.4972 -73.2489,8.2194 -101.0605,23.7485 -26.056,15.2472 -32.9782,42.7399 -14.4853,62.2553 11.3705,12.546 31.6739,20.6735 52.9181,24.5048 34.0386,8.2236 70.6241,10.6274 106.6965,11.348 33.666,0.47 68.1821,-1.001 99.8255,-9.0519 21.1935,-5.6802 40.1962,-16.1754 48.593,-30.2834 9.5386,-15.1026 7.1965,-33.4624 -7.9489,-46.703 -14.5379,-13.4338 -37.4878,-21.9676 -61.2028,-26.8896 -36.6543,-7.8332 -75.6545,-8.7336 -113.9182,-8.9512 -3.1394,-7e-4 -6.2785,-0.013 -9.4174,0.023 z"
       id="path4546-6-89"
       inkscape:connector-curvature="0"
       sodipodi:nodetypes="cssssc" />
    <path
       style="fill:#ffffff;fill-rule:evenodd;stroke:none;stroke-width:0.479277px;stroke-linecap:butt;stroke-linejoin:miter;stroke-opacity:1"
       d="m 919.13501,1534.7305 c 27.51836,-11.7764 54.23289,-20.9661 71.61477,-23.4902 -3.55561,10.1642 -5.56972,16.3128 -14.89804,25.0191 24.30436,1.9047 70.63976,-18.9809 95.44776,-31.1705 -33.9587,5.7956 -60.1404,12.1497 -70.7824,13.5607 4.9766,-8.3585 6.9688,-14.5328 9.8623,-23.8449 -15.12814,3.6171 -70.65362,12.0504 -83.85273,9.4593 -13.19922,-2.5913 -7.39166,30.4665 -7.39166,30.4665 z"
       id="path1305"
       inkscape:connector-curvature="0"
       sodipodi:nodetypes="ccccccsc" />
    <path
       style="fill:#ffffff;fill-opacity:1;fill-rule:evenodd;stroke:none;stroke-width:1.07431px;stroke-linecap:butt;stroke-linejoin:miter;stroke-opacity:1"
       d="m 465.93416,1569.9179 c 30.11095,-10.521 25.36702,29.0854 7.38976,87.6907 20.68664,-42.7253 61.13664,-54.5706 25.75686,26.6768 55.62099,-60.6901 95.29201,-85.7432 86.56956,-2.6705 73.75917,-79.5477 77.85891,-42.486 72.65818,10.1446 29.29113,-75.6211 56.92155,-83.9057 82.5387,-10.5586 -7.22952,-78.0763 32.2837,-75.972 116.5002,2.8146 -37.62555,-82.423 8.98941,-53.0558 56.0645,-23.0779 -39.57401,-70.5513 14.88972,-31.4196 36.25075,-30.8979 -79.64755,-108.9326 -11.71007,-67.7368 31.1743,-52.0259 -41.16135,-30.7464 -61.16233,-59.0586 10.30602,-68.7458 -63.36423,-12.0507 -36.7422,-38.0924 25.28451,-68.2115 -33.84839,5.098 -98.69787,-15.3443 12.7385,-45.3995 -43.34977,5.4023 -85.87228,-12.8563 -36.45966,-34.29 -16.27959,4.7236 -105.88088,-3.5691 -32.88579,-30.5201 -45.15452,5.5599 -61.4952,3.015 39.76114,-32.6078 -157.18348,30.9765 -43.02387,-16.6513 -15.49883,-39.1823 -64.92771,18.1964 -174.65308,76.6905 -81.78345,-47.06 -129.43619,123.4237 -114.23714,49.4763 -106.98891,-13.6214 -44.60655,98.984 -60.1612,85.536 -63.98929,26.7059 -20.83102,37.9213 -23.55463,10.5965 -25.8354,-18.3239 -20.78313,54.5096 -40.97254,83.9303 -58.38851,-3.8445 -9.57752,101.4459 -43.39732,81.7174 -82.55236,35.321 7.06164,35.8651 -15.05574,19.1419 -47.05158,-15.3849 26.38616,91.5621 -24.65947,69.919 -42.42305,45.1678 14.07925,35.08 20.26219,57.2941 -2.55251,32.2608 13.84861,48.4683 15.32283,78.266 -8.47142,69.9386 27.9712,39.3443 18.96563,35.3206 8.30335,29.3537 10.49993,18.8013 8.05,39.4912 -10.96201,50.1391 9.92201,17.2849 29.07403,31.8693 4.05155,59.3783 21.65079,-3.5137 23.58242,2.6462 1.17394,20.7466 30.78246,-21.1225 17.64181,6.6004 -0.67905,40.084 z"
       id="path1798"
       sodipodi:nodetypes="cccccccccccccccccccccccccccccccc" />
    <path
       style="fill:#ffffff;fill-rule:evenodd;stroke:none;stroke-width:0.960637px;stroke-linecap:butt;stroke-linejoin:miter;stroke-opacity:1"
       d="m 1778.0933,1289.0282 c 0,0 -3.9407,28.9212 8.0996,38.6226 12.0408,9.7023 15.4867,13.5023 36.0798,21.9048 -30.1647,-5.7228 -44.5902,-13.4046 -52.5226,-23.226 -7.9325,-9.8214 -20.0355,-30.3233 -22.8091,-36.2438 -2.7736,-5.9205 31.1523,-1.0576 31.1523,-1.0576 z"
       id="path1359"
       inkscape:connector-curvature="0" />
    <path
       style="fill:#ffffff;fill-rule:evenodd;stroke:none;stroke-width:1.51642px;stroke-linecap:butt;stroke-linejoin:miter;stroke-opacity:1"
       d="m 1879.5739,1605.0433 c 0,0 29.1528,33.6868 52.9454,28.1474 23.7942,-5.5388 31.7815,-6.1077 63.0487,-23.7148 -38.2213,32.3304 -62.191,42.8809 -81.8135,43.1241 -19.6227,0.2433 -55.9116,-4.864 -65.6341,-7.2483 -9.7228,-2.3842 31.4535,-40.3084 31.4535,-40.3084 z"
       id="path1359-6"
       inkscape:connector-curvature="0" />
    <path
       style="fill:#ffffff;fill-rule:evenodd;stroke:none;stroke-width:1.0196px;stroke-linecap:butt;stroke-linejoin:miter;stroke-opacity:1;filter:url(#filter1624-1-7)"
       d="m 304.54727,1936.8855 c 5.39109,-32.111 32.34599,-42.814 51.75368,-46.025 19.40768,-3.211 83.0216,-3.211 100.27283,9.633 17.25112,12.844 22.6421,36.392 16.17294,43.884 -6.46926,7.493 -15.09476,29.97 -38.81515,31.04 -23.7206,1.071 -74.39599,5.352 -94.88185,-6.422 -20.48586,-11.774 -36.6588,-14.985 -34.50245,-32.11 z"
       id="path1285-4-4"
       inkscape:connector-curvature="0"
       transform="matrix(1.2257744,0,0,1.1165105,88.802093,-133.90232)" />
    <path
       style="fill:#ffffff;fill-rule:evenodd;stroke:none;stroke-width:0.971209px;stroke-linecap:butt;stroke-linejoin:miter;stroke-opacity:1;filter:url(#filter1624-1)"
       d="m 304.54727,1936.8855 c 5.39109,-32.111 32.34599,-42.814 51.75368,-46.025 19.40768,-3.211 82.88488,-2.9443 100.27283,9.633 16.70629,12.0843 19.7373,30.4108 17.71162,44.099 -6.46926,18.4254 -16.63344,29.755 -40.35383,30.825 -23.7206,1.071 -82.97408,9.0212 -103.45994,-2.7528 -20.48586,-11.774 -28.08071,-18.6542 -25.92436,-35.7792 z"
       id="path1285-4"
       inkscape:connector-curvature="0"
       transform="matrix(1.274825,0,0,1.0655249,-74.819358,-127.70407)"
       sodipodi:nodetypes="cssccsc" />
    <path
       style="fill:#ffffff;fill-rule:evenodd;stroke:none;stroke-width:1.00662px;stroke-linecap:butt;stroke-linejoin:miter;stroke-opacity:1;filter:url(#filter1624)"
       d="m 115.7959,1883.6103 c 5.39109,-32.111 32.34599,-42.814 51.75368,-46.025 19.40768,-3.211 83.0216,-3.211 100.27283,9.633 17.25112,12.844 22.6421,36.392 16.17294,43.884 -6.46926,7.493 -15.09476,29.97 -38.81515,31.04 -23.7206,1.071 -74.39599,5.352 -94.88185,-6.422 -20.48586,-11.774 -36.6588,-14.985 -34.50245,-32.11 z"
       id="path1285"
       inkscape:connector-curvature="0"
       transform="matrix(1.1812538,0,0,0.98960959,-20.447752,19.531819)" />
    <path
       style="color:#000000;display:inline;overflow:visible;visibility:visible;fill:#ffffff;fill-opacity:1;fill-rule:nonzero;stroke:none;stroke-width:0.921112px;marker:none;enable-background:accumulate"
       d="m 1241.0664,2352.3233 c -36.2286,-32.2998 -77.602,-59.113 -107.8532,-97.7871 l 6.9677,43.9112 c -17.7743,-7.7018 -29.1706,-25.5756 -42.7328,-39.995 l -0.057,27.888 c -41.735,-18.7232 -69.4761,-51.7603 -103.98103,-77.8792 l 3.66035,48.6148 c 37.88508,22.0665 78.75808,37.3542 113.28208,67.0437 l 2.7503,-27.2332 c 13.303,8.4793 26.3021,17.5344 37.9439,29.1641 l 0.5073,-34.5085 z"
       id="path4032-8"
       inkscape:connector-curvature="0"
       sodipodi:nodetypes="cccccccccccc" />
    <path
       style="opacity:1;fill:#ffffff;fill-rule:evenodd;stroke:none;stroke-width:1.0434px;stroke-linecap:butt;stroke-linejoin:miter;stroke-opacity:1"
       d="m 654.35692,2153.9416 c 58.75546,-3.71 58.93977,-22.4352 17.98812,-51.7058 29.67774,0.1363 19.587,-18.1251 -1.42914,-41.4407 78.40021,28.7105 92.10169,-20.5013 69.95898,-77.5544 63.12499,67.1697 63.87012,28.4005 86.86865,-53.0521 13.12316,29.9734 30.48835,122.8095 104.08337,42.4068 -12.68932,66.9216 27.08594,20.6134 58.87117,-2.719 5.70058,9.6409 -51.54682,65.2732 31.79223,-3.6887 -60.14507,91.4191 32.7607,16.1788 61.5631,-9.148 -29.9323,43.2369 -95.65406,108.039 -7.5152,83.1286 -64.0952,50.0208 -7.4255,31.1958 21.1188,28.9061 -36.2016,20.7975 -37.6304,41.3996 -0.7248,33.0705 -53.8054,38.9217 -11.9257,42.1844 13.9993,43.3438 -20.163,2.9798 -69.8172,20.0724 -5.759,23.576 -44.27,12.4278 -31.2704,45.5628 -24.9359,59.1169 -48.9698,-4.7181 -14.2117,40.6656 4.0329,69.9104 -33.814,-12.5236 -86.53643,-44.8665 -49.2651,12.2481 -82.91478,-34.1395 -50.22703,0.6718 -31.7479,42.03 -60.85869,-34.6571 -70.19272,-51.5284 -88.8576,-22.8562 -20.58022,-24.1043 -24.23786,-2.9812 -30.56964,22.5971 -12.68254,-51.6999 -34.24748,-20.2628 -57.16184,11.0334 -11.87335,-53.8683 -35.26901,-31.2483 -57.18718,-16.6774 0.0876,-61.8923 -29.47285,-46.8638 -89.21765,-0.897 46.91643,-43.2544 72.60415,-86.0991 -5.21276,-60.8009 24.99531,-12.5883 48.31613,-50.4679 15.0138,-36.7051 14.86771,-9.5615 28.85321,-31.2999 -15.28328,-25.1166 41.09288,-13.261 36.16457,-23.9727 -8.47396,-32.4844 76.85045,-11.8787 42.48856,-24.677 -11.94947,-36.5214 z"
       id="path523"
       sodipodi:nodetypes="cccccccccccccccccccccccccccc" />
  </g>
  <g
     inkscape:groupmode="layer"
     id="layer1"
     inkscape:label="txt">
    <text
       xml:space="preserve"
       style="font-style:normal;font-variant:normal;font-weight:normal;font-stretch:normal;font-size:45px;line-height:1.25;font-family:Lavi;-inkscape-font-specification:Lavi;text-align:center;letter-spacing:0px;word-spacing:0px;text-anchor:middle;fill:#000000;fill-opacity:1;stroke:none"
       x="553.96851"
       y="197.91747"
       id="text4246-3-2-2-6-3-7-9-3"><tspan
         style="font-size:45px"
         sodipodi:role="line"
         x="553.96851"
         y="197.91747"
         id="tspan919">Pepar, eg er lei for</tspan><tspan
         style="font-size:45px"
         sodipodi:role="line"
         x="553.96851"
         y="254.16747"
         id="tspan917">det, men du må dra.</tspan></text>
    <text
       xml:space="preserve"
       style="font-style:normal;font-variant:normal;font-weight:normal;font-stretch:normal;font-size:45px;line-height:1.25;font-family:Lavi;-inkscape-font-specification:Lavi;text-align:center;letter-spacing:0px;word-spacing:0px;text-anchor:middle;fill:#000000;fill-opacity:1;stroke:none"
       x="564.95776"
       y="370.66003"
       id="text4246-3-2-2-6-3-7-9-3-3"><tspan
         style="font-size:45px"
         sodipodi:role="line"
         x="564.95776"
         y="370.66003"
         id="tspan27-7">No.</tspan></text>
    <text
       xml:space="preserve"
       style="font-style:normal;font-variant:normal;font-weight:normal;font-stretch:normal;font-size:45px;line-height:1.25;font-family:Lavi;-inkscape-font-specification:Lavi;text-align:center;letter-spacing:0px;word-spacing:0px;text-anchor:middle;fill:#000000;fill-opacity:1;stroke:none"
       x="678.8775"
       y="849.08099"
       id="text4246-3-2-2-6-3-7-9-3-3-5"><tspan
         style="font-size:45px"
         sodipodi:role="line"
         x="678.8775"
         y="849.08099"
         id="tspan27-7-3">Hæ?</tspan></text>
    <text
       xml:space="preserve"
       style="font-style:normal;font-variant:normal;font-weight:normal;font-stretch:normal;font-size:45px;line-height:1.25;font-family:Lavi;-inkscape-font-specification:Lavi;text-align:center;letter-spacing:0px;word-spacing:0px;text-anchor:middle;fill:#000000;fill-opacity:1;stroke:none"
       x="1532.2219"
       y="264.72116"
       id="text4246-3-2-2-6-3-7-9-3-3-56"><tspan
         style="font-size:45px"
         sodipodi:role="line"
         x="1532.2219"
         y="264.72116"
         id="tspan942">Hei, vent no litt!</tspan><tspan
         style="font-size:45px"
         sodipodi:role="line"
         x="1532.2219"
         y="320.97116"
         id="tspan929">Det her må vera</tspan><tspan
         style="font-size:45px"
         sodipodi:role="line"
         x="1532.2219"
         y="377.22116"
         id="tspan931">ei misforståing.</tspan></text>
    <text
       xml:space="preserve"
       style="font-style:normal;font-variant:normal;font-weight:normal;font-stretch:normal;font-size:45px;line-height:1.25;font-family:Lavi;-inkscape-font-specification:Lavi;text-align:center;letter-spacing:0px;word-spacing:0px;text-anchor:middle;fill:#000000;fill-opacity:1;stroke:none"
       x="2148.2498"
       y="921.39081"
       id="text4246-3-2-2-6-3-7-9-3-3-56-9"><tspan
         style="font-size:45px"
         sodipodi:role="line"
         x="2148.2498"
         y="921.39081"
         id="tspan946">Ver så snill,</tspan><tspan
         style="font-size:45px"
         sodipodi:role="line"
         x="2148.2498"
         y="977.64081"
         id="tspan938">Pepar, ikkje gjer</tspan><tspan
         style="font-size:45px"
         sodipodi:role="line"
         x="2148.2498"
         y="1033.8909"
         id="tspan940">det vanskeleg.</tspan></text>
    <text
       xml:space="preserve"
       style="font-style:normal;font-variant:normal;font-weight:normal;font-stretch:normal;font-size:45px;line-height:1.25;font-family:Lavi;-inkscape-font-specification:Lavi;text-align:center;letter-spacing:0px;word-spacing:0px;text-anchor:middle;fill:#000000;fill-opacity:1;stroke:none"
       x="705.56104"
       y="1351.6949"
       id="text4246-3-2-2-6-3-7-9-3-3-56-9-3"><tspan
         style="font-size:45px"
         sodipodi:role="line"
         x="705.56104"
         y="1351.6949"
         id="tspan980">Hei, du der,</tspan><tspan
         style="font-size:45px"
         sodipodi:role="line"
         x="705.56104"
         y="1407.9449"
         id="tspan963">på trona! Om du</tspan><tspan
         style="font-size:45px"
         sodipodi:role="line"
         x="705.56104"
         y="1464.1949"
         id="tspan932">mislikar meg slik,</tspan><tspan
         style="font-size:45px"
         sodipodi:role="line"
         x="705.56104"
         y="1520.4449"
         id="tspan965">kan du koma ned her</tspan><tspan
         style="font-size:45px"
         sodipodi:role="line"
         x="705.56104"
         y="1576.6949"
         id="tspan973">og seia det sjølv!</tspan></text>
    <text
       xml:space="preserve"
       style="font-style:normal;font-variant:normal;font-weight:normal;font-stretch:normal;font-size:52.7307px;line-height:1.25;font-family:Lavi;-inkscape-font-specification:Lavi;text-align:center;letter-spacing:0px;word-spacing:0px;text-anchor:middle;fill:#000000;fill-opacity:1;stroke:none;stroke-width:1.17179"
       x="1741.5234"
       y="1258.5393"
       id="text4246-3-2-2-6-3-7-9-3-3-56-9-3-2"><tspan
         style="font-size:52.7307px;stroke-width:1.17179"
         sodipodi:role="line"
         x="1741.5234"
         y="1258.5393"
         id="tspan222-9">Tsk-tsk ...</tspan></text>
    <text
       xml:space="preserve"
       style="font-style:normal;font-variant:normal;font-weight:normal;font-stretch:normal;font-size:45px;line-height:1.25;font-family:Lavi;-inkscape-font-specification:Lavi;text-align:center;letter-spacing:0px;word-spacing:0px;text-anchor:middle;fill:#000000;fill-opacity:1;stroke:none"
       x="1726.4104"
       y="1569.9558"
       id="text4246-3-2-2-6-3-7-9-3-3-56-9-3-20"><tspan
         style="font-size:45px"
         sodipodi:role="line"
         x="1726.4104"
         y="1569.9558"
         id="tspan334">Du har ti</tspan><tspan
         style="font-size:45px"
         sodipodi:role="line"
         x="1726.4104"
         y="1626.2058"
         id="tspan983">sekund,</tspan><tspan
         style="font-size:45px"
         sodipodi:role="line"
         x="1726.4104"
         y="1682.4558"
         id="tspan981">Shichimi ...</tspan></text>
    <text
       xml:space="preserve"
       style="font-style:normal;font-variant:normal;font-weight:normal;font-stretch:normal;font-size:45px;line-height:1.25;font-family:Lavi;-inkscape-font-specification:Lavi;text-align:center;letter-spacing:0px;word-spacing:0px;text-anchor:middle;fill:#000000;fill-opacity:1;stroke:none"
       x="220.54541"
       y="1896.6124"
       id="text4246-3-2-2-6-3-7-9-3-3-56-9-3-20-2"><tspan
         style="font-size:45px"
         sodipodi:role="line"
         x="220.54541"
         y="1896.6124"
         id="tspan334-7">Ni ...</tspan></text>
    <text
       xml:space="preserve"
       style="font-style:normal;font-variant:normal;font-weight:normal;font-stretch:normal;font-size:45px;line-height:1.25;font-family:Lavi;-inkscape-font-specification:Lavi;text-align:center;letter-spacing:0px;word-spacing:0px;text-anchor:middle;fill:#000000;fill-opacity:1;stroke:none"
       x="425.65646"
       y="1955.5272"
       id="text4246-3-2-2-6-3-7-9-3-3-56-9-3-20-2-3"><tspan
         style="font-size:45px"
         sodipodi:role="line"
         x="425.65646"
         y="1955.5272"
         id="tspan334-7-6">Åtte ...</tspan></text>
    <text
       xml:space="preserve"
       style="font-style:normal;font-variant:normal;font-weight:normal;font-stretch:normal;font-size:45px;line-height:1.25;font-family:Lavi;-inkscape-font-specification:Lavi;text-align:center;letter-spacing:0px;word-spacing:0px;text-anchor:middle;fill:#000000;fill-opacity:1;stroke:none"
       x="569.64355"
       y="2036.6486"
       id="text4246-3-2-2-6-3-7-9-3-3-56-9-3-20-2-3-1"><tspan
         style="font-size:45px"
         sodipodi:role="line"
         x="569.64355"
         y="2036.6486"
         id="tspan334-7-6-2">Sju ...</tspan></text>
    <text
       xml:space="preserve"
       style="font-style:normal;font-variant:normal;font-weight:normal;font-stretch:normal;font-size:55.953px;line-height:1.25;font-family:Lavi;-inkscape-font-specification:Lavi;text-align:center;letter-spacing:0px;word-spacing:0px;text-anchor:middle;fill:#000000;fill-opacity:1;stroke:none;stroke-width:0.902468"
       x="545.34344"
       y="2271.6108"
       id="text4246-3-2-2-6-3-7-9-3-3-56-9-3-20-2-3-1-9"
       transform="matrix(0.97071722,-0.24022497,0.15802867,0.99105851,0,0)"><tspan
         style="font-style:normal;font-variant:normal;font-weight:bold;font-stretch:normal;font-size:55.953px;font-family:Lavi;-inkscape-font-specification:'Lavi Bold';stroke-width:0.902468"
         sodipodi:role="line"
         x="545.34344"
         y="2271.6108"
         id="tspan451">DET HELD, </tspan><tspan
         style="font-style:normal;font-variant:normal;font-weight:bold;font-stretch:normal;font-size:55.953px;font-family:Lavi;-inkscape-font-specification:'Lavi Bold';stroke-width:0.902468"
         sodipodi:role="line"
         x="545.34344"
         y="2341.552"
         id="tspan457">PEPAR!</tspan><tspan
         style="font-style:normal;font-variant:normal;font-weight:bold;font-stretch:normal;font-size:55.953px;font-family:Lavi;-inkscape-font-specification:'Lavi Bold';stroke-width:0.902468"
         sodipodi:role="line"
         x="545.34344"
         y="2411.4934"
         id="tspan918">DRA!!!</tspan></text>
    <text
       xml:space="preserve"
       style="font-style:normal;font-variant:normal;font-weight:normal;font-stretch:normal;font-size:180px;line-height:1.25;font-family:Lavi;-inkscape-font-specification:Lavi;letter-spacing:0px;word-spacing:0px;fill:#ffffff;fill-opacity:1;stroke:#ffffff;stroke-width:0.74524;stroke-miterlimit:4;stroke-dasharray:none;stroke-opacity:1;filter:url(#filter4375-4-1-1-1-9-5-8-8-5-5-3-3)"
       id="text4580-6-0-0-0-9-3-3"
       transform="matrix(0.88341196,-0.53750677,0,1.1213027,-74.551071,722.92786)"
       x="418.61386"
       y="279.76691"><textPath
         xlink:href="#path974"
         id="textPath2837"
         style="font-size:180px;stroke-width:0.74524"><tspan
           style="font-size:180px;fill:#ffffff;fill-opacity:1;stroke:#ffffff;stroke-width:0.74524;stroke-miterlimit:4;stroke-dasharray:none;stroke-opacity:1"
           id="tspan876-6-6"
           rotate="325 325 325 325 325 325 325 325 325 0">SJRRIiii!</tspan></textPath></text>
    <path
       style="fill:none;fill-rule:evenodd;stroke:none;stroke-width:1.13654px;stroke-linecap:butt;stroke-linejoin:miter;stroke-opacity:1"
       d="m 2062.1793,2191.5476 c 235.3161,220.1206 417.0174,422.7368 620.7004,632.5297"
       id="path974"
       sodipodi:nodetypes="cc" />
  </g>
</svg>
