<?xml version="1.0" encoding="UTF-8" standalone="no"?>
<!-- Created with Inkscape (http://www.inkscape.org/) -->

<svg
   id="svg2"
   version="1.1"
   inkscape:version="1.2.1 (9c6d41e410, 2022-07-14)"
   width="2481"
   height="3503"
   sodipodi:docname="E07P05.svg"
   viewBox="0 0 2481 3503"
   xmlns:inkscape="http://www.inkscape.org/namespaces/inkscape"
   xmlns:sodipodi="http://sodipodi.sourceforge.net/DTD/sodipodi-0.dtd"
   xmlns:xlink="http://www.w3.org/1999/xlink"
   xmlns="http://www.w3.org/2000/svg"
   xmlns:svg="http://www.w3.org/2000/svg"
   xmlns:rdf="http://www.w3.org/1999/02/22-rdf-syntax-ns#"
   xmlns:cc="http://creativecommons.org/ns#"
   xmlns:dc="http://purl.org/dc/elements/1.1/">
  <metadata
     id="metadata8">
    <rdf:RDF>
      <cc:Work
         rdf:about="">
        <dc:format>image/svg+xml</dc:format>
        <dc:type
           rdf:resource="http://purl.org/dc/dcmitype/StillImage" />
        <dc:title />
      </cc:Work>
    </rdf:RDF>
  </metadata>
  <defs
     id="defs6">
    <filter
       color-interpolation-filters="sRGB"
       id="filter4375-5-4-81-5-7"
       inkscape:label="deevad outline effect"
       x="-0.0039704407"
       y="-0.013992326"
       width="1.0079409"
       height="1.0279847">
      <feFlood
         id="feFlood4377-0-3-3-6-2"
         flood-opacity="1"
         flood-color="rgb(255,255,255)"
         result="flood" />
      <feComposite
         id="feComposite4379-6-6-36-2-8"
         in2="SourceGraphic"
         in="flood"
         operator="in"
         result="composite1" />
      <feMorphology
         id="feMorphology4393-0-9-1-4-4"
         operator="dilate"
         radius="4"
         result="result3" />
      <feComposite
         id="feComposite4385-7-5-4-1-1"
         in2="result3"
         in="SourceGraphic"
         operator="over"
         result="composite2" />
    </filter>
    <filter
       color-interpolation-filters="sRGB"
       id="filter4375-5-4-81-0"
       inkscape:label="deevad outline effect"
       x="-0.0039704407"
       y="-0.013992326"
       width="1.0079409"
       height="1.0279847">
      <feFlood
         id="feFlood4377-0-3-3-7"
         flood-opacity="1"
         flood-color="rgb(255,255,255)"
         result="flood" />
      <feComposite
         id="feComposite4379-6-6-36-8"
         in2="SourceGraphic"
         in="flood"
         operator="in"
         result="composite1" />
      <feMorphology
         id="feMorphology4393-0-9-1-3"
         operator="dilate"
         radius="4"
         result="result3" />
      <feComposite
         id="feComposite4385-7-5-4-2"
         in2="result3"
         in="SourceGraphic"
         operator="over"
         result="composite2" />
    </filter>
  </defs>
  <sodipodi:namedview
     pagecolor="#ffffff"
     bordercolor="#666666"
     borderopacity="1"
     objecttolerance="10"
     gridtolerance="10"
     guidetolerance="10"
     inkscape:pageopacity="0"
     inkscape:pageshadow="2"
     inkscape:window-width="1920"
     inkscape:window-height="1001"
     id="namedview4"
     showgrid="false"
     inkscape:zoom="0.74389472"
     inkscape:cx="2182.4325"
     inkscape:cy="3522.6759"
     inkscape:window-x="-9"
     inkscape:window-y="-9"
     inkscape:window-maximized="1"
     inkscape:current-layer="layer1"
     inkscape:showpageshadow="2"
     inkscape:pagecheckerboard="0"
     inkscape:deskcolor="#d1d1d1" />
  <g
     inkscape:groupmode="layer"
     id="layer2"
     inkscape:label="artwork"
     sodipodi:insensitive="true">
    <image
       xlink:href="../gfx_Pepper-and-Carrot_by-David-Revoy_E07P05.png"
       y="0"
       x="0"
       id="image10"
       height="3503"
       width="2481" />
  </g>
  <g
     inkscape:groupmode="layer"
     id="layer3"
     inkscape:label="speechbubbles">
    <path
       style="color:#000000;display:inline;overflow:visible;visibility:visible;fill:#ffffff;fill-opacity:1;fill-rule:nonzero;stroke:none;stroke-width:1px;marker:none;enable-background:accumulate"
       d="m 2004.7833,1484.5049 c -50.81,-16.9109 -102.6442,-33.6666 -9.701,-72.3629 -87.2009,8.705 -33.2478,-12.6528 -11.4013,-27.1724 -156.1533,26.4521 -54.2911,-19.2753 -15.1559,-47.455 -34.9792,10.8398 -91.2557,42.2328 -68.8068,-2.3497 -38.157,13.8188 -61.9741,24.199 -29.3067,-1.5531 -34.5118,19.5903 -38.2869,16.4609 -30.6162,3.2316 -14.1772,10.9792 -23.176,13.764 -22.6436,1.4679 -13.3521,9.0111 -17.2368,5.7387 -20.3867,1.5134 -23.0659,19.4595 -31.189,13.675 -39.862,8.8187 -13.0849,11.6991 -27.7697,8.6933 -43.7969,-6.6565 -17.7418,19.9882 -35.9381,18.3834 -54.3888,4.6767 -4.0185,15.8822 -15.1098,31.6451 -26.2999,-1.8321 -7.6246,2.5225 -13.1612,23.4274 -37.351,-12.0175 -3.5256,38.3574 -91.5041,23.4715 -127.9531,3.2507 9.9255,30.0243 -9.6706,43.2253 -71.6067,12.0274 -3.7633,11.9322 -22.9428,16.4212 -55.8785,14.2691 33.294,15.1631 34.7246,23.4421 -43.4647,14.5191 54.2444,12.9614 104.1986,25.8361 18.9758,35.9853 19.6785,5.1083 84.9949,-4.658 11.6614,50.2713 51.0363,-11.4206 97.0638,-13.7272 109.2979,36.8442 27.778,-12.6746 58.2301,-18.6166 80.8592,12.215 22.1865,-13.7851 52.3518,-9.7599 67.859,-2.4808 4.8526,-15.4894 37.9705,-38.7271 79.9838,5.4617 -8.6493,-24.809 0.073,-63.8707 48.4928,1.9399 1.4325,-11.2493 -17.2039,-72.9589 121.8495,3.4192 -15.8351,-49.6818 30.1726,-20.0315 66.7305,-2.5035 -17.2782,-31.2974 10.5657,-33.1292 70.5502,-13.9732 -45.6895,-30.3076 2.1209,-21.2303 32.3597,-19.5545 z"
       id="path3549-3-3-0"
       inkscape:connector-curvature="0"
       sodipodi:nodetypes="ccccccccccccccccccccccccccccc" />
    <path
       style="color:#000000;display:inline;overflow:visible;visibility:visible;fill:#ffffff;fill-opacity:1;fill-rule:nonzero;stroke:none;stroke-width:1px;marker:none;enable-background:accumulate"
       d="m 1553.1822,1675.5799 c 1.1047,-78.9063 25.3304,-147.2662 297.2186,-134.4643 271.8879,12.8022 270.6126,40.4201 264.5144,136.8561 -5.0903,80.4975 -121.2488,99.4714 -284.1153,98.5581 -166.7042,-0.9349 -273.777,-17.0996 -277.6177,-100.9499 z"
       id="path5026"
       inkscape:connector-curvature="0"
       sodipodi:nodetypes="csssc" />
    <path
       style="color:#000000;display:inline;overflow:visible;visibility:visible;fill:#ffffff;fill-opacity:1;fill-rule:nonzero;stroke:none;stroke-width:1px;marker:none;enable-background:accumulate"
       d="m 1667.6666,1599.9074 c -6.9031,32.4545 -3.5852,52.0587 -0.3875,56.8994 3.1978,4.8405 10.7873,17.717 13.4862,25.0045 2.2026,6.0554 7.1646,12.976 2.161,17.5999 -5.0037,4.6241 -38.4161,18.132 -44.1909,39.9564 -5.7748,21.8241 -0.1403,27.5491 10.4746,33.2413 10.6148,5.6925 24.344,13.4351 21.1361,29.7508 -3.208,16.316 -15.5688,27.4701 -22.2247,30.5744 -6.656,3.1043 -46.6521,14.3489 -57.1468,23.4201 -10.4947,9.0712 -39.8627,42.5729 -36.735,61.188 14.1899,-25.2101 21.7337,-36.9026 31.5274,-42.5482 9.7937,-5.6454 27.5656,-17.8856 38.2038,-16.7848 10.6383,1.1009 31.0235,5.7392 40.0561,-3.8627 9.0327,-9.6017 27.6322,-37.8115 28.8907,-54.8348 1.2586,-17.0232 -3.7351,-33.5555 -20.7923,-39.746 -10.6147,-5.6925 -15.0843,-10.0747 -13.7892,-15.1244 1.2952,-5.05 13.656,-16.2042 26.2669,-18.9873 12.6111,-2.7832 23.5931,-11.6775 25.2089,-22.1312 1.6155,-10.4537 -5.7824,-33.1186 -5.7358,-42.3016 0.047,-9.1832 -3.9006,-59.6356 -3.9006,-59.6356 z"
       id="path5058"
       inkscape:connector-curvature="0"
       sodipodi:nodetypes="cscsssssscssssccscccc" />
    <path
       inkscape:connector-curvature="0"
       id="path5208"
       d="m 1500.129,1219.4288 -23.6347,9.2241 c 13.4678,34.6216 23.7209,58.3448 36.8806,76.007 13.1598,17.6621 29.9172,28.3769 51.4769,34.5478 38.8046,11.1066 87.6095,29.6504 110.3563,63.7856 13.0544,19.5903 30.899,46.3181 40.3968,72.4104 9.4976,26.0925 10.8991,48.9765 -5.1622,67.5115 -18.3856,21.2176 -33.6353,27.9827 -49.2375,38.7459 -15.602,10.7633 -30.0776,26.7633 -37.7985,58.7242 l 24.6486,5.9701 c 6.6685,-27.6038 14.5297,-34.8223 27.5599,-43.8114 13.0304,-8.9892 32.7304,-18.4797 53.994,-43.0185 23.5881,-27.2213 20.8667,-62.4598 9.8275,-92.7869 -11.0391,-30.3271 -30.1459,-58.3231 -43.1213,-77.7948 -29.3128,-43.9883 -84.2642,-62.5983 -124.4829,-74.1097 -17.952,-5.1382 -27.8248,-11.5322 -38.1173,-25.346 -10.2925,-13.8139 -20.3066,-35.9214 -33.5862,-70.0593 z"
       style="color:#000000;font-style:normal;font-variant:normal;font-weight:normal;font-stretch:normal;font-size:medium;line-height:normal;font-family:Sans;-inkscape-font-specification:Sans;text-indent:0;text-align:start;text-decoration:none;text-decoration-line:none;letter-spacing:normal;word-spacing:normal;text-transform:none;writing-mode:lr-tb;direction:ltr;baseline-shift:baseline;text-anchor:start;display:inline;overflow:visible;visibility:visible;fill:#ffffff;fill-opacity:1;fill-rule:nonzero;stroke:none;stroke-width:31.9;marker:none;enable-background:accumulate" />
    <path
       style="color:#000000;display:inline;overflow:visible;visibility:visible;fill:#ffffff;fill-opacity:1;fill-rule:nonzero;stroke:none;stroke-width:1px;marker:none;enable-background:accumulate"
       d="m 1215.0978,1161.8966 c -58.0742,-75.4085 5.1103,-188.4478 285.1263,-177.4354 280.0158,11.01223 278.0551,36.9544 313.0159,78.213 25.8697,30.5299 85.3806,140.4609 -133.1682,168.7784 -218.5492,28.3175 -396.6774,2.8109 -464.974,-69.556 z"
       id="path3525"
       inkscape:connector-curvature="0"
       sodipodi:nodetypes="csssc" />
    <flowRoot
       xml:space="preserve"
       id="flowRoot2987-4-9-3"
       style="font-style:normal;font-variant:normal;font-weight:normal;font-stretch:normal;line-height:0.01%;font-family:Lavi;-inkscape-font-specification:Lavi;text-align:center;letter-spacing:0px;word-spacing:0px;text-anchor:middle;fill:#000000;fill-opacity:1;stroke:none"
       transform="translate(1209.1729,1130.3348)"><flowRegion
         id="flowRegion2989-5-4-5"><rect
           id="rect2991-7-9-6"
           width="602.40173"
           height="310.73996"
           x="120.55251"
           y="265.53046"
           style="font-style:normal;font-variant:normal;font-weight:normal;font-stretch:normal;font-family:Lavi;-inkscape-font-specification:Lavi;text-align:center;text-anchor:middle" /></flowRegion><flowPara
         style="font-size:48px;line-height:1.25;text-align:center;text-anchor:middle"
         id="flowPara3058">...pero, <flowSpan
   style="font-style:italic;font-variant:normal;font-weight:normal;font-stretch:normal;font-family:Lavi;-inkscape-font-specification:'Lavi Italic'"
   id="flowSpan3429">¿en seriu?</flowSpan></flowPara></flowRoot>
    <flowRoot
       xml:space="preserve"
       id="flowRoot2987-4-9-3-9"
       style="font-style:normal;font-variant:normal;font-weight:normal;font-stretch:normal;line-height:0.01%;font-family:Lavi;-inkscape-font-specification:Lavi;text-align:center;letter-spacing:0px;word-spacing:0px;text-anchor:middle;fill:#000000;fill-opacity:1;stroke:none"
       transform="translate(1097.18,752.8165)"><flowRegion
         id="flowRegion2989-5-4-5-3"><rect
           id="rect2991-7-9-6-6"
           width="602.40173"
           height="310.73996"
           x="120.55251"
           y="265.53046"
           style="font-style:normal;font-variant:normal;font-weight:normal;font-stretch:normal;font-family:Lavi;-inkscape-font-specification:Lavi;text-align:center;text-anchor:middle" /></flowRegion><flowPara
         style="font-size:48px;line-height:1.25;text-align:center;text-anchor:middle"
         id="flowPara3058-5" /><flowPara
         style="font-size:48px;line-height:1.25;text-align:center;text-anchor:middle"
         id="flowPara3408"> Ye verdá que, dacuando,</flowPara><flowPara
         style="font-size:48px;line-height:1.25;text-align:center;text-anchor:middle"
         id="flowPara3080">el meyor de los deseyos</flowPara><flowPara
         style="font-size:48px;line-height:1.25;text-align:center;text-anchor:middle"
         id="flowPara3084">ye que naa camude...</flowPara></flowRoot>
    <flowRoot
       xml:space="preserve"
       id="flowRoot2987-4-9-3-9-1"
       style="font-style:normal;font-variant:normal;font-weight:normal;font-stretch:normal;line-height:0.01%;font-family:Lavi;-inkscape-font-specification:Lavi;text-align:center;letter-spacing:0px;word-spacing:0px;text-anchor:middle;fill:#000000;fill-opacity:1;stroke:none"
       transform="translate(1415.8786,1307.4961)"><flowRegion
         id="flowRegion2989-5-4-5-3-6"><rect
           id="rect2991-7-9-6-6-1"
           width="602.40173"
           height="310.73996"
           x="120.55251"
           y="265.53046"
           style="font-style:normal;font-variant:normal;font-weight:normal;font-stretch:normal;font-family:Lavi;-inkscape-font-specification:Lavi;text-align:center;text-anchor:middle" /></flowRegion><flowPara
         style="font-size:48px;line-height:1.25;text-align:center;text-anchor:middle"
         id="flowPara3084-5">...¿desear volver</flowPara><flowPara
         style="font-size:48px;line-height:1.25;text-align:center;text-anchor:middle"
         id="flowPara3140">a dormir? </flowPara><flowPara
         style="font-size:48px;line-height:1.25;text-align:center;text-anchor:middle"
         id="flowPara3060">¡Qué bagazu!</flowPara></flowRoot>
    <flowRoot
       xml:space="preserve"
       id="flowRoot2987-7-9-9-7-4-5-16-68"
       style="font-style:normal;font-variant:normal;font-weight:normal;font-stretch:normal;line-height:0.01%;font-family:Lavi;-inkscape-font-specification:Lavi;letter-spacing:0px;word-spacing:0px;fill:#000000;fill-opacity:1;stroke:#000000;stroke-width:0.992362;stroke-miterlimit:4;stroke-dasharray:none;stroke-opacity:1;filter:url(#filter4375-5-4-81-0)"
       transform="matrix(0.82433366,-0.36081689,0,0.88465495,667.96771,2206.9247)"><flowRegion
         id="flowRegion2989-4-5-8-7-8-5-9-9"
         style="stroke-width:5.40286"><rect
           id="rect2991-45-1-3-3-4-3-6-1"
           width="319.66232"
           height="56.089447"
           x="120.55251"
           y="265.53046"
           style="font-style:normal;font-variant:normal;font-weight:normal;font-stretch:normal;fill:#000000;fill-opacity:1;stroke:#000000;stroke-width:0.99236238;stroke-miterlimit:4;stroke-opacity:1;stroke-dasharray:none;font-family:Lavi;-inkscape-font-specification:Lavi" /></flowRegion><flowPara
         id="flowPara2995-4-1-5-0-07-0-9-5"
         style="font-weight:normal;font-size:48px;line-height:1.25;-inkscape-font-specification:Lavi;fill:#000000;fill-opacity:1;stroke:#000000;stroke-width:0.992362;stroke-linejoin:miter;stroke-miterlimit:4;stroke-dasharray:none;stroke-opacity:1">Zzzzz</flowPara></flowRoot>
    <flowRoot
       xml:space="preserve"
       id="flowRoot2987-7-9-9-7-4-5-16-6-6"
       style="font-style:normal;font-variant:normal;font-weight:normal;font-stretch:normal;line-height:0.01%;font-family:Lavi;-inkscape-font-specification:Lavi;letter-spacing:0px;word-spacing:0px;fill:#000000;fill-opacity:1;stroke:#000000;stroke-width:0.992362;stroke-miterlimit:4;stroke-dasharray:none;stroke-opacity:1;filter:url(#filter4375-5-4-81-5-7)"
       transform="matrix(0.89377961,-0.3912139,0,0.95918268,698.75071,2115.8028)"><flowRegion
         id="flowRegion2989-4-5-8-7-8-5-9-8-4"
         style="stroke-width:5.40286"><rect
           id="rect2991-45-1-3-3-4-3-6-8-4"
           width="319.66232"
           height="56.089447"
           x="120.55251"
           y="265.53046"
           style="font-style:normal;font-variant:normal;font-weight:normal;font-stretch:normal;fill:#000000;fill-opacity:1;stroke:#000000;stroke-width:0.99236238;stroke-miterlimit:4;stroke-opacity:1;stroke-dasharray:none;font-family:Lavi;-inkscape-font-specification:Lavi" /></flowRegion><flowPara
         id="flowPara2995-4-1-5-0-07-0-9-3-7"
         style="font-weight:normal;font-size:48px;line-height:1.25;-inkscape-font-specification:Lavi;fill:#000000;fill-opacity:1;stroke:#000000;stroke-width:0.992362;stroke-linejoin:miter;stroke-miterlimit:4;stroke-dasharray:none;stroke-opacity:1">Zzzzz</flowPara></flowRoot>
  </g>
  <g
     inkscape:groupmode="layer"
     id="layer1"
     inkscape:label="txt">
    <flowRoot
       xml:space="preserve"
       id="flowRoot2987-4-9-3-6-3-8-7-2-7-2"
       style="font-style:normal;font-variant:normal;font-weight:normal;font-stretch:normal;line-height:0.01%;font-family:Lavi;-inkscape-font-specification:Lavi;text-align:center;letter-spacing:0px;word-spacing:0px;text-anchor:middle;opacity:0.916279;fill:#000000;fill-opacity:1;stroke:none"
       transform="matrix(0.85571819,0,0,0.85571819,131.95415,3068.5819)"><flowRegion
         id="flowRegion2989-5-4-5-5-3-0-6-76-8-1"><rect
           id="rect2991-7-9-6-21-9-8-0-3-1-7"
           width="2350.8157"
           height="72.357925"
           x="120.55251"
           y="265.53046"
           style="font-style:normal;font-variant:normal;font-weight:normal;font-stretch:normal;font-family:Lavi;-inkscape-font-specification:Lavi;text-align:center;text-anchor:middle" /></flowRegion><flowPara
         style="font-size:48px;line-height:1.25;text-align:center;text-anchor:middle"
         id="flowPara3272-6-3-1"><flowSpan
           style="fill:#1b1b1b;fill-opacity:1"
           id="flowSpan3856-1"><flowSpan
             style="fill:#2d2d2d;fill-opacity:1"
             id="flowSpan3858-6"><flowSpan
               style="fill:#2f2f2f;fill-opacity:1"
               id="flowSpan3860-9"><flowSpan
                 style="fill:#3e3e3e;fill-opacity:1"
                 id="flowSpan3862-4"><flowSpan
                   style="fill:#3f3f3f;fill-opacity:1"
                   id="flowSpan3864-4"><flowSpan
                     style="fill:#474747;fill-opacity:1"
                     id="flowSpan3866-8"><flowSpan
                       style="fill:#4d4d4d;fill-opacity:1"
                       id="flowSpan3868-5"><flowSpan
                         style="fill:#4e4e4e;fill-opacity:1"
                         id="flowSpan3870-8"><flowSpan
                           style="fill:#585858;fill-opacity:1"
                           id="flowSpan3872-7"><flowSpan
                             style="fill:#595959;fill-opacity:1"
                             id="flowSpan3874-4"><flowSpan
                               style="fill:#6b6b6b;fill-opacity:1"
                               id="flowSpan3876-6"><flowSpan
                                 style="fill:#777777;fill-opacity:1"
                                 id="flowSpan3878-3"><flowSpan
                                   style="fill:#797979;fill-opacity:1"
                                   id="flowSpan3880-9"><flowSpan
                                   style="fill:#a0a0a0;fill-opacity:1"
                                   id="flowSpan3882-9"><flowSpan
                                   style="fill:#c7c7c7;fill-opacity:1"
                                   id="flowSpan3884-8"><flowSpan
                                   style="fill:#dddddd;fill-opacity:1"
                                   id="flowSpan3886-8"><flowSpan
                                   style="fill:#dedede;fill-opacity:1"
                                   id="flowSpan3888-6"><flowSpan
                                   style="fill:#fafafa;fill-opacity:1"
                                   id="flowSpan3890-2"><flowSpan
                                   style="fill:#ffffff;fill-opacity:1"
                                   id="flowSpan3892-9"><flowSpan
   style="font-size:40.7292px"
   id="flowSpan3980">Abril 2015 - www.peppercarrot.com - </flowSpan>Dibuxu y Guión : David Revoy - Traducción : Fueyes</flowSpan></flowSpan></flowSpan></flowSpan></flowSpan></flowSpan></flowSpan></flowSpan></flowSpan></flowSpan></flowSpan></flowSpan></flowSpan></flowSpan></flowSpan></flowSpan></flowSpan></flowSpan></flowSpan></flowPara></flowRoot>
    <flowRoot
       xml:space="preserve"
       id="flowRoot2987-4-9-3-6-3-8-7-2"
       style="font-style:normal;font-variant:normal;font-weight:normal;font-stretch:normal;line-height:0.01%;font-family:Lavi;-inkscape-font-specification:Lavi;text-align:center;letter-spacing:0px;word-spacing:0px;text-anchor:middle;fill:#000000;fill-opacity:1;stroke:none"
       transform="translate(1216.7911,3156.4387)"><flowRegion
         id="flowRegion2989-5-4-5-5-3-0-6-76"><rect
           id="rect2991-7-9-6-21-9-8-0-3"
           width="1041.0548"
           height="56.977448"
           x="120.55251"
           y="265.53046"
           style="font-style:normal;font-variant:normal;font-weight:normal;font-stretch:normal;font-family:Lavi;-inkscape-font-specification:Lavi;text-align:center;text-anchor:middle" /></flowRegion><flowPara
         style="font-size:48px;line-height:1.25;text-align:center;text-anchor:middle"
         id="flowPara3272-6">Episodiu 7 : El deseyu</flowPara></flowRoot>
    <flowRoot
       transform="matrix(0.90617713,0,-0.22078013,1.6225798,1926.7408,2974.0462)"
       style="font-style:normal;font-variant:normal;font-weight:normal;font-stretch:normal;line-height:0.01%;font-family:Lavi;-inkscape-font-specification:Lavi;text-align:center;letter-spacing:0px;word-spacing:0px;text-anchor:middle;fill:#000000;fill-opacity:1;stroke:#000000;stroke-width:4.7;stroke-miterlimit:4;stroke-dasharray:none;stroke-opacity:1"
       id="flowRoot4212-3-7-8-6"
       xml:space="preserve"><flowRegion
         id="flowRegion4214-6-7-8-3"><rect
           style="font-style:normal;font-variant:normal;font-weight:normal;font-stretch:normal;text-align:center;text-anchor:middle;stroke:#000000;stroke-width:4.69999981;stroke-miterlimit:4;stroke-opacity:1;stroke-dasharray:none;font-family:Lavi;-inkscape-font-specification:Lavi"
           y="265.53046"
           x="120.55251"
           height="355.03918"
           width="798.1947"
           id="rect4216-4-0-26-5" /></flowRegion><flowPara
         style="font-size:48px;line-height:1.25;text-align:center;letter-spacing:5.20896px;text-anchor:middle;stroke:#000000;stroke-width:4.7;stroke-miterlimit:4;stroke-dasharray:none;stroke-opacity:1"
         id="flowPara4358-7-1">FIN</flowPara></flowRoot>
  </g>
</svg>
