<?xml version="1.0" encoding="UTF-8" standalone="no"?>
<!-- Created with Inkscape (http://www.inkscape.org/) -->

<svg
   xmlns:dc="http://purl.org/dc/elements/1.1/"
   xmlns:cc="http://creativecommons.org/ns#"
   xmlns:rdf="http://www.w3.org/1999/02/22-rdf-syntax-ns#"
   xmlns:svg="http://www.w3.org/2000/svg"
   xmlns="http://www.w3.org/2000/svg"
   xmlns:xlink="http://www.w3.org/1999/xlink"
   xmlns:sodipodi="http://sodipodi.sourceforge.net/DTD/sodipodi-0.dtd"
   xmlns:inkscape="http://www.inkscape.org/namespaces/inkscape"
   id="svg2"
   version="1.1"
   inkscape:version="0.92.2 (5c3e80d, 2017-08-06)"
   width="2481"
   height="3503"
   sodipodi:docname="E19P06.svg">
  <metadata
     id="metadata8">
    <rdf:RDF>
      <cc:Work
         rdf:about="">
        <dc:format>image/svg+xml</dc:format>
        <dc:type
           rdf:resource="http://purl.org/dc/dcmitype/StillImage" />
        <dc:title />
      </cc:Work>
    </rdf:RDF>
  </metadata>
  <defs
     id="defs6" />
  <sodipodi:namedview
     pagecolor="#ffffff"
     bordercolor="#666666"
     borderopacity="1"
     objecttolerance="10"
     gridtolerance="10"
     guidetolerance="10"
     inkscape:pageopacity="0"
     inkscape:pageshadow="2"
     inkscape:window-width="1299"
     inkscape:window-height="713"
     id="namedview4"
     showgrid="false"
     inkscape:zoom="0.36881102"
     inkscape:cx="1327.7397"
     inkscape:cy="822.32538"
     inkscape:window-x="67"
     inkscape:window-y="27"
     inkscape:window-maximized="1"
     inkscape:current-layer="layer3" />
  <g
     inkscape:groupmode="layer"
     id="layer2"
     inkscape:label="artwork"
     sodipodi:insensitive="true">
    <image
       sodipodi:absref="/home/emmiline/Documents/git/webcomics/ep19_Pollution/lang/da/../gfx_Pepper-and-Carrot_by-David-Revoy_E19P06.png"
       xlink:href="../gfx_Pepper-and-Carrot_by-David-Revoy_E19P06.png"
       width="2481"
       height="3503"
       id="image10"
       x="0"
       y="0" />
  </g>
  <g
     inkscape:groupmode="layer"
     id="layer3"
     inkscape:label="speechbubbles">
    <path
       style="color:#000000;display:inline;overflow:visible;visibility:visible;fill:#ffffff;fill-opacity:1;fill-rule:nonzero;stroke:none;stroke-width:0.96587235px;marker:none;enable-background:accumulate"
       d="m 201.38609,2524.6278 c 10.32393,-80.5163 106.84165,-138.0014 352.42078,-118.8954 131.54544,10.2342 281.04218,17.9577 267.44758,135.9328 -13.59474,117.975 -228.6205,111.4982 -273.12096,113.5506 -44.50046,2.0523 -275.40381,-14.0345 -314.55111,-54.8655 -24.5053,-25.559 -33.73148,-50.7596 -32.19629,-75.7225 z"
       id="path4546-6"
       inkscape:connector-curvature="0"
       sodipodi:nodetypes="cssssc" />
    <path
       style="fill:#ffffff;stroke:none"
       d="m 694.38649,2534.9643 c 31.16173,50.5895 56.21292,58.6934 72.83219,79.5631 16.61925,20.8701 -4.22375,65.3135 0.2296,80.4242 5.36252,14.254 23.11118,27.2288 57.37772,44.4988 -73.16324,-15.6884 -73.36945,-34.9149 -78.29883,-48.1564 -6.77646,-18.203 5.60657,-39.7648 -12.3168,-56.2686 -17.36077,-15.9861 -80.58056,-61.1983 -92.85364,-95.1241 -12.2733,-33.9259 -18.60006,-35.9967 -18.60006,-35.9967 z"
       id="path3282"
       inkscape:connector-curvature="0"
       sodipodi:nodetypes="csccssscc" />
    <path
       style="color:#000000;display:inline;overflow:visible;visibility:visible;fill:#ffffff;fill-opacity:1;fill-rule:nonzero;stroke:none;stroke-width:0.93354118px;marker:none;enable-background:accumulate"
       d="m 139.92716,1473.1735 c 38.50476,-52.7026 252.02205,-44.6423 318.43462,-31.068 72.47738,14.8138 94.79201,35.8042 98.03297,81.8085 1.00107,14.2098 -4.86144,78.6477 -40.51247,91.333 -35.65088,12.6851 -137.74206,19.0276 -173.39309,19.0276 -35.65087,0 -149.45648,-8.074 -178.25484,-26.6388 -27.54847,-17.7591 -62.81212,-81.7598 -24.30719,-134.4623 z"
       id="path3330"
       inkscape:connector-curvature="0"
       sodipodi:nodetypes="zsssssz" />
    <path
       style="color:#000000;display:inline;overflow:visible;visibility:visible;fill:#ffffff;fill-opacity:1;fill-rule:nonzero;stroke:none;stroke-width:1px;marker:none;enable-background:accumulate"
       d="m 238.07937,1682.6242 c -1.17784,-29.0026 4.82835,-48.2355 31.80203,-63.6443 24.55581,-14.0276 78.62837,-17.904 114.70893,-17.904 58.31917,-0.198 208.02123,-5.4181 190.35616,85.1901 -0.6977,42.9756 -87.69053,44.8494 -105.35842,48.3297 -17.66789,3.4803 -88.29764,4.2477 -104.78769,3.0877 -60.62167,2.1088 -124.61548,-19.7128 -126.72101,-55.0592 z"
       id="path3357"
       inkscape:connector-curvature="0"
       sodipodi:nodetypes="csccscc" />
    <path
       style="color:#000000;display:inline;overflow:visible;visibility:visible;fill:#ffffff;fill-opacity:1;fill-rule:nonzero;stroke:none;stroke-width:1px;marker:none;enable-background:accumulate"
       d="m 453.45684,1711.8886 c -0.37144,57.0275 25.35707,95.1396 67.76656,103.3368 -67.9487,-0.4363 -102.57173,-72.2713 -100.82948,-96.6104 1.70602,-23.8329 33.06292,-6.7264 33.06292,-6.7264 z"
       id="path5010"
       inkscape:connector-curvature="0"
       sodipodi:nodetypes="ccsc" />
    <path
       style="color:#000000;display:inline;overflow:visible;visibility:visible;fill:#ffffff;fill-opacity:1;fill-rule:nonzero;stroke:none;stroke-width:1.01117003px;marker:none;enable-background:accumulate"
       d="m 197.3383,2103.0688 c 34.29873,-24.941 331.23913,-40.019 409.89077,0.97 65.64943,34.2131 40.0352,119.4158 -18.34955,139.0406 -58.38455,19.6249 -252.60875,17.3471 -337.73282,8.4497 -81.04984,-8.4716 -94.65944,-34.042 -98.64622,-85.5279 -1.62715,-21.0134 10.53894,-37.9911 44.83782,-62.9324 z"
       id="path4040-4"
       inkscape:connector-curvature="0"
       sodipodi:nodetypes="zssssz" />
    <path
       style="color:#000000;display:inline;overflow:visible;visibility:visible;fill:#ffffff;fill-opacity:1;fill-rule:nonzero;stroke:none;stroke-width:1px;marker:none;enable-background:accumulate"
       d="m 535.00775,1986.8306 c -11.22357,-11.0259 -34.07155,-13.8129 -52.41966,-13.1663 -5.21231,0.2939 -10.58546,0.9606 -15.40703,2.9669 -4.5497,3.204 -5.8508,9.2452 -4.71647,14.4517 1.1116,7.6336 5.4512,15.1923 3.33691,23.0221 -1.67716,5.6622 -7.62933,7.7967 -12.46033,10.0265 -12.42532,5.4417 -25.66044,9.2324 -37.15366,16.6288 -13.48154,7.4861 -27.12386,16.3412 -35.233,29.8576 -3.11895,5.4019 -5.62626,11.4889 -5.13528,17.8477 0.51982,16.3695 10.44001,32.6806 25.75127,39.1373 10.15783,3.1917 22.85144,-2.6898 25.43476,-13.369 1.44801,-5.6168 -1.12924,-11.3042 -4.7776,-15.4765 -5.27333,-8.9228 -5.03206,-20.3779 -0.31332,-29.473 3.77147,-7.5698 9.88065,-13.877 17.08927,-18.2489 8.233,-8.5339 20.53978,-9.9068 31.26386,-13.4482 4.87531,-1.6909 9.9467,-3.8199 13.48797,-7.6632 3.74598,-6.6816 1.05856,-14.5289 -1.98107,-20.9052 -2.96548,-6.6569 -7.15746,-14.0436 -4.63677,-21.5174 1.0509,-5.4219 7.54846,-5.1616 11.76803,-6.5249 14.15942,-2.6164 28.95507,-0.7769 42.45081,4.0015 1.25162,0.5512 2.45101,1.1992 3.65131,1.8525 z"
       id="path4496"
       inkscape:connector-curvature="0"
       sodipodi:nodetypes="ccccccccccccccccccccc" />
    <path
       style="color:#000000;display:inline;overflow:visible;visibility:visible;fill:#ffffff;fill-opacity:1;fill-rule:nonzero;stroke:none;stroke-width:1px;marker:none;enable-background:accumulate"
       d="m 782.81669,170.4513 -40.2,-14.4857 22.33662,43.1826 -37.7925,-15.59213 29.62312,43.18563 -37.33944,-2.37969 25.7385,31.03324 -21.22949,6.16968 21.62976,26.91083 -22.33486,8.04774 20.09075,28.39761 -22.16593,19.67094 13.22109,18.76891 -16.03279,16.50418 14.53784,11.07509 -12.78231,25.29958 17.26727,4.48582 -17.94553,26.02461 27.80199,-8.25588 -8.73165,29.93945 32.43886,-17.1664 -14.08971,37.28917 28.43761,-0.34352 -39.32137,84.34754 61.70439,-52.02452 4.69958,44.60217 30.56944,-39.18252 0.7747,27.33209 27.00855,-34.48494 -0.57997,34.19236 29.84036,-40.27109 0.0734,127.90182 50.44473,-109.03143 8.95524,45.03406 8.18962,-42.05768 8.77262,18.48756 8.50759,-23.24516 8.24425,36.68388 15.08779,-42.30565 59.3997,61.96957 -10.3828,-74.35262 49.2997,10.09267 -16.5309,-36.48564 71.0319,19.40909 -33.4621,-33.63496 60.3347,18.19599 -67.4967,-59.9351 62.0702,15.57238 -46.0407,-47.77556 42.8626,-4.06925 -39.4536,-32.92053 70.4661,-5.37473 -64.3311,-27.41869 57.7689,-14.20615 -43.5442,-28.69708 50.2645,-23.73661 -53.784,-18.34698 39.605,-61.13892 -55.3143,15.44447 6.3706,-41.7903 -51.7449,31.28307 24.2431,-74.58043 -65.8828,66.06949 3.2897,-21.16581 -23.3736,17.39263 14.4089,-47.81134 -44.102,45.2297 4.485,-20.9601 -13.45482,19.85704 2.98986,-27.57928 -23.17212,33.09507 2.13339,-28.83564 -14.15808,15.55426 -0.36435,-14.76521 -13.02568,11.49906 -17.55909,-50.11731 -26.19792,51.68476 -12.87986,-22.23072 -14.90955,21.29161 -10.35586,-25.04386 -15.59171,29.92649 -25.36537,-40.5666 1.65841,40.25227 -61.18697,-43.60513 z"
       id="path4024"
       inkscape:connector-curvature="0"
       sodipodi:nodetypes="ccccccccccccccccccccccccccccccccccccccccccccccccccccccccccccccccccccccccccccccccccccc" />
    <path
       style="display:inline;fill:#ffffff;fill-rule:evenodd;stroke:none;stroke-width:1px;stroke-linecap:butt;stroke-linejoin:miter;stroke-opacity:1"
       d="m 727.10685,996.89136 c 74.866,73.60324 103.78855,3.96944 102.68898,-66.62566 30.56158,76.2866 51.76994,93.3483 64.34785,55.7614 40.46149,32.3075 65.73312,23.245 85.79709,0 7.47835,29.8947 23.51573,17.8312 37.39523,16.3462 4.5714,6.7635 -11.1293,23.5669 52.3016,1.1789 4.1088,8.9521 9.6437,16.6614 46.7984,-3.1864 9.6256,36.3357 40.509,-2.01383 72.1476,-43.01599 -19.7117,50.40869 -20.8834,52.65279 4.3042,33.36049 -3.7956,8.56916 -9.9761,25.7196 15.4916,7.14359 -14.9785,38.31631 35.7014,-11.18964 99.1309,-66.22169 -31.7284,40.67928 -105.608,136.6484 -50.1911,130.9639 -7.7282,11.9924 -33.6691,26.098 44.3605,36.547 -15.3256,8.1378 -62.1143,-3.7539 -23.0841,30.7017 5.2293,4.0276 -12.277,6.4871 21.1342,17.0938 -19.723,-0.7216 -31.8186,1.8562 -13.6496,17.525 -36.0017,-0.8472 -22.5314,15.6287 3.8999,36.6432 -52.1355,-26.9556 -55.0047,-17.1588 -56.5481,-6.3727 -65.3412,-36.7496 -69.1768,-25.1792 -77.9972,-17.5251 -31.849,0.2868 -63.6979,-4.3411 -95.5469,36.6433 -8.3408,-25.4912 -25.0631,-45.1128 -95.54659,-27.0841 30.94761,-32.4293 -13.07948,-11.7684 -46.79837,1.5931 18.46514,-40.5122 -28.397,-13.9241 -87.74711,25.491 33.23583,-44.7368 -36.02827,-48.3517 -91.964,-16.5884 39.05508,-34.6799 50.49092,-43.5858 -31.77091,-45.2956 39.37305,-15.8531 30.0734,-37.6472 -10.81042,-73.5366 46.08773,10.5678 59.83505,0.7517 27.29901,-38.2364 50.26943,32.0011 24.17136,-0.3644 4.55734,-43.30394 z"
       id="path4508"
       inkscape:connector-curvature="0"
       sodipodi:nodetypes="cccccccccccccccccccccccccccc" />
    <path
       style="color:#000000;display:inline;overflow:visible;visibility:visible;fill:#ffffff;fill-opacity:1;fill-rule:nonzero;stroke:none;stroke-width:1px;marker:none;enable-background:accumulate"
       d="m 760.12564,1192.5775 c 8.00598,-57.0318 75.15648,-96.8019 244.18316,-80.6312 90.5398,8.6619 199.6579,-3.5616 188.9833,94.9884 -9.0737,83.77 -166.2012,69.9004 -196.89089,70.8837 -30.68973,0.9834 -187.78228,3.1783 -214.30819,-26.2153 -16.60461,-18.3996 -23.3017,-41.326 -21.96738,-59.0256 z"
       id="path4546-6-3"
       inkscape:connector-curvature="0"
       sodipodi:nodetypes="cssssc" />
    <path
       style="color:#000000;display:inline;overflow:visible;visibility:visible;fill:#ffffff;fill-opacity:1;fill-rule:nonzero;stroke:none;stroke-width:1px;marker:none;enable-background:accumulate"
       d="m 1213.8489,846.02889 c 33.609,44.03488 30.6306,130.36717 21.2505,150.34893 -9.38,19.98168 -22.2605,49.94618 -67.4623,50.25248 -45.2018,0.3064 -359.09123,23.4584 -405.80013,-22.7008 -46.7089,-46.15926 -46.07163,-126.94281 -5.99859,-181.43607 40.07304,-54.49326 256.64142,-44.89527 256.64142,-44.89527 0,0 149.8339,-7.65482 201.3691,48.43073 z"
       id="path3992"
       inkscape:connector-curvature="0" />
    <path
       style="fill:#ffffff;stroke:none;stroke-width:0.9765287"
       d="m 481.27782,848.58094 -20.91977,12.36158 c -46.25534,-4.80667 -174.08164,-11.39604 -239.31966,-7.94819 l -26.58596,8.45895 -14.3811,-15.61637 -6.53867,19.519 -13.07337,-13.66312 -7.8464,18.86924 -15.68884,-9.10875 5.66618,19.51901 -8.71689,11.71179 -17.43381,-8.45895 9.58938,35.1354 c 1e-5,0 -10.02445,0.65174 -16.12607,0.65174 15.30764,28.30218 15.99674,171.57773 10.89466,221.82813 l -12.24637,8.8024 12.23846,11.1005 4.88075,4.1191 -20.5142,13.9428 15.36438,-0.9273 -11.94172,15.5041 12.6401,9.1108 -0.87248,11.7097 -1.74299,7.1594 10.10773,7.8053 -17.42731,17.1858 24.46256,-4.7908 0.72608,0.6202 c 0,0 -16.54338,23.6077 -21.08602,32.4764 13.30441,-5.3839 34.16106,-13.6082 35.90435,-14.2589 0.13984,-0.051 0.48458,-0.022 0.91601,0.041 l -10.94262,18.2705 26.39207,-14.1671 c 1.80177,0.4958 3.61718,0.9875 5.39712,1.4412 l -5.05808,16.502 28.27479,-13.2944 c 9.08248,1.5654 20.3198,4.4254 23.00899,4.8714 3.92244,0.6507 24.84253,-6.5067 29.63667,-5.8559 4.79414,0.6505 48.81223,7.8072 52.73467,7.8072 3.92245,0 27.89271,-2.6021 33.12265,-3.2528 5.22992,-0.6505 32.68697,3.2528 37.4811,3.2528 4.79404,0 13.07556,-6.5068 17.43379,-7.1574 4.35836,-0.6507 16.56119,3.9049 19.61204,5.2061 3.05077,1.3015 24.842,3.2529 30.07193,3.2529 5.22993,0 42.7511,-6.8157 52.29943,-3.9047 6.93673,2.1147 70.15596,0.1893 104.11414,-2.0851 l -3.57104,15.4116 22.02571,-17.0814 c 1.81226,-0.2774 2.86501,-0.5461 2.94982,-0.7994 0,0 6.97308,12.3635 9.15215,12.3635 2.17916,0 5.66644,-10.4123 6.97392,-11.7136 1.30749,-1.3014 10.46083,5.8567 12.6401,5.206 2.17917,-0.6507 3.05072,-13.6632 3.05072,-13.6632 l 2.17823,-6.5075 c 0,0 6.10193,-1.9516 8.71691,-4.5545 2.61495,-2.6025 -0.43653,-13.6638 -3.92321,-18.8691 3.05087,-2.6027 10.46013,-7.1562 11.76763,-9.7587 1.30756,-2.6028 -3.05072,-11.0619 -3.05072,-11.0619 0,0 2.61563,-4.5539 3.9232,-7.8071 1.30749,-3.2536 -8.16063,-14.1108 -8.16063,-14.1108 0,0 8.16008,-10.615 8.59588,-14.519 0.38519,-3.4508 -1.95584,-6.8968 -5.81457,-7.6517 l 12.1178,-6.8206 -13.70844,-2.3078 c -1.05752,-36.3682 0.39453,-175.05882 8.02172,-205.89977 l 16.46042,-12.76524 -16.04694,-5.99571 c -1.11733,-1.49953 -2.3318,-3.04169 -3.59676,-4.57405 l 12.02877,-9.32731 -23.50556,-8.78384 V 899.1192 l -8.7169,-6.50569 c 0,0 0.37656,-1.7067 0.74982,-4.16844 l 9.05917,-16.86277 -31.23127,5.48965 0.0752,0.32095 c -10.36608,-1.70091 -18.74945,-6.25166 -18.74945,-6.25166 l 4.7937,-29.2795 -34.41377,31.83638 -2.17824,-12.36159 -13.5106,11.71181 -4.35846,-18.86923 -13.5106,14.31485 -11.33237,-7.43568 -2.54913,2.30007 -10.45989,-8.45897 -10.45988,7.80721 -20.83867,4.09133 -6.10144,-18.21747 z"
       id="path3894"
       inkscape:connector-curvature="0"
       sodipodi:nodetypes="ccccccccccccccccccccccccccccccccccccccscsscssccccscccccccccccccccccccccccccccccccccccccccc" />
    <path
       style="color:#000000;display:inline;overflow:visible;visibility:visible;fill:#ffffff;fill-opacity:1;fill-rule:nonzero;stroke:none;stroke-width:1px;marker:none;enable-background:accumulate"
       d="m 535.70109,762.59499 c 38.34876,34.92863 35.4166,55.61846 35.05492,70.73951 -5.21085,0.99543 -14.03945,4.31409 -14.03945,4.31409 0,0 2.34858,29.8366 -0.92638,41.34315 -3.27496,11.50653 -19.13613,8.37057 -19.13613,8.37057 0,0 -6.17597,-57.93992 -11.57097,-70.14779 14.42663,-2.21185 21.11631,-4.94055 26.71433,-3.83376 3.38923,-8.44544 -2.96428,-38.06103 -16.09632,-50.78577 z"
       id="path4456"
       inkscape:connector-curvature="0" />
    <path
       style="color:#000000;display:inline;overflow:visible;visibility:visible;fill:#ffffff;fill-opacity:1;fill-rule:nonzero;stroke:none;stroke-width:1px;marker:none;enable-background:accumulate"
       d="m 981.87504,489.07837 c 15.79816,16.30726 34.68336,141.58053 227.57366,231.14516 -154.1725,-93.5024 -173.4435,-224.61445 -180.0947,-249.55706 -53.90514,-8.39388 -24.7768,9.78373 -47.47896,18.4119 z"
       id="path4024-3"
       inkscape:connector-curvature="0"
       sodipodi:nodetypes="cccc" />
  </g>
  <g
     inkscape:groupmode="layer"
     id="layer1"
     inkscape:label="txt">
    <text
       xml:space="preserve"
       style="font-style:normal;font-variant:normal;font-weight:normal;font-stretch:normal;line-height:0%;font-family:Lavi;-inkscape-font-specification:Lavi;text-align:center;letter-spacing:0px;word-spacing:0px;text-anchor:middle;fill:#000000;fill-opacity:1;stroke:none;stroke-width:1.79999995;stroke-miterlimit:4;stroke-dasharray:none"
       x="392.25803"
       y="934.92853"
       id="text4246"><tspan
         sodipodi:role="line"
         style="font-size:51.59302139px;line-height:1.25;stroke-width:1.79999995;stroke-miterlimit:4;stroke-dasharray:none"
         x="392.25803"
         y="934.92853"
         id="tspan4176">Men <tspan
   style="stroke:#000000;stroke-width:1.67974544;stroke-miterlimit:4;stroke-dasharray:none;stroke-opacity:1"
   id="tspan4183">miljøet</tspan>!</tspan><tspan
         sodipodi:role="line"
         style="font-size:51.59302139px;line-height:1.25;stroke-width:1.79999995;stroke-miterlimit:4;stroke-dasharray:none"
         x="392.25803"
         y="999.4198"
         id="tspan66"><tspan
   style="stroke:#000000;stroke-width:1.67974544;stroke-miterlimit:4;stroke-dasharray:none;stroke-opacity:1"
   id="tspan68">Naturen</tspan>!</tspan></text>
    <text
       xml:space="preserve"
       style="font-style:normal;font-variant:normal;font-weight:normal;font-stretch:normal;line-height:0%;font-family:Lavi;-inkscape-font-specification:Lavi;text-align:center;letter-spacing:0px;word-spacing:0px;text-anchor:middle;fill:#000000;fill-opacity:1;stroke:none;stroke-width:1.89999998;stroke-miterlimit:4;stroke-dasharray:none"
       x="968.41083"
       y="234.85408"
       id="text4246-7"
       transform="scale(0.97469088,1.0259663)"><tspan
         sodipodi:role="line"
         style="font-size:58.48145294px;line-height:1.25;stroke:#000000;stroke-width:1.89999998;stroke-miterlimit:4;stroke-dasharray:none;stroke-opacity:1"
         x="968.41083"
         y="234.85408"
         id="tspan4224"> Det har aldrig</tspan><tspan
         sodipodi:role="line"
         style="font-size:58.48145294px;line-height:1.25;stroke:#000000;stroke-width:1.89999998;stroke-miterlimit:4;stroke-dasharray:none;stroke-opacity:1"
         x="968.41083"
         y="307.9559"
         id="tspan128">givet os</tspan><tspan
         sodipodi:role="line"
         style="font-size:58.48145294px;line-height:1.25;stroke:#000000;stroke-width:1.89999998;stroke-miterlimit:4;stroke-dasharray:none;stroke-opacity:1"
         x="968.41083"
         y="381.05771"
         id="tspan132">problemer</tspan><tspan
         sodipodi:role="line"
         style="font-size:58.48145294px;line-height:1.25;stroke:#000000;stroke-width:1.89999998;stroke-miterlimit:4;stroke-dasharray:none;stroke-opacity:1"
         x="968.41083"
         y="454.15952"
         id="tspan134">ind til videre!</tspan></text>
    <text
       xml:space="preserve"
       style="font-style:normal;font-variant:normal;font-weight:normal;font-stretch:normal;line-height:0%;font-family:Lavi;-inkscape-font-specification:Lavi;text-align:center;letter-spacing:0px;word-spacing:0px;text-anchor:middle;fill:#000000;fill-opacity:1;stroke:none;stroke-width:2.29999995;stroke-miterlimit:4;stroke-dasharray:none"
       x="1008.7495"
       y="1083.8488"
       id="text4246-7-9"
       transform="scale(0.97469088,1.0259663)"><tspan
         sodipodi:role="line"
         style="font-size:58.48145294px;line-height:1.25;stroke:#000000;stroke-width:2.24178886;stroke-miterlimit:4;stroke-dasharray:none;stroke-opacity:1"
         x="1008.7495"
         y="1083.8488"
         id="tspan4221-2">DYBT NED!</tspan></text>
    <text
       xml:space="preserve"
       style="font-style:normal;font-variant:normal;font-weight:normal;font-stretch:normal;line-height:0%;font-family:Lavi;-inkscape-font-specification:Lavi;text-align:center;letter-spacing:0px;word-spacing:0px;text-anchor:middle;fill:#000000;fill-opacity:1;stroke:none"
       x="393.99847"
       y="1068.822"
       id="text4246-70"><tspan
         sodipodi:role="line"
         style="font-size:45px;line-height:1.25"
         x="393.99847"
         y="1068.822"
         id="tspan98">Man kan ikke bare</tspan><tspan
         sodipodi:role="line"
         style="font-size:45px;line-height:1.25"
         x="393.99847"
         y="1125.072"
         id="tspan115">forurene det hele</tspan><tspan
         sodipodi:role="line"
         style="font-size:45px;line-height:1.25"
         x="393.99847"
         y="1181.322"
         id="tspan73">uden at det</tspan><tspan
         sodipodi:role="line"
         style="font-size:45px;line-height:1.25"
         x="401.90863"
         y="1237.572"
         id="tspan117">får konsekvenser! !!! </tspan></text>
    <text
       xml:space="preserve"
       style="font-style:normal;font-variant:normal;font-weight:normal;font-stretch:normal;line-height:0%;font-family:Lavi;-inkscape-font-specification:Lavi;text-align:center;letter-spacing:0px;word-spacing:0px;text-anchor:middle;fill:#000000;fill-opacity:1;stroke:none"
       x="969.58252"
       y="880.27979"
       id="text4246-70-2"><tspan
         sodipodi:role="line"
         style="font-size:45px;line-height:1.25"
         x="969.58252"
         y="880.27979"
         id="tspan4328">Vi er Kaosah-hekse!</tspan><tspan
         sodipodi:role="line"
         style="font-size:45px;line-height:1.25"
         x="969.58252"
         y="936.52979"
         id="tspan145">Og vi begraver</tspan><tspan
         sodipodi:role="line"
         style="font-size:45px;line-height:1.25"
         x="977.49268"
         y="992.77979"
         id="tspan147">vores problemer </tspan></text>
    <text
       xml:space="preserve"
       style="font-style:normal;font-variant:normal;font-weight:normal;font-stretch:normal;line-height:0%;font-family:Lavi;-inkscape-font-specification:Lavi;text-align:center;letter-spacing:0px;word-spacing:0px;text-anchor:middle;fill:#000000;fill-opacity:1;stroke:none"
       x="979.88812"
       y="1188.52"
       id="text4246-70-2-8"><tspan
         sodipodi:role="line"
         style="font-size:45px;line-height:1.25"
         x="979.88812"
         y="1188.52"
         id="tspan153">Traditionerne er</tspan><tspan
         sodipodi:role="line"
         style="font-size:45px;line-height:1.25"
         x="979.88812"
         y="1244.77"
         id="tspan93">ikke til diskussion!</tspan></text>
    <text
       xml:space="preserve"
       style="font-style:normal;font-variant:normal;font-weight:normal;font-stretch:normal;line-height:0%;font-family:Lavi;-inkscape-font-specification:Lavi;text-align:center;letter-spacing:0px;word-spacing:0px;text-anchor:middle;fill:#000000;fill-opacity:1;stroke:none"
       x="338.31299"
       y="1509.3076"
       id="text4246-70-2-2"><tspan
         sodipodi:role="line"
         style="font-size:45px;line-height:1.25"
         x="338.31299"
         y="1509.3076"
         id="tspan4406">Orv, se lige hvad</tspan><tspan
         sodipodi:role="line"
         style="font-size:45px;line-height:1.25"
         x="338.31299"
         y="1527.8412"
         id="tspan168" /><tspan
         sodipodi:role="line"
         style="font-size:45px;line-height:1.25"
         x="338.31299"
         y="1565.5576"
         id="tspan170">jeg fandt!</tspan><tspan
         sodipodi:role="line"
         style="font-size:45px;line-height:1.25"
         x="338.31299"
         y="1584.0912"
         id="tspan162" /><tspan
         sodipodi:role="line"
         style="font-size:45px;line-height:1.25"
         x="338.31299"
         y="1584.0912"
         id="tspan164" /></text>
    <text
       xml:space="preserve"
       style="font-style:normal;font-variant:normal;font-weight:normal;font-stretch:normal;line-height:0%;font-family:Lavi;-inkscape-font-specification:Lavi;text-align:center;letter-spacing:0px;word-spacing:0px;text-anchor:middle;fill:#000000;fill-opacity:1;stroke:none"
       x="405.02945"
       y="1612.4513"
       id="text4246-70-2-2-2"><tspan
         sodipodi:role="line"
         style="font-size:45px;line-height:1.25"
         x="405.02945"
         y="1615.9391"
         id="tspan4406-9" /><tspan
         sodipodi:role="line"
         style="font-size:45px;line-height:1.25"
         x="405.02945"
         y="1653.6555"
         id="tspan172">Jeg kan</tspan><tspan
         sodipodi:role="line"
         style="font-size:45px;line-height:1.25"
         x="405.02945"
         y="1709.9055"
         id="tspan180">ikke tro det!</tspan><tspan
         sodipodi:role="line"
         style="font-size:45px;line-height:1.25"
         x="405.02945"
         y="1728.4391"
         id="tspan176" /></text>
    <text
       xml:space="preserve"
       style="font-style:normal;font-variant:normal;font-weight:normal;font-stretch:normal;line-height:0%;font-family:Lavi;-inkscape-font-specification:Lavi;text-align:center;letter-spacing:0px;word-spacing:0px;text-anchor:middle;fill:#000000;fill-opacity:1;stroke:none"
       x="400.75806"
       y="2106.8105"
       id="text4246-70-2-2-2-7"><tspan
         sodipodi:role="line"
         style="font-size:45px;line-height:1.25"
         x="400.75806"
         y="2110.2983"
         id="tspan184" /><tspan
         sodipodi:role="line"
         style="font-size:45px;line-height:1.25"
         x="400.75806"
         y="2148.0149"
         id="tspan186">Hvordan kan</tspan><tspan
         sodipodi:role="line"
         style="font-size:45px;line-height:1.25"
         x="400.75806"
         y="2204.2649"
         id="tspan192">den være havnet her?</tspan><tspan
         sodipodi:role="line"
         style="font-size:45px;line-height:1.25"
         x="408.66821"
         y="2260.5149"
         id="tspan188" /></text>
    <text
       xml:space="preserve"
       style="font-style:normal;font-variant:normal;font-weight:normal;font-stretch:normal;line-height:0%;font-family:Lavi;-inkscape-font-specification:Lavi;text-align:center;letter-spacing:0px;word-spacing:0px;text-anchor:middle;fill:#000000;fill-opacity:1;stroke:none"
       x="509.49463"
       y="2473.7622"
       id="text4246-70-2-2-2-7-6"><tspan
         sodipodi:role="line"
         style="font-size:45px;line-height:1.25"
         x="509.49463"
         y="2473.7622"
         id="tspan4486">Den skal uden</tspan><tspan
         sodipodi:role="line"
         style="font-size:45px;line-height:1.25"
         x="509.49463"
         y="2530.0122"
         id="tspan100">tvivl stemmes,</tspan><tspan
         sodipodi:role="line"
         style="font-size:45px;line-height:1.25"
         x="509.49463"
         y="2586.2622"
         id="tspan104">men den lyder stadig fint.</tspan></text>
    <flowRoot
       xml:space="preserve"
       id="flowRoot75"
       style="fill:black;fill-opacity:1;stroke:none;font-family:sans-serif;font-style:normal;font-weight:normal;font-size:96px;line-height:1.25;letter-spacing:0px;word-spacing:0px"><flowRegion
         id="flowRegion77"><rect
           id="rect79"
           width="394.11685"
           height="113.52279"
           x="781.80786"
           y="1033.3439" /></flowRegion><flowPara
         id="flowPara81" /></flowRoot>    <flowRoot
       xml:space="preserve"
       id="flowRoot83"
       style="fill:black;fill-opacity:1;stroke:none;font-family:sans-serif;font-style:normal;font-weight:normal;font-size:96px;line-height:1.25;letter-spacing:0px;word-spacing:0px"><flowRegion
         id="flowRegion85"><rect
           id="rect87"
           width="237.75528"
           height="280.59406"
           x="1364.4154"
           y="759.1756" /></flowRegion><flowPara
         id="flowPara89" /></flowRoot>  </g>
</svg>
