<?xml version="1.0" encoding="UTF-8" standalone="no"?>
<!-- Created with Inkscape (http://www.inkscape.org/) -->

<svg
   id="svg2"
   version="1.1"
   inkscape:version="1.1 (c68e22c387, 2021-05-23)"
   width="2481"
   height="3503"
   sodipodi:docname="E36P15.svg"
   xmlns:inkscape="http://www.inkscape.org/namespaces/inkscape"
   xmlns:sodipodi="http://sodipodi.sourceforge.net/DTD/sodipodi-0.dtd"
   xmlns:xlink="http://www.w3.org/1999/xlink"
   xmlns="http://www.w3.org/2000/svg"
   xmlns:svg="http://www.w3.org/2000/svg"
   xmlns:rdf="http://www.w3.org/1999/02/22-rdf-syntax-ns#"
   xmlns:cc="http://creativecommons.org/ns#"
   xmlns:dc="http://purl.org/dc/elements/1.1/">
  <metadata
     id="metadata8">
    <rdf:RDF>
      <cc:Work
         rdf:about="">
        <dc:format>image/svg+xml</dc:format>
        <dc:type
           rdf:resource="http://purl.org/dc/dcmitype/StillImage" />
      </cc:Work>
    </rdf:RDF>
  </metadata>
  <defs
     id="defs6" />
  <sodipodi:namedview
     pagecolor="#1e1e1e"
     bordercolor="#111111"
     borderopacity="1"
     objecttolerance="10"
     gridtolerance="10"
     guidetolerance="10"
     inkscape:pageopacity="0"
     inkscape:pageshadow="2"
     inkscape:window-width="1920"
     inkscape:window-height="1017"
     id="namedview4"
     showgrid="false"
     inkscape:zoom="0.56889776"
     inkscape:cx="1046.761"
     inkscape:cy="2361.5843"
     inkscape:window-x="-8"
     inkscape:window-y="-8"
     inkscape:window-maximized="1"
     inkscape:current-layer="layer3"
     inkscape:pagecheckerboard="0"
     inkscape:snap-global="false" />
  <g
     inkscape:groupmode="layer"
     id="layer2"
     inkscape:label="artwork"
     sodipodi:insensitive="true">
    <image
       xlink:href="../gfx_Pepper-and-Carrot_by-David-Revoy_E36P15.png"
       y="0"
       x="0"
       id="image10"
       height="3503"
       width="2481" />
  </g>
  <g
     inkscape:groupmode="layer"
     id="layer3"
     inkscape:label="speechbubbles"
     style="display:inline">
    <path
       sodipodi:nodetypes="zssssz"
       inkscape:connector-curvature="0"
       id="path4040-4-9-3"
       d="m 306.71173,1095.7409 c -34.16885,0.4967 -68.67021,7.4519 -99.08026,23.2978 -15.32754,8.7858 -28.67782,22.0107 -35.04213,38.6421 -5.88172,19.2331 -6.48015,40.4924 0.64285,59.4854 8.14164,20.1699 26.67434,35.5594 47.82733,40.759 19.45871,5.1853 39.75625,2.8076 59.59644,2.1517 16.29188,-0.7229 32.6367,-1.0122 48.90752,0.2808 33.08816,1.2074 66.22251,-0.7076 99.1269,-4.1379 14.94791,-1.9898 30.13004,-6.7775 41.51414,-16.9816 13.10065,-11.6681 19.67234,-29.1673 20.6051,-46.3471 1.12722,-15.5661 -1.3374,-31.9952 -10.19405,-45.1903 -8.06025,-11.8157 -20.44807,-19.5883 -32.23716,-27.2862 -17.35618,-11.0037 -36.98403,-18.9852 -57.59463,-20.9941 -26.51382,-3.3734 -53.29597,-3.4548 -79.98176,-3.6856 -1.36343,0 -2.72685,0 -4.09029,0.01 z"
       style="color:#000000;display:inline;overflow:visible;visibility:visible;fill:#ffffff;fill-opacity:1;fill-rule:nonzero;stroke:none;stroke-width:0.928823px;marker:none;enable-background:accumulate" />
    <path
       sodipodi:nodetypes="zssssz"
       inkscape:connector-curvature="0"
       id="path4040-4-9-3-0"
       d="m 1093.3591,1274.9223 c -53.9322,-0.6452 -108.8713,-5.7225 -159.63503,-27.2362 -16.80586,-7.1074 -32.59175,-21.0634 -37.64152,-40.8274 -6.14376,-23.5475 3.3514,-49.2855 19.62694,-64.9858 14.44291,-14.2208 33.4059,-20.8677 51.78837,-26.1281 33.62924,-8.7248 68.33844,-10.0899 102.71844,-11.6213 73.9575,-2.5795 147.9032,2.5414 221.6221,8.6252 30.7261,2.8393 62.4636,9.1366 88.6378,28.2133 23.5858,19.2428 32.0353,59.0686 16.2284,86.9357 -10.7683,19.0725 -29.9865,30.425 -49.5979,34.4716 -31.3465,7.0561 -63.4717,7.8082 -95.3307,9.3 -38.4289,1.5299 -76.8835,2.1286 -115.3288,2.9692 -14.3615,0.2288 -28.7248,0.3939 -43.0881,0.2838 z"
       style="color:#000000;display:inline;overflow:visible;visibility:visible;fill:#ffffff;fill-opacity:1;fill-rule:nonzero;stroke:none;stroke-width:1.22942px;marker:none;enable-background:accumulate" />
    <path
       sodipodi:nodetypes="zssssz"
       inkscape:connector-curvature="0"
       id="path4040-4-9-3-0-9"
       d="m 1520.0654,1320.1688 c -47.4628,-1.0037 -95.8406,-8.428 -137.3074,-27.7733 -24.5904,-12.2732 -37.8963,-35.8973 -37.783,-58.7539 -1.2224,-27.7157 11.8503,-56.6443 38.7409,-74.641 24.0475,-15.6833 54.8167,-22.3535 84.8068,-26.3641 40.9687,-5.1772 82.5301,-6.338 123.9374,-6.647 53.625,0.045 107.4614,2.9455 160.0984,11.4796 30.6067,6.217 60.4997,18.9237 79.3457,39.8348 20.4857,23.2254 26.5375,55.3198 11.5265,81.5509 -12.9122,23.2369 -40.8476,40.2318 -71.8069,44.8824 -45.1528,9.4339 -92.0137,10.3775 -138.2934,12.9932 -37.6917,2.1136 -75.4722,3.6074 -113.265,3.4384 z"
       style="color:#000000;display:inline;overflow:visible;visibility:visible;fill:#ffffff;fill-opacity:1;fill-rule:nonzero;stroke:none;stroke-width:1.30403px;marker:none;enable-background:accumulate" />
    <path
       style="fill:#ffffff;fill-rule:evenodd;stroke:none;stroke-width:1.0393px;stroke-linecap:butt;stroke-linejoin:miter;stroke-opacity:1"
       d="m 313.72951,1240.1318 c -44.605,0.8784 -89.46005,-0.2682 -133.77834,4.2836 -14.11465,1.6342 -27.68576,5.7546 -39.11468,12.1291 -22.31128,12.0615 -37.13909,31.2571 -40.25162,51.5708 -3.49296,17.1735 -3.154024,34.9901 3.14628,51.7912 5.93447,13.996 19.19876,26.3832 36.97409,33.0376 19.8623,7.9949 42.34835,11.1675 64.34872,14.1763 42.49,5.3329 85.7614,5.8753 128.74667,5.1205 30.62758,-0.7154 61.09803,-3.3031 91.68791,-4.5014 28.16845,-1.3479 56.6566,-3.6042 83.3201,-10.8702 12.83643,-3.2988 26.4009,-7.1546 35.18311,-15.2347 9.91203,-9.4543 12.67164,-21.7177 13.97901,-33.3419 2.00406,-20.0022 -0.60826,-40.3548 -8.62927,-59.5404 -3.33163,-7.5667 -7.40828,-15.1191 -13.81964,-21.5589 -8.90317,-7.8136 -22.16097,-11.842 -35.1906,-14.389 -31.93183,-7.8205 -65.86166,-8.5722 -99.1523,-9.7567 -29.1363,-1.1469 -58.24393,-3.1814 -87.44944,-2.9159 z"
       id="path4430-0"
       inkscape:connector-curvature="0"
       sodipodi:nodetypes="cccc" />
    <path
       style="fill:#ffffff;fill-rule:evenodd;stroke:none;stroke-width:0.914223px;stroke-linecap:butt;stroke-linejoin:miter;stroke-opacity:1"
       d="m 486.57288,1577.4452 c 28.81918,-66.6247 20.74358,-99.1008 19.77331,-112.4088 -16.52174,10.815 -24.86604,14.1576 -24.65914,13.2895 3.00972,-12.6265 -35.44872,-115.6984 -44.45394,-112.059 l 18.96701,-39.5995 c 16.57291,47.9099 30.322,74.2909 38.66556,123.6461 0,0 15.80065,-9.8432 23.58886,-12.9706 2.56416,11.9254 27.41455,66.0411 -31.88166,140.1023 z"
       id="path891"
       inkscape:connector-curvature="0"
       sodipodi:nodetypes="ccsccccc" />
    <path
       id="path889"
       style="fill:#ffffff;fill-rule:evenodd;stroke:none;stroke-width:1.16912px;stroke-linecap:butt;stroke-linejoin:miter;stroke-opacity:1"
       d="m 2296.3652,1086.6998 c -54.9342,0.2436 -109.8719,0.2796 -164.8075,0.4355 -47.4814,0.099 -94.9629,0.1967 -142.4444,0.2949 -8.1673,6.4832 -14.0865,15.6019 -20.1539,24.2565 -19.3139,29.8495 -29.8342,65.2908 -36.201,100.8492 -6.7034,38.6817 -8.1257,78.9054 -0.6155,117.5785 4.2281,20.312 12.697,40.3044 27.3238,54.1825 12.9632,12.7094 29.5968,20.2592 46.6373,23.5551 23.7839,5.7946 48.066,8.5965 72.2721,11.3306 39.4868,3.3678 79.1109,3.9155 118.6758,5.483 31.168,-0.1088 61.7861,-7.6681 91.8311,-16.0366 16.8167,-5.0681 33.5734,-11.4542 48.2962,-21.8456 15.7018,-13.0346 24.8256,-33.5403 28.3635,-54.356 9.3224,-43.4712 11.5811,-89.0024 4.4067,-133.0641 -3.9654,-25.6965 -10.4425,-51.2518 -21.8893,-74.2534 -7.6505,-14.6178 -18.3501,-28.4279 -33.0349,-34.7676 -5.9286,-2.5071 -12.3015,-3.7541 -18.66,-3.6425 z" />
    <path
       style="display:inline;fill:#ffffff;stroke:none;stroke-width:0.912419"
       d="m 2008.3294,1540.6989 c -33.153,-32.8759 -38.8858,-123.5948 0.3904,-163.0573 23.1728,-23.2827 35.5381,-37.608 35.5381,-37.608 l -25.8875,-19.1211 c -94.4367,86.4289 -50.0669,186.6132 -10.041,219.7864 z"
       id="path3063-1-0"
       inkscape:connector-curvature="0"
       sodipodi:nodetypes="csccc" />
    <path
       style="fill:#ffffff;fill-rule:evenodd;stroke:none;stroke-width:0.961688px;stroke-linecap:butt;stroke-linejoin:miter;stroke-opacity:1"
       d="m 1453.1982,2276.9601 c -37.5584,0.7209 -75.619,4.937 -111.1019,19.2532 -16.8796,7.0214 -33.0246,18.3438 -42.9382,35.3158 -9.5652,22.3935 -8.852,50.2724 3.279,71.3356 6.6816,11.7074 16.7439,20.6304 27.838,26.8936 15.1686,8.7274 31.8763,13.6364 48.5859,17.2869 27.8336,5.6417 56.2323,6.802 84.4753,6.7593 37.0589,-0.385 74.1299,-3.784 110.6456,-10.8037 23.2722,-5.4436 46.8658,-12.741 66.5867,-27.9402 9.8021,-10.8078 13.8217,-26.0628 16.2923,-40.6829 4.0506,-23.8316 -4.3275,-50.3014 -22.363,-64.7079 -12.7624,-9.7548 -28.0585,-14.134 -42.9054,-18.3647 -24.6237,-6.2869 -49.8576,-8.7888 -74.9484,-11.6675 -21.0957,-1.983 -42.2761,-2.7925 -63.4459,-2.6775 z"
       id="path4430-0-7"
       inkscape:connector-curvature="0"
       sodipodi:nodetypes="cccc" />
    <path
       style="display:inline;fill:#ffffff;fill-rule:evenodd;stroke:none;stroke-width:0.828573px;stroke-linecap:butt;stroke-linejoin:miter;stroke-opacity:1"
       d="m 1113.5821,2911.0757 c -37.7543,1.2904 -76.5598,7.4984 -108.5817,23.0001 -24.08833,12.5925 -35.80909,34.771 -33.46507,55.2942 0.93105,20.6068 14.76069,41.2089 39.44347,52.1751 23.3884,10.5852 51.0278,15.3855 78.4005,18.2462 40.2679,3.8887 81.744,5.4684 122.1298,-0.6692 24.7712,-3.9203 49.6527,-10.2894 69.6884,-21.9288 12.6478,-7.266 22.35,-17.1474 26.8665,-28.2272 8.7761,-19.3924 8.6606,-41.075 -2.9493,-59.4614 -9.7127,-14.1443 -29.0646,-24.1587 -50.5822,-27.611 -31.3289,-6.5464 -64.1977,-8.567 -96.7568,-10.5458 -14.694,-0.5997 -29.448,-0.7044 -44.1936,-0.2722 z"
       id="path4430-0-7-3"
       inkscape:connector-curvature="0"
       sodipodi:nodetypes="cccc" />
    <path
       style="color:#000000;display:inline;overflow:visible;visibility:visible;fill:#ffffff;fill-opacity:1;fill-rule:nonzero;stroke:none;stroke-width:0.933879px;marker:none;enable-background:accumulate"
       d="m 1510.6073,2424.7097 c 95.8683,30.7313 27.8183,159.8015 -2.9543,189.2123 50.4373,-43.5579 100.0481,-123.5802 33.0541,-217.2104 -31.2156,-43.6267 -19.8493,18.5629 -19.8493,18.5629 z"
       id="path4035-4"
       inkscape:connector-curvature="0"
       sodipodi:nodetypes="ccscc" />
    <path
       style="color:#000000;display:inline;overflow:visible;visibility:visible;fill:#ffffff;fill-opacity:1;fill-rule:nonzero;stroke:none;stroke-width:1.40713px;marker:none;enable-background:accumulate"
       d="m 1082.1543,2128.284 c -70.1206,1.1522 -140.41128,1.5229 -209.98372,5.682 -41.09066,2.9059 -82.58694,8.6127 -117.77437,27.5924 -24.88865,13.916 -46.60978,35.5444 -54.75848,65.2808 -5.05864,19.071 -1.76696,41.5411 8.85376,60.7881 12.52907,23.6547 35.01351,42.5269 59.16847,48.4915 31.63875,9.8812 63.58296,12.0348 95.35653,17.8358 100.88689,13.9176 200.13821,9.9174 298.59141,5.2376 38.2716,-2.0532 76.9453,-4.555 112.4132,-16.2353 24.56,-8.6602 47.741,-23.8341 58.9858,-48.7552 15.3333,-35.521 2.6795,-86.84 -30.93,-115.5798 -25.5717,-21.7001 -56.7508,-30.6961 -86.4563,-37.6358 -44.6936,-9.8339 -89.4532,-12.9693 -133.4663,-12.7021 z"
       id="path4546-6-5-5"
       inkscape:connector-curvature="0"
       sodipodi:nodetypes="cssssc" />
    <path
       style="color:#000000;display:inline;overflow:visible;visibility:visible;fill:#ffffff;fill-opacity:1;fill-rule:nonzero;stroke:none;stroke-width:0.511885px;marker:none;enable-background:accumulate"
       d="m 1198.7358,2292.3553 c -58.4517,90.8359 85.6046,288.3485 132.7428,310.3129 -51.7175,-3.6213 -215.024,-222.6528 -167.3541,-289.5926 16.3894,-23.014 93.063,-111.5562 34.6113,-20.7203 z"
       id="path4480-6"
       inkscape:connector-curvature="0"
       sodipodi:nodetypes="zcsz" />
    <path
       style="fill:#ffffff;stroke:none;stroke-width:1.22863"
       d="m 1132.3337,2836.1319 c 6.9881,13.1882 16.9513,18.3851 13.6567,35.0595 -18.6808,32.3624 -3.398,71.476 20.2436,84.4218 3.4934,10.3144 -10.2432,41.0229 -10.2432,41.0229 -31.6711,-50.3948 -47.4892,-83.1315 -25.5958,-126.3842 3.8504,-6.927 -8.3872,-14.7062 -12.2361,-26.3855 -3.8491,-11.6793 -4.7084,-20.1125 -0.097,-40.9935 3.9527,-17.898 39.9891,-41.3608 39.9891,-41.3608 -27.433,31.2471 -35.5926,52.7621 -25.7173,74.6198 z"
       id="path3023-4"
       inkscape:connector-curvature="0"
       sodipodi:nodetypes="cccccsscc" />
    <path
       style="color:#000000;display:inline;overflow:visible;visibility:visible;fill:#ffffff;fill-opacity:1;fill-rule:nonzero;stroke:none;stroke-width:1.24837px;marker:none;enable-background:accumulate"
       d="m 1380.3027,1450.8419 c 65.8497,-28.0462 78.4621,-86.1375 90.2102,-126.6975 16.6063,-57.3342 1.8435,-63.2522 1.8435,-63.2522 l 29.8886,-4.9473 c 11.5377,-2.8141 4.798,161.6465 -121.9423,194.897 z"
       id="path3072-1-3"
       inkscape:connector-curvature="0"
       sodipodi:nodetypes="csccc" />
  </g>
  <g
     inkscape:groupmode="layer"
     id="layer1"
     inkscape:label="txt"
     style="display:inline">
    <text
       id="text4246-4-2-7"
       y="1168.6454"
       x="326.61557"
       style="font-style:normal;font-variant:normal;font-weight:normal;font-stretch:normal;line-height:0%;font-family:Lavi;-inkscape-font-specification:Lavi;text-align:center;letter-spacing:0px;word-spacing:0px;text-anchor:middle;fill:#000000;fill-opacity:1;stroke:none"
       xml:space="preserve"><tspan
         y="1168.6454"
         x="326.61557"
         style="font-size:45px;line-height:1.25"
         sodipodi:role="line"
         id="tspan6345">¿Pero qué es</tspan><tspan
         y="1224.8954"
         x="326.61557"
         style="font-size:45px;line-height:1.25"
         sodipodi:role="line"
         id="tspan115530">lo que veo?</tspan></text>
    <text
       id="text4246-4-2-7-3"
       y="1307.0507"
       x="330.63736"
       style="font-style:normal;font-variant:normal;font-weight:normal;font-stretch:normal;line-height:0%;font-family:Lavi;-inkscape-font-specification:Lavi;text-align:center;letter-spacing:0px;word-spacing:0px;text-anchor:middle;fill:#000000;fill-opacity:1;stroke:none"
       xml:space="preserve"><tspan
         y="1307.0507"
         x="330.63736"
         style="font-size:45px;line-height:1.25"
         sodipodi:role="line"
         id="tspan48107">¡¿Algunos de ellos</tspan><tspan
         y="1363.3007"
         x="330.63736"
         style="font-size:45px;line-height:1.25"
         sodipodi:role="line"
         id="tspan13938">se están <tspan
   style="font-weight:bold"
   id="tspan24716">besando…?!</tspan></tspan></text>
    <text
       id="text4246-4-2-7-3-6"
       y="1176.2039"
       x="1154.6746"
       style="font-style:normal;font-variant:normal;font-weight:normal;font-stretch:normal;line-height:0%;font-family:Lavi;-inkscape-font-specification:Lavi;text-align:center;letter-spacing:0px;word-spacing:0px;text-anchor:middle;fill:#000000;fill-opacity:1;stroke:none"
       xml:space="preserve"><tspan
         y="1176.2039"
         x="1154.6746"
         style="font-size:45px;line-height:1.25"
         sodipodi:role="line"
         id="tspan31052">Oh… ¡Serán un montón</tspan><tspan
         y="1232.4539"
         x="1154.6746"
         style="font-size:45px;line-height:1.25"
         sodipodi:role="line"
         id="tspan125680"> de parejas nuevas!</tspan></text>
    <text
       id="text4246-4-2-7-3-6-3"
       y="1209.6427"
       x="1601.8838"
       style="font-style:normal;font-variant:normal;font-weight:normal;font-stretch:normal;line-height:0%;font-family:Lavi;-inkscape-font-specification:Lavi;text-align:center;letter-spacing:0px;word-spacing:0px;text-anchor:middle;fill:#000000;fill-opacity:1;stroke:none"
       xml:space="preserve"><tspan
         y="1209.6427"
         x="1601.8838"
         style="font-size:45px;line-height:1.25"
         sodipodi:role="line"
         id="tspan44730">¿Se supone que debía</tspan><tspan
         y="1265.8927"
         x="1601.8838"
         style="font-size:45px;line-height:1.25"
         sodipodi:role="line"
         id="tspan127538"> ocurrir eso, Pepper?</tspan></text>
    <text
       id="text4246-4-2-7-3-6-3-6"
       y="1144.2382"
       x="2152.9924"
       style="font-style:normal;font-variant:normal;font-weight:normal;font-stretch:normal;line-height:0%;font-family:Lavi;-inkscape-font-specification:Lavi;text-align:center;letter-spacing:0px;word-spacing:0px;text-anchor:middle;fill:#000000;fill-opacity:1;stroke:none"
       xml:space="preserve"><tspan
         y="1144.2382"
         x="2152.9924"
         style="font-size:45px;line-height:1.25"
         sodipodi:role="line"
         id="tspan61898">¡Oh, no! </tspan><tspan
         y="1200.4882"
         x="2152.9924"
         style="font-size:45px;line-height:1.25"
         sodipodi:role="line"
         id="tspan87824">Creo que el Rea </tspan><tspan
         y="1256.7382"
         x="2152.9924"
         style="font-size:45px;line-height:1.25"
         sodipodi:role="line"
         id="tspan84608">del dragón debió</tspan><tspan
         y="1312.9882"
         x="2152.9924"
         style="font-size:45px;line-height:1.25"
         sodipodi:role="line"
         id="tspan65216"> amplificar el amor</tspan><tspan
         y="1369.2382"
         x="2152.9924"
         style="font-size:45px;line-height:1.25"
         sodipodi:role="line"
         id="tspan97452"> en mi hechizo.</tspan></text>
    <text
       id="text4246-4-2-7-3-6-3-6-1"
       y="2207.3054"
       x="1012.6952"
       style="font-style:normal;font-variant:normal;font-weight:normal;font-stretch:normal;line-height:0%;font-family:Lavi;-inkscape-font-specification:Lavi;text-align:center;letter-spacing:0px;word-spacing:0px;text-anchor:middle;fill:#000000;fill-opacity:1;stroke:none"
       xml:space="preserve"><tspan
         y="2207.3054"
         x="1012.6952"
         style="font-size:45px;line-height:1.25"
         sodipodi:role="line"
         id="tspan103411">Ja, ja, esta batalla</tspan><tspan
         y="2263.5554"
         x="1012.6952"
         style="font-size:45px;line-height:1.25"
         sodipodi:role="line"
         id="tspan106191"> será seguramente recordada </tspan><tspan
         y="2319.8054"
         x="1012.6952"
         style="font-size:45px;line-height:1.25"
         sodipodi:role="line"
         id="tspan109377">en los libros de historia.</tspan></text>
    <text
       id="text4246-4-2-7-3-6-3-6-1-3"
       y="2346.5227"
       x="1471.3495"
       style="font-style:normal;font-variant:normal;font-weight:normal;font-stretch:normal;line-height:0%;font-family:Lavi;-inkscape-font-specification:Lavi;text-align:center;letter-spacing:0px;word-spacing:0px;text-anchor:middle;fill:#000000;fill-opacity:1;stroke:none"
       xml:space="preserve"><tspan
         y="2346.5227"
         x="1471.3495"
         style="font-size:45px;line-height:1.25"
         sodipodi:role="line"
         id="tspan83228-9">¡Ji-ji,</tspan></text>
    <text
       id="text4246-4-2-7-3-6-3-6-1-3-2"
       y="2401.8772"
       x="1473.7375"
       style="font-style:normal;font-variant:normal;font-weight:normal;font-stretch:normal;line-height:0%;font-family:Lavi;-inkscape-font-specification:Lavi;text-align:center;letter-spacing:0px;word-spacing:0px;text-anchor:middle;fill:#000000;fill-opacity:1;stroke:none"
       xml:space="preserve"><tspan
         y="2401.8772"
         x="1473.7375"
         style="font-size:45px;line-height:1.25"
         sodipodi:role="line"
         id="tspan83228-9-2">definitivamente!</tspan></text>
    <text
       id="text4246-4-2-7-3-6-3-6-1-3-2-8"
       y="2974.0247"
       x="1141.675"
       style="font-style:normal;font-variant:normal;font-weight:normal;font-stretch:normal;font-size:42px;line-height:0%;font-family:Lavi;-inkscape-font-specification:Lavi;text-align:center;letter-spacing:0px;word-spacing:0px;text-anchor:middle;fill:#000000;fill-opacity:1;stroke:none"
       xml:space="preserve"><tspan
         y="2974.0247"
         x="1141.675"
         style="font-size:42px;line-height:1.25"
         sodipodi:role="line"
         id="tspan123908">¡Ooohhh, qué</tspan><tspan
         y="3026.5247"
         x="1141.675"
         style="font-size:42px;line-height:1.25"
         sodipodi:role="line"
         id="tspan130424"> vergüenza!</tspan></text>
    <text
       transform="matrix(0.85852879,0,-0.29243083,1.1647833,0,0)"
       id="text4213-7"
       y="2982.4719"
       x="2454.0139"
       style="font-style:normal;font-variant:normal;font-weight:normal;font-stretch:normal;font-size:10.7631px;line-height:0%;font-family:Lavi;-inkscape-font-specification:Lavi;text-align:center;letter-spacing:0px;word-spacing:0px;text-anchor:middle;display:inline;fill:#d97041;fill-opacity:1;stroke:#000000;stroke-width:0;stroke-miterlimit:4;stroke-dasharray:none;stroke-opacity:1"
       xml:space="preserve"><tspan
         style="font-style:normal;font-variant:normal;font-weight:bold;font-stretch:normal;font-size:64.7408px;line-height:1.25;font-family:Lavi;-inkscape-font-specification:'Lavi Bold';fill:#d97041;fill-opacity:1;stroke:none;stroke-width:0;stroke-miterlimit:4;stroke-dasharray:none"
         y="2982.4719"
         x="2454.0139"
         id="tspan3562-5"
         sodipodi:role="line">- FIN -</tspan></text>
  </g>
</svg>
