<?xml version="1.0" encoding="UTF-8" standalone="no"?>
<svg
   id="svg2"
   version="1.1"
   inkscape:version="1.3 (0e150ed6c4, 2023-07-21)"
   width="2481"
   height="3503"
   sodipodi:docname="E35P06.svg"
   xmlns:inkscape="http://www.inkscape.org/namespaces/inkscape"
   xmlns:sodipodi="http://sodipodi.sourceforge.net/DTD/sodipodi-0.dtd"
   xmlns:xlink="http://www.w3.org/1999/xlink"
   xmlns="http://www.w3.org/2000/svg"
   xmlns:svg="http://www.w3.org/2000/svg"
   xmlns:rdf="http://www.w3.org/1999/02/22-rdf-syntax-ns#"
   xmlns:cc="http://creativecommons.org/ns#"
   xmlns:dc="http://purl.org/dc/elements/1.1/">
  <metadata
     id="metadata8">
    <rdf:RDF>
      <cc:Work
         rdf:about="">
        <dc:format>image/svg+xml</dc:format>
        <dc:type
           rdf:resource="http://purl.org/dc/dcmitype/StillImage" />
        <dc:title />
      </cc:Work>
    </rdf:RDF>
  </metadata>
  <defs
     id="defs6" />
  <sodipodi:namedview
     pagecolor="#ffffff"
     bordercolor="#666666"
     borderopacity="1"
     objecttolerance="10"
     gridtolerance="10"
     guidetolerance="10"
     inkscape:pageopacity="0"
     inkscape:pageshadow="2"
     inkscape:window-width="1888"
     inkscape:window-height="1144"
     id="namedview4"
     showgrid="false"
     inkscape:zoom="0.37194737"
     inkscape:cx="1243.4555"
     inkscape:cy="2136.0549"
     inkscape:window-x="32"
     inkscape:window-y="0"
     inkscape:window-maximized="1"
     inkscape:current-layer="layer1"
     inkscape:document-rotation="0"
     inkscape:snap-global="false"
     inkscape:pagecheckerboard="0"
     inkscape:showpageshadow="0"
     inkscape:deskcolor="#d1d1d1" />
  <g
     inkscape:groupmode="layer"
     id="layer2"
     inkscape:label="artwork"
     sodipodi:insensitive="true">
    <image
       xlink:href="../gfx_Pepper-and-Carrot_by-David-Revoy_E35P06.png"
       width="2481"
       height="3503.4727"
       id="image10"
       x="0"
       y="0" />
  </g>
  <g
     inkscape:groupmode="layer"
     id="layer3"
     inkscape:label="speechbubbles"
     style="display:inline">
    <path
       style="fill:#ffe4a0;stroke:none;stroke-width:0.781472;fill-opacity:1"
       d="m 580.67171,184.25281 c -12.86984,0.30341 -25.71474,1.33785 -38.50912,2.69526 -19.75755,2.26548 -39.51101,6.01424 -58.04109,13.30406 -22.00094,9.43066 -38.41747,29.93744 -43.6438,52.99462 -8.32114,27.52751 -9.00473,57.74148 0.5288,85.10493 6.26432,16.87526 20.26554,30.13418 36.40828,37.8959 26.13889,12.95892 55.35439,19.89674 84.58686,19.55026 17.75056,0.0622 35.51193,-0.59966 53.19082,-2.14455 21.66436,-2.12521 43.46391,-7.4667 62.05727,-18.99247 12.35992,-7.72164 22.37397,-19.3073 27.32241,-32.99686 4.38309,-11.55453 5.19872,-24.07769 4.69573,-36.31881 -0.33787,-20.76713 -1.15124,-41.92063 -7.7882,-61.82486 -4.46115,-12.85969 -14.11651,-23.45161 -25.38602,-30.96919 -7.74614,-5.16688 -16.39517,-8.78408 -24.94549,-12.4113 -20.36533,-8.25835 -41.94325,-13.78952 -63.88749,-15.5839 -2.19287,-0.16459 -4.39054,-0.26288 -6.58896,-0.30309 z"
       id="path3286-6"
       inkscape:connector-curvature="0"
       sodipodi:nodetypes="csssssssc" />
    <path
       style="display:inline;fill:#fae3a5;fill-opacity:1;fill-rule:evenodd;stroke:none;stroke-width:1.10826px;stroke-linecap:butt;stroke-linejoin:miter;stroke-opacity:1"
       d="m 77.803364,1481.4763 c 35.367646,9.8329 24.208046,18.8498 4.709036,33.251 10.963715,-1.1359 33.10025,6.5372 17.89578,31.2675 33.19899,-8.9846 32.39079,9.6087 29.6931,18.7495 16.30715,-3.1468 47.08806,-9.0337 30.07421,23.3088 16.43577,-7.2471 30.83393,-29.144 28.96217,5.7116 13.30576,-4.3266 30.78784,-20.9963 33.00656,7.445 17.58876,-14.0407 35.0632,-26.0197 50.77841,-6.2609 16.34543,-28.5989 32.84555,-18.4637 44.02457,9.8643 5.25231,-34.3347 36.42869,-20.4842 55.99678,15.4777 -6.21317,-29.7523 -32.59588,-70.8713 45.75597,-10.6909 -33.25013,-44.2073 -37.33194,-61.2183 60.66776,-12.4797 -12.50564,-17.907 -32.80694,-60.9586 47.13778,-14.5868 -54.2591,-53.2099 -22.24589,-58.8201 16.77078,-68.4347 -47.37974,-1.4197 -61.34654,-15.3456 -10.78035,-21.2503 -77.48169,-6.9099 -58.72253,-24.0495 -34.05983,-52.7418 -39.6492,21.8925 -33.96146,9.1525 -24.45591,-2.4912 -56.34322,14.317 -41.07936,-13.4067 -34.57227,-27.6008 -34.61318,15.0322 -45.34029,13.3147 -42.08837,-9.3678 -19.2143,19.4288 -30.45286,14.4475 -28.62328,6.8059 l -55.97446,0 -212.58822,-0.3367 c 11.63036,22.1839 14.87787,20.4121 -22.377601,46.5507 41.794241,9.2164 27.318091,18.1886 0.04739,27.8071 z"
       id="path961"
       sodipodi:nodetypes="ccccccccccccccccccccccccc" />
    <path
       style="color:#000000;display:inline;overflow:visible;visibility:visible;fill:#f0ddaf;fill-opacity:1;fill-rule:nonzero;stroke:none;stroke-width:0.843249px;marker:none;enable-background:accumulate"
       d="m 682.95311,2285.3556 c -5.32027,-35.9524 8.86738,-131.4529 117.93499,-123.5877 109.06759,7.8642 126.80221,52.8058 129.46235,66.2874 2.66013,13.4827 25.71509,89.8831 -59.41078,110.1061 -85.12605,20.2239 -161.38463,-1.1239 -187.98656,-52.8058 z"
       id="path3525-0"
       inkscape:connector-curvature="0" />
    <path
       style="color:#000000;display:inline;overflow:visible;visibility:visible;fill:#f0ddaf;fill-opacity:1;fill-rule:nonzero;stroke:none;stroke-width:1px;marker:none;enable-background:accumulate"
       d="m 777.45911,2075.5812 c 24.221,32.672 31.0089,45.658 8.1243,87.146 -22.8847,41.487 -7.3195,49.577 -7.3195,49.577 l 28.2503,-15.376 c 0,0 42.659,-91.848 -29.0551,-121.347 z"
       id="path3072-56"
       inkscape:connector-curvature="0" />
    <path
       style="color:#000000;display:inline;overflow:visible;visibility:visible;fill:#ffe4a0;fill-opacity:1;fill-rule:nonzero;stroke:none;stroke-width:1px;marker:none;enable-background:accumulate"
       d="m 757.20529,437.27786 c -47.0829,-20.24287 -67.22496,-54.55991 -84.15983,-115.70701 -17.59681,-45.717 -36.07245,-33.52653 -36.07245,-33.52653 l 6.37734,17.91035 c 0,0 -3.04742,117.01808 113.85494,131.32319 z"
       id="path3072-5-5"
       inkscape:connector-curvature="0"
       sodipodi:nodetypes="ccccc" />
    <path
       style="display:inline;fill:#fae3a5;fill-opacity:1;stroke:none;stroke-width:1.10947"
       d="m 360.93039,1570.862 c 21.51156,33.7205 38.79051,39.1501 50.26035,53.0664 11.46981,13.9172 -2.88402,43.4737 0.19353,53.5399 3.70439,9.4958 0.69509,16.2497 29.83986,39.4536 -46.26,-20.9908 -40.86354,-33.0957 -44.26871,-41.9175 -4.68096,-12.128 3.84885,-26.4644 -8.51834,-37.4754 -11.9791,-10.667 -55.59571,-40.8524 -64.07404,-63.4543 -8.47865,-22.6019 -12.84256,-23.9886 -12.84256,-23.9886 z"
       id="path3282-7"
       inkscape:connector-curvature="0"
       sodipodi:nodetypes="csccssscc" />
  </g>
  <g
     inkscape:groupmode="layer"
     id="layer1"
     inkscape:label="txt">
    <text
       xml:space="preserve"
       style="font-style:normal;font-variant:normal;font-weight:normal;font-stretch:normal;font-size:45px;line-height:1.25;font-family:Lavi;-inkscape-font-specification:Lavi;text-align:center;letter-spacing:0px;word-spacing:0px;text-anchor:middle;fill:#000000;fill-opacity:1;stroke:none"
       x="571.81116"
       y="249.7589"
       id="text4246-3-2-2"><tspan
         style="font-size:45px"
         sodipodi:role="line"
         x="571.81116"
         y="249.7589"
         id="tspan218">Jama pri</tspan><tspan
         style="font-size:45px"
         sodipodi:role="line"
         x="571.81116"
         y="306.00891"
         id="tspan264">Rogaškem</tspan><tspan
         style="font-size:45px"
         sodipodi:role="line"
         x="571.81116"
         y="362.25891"
         id="tspan421">jezeru!</tspan></text>
    <text
       xml:space="preserve"
       style="font-style:normal;font-variant:normal;font-weight:normal;font-stretch:normal;font-size:45px;line-height:1.25;font-family:Lavi;-inkscape-font-specification:Lavi;text-align:center;letter-spacing:0px;word-spacing:0px;text-anchor:middle;fill:#000000;fill-opacity:1;stroke:none"
       x="300.17981"
       y="1480.1515"
       id="text4246-3-2-2-3"><tspan
         style="font-size:45px"
         sodipodi:role="line"
         x="300.17981"
         y="1480.1515"
         id="tspan16142">Korenček, zdaj</tspan><tspan
         style="font-size:45px"
         sodipodi:role="line"
         x="300.17981"
         y="1536.4015"
         id="tspan426">imava priložnost!</tspan></text>
    <text
       xml:space="preserve"
       style="font-style:normal;font-variant:normal;font-weight:normal;font-stretch:normal;font-size:45px;line-height:1.25;font-family:Lavi;-inkscape-font-specification:Lavi;text-align:center;letter-spacing:0px;word-spacing:0px;text-anchor:middle;fill:#000000;fill-opacity:1;stroke:none"
       x="814.88983"
       y="2238.3745"
       id="text4246-3-2-2-3-5"><tspan
         style="font-size:45px"
         sodipodi:role="line"
         x="814.88983"
         y="2238.3745"
         id="tspan1836">To jamo</tspan><tspan
         style="font-size:45px"
         sodipodi:role="line"
         x="814.88983"
         y="2294.6245"
         id="tspan430">poznam.</tspan></text>
    <text
       xml:space="preserve"
       style="font-style:normal;font-variant:normal;font-weight:normal;font-stretch:normal;font-size:45px;line-height:1.25;font-family:Lavi;-inkscape-font-specification:Lavi;text-align:center;letter-spacing:0px;word-spacing:0px;text-anchor:middle;fill:#e6dab9;fill-opacity:1;stroke:none"
       x="206.67752"
       y="2567.1943"
       id="text4246-3-2-2-3-5-9"><tspan
         style="font-size:45px;text-align:start;text-anchor:start;fill:#e6dab9;fill-opacity:1"
         sodipodi:role="line"
         x="206.67752"
         y="2567.1943"
         id="tspan8438">Odpira se v dolg predor, ki je na koncu zrušen.</tspan></text>
    <text
       xml:space="preserve"
       style="font-style:normal;font-variant:normal;font-weight:normal;font-stretch:normal;font-size:45px;line-height:1.25;font-family:Lavi;-inkscape-font-specification:Lavi;text-align:center;letter-spacing:0px;word-spacing:0px;text-anchor:middle;fill:#e6dab9;fill-opacity:1;stroke:none"
       x="1203.3623"
       y="3048.7898"
       id="text4246-3-2-2-3-5-9-7"><tspan
         style="font-size:45px;text-align:end;text-anchor:end;fill:#e6dab9;fill-opacity:1"
         sodipodi:role="line"
         x="1203.3623"
         y="3048.7898"
         id="tspan29577">Kapniki na vdrtem stropu tvorijo</tspan><tspan
         style="font-size:45px;text-align:end;text-anchor:end;fill:#e6dab9;fill-opacity:1"
         sodipodi:role="line"
         x="1203.3623"
         y="3105.0398"
         id="tspan434">smrtonosno bodičasto steno!</tspan></text>
    <text
       xml:space="preserve"
       style="font-style:normal;font-variant:normal;font-weight:normal;font-stretch:normal;font-size:45px;line-height:1.25;font-family:Lavi;-inkscape-font-specification:Lavi;text-align:center;letter-spacing:0px;word-spacing:0px;text-anchor:middle;fill:#cfc8b3;fill-opacity:1;stroke:none"
       x="1490.6841"
       y="2755.0413"
       id="text4246-3-2-2-3-5-9-7-3"><tspan
         style="font-size:45px;text-align:start;text-anchor:start;fill:#cfc8b3;fill-opacity:1"
         sodipodi:role="line"
         x="1490.6841"
         y="2755.0413"
         id="tspan23651">Pred pastjo je majhna odprtina,</tspan><tspan
         style="font-size:45px;text-align:start;text-anchor:start;fill:#cfc8b3;fill-opacity:1"
         sodipodi:role="line"
         x="1490.6841"
         y="2811.2913"
         id="tspan436">ravno pravšnje velikosti za naju.</tspan></text>
    <text
       xml:space="preserve"
       style="font-style:normal;font-variant:normal;font-weight:normal;font-stretch:normal;font-size:45px;line-height:1.25;font-family:Lavi;-inkscape-font-specification:Lavi;text-align:center;letter-spacing:0px;word-spacing:0px;text-anchor:middle;fill:#d4d4d4;fill-opacity:1;stroke:none;stroke-width:1.25015"
       x="2295.0718"
       y="3212.4111"
       id="text4246-3-2-2-3-5-9-7-3-3"><tspan
         style="font-size:45px;text-align:end;text-anchor:end;fill:#d4d4d4;stroke-width:1.25015;fill-opacity:1"
         sodipodi:role="line"
         x="2295.0718"
         y="3212.4111"
         id="tspan66911">Toda zmaj se ne bo mogel</tspan><tspan
         style="font-size:45px;text-align:end;text-anchor:end;fill:#d4d4d4;stroke-width:1.25015;fill-opacity:1"
         sodipodi:role="line"
         x="2295.0718"
         y="3268.6611"
         id="tspan447">pravočasno ustaviti in bo s polno</tspan><tspan
         style="font-size:45px;text-align:end;text-anchor:end;fill:#d4d4d4;stroke-width:1.25015;fill-opacity:1"
         sodipodi:role="line"
         x="2295.0718"
         y="3324.9111"
         id="tspan451">hitrostjo treščil v steno! Muahahaha!</tspan><tspan
         style="font-size:45px;text-align:end;text-anchor:end;fill:#d4d4d4;stroke-width:1.25015;fill-opacity:1"
         sodipodi:role="line"
         x="2295.0718"
         y="3381.1611"
         id="tspan445" /></text>
  </g>
</svg>
