<?xml version="1.0" encoding="UTF-8" standalone="no"?>
<svg
   xmlns:dc="http://purl.org/dc/elements/1.1/"
   xmlns:cc="http://creativecommons.org/ns#"
   xmlns:rdf="http://www.w3.org/1999/02/22-rdf-syntax-ns#"
   xmlns:svg="http://www.w3.org/2000/svg"
   xmlns="http://www.w3.org/2000/svg"
   xmlns:xlink="http://www.w3.org/1999/xlink"
   xmlns:sodipodi="http://sodipodi.sourceforge.net/DTD/sodipodi-0.dtd"
   xmlns:inkscape="http://www.inkscape.org/namespaces/inkscape"
   id="svg2"
   version="1.1"
   inkscape:version="1.0.2 (e86c870879, 2021-01-15)"
   width="2481"
   height="3503"
   sodipodi:docname="E34P01.svg">
  <metadata
     id="metadata8">
    <rdf:RDF>
      <cc:Work
         rdf:about="">
        <dc:format>image/svg+xml</dc:format>
        <dc:type
           rdf:resource="http://purl.org/dc/dcmitype/StillImage" />
        <dc:title />
      </cc:Work>
    </rdf:RDF>
  </metadata>
  <defs
     id="defs6">
    <filter
       inkscape:collect="always"
       style="color-interpolation-filters:sRGB"
       id="filter7961"
       x="-0.0038362744"
       width="1.0076725"
       y="-0.012583922"
       height="1.0251678"
       inkscape:label="blur-layer-whisper">
      <feGaussianBlur
         inkscape:collect="always"
         stdDeviation="2.6222679"
         id="feGaussianBlur7963" />
    </filter>
    <filter
       style="color-interpolation-filters:sRGB;"
       inkscape:label="narrator-drop-shadow"
       id="filter8274"
       width="1.3"
       height="1.5">
      <feFlood
         flood-opacity="0.603922"
         flood-color="rgb(0,21,64)"
         result="flood"
         id="feFlood8264" />
      <feComposite
         in="flood"
         in2="SourceGraphic"
         operator="in"
         result="composite1"
         id="feComposite8266" />
      <feGaussianBlur
         in="composite1"
         stdDeviation="2.0230825044646368"
         result="blur"
         id="feGaussianBlur8268" />
      <feOffset
         dx="-7.4077921838061513"
         dy="4.8380533854166714"
         result="offset"
         id="feOffset8270" />
      <feComposite
         in="SourceGraphic"
         in2="offset"
         operator="over"
         result="fbSourceGraphic"
         id="feComposite8272" />
      <feColorMatrix
         result="fbSourceGraphicAlpha"
         in="fbSourceGraphic"
         values="0 0 0 -1 0 0 0 0 -1 0 0 0 0 -1 0 0 0 0 1 0"
         id="feColorMatrix8420" />
      <feFlood
         id="feFlood8422"
         flood-opacity="0.061934527228860295"
         flood-color="rgb(0,12,37)"
         result="flood"
         in="fbSourceGraphic" />
      <feComposite
         in2="fbSourceGraphic"
         id="feComposite8424"
         in="flood"
         operator="in"
         result="composite1" />
      <feGaussianBlur
         id="feGaussianBlur8426"
         in="composite1"
         stdDeviation="1"
         result="blur" />
      <feOffset
         id="feOffset8428"
         dx="-3.3194756113327486"
         dy="-2.8318869588504754"
         result="offset" />
      <feComposite
         in2="offset"
         id="feComposite8430"
         in="fbSourceGraphic"
         operator="over"
         result="composite2" />
    </filter>
  </defs>
  <sodipodi:namedview
     pagecolor="#ffffff"
     bordercolor="#666666"
     borderopacity="1"
     objecttolerance="10"
     gridtolerance="10"
     guidetolerance="10"
     inkscape:pageopacity="0"
     inkscape:pageshadow="2"
     inkscape:window-width="1331"
     inkscape:window-height="905"
     id="namedview4"
     showgrid="false"
     inkscape:zoom="0.24184053"
     inkscape:cx="1355.6759"
     inkscape:cy="2706.6113"
     inkscape:window-x="1200"
     inkscape:window-y="332"
     inkscape:window-maximized="0"
     inkscape:current-layer="layer3"
     inkscape:document-rotation="0"
     borderlayer="true"
     inkscape:snap-global="false" />
  <g
     inkscape:groupmode="layer"
     id="layer2"
     inkscape:label="artwork"
     sodipodi:insensitive="true">
    <image
       sodipodi:absref="/home/tirifto/Développement/Pepper &amp; Carrot/webcomics/new-ep34_The-Knighting-of-Shichimi/lang/gfx_Pepper-and-Carrot_by-David-Revoy_E34P01.png"
       xlink:href="../gfx_Pepper-and-Carrot_by-David-Revoy_E34P01.png"
       y="0"
       x="0"
       id="image10"
       height="3503.7233"
       width="2481" />
  </g>
  <g
     inkscape:groupmode="layer"
     id="layer3"
     inkscape:label="speechbubbles-whisper"
     style="display:inline;opacity:0.65;filter:url(#filter7961)">
    <path
       id="path1299"
       style="fill:#e0ffff;fill-rule:evenodd;stroke:none;stroke-width:1.254px;stroke-linecap:butt;stroke-linejoin:miter;stroke-opacity:1"
       d="m 1493.8738,2593.9831 c -39.2719,2.5162 -78.8828,4.2884 -117.4283,13.7911 -31.845,9.4174 -62.5408,24.2883 -88.9374,45.4706 -21.2254,18.6953 -35.874,46.2146 -37.3054,75.1448 -1.2631,32.5142 16.6242,64.1698 43.6129,79.6764 19.9691,12.1023 41.829,20.3148 63.4018,28.8193 31.3959,11.2866 64.8685,15.5286 98.1536,15.592 40.6006,0.5577 81.1943,-2.4683 121.7525,-4.8903 32.2428,-2.1395 64.8525,-4.9366 95.9605,-15.123 18.5959,-6.3365 36.0037,-17.1139 49.5181,-32.0521 10.8815,-11.4412 21.1498,-24.5457 25.2288,-40.3218 4.3467,-17.4793 1.8359,-35.8231 -3.008,-52.7156 -6.2462,-20.9843 -18.6778,-39.475 -34.2161,-54.0521 -17.1123,-16.186 -36.4368,-30.1537 -58.0332,-39.1518 -10.9433,-4.6851 -22.4784,-7.7518 -34.1719,-9.7804 -29.6254,-5.6806 -59.7716,-8.0375 -89.8568,-10.0475 -11.5414,-0.5431 -23.1079,-0.6169 -34.6711,-0.3596 z" />
    <path
       style="fill:#e0ffff;fill-rule:evenodd;stroke:none;stroke-width:1.42105px;stroke-linecap:butt;stroke-linejoin:miter;stroke-opacity:1"
       d="m 1290.9378,2520.4406 c -18.276,0.5715 -36.8585,3.124 -53.547,10.569 -19.729,9.335 -33.4067,29.5951 -33.3592,50.6444 0.4438,10.9745 5.9783,21.3476 13.7512,29.2934 5.5844,5.6779 12.5949,9.8604 19.9064,13.2307 14.7208,7.0126 31.2178,10.2679 47.6265,10.4477 26.1452,1.3792 52.5923,-0.345 78.0378,-6.3959 11.975,-2.9712 23.8975,-7.7122 32.7716,-16.162 9.0838,-8.3459 15.7419,-19.6239 16.5275,-31.7683 0.2412,-10.8875 -4.7229,-21.2253 -11.1865,-29.9724 -8.2368,-11.6163 -20.8239,-20.6918 -35.301,-23.8402 -17.613,-4.5851 -35.9886,-5.1076 -54.1235,-5.8492 -7.0325,-0.1945 -14.0687,-0.2195 -21.1038,-0.1972 z"
       id="path1285"
       inkscape:connector-curvature="0" />
    <path
       style="font-variation-settings:normal;vector-effect:none;fill:#e0ffff;fill-opacity:1;stroke:none;stroke-width:1.28082px;stroke-linecap:butt;stroke-linejoin:miter;stroke-miterlimit:4;stroke-dasharray:none;stroke-dashoffset:0;stroke-opacity:1;stop-color:#000000"
       d="m 247.23264,2520.078 c -28.38432,1.2291 -56.8822,10.5086 -78.9986,28.6668 -18.63166,14.7836 -34.2286,34.2765 -41.45298,57.1712 -11.99049,41.1822 2.65545,88.8641 36.08198,115.8559 18.12316,14.8981 40.5932,23.2898 63.17043,28.7186 38.16304,8.8386 78.09262,9.8436 116.69462,3.2781 23.38738,-4.6715 46.32127,-14.492 63.70922,-31.142 18.85509,-18.074 31.17186,-43.3618 32.0321,-69.6182 0.60108,-14.7078 -1.15573,-29.4332 -4.02795,-43.8387 -4.90025,-22.4903 -16.81391,-43.7064 -34.75204,-58.3422 -11.96137,-9.8917 -26.3247,-16.6035 -41.32397,-20.4038 -25.60296,-7.1055 -52.26838,-9.146 -78.71986,-10.0843 -10.80183,-0.2861 -21.60826,-0.2664 -32.41295,-0.2614 z"
       id="path3280-8-90"
       inkscape:connector-curvature="0"
       sodipodi:nodetypes="csssc" />
    <path
       style="fill:#e0ffff;fill-opacity:1;fill-rule:evenodd;stroke:none;stroke-width:1.28082px;stroke-linecap:butt;stroke-linejoin:miter;stroke-opacity:1"
       d="m 405.61348,2631.9631 c 42.85265,-5.0607 58.06957,-2.3086 68.49973,0.7202 10.42915,3.0295 34.5561,33.0962 43.85358,53.3011 -34.06156,-36.1486 -48.52756,-39.3772 -65.05064,-34.4498 -16.52311,4.9273 -63.29994,23.4366 -63.29994,23.4366 l 11.09296,-45.4041 z"
       id="path1291"
       inkscape:connector-curvature="0"
       sodipodi:nodetypes="csccccc" />
    <path
       style="fill:#e0ffff;fill-rule:evenodd;stroke:none;stroke-width:0.964753px;stroke-linecap:butt;stroke-linejoin:miter;stroke-opacity:1"
       d="m 1434.2038,2989.2388 c 48.3667,-37.0134 81.9085,-79.2404 77.928,-171.8638 l 30.8393,-3.1198 c -4.7727,67.6875 -17.9327,144.5385 -108.7673,174.9836 z"
       id="path1291-6"
       inkscape:connector-curvature="0"
       sodipodi:nodetypes="cccc" />
  </g>
  <g
     inkscape:groupmode="layer"
     id="layer4"
     inkscape:label="speechbubbles"
     style="display:inline">
    <path
       id="path4040-4-1"
       style="color:#000000;display:inline;overflow:visible;visibility:visible;fill:#ffffff;fill-opacity:1;fill-rule:nonzero;stroke:none;stroke-width:0.874474px;marker:none;enable-background:accumulate"
       d="m 408.78284,1883.1559 c -55.12872,0.572 -110.63884,0.3559 -165.13124,10.2996 -32.24091,6.4965 -63.04374,23.3483 -84.74481,49.4291 -9.89021,12.0157 -16.86547,26.6472 -19.76735,42.2419 -5.11611,24.9363 -3.0074,50.9635 2.79633,75.5535 6.1539,24.8082 18.23475,48.6238 37.16316,65.276 17.1116,15.4198 38.55198,24.8739 60.63447,29.0997 21.94763,4.5949 44.22443,7.2616 66.50828,9.2759 62.21554,5.1338 124.65684,2.1687 186.96331,1.2497 36.32757,-1.004 73.12733,-4.6449 107.55298,-17.5703 19.15229,-6.8128 38.47792,-15.2546 53.41072,-29.9635 13.39742,-14.4558 19.85487,-34.0966 24.36131,-53.2713 5.40947,-24.3263 7.11792,-49.7394 3.64403,-74.5053 -4.10922,-24.2516 -16.95505,-46.6381 -35.29178,-62.0201 -15.55292,-13.4463 -34.48708,-21.8125 -53.81945,-27.2608 -55.01958,-17.1058 -112.96229,-17.7951 -169.88041,-17.8666 -4.79992,-0.016 -9.59969,0.01 -14.39955,0.033 z" />
    <path
       style="color:#000000;display:inline;overflow:visible;visibility:visible;fill:#ffffff;fill-opacity:1;fill-rule:nonzero;stroke:none;stroke-width:1.80075px;marker:none;enable-background:accumulate"
       d="m 539.19946,1927.3519 c 7.55014,-44.8382 62.74837,-99.1824 137.61984,-61.3131 -80.77928,-16.5552 -107.19343,39.0539 -106.74645,81.3775 0.39562,37.4602 -16.36437,17.1598 -16.36437,17.1598 z"
       id="path4440-1"
       inkscape:connector-curvature="0"
       sodipodi:nodetypes="ccscc" />
    <path
       style="color:#000000;display:inline;overflow:visible;visibility:visible;fill:#ffffff;fill-opacity:1;fill-rule:nonzero;stroke:none;stroke-width:0.774122px;marker:none;enable-background:accumulate"
       d="m 1800.3285,2844.0363 c -20.9878,2.3827 -42.1133,5.6463 -61.9411,13.8398 -10.4394,4.6103 -18.9103,14.0305 -24.0007,25.2874 -3.9754,8.8417 -5.9184,19.1884 -4.183,29.1675 2.6472,16.3084 12.8919,30.9328 26.3722,37.3879 12.8485,6.7095 26.9133,9.1636 40.7621,10.9095 31.9164,3.7897 63.9458,2.0001 95.9131,3.3831 14.0459,0.5321 28.3863,-1.4013 41.1604,-8.0457 10.774,-5.5 20.4383,-14.4458 26.0109,-26.4509 4.0402,-8.3753 5.587,-18.3913 3.9288,-27.9261 -1.3314,-8.5873 -5.0387,-16.6279 -10.2009,-23.1072 -7.888,-10.2851 -18.7212,-17.1107 -30.0039,-21.1235 -15.2436,-5.802 -31.0671,-9.1761 -46.9089,-11.5954 -18.9057,-2.6498 -37.9775,-2.9092 -56.909,-1.7264 z"
       id="path4040-2"
       inkscape:connector-curvature="0"
       sodipodi:nodetypes="zssssz" />
    <path
       style="color:#000000;display:inline;overflow:visible;visibility:visible;fill:#ffffff;fill-opacity:1;fill-rule:nonzero;stroke:none;stroke-width:0.811733px;marker:none;enable-background:accumulate"
       d="m 1970.7532,2998.2521 c 42.5246,54.5422 86.7334,47.5024 118.7066,15.8691 -23.32,34.399 -69.359,69.3478 -144.2603,0.1036 -14.3413,-13.258 25.5537,-15.9727 25.5537,-15.9727 z"
       id="path5010-4"
       inkscape:connector-curvature="0"
       sodipodi:nodetypes="ccsc" />
    <path
       style="color:#000000;display:inline;overflow:visible;visibility:visible;fill:#ffffff;fill-opacity:1;fill-rule:nonzero;stroke:none;stroke-width:0.866707px;marker:none;enable-background:accumulate"
       d="m 1881.6886,2948.2332 c -27.5726,0.7365 -55.9735,4.9074 -79.0833,16.4753 -14.2747,7.4367 -22.2068,19.4238 -28.123,31.1314 -7.0052,13.5247 -10.0944,28.9703 -3.0533,42.8378 7.2821,14.3423 23.8303,25.0636 41.8862,32.147 39.406,15.5514 86.2047,19.1073 129.9551,13.6026 14.1768,-1.7656 28.4791,-4.4371 40.6546,-10.2566 15.9536,-7.2698 28.4148,-18.4842 34.7925,-31.4245 10.1157,-19.5655 7.5763,-42.9911 -9.388,-60.1425 -13.7663,-14.1033 -35.4442,-23.0691 -58.022,-27.459 -22.5611,-4.8334 -46.1188,-7.1174 -69.6188,-6.9115 z"
       id="path4040-2-5"
       inkscape:connector-curvature="0"
       sodipodi:nodetypes="zssssz" />
    <rect
       style="color:#000000;overflow:visible;fill:#eeffdb;fill-opacity:0.89322001;stroke:#807e00;stroke-width:8.05223;paint-order:stroke fill markers;stop-color:#000000;filter:url(#filter8274);stroke-opacity:1"
       id="rect8238"
       width="417.40149"
       height="86.261734"
       x="128.97966"
       y="127.99652" />
  </g>
  <g
     inkscape:groupmode="layer"
     id="layer1"
     inkscape:label="txt">
    <text
       xml:space="preserve"
       style="font-style:normal;font-variant:normal;font-weight:normal;font-stretch:normal;font-size:45px;line-height:1.25;font-family:Lavi;-inkscape-font-specification:Lavi;text-align:center;letter-spacing:0px;word-spacing:0px;text-anchor:middle;fill:#000000;fill-opacity:1;stroke:none"
       x="335.29865"
       y="186.49605"
       id="text4246-3-2-2-35"><tspan
         style="font-size:45px"
         sodipodi:role="line"
         x="335.29865"
         y="186.49605"
         id="tspan905-2">La saman nokton…</tspan></text>
    <text
       xml:space="preserve"
       style="font-style:normal;font-variant:normal;font-weight:normal;font-stretch:normal;font-size:45px;line-height:1.25;font-family:Lavi;-inkscape-font-specification:Lavi;text-align:center;letter-spacing:0px;word-spacing:0px;text-anchor:middle;fill:#000000;fill-opacity:1;stroke:none"
       x="407.95737"
       y="1958.8977"
       id="text4246-3-2-2"><tspan
         style="font-size:45px"
         sodipodi:role="line"
         x="407.95737"
         y="1958.8977"
         id="tspan924">… kaj tiel, ni ĉi-nokte</tspan><tspan
         style="font-size:45px"
         sodipodi:role="line"
         x="407.95737"
         y="2015.1477"
         id="tspan932"> bonvenigas vin, Ŝiĉimion,</tspan><tspan
         style="font-size:45px"
         sodipodi:role="line"
         x="407.95737"
         y="2071.3977"
         id="tspan919"> kiel nian plej junan</tspan><tspan
         style="font-size:45px"
         sodipodi:role="line"
         x="407.95737"
         y="2127.6477"
         id="tspan915">kavaliron de Aho.</tspan><tspan
         style="font-size:45px"
         sodipodi:role="line"
         x="407.95737"
         y="2183.8977"
         id="tspan905" /></text>
    <text
       xml:space="preserve"
       style="font-style:normal;font-variant:normal;font-weight:normal;font-stretch:normal;font-size:45px;line-height:1.25;font-family:Lavi;-inkscape-font-specification:Lavi;text-align:center;letter-spacing:0px;word-spacing:0px;text-anchor:middle;fill:#000000;fill-opacity:1;stroke:none"
       x="287.69833"
       y="2598.4832"
       id="text4246-3-2-2-3"><tspan
         style="font-size:45px;fill:#000000;fill-opacity:1"
         sodipodi:role="line"
         x="287.69833"
         y="2598.4832"
         id="tspan1163">Ĉu Pipro </tspan><tspan
         style="font-size:45px;fill:#000000;fill-opacity:1"
         sodipodi:role="line"
         x="287.69833"
         y="2654.7332"
         id="tspan1165">ankoraŭ</tspan><tspan
         style="font-size:45px;fill:#000000;fill-opacity:1"
         sodipodi:role="line"
         x="287.69833"
         y="2710.9832"
         id="tspan894">mankas ?</tspan></text>
    <text
       xml:space="preserve"
       style="font-style:normal;font-variant:normal;font-weight:normal;font-stretch:normal;font-size:45px;line-height:1.25;font-family:Lavi;-inkscape-font-specification:Lavi;text-align:center;letter-spacing:0px;word-spacing:0px;text-anchor:middle;white-space:pre;inline-size:253.323;fill:#000000;fill-opacity:1;stroke:none"
       x="1320.327"
       y="2594.489"
       id="text4246-3-2-2-3-5"
       transform="translate(-10.795882,-4.9036151)"><tspan
         x="1320.327"
         y="2594.489"><tspan
           style="font-size:45px;fill:#000000;fill-opacity:1">Jes.</tspan></tspan></text>
    <text
       xml:space="preserve"
       style="font-style:normal;font-variant:normal;font-weight:normal;font-stretch:normal;font-size:45px;line-height:1.25;font-family:Lavi;-inkscape-font-specification:Lavi;text-align:center;letter-spacing:0px;word-spacing:0px;text-anchor:middle;fill:#000000;fill-opacity:1;stroke:none"
       x="1506.9663"
       y="2685.9597"
       id="text4246-3-2-2-3-5-1"><tspan
         style="font-size:45px;fill:#000000;fill-opacity:1"
         sodipodi:role="line"
         x="1506.9663"
         y="2685.9597"
         id="tspan7590">Ŝi rapidu, aŭ ŝi</tspan><tspan
         style="font-size:45px;fill:#000000;fill-opacity:1"
         sodipodi:role="line"
         x="1506.9663"
         y="2742.2097"
         id="tspan886">forestos la paroladon</tspan><tspan
         style="font-size:45px;fill:#000000;fill-opacity:1"
         sodipodi:role="line"
         x="1506.9663"
         y="2798.4597"
         id="tspan890">de Ŝiĉimio.</tspan></text>
    <text
       xml:space="preserve"
       style="font-style:normal;font-variant:normal;font-weight:normal;font-stretch:normal;font-size:45px;line-height:1.25;font-family:Lavi;-inkscape-font-specification:Lavi;text-align:center;letter-spacing:0px;word-spacing:0px;text-anchor:middle;fill:#000000;fill-opacity:1;stroke:none"
       x="1831.7936"
       y="2918.1755"
       id="text4246-3-2-2-3-5-1-7"><tspan
         style="font-size:45px"
         sodipodi:role="line"
         x="1831.7936"
         y="2918.1755"
         id="tspan7676">Dankon.</tspan></text>
    <text
       xml:space="preserve"
       style="font-style:normal;font-variant:normal;font-weight:normal;font-stretch:normal;font-size:45px;line-height:1.25;font-family:Lavi;-inkscape-font-specification:Lavi;text-align:center;letter-spacing:0px;word-spacing:0px;text-anchor:middle;fill:#000000;fill-opacity:1;stroke:none"
       x="1900.54"
       y="3029.3691"
       id="text4246-3-2-2-3-5-1-7-3"><tspan
         style="font-size:45px"
         sodipodi:role="line"
         x="1900.54"
         y="3029.3691"
         id="tspan7730">Mi volus…</tspan></text>
  </g>
</svg>
