<?xml version="1.0" encoding="UTF-8" standalone="no"?>
<!-- Created with Inkscape (http://www.inkscape.org/) -->

<svg
   id="svg2"
   version="1.1"
   inkscape:version="1.2.2 (b0a8486541, 2022-12-01)"
   width="3600"
   height="4750"
   sodipodi:docname="P01.svg"
   xmlns:inkscape="http://www.inkscape.org/namespaces/inkscape"
   xmlns:sodipodi="http://sodipodi.sourceforge.net/DTD/sodipodi-0.dtd"
   xmlns:xlink="http://www.w3.org/1999/xlink"
   xmlns="http://www.w3.org/2000/svg"
   xmlns:svg="http://www.w3.org/2000/svg"
   xmlns:rdf="http://www.w3.org/1999/02/22-rdf-syntax-ns#"
   xmlns:cc="http://creativecommons.org/ns#"
   xmlns:dc="http://purl.org/dc/elements/1.1/">
  <metadata
     id="metadata8">
    <rdf:RDF>
      <cc:Work
         rdf:about="">
        <dc:format>image/svg+xml</dc:format>
        <dc:type
           rdf:resource="http://purl.org/dc/dcmitype/StillImage" />
        <dc:title />
      </cc:Work>
    </rdf:RDF>
  </metadata>
  <defs
     id="defs6" />
  <sodipodi:namedview
     pagecolor="#444444"
     bordercolor="#000000"
     borderopacity="1"
     objecttolerance="10"
     gridtolerance="10"
     guidetolerance="10"
     inkscape:pageopacity="0"
     inkscape:pageshadow="2"
     inkscape:window-width="1920"
     inkscape:window-height="1050"
     id="namedview4"
     showgrid="false"
     inkscape:zoom="0.2630065"
     inkscape:cx="1461.9411"
     inkscape:cy="2579.7841"
     inkscape:window-x="1920"
     inkscape:window-y="0"
     inkscape:window-maximized="1"
     inkscape:current-layer="layer1"
     inkscape:showpageshadow="0"
     inkscape:pagecheckerboard="0"
     inkscape:deskcolor="#d1d1d1" />
  <g
     inkscape:groupmode="layer"
     id="layer2"
     inkscape:label="artwork"
     sodipodi:insensitive="true">
    <image
       xlink:href="../P01.jpg"
       y="0"
       x="0"
       id="P01"
       height="4750"
       width="3600" />
  </g>
  <g
     inkscape:groupmode="layer"
     id="layer3"
     inkscape:label="speechbubbles"
     transform="translate(270.26344,795.93239)">
    <path
       id="path4530"
       fill="#ffffff"
       stroke-opacity="0"
       stroke="#000000"
       stroke-width="0"
       stroke-linecap="square"
       stroke-linejoin="bevel"
       d="m 2917.6962,2807.2832 c 7.0232,-42.5292 147.3671,-31.4248 363.7365,-28.4193 216.3695,3.0057 359.6255,-5.5927 388.7638,9.4516 29.1377,15.045 58.2025,193.1555 -1.5212,245.7197 -41.6982,36.7 -162.3142,56.306 -374.5235,51.7115 -212.2099,-4.5939 -223.4451,-6.317 -329.951,-50.5314 -94.625,-39.2827 -53.5286,-185.4029 -46.5046,-227.9321 z"
       sodipodi:nodetypes="csssssz"
       transform="translate(-488.47494,-995.75509)" />
    <path
       id="path4496-6"
       fill="#ffffff"
       stroke-opacity="0"
       stroke="#000000"
       stroke-width="0"
       stroke-linecap="square"
       stroke-linejoin="bevel"
       d="m 3120.3204,3777.8342 c -27.4931,-8.3815 -56.3338,-16.5621 -76.0006,-42.1531 -5.441,-7.4983 -10.57,-15.9771 -13.3152,-26.4882 -0.8593,-12.6228 5.6584,-26.8013 13.798,-36.0375 11.3175,-14.272 26.1455,-24.1218 34.1143,-43.0632 5.5973,-13.8936 1.7575,-26.1644 -0.7023,-37.1498 -6.7148,-27.6495 -16.5144,-52.9647 -19.6068,-83.4121 -5.1968,-33.2624 -8.7685,-69.5591 6e-4,-108.1534 3.6407,-15.263 8.8698,-31.13 17.8108,-43.5937 22.1845,-33.0692 54.8055,-53.5892 80.4499,-46.6609 15.5721,6.848 22.0066,35.7595 10.8024,61.1964 -5.7935,13.4971 -16.1817,21.818 -25.7677,25.5983 -17.6735,11.4282 -32.521,35.369 -39.2473,60.3638 -5.772,20.5956 -7.2636,41.6793 -4.971,60.2249 -2.0545,28.4837 9.8964,47.5853 17.2167,69.0674 3.2207,9.9314 6.0828,21.0265 4.9716,33.635 -4.6291,18.7311 -17.9909,31.3606 -29.8056,40.4895 -12.1018,9.8077 -26.5377,19.4978 -33.5822,38.2424 -5.9804,12.5705 1.6296,20.6239 4.5496,29.0142 12.3824,24.116 31.3567,39.884 52.7555,47.8734 2.1273,0.5172 4.3241,0.7676 6.5288,1.0078 z"
       sodipodi:nodetypes="cccccccccccccccccccccc"
       transform="translate(-488.47494,-995.75509)" />
    <path
       id="path4546-3"
       fill="#ffffff"
       stroke-opacity="0"
       stroke="#000000"
       stroke-width="0"
       stroke-linecap="square"
       stroke-linejoin="bevel"
       d="m 3199.3076,3096.5532 c 5.6084,-46.4469 63.4819,-70.1102 159.4477,-67.1103 55.1872,1.7252 142.1631,20.031 141.3166,72.2208 -1.1085,68.3722 -101.2678,74.4273 -122.7821,74.8131 -44.7066,0.7999 -129.0788,-4.3791 -153.0802,-24.3301 -23.2363,-19.3158 -25.8369,-41.1788 -24.902,-55.5935 z"
       sodipodi:nodetypes="cssssc"
       transform="translate(-488.47494,-995.75509)" />
    <path
       id="path4546-31"
       fill="#ffffff"
       stroke-opacity="0"
       stroke="#000000"
       stroke-width="0"
       stroke-linecap="square"
       stroke-linejoin="bevel"
       d="m 2913.5955,3258.746 c 5.5056,-52.454 29.3713,-93.7239 77.8966,-112.6126 67.6375,-26.329 178.1995,-17.9148 309.5201,-13.1923 94.4682,3.3971 232.5184,-17.4566 299.4311,45.8584 24.9531,23.6122 37.631,73.4061 33.2117,120.5447 -8.629,92.0411 -4.3976,135.6482 -33.9464,164.6168 -29.5475,28.9693 -82.2985,41.2383 -107.5793,41.7606 -52.5335,1.084 -177.4254,12.4171 -293.0614,9.526 -115.6371,-2.8904 -222.0167,-20.0059 -250.2196,-46.974 -54.6092,-52.2194 -37.4497,-170.5584 -35.2528,-209.5276 z"
       sodipodi:nodetypes="ccscscscsc"
       transform="translate(-488.47494,-995.75509)" />
    <path
       id="path4546-32"
       fill="#ffffff"
       stroke-opacity="0"
       stroke="#000000"
       stroke-width="0"
       stroke-linecap="square"
       stroke-linejoin="bevel"
       d="m 2111.3552,2873.4445 c 5.2524,-33.4324 28.0198,-59.736 74.3116,-71.7747 64.5246,-16.7808 169.9977,-11.4182 295.2742,-8.4083 90.1213,2.1652 221.8177,-11.1261 285.6516,29.2284 23.8053,15.0489 35.8986,46.7855 31.6834,76.8293 -8.2325,58.6632 -4.1957,86.4571 -32.3846,104.9198 -28.1867,18.4647 -78.5113,26.2839 -102.6279,26.6165 -50.1158,0.692 -169.2596,7.9149 -279.5743,6.0717 -110.3151,-1.842 -211.7988,-12.7507 -238.7041,-29.9391 -52.0958,-33.2818 -35.7255,-108.7067 -33.6299,-133.5436 z"
       sodipodi:nodetypes="ccscscscsc"
       transform="translate(-488.47494,-995.75509)" />
    <path
       id="path4546-33"
       fill="#ffffff"
       stroke-opacity="0"
       stroke="#000000"
       stroke-width="0"
       stroke-linecap="square"
       stroke-linejoin="bevel"
       d="m 2169.3938,3050.8003 c 4.5433,-31.0376 24.2366,-55.4573 64.2782,-66.6341 55.8122,-15.5788 147.044,-10.6006 255.4064,-7.8058 77.9539,2.01 191.8686,-10.3291 247.0834,27.135 20.5899,13.9715 31.0504,43.4351 27.4047,71.327 -7.1211,54.4612 -3.629,80.2659 -28.0115,97.4059 -24.3819,17.1417 -67.9111,24.401 -88.7708,24.7101 -43.35,0.6429 -146.4067,7.3481 -241.8264,5.6368 -95.4215,-1.7102 -183.2018,-11.8375 -206.4743,-27.7951 -45.0619,-30.898 -30.9023,-100.9215 -29.0897,-123.9798 z"
       sodipodi:nodetypes="ccscscscsc"
       transform="translate(-488.47494,-995.75509)" />
    <path
       id="path3072-7"
       fill="#ffffff"
       stroke-opacity="0"
       stroke="#000000"
       stroke-width="0"
       stroke-linecap="square"
       stroke-linejoin="bevel"
       d="m 2624.2332,3479.3274 c 76.5506,-93.0159 50.7199,-278.7538 13.0806,-287.8873 -31.2874,-38.1203 -21.4198,-79.3332 -1.3326,-60.0179 -19.3146,-20.0877 30.007,-5.1491 36.2895,4.3888 22.2023,33.7116 84.8831,243.2179 -48.0375,343.5164 z"
       sodipodi:nodetypes="cccsc"
       transform="translate(-488.47494,-995.75509)" />
    <path
       id="path4040-4"
       fill="#ffffff"
       stroke-opacity="0"
       stroke="#000000"
       stroke-width="0"
       stroke-linecap="square"
       stroke-linejoin="bevel"
       d="m 1272.4017,2816.277 c 48.3289,-36.7384 466.7375,-58.9479 577.5632,1.4287 92.5044,50.3962 56.4123,175.8998 -25.8557,204.8067 -82.2687,28.907 -355.9426,25.5533 -475.8883,12.4465 -114.2045,-12.4781 -133.3811,-50.1431 -138.9991,-125.9835 -2.2924,-30.9519 14.8504,-55.9595 63.1799,-92.6984 z"
       sodipodi:nodetypes="cssssz"
       transform="translate(-488.47494,-995.75509)" />
    <path
       id="path5058"
       fill="#ffffff"
       stroke-opacity="0"
       stroke="#000000"
       stroke-width="0"
       stroke-linecap="square"
       stroke-linejoin="bevel"
       d="m 1461.947,3004.4809 c -6.4621,35.4352 -20.1043,54.0853 -26.5671,57.8155 -6.4621,3.7296 -22.4598,13.9893 -29.4375,20.3831 -5.7458,5.3275 -15.4921,10.5166 -11.184,17.0437 4.308,6.5279 41.3395,32.5104 38.4675,56.7555 -2.8721,24.2452 -12.9242,27.9748 -29.4392,29.8407 -16.5144,1.8643 -43.3885,6.2741 -46.9791,23.9916 -3.5894,17.7179 3.4472,41.6287 10.6273,47.2232 7.1802,5.5957 62.9189,22.0355 72.2531,35.0905 9.3347,13.0543 21.9932,37.3996 18.669,75.5322 -6.4623,-30.7729 -9.1112,-45.3996 -19.1633,-54.7237 -10.0529,-9.3249 -22.0111,-20.7469 -36.3715,-23.545 -14.3608,-2.7975 -50.0151,-13.1161 -57.1953,-26.1722 -7.1795,-13.0544 -17.9509,-48.4896 -11.4889,-66.2064 6.4628,-17.7184 20.8226,-32.6383 45.9543,-32.6383 16.5142,-1.8649 24.4125,-4.6624 25.1309,-10.2574 0.7181,-5.5951 -10.0527,-21.4477 -25.1309,-28.908 -15.0784,-7.4599 -25.1317,-20.5149 -22.2585,-31.705 2.8715,-11.1896 23.2773,-31.4415 27.5853,-40.7662 4.3082,-9.3253 33.4464,-59.0112 33.4464,-59.0112 z"
       sodipodi:nodetypes="cscsssssscssssccscccc"
       transform="translate(-488.47494,-995.75509)" />
    <path
       id="path45301"
       fill="#ffffff"
       stroke-opacity="0"
       stroke="#000000"
       stroke-width="0"
       stroke-linecap="square"
       stroke-linejoin="bevel"
       d="m 364.22049,2816.9683 c 6.72745,-50.9452 141.31599,-37.6171 348.81125,-33.9776 207.49471,3.6402 344.87296,-6.6328 372.81826,11.3942 27.9464,18.0277 34.2213,261.6841 -23.0432,324.6397 -39.9809,43.9552 -134.01517,37.131 -337.52099,31.5888 -203.50635,-5.5423 -222.87278,24.973 -322.60507,-33.6683 -42.8496,-25.1952 -45.18769,-249.0317 -38.46025,-299.9768 z"
       sodipodi:nodetypes="csssssz"
       transform="translate(-488.47494,-995.75509)" />
    <path
       id="path4546-35"
       fill="#ffffff"
       stroke-opacity="0"
       stroke="#000000"
       stroke-width="0"
       stroke-linecap="square"
       stroke-linejoin="bevel"
       d="m 618.21645,3194.7915 c 13.47378,-108.334 107.83017,-159.8597 260.14901,-146.4439 87.59452,7.7158 224.11534,56.355 217.64974,178.4461 -8.4688,159.9493 -168.34473,167.4465 -202.59536,166.9159 -71.17303,-1.1062 -204.84183,-18.8508 -241.05396,-67.1441 -35.05765,-46.7556 -37.04927,-98.099 -34.14943,-131.774 z"
       sodipodi:nodetypes="cssssc"
       transform="translate(-488.47494,-995.75509)" />
    <path
       id="path5002"
       fill="#ffffff"
       stroke-opacity="0"
       stroke="#000000"
       stroke-width="0"
       stroke-linecap="square"
       stroke-linejoin="bevel"
       d="m 978.42644,3565.4152 c 79.63616,-85.3592 68.43396,-164.7969 24.59836,-242.9465 -43.8357,-78.1491 -57.29726,-26.6266 -57.29726,-26.6266 -0.63173,6.9493 114.28846,132.84 32.6989,269.5731 z"
       sodipodi:nodetypes="cccc"
       transform="translate(-488.47494,-995.75509)" />
    <path
       id="path1088"
       fill="#ffffff"
       fill-rule="evenodd"
       stroke-opacity="0"
       stroke="#000000"
       stroke-width="0"
       stroke-linecap="square"
       stroke-linejoin="bevel"
       d="m 2360.7256,4468.6543 c 13.397,-40.5865 49.751,-60.2188 95.3002,-60.2188 45.5491,0 112.5325,-5.2367 144.6854,14.4015 32.1515,19.6384 48.2287,41.8957 46.8883,65.4623 -1.3392,23.566 -14.7368,51.0602 -42.87,65.4623 -28.1334,14.4009 -99.1356,17.0194 -144.6849,13.0916 -45.5485,-3.9265 -92.4403,-30.1187 -99.136,-51.0596 -3.6312,-17.1996 -0.1836,-47.1393 -0.1836,-47.1393 z"
       sodipodi:nodetypes="csssscccc"
       transform="translate(-488.47494,-995.75509)" />
    <path
       id="path4272"
       fill="#ffffff"
       fill-rule="evenodd"
       stroke-opacity="0"
       stroke="#000000"
       stroke-width="0"
       stroke-linecap="square"
       stroke-linejoin="bevel"
       d="m 2218.661,4576.0418 c 21.0443,-24.1633 43.311,-8.3092 59.1024,-13.9488 16.3019,-5.8215 16.1344,-50.9807 30.9965,-57.0998 14.8624,-6.1199 39.8891,14.257 62.9762,4.3027 23.0865,-9.9549 17.9398,-40.3151 -8.6311,-28.1573 -26.5707,12.1579 -38.8758,-7.991 -58.9914,4.2387 -33.5464,20.3963 -22.5732,49.9278 -29.5671,62.7614 -4.6295,8.4961 -23.5404,1.708 -38.7327,9.9493 -15.1924,8.2414 -17.1528,17.9538 -17.1528,17.9538 z"
       sodipodi:nodetypes="csssssssc"
       transform="translate(-488.47494,-995.75509)" />
    <path
       id="path4546-321"
       fill="#ffffff"
       stroke-opacity="0"
       stroke="#000000"
       stroke-width="0"
       stroke-linecap="square"
       stroke-linejoin="bevel"
       d="m 1740.1158,1870.7824 c 2.7542,-17.2879 14.6946,-30.8903 38.9719,-37.1155 33.8391,-8.6778 89.154,-5.9042 154.8533,-4.348 47.2638,1.1195 116.3306,-5.7536 149.8082,15.1143 12.4837,7.782 18.8264,24.1935 16.6156,39.7295 -4.3181,30.3352 -2.2002,44.7083 -16.9844,54.2555 -14.7824,9.5477 -41.1737,13.591 -53.8221,13.7635 -26.2825,0.356 -88.7658,4.0934 -146.6203,3.1396 -57.8534,-0.9528 -111.0755,-6.594 -125.1854,-15.4816 -27.3208,-17.2106 -18.7357,-56.2137 -17.6368,-69.0573 z"
       sodipodi:nodetypes="ccscscscsc"
       transform="translate(-488.47494,-995.75509)" />
    <path
       id="path4546-322"
       fill="#ffffff"
       stroke-opacity="0"
       stroke="#000000"
       stroke-width="0"
       stroke-linecap="square"
       stroke-linejoin="bevel"
       d="m 2220.3327,2010.8337 c -3.3665,17.293 -18.047,30.9158 -47.9262,37.1839 -41.6477,8.7362 -109.75,6.0594 -190.6354,4.6173 -58.1882,-1.0373 -143.2066,5.956 -184.451,-14.8536 -15.3803,-7.7602 -23.2117,-24.1607 -20.512,-39.7006 5.2736,-30.3429 2.6462,-44.7115 20.8323,-54.2849 18.1856,-9.5733 50.6705,-13.6629 66.2427,-13.8576 32.3551,-0.4059 109.274,-4.2474 180.5003,-3.3941 71.2254,0.8519 136.755,6.4002 154.1386,15.2633 33.66,17.1634 23.1456,56.181 21.8107,69.0263 z"
       sodipodi:nodetypes="ccscscscsc"
       transform="translate(-488.47494,-995.75509)" />
    <path
       id="path4546-323"
       fill="#ffffff"
       stroke-opacity="0"
       stroke="#000000"
       stroke-width="0"
       stroke-linecap="square"
       stroke-linejoin="bevel"
       d="m 2338.5361,2115.8012 c -3.2708,17.2925 -17.535,30.9148 -46.5676,37.1811 -40.4673,8.7353 -106.6416,6.0555 -185.2357,4.6102 -56.5402,-1.0396 -139.1502,5.9498 -179.2273,-14.8609 -14.9449,-7.7608 -22.5548,-24.1617 -19.9325,-39.7016 5.1235,-30.3424 2.5689,-44.7117 20.2401,-54.2839 17.6706,-9.5728 49.2349,-13.6607 64.3655,-13.8547 31.4387,-0.4004 106.1789,-4.2436 175.3881,-3.3876 69.2086,0.8554 132.8818,6.4059 149.7737,15.2696 32.7068,17.1651 22.4921,56.1826 21.1957,69.0278 z"
       sodipodi:nodetypes="ccscscscsc"
       transform="translate(-488.47494,-995.75509)" />
    <path
       id="path50021"
       fill="#ffffff"
       stroke-opacity="0"
       stroke="#000000"
       stroke-width="0"
       stroke-linecap="square"
       stroke-linejoin="bevel"
       d="m 2374.0903,2368.6499 c -100.5716,-10.9476 -161.7029,-69.2731 -193.0493,-246.4115 -16.8297,-87.54 25.0732,-10.9021 37.0866,0.1112 3.238,7.3943 14.932,219.4896 155.9627,246.3014 z"
       sodipodi:nodetypes="cccc"
       transform="translate(-488.47494,-995.75509)" />
    <path
       id="path4546-311"
       fill="#ffffff"
       stroke-opacity="0"
       stroke="#000000"
       stroke-width="0"
       stroke-linecap="square"
       stroke-linejoin="bevel"
       d="m 1814.2282,2490.2587 c 3.8109,-36.1428 23.0655,-66.7804 56.6486,-79.7953 46.8107,-18.1418 118.5361,-22.8014 209.4207,-19.5477 65.379,2.3408 158.1825,6.6856 204.4909,50.3115 17.2702,16.2691 26.7284,52.78 23.6701,85.2603 -5.9717,63.419 -11.9422,76.4038 -32.392,96.3642 -20.4498,19.961 -74.069,26.7629 -91.5656,27.1228 -36.3573,0.7469 -104.9947,5.8048 -185.0236,3.8124 -80.0307,-1.9922 -143.3862,-13.2346 -162.905,-31.8168 -37.7933,-35.9803 -23.8641,-104.8613 -22.3441,-131.7114 z"
       sodipodi:nodetypes="ccscscscsc"
       transform="translate(-488.47494,-995.75509)" />
    <path
       id="path50022"
       fill="#ffffff"
       stroke-opacity="0"
       stroke="#000000"
       stroke-width="0"
       stroke-linecap="square"
       stroke-linejoin="bevel"
       d="m 1877.6738,2299.7115 c 59.1059,14.8315 116.5577,60.4123 98.0956,133.3385 7.7824,51.8387 -37.1054,21.6021 -47.8512,13.4876 -2.4498,-4.6718 59.9546,-96.3036 -50.2444,-146.8261 z"
       sodipodi:nodetypes="cccc"
       transform="translate(-488.47494,-995.75509)" />
  </g>
  <g
     inkscape:groupmode="layer"
     id="layer1"
     inkscape:label="txt"
     transform="translate(-219.16755,-200.86139)">
    <text
       xml:space="preserve"
       style="font-style:normal;font-variant:normal;font-weight:normal;font-stretch:normal;font-size:49.513px;line-height:1.2;font-family:Lavi;-inkscape-font-specification:Lavi;text-align:center;letter-spacing:0px;word-spacing:0px;text-anchor:middle;white-space:pre;inline-size:612.317;display:inline;fill:#000000;fill-opacity:1;stroke:none;stroke-width:0;stroke-dasharray:none"
       x="525.62482"
       y="2642.332"
       id="text4246-36"
       transform="matrix(1.1108198,0,0,1.1108198,1340.0719,-1028.6236)"><tspan
         x="525.62482"
         y="2642.332"
         id="tspan5789">Bonjour.</tspan></text>
    <text
       xml:space="preserve"
       style="font-style:normal;font-variant:normal;font-weight:normal;font-stretch:normal;font-size:49.513px;line-height:1.2;font-family:Lavi;-inkscape-font-specification:Lavi;text-align:center;letter-spacing:0px;word-spacing:0px;text-anchor:middle;white-space:pre;inline-size:612.317;display:inline;fill:#000000;fill-opacity:1;stroke:none;stroke-width:0;stroke-dasharray:none"
       x="525.62482"
       y="2642.332"
       id="text4246-36-2"
       transform="matrix(1.1108198,0,0,1.1108198,1419.5996,-920.54026)"><tspan
         x="525.62482"
         y="2642.332"
         id="tspan5791">Du courrier ?</tspan></text>
    <text
       xml:space="preserve"
       style="font-style:normal;font-variant:normal;font-weight:normal;font-stretch:normal;font-size:49.513px;line-height:1.2;font-family:Lavi;-inkscape-font-specification:Lavi;text-align:center;letter-spacing:0px;word-spacing:0px;text-anchor:middle;white-space:pre;inline-size:612.317;display:inline;fill:#000000;fill-opacity:1;stroke:none;stroke-width:0;stroke-dasharray:none"
       x="525.62482"
       y="2642.332"
       id="text4246-36-2-6"
       transform="matrix(1.1108198,0,0,1.1108198,1545.5359,-819.95841)"><tspan
         x="525.62482"
         y="2642.332"
         id="tspan5793">Aujourd'hui ?</tspan></text>
    <text
       xml:space="preserve"
       style="font-style:normal;font-variant:normal;font-weight:normal;font-stretch:normal;font-size:49.513px;line-height:1.2;font-family:Lavi;-inkscape-font-specification:Lavi;text-align:center;letter-spacing:0px;word-spacing:0px;text-anchor:middle;white-space:pre;inline-size:612.317;display:inline;fill:#000000;fill-opacity:1;stroke:none;stroke-width:0;stroke-dasharray:none"
       x="525.62482"
       y="2642.332"
       id="text4246-36-2-1"
       transform="matrix(1.1108198,0,0,1.1108198,1479.3314,-464.06713)"><tspan
         x="525.62482"
         y="2642.332"
         id="tspan5797">Et oui, <tspan
   style="font-style:italic;-inkscape-font-specification:'Lavi Italic'"
   id="tspan5795">on
</tspan></tspan><tspan
         x="525.62482"
         y="2701.7476"
         id="tspan5801"><tspan
           style="font-style:italic;-inkscape-font-specification:'Lavi Italic'"
           id="tspan5799">n'arrête pas le
</tspan></tspan><tspan
         x="525.62482"
         y="2761.1631"
         id="tspan5805"><tspan
   style="font-style:italic;-inkscape-font-specification:'Lavi Italic'"
   id="tspan5803">progrès</tspan>...</tspan></text>
    <text
       xml:space="preserve"
       style="font-style:normal;font-variant:normal;font-weight:normal;font-stretch:normal;font-size:49.513px;line-height:1.2;font-family:Lavi;-inkscape-font-specification:Lavi;text-align:center;letter-spacing:0px;word-spacing:0px;text-anchor:middle;white-space:pre;inline-size:544.799;display:inline;fill:#000000;fill-opacity:1;stroke:none;stroke-width:0;stroke-dasharray:none"
       x="525.62482"
       y="2642.332"
       id="text4246"
       transform="matrix(1.1108198,0,0,1.1108198,144.38599,-27.640211)"><tspan
         x="525.62482"
         y="2642.332"
         id="tspan5807">Mais dis donc, qu'est-ce<tspan
   y="2642.332"
   id="tspan5809"> </tspan></tspan><tspan
         x="525.62482"
         y="2701.7476"
         id="tspan5811">que tu fais devant chez<tspan
   y="2701.7476"
   id="tspan5813"> </tspan></tspan><tspan
         x="525.62482"
         y="2761.1631"
         id="tspan5815">toi en pleine nuit, ma<tspan
   y="2761.1631"
   id="tspan5817"> </tspan></tspan><tspan
         x="525.62482"
         y="2820.5786"
         id="tspan5821">petite ? <tspan
   style="font-weight:bold;-inkscape-font-specification:'Lavi Bold'"
   id="tspan5819">Et à Noël ?</tspan></tspan></text>
    <text
       xml:space="preserve"
       style="font-style:normal;font-variant:normal;font-weight:normal;font-stretch:normal;font-size:49.513px;line-height:1.2;font-family:Lavi;-inkscape-font-specification:Lavi;text-align:center;letter-spacing:0px;word-spacing:0px;text-anchor:middle;white-space:pre;inline-size:658.945;display:inline;fill:#000000;fill-opacity:1;stroke:none;stroke-width:0;stroke-dasharray:none"
       x="525.62482"
       y="2642.332"
       id="text4246-5"
       transform="matrix(1.1108198,0,0,1.1108198,276.59243,265.42587)"><tspan
         x="525.62482"
         y="2642.332"
         id="tspan5823">C'est surtout 
</tspan><tspan
         x="525.62482"
         y="2701.7476"
         id="tspan5825">toi qui devrais
</tspan><tspan
         x="525.62482"
         y="2761.1631"
         id="tspan5827">être au lit !</tspan></text>
    <text
       xml:space="preserve"
       style="font-style:normal;font-variant:normal;font-weight:normal;font-stretch:normal;font-size:49.513px;line-height:1.2;font-family:Lavi;-inkscape-font-specification:Lavi;text-align:center;letter-spacing:0px;word-spacing:0px;text-anchor:middle;white-space:pre;inline-size:600.234;display:inline;fill:#000000;fill-opacity:1;stroke:none;stroke-width:0;stroke-dasharray:none"
       x="525.62482"
       y="2642.332"
       id="text4246-35"
       transform="matrix(1.1108198,0,0,1.1108198,980.1432,-26.624466)"><tspan
         x="525.62482"
         y="2642.332"
         id="tspan5829">J'attends le père Noël,<tspan
   y="2642.332"
   id="tspan5831"> </tspan></tspan><tspan
         x="525.62482"
         y="2701.7476"
         id="tspan5833">vous l'avez vu ?</tspan></text>
    <text
       xml:space="preserve"
       style="font-style:normal;font-variant:normal;font-weight:normal;font-stretch:normal;font-size:49.513px;line-height:1.2;font-family:Lavi;-inkscape-font-specification:Lavi;text-align:center;letter-spacing:0px;word-spacing:0px;text-anchor:middle;white-space:pre;inline-size:546.22;display:inline;fill:#000000;fill-opacity:1;stroke:none;stroke-width:0;stroke-dasharray:none"
       x="525.62482"
       y="2642.332"
       id="text4246-35-6"
       transform="matrix(1.1108198,0,0,1.1108198,1867.4854,-37.758191)"><tspan
         x="525.62482"
         y="2642.332"
         id="tspan5835">Ha non, ça, je l'ai pas<tspan
   y="2642.332"
   id="tspan5837"> </tspan></tspan><tspan
         x="525.62482"
         y="2701.7476"
         id="tspan5839">vu dans le coin.</tspan></text>
    <text
       xml:space="preserve"
       style="font-style:normal;font-variant:normal;font-weight:normal;font-stretch:normal;font-size:49.513px;line-height:1.2;font-family:Lavi;-inkscape-font-specification:Lavi;text-align:center;letter-spacing:0px;word-spacing:0px;text-anchor:middle;white-space:pre;inline-size:421.65;display:inline;fill:#000000;fill-opacity:1;stroke:none;stroke-width:0;stroke-dasharray:none"
       x="525.62482"
       y="2642.332"
       id="text4246-35-6-2"
       transform="matrix(1.1108198,0,0,1.1108198,1866.2165,146.79185)"><tspan
         x="525.62482"
         y="2642.332"
         id="tspan5841">Pourquoi tu tiens<tspan
   y="2642.332"
   id="tspan5843"> </tspan></tspan><tspan
         x="525.62482"
         y="2701.7476"
         id="tspan5845">autant à le voir ?</tspan></text>
    <text
       xml:space="preserve"
       style="font-style:normal;font-variant:normal;font-weight:normal;font-stretch:normal;font-size:49.513px;line-height:1.2;font-family:Lavi;-inkscape-font-specification:Lavi;text-align:center;letter-spacing:0px;word-spacing:0px;text-anchor:middle;white-space:pre;inline-size:544.915;display:inline;fill:#000000;fill-opacity:1;stroke:none;stroke-width:0;stroke-dasharray:none"
       x="525.62482"
       y="2642.332"
       id="text4246-35-6-2-9"
       transform="matrix(1.1108198,0,0,1.1108198,2706.4452,-39.605601)"><tspan
         x="525.62482"
         y="2642.332"
         id="tspan5847">Eh bien, je n'ai pas été<tspan
   y="2642.332"
   id="tspan5849"> </tspan></tspan><tspan
         x="525.62482"
         y="2701.7476"
         id="tspan5851">très sage cette année,<tspan
   y="2701.7476"
   id="tspan5853"> </tspan></tspan><tspan
         x="525.62482"
         y="2761.1631"
         id="tspan5855">alors...</tspan></text>
    <text
       xml:space="preserve"
       style="font-style:normal;font-variant:normal;font-weight:normal;font-stretch:normal;font-size:49.513px;line-height:1.2;font-family:Lavi;-inkscape-font-specification:Lavi;text-align:center;letter-spacing:0px;word-spacing:0px;text-anchor:middle;white-space:pre;inline-size:576.423;display:inline;fill:#000000;fill-opacity:1;stroke:none;stroke-width:0;stroke-dasharray:none"
       x="525.62482"
       y="2642.332"
       id="text4246-35-6-2-9-1"
       transform="matrix(1.1108198,0,0,1.1108198,2780.3611,188.38555)"><tspan
         x="525.62482"
         y="2642.332"
         id="tspan5857">Enfin...</tspan></text>
    <text
       xml:space="preserve"
       style="font-style:normal;font-variant:normal;font-weight:normal;font-stretch:normal;font-size:49.513px;line-height:1.2;font-family:Lavi;-inkscape-font-specification:Lavi;text-align:center;letter-spacing:0px;word-spacing:0px;text-anchor:middle;white-space:pre;inline-size:508.905;display:inline;fill:#000000;fill-opacity:1;stroke:none;stroke-width:0;stroke-dasharray:none"
       x="525.62482"
       y="2642.332"
       id="text4246-35-6-2-9-2"
       transform="matrix(1.1108198,0,0,1.1108198,2683.3299,304.36679)"><tspan
         x="525.62482"
         y="2642.332"
         id="tspan5859">Vous voyez, j'me suis<tspan
   y="2642.332"
   id="tspan5861"> </tspan></tspan><tspan
         x="525.62482"
         y="2701.7476"
         id="tspan5863">dit que si je lui parlais,<tspan
   y="2701.7476"
   id="tspan5865"> </tspan></tspan><tspan
         x="525.62482"
         y="2761.1631"
         id="tspan5867">je pourrais sans doute<tspan
   y="2761.1631"
   id="tspan5869"> </tspan></tspan><tspan
         x="525.62482"
         y="2820.5786"
         id="tspan5871">lui demander pardon.</tspan></text>
    <text
       xml:space="preserve"
       style="font-style:normal;font-variant:normal;font-weight:normal;font-stretch:normal;font-size:49.513px;line-height:1.2;font-family:Lavi;-inkscape-font-specification:Lavi;text-align:center;letter-spacing:0px;word-spacing:0px;text-anchor:middle;white-space:pre;inline-size:576.423;display:inline;fill:#000000;fill-opacity:1;stroke:none;stroke-width:0;stroke-dasharray:none"
       x="525.62482"
       y="2642.332"
       id="text4246-35-6-2-9-2-7"
       transform="matrix(1.1108198,0,0,1.1108198,1916.6205,1568.2245)"><tspan
         x="525.62482"
         y="2642.332"
         id="tspan5873">Hmm !</tspan></text>
  </g>
</svg>
