<?xml version="1.0" encoding="UTF-8" standalone="no"?>
<!-- Created with Inkscape (http://www.inkscape.org/) -->

<svg
   id="svg2"
   version="1.1"
   inkscape:version="1.2.1 (9c6d41e410, 2022-07-14)"
   width="2481"
   height="3503"
   sodipodi:docname="E37P03.svg"
   xmlns:inkscape="http://www.inkscape.org/namespaces/inkscape"
   xmlns:sodipodi="http://sodipodi.sourceforge.net/DTD/sodipodi-0.dtd"
   xmlns:xlink="http://www.w3.org/1999/xlink"
   xmlns="http://www.w3.org/2000/svg"
   xmlns:svg="http://www.w3.org/2000/svg"
   xmlns:rdf="http://www.w3.org/1999/02/22-rdf-syntax-ns#"
   xmlns:cc="http://creativecommons.org/ns#"
   xmlns:dc="http://purl.org/dc/elements/1.1/">
  <metadata
     id="metadata8">
    <rdf:RDF>
      <cc:Work
         rdf:about="">
        <dc:format>image/svg+xml</dc:format>
        <dc:type
           rdf:resource="http://purl.org/dc/dcmitype/StillImage" />
        <dc:title />
      </cc:Work>
    </rdf:RDF>
  </metadata>
  <defs
     id="defs6" />
  <sodipodi:namedview
     pagecolor="#ffffff"
     bordercolor="#666666"
     borderopacity="1"
     objecttolerance="10"
     gridtolerance="10"
     guidetolerance="10"
     inkscape:pageopacity="0"
     inkscape:pageshadow="2"
     inkscape:window-width="1920"
     inkscape:window-height="1056"
     id="namedview4"
     showgrid="false"
     inkscape:zoom="0.52900002"
     inkscape:cx="977.31565"
     inkscape:cy="818.52549"
     inkscape:window-x="1920"
     inkscape:window-y="0"
     inkscape:window-maximized="1"
     inkscape:current-layer="layer1"
     inkscape:pagecheckerboard="0"
     inkscape:showpageshadow="0"
     inkscape:deskcolor="#d1d1d1" />
  <g
     inkscape:groupmode="layer"
     id="layer2"
     inkscape:label="artwork"
     sodipodi:insensitive="true">
    <image
       xlink:href="../gfx_Pepper-and-Carrot_by-David-Revoy_E37P03.png"
       y="0"
       x="0"
       id="image10"
       height="3503"
       width="2481" />
  </g>
  <g
     inkscape:groupmode="layer"
     id="layer3"
     inkscape:label="speechbubbles">
    <path
       style="fill:#ffffff;stroke:none"
       d="m 360.81076,483.27055 c -24.56923,-19.74397 -22.57209,-29.32044 -19.38779,-40.05561 3.18412,-10.73531 7.28186,-20.14814 3.61763,-26.41179 -3.66404,-6.26351 -11.74206,-11.72395 -18.29755,-14.98031 -6.55548,-3.25646 -0.45551,-10.46603 0.21288,-18.13003 0.66831,-7.66412 -10.65562,-47.81818 -10.65562,-47.81818 0,0 -16.12893,27.00135 -18.3493,36.73423 -2.22054,9.73275 -3.08233,13.28039 -2.88893,17.39675 0.19358,4.1165 2.17394,14.17648 7.99925,19.25288 5.82532,5.0764 13.79112,7.01762 19.0679,9.86162 5.27689,2.84391 3.98478,11.55697 3.32674,20.195 -0.65814,8.63801 0.27632,15.01927 9.71886,26.19244 8.09394,9.57758 25.63593,17.763 25.63593,17.763 z"
       id="path3023-2"
       inkscape:connector-curvature="0"
       sodipodi:nodetypes="csssscssssssc" />
    <path
       style="color:#000000;display:inline;overflow:visible;visibility:visible;fill:#ffffff;fill-opacity:1;fill-rule:nonzero;stroke:none;stroke-width:0.999998px;marker:none;enable-background:accumulate"
       d="m 403.42298,834.07226 c -16.6818,-24.82678 6.70933,-94.25013 56.4409,-100.94979 -22.32483,1.35916 -74.47842,-5.24564 -96.28686,102.62894 -9.86485,48.79671 26.31789,-1.15111 26.31789,-1.15111 z"
       id="path4035-4"
       inkscape:connector-curvature="0"
       sodipodi:nodetypes="ccscc" />
    <path
       style="color:#000000;display:inline;overflow:visible;visibility:visible;fill:#ffffff;fill-opacity:1;fill-rule:nonzero;stroke:none;stroke-width:1px;marker:none;enable-background:accumulate"
       d="m 287.22173,764.37695 c -38.96189,0.65395 -78.11944,10.64091 -111.12094,30.8291 -22.1425,14.35978 -38.29561,36.96183 -44.14449,62.03048 -6.79053,27.64899 -2.07119,58.40272 15.35681,81.67937 14.2336,18.66671 36.17978,30.59043 58.9706,36.99009 25.33592,7.0944 51.95492,7.29143 78.11836,8.10392 29.63759,0.58466 59.36834,-0.30844 88.79903,-3.84444 25.5416,-3.97417 51.10124,-12.284 71.31109,-28.25968 16.30294,-13.60004 25.1995,-34.21323 25.96591,-54.75252 3.35157,-38.39787 -13.54001,-78.58273 -45.67966,-102.11056 -19.7039,-14.56477 -44.15856,-21.56538 -68.38358,-25.33285 -22.83479,-3.77078 -46.02641,-5.53145 -69.19313,-5.33291 z"
       id="path4040-4-5-3"
       inkscape:connector-curvature="0"
       sodipodi:nodetypes="zssssz" />
    <path
       style="color:#000000;display:inline;overflow:visible;visibility:visible;fill:#ffffff;fill-opacity:1;fill-rule:nonzero;stroke:none;stroke-width:1.0414px;marker:none;enable-background:accumulate"
       d="m 286.29178,132.72292 c -34.04027,0.40773 -68.56387,3.11564 -100.93847,13.41434 -15.55968,4.92442 -30.08111,12.79273 -41.77094,23.51973 -14.98417,13.50854 -25.42213,31.47045 -28.12883,50.71755 -3.398,20.73544 -1.39673,41.76782 0.0706,62.57 1.85328,18.62023 6.99456,37.77176 19.92718,52.61876 16.93411,20.06692 42.77499,32.44755 69.47592,37.46477 30.53273,6.04374 61.93716,5.43787 92.98627,5.91489 31.06165,-0.11756 62.41106,-0.45076 92.93877,-6.3179 26.63725,-5.57977 52.8195,-15.64295 73.35977,-32.58445 15.34375,-13.80581 22.93378,-33.45619 24.70319,-52.85031 3.58205,-27.35127 2.97617,-55.89877 -7.72084,-81.93799 -9.84659,-23.66498 -29.62299,-43.80941 -54.64861,-54.47465 -24.92294,-11.16922 -52.84753,-14.3932 -80.14739,-16.50684 -19.99295,-1.44863 -40.06263,-1.60376 -60.10665,-1.5479 z"
       id="path4040-4-5-3-5"
       inkscape:connector-curvature="0"
       sodipodi:nodetypes="zssssz" />
    <path
       style="display:inline;fill:#ffffff;stroke:none;stroke-width:1.03492"
       d="m 1379.1221,123.51953 c -50.6898,0.40617 -102.0603,6.64811 -149.371,25.03838 -23.146,9.07708 -41.2252,28.11364 -51.2336,50.016 -5.9744,12.8048 -8.8211,26.79015 -9.3497,40.7888 -1.5979,23.1199 1.8917,47.55822 15.3304,67.21746 13.3833,19.23993 34.7768,31.55093 56.679,39.83371 40.2277,15.60249 83.784,23.25833 127.1092,22.07801 39.5747,-1.53179 78.3068,-10.72042 117.8124,-13.02056 44.7911,-3.50776 90.1236,-4.49918 133.998,-14.81556 16.882,-3.50551 32.4108,-13.04546 42.3426,-26.79384 8.2596,-11.01375 12.1347,-24.37021 15.0835,-37.49384 4.3738,-21.58647 3.4352,-44.2787 -3.1937,-65.34013 -8.175,-23.36708 -26.0618,-43.07285 -48.3326,-54.86138 -30.9425,-17.65084 -67.0641,-23.35061 -102.1862,-27.51709 -48.0023,-5.47922 -96.4372,-5.11327 -144.6883,-5.12996 z"
       id="path3280-8-2"
       inkscape:connector-curvature="0"
       sodipodi:nodetypes="csssc" />
    <path
       style="color:#000000;display:inline;overflow:visible;visibility:visible;fill:#ffffff;fill-opacity:1;fill-rule:nonzero;stroke:none;stroke-width:1.23934px;marker:none;enable-background:accumulate"
       d="m 1471.5213,316.34575 c -42.9731,0.54579 -86.4522,10.51171 -122.3328,31.91726 -32.8784,20.92206 -54.637,55.7678 -54.8668,91.85988 -0.095,29.88576 16.8144,58.98976 43.1825,77.37675 22.4958,15.9915 50.2445,24.82632 78.0954,30.36634 43.6838,9.0101 88.7839,12.66936 133.5791,10.49002 28.5167,-1.28262 56.7963,-5.07121 84.8925,-9.43355 20.4804,-3.33511 40.9946,-8.1032 59.1827,-17.35535 17.6013,-8.67602 32.8213,-21.41085 42.4793,-37.1609 14.5778,-23.42465 17.9955,-51.55204 12.2107,-77.60935 -6.8948,-30.23848 -28.6807,-57.96054 -59.4884,-72.70049 -25.9949,-13.04578 -55.6744,-18.64859 -84.9768,-22.28941 -40.5215,-4.70412 -81.4662,-4.7414 -122.2546,-5.46449 -3.2343,-0.009 -6.4686,-8.2e-4 -9.7028,0.003 z"
       id="path3365-7"
       inkscape:connector-curvature="0"
       sodipodi:nodetypes="cscsccc" />
    <path
       style="fill:#ffffff;fill-rule:evenodd;stroke:none;stroke-width:0.999999px;stroke-linecap:butt;stroke-linejoin:miter;stroke-opacity:1"
       d="m 1615.4482,493.17881 c -6.3324,4.61753 23.1312,48.65505 53.6406,67.52901 38.9988,24.12578 112.2777,14.3494 131.5101,5.98579 -39.7827,19.67647 -151.2589,38.53306 -215.4148,-49.39071 -15.2092,-20.84384 30.2641,-24.12409 30.2641,-24.12409 z"
       id="path1357"
       inkscape:connector-curvature="0"
       inkscape:transform-center-x="-30.354172"
       inkscape:transform-center-y="-147.57618"
       sodipodi:nodetypes="cscsc" />
    <path
       style="color:#000000;display:inline;overflow:visible;visibility:visible;fill:#ffffff;fill-opacity:1;fill-rule:nonzero;stroke:none;stroke-width:1.5385px;marker:none;enable-background:accumulate"
       d="m 103.35589,2768.4588 c 4.72518,-39.7667 59.86532,-68.7922 202.771,-61.119 76.54785,4.1101 163.48027,6.8552 157.44629,65.1114 -6.03405,58.2567 -130.99861,56.5921 -156.80697,57.9201 -25.80846,1.3284 -160.14443,-4.9608 -183.52056,-24.8113 -14.63282,-12.426 -20.38768,-24.7842 -19.88976,-37.1012 z"
       id="path4546-6-5"
       inkscape:connector-curvature="0"
       sodipodi:nodetypes="cssssc" />
    <path
       style="color:#000000;display:inline;overflow:visible;visibility:visible;fill:#ffffff;fill-opacity:1;fill-rule:nonzero;stroke:none;stroke-width:1.55147px;marker:none;enable-background:accumulate"
       d="m 843.30877,3230.3551 c 4.46798,-72.4835 56.60666,-125.3888 191.73343,-111.4026 72.3811,7.4914 154.5816,12.4949 148.8761,118.6795 -5.7056,106.1854 -123.8681,103.1513 -148.2716,105.5719 -24.4037,2.4214 -151.42713,-9.0423 -173.53082,-45.224 -13.83632,-22.6489 -19.27792,-45.1745 -18.80711,-67.6248 z"
       id="path4546-6-5-2"
       inkscape:connector-curvature="0"
       sodipodi:nodetypes="cssssc" />
    <path
       style="fill:#ffffff;fill-rule:evenodd;stroke:none;stroke-width:1px;stroke-linecap:butt;stroke-linejoin:miter;stroke-opacity:1"
       d="m 1373.2637,3271.7707 c 22.5866,-17.8161 34.5507,-17.0035 58.8747,-18.7273 24.3239,-1.7244 84.3852,-5.6068 108.13,-1.0095 23.745,4.5978 46.3316,9.7705 52.123,16.0922 5.7914,6.3217 19.6908,24.7127 19.6908,32.7588 0,8.0461 8.108,34.4827 -6.9497,51.7245 -15.0577,17.2414 -30.1154,29.8854 -57.3351,29.3105 -27.2198,-0.5748 -64.8641,0 -82.8176,0.5749 -17.9534,0.5741 -72.972,-6.8972 -82.8174,-21.8393 -9.8454,-14.9426 -23.7449,-37.3566 -21.4283,-50.0006 2.3166,-12.6435 12.5296,-38.8842 12.5296,-38.8842 z"
       id="path1289"
       inkscape:connector-curvature="0"
       sodipodi:nodetypes="csssssssscc" />
    <path
       style="fill:#ffffff;fill-rule:evenodd;stroke:none;stroke-width:1px;stroke-linecap:butt;stroke-linejoin:miter;stroke-opacity:1"
       d="m 1520.7213,3290.478 c 0,0 0.2613,-30.8716 9.7849,-41.8248 9.5236,-10.953 35.9725,-32.826 61.189,-35.0384 -49.4537,-3.6057 -69.9603,11.1043 -78.3427,19.1018 -8.3839,7.9982 -32.4023,48.2786 -32.4023,48.2786 z"
       id="path1367-3"
       inkscape:connector-curvature="0" />
    <path
       style="color:#000000;display:inline;overflow:visible;visibility:visible;fill:#ffffff;fill-opacity:1;fill-rule:nonzero;stroke:none;stroke-width:1px;marker:none;enable-background:accumulate"
       d="m 371.05804,2770.2315 c -13.44223,35.2759 -28.63005,94.9961 57.30853,115.005 -17.80709,4.5085 -119.29491,-9.1273 -91.99905,-114.8163 7.92058,-30.6682 15.69642,-16.5134 23.06049,-15.8694 7.36416,0.6441 11.63003,15.6807 11.63003,15.6807 z"
       id="path4064-5"
       inkscape:connector-curvature="0"
       sodipodi:nodetypes="ccszc" />
    <path
       style="color:#000000;display:inline;overflow:visible;visibility:visible;fill:#ffffff;fill-opacity:1;fill-rule:nonzero;stroke:none;stroke-width:1px;marker:none;enable-background:accumulate"
       d="m 985.81867,3194.6677 c 41.23993,-57.572 33.73823,-151.8082 -50.60213,-153.341 81.57176,24.5899 42.90889,109.9963 14.4588,139.3816 -19.62934,16.6806 36.14333,13.9594 36.14333,13.9594 z"
       id="path3978-4"
       inkscape:connector-curvature="0"
       sodipodi:nodetypes="cccc" />
  </g>
  <g
     inkscape:groupmode="layer"
     id="layer1"
     inkscape:label="txt">
    <text
       xml:space="preserve"
       style="font-style:normal;font-variant:normal;font-weight:normal;font-stretch:normal;font-size:45.3333px;line-height:125%;font-family:Lavi;-inkscape-font-specification:Lavi;text-align:center;letter-spacing:0px;word-spacing:0px;text-anchor:middle;fill:#000000;fill-opacity:1;stroke:none"
       x="295.95398"
       y="213.741"
       id="text4246-70-2-2-2-7-4-9-9-6-1-2-3-9-2-7-9-3"><tspan
         sodipodi:role="line"
         style="font-size:45.3333px"
         x="295.95398"
         y="213.741"
         id="tspan1051">I re bostyas</tspan><tspan
         sodipodi:role="line"
         style="font-size:45.3333px"
         x="295.95398"
         y="270.40762"
         id="tspan1125">hemma yn pub</tspan><tspan
         sodipodi:role="line"
         style="font-size:45.3333px"
         x="295.95398"
         y="327.07425"
         id="tspan1127">le yn tevri.</tspan></text>
    <text
       xml:space="preserve"
       style="font-style:normal;font-variant:normal;font-weight:normal;font-stretch:normal;font-size:45.3333px;line-height:125%;font-family:Lavi;-inkscape-font-specification:Lavi;text-align:center;letter-spacing:0px;word-spacing:0px;text-anchor:middle;fill:#000000;fill-opacity:1;stroke:none"
       x="297.66208"
       y="832.55078"
       id="text4246-70-2-2-2-7-4-9-9-6-1-2-3-9-2-7-9-3-3"><tspan
         sodipodi:role="line"
         style="font-size:45.3333px"
         x="297.66208"
         y="832.55078"
         id="tspan1165">Y'n pella</tspan><tspan
         sodipodi:role="line"
         style="font-size:45.3333px"
         x="297.66208"
         y="889.21741"
         id="tspan1134">kornellow</tspan><tspan
         sodipodi:role="line"
         style="font-size:45.3333px"
         x="297.66208"
         y="945.88403"
         id="tspan1136">hogen.</tspan></text>
    <text
       xml:space="preserve"
       style="font-style:normal;font-variant:normal;font-weight:normal;font-stretch:normal;font-size:45.3333px;line-height:125%;font-family:Lavi;-inkscape-font-specification:Lavi;text-align:center;letter-spacing:0px;word-spacing:0px;text-anchor:middle;fill:#000000;fill-opacity:1;stroke:none"
       x="1431.1024"
       y="201.99611"
       id="text4246-70-2-2-2-7-4-9-9-6-1-2-3-9-2-7-9-3-6"><tspan
         sodipodi:role="line"
         style="font-size:45.3333px"
         x="1431.1024"
         y="201.99611"
         id="tspan1175">Deus yn-rag, gwren</tspan><tspan
         sodipodi:role="line"
         style="font-size:45.3333px"
         x="1431.1024"
         y="258.66275"
         id="tspan1145">diberth kyns ni</tspan><tspan
         sodipodi:role="line"
         style="font-size:45.3333px"
         x="1431.1024"
         y="315.32938"
         id="tspan1149">dhe vos aswonys.</tspan></text>
    <text
       xml:space="preserve"
       style="font-style:normal;font-variant:normal;font-weight:normal;font-stretch:normal;font-size:45.3333px;line-height:125%;font-family:Lavi;-inkscape-font-specification:Lavi;text-align:center;letter-spacing:0px;word-spacing:0px;text-anchor:middle;fill:#000000;fill-opacity:1;stroke:none"
       x="1521.848"
       y="394.40094"
       id="text4246-70-2-2-2-7-4-9-9-6-1-2-3-9-2-7-9-3-6-7"><tspan
         sodipodi:role="line"
         style="font-size:45.3333px"
         x="1521.848"
         y="394.40094"
         id="tspan1237">Ni a'gan beus</tspan><tspan
         sodipodi:role="line"
         style="font-size:45.3333px"
         x="1521.848"
         y="451.06757"
         id="tspan1156">kudynnow brassa</tspan><tspan
         sodipodi:role="line"
         style="font-size:45.3333px"
         x="1521.848"
         y="507.73419"
         id="tspan1158">lemmyn...</tspan></text>
    <text
       xml:space="preserve"
       style="font-style:normal;font-variant:normal;font-weight:normal;font-stretch:normal;font-size:45.3333px;line-height:125%;font-family:Lavi;-inkscape-font-specification:Lavi;text-align:center;letter-spacing:0px;word-spacing:0px;text-anchor:middle;fill:#000000;fill-opacity:1;stroke:none"
       x="294.23251"
       y="2781.9722"
       id="text4246-70-2-2-2-7-4-9-9-6-1-2-3-9-2-7-9-3-6-7-3"><tspan
         sodipodi:role="line"
         style="font-size:45.3333px"
         x="294.23251"
         y="2781.9722"
         id="tspan62644">An golow na...</tspan></text>
    <text
       xml:space="preserve"
       style="font-style:normal;font-variant:normal;font-weight:normal;font-stretch:normal;font-size:45.3333px;line-height:125%;font-family:Lavi;-inkscape-font-specification:Lavi;text-align:center;letter-spacing:0px;word-spacing:0px;text-anchor:middle;fill:#000000;fill-opacity:1;stroke:none"
       x="1020.1557"
       y="3187.2583"
       id="text4246-70-2-2-2-7-4-9-9-6-1-2-3-9-2-7-9-3-6-7-3-6"><tspan
         sodipodi:role="line"
         style="font-size:45.3333px"
         x="1020.1557"
         y="3187.2583"
         id="tspan1298">Sur ov ni</tspan><tspan
         sodipodi:role="line"
         style="font-size:45.3333px"
         x="1020.1557"
         y="3243.925"
         id="tspan1166">dhe vos ogas</tspan><tspan
         sodipodi:role="line"
         style="font-size:45.3333px"
         x="1020.1557"
         y="3300.5916"
         id="tspan1168">dh'y neyth.</tspan></text>
    <text
       xml:space="preserve"
       style="font-style:normal;font-variant:normal;font-weight:normal;font-stretch:normal;font-size:48.525px;line-height:125%;font-family:Lavi;-inkscape-font-specification:Lavi;text-align:center;letter-spacing:0px;word-spacing:0px;text-anchor:middle;fill:#000000;fill-opacity:1;stroke:none;stroke-width:1"
       x="1490.6833"
       y="3328.5591"
       id="text4246-70-2-2-2-7-4-9-9-6-1-2-3-9-2-7-9-3-6-7-3-6-7"><tspan
         sodipodi:role="line"
         style="font-style:normal;font-variant:normal;font-weight:bold;font-stretch:normal;font-size:48.525px;font-family:Lavi;-inkscape-font-specification:'Lavi Bold';stroke-width:1"
         x="1490.6833"
         y="3328.5591"
         id="tspan121879-0">Sewena!</tspan></text>
  </g>
</svg>
