<?xml version="1.0" encoding="UTF-8" standalone="no"?>
<svg
   xmlns:dc="http://purl.org/dc/elements/1.1/"
   xmlns:cc="http://creativecommons.org/ns#"
   xmlns:rdf="http://www.w3.org/1999/02/22-rdf-syntax-ns#"
   xmlns:svg="http://www.w3.org/2000/svg"
   xmlns="http://www.w3.org/2000/svg"
   xmlns:xlink="http://www.w3.org/1999/xlink"
   xmlns:sodipodi="http://sodipodi.sourceforge.net/DTD/sodipodi-0.dtd"
   xmlns:inkscape="http://www.inkscape.org/namespaces/inkscape"
   id="svg2"
   version="1.1"
   inkscape:version="0.92.4 (5da689c313, 2019-01-14)"
   width="2481"
   height="3503"
   sodipodi:docname="E35P02.svg">
  <metadata
     id="metadata8">
    <rdf:RDF>
      <cc:Work
         rdf:about="">
        <dc:format>image/svg+xml</dc:format>
        <dc:type
           rdf:resource="http://purl.org/dc/dcmitype/StillImage" />
        <dc:title />
      </cc:Work>
    </rdf:RDF>
  </metadata>
  <defs
     id="defs6" />
  <sodipodi:namedview
     pagecolor="#ffffff"
     bordercolor="#666666"
     borderopacity="1"
     objecttolerance="10"
     gridtolerance="10"
     guidetolerance="10"
     inkscape:pageopacity="0"
     inkscape:pageshadow="2"
     inkscape:window-width="1600"
     inkscape:window-height="847"
     id="namedview4"
     showgrid="false"
     inkscape:window-x="-8"
     inkscape:window-y="-8"
     inkscape:window-maximized="1"
     inkscape:document-rotation="0"
     inkscape:snap-global="false"
     inkscape:pagecheckerboard="0"
     inkscape:zoom="0.38110694"
     inkscape:cx="1485.0662"
     inkscape:cy="835.53986"
     inkscape:current-layer="layer3" />
  <g
     inkscape:groupmode="layer"
     id="layer2"
     inkscape:label="artwork"
     sodipodi:insensitive="true">
    <image
       sodipodi:absref="D:\Pepper&amp;Carrot\code\ep35_The-Reflection\lang\ro\../gfx_Pepper-and-Carrot_by-David-Revoy_E35P02.png"
       xlink:href="../gfx_Pepper-and-Carrot_by-David-Revoy_E35P02.png"
       width="2481"
       height="3503"
       id="image10"
       x="0"
       y="0" />
  </g>
  <g
     inkscape:groupmode="layer"
     id="layer3"
     inkscape:label="speechbubbles">
    <path
       style="color:#000000;display:inline;overflow:visible;visibility:visible;fill:#ffffff;fill-opacity:1;fill-rule:nonzero;stroke:none;stroke-width:1.04438px;marker:none;enable-background:accumulate"
       d="m 304.05483,2060.6861 c -6.79342,17.214 -45.10939,18.658 -59.21454,15.159 28.43271,19.257 27.44145,31.222 -11.16214,33.079 64.739,34.707 11.83512,29.455 1.40028,38.255 50.83203,11.961 33.98368,30.089 1.35601,38.422 58.42648,0.509 44.28227,12.725 22.16208,30.304 25.86883,-11.509 65.7741,-19.785 67.18998,10.306 37.48188,-26.287 56.82071,-25.775 70.37483,3.95 11.32193,-25.632 49.87371,-30.565 64.61509,-2.922 12.69876,-37.411 58.00938,-32.144 84.98117,-14.013 -15.1407,-12.796 -4.81614,-33.866 46.8039,-29.605 -4.15493,-11.73 2.37911,-26.535 28.44667,-24.58 -30.0266,-7.085 -35.56033,-14.394 20.19222,-22.259 -42.42443,-0.76 -81.98553,-2.319 -32.21243,-29.141 -15.61517,-0.649 -52.66388,21.732 -35.39036,-43.765 -45.7335,19.313 -93.79048,29.186 -91.4261,-11.382 -17.00247,21.943 -46.49287,32.801 -59.32274,5.393 -10.59102,25.603 -42.76005,14.882 -59.47129,-2.593 -11.04194,17.342 -27.55958,29.055 -59.32263,5.392 z"
       id="path3549-3-7-8"
       inkscape:connector-curvature="0"
       sodipodi:nodetypes="ccccccccccccccccccc" />
    <path
       style="fill:#ffffff;stroke:none;stroke-width:1.05630422"
       d="m 402.95155,2027.296 c 26.97915,-0.9964 157.35896,-5.7156 155.33108,90.335 -2.54084,120.3546 -3.821,175.3525 -143.43924,173.5037 -149.95773,-1.9859 -119.77638,-74.5743 -120.95054,-165.5315 -1.03953,-80.5258 36.66343,-95.3966 109.0587,-98.3072 z"
       id="path3280-8-6"
       inkscape:connector-curvature="0"
       sodipodi:nodetypes="csssc" />
    <path
       style="color:#000000;display:inline;overflow:visible;visibility:visible;fill:#ffffff;fill-opacity:1;fill-rule:nonzero;stroke:none;stroke-width:1px;marker:none;enable-background:accumulate"
       d="m 596.40058,2341.6788 c -54.36956,-1.3158 -66.37353,-18.0831 -76.5499,-29.227 3.41593,-3.9672 8.07344,-11.8668 8.07344,-11.8668 0,0 -22.49109,-20.0802 -27.87182,-30.4304 -5.38071,-10.3501 9.28192,-17.9731 9.28192,-17.9731 0,0 44.94813,37.9871 57.64264,43.4391 -9.83295,10.5902 -13.21387,16.7305 -18.38931,19.4211 3.1733,8.211 28.66645,25.6349 47.81303,26.6371 z"
       id="path4456-3"
       inkscape:connector-curvature="0" />
    <path
       style="color:#000000;display:inline;overflow:visible;visibility:visible;fill:#ffffff;fill-opacity:1;fill-rule:nonzero;stroke:none;stroke-width:0.75369287px;marker:none;enable-background:accumulate"
       d="m 1983.6747,2166.0676 c -4.5842,-46.9311 6.2739,-104.1137 151.9326,-90.5516 138.8757,12.9303 130.2018,30.7048 131.6724,90.29 1.5494,62.7785 -55.1318,93.1784 -154.638,87.1598 -58.3126,-3.5268 -116.4199,-6.8649 -128.967,-86.8982 z"
       id="path5026-4"
       inkscape:connector-curvature="0"
       sodipodi:nodetypes="csssc" />
    <path
       style="color:#000000;display:inline;overflow:visible;visibility:visible;fill:#ffffff;fill-opacity:1;fill-rule:nonzero;stroke:none;stroke-width:1.63768px;marker:none;enable-background:accumulate"
       d="m 2065.086,2229.8886 c -4.2272,-2.5286 -41.7209,44.7549 -41.7209,44.7549 l -35.4466,3.459 1.2502,26.926 -53.4012,-4.5662 35.1739,-8.2914 -1.9242,-26.5703 33.0101,-11.5413 29.8178,-33.9388 z"
       id="path4448"
       inkscape:connector-curvature="0"
       sodipodi:nodetypes="cccccccccc" />
    <path
       style="color:#000000;display:inline;overflow:visible;visibility:visible;fill:#ffffff;fill-opacity:1;fill-rule:nonzero;stroke:none;stroke-width:1.026px;marker:none;enable-background:accumulate"
       d="m 148.48197,2684.0009 c -5.46661,-32.9854 9.111,-121.7205 121.17689,-118.765 112.06578,2.9554 130.28795,43.7493 133.02121,56.0926 2.73334,12.3432 26.42205,81.9729 -61.04395,104.0062 -87.46608,22.0331 -165.82099,5.334 -193.15415,-41.3338 z"
       id="path3525"
       inkscape:connector-curvature="0" />
    <path
       style="color:#000000;display:inline;overflow:visible;visibility:visible;fill:#ffffff;fill-opacity:1;fill-rule:nonzero;stroke:none;stroke-width:0.81306803px;marker:none;enable-background:accumulate"
       d="m 1197.8952,2510.7385 c -20.7353,0.6888 -41.8023,1.5053 -61.659,5.8786 -26.5266,6.3286 -47.5355,22.5107 -52.0144,41.161 -2.177,11.6972 6.5913,23.6096 20.6143,30.5387 16.0894,8.3092 35.7079,12.8064 55.2545,16.014 29.3728,4.6113 59.8396,4.3964 89.7753,3.144 23.818,-1.1018 47.7887,-4.144 69.3858,-11.161 9.5998,-2.9972 19.146,-7.1119 24.1949,-13.5514 6.6972,-8.1877 7.1786,-17.9729 4.8437,-26.9872 -2.8898,-11.1151 -11.609,-21.7837 -25.4787,-28.4429 -15.3125,-7.6517 -34.2206,-11.1516 -52.8433,-13.1857 -17.3845,-1.863 -34.9646,-2.7365 -52.5142,-3.5621 -6.5246,-0.2401 -13.0416,-0.1111 -19.5589,0.154 z"
       id="path3525-3"
       inkscape:connector-curvature="0" />
    <path
       style="color:#000000;display:inline;overflow:visible;visibility:visible;fill:#ffffff;fill-opacity:1;fill-rule:nonzero;stroke:none;stroke-width:0.850812px;marker:none;enable-background:accumulate"
       d="m 378.31396,2800.4734 c -21.81603,-6.0365 -24.7236,-21.3438 -23.81085,-34.7307 0.91307,-13.3879 3.43731,-21.6544 -10.14803,-38.2382 -13.58559,-16.5829 -43.44749,-17.8668 -26.36893,-33.9071 2.07754,-10.3968 3.18888,-19.4098 8.63924,-29.73 6.0118,-11.3839 -30.60834,-11.6128 -30.60834,-11.6128 0,0 -9.2601,36.4069 -8.60393,58.2554 0.65624,21.8486 37.98578,15.4181 49.29264,29.8458 10.55851,13.4728 3.54145,36.8172 10.69223,46.6028 7.15061,9.7866 19.89022,13.3481 30.91597,13.5148 z"
       id="path4538-8"
       inkscape:connector-curvature="0"
       sodipodi:nodetypes="csscscsssc" />
    <path
       style="fill:#ffffff;fill-rule:evenodd;stroke:none;stroke-width:1.00018px;stroke-linecap:butt;stroke-linejoin:miter;stroke-opacity:1"
       d="m 683.3565,2839.4097 c 22.47948,-7.6888 8.18259,-27.2917 13.56572,-36.5201 5.55722,-9.5269 47.07364,3.0903 52.88651,-5.37 5.81286,-8.4604 -12.6074,-31.2018 -3.16551,-44.2198 9.44226,-13.0187 37.29048,-1.0958 25.77916,13.6924 -11.51166,14.7889 6.85876,28.7751 -4.63767,39.1332 -19.17293,17.274 -46.18634,1.6002 -58.07288,2.8253 -7.86988,0.8115 -1.86593,15.6117 -9.63373,23.71 -7.76824,8.099 -16.7216,6.749 -16.7216,6.749 z"
       id="path4272-2"
       inkscape:connector-curvature="0"
       sodipodi:nodetypes="csssssssc" />
    <path
       style="fill:#ffffff;stroke:none;stroke-width:0.95254111"
       d="m 1757.6864,2716.9864 c -1.258,-28.4247 21.2997,-99.5827 131.3348,-94.2307 110.0352,5.352 144.4743,36.6185 147.699,87.143 5.101,79.9293 -52.7885,101.2897 -135.9123,107.2096 -85.6919,6.1032 -144.4514,-48.7625 -143.1215,-100.1219 z"
       id="path3280-8-90"
       inkscape:connector-curvature="0"
       sodipodi:nodetypes="csssc" />
    <path
       style="color:#000000;display:inline;overflow:visible;visibility:visible;fill:#ffffff;fill-opacity:1;fill-rule:nonzero;stroke:none;stroke-width:1px;marker:none;enable-background:accumulate"
       d="m 1981.8954,2716.5742 c 21.7602,57.3157 81.8906,99.8161 102.9782,111.0989 -62.8332,-18.8149 -116.4083,-51.6111 -129.2847,-90.9766 -12.8765,-39.3656 26.3065,-20.1223 26.3065,-20.1223 z"
       id="path4480"
       inkscape:connector-curvature="0" />
    <path
       style="fill:#ffffff;fill-rule:evenodd;stroke:none;stroke-width:0.90322942px;stroke-linecap:butt;stroke-linejoin:miter;stroke-opacity:1"
       d="m 1133.9352,1150.3164 c -27.931,0.1934 -55.9738,2.5884 -83.1377,9.017 -10.1989,2.505 -20.3343,5.4223 -30.0031,9.44 -12.6568,5.7163 -22.23652,16.1572 -29.40424,27.4274 -8.13862,12.9312 -13.30912,27.4508 -15.85889,42.3193 -2.03872,11.6183 -3.04369,23.3881 -3.57266,35.1506 -0.5275,16.2063 1.3625,32.6068 6.93881,47.9748 6.54877,19.1004 17.47716,37.2586 33.56518,50.4289 15.4383,12.1254 34.4712,19.0276 53.5105,24.0904 31.3736,7.9859 64.0621,9.1976 96.3607,9.1826 24.3284,-0.2469 48.4816,-4.0718 72.0121,-9.8325 18.1116,-4.1611 36.1775,-8.9094 53.3054,-15.9987 12.7749,-5.6615 24.5696,-14.2822 31.6073,-26.152 9.3837,-14.8891 13.4896,-32.0839 16.9152,-48.9705 3.7147,-19.3623 5.5671,-39.4958 1.1698,-58.906 -4.2558,-18.3953 -14.6439,-34.8313 -26.3275,-49.7479 -14.9774,-17.9002 -36.396,-30.0899 -59.1158,-36.7768 -24.4698,-7.2348 -50.2992,-8.3084 -75.7302,-8.6074 -14.0778,-0.092 -28.1569,-0.087 -42.2349,-0.039 z"
       id="path1353"
       inkscape:connector-curvature="0"
       sodipodi:nodetypes="cssscscssccc" />
    <path
       style="color:#000000;display:inline;overflow:visible;visibility:visible;fill:#ffffff;fill-opacity:1;fill-rule:nonzero;stroke:none;stroke-width:1.32704px;marker:none;enable-background:accumulate"
       d="m 1567.2167,1263.2749 c -23.3951,-13.5874 -47.4345,-27.8488 -80.2438,-37.3029 -9.419,-2.6108 -19.456,-5.052 -29.7275,-6.2777 -10.8699,-0.2589 -18.5833,3.1803 -21.2691,7.3616 -4.9062,5.8321 -4.0751,13.3543 -14.8239,17.5815 -8.0334,2.9766 -20.4058,1.2285 -30.8948,0.151 -55.5613,-5.5966 -116.4529,-16.3815 -168.9125,-7.1839 -10.3316,2.0201 -20.2049,4.8402 -25.0559,9.4641 -13.7945,11.5007 -11.0257,28.0336 10.0671,40.719 14.9737,7.6682 42.5542,10.484 56.687,4.5569 7.5899,-3.0688 8.1735,-8.3583 5.5139,-13.1861 -1.2458,-8.9607 7.6217,0.022 24.0822,-3.6677 37.2334,-5.6014 77.5291,-14.6477 110.5037,-9.7254 10.0809,1.4739 25.6582,0.1256 35.3315,-0.599 12.5832,-2.5592 14.9137,-9.3886 15.3033,-15.3984 0.7726,-6.1637 0.047,-13.4883 11.1891,-17.2514 6.7172,-3.1499 17.8965,0.5337 26.5328,1.8753 27.2211,5.8451 51.5565,15.088 70.9679,25.6439 1.7031,1.0526 3.2274,2.1441 4.749,3.2392 z"
       id="path4496-9"
       inkscape:connector-curvature="0"
       inkscape:transform-center-x="43.812193"
       inkscape:transform-center-y="17.777857"
       sodipodi:nodetypes="ccccccccccccccccccc" />
    <path
       style="fill:#ffffff;stroke:none;stroke-width:0.86966"
       d="m 870.21516,506.07458 c 4.03551,-79.95564 23.59527,-109.60227 260.85484,-112.65143 328.367,-4.2206 351.3414,63.76808 345.1033,157.5583 -6.7305,101.19365 -200.3957,101.47753 -358.706,98.35148 -273.19102,-5.39418 -244.789,-61.2111 -247.25214,-143.25835 z"
       id="path3280-8-0"
       inkscape:connector-curvature="0"
       sodipodi:nodetypes="csssc" />
    <path
       style="display:inline;fill:#ffffff;stroke:none;stroke-width:0.760991"
       d="m 846.25597,318.63754 c 2.51728,-62.9498 16.90873,-145.15068 149.80284,-146.44194 132.89389,-1.29222 177.61179,38.50078 185.01359,107.2676 14.1784,131.72583 -53.3341,121.41139 -152.8999,135.97035 -102.64159,15.00816 -185.80637,-4.53008 -181.91653,-96.79601 z"
       id="path3280-8-2"
       inkscape:connector-curvature="0"
       sodipodi:nodetypes="csssc" />
    <path
       style="color:#000000;display:inline;overflow:visible;visibility:visible;fill:#ffffff;fill-opacity:1;fill-rule:nonzero;stroke:none;stroke-width:1.12734px;marker:none;enable-background:accumulate"
       d="m 1054.8727,654.26102 c 26.1383,-30.95776 348.576,-53.00464 423.0628,17.01045 51.9098,48.79294 31.8845,142.36388 -12.6087,166.72126 -44.4935,24.35859 -259.3045,31.21923 -320.3574,18.81389 -54.9019,-11.15418 -112.53,-35.16455 -115.5682,-99.06921 -1.2399,-26.0814 -0.6668,-72.51986 25.4715,-103.47639 z"
       id="path4040-5"
       inkscape:connector-curvature="0"
       sodipodi:nodetypes="zssssz" />
    <path
       style="color:#000000;display:inline;overflow:visible;visibility:visible;fill:#ffffff;fill-opacity:1;fill-rule:nonzero;stroke:none;stroke-width:1px;marker:none;enable-background:accumulate"
       d="m 880.35523,328.5815 c -13.93862,-43.79995 -75.39205,-33.32608 -131.42892,10.54697 35.43843,-36.41055 76.35778,-76.93843 143.98747,-47.05147 49.32789,21.79901 14.57754,15.53221 14.57754,15.53221 z"
       id="path4035-4"
       inkscape:connector-curvature="0"
       sodipodi:nodetypes="ccscc" />
    <path
       style="display:inline;fill:#ffffff;fill-rule:evenodd;stroke:none;stroke-width:1.30048px;stroke-linecap:butt;stroke-linejoin:miter;stroke-opacity:1"
       d="m 1548.4515,71.619933 c 24.985,5.793404 24.4053,18.959491 12.7022,17.639048 7.502,22.947809 30.4769,75.029379 10.5214,81.465079 0.3216,63.9758 13.4148,96.99152 -1.5675,133.3805 55.2137,-16.22272 57.3634,11.34478 53.2124,37.36138 20.3681,-34.64111 35.9429,-12.07585 29.8359,19.78535 20.93,-34.83705 45.1859,-50.69323 41.2991,-13.35757 23.6513,-26.97855 24.8612,-39.45512 44.7286,-27.78038 36.1161,-32.36707 51.1793,12.81962 73.0469,32.93992 8.1542,-36.73832 23.3152,-29.5983 49.8625,-10.87598 9.0829,-15.46913 -12.0518,-42.91267 12.7553,-9.1895 -9.9891,-38.67303 40.684,-20.02028 51.0233,-14.32381 -12.6632,-17.39684 9.1057,-22.00167 70.4804,-11.89519 -23.7677,-9.30819 -33.969,-40.04329 13.7163,-61.82426 -62.5354,8.83659 -39.2315,-9.45622 -20.0369,-29.45507 -40.898,-30.71396 -0.2138,-59.34641 20.1138,-88.49783 -41.3041,13.50432 -56.3387,-44.502353 -63.9558,-58.334579 -62.6921,10.543316 -53.3929,4.67716 -47.3762,-0.440896 -38.8414,12.824672 -36.6646,1.446479 -46.7026,-2.724502 -106.7351,15.616521 -102.9554,-0.688504 -125.0299,-9.525581 -8.7451,18.669199 -31.2305,11.414952 -53.7729,4.053771 0.845,15.799861 -12.7693,11.180214 -26.0813,6.987641 -1.7053,6.812619 -14.9264,8.77544 -43.6739,4.198974 20.5299,5.623526 7.8516,6.563777 -55.1011,0.413485 z"
       id="path4289-9-2"
       inkscape:connector-curvature="0"
       sodipodi:nodetypes="cccccccccccccccccccccccc" />
    <path
       style="fill:#ffffff;fill-opacity:1;fill-rule:evenodd;stroke:none;stroke-width:0.90623474px;stroke-linecap:butt;stroke-linejoin:miter;stroke-opacity:1"
       d="m 2384.7297,827.61242 c -1.1457,5.78189 -52.9573,50.75726 -20.6027,11.18693 l -30.2723,11.05413 c -58.6783,-23.9933 -250.6523,-9.34069 -314.8665,3.89598 l -17.6152,-23.79669 3.5134,19.9766 -20.4232,-29.5872 11.4457,39.84368 -10.7804,-13.52642 4.5277,14.93545 -10.4714,-7.26249 1.7711,12.78396 c -24.3461,11.87075 -38.1891,35.27681 -43.6731,59.42533 l -19.6613,-2.18771 18.2642,9.44245 c -0.2324,1.46595 -0.4419,2.9319 -0.6147,4.39354 -0.011,0.10002 -0.024,0.20264 -0.032,0.30267 l -20.6658,-3.44929 19.8438,12.85983 c -0.044,0.68728 -0.087,1.37283 -0.1239,2.06614 l -39.5396,-8.05411 39.2053,21.88664 c -0.011,24.58312 2.8362,49.81036 4.3092,60.83786 1.0213,7.6453 2.1191,21.8229 8.0857,24.8619 l -36.8261,9.18 48.7993,-5.0084 c 1.0365,0.1118 2.0946,0.2233 3.1573,0.3351 l -12.6069,3.1219 21.9473,-2.1743 c 2.2459,0.2198 4.5408,0.4384 6.8801,0.6559 l -22.7285,6.9937 33.9018,-5.9975 c 81.6012,6.9803 256.0433,13.9287 377.7359,-2.9592 l 17.9864,3.6405 -6.9113,-5.2533 c 2.3759,-0.3628 5.4257,-0.7339 5.5517,-1.1145 l 0.4269,0.1533 -0.2829,-1.1649 c 0.027,-0.1926 0.053,-0.3855 0.081,-0.5801 l 1.4542,2.5619 -1.093,-13.6679 c 0.6889,-15.8728 0.866,-33.8833 0.7809,-52.12307 l 1.3189,-10.97485 c -2.2797,5.67841 -1.4654,-6.81581 -0.032,-13.24184 l -1.2877,0.88905 c 0.1247,-14.76643 -0.3362,-41.84945 -0.9398,-55.98466 l 0.06,-10.71782 c -1.0567,1.02702 -0.3762,-8.19468 -0.013,-16.22464 -1.1602,7.22542 -1.018,4.19004 -0.5615,-9.85722 -1.954,4.00291 1.0461,-33.08651 1.5771,-42.37633 z"
       id="path4212-3"
       inkscape:connector-curvature="0"
       sodipodi:nodetypes="ccccccccccccccccccccccsccccccccccccccccccccccccccc" />
    <path
       style="display:inline;fill:#ffffff;fill-rule:evenodd;stroke:none;stroke-width:1.44912px;stroke-linecap:butt;stroke-linejoin:miter;stroke-opacity:1"
       d="m 2102.6149,751.43806 c 0.6806,41.31231 13.5699,99.33289 8.1415,118.1885 4.1542,65.56524 102.9122,-3.97588 46.8489,-17.72263 -23.7511,-36.29813 -38.7836,-65.39219 -54.9904,-100.46587 z"
       id="path4667-2"
       inkscape:connector-curvature="0"
       sodipodi:nodetypes="cccc" />
    <path
       style="color:#000000;display:inline;overflow:visible;visibility:visible;fill:#ffffff;fill-opacity:1;fill-rule:nonzero;stroke:none;stroke-width:0.891997px;marker:none;enable-background:accumulate"
       d="m 733.40911,2654.7496 c -27.56406,-0.098 -56.09893,5.1296 -78.89518,19.5074 -15.71474,9.8584 -27.22154,26.2721 -26.5013,43.7335 0.5462,14.2429 10.67174,27.0138 23.82523,34.6216 14.99922,8.6903 32.87844,12.1176 50.28903,14.7287 30.09288,4.0973 60.63079,3.3432 90.94509,4.9003 19.15466,0.6389 38.82433,0.9884 57.32549,-4.1125 16.58778,-6.0439 26.85665,-21.5133 28.51318,-36.9608 1.71378,-15.5734 -0.66261,-32.4583 -11.62804,-45.2137 -10.31828,-11.5412 -26.31477,-17.3952 -41.83511,-21.357 -29.86665,-7.3926 -61.09068,-10.2257 -92.03839,-9.8475 z"
       id="path3525-3-5"
       inkscape:connector-curvature="0" />
    <path
       style="fill:#ffffff;fill-rule:evenodd;stroke:none;stroke-width:1.00018px;stroke-linecap:butt;stroke-linejoin:miter;stroke-opacity:1"
       d="m 1223.463,2688.0374 c 17.4992,-16.0693 -3.4666,-28.2803 -2.2428,-38.8936 1.2634,-10.9567 44.3518,-16.0746 46.2777,-26.1572 1.9258,-10.0826 -24.0767,-23.5119 -20.6577,-39.2259 3.4191,-15.7147 33.7111,-15.9794 29.1078,2.1868 -4.6033,18.167 17.8374,23.5982 11.4686,37.7013 -10.6216,23.5196 -41.6554,20.0139 -52.0494,25.9095 -6.8814,3.9037 4.5609,15.0468 0.6993,25.5829 -3.8618,10.5369 -12.6035,12.8962 -12.6035,12.8962 z"
       id="path4272-2-3"
       inkscape:connector-curvature="0"
       sodipodi:nodetypes="csssssssc" />
    <path
       style="color:#000000;display:inline;overflow:visible;visibility:visible;fill:#ffffff;fill-opacity:1;fill-rule:nonzero;stroke:none;stroke-width:1.00989px;marker:none;enable-background:accumulate"
       d="m 1555.8755,2522.3224 c -7.2641,19.7338 -49.9991,21.9845 -65.8052,18.2182 32.0867,21.5056 31.201,35.1623 -11.8474,37.8903 72.8902,38.545 13.7513,33.3934 2.268,43.5918 56.9502,12.8342 31.8432,30.1632 22.0165,47.2005 65.2147,-0.3425 44.314,27.0397 47.411,48.5677 5.3642,-10.1977 31.1272,-41.3812 33.2621,-7.0964 0.014,-6.488 42.0303,-60.8477 106.6414,-9.4692 -1.9757,-26.8993 19.7511,-32.7435 41.0685,4.1555 -7.5742,-40.161 66.0961,-29.5513 105.2215,-17.4684 -20.0617,-24.1109 10.8603,-34.3802 44.011,-29.9904 -4.8532,-13.3079 6.1646,-22.6579 31.294,-28.4736 -33.641,-7.6032 -39.9516,-15.8481 22.125,-25.6962 -47.361,-0.1964 -91.541,-1.3483 -36.4875,-32.7151 -17.4388,-0.492 -58.3734,25.6094 -40.3033,-49.338 -29.5802,24.3307 -61.3385,37.9775 -102.2437,-11.5311 -18.5708,25.285 -51.2826,38.132 -66.1064,7.0859 -4.9308,13.3936 -26.189,18.707 -44.2948,19.5706 -7.0909,-5.1921 -14.4322,-12.2772 -22.1244,-21.587 -12.0033,19.9474 -30.2215,33.5613 -66.1063,7.0849 z"
       id="path3549-3-7-9-6"
       inkscape:connector-curvature="0"
       sodipodi:nodetypes="cccccccccccccccccccc" />
    <path
       style="color:#000000;display:inline;overflow:visible;visibility:visible;fill:#ffffff;fill-opacity:1;fill-rule:nonzero;stroke:none;stroke-width:1.22149px;marker:none;enable-background:accumulate"
       d="m 1834.6942,302.71538 c 13.3969,25.86728 33.5213,54.90113 39.2123,61.39746 7.9957,-8.63868 17.0744,-15.33555 24.0331,-20.64544 9.0197,12.83333 45.9509,74.58787 45.5696,92.05922 3.355,-43.2627 -19.8328,-91.86712 -36.9856,-111.86967 -10.7606,5.90497 -16.2791,10.46235 -22.0396,13.47435 -9.2965,-9.62452 -29.0289,-46.10687 -29.0289,-46.10687 z"
       id="path5066-8"
       inkscape:connector-curvature="0" />
  </g>
  <g
     inkscape:groupmode="layer"
     id="layer1"
     inkscape:label="txt">
    <text
       xml:space="preserve"
       style="font-style:normal;font-variant:normal;font-weight:normal;font-stretch:normal;font-size:45px;line-height:1.25;font-family:Lavi;-inkscape-font-specification:Lavi;text-align:center;letter-spacing:0px;word-spacing:0px;text-anchor:middle;fill:#000000;fill-opacity:1;stroke:none"
       x="1018.2072"
       y="250.12212"
       id="text4246-3-2-2"><tspan
         style="font-size:45px"
         sodipodi:role="line"
         x="1018.2072"
         y="250.12212"
         id="tspan911">Sunt pe cale</tspan><tspan
         style="font-size:45px"
         sodipodi:role="line"
         x="1018.2072"
         y="306.37213"
         id="tspan88">să pierd</tspan><tspan
         style="font-size:45px"
         sodipodi:role="line"
         x="1018.2072"
         y="362.62213"
         id="tspan90">hiperviteza,</tspan></text>
    <text
       xml:space="preserve"
       style="font-style:normal;font-variant:normal;font-weight:normal;font-stretch:normal;font-size:45px;line-height:1.25;font-family:Lavi;-inkscape-font-specification:Lavi;text-align:center;letter-spacing:0px;word-spacing:0px;text-anchor:middle;fill:#000000;fill-opacity:1;stroke:none"
       x="1167.5723"
       y="475.56839"
       id="text4246-3-2-2-3"><tspan
         style="font-size:45px"
         sodipodi:role="line"
         x="1167.5723"
         y="475.56839"
         id="tspan928">iar dragonul și călărețul</tspan><tspan
         style="font-size:45px"
         sodipodi:role="line"
         x="1174.6035"
         y="532.00397"
         id="tspan97">au ținut pasul cu noi de ore </tspan><tspan
         style="font-size:45px"
         sodipodi:role="line"
         x="1167.5723"
         y="588.43958"
         id="tspan99">bune.</tspan></text>
    <text
       xml:space="preserve"
       style="font-style:normal;font-variant:normal;font-weight:normal;font-stretch:normal;font-size:45px;line-height:1.25;font-family:Lavi;-inkscape-font-specification:Lavi;text-align:center;letter-spacing:0px;word-spacing:0px;text-anchor:middle;fill:#000000;fill-opacity:1;stroke:none"
       x="1263.569"
       y="697.07538"
       id="text4246-3-2-2-3-6"><tspan
         style="font-size:45px"
         sodipodi:role="line"
         x="1263.569"
         y="697.07538"
         id="tspan956">Ne va prinde imediat</tspan><tspan
         style="font-size:45px"
         sodipodi:role="line"
         x="1263.569"
         y="753.32538"
         id="tspan106">ce o să încetinesc.</tspan></text>
    <text
       xml:space="preserve"
       style="font-style:normal;font-variant:normal;font-weight:normal;font-stretch:normal;font-size:59.5685997px;line-height:1.25;font-family:Lavi;-inkscape-font-specification:Lavi;text-align:center;letter-spacing:0px;word-spacing:0px;text-anchor:middle;fill:#000000;fill-opacity:1;stroke:none;stroke-width:1.32375002"
       x="1790.1418"
       y="189.64172"
       id="text4246-3-2-2-3-6-3"><tspan
         style="font-size:59.5685997px;stroke-width:1.32375002"
         sodipodi:role="line"
         x="1790.1418"
         y="189.64172"
         id="tspan1079">Ce idioată</tspan><tspan
         style="font-size:59.5685997px;stroke-width:1.32375002"
         sodipodi:role="line"
         x="1799.4495"
         y="264.10248"
         id="tspan110">am fost! </tspan></text>
    <text
       xml:space="preserve"
       style="font-style:normal;font-variant:normal;font-weight:normal;font-stretch:normal;font-size:45px;line-height:1.25;font-family:Lavi;-inkscape-font-specification:Lavi;text-align:center;letter-spacing:0px;word-spacing:0px;text-anchor:middle;fill:#000000;fill-opacity:1;stroke:none"
       x="2153.592"
       y="917.40289"
       id="text4246-3-2-2-3-6-2"><tspan
         style="font-size:45px"
         sodipodi:role="line"
         x="2153.592"
         y="917.40289"
         id="tspan966">Eram sigură</tspan><tspan
         style="font-size:45px"
         sodipodi:role="line"
         x="2153.592"
         y="973.65289"
         id="tspan117">că o să renunțe</tspan><tspan
         style="font-size:45px"
         sodipodi:role="line"
         x="2153.592"
         y="1030.0885"
         id="tspan119">după câteva ore!</tspan></text>
    <text
       xml:space="preserve"
       style="font-style:normal;font-variant:normal;font-weight:normal;font-stretch:normal;font-size:45px;line-height:1.25;font-family:Lavi;-inkscape-font-specification:Lavi;text-align:center;letter-spacing:0px;word-spacing:0px;text-anchor:middle;fill:#000000;fill-opacity:1;stroke:none"
       x="1158.7565"
       y="1236.7683"
       id="text4246-3-2-2-3-6-2-7"><tspan
         style="font-size:45px"
         sodipodi:role="line"
         x="1158.7565"
         y="1236.7683"
         id="tspan979">Dacă am putea</tspan><tspan
         style="font-size:45px"
         sodipodi:role="line"
         x="1158.7565"
         y="1293.0183"
         id="tspan126">să îl facem să</tspan><tspan
         style="font-size:45px"
         sodipodi:role="line"
         x="1158.7565"
         y="1349.2683"
         id="tspan128">ne piardă urma.</tspan></text>
    <text
       xml:space="preserve"
       style="font-style:normal;font-variant:normal;font-weight:normal;font-stretch:normal;font-size:45px;line-height:1.25;font-family:Lavi;-inkscape-font-specification:Lavi;text-align:center;letter-spacing:0px;word-spacing:0px;text-anchor:middle;fill:#000000;fill-opacity:1;stroke:none"
       x="416.16843"
       y="2096.4697"
       id="text4246-3-2-2-3-6-2-7-2"><tspan
         style="font-size:45px"
         sodipodi:role="line"
         x="423.19968"
         y="2096.4697"
         id="tspan1171-9"><tspan
   style="font-style:normal;font-variant:normal;font-weight:bold;font-stretch:normal;font-family:Lavi;-inkscape-font-specification:'Lavi Bold'"
   id="tspan889">NU.</tspan> </tspan><tspan
         style="font-size:45px"
         sodipodi:role="line"
         x="416.16843"
         y="2152.7197"
         id="tspan885"><tspan
   style="font-weight:bold"
   id="tspan141">Trebuie</tspan> să</tspan><tspan
         style="font-size:45px"
         sodipodi:role="line"
         x="416.16843"
         y="2208.9697"
         id="tspan137">scăpăm de</tspan><tspan
         style="font-size:45px"
         sodipodi:role="line"
         x="416.16843"
         y="2265.2197"
         id="tspan139">el!</tspan></text>
    <text
       xml:space="preserve"
       style="font-style:normal;font-variant:normal;font-weight:normal;font-stretch:normal;font-size:45px;line-height:1.25;font-family:Lavi;-inkscape-font-specification:Lavi;text-align:center;letter-spacing:0px;word-spacing:0px;text-anchor:middle;fill:#000000;fill-opacity:1;stroke:none"
       x="2127.5425"
       y="2144.2527"
       id="text4246-3-2-2-3-6-2-7-2-2"><tspan
         style="font-size:45px"
         sodipodi:role="line"
         x="2127.5425"
         y="2144.2527"
         id="tspan1271">Înainte</tspan><tspan
         style="font-size:45px"
         sodipodi:role="line"
         x="2127.5425"
         y="2200.5027"
         id="tspan148">să ne prindă!</tspan></text>
    <text
       xml:space="preserve"
       style="font-style:normal;font-variant:normal;font-weight:normal;font-stretch:normal;font-size:45px;line-height:1.25;font-family:Lavi;-inkscape-font-specification:Lavi;text-align:center;letter-spacing:0px;word-spacing:0px;text-anchor:middle;fill:#000000;fill-opacity:1;stroke:none"
       x="273.79352"
       y="2629.6626"
       id="text4246-3-2-2-3-6-2-7-2-3"><tspan
         style="font-size:45px"
         sodipodi:role="line"
         x="273.79352"
         y="2629.6626"
         id="tspan903">Dar sunt</tspan><tspan
         style="font-size:45px"
         sodipodi:role="line"
         x="273.79352"
         y="2685.9126"
         id="tspan152">și foarte...</tspan></text>
    <text
       xml:space="preserve"
       style="font-style:normal;font-variant:normal;font-weight:normal;font-stretch:normal;font-size:45px;line-height:1.25;font-family:Lavi;-inkscape-font-specification:Lavi;text-align:center;letter-spacing:0px;word-spacing:0px;text-anchor:middle;fill:#000000;fill-opacity:1;stroke:none"
       x="762.94037"
       y="2724.3162"
       id="text4246-3-2-2-3-6-2-7-2-3-3-3"><tspan
         style="font-size:45px"
         x="762.94037"
         y="2724.3162"
         id="tspan1318-9-6"
         sodipodi:role="line">...foarte...</tspan><tspan
         style="font-size:45px"
         x="762.94037"
         y="2780.5662"
         id="tspan1356-7"
         sodipodi:role="line" /></text>
    <text
       xml:space="preserve"
       style="font-style:normal;font-variant:normal;font-weight:normal;font-stretch:normal;font-size:45px;line-height:1.25;font-family:Lavi;-inkscape-font-specification:Lavi;text-align:center;letter-spacing:0px;word-spacing:0px;text-anchor:middle;fill:#000000;fill-opacity:1;stroke:none"
       x="1215.9623"
       y="2473.1138"
       id="text4246-3-2-2-3-6-2-7-2-3-3"><tspan
         style="font-size:45px"
         sodipodi:role="line"
         x="1215.9623"
         y="2514.3542"
         id="tspan1318-9" /><tspan
         style="font-size:45px"
         sodipodi:role="line"
         x="1222.9935"
         y="2570.6042"
         id="tspan1356">...obosită... </tspan></text>
    <text
       xml:space="preserve"
       style="font-style:normal;font-variant:normal;font-weight:normal;font-stretch:normal;font-size:64.43399811px;line-height:1.25;font-family:Lavi;-inkscape-font-specification:Lavi;text-align:center;letter-spacing:0px;word-spacing:0px;text-anchor:middle;fill:#000000;fill-opacity:1;stroke:none;stroke-width:1.43186998"
       x="1696.2407"
       y="2630.5286"
       id="text4246-3-2-2-3-6-2-7-2-3-3-4"><tspan
         style="font-style:normal;font-variant:normal;font-weight:bold;font-stretch:normal;font-size:64.43399811px;font-family:Lavi;-inkscape-font-specification:'Lavi Bold';stroke-width:1.43186998"
         sodipodi:role="line"
         x="1696.2407"
         y="2630.5286"
         id="tspan1356-4">UPS!</tspan></text>
    <text
       xml:space="preserve"
       style="font-style:normal;font-variant:normal;font-weight:normal;font-stretch:normal;font-size:45px;line-height:1.25;font-family:Lavi;-inkscape-font-specification:Lavi;text-align:center;letter-spacing:0px;word-spacing:0px;text-anchor:middle;fill:#000000;fill-opacity:1;stroke:none"
       x="1905.2314"
       y="2697.1885"
       id="text4246-3-2-2-3-6-2-7-2-3-5"><tspan
         style="font-size:45px"
         sodipodi:role="line"
         x="1912.2627"
         y="2697.1885"
         id="tspan1072">Trezirea, </tspan><tspan
         style="font-size:45px"
         sodipodi:role="line"
         x="1905.2314"
         y="2753.4385"
         id="tspan1074">Pepper!</tspan></text>
    <flowRoot
       xml:space="preserve"
       id="flowRoot156"
       style="fill:black;fill-opacity:1;stroke:none;font-family:sans-serif;font-style:normal;font-weight:normal;font-size:40px;line-height:1.25;letter-spacing:0px;word-spacing:0px"><flowRegion
         id="flowRegion158"><rect
           id="rect160"
           width="10.495742"
           height="47.230839"
           x="1193.8906"
           y="2566.2551" /></flowRegion><flowPara
         id="flowPara162"></flowPara></flowRoot>  </g>
</svg>
