<?xml version="1.0" encoding="UTF-8" standalone="no"?>
<!-- Created with Inkscape (http://www.inkscape.org/) -->

<svg
   id="svg2"
   version="1.1"
   inkscape:version="1.2.2 (b0a8486541, 2022-12-01)"
   width="3840"
   height="3840"
   sodipodi:docname="005.svg"
   xmlns:inkscape="http://www.inkscape.org/namespaces/inkscape"
   xmlns:sodipodi="http://sodipodi.sourceforge.net/DTD/sodipodi-0.dtd"
   xmlns:xlink="http://www.w3.org/1999/xlink"
   xmlns="http://www.w3.org/2000/svg"
   xmlns:svg="http://www.w3.org/2000/svg"
   xmlns:rdf="http://www.w3.org/1999/02/22-rdf-syntax-ns#"
   xmlns:cc="http://creativecommons.org/ns#"
   xmlns:dc="http://purl.org/dc/elements/1.1/">
  <metadata
     id="metadata8">
    <rdf:RDF>
      <cc:Work
         rdf:about="">
        <dc:format>image/svg+xml</dc:format>
        <dc:type
           rdf:resource="http://purl.org/dc/dcmitype/StillImage" />
        <dc:title />
      </cc:Work>
    </rdf:RDF>
  </metadata>
  <defs
     id="defs6">
    <rect
       x="931.53589"
       y="836.4812"
       width="931.67726"
       height="625.27014"
       id="rect3-9" />
    <rect
       x="931.53589"
       y="836.4812"
       width="794.6571"
       height="631.16309"
       id="rect3-9-3" />
    <rect
       x="931.53589"
       y="836.4812"
       width="794.6571"
       height="631.16309"
       id="rect3-9-7" />
    <rect
       x="931.53589"
       y="836.4812"
       width="794.6571"
       height="631.16309"
       id="rect3-9-35" />
    <rect
       x="931.53589"
       y="836.4812"
       width="794.6571"
       height="631.16309"
       id="rect3-9-2" />
    <rect
       x="931.53589"
       y="836.4812"
       width="794.6571"
       height="631.16309"
       id="rect3-9-2-1" />
    <filter
       style="color-interpolation-filters:sRGB"
       id="filter3018"
       inkscape:label="woobly-speechbubble"
       inkscape:menu="Distort"
       inkscape:menu-tooltip="Something like a water noise"
       height="1.1913995"
       y="-0.095699744"
       width="1.0783646"
       x="-0.039182319">
      <feTurbulence
         id="feTurbulence3020"
         numOctaves="5"
         seed="0"
         type="fractalNoise"
         baseFrequency="0.068000000000000005"
         result="result1"
         stdDeviation="8.6999999999999993" />
      <feGaussianBlur
         id="feGaussianBlur3022"
         stdDeviation="8.0764066874588281"
         result="result2" />
      <feDisplacementMap
         id="feDisplacementMap3024"
         in2="result2"
         scale="50"
         yChannelSelector="B"
         xChannelSelector="R"
         in="SourceGraphic"
         result="result3" />
    </filter>
    <filter
       inkscape:label="woobly-text"
       inkscape:menu="Distort"
       inkscape:menu-tooltip="Something like a water noise"
       height="1.0577212"
       y="-0.028860619"
       width="1.0214919"
       x="-0.010745953"
       style="color-interpolation-filters:sRGB"
       id="filter4186">
      <feTurbulence
         numOctaves="2"
         seed="95"
         type="fractalNoise"
         baseFrequency="0.0080000000000000002"
         result="result1"
         id="feTurbulence4188" />
      <feGaussianBlur
         stdDeviation="2"
         result="result2"
         id="feGaussianBlur4190" />
      <feDisplacementMap
         scale="50"
         yChannelSelector="B"
         xChannelSelector="R"
         in="SourceGraphic"
         in2="result2"
         id="feDisplacementMap4192" />
    </filter>
    <filter
       style="color-interpolation-filters:sRGB"
       id="filter3018-3"
       inkscape:label="woobly-speechbubble"
       inkscape:menu="Distort"
       inkscape:menu-tooltip="Something like a water noise"
       height="1.1453881"
       y="-0.072694059"
       width="1.0658704"
       x="-0.032935185">
      <feTurbulence
         id="feTurbulence3020-6"
         numOctaves="5"
         seed="0"
         type="fractalNoise"
         baseFrequency="0.068000000000000005"
         result="result1"
         stdDeviation="8.6999999999999993" />
      <feGaussianBlur
         id="feGaussianBlur3022-0"
         stdDeviation="8.7225789473684205"
         result="result2" />
      <feDisplacementMap
         id="feDisplacementMap3024-6"
         in2="result2"
         scale="50"
         yChannelSelector="B"
         xChannelSelector="R"
         in="SourceGraphic"
         result="result3" />
    </filter>
    <filter
       width="1.0341491"
       style="color-interpolation-filters:sRGB"
       id="filter4375-4-1-1-1-9-5-8-6"
       inkscape:label="soundFX"
       x="-0.017074542"
       y="-0.073970932"
       height="1.1479419">
      <feFlood
         id="feFlood4377-7-9-0-8-1-7-3-7"
         flood-opacity="1"
         flood-color="rgb(46,52,54)"
         result="flood" />
      <feComposite
         id="feComposite4379-3-8-8-2-77-4-1-5"
         in2="SourceGraphic"
         in="flood"
         operator="in"
         result="composite1" />
      <feMorphology
         id="feMorphology4393-1-0-49-8-9-3-0-3"
         operator="dilate"
         radius="6.2000000000000002"
         result="result3" />
      <feComposite
         id="feComposite4385-9-5-7-0-8-8-7-56"
         in2="result3"
         in="SourceGraphic"
         operator="over"
         result="fbSourceGraphic" />
      <feColorMatrix
         result="fbSourceGraphicAlpha"
         in="fbSourceGraphic"
         values="0 0 0 -1 0 0 0 0 -1 0 0 0 0 -1 0 0 0 0 1 0"
         id="feColorMatrix4544-2" />
      <feTurbulence
         id="feTurbulence4546-9"
         type="fractalNoise"
         numOctaves="3"
         seed="37"
         baseFrequency="0.129 0.0050000000000000001"
         result="turbulence" />
      <feDisplacementMap
         id="feDisplacementMap4548-1"
         in2="turbulence"
         in="fbSourceGraphic"
         scale="10"
         yChannelSelector="A"
         xChannelSelector="B"
         result="fbSourceGraphic" />
      <feColorMatrix
         result="fbSourceGraphicAlpha"
         in="fbSourceGraphic"
         values="0 0 0 -1 0 0 0 0 -1 0 0 0 0 -1 0 0 0 0 1 0"
         id="feColorMatrix4670-2" />
      <feFlood
         id="feFlood4672-7"
         flood-opacity="1"
         flood-color="rgb(17,52,65)"
         result="flood"
         in="fbSourceGraphic" />
      <feComposite
         id="feComposite4674-0"
         in2="fbSourceGraphic"
         in="flood"
         operator="in"
         result="composite1" />
      <feComposite
         id="feComposite4680-6"
         in2="composite1"
         in="fbSourceGraphic"
         operator="over"
         result="composite2" />
    </filter>
    <rect
       x="931.53589"
       y="836.4812"
       width="794.6571"
       height="631.16309"
       id="rect3-9-2-1-5" />
    <filter
       inkscape:label="woobly-text"
       inkscape:menu="Distort"
       inkscape:menu-tooltip="Something like a water noise"
       height="1.055613"
       y="-0.027806499"
       width="1.0167005"
       x="-0.0083502446"
       style="color-interpolation-filters:sRGB"
       id="filter4186-6">
      <feTurbulence
         numOctaves="5"
         seed="95"
         type="fractalNoise"
         baseFrequency="0.0080000000000000002"
         result="result1"
         id="feTurbulence4188-2" />
      <feGaussianBlur
         stdDeviation="2"
         result="result2"
         id="feGaussianBlur4190-9" />
      <feDisplacementMap
         scale="50"
         yChannelSelector="B"
         xChannelSelector="R"
         in="SourceGraphic"
         in2="result2"
         id="feDisplacementMap4192-1" />
    </filter>
    <filter
       style="color-interpolation-filters:sRGB"
       id="filter3018-7"
       inkscape:label="woobly-speechbubble"
       inkscape:menu="Distort"
       inkscape:menu-tooltip="Something like a water noise"
       height="1.134967"
       y="-0.067483516"
       width="1.0658151"
       x="-0.032907562">
      <feTurbulence
         id="feTurbulence3020-0"
         numOctaves="5"
         seed="0"
         type="fractalNoise"
         baseFrequency="0.068000000000000005"
         result="result1"
         stdDeviation="8.6999999999999993" />
      <feGaussianBlur
         id="feGaussianBlur3022-9"
         stdDeviation="8.7225789473684205"
         result="result2" />
      <feDisplacementMap
         id="feDisplacementMap3024-3"
         in2="result2"
         scale="50"
         yChannelSelector="B"
         xChannelSelector="R"
         in="SourceGraphic"
         result="result3" />
    </filter>
    <filter
       width="1.0259445"
       style="color-interpolation-filters:sRGB"
       id="filter4375-4-1-1-1-9-5-8-6-0"
       inkscape:label="soundFX"
       x="-0.012972257"
       y="-0.053086042"
       height="1.1061721">
      <feFlood
         id="feFlood4377-7-9-0-8-1-7-3-7-6"
         flood-opacity="1"
         flood-color="rgb(46,52,54)"
         result="flood" />
      <feComposite
         id="feComposite4379-3-8-8-2-77-4-1-5-3"
         in2="SourceGraphic"
         in="flood"
         operator="in"
         result="composite1" />
      <feMorphology
         id="feMorphology4393-1-0-49-8-9-3-0-3-2"
         operator="dilate"
         radius="6.2000000000000002"
         result="result3" />
      <feComposite
         id="feComposite4385-9-5-7-0-8-8-7-56-0"
         in2="result3"
         in="SourceGraphic"
         operator="over"
         result="fbSourceGraphic" />
      <feColorMatrix
         result="fbSourceGraphicAlpha"
         in="fbSourceGraphic"
         values="0 0 0 -1 0 0 0 0 -1 0 0 0 0 -1 0 0 0 0 1 0"
         id="feColorMatrix4544-2-6" />
      <feTurbulence
         id="feTurbulence4546-9-1"
         type="fractalNoise"
         numOctaves="3"
         seed="37"
         baseFrequency="0.129 0.0050000000000000001"
         result="turbulence" />
      <feDisplacementMap
         id="feDisplacementMap4548-1-5"
         in2="turbulence"
         in="fbSourceGraphic"
         scale="10"
         yChannelSelector="A"
         xChannelSelector="B"
         result="fbSourceGraphic" />
      <feColorMatrix
         result="fbSourceGraphicAlpha"
         in="fbSourceGraphic"
         values="0 0 0 -1 0 0 0 0 -1 0 0 0 0 -1 0 0 0 0 1 0"
         id="feColorMatrix4670-2-5" />
      <feFlood
         id="feFlood4672-7-4"
         flood-opacity="1"
         flood-color="rgb(17,52,65)"
         result="flood"
         in="fbSourceGraphic" />
      <feComposite
         id="feComposite4674-0-7"
         in2="fbSourceGraphic"
         in="flood"
         operator="in"
         result="composite1" />
      <feComposite
         id="feComposite4680-6-6"
         in2="composite1"
         in="fbSourceGraphic"
         operator="over"
         result="composite2" />
    </filter>
  </defs>
  <sodipodi:namedview
     pagecolor="#444444"
     bordercolor="#000000"
     borderopacity="1"
     objecttolerance="10"
     gridtolerance="10"
     guidetolerance="10"
     inkscape:pageopacity="0"
     inkscape:pageshadow="2"
     inkscape:window-width="1920"
     inkscape:window-height="1009"
     id="namedview4"
     showgrid="false"
     inkscape:zoom="0.27965758"
     inkscape:cx="1534.0189"
     inkscape:cy="1593.0196"
     inkscape:window-x="-8"
     inkscape:window-y="-8"
     inkscape:window-maximized="1"
     inkscape:current-layer="layer1"
     inkscape:showpageshadow="0"
     inkscape:pagecheckerboard="0"
     inkscape:deskcolor="#d1d1d1" />
  <g
     inkscape:groupmode="layer"
     id="layer2"
     inkscape:label="artwork"
     sodipodi:insensitive="true">
    <image
       xlink:href="../005.jpg"
       y="0"
       x="0"
       id="2024-05-27_mission-critical"
       height="3840"
       width="3840" />
  </g>
  <g
     inkscape:groupmode="layer"
     id="layer3"
     inkscape:label="speechbubbles">
    <path
       style="color:#000000;display:inline;overflow:visible;visibility:visible;fill:#ffffff;fill-opacity:1;fill-rule:nonzero;stroke:none;stroke-width:1px;marker:none;enable-background:accumulate"
       d="m 1057.3963,2824.4107 c -84.18663,-22.5961 -160.62184,-80.1352 -222.41616,-194.3679 -61.79414,-114.2321 -76.51867,-175.5089 -81.16422,-194.3001 15.30009,8.696 31.98163,14.9121 38.32797,20.0002 -15.7908,-31.6575 -70.3281,-197.0936 -77.42977,-258.633 -7.10155,-61.5392 38.48496,-33.013 38.48496,-33.013 0,0 10.44561,144.416 110.49658,374.0269 -16.09762,-9.6307 -38.87102,-26.1142 -52.11179,-31.59 -1.46532,12.9018 31.86514,89.1134 55.34475,128.3087 32.10271,53.5898 78.36705,131.6035 190.46768,189.5682 z"
       id="path3923"
       inkscape:connector-curvature="0"
       sodipodi:nodetypes="csccscccsc" />
    <path
       style="display:inline;fill:#ffffff;fill-opacity:1;fill-rule:evenodd;stroke:none;stroke-width:0.954736px;stroke-linecap:butt;stroke-linejoin:miter;stroke-opacity:1"
       d="m 2699.1986,542.42353 c 18.9265,92.688 46.016,299.95884 44.279,403.48074 l 58.7346,-34.07178 c 4.7773,52.92518 5.2544,111.63441 4.9183,227.48921 l 31.713,-32.1294 9.0491,323.6056 45.3003,-402.6713 -52.736,30.4357 1.0301,-227.35794 -53.5117,30.50943 c -6.694,-94.61774 -0.8766,-199.14275 -7.5859,-299.51755 z"
       id="path957"
       sodipodi:nodetypes="cccccccccccc" />
    <path
       style="color:#000000;display:inline;overflow:visible;visibility:visible;fill:#ffffff;fill-opacity:1;fill-rule:nonzero;stroke:none;stroke-width:1px;marker:none;enable-background:accumulate"
       d="m 3203.0534,1568.9778 c -10.6932,27.9291 -63.6342,28.1132 -82.8123,21.5514 37.7188,33.3017 35.4301,52.9267 -17.9394,53.7763 86.5871,60.7891 14.0485,49.1266 -1.0171,63.0067 69.1647,22.5814 36.6605,45.7658 23.0406,69.6239 80.5185,4.177 52.3255,42.1557 54.2632,73.4134 7.5132,-14.3173 42.04,-57.428 41.6734,-7.8481 0.5861,-9.3525 57.2011,-84.7113 132.4467,-6.0136 -0.084,-38.9212 27.2434,-45.7903 50.3231,8.9321 -5.8321,-58.4408 84.1633,-37.8689 131.3944,-17.6473 -22.6494,-36.1965 16.4137,-48.7866 56.9442,-40.0838 -4.8248,-19.5329 9.592,-32.2233 41.116,-38.8077 -40.8543,-13.3706 -47.921,-25.709 29.5564,-35.4604 -58.436,-3.6753 -112.8623,-8.5005 -42.1688,-49.7774 -21.4801,-1.9581 -74.287,32.7392 -45.4234,-74.015 -38.6381,32.958 -79.0291,50.3575 -125.1803,-23.9466 -25.1338,35.1222 -66.6316,51.3002 -82.2091,5.4808 -7.2583,18.9558 -33.9606,25.0934 -56.3824,25.0415 -8.2972,-7.993 -16.7375,-18.7331 -25.4162,-32.7056 -16.561,27.8976 -40.2378,46.2193 -82.209,5.4794 z"
       id="path3549-3-7-9-6"
       inkscape:connector-curvature="0"
       sodipodi:nodetypes="cccccccccccccccccccc" />
    <path
       style="fill:#ffffff;fill-rule:evenodd;stroke:none;stroke-width:1px;stroke-linecap:butt;stroke-linejoin:miter;stroke-opacity:1"
       d="m 3256.9984,1340.0319 -35.8268,159.8807 20.8336,23.2898 25.9376,-30.346 c 0.1035,100.316 -23.8373,139.5771 -39.9585,163.3025 -20.2754,29.8393 57.1969,80.2963 61.9241,66.9558 4.7272,-13.3405 73.7231,-49.2536 35.7448,-77.2624 -25.9252,-19.1198 -22.8773,-116.922 -22.2878,-179.9845 l -18.2443,-24.4597 -31.0727,28.3119 z"
       id="path1111-3"
       inkscape:connector-curvature="0"
       sodipodi:nodetypes="ccccssscccc" />
    <path
       id="rect4632-8-6-1-3-6-7"
       style="color:#000000;clip-rule:nonzero;display:inline;overflow:visible;visibility:visible;isolation:auto;mix-blend-mode:normal;color-interpolation:sRGB;color-interpolation-filters:linearRGB;solid-color:#000000;solid-opacity:1;fill:#ffffff;fill-opacity:1;fill-rule:nonzero;stroke:none;stroke-width:1.31425;stroke-linecap:butt;stroke-linejoin:miter;stroke-miterlimit:4;stroke-dasharray:none;stroke-dashoffset:0;stroke-opacity:1;marker:none;filter:url(#filter3018);color-rendering:auto;image-rendering:auto;shape-rendering:auto;text-rendering:auto;enable-background:accumulate"
       d="m 2254.1542,245.90607 c -11.6264,0 -20.9864,12.72262 -20.9864,28.52543 v 145.49279 c 0,15.80281 9.36,28.52543 20.9864,28.52543 h 452.7242 c 11.6264,0 20.9864,-12.72262 20.9864,-28.52543 V 274.4315 c 0,-15.80281 -9.36,-28.52543 -20.9864,-28.52543 z"
       transform="matrix(1.756647,0,0,1.9393407,-1589.128,-287.48784)"
       sodipodi:nodetypes="sssssssss" />
    <path
       style="fill:#ffffff;fill-opacity:1;fill-rule:evenodd;stroke:none;stroke-width:0.999997px;stroke-linecap:butt;stroke-linejoin:miter;stroke-opacity:1"
       d="m 3136.6959,3114.5214 c -61.82,-34.2555 -106.3135,-27.556 -149.1131,-11.4515 8.5114,15.3931 19.0484,31.9087 27.56,47.3018 -55.6023,9.5058 -274.0948,24.5001 -351.4096,-120.7422 5.1269,14.5465 -65.5743,-0.1309 -60.4474,14.4157 198.7662,208.9846 414.0369,132.1933 461.7316,122.2081 -13.5565,-18.2431 -19.9541,-28.6976 -31.9991,-46.3364 20.689,-8.0944 42.6088,-19.8621 103.6776,-5.3955 z"
       id="path4667-8"
       inkscape:connector-curvature="0"
       sodipodi:nodetypes="cccccccc" />
    <path
       id="rect4632-8-6-1-3-2"
       style="display:inline;overflow:visible;fill:#ffffff;stroke-width:2.6;marker:none;filter:url(#filter3018);enable-background:accumulate"
       d="m 2349.1543,2788.3874 250.4625,0.3689 185.0889,-22.8325 c 10.9965,-1.3566 110.5473,11.128 117.7773,18.358 7.23,7.23 -39.8976,44.7878 -34.2708,54.3328 l 45.9608,77.9655 -17.6013,95.9724 c -1.9987,10.8982 13.1413,29.0959 5.9113,36.3259 -7.23,7.23 -32.5564,-5.4295 -43.6148,-4.7375 l -262.5041,16.4275 -227.2494,-15.6292 c -11.0539,-0.7602 -71.6395,11.1692 -78.8695,3.9392 -7.23,-7.23 -11.69,-17.23 -11.69,-28.31 l 11.3672,-100.571 -19.0087,-70.0617 c -4.3229,-15.933 13.2962,-57.8374 19.3315,-65.6539 6.2488,-8.0931 47.8516,4.8121 58.9091,4.1056 z"
       sodipodi:nodetypes="scssscssscssscsss" />
    <path
       id="rect4632-8-6-1-3-2-6"
       style="display:inline;overflow:visible;fill:#ffffff;stroke-width:3.95903;marker:none;filter:url(#filter3018-7);enable-background:accumulate"
       transform="matrix(1.0885058,0,0,0.93385114,-536.42647,247.56857)"
       d="m 2769.4607,3056.6155 163.4162,-15.9766 148.0389,18.24 c 15.5803,1.9196 95.7329,-8.145 105.9567,3.7099 10.2237,11.8549 16.5305,28.2517 16.5305,46.4193 l -20.895,78.4011 20.895,78.4011 c 4.6261,17.3577 -22.0695,50.0945 -32.2933,61.9493 -10.2237,11.8549 -86.5669,-12.1321 -102.0721,-9.5207 l -193.6346,32.6119 -148.6674,-39.0412 c -15.2809,-4.0129 -132.1962,12.2749 -142.4199,0.42 -10.2237,-11.8548 -16.5305,-28.2516 -16.5305,-46.4193 v -78.4011 l 20.0269,-76.3631 c 4.5586,-17.3817 -13.7201,-36.6024 -3.4964,-48.4573 10.2237,-11.8549 169.5325,-4.447 185.145,-5.9733 z"
       sodipodi:nodetypes="scssscssscssscsss" />
    <rect
       style="color:#000000;clip-rule:nonzero;display:inline;overflow:visible;visibility:visible;isolation:auto;mix-blend-mode:normal;color-interpolation:sRGB;color-interpolation-filters:linearRGB;solid-color:#000000;solid-opacity:1;fill:#ffffff;fill-opacity:1;fill-rule:nonzero;stroke:none;stroke-width:2.88109;stroke-linecap:butt;stroke-linejoin:miter;stroke-miterlimit:4;stroke-dasharray:none;stroke-dashoffset:0;stroke-opacity:1;marker:none;filter:url(#filter3018-3);color-rendering:auto;image-rendering:auto;shape-rendering:auto;text-rendering:auto;enable-background:accumulate"
       id="rect4632-8-6-1-3-2-2"
       width="635.6178"
       height="287.97662"
       x="317.88202"
       y="2034.5643"
       ry="53.361832"
       rx="36.817783"
       transform="matrix(1.0864314,0,0,0.74959943,-128.32793,466.31022)" />
    <path
       style="color:#000000;display:inline;overflow:visible;visibility:visible;fill:#ffffff;fill-opacity:1;fill-rule:nonzero;stroke:none;stroke-width:1.04728px;marker:none;enable-background:accumulate"
       d="m 1274.5706,2298.38 c 6.054,-102.0283 90.7836,-175.432 313.0603,-152.7794 119.0635,12.1323 254.2169,20.9732 246.7285,170.4574 -7.4884,149.4843 -201.6962,142.6337 -241.7509,145.5114 -40.055,2.8799 -248.9726,-16.0404 -285.9342,-67.5017 -23.1371,-32.2129 -32.4784,-64.0664 -32.1037,-95.6877 z"
       id="path4546-6-21"
       inkscape:connector-curvature="0"
       sodipodi:nodetypes="cssssc" />
    <path
       style="color:#000000;display:inline;overflow:visible;visibility:visible;fill:#ffffff;fill-opacity:1;fill-rule:nonzero;stroke:none;stroke-width:0.999998px;marker:none;enable-background:accumulate"
       d="m 1461.1784,2406.7651 c -9.4475,24.8994 -20.2824,31.7197 -25.4028,35.0776 -5.1206,3.3577 -19.5302,7.5293 -25.3823,12.7627 -4.8273,4.3519 -17.609,15.1801 -15.4256,19.066 2.1835,3.8861 33.5724,25.5998 26.5062,42.2574 -7.0671,16.6583 -18.926,25.3055 -30.5905,26.6696 -11.6644,1.3642 -26.955,3.3935 -33.1375,15.5745 -6.1815,12.1805 -2.1701,23.0088 1.5525,26.8129 3.7224,3.8042 44.1152,11.4254 45.18,34.5336 1.1198,24.3014 -46.2745,54.7887 0.5628,91.6259 -64.2267,-33.0638 -14.6283,-78.7584 -19.156,-88.7888 -3.2993,-7.309 -11.4105,-11.936 -20.6225,-13.7838 -9.2119,-1.8476 -31.0735,-11.3306 -33.224,-20.2565 -2.1513,-8.9251 -4.8801,-22.571 2.5334,-35.2386 7.4134,-12.6679 19.9415,-24.1122 37.6544,-26.3024 11.9395,-2.7128 17.9573,-5.312 19.3667,-9.1975 1.4083,-3.8848 -4.5284,-15.5901 -14.8521,-17.4317 -10.3247,-1.8409 -17.2939,-6.8632 -14.9725,-25.3691 1.2115,-18.8694 21.2095,-41.2075 25.1366,-48.3289 10.729,-10.2062 58.1338,-50.0208 50.4803,-55.2752 z"
       id="path5058-2"
       inkscape:connector-curvature="0"
       sodipodi:nodetypes="cscsssssscssssccscccc" />
    <text
       inkscape:label="swordFX1"
       transform="matrix(0.71729379,-0.31079579,0.23960658,1.1520312,236.02217,-1117.3035)"
       id="text4580-6-0-06-5"
       y="1584.5073"
       x="787.65729"
       style="font-style:normal;font-variant:normal;font-weight:normal;font-stretch:normal;line-height:0%;font-family:Lavi;-inkscape-font-specification:Lavi;letter-spacing:0px;word-spacing:0px;fill:#ffffff;fill-opacity:1;stroke:#98b9ca;stroke-width:0.8615;stroke-miterlimit:4;stroke-dasharray:none;stroke-opacity:1;filter:url(#filter4375-4-1-1-1-9-5-8-6)"
       xml:space="preserve"><tspan
         style="font-style:normal;font-variant:normal;font-weight:normal;font-stretch:normal;font-size:70px;line-height:1.25;font-family:DeevadHand;-inkscape-font-specification:DeevadHand;fill:#ffffff;fill-opacity:1;stroke:#98b9ca;stroke-width:0.8615;stroke-opacity:1"
         y="1584.5073"
         x="787.65729"
         id="tspan4582-1-1-2-6"
         sodipodi:role="line"><tspan
           id="tspan4315-8-6-3"
           style="font-style:normal;font-variant:normal;font-weight:normal;font-stretch:normal;font-size:93.1495px;font-family:DeevadHand;-inkscape-font-specification:DeevadHand;fill:#ffffff;fill-opacity:1;stroke:#98b9ca;stroke-width:0.8615;stroke-opacity:1">Schwiiing !</tspan><tspan
           id="tspan4313-2-1-9"
           style="font-style:normal;font-variant:normal;font-weight:normal;font-stretch:normal;font-size:114.732px;font-family:DeevadHand;-inkscape-font-specification:DeevadHand;fill:#ffffff;fill-opacity:1;stroke:#98b9ca;stroke-width:0.8615;stroke-opacity:1">!</tspan></tspan></text>
    <text
       xml:space="preserve"
       style="font-style:normal;font-variant:normal;font-weight:normal;font-stretch:normal;font-size:131.375px;line-height:1.25;font-family:Lavi;-inkscape-font-specification:Lavi;letter-spacing:0px;word-spacing:0px;display:inline;fill:#ffffff;fill-opacity:1;stroke:none;stroke-width:0.282165;stroke-miterlimit:4;stroke-dasharray:none;stroke-opacity:1;filter:url(#filter4375-4-1-1-1-9-5-8-6)"
       id="text4580-6-0-0-0-9-3-3-2-4-8-6"
       transform="matrix(0.82387344,-0.60083658,0.32395639,1.3297247,2096.9875,-1146.7862)"
       x="-607.91235"
       y="1245.0809"><tspan
         style="font-style:normal;font-variant:normal;font-weight:normal;font-stretch:normal;font-size:123.255px;font-family:DeevadHand;-inkscape-font-specification:DeevadHand;stroke:none"
         id="tspan1291">Klaf !</tspan><tspan
         style="font-style:normal;font-variant:normal;font-weight:normal;font-stretch:normal;font-size:149.863px;font-family:DeevadHand;-inkscape-font-specification:DeevadHand;stroke:none"
         id="tspan1289">!</tspan></text>
    <text
       xml:space="preserve"
       style="font-style:normal;font-variant:normal;font-weight:normal;font-stretch:normal;font-size:131.375px;line-height:1.25;font-family:Lavi;-inkscape-font-specification:Lavi;letter-spacing:0px;word-spacing:0px;display:inline;fill:#ffffff;fill-opacity:1;stroke:none;stroke-width:0.372928;stroke-miterlimit:4;stroke-dasharray:none;stroke-opacity:1;filter:url(#filter4375-4-1-1-1-9-5-8-6-0)"
       id="text4580-6-0-0-0-9-3-3-2-4-8-6-5"
       transform="matrix(0.60224613,-0.29139307,0.23681001,1.1118119,596.22743,-855.69866)"
       x="-607.91235"
       y="1245.0809"><tspan
         style="font-style:normal;font-variant:normal;font-weight:normal;font-stretch:normal;font-size:123.255px;font-family:DeevadHand;-inkscape-font-specification:DeevadHand;stroke:none;stroke-width:0.372928"
         id="tspan1291-6">Whack !</tspan><tspan
         style="font-style:normal;font-variant:normal;font-weight:normal;font-stretch:normal;font-size:149.863px;font-family:DeevadHand;-inkscape-font-specification:DeevadHand;stroke:none;stroke-width:0.372928"
         id="tspan1289-9">!</tspan></text>
  </g>
  <g
     inkscape:groupmode="layer"
     id="layer1"
     inkscape:label="txt">
    <text
       id="shape013"
       text-rendering="auto"
       fill="#000000"
       stroke-opacity="0"
       stroke="#000000"
       stroke-width="0"
       stroke-linecap="square"
       stroke-linejoin="bevel"
       letter-spacing="0"
       text-anchor="middle"
       word-spacing="0"
       style="font-size:123.063px;font-family:'Grand Hotel';text-align:start;display:inline"
       x="175.27139"
       y="3776.3242"
       inkscape:label="Credit-Title"><tspan
         x="588.22894"
         id="tspan1"
         style="stroke-width:0">Mini Fantasy Theater</tspan></text>
    <text
       id="shape2"
       text-rendering="auto"
       fill="#000000"
       stroke-opacity="0"
       stroke="#000000"
       stroke-width="0"
       stroke-linecap="square"
       stroke-linejoin="bevel"
       letter-spacing="0"
       text-anchor="end"
       word-spacing="0"
       style="font-size:73.8377px;font-family:Pangolin;text-align:start;display:inline"
       x="3040.1685"
       y="3736.7832"
       inkscape:label="Credit-Name"><tspan
         x="3680.696"
         id="tspan2"
         style="stroke-width:0">David Revoy</tspan><tspan
         x="3680.696"
         dy="73.837677"
         id="tspan3"
         style="stroke-width:0">www.davidrevoy.com</tspan></text>
    <text
       id="shape21"
       text-rendering="auto"
       fill="#8e8b88"
       stroke-opacity="0"
       stroke="#000000"
       stroke-width="0"
       stroke-linecap="square"
       stroke-linejoin="bevel"
       letter-spacing="0"
       text-anchor="end"
       word-spacing="0"
       style="font-size:45px;line-height:100%;font-family:Pangolin;text-align:start;display:inline"
       x="1167.5646"
       y="3778.4343"
       inkscape:label="Credit-License"><tspan
         sodipodi:role="line"
         id="tspan10"
         x="1922.5271"
         y="3778.4343"
         style="font-size:45px;line-height:100%;text-align:center;text-anchor:middle"><tspan
           x="1922.5271"
           id="tspan4"
           style="font-size:45px;line-height:100%;text-align:center;text-anchor:middle;stroke-width:0">licence : Creative Commons Attribution-ShareAlike 4.0 International</tspan></tspan><tspan
         sodipodi:role="line"
         x="1922.5271"
         y="3823.4343"
         style="font-size:45px;line-height:100%;text-align:center;text-anchor:middle"
         id="tspan2708">Traduction : Nicolas Artance ; Relecture/Corrections : Valvin, Bhoren, David Revoy</tspan></text>
    <text
       id="shape22"
       text-rendering="auto"
       fill="#828181"
       stroke-opacity="0"
       stroke="#000000"
       stroke-width="0"
       stroke-linecap="square"
       stroke-linejoin="bevel"
       kerning="none"
       letter-spacing="0"
       text-anchor="middle"
       word-spacing="0"
       style="font-size:73.8377px;font-family:'Patrick Hand SC';text-align:start;display:inline"
       x="1701.0232"
       y="3736.3135"
       inkscape:label="Credit-ID"><tspan
         x="1922.2478"
         id="tspan5"
         style="stroke-width:0">Épisode 5</tspan></text>
    <text
       xml:space="preserve"
       id="text1-3"
       style="color:#000000;font-weight:bold;font-size:93px;line-height:1;font-family:DeevadHand;-inkscape-font-specification:'DeevadHand Bold';text-align:center;text-decoration:none;text-decoration-line:none;text-decoration-color:#000000;letter-spacing:0px;word-spacing:0px;white-space:pre;shape-inside:url(#rect3-9);display:inline;overflow:visible;fill:#000000;stroke:none;stroke-width:16.169;paint-order:stroke fill markers"
       x="902.68744"
       y="0"
       transform="translate(1374.983,-589.2184)"><tspan
         x="1146.71"
         y="915.49414"
         id="tspan627"><tspan
           style="font-weight:normal"
           id="tspan624">Mise à jour </tspan></tspan><tspan
         x="1151.5688"
         y="1008.4941"
         id="tspan631"><tspan
   style="font-weight:normal"
   id="tspan629">disponible.</tspan> </tspan><tspan
         x="1079.1396"
         y="1101.4941"
         id="tspan633">Installation !</tspan></text>
    <text
       xml:space="preserve"
       id="text1-3-9"
       style="color:#000000;font-weight:bold;font-size:93px;line-height:1;font-family:DeevadHand;-inkscape-font-specification:'DeevadHand Bold';text-align:center;text-decoration:none;text-decoration-line:none;text-decoration-color:#000000;letter-spacing:0px;word-spacing:0px;white-space:pre;shape-inside:url(#rect3-9-2);display:inline;overflow:visible;fill:#000000;stroke:none;stroke-width:16.169;paint-order:stroke fill markers"
       x="902.68744"
       y="0"
       transform="translate(215.51292,1371.5188)"><tspan
         x="1118.979"
         y="915.49414"
         id="tspan641"><tspan
           style="font-size:52px"
           id="tspan635">NoN </tspan><tspan
           style="font-weight:normal;font-size:68px;-inkscape-font-specification:DeevadHand"
           id="tspan637">noN </tspan><tspan
           style="font-weight:normal;-inkscape-font-specification:DeevadHand"
           id="tspan639">noN
</tspan></tspan><tspan
         x="1123.1108"
         y="1008.4941"
         id="tspan645"><tspan
   style="font-weight:normal;-inkscape-font-specification:DeevadHand"
   id="tspan643">noN </tspan>NON !</tspan></text>
    <text
       xml:space="preserve"
       id="text1-3-9-2"
       style="color:#000000;font-weight:bold;font-size:83.3455px;line-height:1.1;font-family:DeevadHand;-inkscape-font-specification:'DeevadHand Bold';text-align:center;text-decoration:none;text-decoration-line:none;text-decoration-color:#000000;letter-spacing:0px;word-spacing:0px;white-space:pre;shape-inside:url(#rect3-9-2-1);display:inline;overflow:visible;fill:#000000;stroke:none;stroke-width:15.8543;paint-order:stroke fill markers;filter:url(#filter4186)"
       x="902.68744"
       y="0"
       transform="matrix(1.0198517,0,0,1.0198517,1234.5202,1972.1418)"><tspan
         x="1104.2221"
         y="911.45886"
         id="tspan649"><tspan
           style="font-weight:normal"
           id="tspan647">Mise à jour </tspan></tspan><tspan
         x="1140.9299"
         y="1003.1389"
         id="tspan653"><tspan
           style="font-weight:normal"
           id="tspan651">terminée.</tspan></tspan></text>
    <text
       xml:space="preserve"
       id="text1-3-9-2-2"
       style="color:#000000;font-weight:bold;font-size:91.1897px;line-height:1.1;font-family:DeevadHand;-inkscape-font-specification:'DeevadHand Bold';text-align:center;text-decoration:none;text-decoration-line:none;text-decoration-color:#000000;letter-spacing:0px;word-spacing:0px;white-space:pre;shape-inside:url(#rect3-9-2-1-5);display:inline;overflow:visible;fill:#000000;stroke:none;stroke-width:15.8543;paint-order:stroke fill markers;filter:url(#filter4186-6)"
       x="902.68744"
       y="0"
       transform="matrix(1.0198517,0,0,1.0198517,1246.0079,2277.7801)"><tspan
         x="1040.7796"
         y="918.51558"
         id="tspan657"><tspan
           style="font-weight:normal"
           id="tspan655">Amusez-vous </tspan></tspan><tspan
         x="1215.0107"
         y="1018.8242"
         id="tspan661"><tspan
           style="font-weight:normal"
           id="tspan659">bien !</tspan></tspan></text>
    <text
       xml:space="preserve"
       id="text1-3-6"
       style="color:#000000;font-weight:bold;font-size:93px;line-height:1;font-family:DeevadHand;-inkscape-font-specification:'DeevadHand Bold';text-align:center;text-decoration:none;text-decoration-line:none;text-decoration-color:#000000;letter-spacing:0px;word-spacing:0px;white-space:pre;shape-inside:url(#rect3-9-35);display:inline;overflow:visible;fill:#000000;stroke:none;stroke-width:16.169;paint-order:stroke fill markers"
       x="902.68744"
       y="0"
       transform="translate(-772.14693,1214.7413)"><tspan
         x="1081.4697"
         y="915.49414"
         id="tspan665"><tspan
           style="font-weight:normal;-inkscape-font-specification:DeevadHand"
           id="tspan663">80%...  90%...</tspan></tspan></text>
    <text
       xml:space="preserve"
       id="text1-3-5"
       style="color:#000000;font-weight:bold;font-size:93px;line-height:1;font-family:DeevadHand;-inkscape-font-specification:'DeevadHand Bold';text-align:center;text-decoration:none;text-decoration-line:none;text-decoration-color:#000000;letter-spacing:5.12413px;word-spacing:0px;white-space:pre;shape-inside:url(#rect3-9-7);display:inline;overflow:visible;fill:#000000;stroke:none;stroke-width:16.5704;paint-order:stroke fill markers"
       x="902.68744"
       y="0"
       transform="matrix(0.96571614,0,-0.27481042,0.98593883,2312.5101,830.84683)"><tspan
         x="1183.6379"
         y="915.49414"
         id="tspan667">Argh !</tspan></text>
  </g>
</svg>
