<?xml version="1.0" encoding="UTF-8" standalone="no"?>
<!-- Created with Inkscape (http://www.inkscape.org/) -->

<svg
   xmlns:dc="http://purl.org/dc/elements/1.1/"
   xmlns:cc="http://creativecommons.org/ns#"
   xmlns:rdf="http://www.w3.org/1999/02/22-rdf-syntax-ns#"
   xmlns:svg="http://www.w3.org/2000/svg"
   xmlns="http://www.w3.org/2000/svg"
   xmlns:xlink="http://www.w3.org/1999/xlink"
   xmlns:sodipodi="http://sodipodi.sourceforge.net/DTD/sodipodi-0.dtd"
   xmlns:inkscape="http://www.inkscape.org/namespaces/inkscape"
   id="svg2"
   version="1.1"
   inkscape:version="0.91 r13725"
   width="2481"
   height="3503"
   sodipodi:docname="Pepper-and-Carrot_by-David-Revoy_E09P02.svg">
  <metadata
     id="metadata8">
    <rdf:RDF>
      <cc:Work
         rdf:about="">
        <dc:format>image/svg+xml</dc:format>
        <dc:type
           rdf:resource="http://purl.org/dc/dcmitype/StillImage" />
        <dc:title />
      </cc:Work>
    </rdf:RDF>
  </metadata>
  <defs
     id="defs6" />
  <sodipodi:namedview
     pagecolor="#ffffff"
     bordercolor="#666666"
     borderopacity="1"
     objecttolerance="10"
     gridtolerance="10"
     guidetolerance="10"
     inkscape:pageopacity="0"
     inkscape:pageshadow="2"
     inkscape:window-width="1366"
     inkscape:window-height="702"
     id="namedview4"
     showgrid="false"
     inkscape:zoom="0.34782609"
     inkscape:cx="927.7951"
     inkscape:cy="401.18881"
     inkscape:window-x="0"
     inkscape:window-y="27"
     inkscape:window-maximized="1"
     inkscape:current-layer="layer1"
     showguides="false" />
  <g
     inkscape:groupmode="layer"
     id="layer2"
     inkscape:label="artwork"
     sodipodi:insensitive="true">
    <image
       sodipodi:absref="/home/juanjo/Imágenes/Comics-Revoy/09/es/../gfx_Pepper-and-Carrot_by-David-Revoy_E09P02.png"
       xlink:href="../gfx_Pepper-and-Carrot_by-David-Revoy_E09P02.png"
       y="0"
       x="0"
       id="image10"
       height="3503"
       width="2481" />
  </g>
  <g
     inkscape:groupmode="layer"
     id="layer3"
     inkscape:label="speechbubbles" />
  <g
     inkscape:groupmode="layer"
     id="layer1"
     inkscape:label="txt">
    <path
       style="fill:#ffffff;stroke:none"
       d="m 559.72349,2761.7479 c 0.69823,-90.8272 10.39136,-177.8197 339.97599,-173.6899 234.47122,2.9379 325.01162,66.3125 321.22502,180.7675 -3.7866,114.455 -129.2171,161.6951 -325.94739,159.5354 -196.73024,-2.1597 -331.18287,-48.123 -335.25362,-166.613 z"
       id="path3274"
       inkscape:connector-curvature="0"
       sodipodi:nodetypes="csssc" />
    <path
       style="color:#000000;display:inline;overflow:visible;visibility:visible;fill:#ffffff;fill-opacity:1;fill-rule:nonzero;stroke:none;stroke-width:1px;marker:none;enable-background:accumulate"
       d="m 797.78803,2609.1218 c -33.40312,32.9386 -310.35346,62.6921 -406.02805,-9.2881 -95.67459,-71.9803 -35.10675,-153.9852 21.12988,-179.1563 56.23652,-25.1711 220.74246,-50.1743 295.08098,-25.5446 74.33864,24.6295 131.91488,60.1115 134.31238,129.885 0.97852,28.4774 -11.09196,51.1651 -44.49519,84.104 z"
       id="path4040"
       inkscape:connector-curvature="0"
       sodipodi:nodetypes="zssssz" />
    <path
       style="color:#000000;display:inline;overflow:visible;visibility:visible;fill:#ffffff;fill-opacity:1;fill-rule:nonzero;stroke:none;stroke-width:1px;marker:none;enable-background:accumulate"
       d="m 114.34508,1474.9762 c 7.75219,-73.2514 99.03822,-126.2753 335.7803,-110.9123 126.81184,8.2292 270.82328,14.0306 260.93855,121.3484 -9.8849,107.3176 -216.89572,103.1826 -259.64563,105.4097 -42.74995,2.2274 -265.29353,-10.5115 -304.05448,-47.297 -24.26346,-23.0266 -33.82005,-45.8519 -33.01874,-68.5488 z"
       id="path4546-0-3"
       inkscape:connector-curvature="0"
       sodipodi:nodetypes="cssssc" />
    <path
       style="color:#000000;display:inline;overflow:visible;visibility:visible;fill:#ffffff;fill-opacity:1;fill-rule:nonzero;stroke:none;stroke-width:1px;marker:none;enable-background:accumulate"
       d="m 181.85704,237.97293 c -1.10047,-57.32649 87.35998,-69.41682 165.2991,-69.58715 77.93926,-0.17032 210.13605,1.8189 208.43531,81.92893 -1.97733,93.13843 -259.67907,70.4535 -267.31144,71.81988 -7.63238,1.36625 -119.13197,-14.77599 -106.42297,-84.16166 z"
       id="path5018"
       inkscape:connector-curvature="0"
       sodipodi:nodetypes="csscc" />
    <path
       style="fill:#ffffff;fill-rule:evenodd;stroke:none;stroke-width:1px;stroke-linecap:butt;stroke-linejoin:miter;stroke-opacity:1"
       d="m 842.8376,505.67472 c 22.75894,31.36316 36.92168,58.48731 -3.76855,108.91199 46.07559,-30.50609 66.18145,-76.69578 53.29121,-112.23489 -12.89024,-35.53909 -49.52266,3.3229 -49.52266,3.3229 z"
       id="path4201"
       inkscape:connector-curvature="0" />
    <path
       style="fill:#ffffff;stroke:none"
       d="m 599.66457,1809.031 c 51.60054,6.5328 69.89222,45.7908 69.53557,69.1473 -0.35672,23.3565 51.26695,38.0903 71.5221,24.124 -42.11057,37.4152 -95.95231,11.4531 -119.94631,-33.3419 -7.04419,-13.1509 -32.45984,-13.1413 -49.73119,5.435 -15.96302,17.1691 -43.85075,15.3917 -43.85075,15.3917 z"
       id="path3276"
       inkscape:connector-curvature="0"
       sodipodi:nodetypes="cscsscc" />
    <path
       style="color:#000000;display:inline;overflow:visible;visibility:visible;fill:#ffffff;fill-opacity:1;fill-rule:nonzero;stroke:none;stroke-width:1px;marker:none;enable-background:accumulate"
       d="m 767.15761,1782.5103 c -4.9508,67.5084 -78.92218,118.0221 -273.71999,108.4454 -104.34421,-5.1299 -222.77213,-7.6966 -216.72881,-106.5724 6.04345,-98.8756 176.19753,-99.0522 211.27651,-101.922 35.07896,-2.8698 218.16091,4.5668 250.71796,37.6483 20.37993,20.7083 28.67324,41.514 28.45433,62.4007 z"
       id="path4546-0-6"
       inkscape:connector-curvature="0"
       sodipodi:nodetypes="cssssc" />
    <path
       style="color:#000000;display:inline;overflow:visible;visibility:visible;fill:#ffffff;fill-opacity:1;fill-rule:nonzero;stroke:none;stroke-width:1px;marker:none;enable-background:accumulate"
       d="m 170.67551,1650.8554 c -2.21908,-109.446 85.24908,-126.3281 330.1611,-118.2726 131.18809,4.315 280.05297,5.851 273.37232,107.9964 -6.68082,102.1452 -217.83575,97.7759 -262.02132,98.5204 -47.91574,0.8073 -216.40725,-11.3635 -255.06136,-24.0838 -32.04509,-10.5454 -86.53267,-42.5929 -86.45074,-64.1604 z"
       id="path4546-0"
       inkscape:connector-curvature="0"
       sodipodi:nodetypes="cssssc" />
    <path
       style="fill:#ffffff;fill-opacity:1;stroke:none"
       d="m 466.85247,378.10586 c -6.7611,-110.52425 79.98932,-158.7082 267.94772,-153.68437 187.95838,5.02375 239.4374,74.95819 252.95959,113.89282 13.52222,38.9347 2.96971,131.23281 -113.3211,173.93538 -116.29079,42.7024 -294.9444,16.84143 -349.06191,-31.34033 -46.81552,-41.68068 -57.1721,-73.91656 -58.5243,-102.8035 z"
       id="path3238"
       inkscape:connector-curvature="0"
       sodipodi:nodetypes="cssssc" />
    <flowRoot
       xml:space="preserve"
       id="flowRoot2987-4-9-3-7"
       style="font-style:normal;font-variant:normal;font-weight:normal;font-stretch:normal;font-size:12px;line-height:125%;font-family:Lavi;-inkscape-font-specification:Lavi;text-align:center;letter-spacing:0px;word-spacing:0px;text-anchor:middle;fill:#000000;fill-opacity:1;stroke:none"
       transform="translate(318.33762,6.6910875)"><flowRegion
         id="flowRegion2989-5-4-5-9"><rect
           id="rect2991-7-9-6-4"
           width="577.74487"
           height="312.3837"
           x="120.55251"
           y="265.53046"
           style="font-style:normal;font-variant:normal;font-weight:normal;font-stretch:normal;font-family:Lavi;-inkscape-font-specification:Lavi;text-align:center;text-anchor:middle" /></flowRegion><flowPara
         style="font-size:48px;text-align:center;text-anchor:middle"
         id="flowPara3386">Olvidé por completo</flowPara><flowPara
         style="font-size:48px;text-align:center;text-anchor:middle"
         id="flowPara3390"> que debía desactivar</flowPara><flowPara
         style="font-size:48px;text-align:center;text-anchor:middle"
         id="flowPara4179">mi &quot;sistema de</flowPara><flowPara
         style="font-size:48px;text-align:center;text-anchor:middle"
         id="flowPara4181">seguridad&quot;...</flowPara></flowRoot>    <flowRoot
       xml:space="preserve"
       id="flowRoot2987-4-9-3-7-3-7"
       style="font-style:normal;font-variant:normal;font-weight:normal;font-stretch:normal;font-size:12px;line-height:125%;font-family:Lavi;-inkscape-font-specification:Lavi;text-align:center;letter-spacing:0px;word-spacing:0px;text-anchor:middle;fill:#000000;fill-opacity:1;stroke:none"
       transform="translate(121.07446,1462.6242)"><flowRegion
         id="flowRegion2989-5-4-5-9-3-2"><rect
           id="rect2991-7-9-6-4-4-0"
           width="577.74487"
           height="312.3837"
           x="120.55251"
           y="265.53046"
           style="font-style:normal;font-variant:normal;font-weight:normal;font-stretch:normal;font-family:Lavi;-inkscape-font-specification:Lavi;text-align:center;text-anchor:middle" /></flowRegion><flowPara
         style="font-size:48px;text-align:center;text-anchor:middle"
         id="flowPara4255-9">Un poco lluviosa,</flowPara><flowPara
         style="font-size:48px;text-align:center;text-anchor:middle"
         id="flowPara4292">creo, ¿no? ...</flowPara></flowRoot>    <flowRoot
       xml:space="preserve"
       id="flowRoot2987-4-9-3-7-3-4"
       style="font-style:normal;font-variant:normal;font-weight:normal;font-stretch:normal;font-size:12px;line-height:125%;font-family:Lavi;-inkscape-font-specification:Lavi;text-align:center;letter-spacing:0px;word-spacing:0px;text-anchor:middle;fill:#000000;fill-opacity:1;stroke:none"
       transform="translate(66.444963,1312.7913)"><flowRegion
         id="flowRegion2989-5-4-5-9-3-0"><rect
           id="rect2991-7-9-6-4-4-2"
           width="577.74487"
           height="312.3837"
           x="120.55251"
           y="265.53046"
           style="font-style:normal;font-variant:normal;font-weight:normal;font-stretch:normal;font-family:Lavi;-inkscape-font-specification:Lavi;text-align:center;text-anchor:middle" /></flowRegion><flowPara
         style="font-size:48px;text-align:center;text-anchor:middle"
         id="flowPara4298-3">Y bueno ... ¿cómo se ha dado la noche?</flowPara></flowRoot>    <flowRoot
       xml:space="preserve"
       id="flowRoot2987-4-9-3-7-3-7-8"
       style="font-style:normal;font-variant:normal;font-weight:normal;font-stretch:normal;font-size:12px;line-height:125%;font-family:Lavi;-inkscape-font-specification:Lavi;text-align:center;letter-spacing:0px;word-spacing:0px;text-anchor:middle;fill:#000000;fill-opacity:1;stroke:none"
       transform="translate(187.00435,2175.4217)"><flowRegion
         id="flowRegion2989-5-4-5-9-3-2-0"><rect
           id="rect2991-7-9-6-4-4-0-8"
           width="577.74487"
           height="312.3837"
           x="120.55251"
           y="265.53046"
           style="font-style:normal;font-variant:normal;font-weight:normal;font-stretch:normal;font-family:Lavi;-inkscape-font-specification:Lavi;text-align:center;text-anchor:middle" /></flowRegion><flowPara
         style="font-size:48px;text-align:center;text-anchor:middle"
         id="flowPara4406">... lo siento mucho,</flowPara><flowPara
         style="font-size:48px;text-align:center;text-anchor:middle"
         id="flowPara4410">no me guardéis</flowPara><flowPara
         style="font-size:48px;text-align:center;text-anchor:middle"
         id="flowPara4412"> rencor, ¿eh?</flowPara></flowRoot>    <flowRoot
       xml:space="preserve"
       id="flowRoot2987-4-9-3-7-3-7-8-5"
       style="font-style:normal;font-variant:normal;font-weight:normal;font-stretch:normal;font-size:12px;line-height:125%;font-family:Lavi;-inkscape-font-specification:Lavi;text-align:center;letter-spacing:0px;word-spacing:0px;text-anchor:middle;fill:#000000;fill-opacity:1;stroke:none"
       transform="translate(489.31345,2384.631)"><flowRegion
         id="flowRegion2989-5-4-5-9-3-2-0-4"><rect
           id="rect2991-7-9-6-4-4-0-8-5"
           width="577.74487"
           height="312.3837"
           x="120.55251"
           y="265.53046"
           style="font-style:normal;font-variant:normal;font-weight:normal;font-stretch:normal;font-family:Lavi;-inkscape-font-specification:Lavi;text-align:center;text-anchor:middle" /></flowRegion><flowPara
         style="font-size:48px;text-align:center;text-anchor:middle"
         id="flowPara4412-8">He preparado té para que repongamos las fuerzas después de este pequeño percance.</flowPara></flowRoot>    <flowRoot
       transform="matrix(1.0893046,0,0.05787519,1.1966756,-208.64545,-108.66519)"
       style="font-style:normal;font-variant:normal;font-weight:normal;font-stretch:normal;font-size:12px;line-height:125%;font-family:Lavi;-inkscape-font-specification:Lavi;text-align:center;letter-spacing:0px;word-spacing:0px;text-anchor:middle;fill:#000000;fill-opacity:1;stroke:#000000;stroke-width:1.97814989;stroke-miterlimit:4;stroke-dasharray:none;stroke-opacity:1"
       id="flowRoot4212-3-7-8-6"
       xml:space="preserve"><flowRegion
         id="flowRegion4214-6-7-8-3"><rect
           style="font-style:normal;font-variant:normal;font-weight:normal;font-stretch:normal;font-family:Lavi;-inkscape-font-specification:Lavi;text-align:center;text-anchor:middle;stroke:#000000;stroke-width:1.97814989;stroke-miterlimit:4;stroke-dasharray:none;stroke-opacity:1"
           y="265.53046"
           x="120.55251"
           height="355.03918"
           width="798.1947"
           id="rect4216-4-0-26-5" /></flowRegion><flowPara
         style="font-size:48px;text-align:center;letter-spacing:5.20896292px;text-anchor:middle;stroke:#000000;stroke-width:1.97814989;stroke-miterlimit:4;stroke-dasharray:none;stroke-opacity:1"
         id="flowPara4358-7-1">Perdón ...</flowPara></flowRoot>    <flowRoot
       xml:space="preserve"
       id="flowRoot2987-4-9-3-7-3-4-6"
       style="font-style:normal;font-variant:normal;font-weight:normal;font-stretch:normal;font-size:12px;line-height:125%;font-family:Lavi;-inkscape-font-specification:Lavi;text-align:center;letter-spacing:0px;word-spacing:0px;text-anchor:middle;fill:#000000;fill-opacity:1;stroke:none"
       transform="translate(-9.9551706,1111.4241)"><flowRegion
         id="flowRegion2989-5-4-5-9-3-0-1"><rect
           id="rect2991-7-9-6-4-4-2-6"
           width="592.11987"
           height="303.75873"
           x="120.55251"
           y="265.53046"
           style="font-style:normal;font-variant:normal;font-weight:normal;font-stretch:normal;font-family:Lavi;-inkscape-font-specification:Lavi;text-align:center;text-anchor:middle" /></flowRegion><flowPara
         style="font-size:48px;text-align:center;text-anchor:middle"
         id="flowPara4298-3-5">... ¡pero estoy muy contenta de que hayáis venido todas!</flowPara></flowRoot>    <flowRoot
       xml:space="preserve"
       id="flowRoot4519"
       style="fill:black;stroke:none;stroke-opacity:1;stroke-width:1px;stroke-linejoin:miter;stroke-linecap:butt;fill-opacity:1;font-family:Arial;font-style:normal;font-weight:normal;font-size:12px;line-height:125%;letter-spacing:0px;word-spacing:0px;-inkscape-font-specification:Arial;font-stretch:normal;font-variant:normal"><flowRegion
         id="flowRegion4521"><rect
           id="rect4523"
           width="103.5"
           height="17.25"
           x="2866.375"
           y="1792.375" /></flowRegion><flowPara
         id="flowPara4525" /></flowRoot>    <path
       style="color:#000000;display:inline;overflow:visible;visibility:visible;fill:#ffffff;fill-opacity:1;fill-rule:nonzero;stroke:none;stroke-width:1px;marker:none;enable-background:accumulate"
       d="m 1216.7346,2918.2863 c -43.3715,1.0822 -59.0619,-1.0925 -84.8726,-48.9239 -25.8107,-47.8314 -41.7698,-38.7869 -41.7698,-38.7869 l -1.2183,35.8616 c 0,0 61.508,98.5494 127.8607,51.8492 z"
       id="path3072"
       inkscape:connector-curvature="0" />
  </g>
</svg>
