<?xml version="1.0" encoding="UTF-8" standalone="no"?>
<!-- Created with Inkscape (http://www.inkscape.org/) -->

<svg
   id="svg2"
   version="1.1"
   inkscape:version="1.3 (0e150ed6c4, 2023-07-21)"
   width="2481"
   height="3503"
   sodipodi:docname="E26P05.svg"
   xmlns:inkscape="http://www.inkscape.org/namespaces/inkscape"
   xmlns:sodipodi="http://sodipodi.sourceforge.net/DTD/sodipodi-0.dtd"
   xmlns:xlink="http://www.w3.org/1999/xlink"
   xmlns="http://www.w3.org/2000/svg"
   xmlns:svg="http://www.w3.org/2000/svg"
   xmlns:rdf="http://www.w3.org/1999/02/22-rdf-syntax-ns#"
   xmlns:cc="http://creativecommons.org/ns#"
   xmlns:dc="http://purl.org/dc/elements/1.1/">
  <metadata
     id="metadata8">
    <rdf:RDF>
      <cc:Work
         rdf:about="">
        <dc:format>image/svg+xml</dc:format>
        <dc:type
           rdf:resource="http://purl.org/dc/dcmitype/StillImage" />
        <dc:title />
      </cc:Work>
    </rdf:RDF>
  </metadata>
  <defs
     id="defs6">
    <filter
       inkscape:collect="always"
       style="color-interpolation-filters:sRGB"
       id="filter1"
       x="-0.048980909"
       y="-0.0031277374"
       width="1.0979618"
       height="1.0062555">
      <feGaussianBlur
         inkscape:collect="always"
         stdDeviation="0.7800414"
         id="feGaussianBlur1" />
    </filter>
  </defs>
  <sodipodi:namedview
     pagecolor="#ffffff"
     bordercolor="#666666"
     borderopacity="1"
     objecttolerance="10"
     gridtolerance="10"
     guidetolerance="10"
     inkscape:pageopacity="0"
     inkscape:pageshadow="2"
     inkscape:window-width="1884"
     inkscape:window-height="997"
     id="namedview4"
     showgrid="false"
     inkscape:zoom="0.42773946"
     inkscape:cx="1278.8158"
     inkscape:cy="2437.2313"
     inkscape:window-x="32"
     inkscape:window-y="0"
     inkscape:window-maximized="0"
     inkscape:current-layer="layer3"
     inkscape:snap-global="false"
     inkscape:showpageshadow="0"
     inkscape:pagecheckerboard="0"
     inkscape:deskcolor="#d1d1d1" />
  <g
     inkscape:groupmode="layer"
     id="layer2"
     inkscape:label="artwork"
     sodipodi:insensitive="true">
    <image
       xlink:href="../gfx_Pepper-and-Carrot_by-David-Revoy_E26P05.png"
       width="2481"
       height="3503"
       id="image10"
       x="0"
       y="0" />
  </g>
  <g
     inkscape:groupmode="layer"
     id="layer3"
     inkscape:label="speechbubbles">
    <path
       style="color:#000000;display:inline;overflow:visible;visibility:visible;fill:#ffe4a0;fill-opacity:1;fill-rule:nonzero;stroke:none;stroke-width:0.784742px;marker:none;enable-background:accumulate"
       d="m 708.9834,137.99036 c 16.1806,-26.29902 141.99994,-42.805964 182.64724,19.61939 40.64728,62.42536 10.54474,128.56377 -15.65902,147.75882 -26.20375,19.19515 -101.19039,35.07079 -133.84524,12.48855 -32.65492,-22.58226 -57.38457,-53.66009 -56.07468,-111.51787 0.53463,-23.61408 6.75106,-42.04977 22.9317,-68.34889 z"
       id="path4040"
       inkscape:connector-curvature="0"
       sodipodi:nodetypes="zssssz" />
    <path
       style="color:#000000;display:inline;overflow:visible;visibility:visible;fill:#ffe4a0;fill-opacity:1;fill-rule:nonzero;stroke:none;stroke-width:1px;marker:none;enable-background:accumulate"
       d="m 723.30366,175.8066 c 15.6509,39.1272 126.32477,118.49941 138.62187,131.91441 12.2971,13.415 38.0092,32.4196 58.1317,35.7734 20.1226,3.3537 29.8656,-15.8488 47.3048,-18.9433 14.983,-2.6587 26.47777,2.1745 35.42117,12.2357 -14.533,-25.7121 -39.12717,-25.7121 -49.18837,-21.2404 -10.0613,4.4717 -27.948,17.8867 -44.7168,5.5896 -16.7687,-12.2971 -86.0797,-88.31561 -103.96637,-91.66931 -17.8867,-3.3538 -40.245,-29.0659 -40.245,-43.5988 0,-14.533 -41.363,-10.0613 -41.363,-10.0613 z"
       id="path4562"
       inkscape:connector-curvature="0"
       sodipodi:nodetypes="cssscssssc" />
    <path
       style="color:#000000;display:inline;overflow:visible;visibility:visible;fill:#ffe4a0;fill-opacity:1;fill-rule:nonzero;stroke:none;stroke-width:1px;marker:none;enable-background:accumulate"
       d="m 627.7966,1453.9294 c 5.31864,112.846 187.39235,142.8215 217.19246,120.0477 -67.73192,45.7834 -243.1513,-13.454 -259.18624,-91.6691 -22.55675,-34.7368 41.99378,-28.3786 41.99378,-28.3786 z"
       id="path4480"
       inkscape:connector-curvature="0"
       sodipodi:nodetypes="cccc" />
    <path
       style="color:#000000;display:inline;overflow:visible;visibility:visible;fill:#ffe4a0;fill-opacity:1;fill-rule:nonzero;stroke:none;stroke-width:0.779531px;marker:none;enable-background:accumulate"
       d="m 1697.5082,1517.4852 c 5.7296,-47.4416 53.7866,-80.5244 174.7525,-67.0728 64.7959,7.2055 138.4652,13.0874 130.8257,82.6142 -7.6395,69.5266 -113.6368,63.8009 -135.6003,64.6189 -21.9635,0.818 -135.7153,-10.7214 -154.6989,-35.1724 -11.8834,-15.3056 -16.234,-30.2645 -15.279,-44.9879 z"
       id="path4546-6"
       inkscape:connector-curvature="0"
       sodipodi:nodetypes="cssssc" />
    <path
       style="fill:#ffe4a0;fill-opacity:1;stroke:none;stroke-width:0.965286"
       d="m 1839.1465,1635.533 c -2.3386,-29.6419 13.1726,-44.3874 27.2957,-51.3724 17.8989,-8.8526 147.0197,-18.719 162.6008,6.0932 14.3498,22.8513 24.5452,64.8634 -18.3034,85.6164 -42.8484,20.7528 -114.3596,9.3855 -126.5325,5.6123 -12.1728,-3.7733 -42.6261,-13.8769 -45.0606,-45.9495 z"
       id="path3659-8"
       inkscape:connector-curvature="0"
       sodipodi:nodetypes="cssssc" />
    <path
       style="fill:#ffe4a0;fill-opacity:1;fill-rule:evenodd;stroke:none;stroke-width:0.589066px;stroke-linecap:butt;stroke-linejoin:miter;stroke-opacity:1"
       d="m 2059.4684,1726.8698 c 3.0336,6.2781 -2.8833,12.8754 -7.1216,14.9282 -5.034,4.1933 -10.582,3.4238 -15.7187,2.3824 -5.0233,-1.6167 -9.4939,2.4725 -13.5553,6.7734 -6.2259,5.4542 -14.2465,6.5511 -19.8378,1.2394 -4.1968,-3.6716 -9.0164,-8.1406 -14.6419,-5.3035 -6.6139,2.7499 -14.8215,4.8375 -19.8176,-1.7964 -3.1599,-7.3562 -10.5275,-5.3756 -16.0389,-3.3626 -7.0343,2.2865 -14.5035,3.2535 -20.826,-0.695 -4.2278,-2.3804 -9.6719,-3.9874 -10.8824,-11.0177 -1.5738,-7.7322 -3.137,-16.9207 -9.0751,-19.9579 -4.1514,-2.4942 -10.3613,-4.4919 -10.3303,-12.3212 1.1544,-6.8382 4.5139,-13.2886 7.5428,-18.978 7.473,-6.9042 16.2731,0.321 24.6156,-0.7647 5.4516,-0.6887 10.8396,-3.071 15.8294,-6.8213 7.8386,-4.1094 15.3838,1.0655 23.2449,-1.2502 9.1501,-1.9266 18.4105,-0.2509 27.4717,-4.696 10.1451,-3.9035 20.9283,-0.7854 27.9223,8.5566 2.918,4.5693 7.1613,6.697 11.7753,6.5043 6.0478,0.514 9.3264,-0.3982 12.7092,7.2374 2.8052,5.4974 2.086,3.7813 3.6193,9.6865 1.6515,5.8484 7.2244,7.8078 7.9773,14.5687 0.5175,5.574 -4.7297,9.3467 -4.8622,15.0876 z"
       id="path4367-3-5"
       inkscape:connector-curvature="0"
       sodipodi:nodetypes="ccccccccccccccccccccccc" />
    <path
       style="opacity:1;fill:#ffe4a0;fill-rule:evenodd;stroke:none;stroke-width:1.3443836px;stroke-linecap:butt;stroke-linejoin:miter;stroke-opacity:1"
       d="m 1542.1535,1496.6176 c 57.2733,-8.6915 60.9764,19.7045 77.6569,27.317 17.2205,7.8588 50.5803,-25.7702 66.8815,-19.2081 16.3015,6.562 20.9961,40.3754 46.6514,50.2361 25.6551,9.861 44.0985,-16.5088 14.0519,-27.3374 -30.0465,-10.8286 -24.8419,-34.9697 -49.8325,-40.9228 -41.6779,-9.928 -54.8951,20.1792 -69.9481,24.4763 -9.9661,2.8447 -19.8986,-16.3184 -38.035,-21.5527 -18.1365,-5.2344 -47.4261,6.9916 -47.4261,6.9916 z"
       id="path4272"
       inkscape:connector-curvature="0"
       sodipodi:nodetypes="csssssssc" />
    <path
       style="color:#000000;display:inline;overflow:visible;visibility:visible;fill:#ffe4a0;fill-opacity:1;fill-rule:nonzero;stroke:none;stroke-width:0.842598px;marker:none;enable-background:accumulate"
       d="m 1171.729,2864.3012 c -12.2946,-10.5306 -31.4311,-23.9453 25.0269,-26.9445 -70.6099,-25.4199 -56.5318,-66.5215 -18.3496,-77.5114 -58.2018,-2.4623 -63.3567,-5.9422 13.9876,-86.1248 -89.9848,76.5575 -98.144,77.6987 -103.2533,39.8671 -15.4624,22.2479 -45.2965,20.2317 -40.2089,-13.2081 -17.6441,26.9328 -64.55655,44.4068 -66.54259,3.5626 -22.0371,32.1468 -42.90603,30.134 -64.59052,23.193 4.50599,24.5984 3.23563,52.2255 2.32634,90.2578 -1.12894,22.4558 1.22752,27.1694 5.7636,42.6743 -3.68378,24.576 2.74529,25.021 5.6589,43.2742 38.14132,-21.8896 38.16659,-19.3678 38.82679,8.5148 69.72638,-49.2416 56.06338,-10.5176 71.78308,-3.5241 26.1122,-37.6615 52.2899,-14.6169 79.3803,-9.0224 12.0937,-43.0546 29.3991,-39.8265 50.1914,-35.0085 z"
       id="path3549-3-78"
       inkscape:connector-curvature="0"
       sodipodi:nodetypes="ccccccccccccccc" />
    <path
       style="fill:#ffe4a0;fill-rule:evenodd;stroke:none;stroke-width:1.09152px;stroke-linecap:butt;stroke-linejoin:miter;stroke-opacity:1"
       d="m 1068.8149,2806.717 c -23.0516,64.215 -49.5963,72.7746 -80.44699,12.7138 -8.20954,20.4377 -0.76641,78.6676 -52.65678,-6.3569 5.57034,38.7216 -2.44114,49.8986 -16.29242,49.2317 v 226.6974 c 13.48054,-5.4113 23.83568,-1.0175 27.99392,22.8308 29.17042,-26.212 49.25694,-27.9814 51.19495,19.0706 27.47162,-53.9416 38.84972,-32.1147 51.19332,-14.8326 41.5036,-52.0727 58.6754,-12.5032 81.9087,4.2378 -4.2446,-29.1834 2.7397,-44.4248 52.6569,-6.3568 -9.4062,-18.5154 -23.5252,-38.1685 35.1045,-40.2577 -25.0403,-15.0872 -37.211,-36.3181 -19.0158,-72.0419 -34.2503,-24.5226 -16.9233,-44.6505 14.6269,-63.5661 -45.4192,-12.3263 -37.8487,-33.6833 -17.5524,-57.2092 -45.938,22.3563 -91.5491,16.6001 -67.4873,-25.5226 -28.2307,23.2235 -48.1959,43.9887 -61.2275,-48.6383 z"
       id="path4582"
       inkscape:connector-curvature="0"
       sodipodi:nodetypes="cccccccccccccccc" />
    <path
       style="fill:#ffe4a0;fill-rule:evenodd;stroke:none;stroke-width:0.95156px;stroke-linecap:butt;stroke-linejoin:miter;stroke-opacity:1"
       d="m 904.79699,3112.1477 c 25.22949,2.7051 62.17385,-10.089 41.77684,-50.8159 39.5908,28.8558 72.05117,23.8184 136.45167,-21.4911 -5.3517,63.1309 23.4321,57.2326 49.3812,45.1123 -24.9039,21.244 19.7996,33.4174 43.8461,34.6108 -50.868,45.9493 -24.1566,60.5625 -4.1129,77.8691 -49.9912,-12.8043 -37.9007,13.1396 -43.8716,27.8104 -42.885,-33.2402 -74.0725,-25.3512 -98.7113,5.5621 -12.8865,-16.8115 -16.9314,-51.558 -64.43648,1.854 17.46875,-46.1099 -5.42894,-41.27 -42.50069,-18.5402 5.80997,-15.7057 40.34115,-39.5884 -17.82284,-37.0806 36.33032,-14.9306 43.94898,-35.1561 0,-64.8909 z"
       id="path4584"
       inkscape:connector-curvature="0"
       sodipodi:nodetypes="cccccccccccc" />
    <path
       style="fill:#ffe4a0;fill-opacity:1;fill-rule:evenodd;stroke:none;stroke-width:1.22842968px;stroke-linecap:butt;stroke-linejoin:miter;stroke-opacity:1"
       d="m 1974.4279,2095.4121 c -20.0833,-1.455 -31.278,17.25 -47.2645,24.1978 -16.3824,3.2493 -34.685,-8.8053 -49.5292,2.3915 -13.4321,6.4399 -27.9987,18.4901 -23.3075,34.4797 1.3324,14.5148 -15.4736,23.199 -13.3243,37.512 0.6045,14.9876 19.3793,22.9474 16.3652,38.6673 -5.2162,14.4332 -16.8201,31.2861 -3.8292,45.7315 13.5065,16.4632 39.0307,7.3034 55.1231,18.313 12.8905,16.4451 28.134,35.3547 51.5385,36.3645 21.8795,1.4166 38.213,-13.7588 60.2581,-11.3603 16.3165,-0.2743 35.9093,13.0535 52.0427,17.0684 13.5324,-0.9747 28.8103,2.8301 40.7133,-5.2936 11.536,-10.9424 27.3354,-9.9512 34.8854,4.2911 12.6769,10.8294 31.534,3.2684 44.7238,-2.9753 16.1002,-11.2104 30.6908,5.7337 44.597,11.7228 18.8769,8.5166 38.2165,-19.7741 48.6402,-34.174 10.0068,-15.7777 30.3968,-8.0933 45.7681,-11.1197 14.0938,-5.3118 28.2146,-16.7119 32.3778,-31.2344 -2.4193,-13.1731 -3.5279,-27.7059 5.1328,-39.5519 5.1206,-14.5929 -7.8073,-26.4673 -17.6317,-35.506 -12.1144,-14.3198 5.3026,-29.8117 0.2515,-45.0946 -4.1253,-20.0832 -28.2065,-22.8669 -45.6951,-20.484 -16.014,3.5888 -25.6437,-8.6408 -36.1844,-17.5181 -15.9039,-14.4281 -40.3917,-18.472 -60.1852,-9.1296 -17.5185,9.3712 -33.1384,2.1835 -52.8116,4.8547 -14.2835,3.6209 -28.7817,14.2403 -43.737,12.1074 -12.497,-2.3973 -27.2507,14.5509 -40.3753,-1.2023 -10.5185,-12.5056 -27.6745,-4.2472 -41.5007,-0.3323 -18.3564,8.5891 -29.8088,-11.7057 -43.4694,-19.1901 -4.1134,-2.2431 -8.8092,-3.6585 -13.5724,-3.5355 z"
       id="path4367"
       inkscape:connector-curvature="0"
       sodipodi:nodetypes="cccccccccccccccccccccccccccccc" />
    <path
       style="color:#000000;display:inline;overflow:visible;visibility:visible;fill:#ffe4a0;fill-opacity:1;fill-rule:nonzero;stroke:none;stroke-width:1.3837055px;marker:none;enable-background:accumulate"
       d="m 2170.3615,2309.0962 c -0.3713,38.0127 6.7641,58.9988 10.8638,63.5533 4.0997,4.5543 14.1043,16.9116 18.197,24.3263 3.3617,6.1716 9.6066,12.58 5.6022,19.0563 -4.0042,6.4764 -34.1758,30.3537 -35.5389,56.2139 -1.3632,25.8606 5.3064,30.7584 16.8647,34.3062 11.5583,3.5478 26.5828,8.5604 26.6542,27.601 0.071,19.0406 -9.8738,34.7396 -15.8025,39.9571 -5.9287,5.2176 -38.3186,24.4352 -54.9686,48.0709 -8.8964,12.629 -3.6957,116.332 -77.1531,147.1353 96.1421,-38.7249 86.06,-126.0636 93.2119,-138.7724 6.2517,-11.109 19.0349,-23.9504 28.6904,-28.7662 12.35,-6.1599 23.5652,-12.3444 30.546,-25.4347 6.9807,-13.0901 15.9013,-23.3083 13.774,-42.6236 -2.1271,-19.3153 -5.4443,-39.4224 -23.4332,-41.8264 -11.5582,-3.5478 -18.351,-12.9635 -18.0761,-18.9365 0.2753,-5.9731 12.8845,-27.1311 24.7298,-33.5613 11.8453,-6.4303 16.5638,-17.6507 16.086,-29.7343 -0.4779,-12.0835 -10.5747,-31.5425 -12.3436,-41.7953 -1.7687,-10.2527 -15.6194,-65.4734 -15.6194,-65.4734 z"
       id="path5058"
       inkscape:connector-curvature="0"
       sodipodi:nodetypes="cscsssssscssssccscccc" />
    <rect
       style="opacity:1;mix-blend-mode:normal;fill:#ffffff;stroke:none;stroke-width:0.952;stroke-dasharray:none;filter:url(#filter1)"
       id="rect1"
       width="38.221001"
       height="598.54749"
       x="889.96259"
       y="2673.0803" />
  </g>
  <g
     inkscape:groupmode="layer"
     id="layer1"
     inkscape:label="txt">
    <path
       style="color:#000000;display:inline;overflow:visible;visibility:visible;fill:#ffe4a0;fill-opacity:1;fill-rule:nonzero;stroke:none;stroke-width:1.17541px;marker:none;enable-background:accumulate"
       d="m 387.02378,1288.1959 c 53.25254,-32.7284 289.40434,-51.3519 388.18491,12.4073 98.78051,63.7593 63.8104,152.7933 7.13294,177.1375 -56.67732,24.3445 -231.82226,33.1856 -312.05315,22.985 -135.9798,-17.2886 -146.83336,-55.3551 -150.70354,-119.2228 -1.57956,-26.0669 14.18632,-60.5789 67.43884,-93.307 z"
       id="path4040-3"
       inkscape:connector-curvature="0"
       sodipodi:nodetypes="zssssz" />
    <text
       xml:space="preserve"
       style="color:#000000;font-style:normal;font-variant:normal;font-weight:normal;font-stretch:normal;font-size:14.5637px;line-height:0.01%;font-family:Arial;-inkscape-font-specification:Arial;letter-spacing:1.17454px;word-spacing:0px;display:inline;overflow:visible;visibility:visible;fill:#ffffff;fill-opacity:1;fill-rule:nonzero;stroke:#e99f77;stroke-width:2;stroke-miterlimit:4;stroke-dasharray:none;stroke-opacity:1;marker:none;enable-background:accumulate"
       x="-789.3432"
       y="134.55949"
       id="text1711-2"
       transform="matrix(-0.05075958,-0.85891373,1.1934833,0.49447225,0,0)"><tspan
         sodipodi:role="line"
         x="-787.76733"
         y="134.55949"
         id="tspan1709-8"
         style="font-style:normal;font-variant:normal;font-weight:bold;font-stretch:normal;font-family:Lavi;-inkscape-font-specification:'Lavi Bold';letter-spacing:3.1517px;word-spacing:0px;fill:#ffffff;fill-opacity:1;stroke:#ffffff;stroke-width:2;stroke-miterlimit:4;stroke-dasharray:none;stroke-opacity:1"><tspan
           x="-789.3432"
           y="134.55949"
           style="color:#000000;font-style:normal;font-variant:normal;font-weight:bold;font-stretch:normal;font-size:77.6733px;line-height:1.25;font-family:Lavi;-inkscape-font-specification:'Lavi Bold';text-align:center;letter-spacing:3.1517px;word-spacing:0px;text-anchor:middle;display:inline;overflow:visible;visibility:visible;fill:#ffffff;fill-opacity:1;fill-rule:nonzero;stroke:#ffffff;stroke-width:2;stroke-miterlimit:4;stroke-dasharray:none;stroke-opacity:1;marker:none;enable-background:accumulate"
           id="tspan1707-9"><tspan
   style="font-style:normal;font-variant:normal;font-weight:bold;font-stretch:normal;font-size:63.5789px;font-family:Lavi;-inkscape-font-specification:'Lavi Bold';letter-spacing:3.1517px;stroke-width:2;stroke-miterlimit:4;stroke-dasharray:none;fill:#ffffff;fill-opacity:1"
   id="tspan1156-7">Škrrkrr</tspan>!</tspan></tspan></text>
    <text
       xml:space="preserve"
       style="font-style:normal;font-variant:normal;font-weight:normal;font-stretch:normal;line-height:0%;font-family:Lavi;-inkscape-font-specification:Lavi;text-align:center;letter-spacing:0px;word-spacing:0px;text-anchor:middle;fill:#000000;fill-opacity:1;stroke:none"
       x="798.69904"
       y="177.33916"
       id="text4246-5-3"><tspan
         sodipodi:role="line"
         style="font-size:45px;line-height:1.25"
         x="798.69904"
         y="177.33916"
         id="tspan843">Aha!</tspan><tspan
         sodipodi:role="line"
         style="font-size:45px;line-height:1.25"
         x="798.69904"
         y="233.58916"
         id="tspan849">Tamle je</tspan><tspan
         sodipodi:role="line"
         style="font-size:45px;line-height:1.25"
         x="798.69904"
         y="289.83914"
         id="tspan90">izhod!</tspan><tspan
         sodipodi:role="line"
         x="798.69904"
         y="308.75888"
         id="tspan917" /></text>
    <text
       xml:space="preserve"
       style="color:#000000;font-style:normal;font-variant:normal;font-weight:normal;font-stretch:normal;font-size:10.939px;line-height:0.01%;font-family:Arial;-inkscape-font-specification:Arial;letter-spacing:0.882204px;word-spacing:0px;display:inline;overflow:visible;visibility:visible;fill:#ffffff;fill-opacity:1;fill-rule:nonzero;stroke:#e99f77;stroke-width:2;stroke-miterlimit:4;stroke-dasharray:none;stroke-opacity:1;marker:none;enable-background:accumulate"
       x="217.53416"
       y="1535.3667"
       id="text1711-2-3"
       transform="matrix(-0.02665862,-0.84533118,1.1912388,0.26225273,0,0)"><tspan
         sodipodi:role="line"
         x="218.7178"
         y="1535.3667"
         id="tspan1709-8-6"
         style="font-style:normal;font-variant:normal;font-weight:bold;font-stretch:normal;font-family:Lavi;-inkscape-font-specification:'Lavi Bold';letter-spacing:2.36727px;word-spacing:0px;fill:#ffffff;fill-opacity:1;stroke:#ffffff;stroke-width:2;stroke-miterlimit:4;stroke-dasharray:none;stroke-opacity:1"><tspan
           x="217.53416"
           y="1535.3667"
           style="color:#000000;font-style:normal;font-variant:normal;font-weight:bold;font-stretch:normal;font-size:58.3411px;line-height:1.25;font-family:Lavi;-inkscape-font-specification:'Lavi Bold';text-align:center;letter-spacing:2.36727px;word-spacing:0px;text-anchor:middle;display:inline;overflow:visible;visibility:visible;fill:#ffffff;fill-opacity:1;fill-rule:nonzero;stroke:#ffffff;stroke-width:2;stroke-miterlimit:4;stroke-dasharray:none;stroke-opacity:1;marker:none;enable-background:accumulate"
           id="tspan1707-9-7">Vuuš!</tspan></tspan></text>
    <path
       style="fill:#ffe4a0;fill-opacity:1;fill-rule:evenodd;stroke:none;stroke-width:0.932613px;stroke-linecap:butt;stroke-linejoin:miter;stroke-opacity:1"
       d="m 316.25263,1229.2421 c -6.6742,-8.5996 1.61188,-19.3901 8.21833,-23.2096 7.40645,-7.1039 16.92229,-7.0471 25.81571,-6.5131 8.84698,1.3971 15.33255,-5.4459 21.07721,-12.5198 9.0924,-9.1782 22.29458,-12.3279 33.02412,-5.6348 7.97424,4.5624 17.1955,10.1714 25.93609,4.9375 10.4235,-5.2969 23.69134,-9.9318 33.75259,-1.1899 7.15722,10.1523 19.04019,5.8356 27.796,1.8292 11.24623,-4.6999 23.55466,-7.5533 35.17073,-2.9954 7.70197,2.6678 17.25376,3.9699 21.05348,14.0209 4.58625,11.0078 9.52022,24.1481 20.26112,27.4471 7.60272,2.8488 18.5393,4.575 20.45326,16.0339 -0.22279,10.2257 -4.24825,20.309 -7.90926,29.2151 -10.82405,11.5394 -27.42592,2.6654 -41.172,5.8607 -8.98795,2.0576 -17.44373,6.5807 -24.88679,13.028 -12.14017,7.5216 -26.11864,1.4049 -38.74673,6.3068 -14.89227,4.5811 -30.87408,3.9138 -44.98427,12.162 -16.0674,7.6646 -34.97082,5.1806 -49.06923,-7.1381 -6.05085,-6.1221 -13.71569,-8.4171 -21.4206,-7.2464 -10.29187,0.4132 -15.57209,2.3794 -23.17406,-8.1387 -6.09402,-7.5017 -4.4547,-5.1298 -8.514,-13.4728 -4.24387,-8.2372 -14.10059,-10.0299 -17.06344,-19.7751 -2.26948,-8.0541 5.60073,-14.584 4.38174,-23.0075 z"
       id="path4367-3"
       inkscape:connector-curvature="0"
       sodipodi:nodetypes="ccccccccccccccccccccccc" />
    <text
       xml:space="preserve"
       style="font-style:normal;font-variant:normal;font-weight:normal;font-stretch:normal;line-height:0%;font-family:Lavi;-inkscape-font-specification:Lavi;text-align:center;letter-spacing:0px;word-spacing:0px;text-anchor:middle;fill:#000000;fill-opacity:1;stroke:none"
       x="453.31393"
       y="1259.0928"
       id="text4246-5-3-7-2-0"><tspan
         sodipodi:role="line"
         x="453.31393"
         y="1259.0928"
         id="tspan917-6-7-6"
         style="font-style:normal;font-variant:normal;font-weight:bold;font-stretch:normal;font-size:53.3333px;line-height:1.25;font-family:Lavi;-inkscape-font-specification:'Lavi Bold'">Bljak!</tspan></text>
    <text
       xml:space="preserve"
       style="font-style:normal;font-variant:normal;font-weight:normal;font-stretch:normal;font-size:45px;line-height:0%;font-family:Lavi;-inkscape-font-specification:'Lavi, Normal';font-variant-ligatures:normal;font-variant-caps:normal;font-variant-numeric:normal;font-feature-settings:normal;text-align:center;letter-spacing:0px;word-spacing:0px;writing-mode:lr-tb;text-anchor:middle;fill:#000000;fill-opacity:1;stroke:none"
       x="576.07928"
       y="1345.677"
       id="text4246-5-3-5"><tspan
         sodipodi:role="line"
         style="font-style:normal;font-variant:normal;font-weight:normal;font-stretch:normal;font-size:45px;line-height:1.25;font-family:Lavi;-inkscape-font-specification:'Lavi, Normal';font-variant-ligatures:normal;font-variant-caps:normal;font-variant-numeric:normal;font-feature-settings:normal;text-align:center;writing-mode:lr-tb;text-anchor:middle"
         x="576.07928"
         y="1345.677"
         id="tspan467">Zagotovo v knjigi</tspan><tspan
         sodipodi:role="line"
         style="font-style:normal;font-variant:normal;font-weight:normal;font-stretch:normal;font-size:45px;line-height:1.25;font-family:Lavi;-inkscape-font-specification:'Lavi, Normal';font-variant-ligatures:normal;font-variant-caps:normal;font-variant-numeric:normal;font-feature-settings:normal;text-align:center;writing-mode:lr-tb;text-anchor:middle"
         x="576.07928"
         y="1401.927"
         id="tspan473">piše, kako se odstrani</tspan><tspan
         sodipodi:role="line"
         style="font-style:normal;font-variant:normal;font-weight:normal;font-stretch:normal;font-size:45px;line-height:1.25;font-family:Lavi;-inkscape-font-specification:'Lavi, Normal';font-variant-ligatures:normal;font-variant-caps:normal;font-variant-numeric:normal;font-feature-settings:normal;text-align:center;writing-mode:lr-tb;text-anchor:middle"
         x="576.07928"
         y="1458.177"
         id="tspan469">to gnusobo …</tspan></text>
    <text
       xml:space="preserve"
       style="font-style:normal;font-variant:normal;font-weight:normal;font-stretch:normal;font-size:9.23768px;line-height:0%;font-family:Lavi;-inkscape-font-specification:Lavi;text-align:center;letter-spacing:0px;word-spacing:0px;text-anchor:middle;fill:#000000;fill-opacity:1;stroke:none;stroke-width:0.769806"
       x="1851.3301"
       y="1509.9344"
       id="text4246-5-3-5-7"><tspan
         sodipodi:role="line"
         style="font-style:normal;font-variant:normal;font-weight:normal;font-stretch:normal;font-size:34.6667px;line-height:1.25;font-family:Lavi;-inkscape-font-specification:Lavi;stroke-width:0.769806"
         x="1851.3301"
         y="1509.9344"
         id="tspan1049">Korenček, a mi</tspan><tspan
         sodipodi:role="line"
         style="font-style:normal;font-variant:normal;font-weight:normal;font-stretch:normal;font-size:34.6667px;line-height:1.25;font-family:Lavi;-inkscape-font-specification:Lavi;stroke-width:0.769806"
         x="1851.3301"
         y="1553.2678"
         id="tspan119">lahko prebereš?</tspan><tspan
         sodipodi:role="line"
         x="1851.3301"
         y="1567.8412"
         id="tspan917-2-2" /></text>
    <text
       xml:space="preserve"
       style="font-style:normal;font-variant:normal;font-weight:normal;font-stretch:normal;font-size:9.49034px;line-height:0%;font-family:Lavi;-inkscape-font-specification:Lavi;text-align:center;letter-spacing:0px;word-spacing:0px;text-anchor:middle;fill:#000000;fill-opacity:1;stroke:none;stroke-width:0.790862"
       x="1944.2441"
       y="1619.5809"
       id="text4246-5-3-5-7-6"><tspan
         sodipodi:role="line"
         style="font-style:normal;font-variant:normal;font-weight:normal;font-stretch:normal;font-size:30.6667px;line-height:1.25;font-family:Lavi;-inkscape-font-specification:Lavi;stroke-width:0.790862"
         x="1944.2441"
         y="1619.5809"
         id="tspan1080">A. Jasno,</tspan><tspan
         sodipodi:role="line"
         style="font-style:normal;font-variant:normal;font-weight:normal;font-stretch:normal;font-size:30.6667px;line-height:1.25;font-family:Lavi;-inkscape-font-specification:Lavi;stroke-width:0.790862"
         x="1944.2441"
         y="1657.9143"
         id="tspan123">da ne …</tspan><tspan
         sodipodi:role="line"
         x="1944.2441"
         y="1671.174"
         id="tspan917-2-2-9" /></text>
    <text
       xml:space="preserve"
       style="font-style:normal;font-variant:normal;font-weight:normal;font-stretch:normal;font-size:10.4834px;line-height:0%;font-family:Lavi;-inkscape-font-specification:Lavi;text-align:center;letter-spacing:0px;word-spacing:0px;text-anchor:middle;fill:#000000;fill-opacity:1;stroke:none;stroke-width:0.87362"
       x="1989.2872"
       y="1718.2632"
       id="text4246-5-3-5-7-6-2"><tspan
         sodipodi:role="line"
         style="font-style:normal;font-variant:normal;font-weight:normal;font-stretch:normal;font-size:26.6667px;line-height:1.25;font-family:Lavi;-inkscape-font-specification:Lavi;stroke-width:0.87362"
         x="1989.2872"
         y="1718.2632"
         id="tspan1080-3">Šment …</tspan><tspan
         sodipodi:role="line"
         x="1989.2872"
         y="1730.4155"
         id="tspan917-2-2-9-7" /></text>
    <text
       xml:space="preserve"
       style="color:#000000;font-style:normal;font-variant:normal;font-weight:normal;font-stretch:normal;font-size:13.6801px;line-height:0.01%;font-family:Arial;-inkscape-font-specification:Arial;letter-spacing:1.10327px;word-spacing:0px;display:inline;overflow:visible;visibility:visible;fill:#e69d76;fill-opacity:1;fill-rule:nonzero;stroke:#e99f77;stroke-width:0;stroke-miterlimit:4;stroke-dasharray:none;stroke-opacity:1;marker:none;enable-background:accumulate"
       x="2813.7102"
       y="434.09442"
       id="text1711-2-3-9"
       transform="matrix(0.8793411,0.03700556,-0.36761453,1.1217447,0,0)"><tspan
         sodipodi:role="line"
         x="2815.1904"
         y="434.09442"
         id="tspan1709-8-6-2"
         style="font-style:normal;font-variant:normal;font-weight:bold;font-stretch:normal;font-family:Lavi;-inkscape-font-specification:'Lavi Bold';letter-spacing:2.96047px;word-spacing:0px;fill:#ffe4a0;fill-opacity:1;stroke:#ffffff;stroke-width:0;stroke-miterlimit:4;stroke-dasharray:none;stroke-opacity:1"><tspan
           x="2813.7102"
           y="434.09442"
           style="color:#000000;font-style:normal;font-variant:normal;font-weight:bold;font-stretch:normal;font-size:72.9606px;line-height:1.25;font-family:Lavi;-inkscape-font-specification:'Lavi Bold';text-align:center;letter-spacing:2.96047px;word-spacing:0px;text-anchor:middle;display:inline;overflow:visible;visibility:visible;fill:#ffe4a0;fill-opacity:1;fill-rule:nonzero;stroke:#ffffff;stroke-width:0;stroke-miterlimit:4;stroke-dasharray:none;stroke-opacity:1;marker:none;enable-background:accumulate"
           id="tspan1707-9-7-2">?!</tspan></tspan></text>
    <text
       xml:space="preserve"
       style="font-style:normal;font-variant:normal;font-weight:normal;font-stretch:normal;line-height:0%;font-family:Lavi;-inkscape-font-specification:Lavi;text-align:center;letter-spacing:0px;word-spacing:0px;text-anchor:middle;fill:#000000;fill-opacity:1;stroke:none"
       x="1044.0746"
       y="3170.1729"
       id="text4246-5-3-5-5"><tspan
         sodipodi:role="line"
         style="font-style:normal;font-variant:normal;font-weight:bold;font-stretch:normal;font-size:53.3333px;line-height:1.25;font-family:Lavi;-inkscape-font-specification:'Lavi Bold'"
         x="1044.0746"
         y="3170.1729"
         id="tspan954-2">Grrr!!!</tspan><tspan
         sodipodi:role="line"
         x="1044.0746"
         y="3191.9763"
         id="tspan917-2-0" /></text>
    <text
       xml:space="preserve"
       style="font-style:normal;font-variant:normal;font-weight:normal;font-stretch:normal;font-size:10.7232px;line-height:0%;font-family:Lavi;-inkscape-font-specification:Lavi;text-align:center;letter-spacing:0px;word-spacing:0px;text-anchor:middle;fill:#000000;fill-opacity:1;stroke:none;stroke-width:0.893597"
       x="1039.6354"
       y="2794.7126"
       id="text4246-5-3-5-5-9"><tspan
         sodipodi:role="line"
         style="font-style:normal;font-variant:normal;font-weight:bold;font-stretch:normal;font-size:41.7012px;line-height:1.25;font-family:Lavi;-inkscape-font-specification:'Lavi Bold';stroke-width:0.893597"
         x="1039.6354"
         y="2794.7126"
         id="tspan966">SAJ SEM</tspan><tspan
         sodipodi:role="line"
         style="font-style:normal;font-variant:normal;font-weight:bold;font-stretch:normal;font-size:41.7012px;line-height:1.25;font-family:Lavi;-inkscape-font-specification:'Lavi Bold';stroke-width:0.893597"
         x="1039.6354"
         y="2846.8391"
         id="tspan127">VEDELA!!!</tspan><tspan
         sodipodi:role="line"
         x="1039.6354"
         y="2864.2612"
         id="tspan917-2-0-0" /></text>
    <text
       xml:space="preserve"
       style="font-style:normal;font-variant:normal;font-weight:normal;font-stretch:normal;line-height:0%;font-family:Lavi;-inkscape-font-specification:Lavi;text-align:center;letter-spacing:0px;word-spacing:0px;text-anchor:middle;fill:#000000;fill-opacity:1;stroke:none"
       x="1059.2986"
       y="2948.6787"
       id="text4246-5-3-5-9"><tspan
         sodipodi:role="line"
         x="1059.2986"
         y="2948.6787"
         id="tspan917-2-9"
         style="font-style:normal;font-variant:normal;font-weight:normal;font-stretch:normal;font-size:45px;line-height:1.25;font-family:Lavi;-inkscape-font-specification:Lavi">Bilo je čisto</tspan><tspan
         sodipodi:role="line"
         x="1059.2986"
         y="3004.9287"
         style="font-style:normal;font-variant:normal;font-weight:normal;font-stretch:normal;font-size:45px;line-height:1.25;font-family:Lavi;-inkscape-font-specification:Lavi"
         id="tspan493">prelepo, da</tspan><tspan
         sodipodi:role="line"
         x="1059.2986"
         y="3061.1787"
         style="font-style:normal;font-variant:normal;font-weight:normal;font-stretch:normal;font-size:45px;line-height:1.25;font-family:Lavi;-inkscape-font-specification:Lavi"
         id="tspan491">bi bilo res!</tspan></text>
    <text
       xml:space="preserve"
       style="font-style:normal;font-variant:normal;font-weight:normal;font-stretch:normal;line-height:0%;font-family:Lavi;-inkscape-font-specification:Lavi;text-align:center;letter-spacing:0px;word-spacing:0px;text-anchor:middle;fill:#000000;fill-opacity:1;stroke:none"
       x="2105.1384"
       y="2176.2273"
       id="text4246-5-3-5-9-2"><tspan
         sodipodi:role="line"
         x="2105.1384"
         y="2176.2273"
         id="tspan917-2-9-3"
         style="font-style:normal;font-variant:normal;font-weight:normal;font-stretch:normal;font-size:45px;line-height:1.25;font-family:Lavi;-inkscape-font-specification:Lavi">Mogoče ti pa knjige</tspan><tspan
         sodipodi:role="line"
         x="2105.1384"
         y="2232.4773"
         style="font-style:normal;font-variant:normal;font-weight:normal;font-stretch:normal;font-size:45px;line-height:1.25;font-family:Lavi;-inkscape-font-specification:Lavi"
         id="tspan519">le ne morejo pomagati</tspan><tspan
         sodipodi:role="line"
         x="2105.1384"
         y="2288.7273"
         style="font-style:normal;font-variant:normal;font-weight:normal;font-stretch:normal;font-size:45px;line-height:1.25;font-family:Lavi;-inkscape-font-specification:Lavi"
         id="tspan521">v vseh primerih …</tspan></text>
    <text
       xml:space="preserve"
       style="color:#000000;font-style:normal;font-variant:normal;font-weight:normal;font-stretch:normal;font-size:10.939px;line-height:0.01%;font-family:Arial;-inkscape-font-specification:Arial;letter-spacing:0.882204px;word-spacing:0px;display:inline;overflow:visible;visibility:visible;fill:#ffffff;fill-opacity:1;fill-rule:nonzero;stroke:#e99f77;stroke-width:2;stroke-miterlimit:4;stroke-dasharray:none;stroke-opacity:1;marker:none;enable-background:accumulate"
       x="4271.3828"
       y="2071.3848"
       id="text1711-2-3-1"
       transform="matrix(0.79338838,0.2929682,-0.69069394,1.0053697,0,0)"><tspan
         sodipodi:role="line"
         x="4272.5664"
         y="2071.3848"
         id="tspan1709-8-6-29"
         style="font-style:normal;font-variant:normal;font-weight:bold;font-stretch:normal;font-family:Lavi;-inkscape-font-specification:'Lavi Bold';letter-spacing:2.36727px;word-spacing:0px;fill:#ffffff;fill-opacity:1;stroke:#ffffff;stroke-width:2;stroke-miterlimit:4;stroke-dasharray:none;stroke-opacity:1"><tspan
           x="4271.3828"
           y="2071.3848"
           style="color:#000000;font-style:normal;font-variant:normal;font-weight:bold;font-stretch:normal;font-size:58.3411px;line-height:1.25;font-family:Lavi;-inkscape-font-specification:'Lavi Bold';text-align:center;letter-spacing:2.36727px;word-spacing:0px;text-anchor:middle;display:inline;overflow:visible;visibility:visible;fill:#ffffff;fill-opacity:1;fill-rule:nonzero;stroke:#ffffff;stroke-width:2;stroke-miterlimit:4;stroke-dasharray:none;stroke-opacity:1;marker:none;enable-background:accumulate"
           id="tspan1707-9-7-3">Paf!</tspan></tspan></text>
  </g>
</svg>
