<?xml version="1.0" encoding="UTF-8" standalone="no"?>
<!-- Created with Inkscape (http://www.inkscape.org/) -->

<svg
   id="svg2"
   version="1.1"
   inkscape:version="1.3 (0e150ed6c4, 2023-07-21)"
   width="2481"
   height="3503"
   sodipodi:docname="E04P01.svg"
   xmlns:inkscape="http://www.inkscape.org/namespaces/inkscape"
   xmlns:sodipodi="http://sodipodi.sourceforge.net/DTD/sodipodi-0.dtd"
   xmlns:xlink="http://www.w3.org/1999/xlink"
   xmlns="http://www.w3.org/2000/svg"
   xmlns:svg="http://www.w3.org/2000/svg"
   xmlns:rdf="http://www.w3.org/1999/02/22-rdf-syntax-ns#"
   xmlns:cc="http://creativecommons.org/ns#"
   xmlns:dc="http://purl.org/dc/elements/1.1/">
  <sodipodi:namedview
     pagecolor="#ffffff"
     bordercolor="#666666"
     inkscape:pageopacity="0"
     inkscape:pageshadow="2"
     inkscape:window-width="1813"
     inkscape:window-height="955"
     id="namedview70"
     showgrid="false"
     inkscape:zoom="0.4"
     inkscape:cx="1613.75"
     inkscape:cy="2556.25"
     inkscape:current-layer="layer3"
     inkscape:snap-grids="false"
     inkscape:snap-to-guides="false"
     inkscape:snap-others="false"
     inkscape:snap-nodes="false"
     inkscape:snap-global="false"
     inkscape:window-x="103"
     inkscape:window-y="49"
     inkscape:window-maximized="0"
     borderopacity="1"
     inkscape:showpageshadow="0"
     inkscape:pagecheckerboard="0"
     inkscape:deskcolor="#d1d1d1" />
  <metadata
     id="metadata8">
    <rdf:RDF>
      <cc:Work
         rdf:about="">
        <dc:format>image/svg+xml</dc:format>
        <dc:type
           rdf:resource="http://purl.org/dc/dcmitype/StillImage" />
        <dc:title />
      </cc:Work>
    </rdf:RDF>
  </metadata>
  <defs
     id="defs6" />
  <sodipodi:namedview
     pagecolor="#ffffff"
     bordercolor="#666666"
     borderopacity="1"
     objecttolerance="10"
     gridtolerance="10"
     guidetolerance="10"
     inkscape:pageopacity="0"
     inkscape:pageshadow="2"
     inkscape:window-width="1920"
     inkscape:window-height="1025"
     id="namedview4"
     showgrid="false"
     inkscape:zoom="0.47669614"
     inkscape:cx="1286.2985"
     inkscape:cy="939.97438"
     inkscape:window-x="0"
     inkscape:window-y="26"
     inkscape:window-maximized="1"
     inkscape:current-layer="layer1" />
  <g
     inkscape:groupmode="layer"
     id="layer2"
     inkscape:label="artwork"
     sodipodi:insensitive="true">
    <image
       xlink:href="../gfx_Pepper-and-Carrot_by-David-Revoy_E04P01.png"
       width="2481"
       height="3503"
       id="image10"
       x="0"
       y="0" />
  </g>
  <g
     inkscape:groupmode="layer"
     id="layer3"
     inkscape:label="speechbubbles">
    <path
       style="fill:#ffe4a0;stroke:none;stroke-width:0.906496px;stroke-linecap:butt;stroke-linejoin:miter;stroke-opacity:1"
       d="m 528.83098,2399.6429 c -4.07574,-44.6393 -8.15149,-135.7215 0,-155.5612 5.18731,0 13.70932,-0.4509 13.70932,-0.4509 l -8.15148,-24.3487 14.82089,5.8618 7.41044,-8.1163 -4.81679,-13.527 13.3388,6.3126 6.6694,-13.0762 11.11566,9.469 5.55784,-13.5271 12.22723,10.8217 22.60187,-5.8618 c 55.46251,-2.3892 110.30486,-6.0363 168.58762,-2.7054 l 17.78507,-8.5671 5.1873,12.6252 9.26306,0.4509 8.89254,-5.4108 8.89253,5.8617 29.64177,-4.0581 9.63358,11.7235 11.48621,-9.9199 3.70521,13.0762 11.48619,-8.1162 1.85262,8.5671 27.41864,-9.9199 -4.07574,20.2906 c 0,0 20.37869,9.0181 34.82909,2.2545 1.48206,4.5091 -0.74103,12.6253 -0.74103,12.6253 l 7.41037,4.509 v 11.7235 c 0,0 14.82092,15.3306 16.30298,19.3888 1.48214,4.0581 4.81677,114.98 -0.37052,132.5651 4.07575,0 6.66953,2.7054 6.29901,5.4109 -0.3706,2.7054 -3.3348,10.3707 -3.3348,10.3707 0,0 4.07583,7.2144 2.9642,9.4689 -1.11163,2.2546 -3.33472,5.4109 -3.33472,5.4109 0,0 3.70532,5.8617 2.5936,7.6653 -1.11154,1.8036 -7.41037,4.9599 -10.00406,6.7635 2.9642,3.6072 5.5578,11.2726 3.33472,13.0762 -2.22309,1.8036 -7.41037,3.1563 -7.41037,3.1563 l -1.85266,4.509 c 0,0 -0.74103,9.0181 -2.5936,9.469 -1.85275,0.4509 -9.63363,-4.5091 -10.74517,-3.6073 -1.11164,0.9018 -4.07575,8.1163 -5.92841,8.1163 -1.85257,0 -7.78097,-8.5672 -7.78097,-8.5672 -0.79183,1.9272 -98.64171,5.1615 -106.7104,3.1564 -8.11761,-2.0173 -40.0164,2.7054 -44.46267,2.7054 -4.44626,0 -22.97238,-1.3527 -25.56603,-2.2545 -2.59366,-0.9018 -12.96828,-4.0582 -16.6735,-3.6073 -3.70523,0.4509 -10.74515,4.96 -14.82089,4.96 -4.07574,0 -27.41865,-2.7054 -31.86492,-2.2545 -4.44626,0.4509 -24.82499,2.2545 -28.15968,2.2545 -3.3347,0 -40.75746,-4.96 -44.8332,-5.4109 -4.07574,-0.4509 -21.86081,4.5091 -25.19551,4.0582 -3.3347,-0.4509 -22.23133,-4.5091 -28.15969,-4.0582 -5.92836,0.4509 -28.15969,-5.8617 -29.64178,-5.4108 -1.48209,0.4509 -3.72021,0.9008 -17.41454,0 7.03992,-6.7635 4.81678,-12.6252 4.81678,-12.6252 l -5.18731,-3.6073 0.74105,-4.0581 -10.74515,-6.7635 1.48209,-4.9599 0.74104,-8.1163 -10.74514,-6.3126 17.04402,-18.0361 z"
       id="path3894"
       inkscape:connector-curvature="0"
       sodipodi:nodetypes="cccccccccccccccccccccccccccccccscscccccsccssscssssssssssscccccccccc" />
    <path
       style="fill:#ffe4a0;stroke:none;stroke-width:1px;stroke-linecap:butt;stroke-linejoin:miter;stroke-opacity:1;color:#000000;fill-opacity:1;fill-rule:nonzero;marker:none;visibility:visible;display:inline;overflow:visible;enable-background:accumulate"
       d="m 818.04625,2447.3394 c 1.81385,78.9025 3.6277,268.4498 28.11468,311.9822 24.48697,43.5324 33.55622,70.7401 98.85481,79.8094 -68.92629,-32.6493 -89.78557,-105.2033 -96.13404,-230.3589 -6.34847,-125.1557 43.5324,-212.2205 43.5324,-212.2205 l -68.01937,-3.6277 z"
       id="path3896"
       inkscape:connector-curvature="0" />
    <path
       style="color:#000000;display:inline;overflow:visible;visibility:visible;fill:#ffe4a0;fill-opacity:1;fill-rule:nonzero;stroke:none;stroke-width:1.0098418px;marker:none;enable-background:accumulate"
       d="m 690.2558,2533.385 c 11.5625,-3.8732 11.5625,-11.6197 6.74479,-21.5179 3.37241,-0.4304 14.93489,2.1518 13.00781,-4.734 2.89063,-0.8607 6.74479,-0.8607 4.33594,-6.4554 3.3724,-0.4304 13.0078,1.7214 10.59896,-3.8732 6.26301,-1.2911 65.03903,-3.0125 86.23694,-0.8607 21.1979,2.1518 78.04684,0.4303 83.82809,0 5.78124,-0.4304 50.10414,0 53.95831,0 3.85416,0 19.27082,4.7339 24.08852,7.316 7.22656,-3.4428 16.38021,-2.1517 16.38021,-2.1517 0,0 0,14.6322 1.44532,15.9233 1.4453,1.291 8.67186,-2.1518 10.11721,0 1.4453,2.1517 -10.11721,15.0625 -8.67191,15.4929 1.44532,0.4304 13.00781,5.1643 13.00781,6.8857 0,1.7214 -9.15364,9.8982 -8.67187,10.3286 0.48177,0.4303 7.70837,6.0251 6.74487,10.759 8.6718,1.7214 13.0078,6.025 15.4166,9.0375 -3.8541,5.5947 -13.0078,10.759 -14.9349,13.7715 2.4089,5.1643 8.6719,12.0501 7.2265,14.2019 -1.4453,2.1518 -8.19,1.7214 -13.00775,-0.8607 1.92705,6.4553 1.4453,58.0983 -7.22656,77.0341 2.40885,4.3036 6.74478,7.3161 7.70832,11.6198 0.96354,4.3035 -1.92708,11.1892 -1.44531,13.341 0.48177,2.1518 4.3359,9.468 3.8542,12.9108 -0.4818,3.4429 -2.40889,6.8857 -5.29951,9.0375 -0.48178,3.4429 1.92708,6.0251 -0.48178,6.8858 -2.40885,0.8607 -12.04426,-3.8733 -14.45312,-3.0126 -2.40885,0.8607 -0.48177,12.4805 -2.89062,14.6323 -2.40885,2.1517 -54.44008,7.7464 -66.00258,3.0125 -12.04425,-0.8608 -101.17183,17.6447 -138.26817,10.3286 -4.33592,-0.8607 -3.37239,-3.8732 -6.74478,-4.734 -3.3724,-0.8607 -5.29948,2.1519 -12.52604,1.2912 -6.26302,-4.3037 -14.45311,-4.7341 -27.46093,-25.3913 -4.33593,0 -11.56249,2.1518 -12.52603,-1.2911 -0.96354,-3.4428 0.48177,-6.0249 0.48177,-6.0249 0,0 -4.81771,1.291 -5.29948,-1.2911 -0.48177,-2.5822 6.26302,-9.4679 5.78125,-10.7589 -0.48177,-1.2912 -13.97135,2.5821 -14.45312,-0.4305 -0.48176,-3.0125 5.29948,-10.3286 4.81771,-12.4803 -0.48178,-2.1518 -24.08853,-35.2895 -16.3802,-135.9934 3.85417,-1.2911 7.70832,-2.5821 7.22656,-4.3036 -0.48177,-1.7215 -6.26303,-5.1643 -6.26303,-5.1643 z"
       id="path3915"
       inkscape:connector-curvature="0" />
    <path
       style="color:#000000;fill:#ffe4a0;fill-opacity:1;fill-rule:nonzero;stroke:none;stroke-width:1px;marker:none;visibility:visible;display:inline;overflow:visible;enable-background:accumulate"
       d="m 2161.9635,2759.6873 c 75.5442,-65.8317 129.3057,-115.4309 140.8923,-189.8298 11.5865,-74.3988 -1.8538,-91.5331 -5.5615,-100.5511 -12.977,1.8036 -33.8327,13.978 -38.0039,19.3888 1.8539,-19.8397 -11.5865,-82.5151 -31.9788,-107.3147 -20.3923,-24.7996 -39.3943,-7.6653 -39.3943,-7.6653 0,0 61.177,94.6894 55.1519,157.8157 12.0501,-12.6253 34.7597,-36.974 40.3212,-32.465 5.5615,4.5091 8.3423,64.9299 -3.7077,92.4349 -12.05,27.5051 -38.9308,101.9039 -117.7192,168.1865 z"
       id="path3923"
       inkscape:connector-curvature="0" />
    <path
       style="color:#000000;display:inline;overflow:visible;visibility:visible;fill:#ffe4a0;fill-opacity:1;fill-rule:nonzero;stroke:none;stroke-width:0.90266px;stroke-linecap:butt;stroke-linejoin:miter;stroke-opacity:1;marker:none;enable-background:accumulate"
       d="m 1846.2,2358.5401 c 0,0 37.5681,6.3164 43.5312,9.7176 5.9632,3.4011 29.8159,-2.4295 -3.5779,36.4406 33.9901,-12.6328 60.8244,-26.2374 73.3471,-24.7797 -5.3668,9.7176 -11.33,22.3504 -11.33,22.3504 0,0 31.0085,-10.2035 36.9717,-9.7176 -1.789,4.3729 2.3853,13.1187 2.3853,13.1187 l 16.1005,-1.9435 4.7706,11.6611 c 0,0 64.4023,-20.4068 72.1544,-17.9775 7.7522,2.4294 -3.5779,28.1809 -3.5779,28.1809 l 17.2933,-10.2034 8.3484,0.4858 20.2748,-16.5198 6.5595,9.2317 4.7705,-3.4013 9.5411,3.8873 22.6601,-14.0905 7.7521,1.4577 19.6785,22.3501 10.7338,-10.2033 5.3668,-0.4859 35.1828,0.9719 2.3852,-2.4296 5.9632,-0.9717 8.3485,-4.8587 4.7705,-11.1752 h 10.1374 l 20.2748,10.2034 9.5411,6.8022 7.1558,-16.5197 4.1742,-1.9435 1.1927,-10.2035 23.2564,7.774 7.1558,4.8588 1.7889,-8.7457 7.7522,-0.486 14.3116,3.4013 15.5043,9.2315 23.2564,10.2035 -35.1828,-37.4125 -8.3484,-6.8022 30.4122,-6.8024 v -77.7402 l -11.9264,-106.8929 -519.3928,5.3446 -13.119,70.4522 0.5963,62.678 -2.9816,20.8928 26.238,7.2882 -25.6417,11.1751 16.1006,7.774 z"
       id="path3931"
       inkscape:connector-curvature="0" />
  </g>
  <g
     inkscape:groupmode="layer"
     id="layer1"
     inkscape:label="txt">
    <flowRoot
       xml:space="preserve"
       id="flowRoot2987"
       style="font-style:normal;font-variant:normal;font-weight:normal;font-stretch:normal;line-height:0.01%;font-family:Lavi;-inkscape-font-specification:Lavi;letter-spacing:0px;word-spacing:0px;fill:#000000;fill-opacity:1;stroke:none"
       transform="translate(22.665512,-126.9425)"><flowRegion
         id="flowRegion2989"><rect
           id="rect2991"
           width="973.52362"
           height="213.03587"
           x="120.55251"
           y="265.53046"
           style="font-style:normal;font-variant:normal;font-weight:normal;font-stretch:normal;font-family:Lavi;-inkscape-font-specification:Lavi" /></flowRegion><flowPara
         id="flowPara2993"
         style="font-size:48px;line-height:1.25">Noč pred tekmovanjem v napojih,</flowPara><flowPara
         id="flowPara2995"
         style="font-size:48px;line-height:1.25">        ob 2. luni zjutraj</flowPara></flowRoot>
    <flowRoot
       xml:space="preserve"
       id="flowRoot2987-4"
       style="font-style:normal;font-variant:normal;font-weight:normal;font-stretch:normal;line-height:0.01%;font-family:Lavi;-inkscape-font-specification:Lavi;text-align:center;letter-spacing:0px;word-spacing:0px;text-anchor:middle;fill:#000000;fill-opacity:1;stroke:none"
       transform="translate(340.63461,1952.7786)"><flowRegion
         id="flowRegion2989-5"><rect
           id="rect2991-7"
           width="602.40173"
           height="310.73996"
           x="120.55252"
           y="265.53046"
           style="font-style:normal;font-variant:normal;font-weight:normal;font-stretch:normal;font-family:Lavi;-inkscape-font-specification:Lavi;text-align:center;text-anchor:middle;stroke-width:1" /></flowRegion><flowPara
         style="font-size:48px;line-height:1.25;text-align:center;text-anchor:middle"
         id="flowPara3033" /><flowPara
         style="font-size:48px;line-height:1.25;text-align:center;text-anchor:middle"
         id="flowPara3794">No, končno!</flowPara><flowPara
         style="font-size:48px;line-height:1.25;text-align:center;text-anchor:middle"
         id="flowPara928">S tem napitkom mi</flowPara><flowPara
         style="font-size:48px;line-height:1.25;text-align:center;text-anchor:middle"
         id="flowPara1047">niti Žafranka ne bo</flowPara><flowPara
         style="font-size:48px;line-height:1.25;text-align:center;text-anchor:middle"
         id="flowPara1049">segla do kolen!</flowPara></flowRoot>
    <flowRoot
       xml:space="preserve"
       id="flowRoot2987-4-8"
       style="font-style:normal;font-variant:normal;font-weight:normal;font-stretch:normal;line-height:0.01%;font-family:Lavi;-inkscape-font-specification:Lavi;text-align:center;letter-spacing:0px;word-spacing:0px;text-anchor:middle;fill:#000000;fill-opacity:1;stroke:none"
       transform="matrix(0.96141471,0,0,0.91963896,441.81114,2269.9704)"><flowRegion
         id="flowRegion2989-5-9"><rect
           id="rect2991-7-4"
           width="602.40173"
           height="310.73996"
           x="120.55251"
           y="265.53046"
           style="font-style:normal;font-variant:normal;font-weight:normal;font-stretch:normal;font-family:Lavi;-inkscape-font-specification:Lavi;text-align:center;text-anchor:middle" /></flowRegion><flowPara
         style="font-size:48px;line-height:1.25;text-align:center;text-anchor:middle"
         id="flowPara76">Potrebujem</flowPara><flowPara
         style="font-size:48px;line-height:1.25;text-align:center;text-anchor:middle"
         id="flowPara1075">le še nekoga,</flowPara><flowPara
         style="font-size:48px;line-height:1.25;text-align:center;text-anchor:middle"
         id="flowPara1077">da ga</flowPara><flowPara
         style="font-size:48px;line-height:1.25;text-align:center;text-anchor:middle"
         id="flowPara1079"> preizkusi.</flowPara></flowRoot>
    <flowRoot
       xml:space="preserve"
       id="flowRoot2987-4-8-2"
       style="font-style:normal;font-variant:normal;font-weight:normal;font-stretch:normal;line-height:0.01%;font-family:Lavi;-inkscape-font-specification:Lavi;text-align:center;letter-spacing:0px;word-spacing:0px;text-anchor:middle;fill:#000000;fill-opacity:1;stroke:none"
       transform="matrix(1.4179226,0,0,1.4152108,1526.1833,1735.8167)"><flowRegion
         id="flowRegion2989-5-9-2"><rect
           id="rect2991-7-4-2"
           width="602.40173"
           height="310.73996"
           x="120.55251"
           y="265.53046"
           style="font-style:normal;font-variant:normal;font-weight:normal;font-stretch:normal;font-family:Lavi;-inkscape-font-specification:Lavi;text-align:center;text-anchor:middle" /></flowRegion><flowPara
         style="font-size:48px;line-height:1.25;text-align:center;text-anchor:middle"
         id="flowPara3798-1-6"> </flowPara><flowPara
         style="font-size:48px;line-height:1.25;text-align:center;text-anchor:middle"
         id="flowPara3849-2">KOOREEEE~</flowPara><flowPara
         style="font-size:48px;line-height:1.25;text-align:center;text-anchor:middle"
         id="flowPara3892">~EENČEEK!!!</flowPara></flowRoot>
  </g>
</svg>
