<?xml version="1.0" encoding="UTF-8" standalone="no"?>
<!-- Created with Inkscape (http://www.inkscape.org/) -->

<svg
   xmlns:dc="http://purl.org/dc/elements/1.1/"
   xmlns:cc="http://creativecommons.org/ns#"
   xmlns:rdf="http://www.w3.org/1999/02/22-rdf-syntax-ns#"
   xmlns:svg="http://www.w3.org/2000/svg"
   xmlns="http://www.w3.org/2000/svg"
   xmlns:xlink="http://www.w3.org/1999/xlink"
   xmlns:sodipodi="http://sodipodi.sourceforge.net/DTD/sodipodi-0.dtd"
   xmlns:inkscape="http://www.inkscape.org/namespaces/inkscape"
   id="svg2"
   version="1.1"
   inkscape:version="0.92.2 2405546, 2018-03-11"
   width="2481"
   height="3503"
   sodipodi:docname="E16P01.svg">
  <metadata
     id="metadata8">
    <rdf:RDF>
      <cc:Work
         rdf:about="">
        <dc:format>image/svg+xml</dc:format>
        <dc:type
           rdf:resource="http://purl.org/dc/dcmitype/StillImage" />
        <dc:title />
      </cc:Work>
    </rdf:RDF>
  </metadata>
  <defs
     id="defs6">
    <filter
       inkscape:collect="always"
       style="color-interpolation-filters:sRGB"
       id="filter5236"
       x="-0.0089085414"
       width="1.0178171"
       y="-0.027928528"
       height="1.0558571">
      <feGaussianBlur
         inkscape:collect="always"
         stdDeviation="0.49168068"
         id="feGaussianBlur5238" />
    </filter>
    <filter
       inkscape:collect="always"
       style="color-interpolation-filters:sRGB"
       id="filter5236-4"
       x="-0.0089085409"
       width="1.0178171"
       y="-0.027928527"
       height="1.0558571">
      <feGaussianBlur
         inkscape:collect="always"
         stdDeviation="0.49168068"
         id="feGaussianBlur5238-0" />
    </filter>
    <filter
       inkscape:collect="always"
       style="color-interpolation-filters:sRGB"
       id="filter5236-4-1"
       x="-0.0089085409"
       width="1.0178171"
       y="-0.027928527"
       height="1.0558571">
      <feGaussianBlur
         inkscape:collect="always"
         stdDeviation="0.49168068"
         id="feGaussianBlur5238-0-6" />
    </filter>
    <filter
       inkscape:collect="always"
       style="color-interpolation-filters:sRGB"
       id="filter5236-4-16"
       x="-0.0089085409"
       width="1.0178171"
       y="-0.027928527"
       height="1.0558571">
      <feGaussianBlur
         inkscape:collect="always"
         stdDeviation="0.49168068"
         id="feGaussianBlur5238-0-4" />
    </filter>
    <filter
       inkscape:collect="always"
       style="color-interpolation-filters:sRGB"
       id="filter5236-4-16-8"
       x="-0.0089085409"
       width="1.0178171"
       y="-0.027928527"
       height="1.0558571">
      <feGaussianBlur
         inkscape:collect="always"
         stdDeviation="0.49168068"
         id="feGaussianBlur5238-0-4-7" />
    </filter>
    <filter
       inkscape:collect="always"
       style="color-interpolation-filters:sRGB"
       id="filter5236-4-16-8-7"
       x="-0.0089085409"
       width="1.0178171"
       y="-0.027928527"
       height="1.0558571">
      <feGaussianBlur
         inkscape:collect="always"
         stdDeviation="0.49168068"
         id="feGaussianBlur5238-0-4-7-6" />
    </filter>
    <filter
       inkscape:collect="always"
       style="color-interpolation-filters:sRGB"
       id="filter5236-4-6"
       x="-0.0089085409"
       width="1.0178171"
       y="-0.027928527"
       height="1.0558571">
      <feGaussianBlur
         inkscape:collect="always"
         stdDeviation="0.49168068"
         id="feGaussianBlur5238-0-3" />
    </filter>
    <filter
       inkscape:collect="always"
       style="color-interpolation-filters:sRGB"
       id="filter4226"
       x="-0.015179913"
       width="1.0303598"
       y="-0.069764564"
       height="1.1395291">
      <feGaussianBlur
         inkscape:collect="always"
         stdDeviation="1.3681179"
         id="feGaussianBlur4228" />
    </filter>
  </defs>
  <sodipodi:namedview
     pagecolor="#ffffff"
     bordercolor="#666666"
     borderopacity="1"
     objecttolerance="10"
     gridtolerance="10"
     guidetolerance="10"
     inkscape:pageopacity="0"
     inkscape:pageshadow="2"
     inkscape:window-width="954"
     inkscape:window-height="1007"
     id="namedview4"
     showgrid="false"
     inkscape:zoom="0.36984714"
     inkscape:cx="920.92471"
     inkscape:cy="344.55496"
     inkscape:window-x="960"
     inkscape:window-y="41"
     inkscape:window-maximized="0"
     inkscape:current-layer="layer1" />
  <g
     inkscape:groupmode="layer"
     id="layer2"
     inkscape:label="artwork"
     sodipodi:insensitive="true">
    <image
       sodipodi:absref="/home/nightlock/peppercarrot/webcomics/ep16_The-Sage-of-the-Mountain/lang/kr/../gfx_Pepper-and-Carrot_by-David-Revoy_E16P01.png"
       xlink:href="../gfx_Pepper-and-Carrot_by-David-Revoy_E16P01.png"
       width="2481"
       height="3503"
       id="image10"
       x="0"
       y="0" />
  </g>
  <g
     inkscape:groupmode="layer"
     id="layer3"
     inkscape:label="speechbubbles">
    <path
       style="color:#000000;display:inline;overflow:visible;visibility:visible;fill:#ffffff;fill-opacity:1;fill-rule:nonzero;stroke:none;stroke-width:1.05666089px;marker:none;enable-background:accumulate"
       d="m 1873.5901,3047.2054 c -9.7997,-34.3834 16.333,-125.7139 217.2298,-118.1926 200.8968,7.5213 233.563,50.5004 238.4629,63.3941 4.9,12.8939 47.3658,85.9582 -109.4314,105.299 -156.7978,19.3406 -297.2622,-1.0746 -346.2613,-50.5005 z"
       id="path3525"
       inkscape:connector-curvature="0" />
    <path
       style="color:#000000;display:inline;overflow:visible;visibility:visible;fill:#ffffff;fill-opacity:1;fill-rule:nonzero;stroke:none;stroke-width:1px;marker:none;enable-background:accumulate"
       d="m 2130.3658,2846.6079 c 28.5102,33.6367 36.4742,46.9076 9.045,87.7472 -27.4293,40.8396 -9.0198,49.5027 -9.0198,49.5027 l 33.6166,-14.4462 c 0,0 51.2289,-90.6926 -33.6418,-122.8037 z"
       id="path3072"
       inkscape:connector-curvature="0" />
  </g>
  <g
     inkscape:groupmode="layer"
     id="layer1"
     inkscape:label="txt">
    <text
       id="text4178-6-5-9-0-7-0-9"
       style="font-style:normal;font-variant:normal;font-weight:normal;font-stretch:normal;line-height:0%;font-family:Lavi;-inkscape-font-specification:Lavi;text-align:center;letter-spacing:0px;word-spacing:0px;text-anchor:middle;opacity:1;fill:#ffffff;fill-opacity:1;stroke:none;filter:url(#filter5236-4-1)"
       xml:space="preserve"
       y="3129.8394"
       x="1318.7137"
       transform="matrix(0.43093962,0.06628576,-0.0640462,0.48957923,873.19984,498.81267)"><tspan
         y="3129.8394"
         x="1318.7137"
         style="font-style:normal;font-variant:normal;font-weight:normal;font-stretch:normal;font-size:40.67671585px;line-height:1.25;font-family:Fondamento;-inkscape-font-specification:Fondamento;fill:#ffffff;fill-opacity:1"
         sodipodi:role="line"
         id="tspan4293-1-6-3-5-0-0">★★★</tspan></text>
    <text
       id="text4178-6-5-9-0-7-0-4-2"
       style="font-style:normal;font-variant:normal;font-weight:normal;font-stretch:normal;line-height:0%;font-family:Lavi;-inkscape-font-specification:Lavi;text-align:center;letter-spacing:0px;word-spacing:0px;text-anchor:middle;opacity:0.36300001;fill:#ffffff;fill-opacity:1;stroke:none;filter:url(#filter5236-4-16-8)"
       xml:space="preserve"
       y="3129.8394"
       x="1318.7137"
       transform="matrix(0.57056707,-0.00137851,-0.20641725,0.71364546,835.32043,261.3424)"><tspan
         y="3129.8394"
         x="1318.7137"
         style="font-style:normal;font-variant:normal;font-weight:normal;font-stretch:normal;font-size:40.67671585px;line-height:1.25;font-family:Fondamento;-inkscape-font-specification:Fondamento;fill:#ffffff;fill-opacity:1"
         sodipodi:role="line"
         id="tspan4293-1-6-3-5-0-2-6">15</tspan></text>
    <text
       id="text4178-6-5-9-0-7-0-4-2-2"
       style="font-style:normal;font-variant:normal;font-weight:normal;font-stretch:normal;line-height:0%;font-family:Lavi;-inkscape-font-specification:Lavi;text-align:center;letter-spacing:0px;word-spacing:0px;text-anchor:middle;opacity:0.625;fill:#ffffff;fill-opacity:1;stroke:none;filter:url(#filter5236-4-16-8-7)"
       xml:space="preserve"
       y="3129.8394"
       x="1318.7137"
       transform="matrix(0.46040874,-0.00115287,-0.16656465,0.59683314,1208.0045,393.49946)"><tspan
         y="3129.8394"
         x="1318.7137"
         style="font-style:normal;font-variant:normal;font-weight:normal;font-stretch:normal;font-size:40.67671585px;line-height:1.25;font-family:Fondamento;-inkscape-font-specification:Fondamento;fill:#ffffff;fill-opacity:1"
         sodipodi:role="line"
         id="tspan4293-1-6-3-5-0-2-6-9">13</tspan></text>
    <text
       id="text152"
       y="3005.3901"
       x="2105.7954"
       style="font-style:normal;font-variant:normal;font-weight:normal;font-stretch:normal;font-size:15.43218136px;line-height:0%;font-family:'Nanum Pen Script OTF';-inkscape-font-specification:'Nanum Pen Script OTF';text-align:center;letter-spacing:0px;word-spacing:0px;text-anchor:middle;fill:#000000;fill-opacity:1;stroke:none;stroke-width:1.28601515"
       xml:space="preserve"><tspan
         id="tspan150"
         y="3005.3901"
         x="2105.7954"
         style="font-style:normal;font-variant:normal;font-weight:normal;font-stretch:normal;font-size:57.87068176px;line-height:1;font-family:'Nanum Pen Script OTF';-inkscape-font-specification:'Nanum Pen Script OTF';stroke-width:1.28601515"
         sodipodi:role="line">안 돼, 안 돼, 안 돼,</tspan><tspan
         y="3063.2607"
         x="2105.7954"
         style="font-style:normal;font-variant:normal;font-weight:normal;font-stretch:normal;font-size:57.87068176px;line-height:1;font-family:'Nanum Pen Script OTF';-inkscape-font-specification:'Nanum Pen Script OTF';stroke-width:1.28601515"
         sodipodi:role="line"
         id="tspan64">안 된다고, 후추야.</tspan></text>
    <text
       transform="matrix(1.5522937,0.20514053,-0.6177558,1.5037364,1063.4271,-2837.334)"
       x="1318.7137"
       y="3129.8394"
       xml:space="preserve"
       style="font-style:normal;font-variant:normal;font-weight:normal;font-stretch:normal;line-height:0%;font-family:'Nanum Pen Script OTF';-inkscape-font-specification:'Nanum Pen Script OTF';text-align:center;letter-spacing:0px;word-spacing:0px;text-anchor:middle;fill:#ffffff;fill-opacity:1;stroke:none;filter:url(#filter5236)"
       id="text156"><tspan
         id="tspan154"
         sodipodi:role="line"
         style="font-style:normal;font-variant:normal;font-weight:normal;font-stretch:normal;font-size:28.80121803px;line-height:1.25;font-family:'Nanum Pen Script OTF';-inkscape-font-specification:'Nanum Pen Script OTF';fill:#ffffff;fill-opacity:1"
         x="1318.7137"
         y="3129.8394">사프란</tspan></text>
    <text
       transform="matrix(1.1810849,0.16431981,-0.66523218,1.227718,1806.7058,-1906.9145)"
       x="1318.7137"
       y="3129.8394"
       xml:space="preserve"
       style="font-style:normal;font-variant:normal;font-weight:normal;font-stretch:normal;line-height:0%;font-family:'Nanum Pen Script OTF';-inkscape-font-specification:'Nanum Pen Script OTF';text-align:center;letter-spacing:0px;word-spacing:0px;text-anchor:middle;fill:#ffffff;fill-opacity:1;stroke:none;filter:url(#filter5236-4)"
       id="text160"><tspan
         id="tspan158"
         sodipodi:role="line"
         style="font-style:normal;font-variant:normal;font-weight:normal;font-stretch:normal;font-size:32.10795593px;line-height:1.25;font-family:'Nanum Pen Script OTF';-inkscape-font-specification:'Nanum Pen Script OTF';fill:#ffffff;fill-opacity:1"
         x="1318.7137"
         y="3129.8394">마술사</tspan></text>
    <text
       transform="matrix(0.86688774,0.05394101,-0.3839101,1.0597731,185.67284,-1017.7414)"
       x="1318.7137"
       y="3129.8394"
       xml:space="preserve"
       style="font-style:normal;font-variant:normal;font-weight:normal;font-stretch:normal;line-height:0%;font-family:'Nanum Pen Script OTF';-inkscape-font-specification:'Nanum Pen Script OTF';text-align:center;letter-spacing:0px;word-spacing:0px;text-anchor:middle;opacity:0.419;fill:#ffffff;fill-opacity:1;stroke:none;filter:url(#filter5236-4-16)"
       id="text168"><tspan
         id="tspan166"
         sodipodi:role="line"
         style="font-style:normal;font-variant:normal;font-weight:normal;font-stretch:normal;font-size:40.67671585px;line-height:1.25;font-family:'Nanum Pen Script OTF';-inkscape-font-specification:'Nanum Pen Script OTF';fill:#ffffff;fill-opacity:1"
         x="1318.7137"
         y="3129.8394">정육점</tspan></text>
    <text
       transform="matrix(0.7703609,-0.35473238,0.16025438,1.0888939,714.1888,-1194.3065)"
       x="1318.7137"
       y="3129.8394"
       xml:space="preserve"
       style="font-style:normal;font-variant:normal;font-weight:normal;font-stretch:normal;line-height:0%;font-family:'Nanum Pen Script OTF';-inkscape-font-specification:'Nanum Pen Script OTF';text-align:center;letter-spacing:0px;word-spacing:0px;text-anchor:middle;opacity:0.58899997;fill:#ffffff;fill-opacity:1;stroke:none;filter:url(#filter5236-4-6)"
       id="text182"><tspan
         id="tspan180"
         sodipodi:role="line"
         style="font-style:normal;font-variant:normal;font-weight:normal;font-stretch:normal;font-size:56.35340881px;line-height:1.25;font-family:'Nanum Pen Script OTF';-inkscape-font-specification:'Nanum Pen Script OTF';fill:#ffffff;fill-opacity:1"
         x="1318.7137"
         y="3129.8394">성로</tspan></text>
    <text
       transform="matrix(0.49665142,-0.07520551,-0.10461955,0.66863872,1613.231,351.13323)"
       x="1318.7137"
       y="3129.8394"
       xml:space="preserve"
       style="font-style:normal;font-variant:normal;font-weight:normal;font-stretch:normal;line-height:0%;font-family:'Nanum Pen Script OTF';-inkscape-font-specification:'Nanum Pen Script OTF';text-align:center;letter-spacing:0px;word-spacing:0px;text-anchor:middle;fill:#ffffff;fill-opacity:1;stroke:none;filter:url(#filter4226)"
       id="text186"><tspan
         id="tspan184"
         sodipodi:role="line"
         style="font-style:normal;font-variant:normal;font-weight:normal;font-stretch:normal;font-size:40.67671585px;line-height:1.25;font-family:'Nanum Pen Script OTF';-inkscape-font-specification:'Nanum Pen Script OTF';fill:#ffffff;fill-opacity:1"
         x="1318.7137"
         y="3129.8394">이발소</tspan></text>
    <text
       transform="matrix(0.91496333,-0.42170139,0,1.09294,0,0)"
       id="text190"
       y="3391.8862"
       x="1293.1243"
       style="color:#000000;font-style:normal;font-variant:normal;font-weight:normal;font-stretch:normal;font-size:16.07125282px;line-height:0%;font-family:'Nanum Pen Script OTF';-inkscape-font-specification:'Nanum Pen Script OTF';letter-spacing:0px;word-spacing:0px;display:inline;overflow:visible;visibility:visible;fill:#e69d76;fill-opacity:1;fill-rule:nonzero;stroke:#e99f77;stroke-width:1.70306913;stroke-miterlimit:4;stroke-dasharray:none;stroke-opacity:1;marker:none;enable-background:accumulate;"
       xml:space="preserve"><tspan
         style="font-style:normal;font-variant:normal;font-weight:normal;font-stretch:normal;font-size:51.88243484px;line-height:1.25;font-family:'Nanum Pen Script OTF';-inkscape-font-specification:'Nanum Pen Script OTF';text-align:center;text-anchor:middle;stroke-width:1.70306913;stroke-miterlimit:4;stroke-dasharray:none;"
         y="3391.8862"
         x="1293.1243"
         id="tspan188"
         sodipodi:role="line">쪼록</tspan></text>
    <text
       transform="matrix(0.83708031,-0.46093703,0,1.1946285,0,0)"
       id="text194"
       y="3152.4854"
       x="1386.6945"
       style="color:#000000;font-style:normal;font-variant:normal;font-weight:normal;font-stretch:normal;font-size:16.01436806px;line-height:0%;font-family:'Nanum Pen Script OTF';-inkscape-font-specification:'Nanum Pen Script OTF';letter-spacing:0px;word-spacing:0px;display:inline;overflow:visible;visibility:visible;fill:#e69d76;fill-opacity:1;fill-rule:nonzero;stroke:#e99f77;stroke-width:1.62035501;stroke-miterlimit:4;stroke-dasharray:none;stroke-opacity:1;marker:none;enable-background:accumulate"
       xml:space="preserve"><tspan
         style="font-style:normal;font-variant:normal;font-weight:normal;font-stretch:normal;font-size:67.21080017px;line-height:1.25;font-family:'Nanum Pen Script OTF';-inkscape-font-specification:'Nanum Pen Script OTF';text-align:center;text-anchor:middle;stroke-width:1.62035501;stroke-miterlimit:4;stroke-dasharray:none"
         y="3152.4854"
         x="1386.6945"
         id="tspan192"
         sodipodi:role="line">쪼록</tspan></text>
  </g>
</svg>
