<?xml version="1.0" encoding="UTF-8" standalone="no"?>
<!-- Created with Inkscape (http://www.inkscape.org/) -->

<svg
   id="svg2"
   version="1.1"
   inkscape:version="1.3 (0e150ed6c4, 2023-07-21)"
   width="2481"
   height="3503"
   sodipodi:docname="E27P03.svg"
   xmlns:inkscape="http://www.inkscape.org/namespaces/inkscape"
   xmlns:sodipodi="http://sodipodi.sourceforge.net/DTD/sodipodi-0.dtd"
   xmlns:xlink="http://www.w3.org/1999/xlink"
   xmlns="http://www.w3.org/2000/svg"
   xmlns:svg="http://www.w3.org/2000/svg"
   xmlns:rdf="http://www.w3.org/1999/02/22-rdf-syntax-ns#"
   xmlns:cc="http://creativecommons.org/ns#"
   xmlns:dc="http://purl.org/dc/elements/1.1/">
  <metadata
     id="metadata8">
    <rdf:RDF>
      <cc:Work
         rdf:about="">
        <dc:format>image/svg+xml</dc:format>
        <dc:type
           rdf:resource="http://purl.org/dc/dcmitype/StillImage" />
        <dc:title />
      </cc:Work>
    </rdf:RDF>
  </metadata>
  <defs
     id="defs6">
    <filter
       style="color-interpolation-filters:sRGB"
       id="filter4375-4-1-1-1-9"
       inkscape:label="deevad outline effect"
       x="-0.02973451"
       y="-0.076282341"
       width="1.059469"
       height="1.1525647">
      <feFlood
         id="feFlood4377-7-9-0-8-1"
         flood-opacity="1"
         flood-color="rgb(0,0,0)"
         result="flood" />
      <feComposite
         id="feComposite4379-3-8-8-2-77"
         in2="SourceGraphic"
         in="flood"
         operator="in"
         result="composite1" />
      <feMorphology
         id="feMorphology4393-1-0-49-8-9"
         operator="dilate"
         radius="4"
         result="result3" />
      <feComposite
         id="feComposite4385-9-5-7-0-8"
         in2="result3"
         in="SourceGraphic"
         operator="over"
         result="composite2" />
    </filter>
    <filter
       style="color-interpolation-filters:sRGB"
       id="filter4375-4-1-1-1-9-5"
       inkscape:label="deevad outline effect"
       x="-0.030965737"
       y="-0.061199078"
       width="1.0619315"
       height="1.1223982">
      <feFlood
         id="feFlood4377-7-9-0-8-1-8"
         flood-opacity="1"
         flood-color="rgb(0,0,0)"
         result="flood" />
      <feComposite
         id="feComposite4379-3-8-8-2-77-0"
         in2="SourceGraphic"
         in="flood"
         operator="in"
         result="composite1" />
      <feMorphology
         id="feMorphology4393-1-0-49-8-9-0"
         operator="dilate"
         radius="4"
         result="result3" />
      <feComposite
         id="feComposite4385-9-5-7-0-8-0"
         in2="result3"
         in="SourceGraphic"
         operator="over"
         result="composite2" />
    </filter>
  </defs>
  <sodipodi:namedview
     pagecolor="#ffffff"
     bordercolor="#666666"
     borderopacity="1"
     objecttolerance="10"
     gridtolerance="10"
     guidetolerance="10"
     inkscape:pageopacity="0"
     inkscape:pageshadow="2"
     inkscape:window-width="958"
     inkscape:window-height="1018"
     id="namedview4"
     showgrid="false"
     inkscape:zoom="0.49190038"
     inkscape:cx="1354.9491"
     inkscape:cy="2154.9079"
     inkscape:window-x="0"
     inkscape:window-y="0"
     inkscape:window-maximized="0"
     inkscape:current-layer="layer1"
     inkscape:snap-global="false"
     inkscape:showpageshadow="0"
     inkscape:pagecheckerboard="0"
     inkscape:deskcolor="#d1d1d1" />
  <g
     inkscape:groupmode="layer"
     id="layer2"
     inkscape:label="artwork"
     sodipodi:insensitive="true">
    <image
       xlink:href="../gfx_Pepper-and-Carrot_by-David-Revoy_E27P03.png"
       y="0"
       x="0"
       id="image10"
       height="3503"
       width="2481" />
  </g>
  <g
     inkscape:groupmode="layer"
     id="layer3"
     inkscape:label="speechbubbles">
    <path
       style="fill:#ffffff;fill-rule:evenodd;stroke:none;stroke-width:1.11550963px;stroke-linecap:butt;stroke-linejoin:miter;stroke-opacity:1"
       d="m 1139.973,1587.0091 c 3.0625,-61.2331 1.1477,-103.0881 25.6596,-117.9202 24.5121,-14.8319 210.748,-15.2726 225.7717,-14.1474 15.0237,1.1252 46.8834,8.0255 60.095,4.5006 13.2114,-3.5247 51.4792,-4.652 71.5932,-0.5412 20.1141,4.1107 106.9919,4.6588 117.3705,16.8951 10.3785,12.2365 36.3066,45.9069 35.83,83.5474 -0.4768,37.6404 -12.3894,57.38 -25.0568,78.1342 -12.6675,20.7542 -58.1852,50.5951 -84.8556,49.813 -26.6704,-0.7821 -115.6688,2.6086 -130.6431,3.0498 -14.9743,0.4411 -107.9991,7.8848 -139.6116,8.8161 -31.6123,0.9312 -79.8124,-13.759 -112.1174,-34.756 -32.3048,-20.9971 -44.0355,-77.3914 -44.0355,-77.3914 z"
       id="path263"
       inkscape:connector-curvature="0"
       sodipodi:nodetypes="ccccccccssccc" />
    <path
       style="fill:#ffffff;fill-rule:evenodd;stroke:none;stroke-width:1px;stroke-linecap:butt;stroke-linejoin:miter;stroke-opacity:1"
       d="m 1252.6692,1467.8179 c 0,0 -14.7372,-14.1832 -28.1318,-24.3459 -13.1591,-9.9839 -23.1743,-37.0399 -19.4243,-57.7963 -18.1089,29.447 -5.815,53.6299 11.889,81.0614 15.1315,24.8588 35.6671,1.0808 35.6671,1.0808 z"
       id="path265"
       inkscape:connector-curvature="0"
       sodipodi:nodetypes="csccc" />
    <path
       style="fill:#ffffff;fill-rule:evenodd;stroke:none;stroke-width:0.92811328px;stroke-linecap:butt;stroke-linejoin:miter;stroke-opacity:1"
       d="m 1945.4741,1849.4773 c 23.778,-33.5165 76.1784,-51.0494 117.2496,-51.9804 41.0711,-0.931 149.153,9.3101 184.82,25.1374 35.667,15.8271 68.6513,34.2911 65.4089,79.9105 -3.2425,45.6197 -12.9699,93.1011 -19.4548,109.8595 -6.4849,16.7581 -27.0204,42.8265 -47.556,57.7226 -20.5356,14.8962 -90.7888,18.6203 -115.6476,18.6203 -24.8589,0 -111.3244,-11.1722 -129.6983,-25.1374 -18.3739,-13.9651 -56.2026,-37.2404 -62.6875,-79.1359 -6.4849,-41.8955 -3.2425,-109.8593 7.5657,-134.9966 z"
       id="path267"
       inkscape:connector-curvature="0"
       sodipodi:nodetypes="csccccscsc" />
    <path
       style="fill:#ffffff;fill-rule:evenodd;stroke:none;stroke-width:1px;stroke-linecap:butt;stroke-linejoin:miter;stroke-opacity:1"
       d="m 1825.1743,1897.7489 c 53.571,-19.7367 111.3904,-9.3727 131.1271,16.0031 19.7367,25.3757 16.4282,45.0866 16.4282,45.0866 l -21.6164,9.3985 c 0,14.3171 5.8835,-17.1392 -7.2743,-30.7446 -12.9359,-13.376 -35.6882,-34.1046 -57.3046,-37.8639 -21.6164,-3.7594 -50.0819,-2.8196 -61.36,-1.8797 z"
       id="path269"
       inkscape:connector-curvature="0"
       sodipodi:nodetypes="ccccscc" />
    <path
       style="fill:#ffffff;fill-rule:evenodd;stroke:none;stroke-width:1.07698119px;stroke-linecap:butt;stroke-linejoin:miter;stroke-opacity:1"
       d="m 249.36181,2431.7737 c 24.50315,-18.8009 80.86044,-24.3306 105.3636,-30.9661 24.50318,-6.6357 57.58244,-1.1059 73.50952,-2.2119 15.92704,-1.106 60.03273,-6.6356 72.28432,-5.5297 12.25159,1.1059 90.66173,6.6357 106.58877,7.7416 15.92708,1.1058 84.53594,6.6355 91.8869,27.6483 7.35094,21.0128 29.40379,61.9324 18.37736,81.8394 -11.02642,19.9068 -24.50316,54.1907 -56.35728,66.356 -31.85412,12.1653 -80.86045,32.0721 -138.44289,34.2839 -57.58245,2.2119 -137.21774,-6.6354 -149.46932,-6.6354 -12.25159,0 -77.18496,1.1059 -102.91329,-26.5426 -25.72833,-27.6483 -44.1057,-58.6147 -40.43024,-86.2628 3.67548,-27.6485 19.60255,-59.7207 19.60255,-59.7207 z"
       id="path271"
       inkscape:connector-curvature="0" />
    <path
       style="fill:#ffffff;fill-rule:evenodd;stroke:none;stroke-width:1px;stroke-linecap:butt;stroke-linejoin:miter;stroke-opacity:1"
       d="m 549.40558,2567.868 c 0,0 -6.17962,40.1675 -4.9437,48.819 1.23593,8.6515 12.35924,48.201 19.77478,58.0884 -19.15682,-22.2466 -31.51605,-51.2908 -33.9879,-61.1782 -2.47184,-9.8874 -1.23592,-50.0549 -1.23592,-50.0549 z"
       id="path273"
       inkscape:connector-curvature="0" />
    <path
       style="fill:#ffffff;fill-rule:evenodd;stroke:none;stroke-width:1.03607857px;stroke-linecap:butt;stroke-linejoin:miter;stroke-opacity:1"
       d="m 854.26939,2397.2192 c 39.66873,-5.6852 30.5144,7.8173 64.8431,7.1066 34.3287,-0.7106 104.51181,-7.8172 121.29481,-14.2131 9.1542,-3.5533 9.9171,2.132 9.9171,2.132 0,0 28.2259,1.4213 33.5659,2.8426 5.3399,1.4213 25.9372,10.6598 33.5658,8.5279 7.6286,-2.132 20.5972,-5.6853 20.5972,-5.6853 0,0 -0.7628,47.614 -1.5257,51.1672 -0.7628,3.5533 -6.1029,30.5582 -6.1029,39.7968 0,9.2385 4.5772,23.4516 3.8142,27.7156 -0.7628,4.2639 9.9173,14.9237 9.9173,14.9237 l -28.9888,0.7107 -19.8343,2.132 -8.3914,-2.132 -35.8545,2.8426 -20.5972,0.7107 1.5257,-4.264 -88.49169,4.264 3.8143,-6.3959 -30.5144,1.4213 -11.4429,6.3959 -3.81429,-5.6853 -25.93725,0.7107 -13.73148,6.3959 7.6286,-13.5025 -11.4429,-7.8172 -2.28857,-104.4664 6.86573,-4.264 z"
       id="path275"
       inkscape:connector-curvature="0" />
    <path
       style="fill:#ffffff;fill-rule:evenodd;stroke:none;stroke-width:1.0254px;stroke-linecap:butt;stroke-linejoin:miter;stroke-opacity:1"
       d="m 1101.464,2437.016 c 35.2779,-4.9746 58.7964,9.2385 67.4199,7.8172 8.6236,-1.4213 36.846,-10.6598 46.2534,-9.9492 9.4074,0.7107 68.9881,8.5279 87.0189,5.6853 18.0309,-2.8427 58.0126,0 64.2842,-0.7107 6.2715,-0.7106 31.358,-14.2131 38.4138,-14.2131 7.0555,0 18.8147,6.3959 44.6854,-9.2385 -10.9755,18.477 -17.2471,31.2688 -17.2471,31.2688 0,0 27.4384,-7.1065 38.4136,-7.1065 10.9754,0 19.599,3.5532 25.0866,1.4213 5.4877,-2.132 35.278,-2.8426 39.9817,-2.8426 4.7038,0 16.4629,-3.5533 21.9507,-3.5533 5.4877,0 55.6607,4.2639 62.7164,4.2639 7.0555,0 72.9076,-7.1066 79.9631,-7.1066 7.0556,0 39.1977,2.132 52.5251,-2.8426 1.5678,14.2131 -3.1359,48.3246 -3.1359,56.1418 0,7.8173 0.7839,17.7664 0.7839,24.1624 -11.7592,7.1065 -20.3829,21.3196 -20.3829,21.3196 0,0 19.599,3.5533 25.0866,0.7107 5.4876,-2.8426 2.3518,52.5885 3.1359,63.2484 0.784,10.6598 -9.4075,0.7106 -9.4075,0.7106 0,0 -1.5679,7.8172 -7.8395,9.2386 -6.2716,1.4213 -116.8091,-0.7107 -129.3523,-0.7107 -12.5433,0 -16.4632,3.5533 -16.4632,3.5533 h -54.0928 l -1.5679,-6.3959 -24.3024,4.2639 -32.9262,4.9746 -19.5988,3.5533 -10.9752,-2.8426 -54.0931,0.7106 -47.0371,1.4213 11.7593,-10.6598 -122.2968,7.8172 -56.4447,1.4213 -51.741,6.3959 -10.1913,-22.741 -5.4878,-49.0352 c 0,0 -3.1358,-13.5026 5.4878,-15.6345 8.6234,-2.1319 -6.2717,-4.2639 -7.8396,-17.0557 -1.568,-12.7918 -6.2715,-45.482 -6.2715,-45.482 l 10.1913,-2.8426 -12.5432,-7.1066 z"
       id="path277"
       inkscape:connector-curvature="0" />
    <path
       style="fill:#ffffff;fill-rule:evenodd;stroke:none;stroke-width:0.99999994px;stroke-linecap:butt;stroke-linejoin:miter;stroke-opacity:1"
       d="m 1327.3521,2751.2587 c 32.6788,-36.3054 55.3539,-80.3905 55.3539,-94.0051 8.6697,12.9662 8.0028,10.373 8.0028,10.373 0,0 14.6721,-38.8987 14.0051,-62.8862 -0.6667,-23.9875 26.6766,-24.6358 30.0111,-19.4493 3.3345,5.1864 9.47,23.9875 9.47,23.9875 l -4.1347,13.6145 -4.0015,-3.2415 c 0,0 -15.3389,40.1952 -17.3397,44.7334 -2.0008,4.5382 -10.6705,23.9876 -10.6705,23.9876 l -2.6677,-11.6696 -14.6721,10.373 0.6669,16.2077 -8.003,-7.1314 c 0,0 -0.6667,9.7247 -4.0014,14.9112 -3.3346,5.1864 -24.0089,27.8774 -26.6765,31.1189 -2.6676,3.2415 -25.3427,9.0763 -25.3427,9.0763 z"
       id="path279"
       inkscape:connector-curvature="0" />
    <path
       style="fill:#ffffff;fill-rule:evenodd;stroke:none;stroke-width:1px;stroke-linecap:butt;stroke-linejoin:miter;stroke-opacity:1"
       d="m 1841.4634,2412.5674 7.5546,7.358 38.3795,-4.3215 7.6751,-8.3665 c 0,0 17.0558,8.3665 22.1725,5.5777 5.1167,-2.7889 25.5837,-4.6481 25.5837,-4.6481 l 7.6751,7.4369 18.7614,-2.7888 c 0,0 43.4923,7.4369 53.7257,6.5072 10.2335,-0.9295 28.1421,-10.2256 28.1421,-10.2256 0,0 34.9644,10.2256 40.0811,8.3664 5.1167,-1.8592 14.4974,-2.7887 14.4974,-2.7887 l 11.0863,20.4515 c 0,0 22.1725,-19.522 22.1725,-28.8181 14.4975,-0.9297 34.1116,0 37.5227,-1.8593 3.4113,-1.8592 5.1169,11.1554 5.1169,11.1554 l 10.2334,6.5073 c 0,0 25.5836,-20.4515 28.142,-24.1699 2.5584,-3.7185 19.6143,-2.789 19.6143,-2.789 0,0 23.878,0.9297 27.2892,0 3.4111,-0.9295 17.9085,0.9297 30.7005,1.8592 12.7918,0.9298 25.5836,0.9298 34.9643,-2.7887 2.5584,15.8034 0,72.51 -0.8528,79.0173 -9.3807,15.8034 -18.7614,45.5512 -26.4364,51.1289 20.4669,-11.1555 20.4669,-14.8739 28.1419,-22.3108 -0.8527,23.2405 -7.675,72.51 -8.5278,78.0878 13.6446,-12.085 11.9391,-9.2962 10.2335,-4.6481 -1.7057,4.6481 -6.8224,18.5923 -8.5279,29.7476 -1.7056,11.1554 0,25.0997 -1.7056,32.5366 -1.7056,7.437 -3.4112,17.6628 -3.4112,17.6628 0,0 -34.1116,11.1553 -40.0811,13.0146 -5.9696,1.8592 -58.8425,1.8592 -72.4871,1.8592 -13.6447,0 -34.1116,2.7888 -43.4923,1.8592 5.1168,-10.2257 8.5279,-17.6627 8.5279,-17.6627 0,0 -42.6394,4.6481 -52.873,6.5074 -10.2335,1.8592 -52.8729,-8.3666 -62.2536,-7.4369 -9.3807,0.9295 -61.4009,2.7887 -75.0455,3.7184 -13.6446,0.9295 -47.7562,2.7888 -60.548,5.5777 -12.7919,2.7888 -51.1675,4.648 -59.6953,4.648 -8.528,0 -24.7309,0.9297 -24.7309,0.9297 0,0 -1.7056,-33.4661 -1.7056,-45.5512 0,-12.085 -4.264,-71.5804 -0.8528,-78.0877 3.4111,-6.5074 5.9695,-52.0586 5.9695,-56.7066 0,-4.6481 -8.0462,-40.4078 -8.0462,-40.4078 z"
       id="path283"
       inkscape:connector-curvature="0"
       sodipodi:nodetypes="ccccscccccsccccccccccccccccccccscccccsscssscc" />
    <path
       style="fill:#ffffff;fill-rule:evenodd;stroke:none;stroke-width:0.99999994px;stroke-linecap:butt;stroke-linejoin:miter;stroke-opacity:1"
       d="m 1928.0456,2832.7023 c -13.1433,-30.6118 9.2927,-109.1953 20.1114,-126.6745 0,-10.6243 -4.641,-22.8831 -4.641,-22.8831 0,0 -11.6028,4.9035 -14.6968,10.6243 -3.0941,5.7208 13.1497,-34.3247 22.4319,-40.8627 9.2823,-6.538 -6.9616,-37.5937 -6.9616,-37.5937 0,0 -31.7143,26.1521 -33.2613,37.5937 -1.547,11.4416 -10.0557,70.2839 -6.1881,80.9082 3.8676,10.6243 6.1881,4.9035 9.2821,0.8172 3.0942,-4.0862 11.6029,-12.2588 16.244,-15.5278 -7.7353,19.6141 -20.1115,84.1772 -2.3206,113.5984 z"
       id="path285"
       inkscape:connector-curvature="0"
       sodipodi:nodetypes="ccccccssccc" />
  </g>
  <g
     inkscape:groupmode="layer"
     id="layer1"
     inkscape:label="txt">
    <text
       xml:space="preserve"
       style="font-style:normal;font-variant:normal;font-weight:normal;font-stretch:normal;line-height:0%;font-family:Lavi;-inkscape-font-specification:Lavi;text-align:center;letter-spacing:0px;word-spacing:0px;text-anchor:middle;fill:#000000;fill-opacity:1;stroke:none"
       x="1407.3555"
       y="1510.687"
       id="text4246"><tspan
         sodipodi:role="line"
         style="font-size:45px;line-height:1.2"
         x="1415.2656"
         y="1510.687"
         id="tspan794">Vous allez bientôt </tspan><tspan
         sodipodi:role="line"
         style="font-size:45px;line-height:1.2"
         x="1415.2656"
         y="1564.687"
         id="tspan872">comprendre pourquoi </tspan><tspan
         sodipodi:role="line"
         style="font-size:45px;line-height:1.2"
         x="1415.2656"
         y="1618.687"
         id="tspan878">je voulais construire </tspan><tspan
         sodipodi:role="line"
         style="font-size:45px;line-height:1.2"
         x="1407.3555"
         y="1672.687"
         id="tspan880">celui-ci.</tspan></text>
    <text
       xml:space="preserve"
       style="font-style:normal;font-variant:normal;font-weight:normal;font-stretch:normal;line-height:0%;font-family:Lavi;-inkscape-font-specification:Lavi;text-align:center;letter-spacing:0px;word-spacing:0px;text-anchor:middle;fill:#000000;fill-opacity:1;stroke:none"
       x="2125.2803"
       y="1872.3798"
       id="text4246-3"><tspan
         sodipodi:role="line"
         style="font-size:45px;line-height:1.2"
         x="2133.1904"
         y="1872.3798"
         id="tspan66"> Ça concerne </tspan><tspan
         sodipodi:role="line"
         style="font-size:45px;line-height:1.2"
         x="2133.1904"
         y="1926.3798"
         id="tspan902">mes inquiétudes </tspan><tspan
         sodipodi:role="line"
         style="font-size:45px;line-height:1.2"
         x="2133.1904"
         y="1980.3798"
         id="tspan920">au sujet du </tspan><tspan
         sodipodi:role="line"
         style="font-size:45px;line-height:1.2"
         x="2125.2803"
         y="2034.3798"
         id="tspan904">couronnement.</tspan></text>
    <text
       xml:space="preserve"
       style="font-style:normal;font-variant:normal;font-weight:normal;font-stretch:normal;line-height:0%;font-family:Lavi;-inkscape-font-specification:Lavi;text-align:center;letter-spacing:0px;word-spacing:0px;text-anchor:middle;fill:#000000;fill-opacity:1;stroke:none"
       x="479.14731"
       y="2463.925"
       id="text4246-3-3"><tspan
         sodipodi:role="line"
         style="font-size:45px;line-height:1.2"
         x="479.14731"
         y="2463.925"
         id="tspan927">Laissez-moi vous </tspan><tspan
         sodipodi:role="line"
         style="font-size:45px;line-height:1.2"
         x="479.14731"
         y="2517.925"
         id="tspan929">présenter ma nouvelle </tspan><tspan
         sodipodi:role="line"
         style="font-size:45px;line-height:1.2"
         x="479.14731"
         y="2571.925"
         id="tspan937">invention...</tspan></text>
    <text
       xml:space="preserve"
       style="font-style:normal;font-variant:normal;font-weight:normal;font-stretch:normal;line-height:0%;font-family:Lavi;-inkscape-font-specification:Lavi;text-align:center;letter-spacing:0px;word-spacing:0px;text-anchor:middle;fill:#000000;fill-opacity:1;stroke:none"
       x="1013.3394"
       y="2462.7529"
       id="text4246-3-3-2"><tspan
         sodipodi:role="line"
         style="font-style:normal;font-variant:normal;font-weight:normal;font-stretch:normal;font-size:32px;line-height:1.4;font-family:'Press Start 2P';-inkscape-font-specification:'Press Start 2P'"
         x="1013.3394"
         y="2462.7529"
         id="tspan881">Hello,</tspan><tspan
         sodipodi:role="line"
         style="font-style:normal;font-variant:normal;font-weight:normal;font-stretch:normal;font-size:32px;line-height:1.4;font-family:'Press Start 2P';-inkscape-font-specification:'Press Start 2P'"
         x="1013.3394"
         y="2507.553"
         id="tspan885">world !</tspan></text>
    <text
       xml:space="preserve"
       style="font-style:normal;font-variant:normal;font-weight:normal;font-stretch:normal;line-height:0%;font-family:Lavi;-inkscape-font-specification:Lavi;text-align:center;letter-spacing:0px;word-spacing:0px;text-anchor:middle;fill:#000000;fill-opacity:1;stroke:none"
       x="1457.5714"
       y="2494.9062"
       id="text4246-3-3-2-2"><tspan
         sodipodi:role="line"
         style="font-style:normal;font-variant:normal;font-weight:normal;font-stretch:normal;font-size:32px;line-height:1.4;font-family:'Press Start 2P';-inkscape-font-specification:'Press Start 2P'"
         x="1457.5714"
         y="2494.9062"
         id="tspan171">Je suis votre </tspan><tspan
         sodipodi:role="line"
         style="font-style:normal;font-variant:normal;font-weight:normal;font-stretch:normal;font-size:32px;line-height:1.4;font-family:'Press Start 2P';-inkscape-font-specification:'Press Start 2P'"
         x="1457.5714"
         y="2539.7063"
         id="tspan873">ROBOT PSYCHOLOGUE. </tspan><tspan
         sodipodi:role="line"
         style="font-style:normal;font-variant:normal;font-weight:normal;font-stretch:normal;font-size:32px;line-height:1.4;font-family:'Press Start 2P';-inkscape-font-specification:'Press Start 2P'"
         x="1457.5714"
         y="2584.5063"
         id="tspan875">Bip, Bip !</tspan></text>
    <text
       xml:space="preserve"
       style="font-style:normal;font-variant:normal;font-weight:normal;font-stretch:normal;line-height:0%;font-family:Lavi;-inkscape-font-specification:Lavi;text-align:center;letter-spacing:0px;word-spacing:0px;text-anchor:middle;fill:#000000;fill-opacity:1;stroke:none"
       x="2096.4172"
       y="2476.5383"
       id="text4246-3-3-2-2-7"><tspan
         sodipodi:role="line"
         style="font-style:normal;font-variant:normal;font-weight:normal;font-stretch:normal;font-size:32px;line-height:1.3;font-family:'Press Start 2P';-inkscape-font-specification:'Press Start 2P'"
         x="2096.4172"
         y="2476.5383"
         id="tspan208">Veuillez vous </tspan><tspan
         sodipodi:role="line"
         style="font-style:normal;font-variant:normal;font-weight:normal;font-stretch:normal;font-size:32px;line-height:1.3;font-family:'Press Start 2P';-inkscape-font-specification:'Press Start 2P'"
         x="2096.4172"
         y="2518.1384"
         id="tspan897">allonger sur </tspan><tspan
         sodipodi:role="line"
         style="font-style:normal;font-variant:normal;font-weight:normal;font-stretch:normal;font-size:32px;line-height:1.3;font-family:'Press Start 2P';-inkscape-font-specification:'Press Start 2P'"
         x="2096.4172"
         y="2559.7383"
         id="tspan901">mon divan pour </tspan><tspan
         sodipodi:role="line"
         style="font-style:normal;font-variant:normal;font-weight:normal;font-stretch:normal;font-size:32px;line-height:1.3;font-family:'Press Start 2P';-inkscape-font-specification:'Press Start 2P'"
         x="2096.4172"
         y="2601.3384"
         id="tspan907">une séance </tspan><tspan
         sodipodi:role="line"
         style="font-style:normal;font-variant:normal;font-weight:normal;font-stretch:normal;font-size:32px;line-height:1.3;font-family:'Press Start 2P';-inkscape-font-specification:'Press Start 2P'"
         x="2096.4172"
         y="2642.9382"
         id="tspan903">gratuite.</tspan><tspan
         sodipodi:role="line"
         x="2096.4172"
         y="2651.0857"
         id="tspan891" /><tspan
         sodipodi:role="line"
         x="2096.4172"
         y="2651.0857"
         id="tspan893" /><tspan
         sodipodi:role="line"
         x="2096.4172"
         y="2651.0857"
         id="tspan895" /></text>
    <text
       xml:space="preserve"
       style="font-style:normal;font-variant:normal;font-weight:normal;font-stretch:normal;line-height:0%;font-family:Lavi;-inkscape-font-specification:Lavi;letter-spacing:0px;word-spacing:0px;fill:#000000;fill-opacity:1;stroke:#000000;stroke-width:2.15796;stroke-miterlimit:4;stroke-dasharray:none;stroke-opacity:1;filter:url(#filter4375-4-1-1-1-9)"
       x="787.65729"
       y="1584.5073"
       id="text4580"
       transform="matrix(0.46879428,-0.12606586,-0.08654633,0.61214652,623.13411,2085.4411)"><tspan
         sodipodi:role="line"
         id="tspan4582"
         x="787.65729"
         y="1584.5073"
         style="font-style:normal;font-variant:normal;font-weight:bold;font-stretch:normal;font-size:80.4001px;line-height:1.25;font-family:Lavi;-inkscape-font-specification:'Lavi Bold';fill:#ffffff;stroke-width:2.15796">Clic !</tspan></text>
    <text
       xml:space="preserve"
       style="font-style:normal;font-variant:normal;font-weight:normal;font-stretch:normal;line-height:0%;font-family:Lavi;-inkscape-font-specification:Lavi;letter-spacing:0px;word-spacing:0px;fill:#000000;fill-opacity:1;stroke:#000000;stroke-width:2.15796;stroke-miterlimit:4;stroke-dasharray:none;stroke-opacity:1;filter:url(#filter4375-4-1-1-1-9-5)"
       x="787.65729"
       y="1584.5073"
       id="text4580-4"
       transform="matrix(0.46879428,-0.12606586,-0.08654633,0.61214652,2026.3604,1986.1586)"><tspan
         sodipodi:role="line"
         id="tspan4582-7"
         x="787.65729"
         y="1584.5073"
         style="font-style:normal;font-variant:normal;font-weight:bold;font-stretch:normal;font-size:80.4001px;line-height:1.25;font-family:Lavi;-inkscape-font-specification:'Lavi Bold';fill:#ffffff;stroke-width:2.15796">Tap !</tspan></text>
  </g>
</svg>
