<?xml version="1.0" encoding="UTF-8" standalone="no"?>
<!-- Created with Inkscape (http://www.inkscape.org/) -->

<svg
   id="svg2"
   version="1.1"
   inkscape:version="1.3 (0e150ed6c4, 2023-07-21)"
   width="2481"
   height="3503"
   sodipodi:docname="E13P01.svg"
   xmlns:inkscape="http://www.inkscape.org/namespaces/inkscape"
   xmlns:sodipodi="http://sodipodi.sourceforge.net/DTD/sodipodi-0.dtd"
   xmlns:xlink="http://www.w3.org/1999/xlink"
   xmlns="http://www.w3.org/2000/svg"
   xmlns:svg="http://www.w3.org/2000/svg"
   xmlns:rdf="http://www.w3.org/1999/02/22-rdf-syntax-ns#"
   xmlns:cc="http://creativecommons.org/ns#"
   xmlns:dc="http://purl.org/dc/elements/1.1/">
  <sodipodi:namedview
     pagecolor="#ffffff"
     bordercolor="#666666"
     inkscape:pageopacity="0"
     inkscape:pageshadow="2"
     inkscape:window-width="1888"
     inkscape:window-height="1144"
     id="namedview70"
     showgrid="false"
     inkscape:zoom="0.4"
     inkscape:cx="1397.5"
     inkscape:cy="2592.5"
     inkscape:current-layer="layer1"
     inkscape:window-x="32"
     inkscape:window-y="0"
     inkscape:window-maximized="1"
     borderopacity="1"
     inkscape:showpageshadow="0"
     inkscape:pagecheckerboard="0"
     inkscape:deskcolor="#d1d1d1" />
  <metadata
     id="metadata8">
    <rdf:RDF>
      <cc:Work
         rdf:about="">
        <dc:format>image/svg+xml</dc:format>
        <dc:type
           rdf:resource="http://purl.org/dc/dcmitype/StillImage" />
        <dc:title />
      </cc:Work>
    </rdf:RDF>
  </metadata>
  <defs
     id="defs6" />
  <sodipodi:namedview
     pagecolor="#ffffff"
     bordercolor="#666666"
     borderopacity="1"
     objecttolerance="10"
     gridtolerance="10"
     guidetolerance="10"
     inkscape:pageopacity="0"
     inkscape:pageshadow="2"
     inkscape:window-width="1920"
     inkscape:window-height="1025"
     id="namedview4"
     showgrid="false"
     inkscape:zoom="0.2630065"
     inkscape:cx="1288.2988"
     inkscape:cy="-142.1836"
     inkscape:window-x="0"
     inkscape:window-y="26"
     inkscape:window-maximized="1"
     inkscape:current-layer="layer1" />
  <g
     inkscape:groupmode="layer"
     id="layer2"
     inkscape:label="artwork"
     sodipodi:insensitive="true">
    <image
       xlink:href="../gfx_Pepper-and-Carrot_by-David-Revoy_E13P01.png"
       width="2481"
       height="3503"
       id="image10"
       x="0"
       y="0" />
  </g>
  <g
     inkscape:groupmode="layer"
     id="layer3"
     inkscape:label="speechbubbles" />
  <g
     inkscape:groupmode="layer"
     id="layer1"
     inkscape:label="txt">
    <path
       style="fill:#ffe4a0;fill-opacity:1;stroke:none"
       d="M 722.80334,769.26331 C 733.56619,710.8626 664.86577,709.5295 536.01621,705.7578 c -123.15479,-3.6049 -147.59936,9.0774 -164.20957,33.63651 -19.17918,28.3574 -25.58937,73.8614 72.62101,88.2487 78.08081,11.4386 216.48911,0.6814 234.20072,-11.7527 17.7116,-12.4341 38.78082,-15.271 44.17497,-46.627 z"
       id="path3238-1-6"
       inkscape:connector-curvature="0"
       sodipodi:nodetypes="cssssc" />
    <path
       style="fill:#ffe4a0;fill-opacity:1;stroke:none"
       d="m 742.40267,1108.9836 c 11.24939,-62.1699 -60.55671,-63.589 -195.23107,-67.6041 -128.72214,-3.8376 -154.27175,9.6632 -171.63285,35.8074 -20.04619,30.1876 -26.74616,78.6284 75.90393,93.9443 81.61054,12.1768 223.87245,-3.5418 244.78803,-12.5112 22.22005,-9.5288 40.53396,-16.2566 46.17196,-49.6364 z"
       id="path3238-1"
       inkscape:connector-curvature="0"
       sodipodi:nodetypes="cssssc" />
    <path
       style="fill:#ffe4a0;fill-opacity:1;stroke:none;stroke-width:0.906342"
       d="m 1957.1926,3339.382 c -10.8585,-47.9796 12.969,-88.3026 28.8224,-98.6009 15.8533,-10.2985 43.3725,-23.1494 57.2375,-25.7502 13.8651,-2.601 234.3285,-14.3366 247.6923,-8.5075 13.364,5.8291 73.354,26.7058 87.3717,56.2469 14.0177,29.5412 33.4932,115.734 16.3635,132.949 -17.1297,17.2147 -61.4257,7.581 -161.7293,14.3784 -100.3037,6.7977 -220.7843,7.0002 -250.3647,-27.6483 -16.6758,-19.5329 -25.3934,-43.0674 -25.3934,-43.0674 z"
       id="path3286"
       inkscape:connector-curvature="0"
       sodipodi:nodetypes="csssssssc" />
    <path
       style="color:#000000;display:inline;overflow:visible;visibility:visible;fill:#ffe4a0;fill-opacity:1;fill-rule:nonzero;stroke:none;stroke-width:1px;marker:none;enable-background:accumulate"
       d="m 2063.5756,2937.7672 c 59.1369,57.7184 84.0546,81.7232 70.3501,131.5639 -13.7043,49.8409 29.5777,21.853 29.5777,21.853 0,0 27.6302,-106.7588 -99.9278,-153.4169 z"
       id="path3984"
       inkscape:connector-curvature="0"
       sodipodi:nodetypes="cscc" />
    <path
       style="color:#000000;display:inline;overflow:visible;visibility:visible;fill:#ffe4a0;fill-opacity:1;fill-rule:nonzero;stroke:none;stroke-width:0.842646px;marker:none;enable-background:accumulate"
       d="m 2071.3663,3140.8834 c 1.3208,-39.4198 31.8149,-64.667 63.9761,-70.3966 33.0183,-5.8825 50.2165,-3.612 59.3852,-1.4669 9.1688,2.1452 80.2624,-2.9686 107.6248,0.6644 26.3428,3.4977 65.748,26.1503 63.2474,76.5619 -2.5007,50.4117 -40.0092,71.8634 -78.3512,75.0811 -38.3422,3.2178 -107.5168,2.1538 -127.6062,1.4117 -29.7883,-1.0999 -82.4414,0.7336 -88.2761,-81.8559 z"
       id="path5034"
       inkscape:connector-curvature="0"
       sodipodi:nodetypes="cscsssscc" />
    <path
       style="fill:#ffe4a0;fill-opacity:1;stroke:none;stroke-width:1.0052"
       d="m 450.62438,1449.7348 c -9.53215,58.7809 56.92773,59.0418 181.59417,60.8072 119.15656,1.6871 142.60643,-11.4244 158.30148,-36.3328 18.12247,-28.7607 23.63875,-74.5301 -71.55603,-87.4297 -75.68328,-10.256 -166.66224,-6.0398 -212.79106,5.4897 -37.08678,9.2695 -50.80254,25.9115 -55.54856,57.4656 z"
       id="path3238"
       inkscape:connector-curvature="0"
       sodipodi:nodetypes="cssssc" />
    <path
       style="color:#000000;display:inline;overflow:visible;visibility:visible;fill:#ffe4a0;fill-opacity:1;fill-rule:nonzero;stroke:none;stroke-width:1px;marker:none;enable-background:accumulate"
       d="M 537.20621,747.31481 C 497.18166,1119.9729 723.58268,1848.6244 747.8049,2074.1644 760.10221,1890.5729 526.40737,1185.705 565.75742,742.84162 c -24.19123,-4.10336 -28.55121,4.47319 -28.55121,4.47319 z"
       id="path4008"
       inkscape:connector-curvature="0"
       sodipodi:nodetypes="cccc" />
    <text
       xml:space="preserve"
       style="color:#000000;font-style:normal;font-variant:normal;font-weight:normal;font-stretch:normal;line-height:0%;font-family:Lavi;-inkscape-font-specification:Lavi;text-indent:0;text-align:center;text-decoration:none;text-decoration-line:none;letter-spacing:0px;word-spacing:0px;text-transform:none;writing-mode:lr-tb;direction:ltr;baseline-shift:baseline;text-anchor:middle;display:inline;overflow:visible;visibility:visible;fill:#000000;fill-opacity:1;fill-rule:nonzero;stroke:none;enable-background:accumulate"
       x="2222.7749"
       y="3128.1074"
       id="text4159"><tspan
         sodipodi:role="line"
         x="2222.7749"
         y="3128.1074"
         style="font-size:45px;line-height:1.25"
         id="tspan40">Tukaj je</tspan><tspan
         sodipodi:role="line"
         x="2222.7749"
         y="3184.3574"
         style="font-size:45px;line-height:1.25"
         id="tspan569">res lepo!</tspan></text>
    <text
       xml:space="preserve"
       style="font-style:normal;font-variant:normal;font-weight:normal;font-stretch:normal;line-height:0%;font-family:Lavi;-inkscape-font-specification:'Lavi, Normal';text-align:center;letter-spacing:0px;word-spacing:0px;writing-mode:lr-tb;text-anchor:middle;fill:#000000;fill-opacity:1;stroke:none;stroke-width:1px;stroke-linecap:butt;stroke-linejoin:miter;stroke-opacity:1"
       x="2232.5"
       y="3089.8286"
       id="text4169"><tspan
         sodipodi:role="line"
         id="tspan4171"
         x="2232.5"
         y="3089.8286"
         style="font-size:47.0037px;line-height:1.25"> </tspan><tspan
         sodipodi:role="line"
         x="2239.8442"
         y="3148.5833"
         id="tspan4173"
         style="font-size:47.0037px;line-height:1.25"> </tspan></text>
    <text
       xml:space="preserve"
       style="color:#000000;font-style:normal;font-variant:normal;font-weight:normal;font-stretch:normal;line-height:0%;font-family:Lavi;-inkscape-font-specification:Lavi;text-indent:0;text-align:center;text-decoration:none;text-decoration-line:none;letter-spacing:0px;word-spacing:0px;text-transform:none;writing-mode:lr-tb;direction:ltr;baseline-shift:baseline;text-anchor:middle;display:inline;overflow:visible;visibility:visible;fill:#000000;fill-opacity:1;fill-rule:nonzero;stroke:none;enable-background:accumulate"
       x="2176.1394"
       y="3267.916"
       id="text4177"><tspan
         sodipodi:role="line"
         x="2176.1394"
         y="3267.916"
         id="tspan3748"
         style="font-size:45px;line-height:1.25">Hvala, da si</tspan><tspan
         sodipodi:role="line"
         x="2176.1394"
         y="3324.166"
         style="font-size:45px;line-height:1.25"
         id="tspan573">naju povabila k sebi,</tspan><tspan
         sodipodi:role="line"
         x="2176.1394"
         y="3380.416"
         style="font-size:45px;line-height:1.25"
         id="tspan579">Koriandrika!</tspan></text>
    <text
       xml:space="preserve"
       style="color:#000000;font-style:normal;font-variant:normal;font-weight:normal;font-stretch:normal;line-height:0%;font-family:Lavi;-inkscape-font-specification:Lavi;text-indent:0;text-align:center;text-decoration:none;text-decoration-line:none;letter-spacing:0px;word-spacing:0px;text-transform:none;writing-mode:lr-tb;direction:ltr;baseline-shift:baseline;text-anchor:middle;display:inline;overflow:visible;visibility:visible;fill:#000000;fill-opacity:1;fill-rule:nonzero;stroke:#000000;stroke-width:1.15539;stroke-linecap:butt;stroke-linejoin:miter;stroke-miterlimit:4;stroke-dasharray:none;stroke-dashoffset:0;stroke-opacity:1;enable-background:accumulate"
       x="629.25244"
       y="1449.7042"
       id="text4201"
       transform="scale(0.99121654,1.0088613)"><tspan
         sodipodi:role="line"
         x="629.25244"
         y="1449.7042"
         id="tspan4183"
         style="font-size:47.266px;line-height:1.25;stroke-width:1.15539">… vseh časov!</tspan></text>
    <text
       xml:space="preserve"
       style="color:#000000;font-style:normal;font-variant:normal;font-weight:normal;font-stretch:normal;line-height:0%;font-family:Lavi;-inkscape-font-specification:Lavi;text-indent:0;text-align:center;text-decoration:none;text-decoration-line:none;letter-spacing:0px;word-spacing:0px;text-transform:none;writing-mode:lr-tb;direction:ltr;baseline-shift:baseline;text-anchor:middle;display:inline;overflow:visible;visibility:visible;fill:#000000;fill-opacity:1;fill-rule:nonzero;stroke:none;enable-background:accumulate"
       x="547.33362"
       y="781.7851"
       id="text4201-8"><tspan
         sodipodi:role="line"
         x="547.33362"
         y="781.7851"
         id="tspan4183-9"
         style="font-size:45px;line-height:1.25">Najboljše…</tspan></text>
    <text
       xml:space="preserve"
       style="color:#000000;font-style:normal;font-variant:normal;font-weight:normal;font-stretch:normal;line-height:0%;font-family:Lavi;-inkscape-font-specification:Lavi;text-indent:0;text-align:center;text-decoration:none;text-decoration-line:none;letter-spacing:0px;word-spacing:0px;text-transform:none;writing-mode:lr-tb;direction:ltr;baseline-shift:baseline;text-anchor:middle;display:inline;overflow:visible;visibility:visible;fill:#000000;fill-opacity:1;fill-rule:nonzero;stroke:none;enable-background:accumulate"
       x="552.08148"
       y="1121.1799"
       id="text4201-2"><tspan
         sodipodi:role="line"
         x="552.08148"
         y="1121.1799"
         id="tspan4183-92"
         style="font-size:45px;line-height:1.25">… počitnice …</tspan></text>
  </g>
</svg>
