<?xml version="1.0" encoding="UTF-8" standalone="no"?>
<!-- Created with Inkscape (http://www.inkscape.org/) -->

<svg
   id="svg2"
   version="1.1"
   inkscape:version="1.1.1 (1:1.1+202109281949+c3084ef5ed)"
   width="2481"
   height="3503"
   sodipodi:docname="E36P06.svg"
   xmlns:inkscape="http://www.inkscape.org/namespaces/inkscape"
   xmlns:sodipodi="http://sodipodi.sourceforge.net/DTD/sodipodi-0.dtd"
   xmlns:xlink="http://www.w3.org/1999/xlink"
   xmlns="http://www.w3.org/2000/svg"
   xmlns:svg="http://www.w3.org/2000/svg"
   xmlns:rdf="http://www.w3.org/1999/02/22-rdf-syntax-ns#"
   xmlns:cc="http://creativecommons.org/ns#"
   xmlns:dc="http://purl.org/dc/elements/1.1/">
  <metadata
     id="metadata8">
    <rdf:RDF>
      <cc:Work
         rdf:about="">
        <dc:format>image/svg+xml</dc:format>
        <dc:type
           rdf:resource="http://purl.org/dc/dcmitype/StillImage" />
        <dc:title />
      </cc:Work>
    </rdf:RDF>
  </metadata>
  <defs
     id="defs6" />
  <sodipodi:namedview
     pagecolor="#1e1e1e"
     bordercolor="#111111"
     borderopacity="1"
     objecttolerance="10"
     gridtolerance="10"
     guidetolerance="10"
     inkscape:pageopacity="0"
     inkscape:pageshadow="2"
     inkscape:window-width="1920"
     inkscape:window-height="1056"
     id="namedview4"
     showgrid="false"
     inkscape:zoom="0.46000002"
     inkscape:cx="1180.4347"
     inkscape:cy="2328.2608"
     inkscape:window-x="1920"
     inkscape:window-y="0"
     inkscape:window-maximized="1"
     inkscape:current-layer="layer1"
     inkscape:pagecheckerboard="0"
     inkscape:snap-global="false" />
  <g
     inkscape:groupmode="layer"
     id="layer2"
     inkscape:label="artwork"
     sodipodi:insensitive="true">
    <image
       xlink:href="../gfx_Pepper-and-Carrot_by-David-Revoy_E36P06.png"
       y="0"
       x="0"
       id="image10"
       height="3503"
       width="2481" />
  </g>
  <g
     inkscape:groupmode="layer"
     id="layer3"
     inkscape:label="speechbubbles"
     style="display:inline">
    <path
       style="color:#000000;display:inline;overflow:visible;visibility:visible;fill:#ffffff;fill-opacity:1;fill-rule:nonzero;stroke:none;stroke-width:0.825943px;marker:none;enable-background:accumulate"
       d="m 577.39062,1890.3496 c 13.55459,4.6614 27.39899,10.6876 36.98583,21.7461 6.87829,8.625 7.56098,20.6709 4.66066,30.9708 -1.44275,5.9611 -3.11819,12.8374 0.29351,18.4496 3.25292,4.4413 8.97247,5.7004 13.65335,8.0759 1.68146,0.5503 3.16657,2.0604 4.93205,2.0447 3.65441,-0.7862 8.30688,-4.5636 7.78517,-7.7805 0.4108,-14.3571 1.10006,-28.425 -3.6806,-42.3235 -4.09402,-10.8462 -16.4336,-19.4968 -27.02744,-23.2608 -13.09899,-5.2184 -27.0995,-7.7878 -41.09862,-9.0336 1.16537,0.3704 2.33073,0.7409 3.49609,1.1113 z"
       id="path4064-5-5"
       inkscape:connector-curvature="0"
       sodipodi:nodetypes="ccszccccccc" />
    <path
       style="color:#000000;display:inline;overflow:visible;visibility:visible;fill:#ffffff;fill-opacity:1;fill-rule:nonzero;stroke:none;stroke-width:1.4029px;marker:none;enable-background:accumulate"
       d="m 455.60235,2072.4923 c -0.0344,-45.0514 25.90507,-87.9009 63.46254,-113.9953 28.06808,-19.7807 63.36151,-30.3819 98.21051,-27.6838 38.50308,1.6551 77.17295,11.8868 109.08815,33.1033 27.90588,18.281 51.01118,45.6422 57.29754,78.1336 7.20452,35.2659 -8.93246,72.1995 -36.09575,95.9525 -16.81595,14.9641 -37.97909,25.0295 -60.38153,29.5122 -48.77854,10.2179 -100.04662,9.8144 -148.49737,-1.9131 -41.89692,-14.6618 -73.13913,-51.8164 -83.08409,-93.1094 z"
       id="path3365-8"
       inkscape:connector-curvature="0"
       sodipodi:nodetypes="cssccsc" />
    <path
       style="color:#000000;display:inline;overflow:visible;visibility:visible;fill:#ffffff;fill-opacity:1;fill-rule:nonzero;stroke:none;stroke-width:1.38472px;marker:none;enable-background:accumulate"
       d="m 1900.1746,1570.3017 c -58.7861,5.1775 -130.8013,-1.0042 -172.3771,39.7662 -41.1971,46.4515 -34.2028,115.083 9.7883,158.5851 46.1949,33.3212 113.4735,29.7218 171.6045,34.3286 64.2782,1.2329 131.4406,0.2027 191.9743,-18.3729 53.3861,-24.4151 66.2783,-79.3721 54.9473,-124.1952 -4.4522,-41.6231 -43.7079,-79.8047 -97.7296,-82.7457 -52.2412,-6.7421 -105.5499,-4.8002 -158.2077,-7.3661 z"
       id="path3525-1"
       inkscape:connector-curvature="0"
       sodipodi:nodetypes="ccccc" />
    <path
       style="color:#000000;display:inline;overflow:visible;visibility:visible;fill:#ffffff;fill-opacity:1;fill-rule:nonzero;stroke:none;stroke-width:0.844663px;marker:none;enable-background:accumulate"
       d="m 1967.6691,1870.5868 c -18.1752,-11.0216 -34.1079,-35.6909 -38.6041,-62.1813 -3.212,-15.891 -4.9491,-32.3534 -3.0603,-47.1809 2.5292,-4.9506 8.5452,-3.2093 12.36,1.2176 6.174,5.2735 12.9392,8.5628 18.8573,14.6149 3.5725,5.1778 3.8133,12.417 2.6585,17.788 -1.1636,10.2097 -2.5765,21.1708 0.8478,32.3369 4.2315,15.7365 13.9898,28.6271 24.2515,37.2817 12.3531,10.7595 26.1526,15.1864 39.0912,15.7949 0.045,0.4487 -1.409,0.4203 -1.8941,0.6592 -17.1414,4.2654 -36.4098,1.3261 -54.5078,-10.331 z"
       id="path4064-5"
       inkscape:connector-curvature="0"
       sodipodi:nodetypes="ccszc" />
    <path
       style="fill:#ffffff;stroke:none;stroke-width:1.27377"
       d="m 423.86932,2274.0147 c -58.40363,0.7266 -117.26087,0.4642 -174.90429,10.0414 -21.16955,3.5289 -42.51486,8.3841 -61.20751,18.2501 -14.43766,7.6229 -26.60492,18.84 -33.83521,32.4248 -9.82269,18.3562 -11.42046,39.6762 -6.85182,59.4484 5.77415,24.7766 22.16588,47.8461 46.19547,61.5678 18.47495,10.7258 40.36725,15.9294 62.19658,17.2676 41.10539,3.9084 82.30628,6.9938 123.56674,9.2475 28.80174,1.6133 57.6133,3.1895 86.45432,4.1063 59.43052,1.2318 118.97024,-2.4334 177.7084,-10.554 21.58424,-3.4538 43.33876,-9.8906 60.2464,-22.8016 15.7863,-12.0501 25.22958,-29.5674 29.29038,-47.5343 3.67302,-15.3575 4.67502,-31.2491 2.89474,-46.8723 -2.02238,-14.3377 -8.16997,-28.5569 -19.52725,-39.0727 -12.61369,-12.3857 -29.73232,-20.7657 -47.91359,-24.5541 -19.37289,-4.774 -39.378,-6.8962 -59.14188,-9.9334 -61.25736,-8.176 -123.26784,-11.2963 -185.17148,-11.0315 z"
       id="path3100-2"
       inkscape:connector-curvature="0" />
    <path
       style="fill:#ffffff;stroke:none;stroke-width:1.15228"
       d="m 432.34272,2411.1355 c -57.69023,1.4255 -116.18902,1.592 -172.31646,14.9613 -22.82183,5.5849 -45.61052,16.109 -59.02389,34.6065 -18.19834,26.9283 -15.9672,62.8095 0.80947,90.1445 15.15351,24.9652 44.32323,41.749 74.99204,44.4582 40.48286,4.2758 81.13333,6.9026 121.80868,8.5905 21.04122,0.8358 42.06567,2.1318 63.10838,2.863 53.40991,1.2179 106.84794,-2.3285 159.59023,-9.5113 22.40029,-3.1885 45.3844,-8.9344 62.85774,-22.783 12.20121,-9.4092 19.94486,-22.8156 23.96101,-36.8796 5.6775,-19.3058 5.76644,-39.7754 2.73889,-59.5531 -2.9411,-15.7827 -10.99402,-32.1256 -26.59543,-40.5249 -16.71343,-9.0909 -36.47798,-10.1793 -55.04157,-13.6435 -65.0203,-10.3541 -131.08482,-13.9631 -196.88909,-12.7286 z"
       id="path3100-2-1"
       inkscape:connector-curvature="0" />
    <path
       style="fill:#ffffff;stroke:none;stroke-width:1.31421"
       d="m 526.26484,2539.2194 c -74.02946,3.2557 -151.87869,-0.022 -220.67802,30.8316 -35.86935,18.7498 -51.7243,60.2161 -48.05682,98.0957 1.83224,49.6041 36.49266,102.4889 90.49444,108.7634 54.86469,6.6848 110.21964,9.9193 165.46293,12.4244 72.51547,2.0134 146.69007,-0.3719 216.39797,-21.4517 35.39278,-13.7635 55.34539,-49.8269 57.62246,-85.4257 7.50792,-44.6192 -8.34907,-97.2272 -52.67664,-118.4303 -39.07907,-15.4717 -82.27521,-16.9512 -123.76898,-21.8202 -28.19781,-2.2685 -56.50454,-3.2354 -84.79734,-2.9872 z"
       id="path3100-2-1-9"
       inkscape:connector-curvature="0" />
    <path
       style="fill:#ffffff;fill-rule:evenodd;stroke:none;stroke-width:1px;stroke-linecap:butt;stroke-linejoin:miter;stroke-opacity:1"
       d="m 565.35803,2748.8183 c 0,0 15.49435,31.1557 18.76123,47.2541 3.26688,16.0984 -2.23396,98.2886 -54.0297,124.672 60.58129,-13.8373 97.25045,-97.2182 74.9118,-174.2445 -8.13467,-28.0492 -39.64333,2.3184 -39.64333,2.3184 z"
       id="path1357"
       inkscape:connector-curvature="0"
       sodipodi:nodetypes="cscsc" />
    <path
       style="color:#000000;display:inline;overflow:visible;visibility:visible;fill:#ffffff;fill-opacity:1;fill-rule:nonzero;stroke:none;stroke-width:1.03864px;marker:none;enable-background:accumulate"
       d="m 1105.6621,1613.416 c -27.3074,0.665 -55.2641,4.8405 -79.6671,17.7518 -20.9178,11.7343 -35.48479,32.595 -42.92872,55.0672 -5.21266,14.3929 -8.21701,30.6636 -2.8761,45.4728 6.59215,18.412 23.13312,31.7974 41.28642,37.9765 29.138,11.2748 60.784,12.4073 91.6361,13.4689 33.4435,0.8833 66.9833,1.6213 100.3641,-1.086 18.1912,-1.7873 36.6147,-6.7791 51.3797,-17.9635 12.1435,-8.7548 22.0772,-21.8232 23.7559,-37.0517 2.4369,-17.9924 -2.3337,-36.2294 -9.9127,-52.4672 -10.3009,-21.0264 -28.628,-38.1831 -50.7572,-46.1168 -28.177,-10.962 -58.7375,-12.5985 -88.5948,-14.3303 -11.2167,-0.5894 -22.4527,-0.9884 -33.6856,-0.7217 z"
       id="path4546-6-89"
       inkscape:connector-curvature="0"
       sodipodi:nodetypes="cssssc" />
    <path
       style="color:#000000;display:inline;overflow:visible;visibility:visible;fill:#ffffff;fill-opacity:1;fill-rule:nonzero;stroke:none;stroke-width:1px;marker:none;enable-background:accumulate"
       d="m 1191.4693,1723.1631 c 34.2678,49.2543 68.9523,97.6924 121.3421,87.479 -53.9312,29.956 -129.2913,-39.4416 -157.7344,-79.0515 -24.1583,-33.6427 36.3923,-8.4275 36.3923,-8.4275 z"
       id="path4480-3"
       inkscape:connector-curvature="0"
       sodipodi:nodetypes="ccsc" />
    <path
       style="color:#000000;display:inline;overflow:visible;visibility:visible;fill:#ffffff;fill-opacity:1;fill-rule:nonzero;stroke:none;stroke-width:0.888144px;marker:none;enable-background:accumulate"
       d="m 926.821,2389.163 c 0.96989,-38.6448 51.23545,-67.0932 188.9303,-60.311 73.7568,3.6336 157.3472,5.8914 156.7784,62.5005 -0.569,56.609 -120.5252,55.5781 -145.1498,56.9891 -24.6242,1.411 -153.97911,-4.0672 -178.16782,-23.2372 -15.14161,-12.0003 -21.76544,-23.9756 -22.39108,-35.9414 z"
       id="path4546-6-89-3"
       inkscape:connector-curvature="0"
       sodipodi:nodetypes="cssssc" />
    <path
       style="fill:#ffffff;stroke:none;stroke-width:0.812813"
       d="m 1174.7217,2419.2655 c 117.4359,-0.3816 161.805,10.2176 177.1158,151.1882 21.191,195.1031 -77.4619,211.1288 -215.2862,210.6819 -148.70359,-0.4821 -157.96766,-115.6271 -160.61592,-209.8685 -4.57055,-162.6296 78.58012,-147.683 198.78632,-152.0016 z"
       id="path3280-8-0"
       inkscape:connector-curvature="0"
       sodipodi:nodetypes="csssc" />
    <path
       style="color:#000000;display:inline;overflow:visible;visibility:visible;fill:#ffffff;fill-opacity:1;fill-rule:nonzero;stroke:none;stroke-width:1px;marker:none;enable-background:accumulate"
       d="m 1185.4951,2698.3525 c -14.7937,34.7302 -29.7284,103.9977 49.732,149.2666 -38.7431,-11.0789 -115.7589,-45.8618 -84.4037,-150.4179 9.0983,-30.339 16.322,-15.8945 23.6557,-14.9665 7.3338,0.9279 11.016,16.1178 11.016,16.1178 z"
       id="path4064-3"
       inkscape:connector-curvature="0"
       sodipodi:nodetypes="ccszc" />
    <path
       style="color:#000000;display:inline;overflow:visible;visibility:visible;fill:#ffffff;fill-opacity:1;fill-rule:nonzero;stroke:none;stroke-width:0.800752px;marker:none;enable-background:accumulate"
       d="m 1651.2761,2304.8762 c 32.6168,-39.6682 88.4024,-42.2159 135.8304,-42.2394 44.6528,1.0129 91.3023,3.7125 132.3042,22.7913 26.4222,12.2041 44.2843,44.8101 29.4638,72.1033 -18.2817,23.4202 -51.4037,23.0482 -78.0181,29.5615 -52.513,7.4345 -105.6559,0.6211 -157.9247,-5.5691 -23.8316,-4.6029 -53.1587,-9.8591 -62.9091,-35.6353 -5.5358,-12.5917 -8.0263,-29.5328 1.2535,-41.0123 z"
       id="path3533-6"
       inkscape:connector-curvature="0" />
    <path
       style="fill:#ffffff;fill-rule:evenodd;stroke:none;stroke-width:1.38581px;stroke-linecap:butt;stroke-linejoin:miter;stroke-opacity:1"
       d="m 1882.582,2368.8585 c 33.9534,32.2939 25.2378,98.5148 5.21,126.3583 16.6982,-13.5989 67.5762,-88.6625 18.8996,-149.3734 -40.0561,-49.9592 -29.2155,15.9213 -29.2155,15.9213 z"
       id="path4248"
       inkscape:connector-curvature="0"
       sodipodi:nodetypes="ccscc" />
    <path
       style="display:inline;fill:#ffffff;stroke:none;stroke-width:1.09445"
       d="m 2045.1426,2362.7934 c 0.7299,-47.1977 27.663,-89.6364 150.0183,-82.0615 122.3555,7.5748 162.5358,12.6601 162.786,77.0121 0.2619,67.3475 -60.5828,83.1874 -153.1945,85.7943 -95.4725,2.6872 -159.2319,-24.6821 -159.6098,-80.7449 z"
       id="path3280-64"
       inkscape:connector-curvature="0"
       sodipodi:nodetypes="csssc" />
    <path
       style="color:#000000;display:inline;overflow:visible;visibility:visible;fill:#ffffff;fill-opacity:1;fill-rule:nonzero;stroke:none;stroke-width:1.00876px;marker:none;enable-background:accumulate"
       d="m 2225.6941,2499.207 c 29.3281,-35.4419 42.8909,-48.473 14.1537,-86.3903 -28.7372,-37.9162 -14.1521,-48.0944 -14.1521,-48.0944 l 30.5785,11.3041 c 0,0 63.9999,68.3303 -30.5801,123.1806 z"
       id="path3072-56"
       inkscape:connector-curvature="0"
       sodipodi:nodetypes="ccccc" />
    <path
       style="color:#000000;display:inline;overflow:visible;visibility:visible;fill:#ffffff;fill-opacity:1;fill-rule:nonzero;stroke:none;stroke-width:0.67124px;marker:none;enable-background:accumulate"
       d="m 2121.8448,2844.4879 c 14.5963,-9.9895 118.7077,-19.5563 148.2592,6.1257 24.6662,21.4363 23.0835,63.4313 0.4928,79.2151 -23.0149,16.0793 -110.7216,10.4002 -144.6205,2.6999 -31.9221,-7.2509 -31.3445,-24.7778 -30.4738,-55.3282 0.3554,-12.4682 11.746,-22.7237 26.3423,-32.7125 z"
       id="path4040-4-5-3-6"
       inkscape:connector-curvature="0"
       sodipodi:nodetypes="zssssz" />
    <path
       style="color:#000000;display:inline;overflow:visible;visibility:visible;fill:#ffffff;fill-opacity:1;fill-rule:nonzero;stroke:none;stroke-width:0.890822px;marker:none;enable-background:accumulate"
       d="M 2206.4844 2907.5449 C 2175.4305 2908.1903 2144.161 2910.592 2114.0656 2918.6941 C 2096.2668 2922.8372 2077.5821 2925.3815 2061.5579 2934.7569 C 2048.1514 2942.4442 2036.0549 2952.4597 2025.9786 2964.168 C 2019.8872 2972.1306 2017.1014 2982.2405 2017.1777 2992.1864 C 2016.0581 3008.0241 2018.6153 3024.8996 2028.1901 3037.9705 C 2037.9739 3051.3249 2053.1368 3059.5337 2068.6014 3064.5623 C 2108.5003 3078.9601 2151.2892 3082.4279 2193.3995 3083.0817 C 2228.1674 3083.3676 2263.3303 3083.4093 2297.4478 3075.8269 C 2311.3394 3072.6893 2325.0899 3068.4854 2337.9124 3062.2365 C 2358.1519 3050.8194 2370.8101 3028.2613 2372.1674 3005.3065 C 2373.7268 2985.0535 2367.2964 2963.6088 2352.5307 2949.254 C 2340.5455 2938.1399 2324.5733 2933.0012 2309.1 2928.8787 C 2282.1139 2921.9981 2255.6568 2912.6117 2227.969 2908.8131 C 2220.8513 2907.8578 2213.6644 2907.4524 2206.4844 2907.5449 z "
       id="path4040-4-5-3"
       inkscape:connector-curvature="0"
       sodipodi:nodetypes="zssssz" />
    <path
       style="display:inline;fill:#ffffff;fill-rule:evenodd;stroke:none;stroke-width:1px;stroke-linecap:butt;stroke-linejoin:miter;stroke-opacity:1"
       d="m 2230.8069,2888.0547 c -59.0902,-10.6562 16.1202,-61.0715 -1.0396,-83.0609 -8.296,-10.6309 -45.3019,13.7249 -85.4552,-27.1328 44.274,25.5713 73.4492,-3.2499 94.1628,5.6982 39.3401,16.9937 6.1746,61.0235 5.4438,70.8494 -0.9776,13.1415 -13.1118,33.6461 -13.1118,33.6461 z"
       id="path4186-80"
       inkscape:connector-curvature="0"
       sodipodi:nodetypes="cscssc" />
  </g>
  <g
     inkscape:groupmode="layer"
     id="layer1"
     inkscape:label="txt"
     style="display:inline">
    <text
       id="text4246-4-2-7"
       y="2018.4624"
       x="620.6286"
       style="font-style:normal;font-variant:normal;font-weight:normal;font-stretch:normal;line-height:0%;font-family:Lavi;-inkscape-font-specification:Lavi;text-align:center;letter-spacing:0px;word-spacing:0px;text-anchor:middle;fill:#000000;fill-opacity:1;stroke:none"
       xml:space="preserve"><tspan
         y="2018.4624"
         x="620.6286"
         style="font-size:45px;line-height:1.25"
         sodipodi:role="line"
         id="tspan907">On était si</tspan><tspan
         y="2074.7124"
         x="620.6286"
         style="font-size:45px;line-height:1.25"
         sodipodi:role="line"
         id="tspan2565">proches du</tspan><tspan
         y="2130.9624"
         x="620.6286"
         style="font-size:45px;line-height:1.25"
         sodipodi:role="line"
         id="tspan2677">but...</tspan></text>
    <text
       id="text4246-4-2-7-3-2"
       y="1678.9263"
       x="1137.0778"
       style="font-style:normal;font-variant:normal;font-weight:normal;font-stretch:normal;line-height:0%;font-family:Lavi;-inkscape-font-specification:Lavi;text-align:center;letter-spacing:0px;word-spacing:0px;text-anchor:middle;fill:#000000;fill-opacity:1;stroke:none"
       xml:space="preserve"><tspan
         y="1678.9263"
         x="1137.0778"
         style="font-size:45px;line-height:1.25"
         sodipodi:role="line"
         id="tspan99796">Oui, </tspan><tspan
         y="1735.1763"
         x="1137.0778"
         style="font-size:45px;line-height:1.25"
         sodipodi:role="line"
         id="tspan103302">si proches...</tspan></text>
    <text
       id="text4246-4-2-7-3"
       y="1637.8077"
       x="1937.1276"
       style="font-style:normal;font-variant:normal;font-weight:normal;font-stretch:normal;line-height:0%;font-family:Lavi;-inkscape-font-specification:Lavi;text-align:center;letter-spacing:0px;word-spacing:0px;text-anchor:middle;fill:#000000;fill-opacity:1;stroke:none"
       xml:space="preserve"><tspan
         y="1637.8077"
         x="1937.1276"
         style="font-size:45px;line-height:1.25"
         sodipodi:role="line"
         id="tspan6129">Au fait, sais-tu </tspan><tspan
         y="1694.0577"
         x="1937.1276"
         style="font-size:45px;line-height:1.25"
         sodipodi:role="line"
         id="tspan12052">pourquoi Wasabi en </tspan><tspan
         y="1750.3077"
         x="1937.1276"
         style="font-size:45px;line-height:1.25"
         sodipodi:role="line"
         id="tspan14192">a tant après moi ?</tspan></text>
    <text
       id="text4246-4-2-7-3-6-7"
       y="2359.9399"
       x="448.58929"
       style="font-style:normal;font-variant:normal;font-weight:normal;font-stretch:normal;line-height:0%;font-family:Lavi;-inkscape-font-specification:Lavi;text-align:center;letter-spacing:0px;word-spacing:0px;text-anchor:middle;fill:#000000;fill-opacity:1;stroke:none"
       xml:space="preserve"><tspan
         y="2359.9399"
         x="448.58929"
         style="font-size:45px;line-height:1.25;fill:#000000"
         sodipodi:role="line"
         id="tspan117778">Elle a peur des sorcières</tspan><tspan
         y="2416.1899"
         x="448.58929"
         style="font-size:45px;line-height:1.25;fill:#000000"
         sodipodi:role="line"
         id="tspan143860">de Chaosah, Pepper...</tspan></text>
    <text
       id="text4246-4-2-7-3-6-7-6"
       y="2496.1213"
       x="456.50583"
       style="font-style:normal;font-variant:normal;font-weight:normal;font-stretch:normal;line-height:0%;font-family:Lavi;-inkscape-font-specification:Lavi;text-align:center;letter-spacing:0px;word-spacing:0px;text-anchor:middle;fill:#000000;fill-opacity:1;stroke:none"
       xml:space="preserve"><tspan
         y="2496.1213"
         x="456.50583"
         style="font-size:45px;line-height:1.25;fill:#000000"
         sodipodi:role="line"
         id="tspan107372">Et surtout de vos</tspan><tspan
         y="2552.3713"
         x="456.50583"
         style="font-size:45px;line-height:1.25;fill:#000000"
         sodipodi:role="line"
         id="tspan83621"><tspan
           style="font-weight:bold"
           id="tspan175408">réactions en chaîne.</tspan></tspan></text>
    <text
       id="text4246-4-2-7-3-6-7-6-6"
       y="2635.2852"
       x="531.0318"
       style="font-style:normal;font-variant:normal;font-weight:normal;font-stretch:normal;line-height:0%;font-family:Lavi;-inkscape-font-specification:Lavi;text-align:center;letter-spacing:0px;word-spacing:0px;text-anchor:middle;fill:#000000;fill-opacity:1;stroke:none"
       xml:space="preserve"><tspan
         y="2635.2852"
         x="531.0318"
         style="font-size:45px;line-height:1.25;fill:#000000"
         sodipodi:role="line"
         id="tspan112984-9"> C'est une menace</tspan><tspan
         y="2691.5352"
         x="531.0318"
         style="font-size:45px;line-height:1.25;fill:#000000"
         sodipodi:role="line"
         id="tspan83619-3">majeure pour ses plans </tspan><tspan
         y="2747.7852"
         x="531.0318"
         style="font-size:45px;line-height:1.25;fill:#000000"
         sodipodi:role="line"
         id="tspan83621-1">d'après elle.</tspan></text>
    <text
       id="text4246-4-2-7-3-6-7-6-6-4"
       y="2396.4487"
       x="1106.911"
       style="font-style:normal;font-variant:normal;font-weight:normal;font-stretch:normal;line-height:0%;font-family:Lavi;-inkscape-font-specification:Lavi;text-align:center;letter-spacing:0px;word-spacing:0px;text-anchor:middle;fill:#000000;fill-opacity:1;stroke:none"
       xml:space="preserve"><tspan
         y="2396.4487"
         x="1106.911"
         style="font-size:45px;line-height:1.25;fill:#000000"
         sodipodi:role="line"
         id="tspan83621-1-4">Ah, ça, pfff...</tspan></text>
    <text
       id="text4246-4-2-7-3-6-7-6-6-4-5"
       y="2503.5098"
       x="1167.3499"
       style="font-style:normal;font-variant:normal;font-weight:normal;font-stretch:normal;line-height:0%;font-family:Lavi;-inkscape-font-specification:Lavi;text-align:center;letter-spacing:0px;word-spacing:0px;text-anchor:middle;fill:#000000;fill-opacity:1;stroke:none"
       xml:space="preserve"><tspan
         y="2503.5098"
         x="1167.3499"
         style="font-size:45px;line-height:1.25;fill:#000000"
         sodipodi:role="line"
         id="tspan83621-1-4-0">Elle n'a pas</tspan><tspan
         y="2559.7598"
         x="1167.3499"
         style="font-size:45px;line-height:1.25;fill:#000000"
         sodipodi:role="line"
         id="tspan186796">à s'en faire : </tspan><tspan
         y="2616.0098"
         x="1167.3499"
         style="font-size:45px;line-height:1.25;fill:#000000"
         sodipodi:role="line"
         id="tspan186798">j'en ai encore</tspan><tspan
         y="2672.2598"
         x="1167.3499"
         style="font-size:45px;line-height:1.25;fill:#000000"
         sodipodi:role="line"
         id="tspan186800">jamais réussi </tspan><tspan
         y="2728.5098"
         x="1167.3499"
         style="font-size:45px;line-height:1.25;fill:#000000"
         sodipodi:role="line"
         id="tspan8797">une seule.</tspan></text>
    <text
       id="text4246-4-2-7-3-6-7-6-6-4-5-1"
       y="2340.3459"
       x="1798.8441"
       style="font-style:normal;font-variant:normal;font-weight:normal;font-stretch:normal;line-height:0%;font-family:Lavi;-inkscape-font-specification:Lavi;text-align:center;letter-spacing:0px;word-spacing:0px;text-anchor:middle;fill:#000000;fill-opacity:1;stroke:none"
       xml:space="preserve"><tspan
         y="2340.3459"
         x="1798.8441"
         style="font-size:45px;line-height:1.25;fill:#000000"
         sodipodi:role="line"
         id="tspan186800-2">Vraiment ?</tspan></text>
    <text
       id="text4246-4-2-7-3-6-7-6-6-4-5-1-6"
       y="2351.8303"
       x="2202.064"
       style="font-style:normal;font-variant:normal;font-weight:normal;font-stretch:normal;font-size:39px;line-height:0%;font-family:Lavi;-inkscape-font-specification:Lavi;text-align:center;letter-spacing:0px;word-spacing:0px;text-anchor:middle;fill:#000000;fill-opacity:1;stroke:none"
       xml:space="preserve"><tspan
         y="2351.8303"
         x="2202.064"
         style="font-size:39px;line-height:1.25;fill:#000000"
         sodipodi:role="line"
         id="tspan186800-2-1">Oui vraiment,</tspan><tspan
         y="2400.5803"
         x="2202.064"
         style="font-size:39px;line-height:1.25;fill:#000000"
         sodipodi:role="line"
         id="tspan201029">hahaha !</tspan></text>
    <text
       id="text4246-4-2-7-3-6-7-6-6-4-5-1-6-5"
       y="2903.6599"
       x="2194.6721"
       style="font-style:normal;font-variant:normal;font-weight:normal;font-stretch:normal;font-size:42.5063px;line-height:0%;font-family:Lavi;-inkscape-font-specification:Lavi;text-align:center;letter-spacing:0px;word-spacing:0px;text-anchor:middle;fill:#000000;fill-opacity:1;stroke:none;stroke-width:1.0899"
       xml:space="preserve"><tspan
         y="2903.6599"
         x="2194.6721"
         style="font-size:42.5063px;line-height:1.25;fill:#000000;stroke-width:1.0899"
         sodipodi:role="line"
         id="tspan201029-4">Hihihi !</tspan></text>
    <text
       id="text4246-4-2-7-3-6-7-6-6-4-5-1-6-5-7"
       y="2989.4729"
       x="2197.3003"
       style="font-style:normal;font-variant:normal;font-weight:normal;font-stretch:normal;font-size:39px;line-height:0%;font-family:Lavi;-inkscape-font-specification:Lavi;text-align:center;letter-spacing:0px;word-spacing:0px;text-anchor:middle;fill:#000000;fill-opacity:1;stroke:none"
       xml:space="preserve"><tspan
         y="2989.4729"
         x="2197.3003"
         style="font-size:39px;line-height:1.25;fill:#000000"
         sodipodi:role="line"
         id="tspan201029-4-6">Elle est vraiment</tspan><tspan
         y="3038.2229"
         x="2197.3003"
         style="font-size:39px;line-height:1.25;fill:#000000"
         sodipodi:role="line"
         id="tspan215195">parano...</tspan></text>
  </g>
</svg>
