<?xml version="1.0" encoding="UTF-8" standalone="no"?>
<!-- Created with Inkscape (http://www.inkscape.org/) -->

<svg
   xmlns:dc="http://purl.org/dc/elements/1.1/"
   xmlns:cc="http://creativecommons.org/ns#"
   xmlns:rdf="http://www.w3.org/1999/02/22-rdf-syntax-ns#"
   xmlns:svg="http://www.w3.org/2000/svg"
   xmlns="http://www.w3.org/2000/svg"
   xmlns:xlink="http://www.w3.org/1999/xlink"
   xmlns:sodipodi="http://sodipodi.sourceforge.net/DTD/sodipodi-0.dtd"
   xmlns:inkscape="http://www.inkscape.org/namespaces/inkscape"
   id="svg2"
   version="1.1"
   inkscape:version="0.91 r"
   width="2481"
   height="3503"
   sodipodi:docname="Pepper-and-Carrot_by-David-Revoy_E13P06.svg">
  <metadata
     id="metadata8">
    <rdf:RDF>
      <cc:Work
         rdf:about="">
        <dc:format>image/svg+xml</dc:format>
        <dc:type
           rdf:resource="http://purl.org/dc/dcmitype/StillImage" />
        <dc:title />
      </cc:Work>
    </rdf:RDF>
  </metadata>
  <defs
     id="defs6">
    <filter
       style="color-interpolation-filters:sRGB"
       id="filter4375-5-4-9"
       inkscape:label="deevad outline effect">
      <feFlood
         id="feFlood4377-0-3-0"
         flood-opacity="1"
         flood-color="rgb(255,255,255)"
         result="flood" />
      <feComposite
         id="feComposite4379-6-6-2"
         in2="SourceGraphic"
         in="flood"
         operator="in"
         result="composite1" />
      <feMorphology
         id="feMorphology4393-0-9-2"
         operator="dilate"
         radius="4"
         result="result3" />
      <feComposite
         id="feComposite4385-7-5-85"
         in2="result3"
         in="SourceGraphic"
         operator="over"
         result="composite2" />
    </filter>
    <filter
       style="color-interpolation-filters:sRGB"
       id="filter4375-5-4-9-2"
       inkscape:label="deevad outline effect">
      <feFlood
         id="feFlood4377-0-3-0-0"
         flood-opacity="1"
         flood-color="rgb(255,255,255)"
         result="flood" />
      <feComposite
         id="feComposite4379-6-6-2-2"
         in2="SourceGraphic"
         in="flood"
         operator="in"
         result="composite1" />
      <feMorphology
         id="feMorphology4393-0-9-2-0"
         operator="dilate"
         radius="4"
         result="result3" />
      <feComposite
         id="feComposite4385-7-5-85-7"
         in2="result3"
         in="SourceGraphic"
         operator="over"
         result="composite2" />
    </filter>
    <filter
       style="color-interpolation-filters:sRGB"
       id="filter4375-5-4-9-3"
       inkscape:label="deevad outline effect">
      <feFlood
         id="feFlood4377-0-3-0-1"
         flood-opacity="1"
         flood-color="rgb(255,255,255)"
         result="flood" />
      <feComposite
         id="feComposite4379-6-6-2-26"
         in2="SourceGraphic"
         in="flood"
         operator="in"
         result="composite1" />
      <feMorphology
         id="feMorphology4393-0-9-2-8"
         operator="dilate"
         radius="4"
         result="result3" />
      <feComposite
         id="feComposite4385-7-5-85-2"
         in2="result3"
         in="SourceGraphic"
         operator="over"
         result="composite2" />
    </filter>
    <filter
       inkscape:collect="always"
       style="color-interpolation-filters:sRGB"
       id="filter4552-8-9-4"
       x="-0.010508748"
       width="1.0210176"
       y="-0.11101427"
       height="1.2220285">
      <feGaussianBlur
         inkscape:collect="always"
         stdDeviation="1.6224608"
         id="feGaussianBlur4554-6-3-2" />
    </filter>
    <filter
       inkscape:collect="always"
       style="color-interpolation-filters:sRGB"
       id="filter4552-8-9-4-6"
       x="-0.010508748"
       width="1.0210176"
       y="-0.11101427"
       height="1.2220285">
      <feGaussianBlur
         inkscape:collect="always"
         stdDeviation="1.6224608"
         id="feGaussianBlur4554-6-3-2-2" />
    </filter>
  </defs>
  <sodipodi:namedview
     pagecolor="#ffffff"
     bordercolor="#666666"
     borderopacity="1"
     objecttolerance="10"
     gridtolerance="10"
     guidetolerance="10"
     inkscape:pageopacity="0"
     inkscape:pageshadow="2"
     inkscape:window-width="1920"
     inkscape:window-height="997"
     id="namedview4"
     showgrid="false"
     inkscape:zoom="0.82808784"
     inkscape:cx="1803.5268"
     inkscape:cy="1926.9984"
     inkscape:window-x="-5"
     inkscape:window-y="-10"
     inkscape:window-maximized="1"
     inkscape:current-layer="layer1" />
  <g
     inkscape:groupmode="layer"
     id="layer2"
     inkscape:label="artwork"
     sodipodi:insensitive="true">
    <image
       sodipodi:absref="/home/ruben/Documents/pepperandcarrot/peppercarrot_ep13_translation/nl/../gfx_Pepper-and-Carrot_by-David-Revoy_E13P06.png"
       xlink:href="../gfx_Pepper-and-Carrot_by-David-Revoy_E13P06.png"
       y="0"
       x="0"
       id="image10"
       height="3503"
       width="2481" />
  </g>
  <g
     inkscape:groupmode="layer"
     id="layer3"
     inkscape:label="speechbubbles" />
  <g
     inkscape:groupmode="layer"
     id="layer1"
     inkscape:label="txt">
    <path
       style="color:#000000;display:inline;overflow:visible;visibility:visible;fill:#ffffff;fill-opacity:1;fill-rule:nonzero;stroke:none;stroke-width:1px;marker:none;enable-background:accumulate"
       d="m 1876.9906,1742.7575 c -69.1064,15.4775 -126.2741,90.7678 -64.3829,148.0837 -44.4695,-72.6711 41.253,-110.6276 82.0461,-113.5987 25.7518,0.6306 -17.6632,-34.485 -17.6632,-34.485 z"
       id="path3978"
       inkscape:connector-curvature="0"
       sodipodi:nodetypes="cccc" />
    <text
       xml:space="preserve"
       style="color:#000000;font-style:normal;font-variant:normal;font-weight:normal;font-stretch:normal;font-size:47.00374985px;line-height:125%;font-family:Lavi;-inkscape-font-specification:'Lavi, Normal';text-align:center;letter-spacing:0px;word-spacing:0px;writing-mode:lr-tb;text-anchor:middle;clip-rule:nonzero;display:inline;overflow:visible;visibility:visible;opacity:1;isolation:auto;mix-blend-mode:normal;color-interpolation:sRGB;color-interpolation-filters:linearRGB;solid-color:#000000;solid-opacity:1;fill:#000000;fill-opacity:1;fill-rule:nonzero;stroke:#000000;stroke-width:0.90000004;stroke-linecap:butt;stroke-linejoin:miter;stroke-miterlimit:4;stroke-dasharray:none;stroke-dashoffset:0;stroke-opacity:1;filter:url(#filter4375-5-4-9);color-rendering:auto;image-rendering:auto;shape-rendering:auto;text-rendering:auto;enable-background:accumulate"
       x="1367.1063"
       y="691.71692"
       id="text4136"
       sodipodi:linespacing="125%"
       transform="matrix(0.6322045,0.15033006,0,0.79645319,201.11125,-80.537932)"><tspan
         sodipodi:role="line"
         id="tspan4138"
         x="1367.1063"
         y="691.71692">Plof</tspan></text>
    <flowRoot
       xml:space="preserve"
       id="flowRoot2987-4-9-3-6-3-8-7-2-7-2"
       style="font-style:normal;font-variant:normal;font-weight:normal;font-stretch:normal;font-size:6.55119371px;line-height:125%;font-family:Lavi;-inkscape-font-specification:Lavi;text-align:end;letter-spacing:0px;word-spacing:0px;text-anchor:end;opacity:1;fill:#ffffff;fill-opacity:1;stroke:none"
       transform="translate(640.35513,3351.8198)"><flowRegion
         id="flowRegion2989-5-4-5-5-3-0-6-76-8-1"><rect
           id="rect2991-7-9-6-21-9-8-0-3-1-7"
           width="1283.3873"
           height="39.502567"
           x="-69.735092"
           y="-2.5750711"
           style="font-style:normal;font-variant:normal;font-weight:normal;font-stretch:normal;font-family:Lavi;-inkscape-font-specification:Lavi;text-align:end;text-anchor:end;fill:#ffffff;fill-opacity:1" /></flowRegion><flowPara
         style="font-size:32.97025299px;text-align:end;text-anchor:end;fill:#ffffff;fill-opacity:1"
         id="flowPara3272-6-3-1">11/2015 - Tekeningen &amp; verhaal: David Revoy - Vertaling: Midgard &amp; Willem Sonke</flowPara></flowRoot>    <path
       style="color:#000000;display:inline;overflow:visible;visibility:visible;fill:#ffffff;fill-opacity:1;fill-rule:nonzero;stroke:none;stroke-width:1px;marker:none;enable-background:accumulate"
       d="m 1783.7878,1445.7415 c 30.6542,-19.1771 249.3019,-37.5451 311.3639,11.7604 51.8025,41.1542 48.4785,121.7792 1.0351,152.0808 -48.3346,30.8707 -232.5301,19.9673 -303.7224,5.1838 -67.0405,-13.9213 -65.8275,-47.5701 -63.999,-106.2214 0.7463,-23.9376 24.6683,-43.6266 55.3224,-62.8036 z"
       id="path4040-4-5-3"
       inkscape:connector-curvature="0"
       sodipodi:nodetypes="zssssz" />
    <text
       sodipodi:linespacing="125%"
       id="text4178"
       y="1489.9739"
       x="1936.7001"
       style="font-style:normal;font-variant:normal;font-weight:normal;font-stretch:normal;font-size:9.76241112px;line-height:125%;font-family:Lavi;-inkscape-font-specification:Lavi;text-align:center;letter-spacing:0px;word-spacing:0px;text-anchor:middle;fill:#000000;fill-opacity:1;stroke:none"
       xml:space="preserve"><tspan
         y="1489.9739"
         x="1936.7001"
         style="font-size:40.67671585px"
         sodipodi:role="line"
         id="tspan4245">Ik weet dat je</tspan><tspan
         y="1540.8198"
         x="1936.7001"
         style="font-size:40.67671585px"
         sodipodi:role="line"
         id="tspan4196">me alleen maar</tspan><tspan
         y="1591.6656"
         x="1936.7001"
         style="font-size:40.67671585px"
         sodipodi:role="line"
         id="tspan4198">wil beschermen...</tspan></text>
    <path
       style="color:#000000;display:inline;overflow:visible;visibility:visible;fill:#ffffff;fill-opacity:1;fill-rule:nonzero;stroke:none;stroke-width:1px;marker:none;enable-background:accumulate"
       d="m 1689.5868,1304.0854 c 27.0941,-15.8548 220.349,-31.0409 275.2033,9.723 45.7863,34.0249 42.8484,100.6827 0.9148,125.735 -42.721,25.5227 -205.5249,16.5082 -268.4491,4.2856 -59.2547,-11.5094 -58.1826,-39.329 -56.5664,-87.8199 0.6596,-19.7907 21.8033,-36.0689 48.8974,-51.9237 z"
       id="path4040-4-5-3-6"
       inkscape:connector-curvature="0"
       sodipodi:nodetypes="zssssz" />
    <text
       sodipodi:linespacing="125%"
       id="text4178-1"
       y="1362.6372"
       x="1824.4774"
       style="font-style:normal;font-variant:normal;font-weight:normal;font-stretch:normal;font-size:9.76241112px;line-height:125%;font-family:Lavi;-inkscape-font-specification:Lavi;text-align:center;letter-spacing:0px;word-spacing:0px;text-anchor:middle;fill:#000000;fill-opacity:1;stroke:none"
       xml:space="preserve"><tspan
         y="1362.6372"
         x="1824.4774"
         style="font-size:40.67671585px"
         sodipodi:role="line"
         id="tspan3393">Niet zo mokken,</tspan><tspan
         y="1413.4832"
         x="1824.4774"
         style="font-size:40.67671585px"
         sodipodi:role="line"
         id="tspan3394">Carrot!</tspan></text>
    <path
       style="color:#000000;display:inline;overflow:visible;visibility:visible;fill:#ffffff;fill-opacity:1;fill-rule:nonzero;stroke:none;stroke-width:1px;marker:none;enable-background:accumulate"
       d="m 1819.2475,1627.779 c 29.1106,-19.3009 236.7481,-37.7874 295.685,11.8363 49.1939,41.4199 46.0374,122.5653 0.9829,153.0626 -45.9006,31.07 -220.8208,20.0963 -288.4282,5.2173 -63.6647,-14.0112 -62.5128,-47.8772 -60.7763,-106.9071 0.7087,-24.0923 23.4261,-43.9082 52.5366,-63.2091 z"
       id="path4040-4-5-3-4"
       inkscape:connector-curvature="0"
       sodipodi:nodetypes="zssssz" />
    <text
       sodipodi:linespacing="125%"
       id="text4178-6"
       y="1674.8762"
       x="1956.7822"
       style="font-style:normal;font-variant:normal;font-weight:normal;font-stretch:normal;font-size:9.76241112px;line-height:125%;font-family:Lavi;-inkscape-font-specification:Lavi;text-align:center;letter-spacing:0px;word-spacing:0px;text-anchor:middle;fill:#000000;fill-opacity:1;stroke:none"
       xml:space="preserve"><tspan
         y="1674.8762"
         x="1956.7822"
         style="font-size:40.67671585px"
         sodipodi:role="line"
         id="tspan4245-2">... maar tijdens</tspan><tspan
         y="1725.7222"
         x="1956.7822"
         style="font-size:40.67671585px"
         sodipodi:role="line"
         id="tspan4293">een <tspan
   style="font-style:italic;font-variant:normal;font-weight:normal;font-stretch:normal;font-family:Lavi;-inkscape-font-specification:'Lavi Italic'"
   id="tspan4720">spel</tspan> hoeft</tspan><tspan
         y="1776.568"
         x="1956.7822"
         style="font-style:normal;font-variant:normal;font-weight:normal;font-stretch:normal;font-size:40.67671585px;font-family:Lavi;-inkscape-font-specification:Lavi"
         sodipodi:role="line"
         id="tspan4204">dat niet!</tspan></text>
    <text
       xml:space="preserve"
       style="color:#000000;font-style:normal;font-variant:normal;font-weight:normal;font-stretch:normal;font-size:47.00374985px;line-height:125%;font-family:Lavi;-inkscape-font-specification:'Lavi, Normal';text-align:center;letter-spacing:0px;word-spacing:0px;writing-mode:lr-tb;text-anchor:middle;clip-rule:nonzero;display:inline;overflow:visible;visibility:visible;opacity:1;isolation:auto;mix-blend-mode:normal;color-interpolation:sRGB;color-interpolation-filters:linearRGB;solid-color:#000000;solid-opacity:1;fill:#000000;fill-opacity:1;fill-rule:nonzero;stroke:#000000;stroke-width:0.90000004;stroke-linecap:butt;stroke-linejoin:miter;stroke-miterlimit:4;stroke-dasharray:none;stroke-dashoffset:0;stroke-opacity:1;filter:url(#filter4375-5-4-9-3);color-rendering:auto;image-rendering:auto;shape-rendering:auto;text-rendering:auto;enable-background:accumulate"
       x="1367.1063"
       y="691.71692"
       id="text4136-1"
       sodipodi:linespacing="125%"
       transform="matrix(0.86619653,-0.09897381,-0.04163634,1.0337332,990.71602,2420.1286)"><tspan
         sodipodi:role="line"
         id="tspan4138-8"
         x="1367.1063"
         y="691.71692">Grrrr</tspan></text>
    <text
       sodipodi:linespacing="125%"
       id="text4178-6-5-9-0-7"
       style="font-style:normal;font-variant:normal;font-weight:normal;font-stretch:normal;font-size:9.76241112px;line-height:125%;font-family:Lavi;-inkscape-font-specification:Lavi;text-align:center;letter-spacing:0px;word-spacing:0px;text-anchor:middle;opacity:0.43399999;fill:#412525;fill-opacity:1;stroke:none;filter:url(#filter4552-8-9-4)"
       xml:space="preserve"
       y="3129.8394"
       x="1318.7137"
       transform="matrix(0.79399618,0.00599505,-0.16710117,0.70250588,554.35987,930.47685)"><tspan
         y="3129.8394"
         x="1318.7137"
         style="font-style:normal;font-variant:normal;font-weight:normal;font-stretch:normal;font-size:40.67671585px;font-family:Fondamento;-inkscape-font-specification:Fondamento;fill:#412525;fill-opacity:1"
         sodipodi:role="line"
         id="tspan4293-1-6-3-5">Torens &amp; Feniksen</tspan></text>
    <use
       x="0"
       y="0"
       xlink:href="#text4178-6-5-9-0-7"
       id="use4664"
       transform="matrix(-0.08333857,0.4312511,-1.1395718,0.00256786,4637.5155,2372.8565)"
       width="100%"
       height="100%" />
    <use
       x="0"
       y="0"
       xlink:href="#text4178-6-5-9-0-7"
       id="use4690"
       transform="matrix(-0.84929227,0.00764673,-0.00836177,-0.77666632,2281.8716,5194.945)"
       width="100%"
       height="100%" />
    <use
       x="0"
       y="0"
       xlink:href="#use4664"
       id="use4692"
       transform="matrix(-0.77125805,0.77789429,-1.1459847,-0.83284157,5569.8628,4567.7195)"
       width="100%"
       height="100%" />
    <use
       x="0"
       y="0"
       xlink:href="#use4664"
       id="use4694"
       transform="matrix(0.2413678,0.96175958,-1.2866298,0.18042315,4661.393,754.64422)"
       width="100%"
       height="100%" />
    <text
       sodipodi:linespacing="125%"
       id="text4178-6-5-9-0-7-0"
       style="font-style:normal;font-variant:normal;font-weight:normal;font-stretch:normal;font-size:9.76241112px;line-height:125%;font-family:Lavi;-inkscape-font-specification:Lavi;text-align:center;letter-spacing:0px;word-spacing:0px;text-anchor:middle;opacity:0.43399999;fill:#28220b;fill-opacity:1;stroke:none;filter:url(#filter4552-8-9-4-6)"
       xml:space="preserve"
       y="3129.8394"
       x="1318.7137"
       transform="matrix(0.79298761,0.00753598,0.0219157,0.88307326,108.80567,-1534.6899)"><tspan
         y="3129.8394"
         x="1318.7137"
         style="font-style:normal;font-variant:normal;font-weight:normal;font-stretch:normal;font-size:40.67671585px;font-family:Fondamento;-inkscape-font-specification:Fondamento;fill:#28220b;fill-opacity:1"
         sodipodi:role="line"
         id="tspan4293-1-6-3-5-4">Prinses Koriander</tspan></text>
<text
       xml:space="preserve"
       style="font-style:normal;font-variant:normal;font-weight:normal;font-stretch:normal;line-height:0%;font-family:Lavi;-inkscape-font-specification:Lavi;text-align:center;letter-spacing:0px;word-spacing:0px;text-anchor:middle;fill:#000000;fill-opacity:1;stroke:#000000;stroke-width:3.82173;stroke-miterlimit:4;stroke-dasharray:none;stroke-opacity:1"
       x="2059.5447"
       y="2616.4343"
       id="text4213"
       transform="matrix(0.75304346,0,-0.11971288,1.3279446,0,0)"><tspan
         sodipodi:role="line"
         id="tspan4215"
         x="2059.5447"
         y="2616.4343"
         style="font-size:63.5518px;line-height:1.25;stroke-width:3.82173;stroke-miterlimit:4;stroke-dasharray:none">- EINDE -</tspan></text>
    <text
       transform="matrix(0.28748374,0.14909896,-0.65903124,0.26591764,3002.6373,1539.8144)"
       x="1318.7137"
       y="3129.8394"
       xml:space="preserve"
       style="font-style:normal;font-variant:normal;font-weight:normal;font-stretch:normal;line-height:0%;font-family:Lavi;-inkscape-font-specification:Lavi;text-align:center;letter-spacing:0px;word-spacing:0px;text-anchor:middle;opacity:0.434;fill:#412525;fill-opacity:1;stroke:none;filter:url(#filter4552-8-9-4)"
       id="text4208"><tspan
         id="tspan4210"
         sodipodi:role="line"
         style="font-style:normal;font-variant:normal;font-weight:normal;font-stretch:normal;font-size:40.6767px;line-height:1.25;font-family:Fondamento;-inkscape-font-specification:Fondamento;fill:#412525;fill-opacity:1"
         x="1318.7137"
         y="3129.8394">Torens &amp; Feniksen</tspan></text>
  </g>
  <g
     inkscape:groupmode="layer"
     id="layer4"
     inkscape:label="translatornotes"
     sodipodi:insensitive="true">
    <path
       style="color:#000000;clip-rule:nonzero;display:inline;overflow:visible;visibility:visible;opacity:0.481;isolation:auto;mix-blend-mode:normal;color-interpolation:sRGB;color-interpolation-filters:linearRGB;solid-color:#000000;solid-opacity:1;fill:#ffe680;fill-opacity:1;fill-rule:nonzero;stroke:#565656;stroke-width:1.2;stroke-linecap:butt;stroke-linejoin:miter;stroke-miterlimit:4;stroke-dasharray:none;stroke-dashoffset:0;stroke-opacity:1;marker:none;color-rendering:auto;image-rendering:auto;shape-rendering:auto;text-rendering:auto;enable-background:accumulate"
       d="m 2869.1119,2666.8499 0.031,-189.0352 h -304.7581 v 90.9805 h -10 v -15.6308 l -30.9824,26.9824 30.9824,26.9804 v -16.6171 h 10 v 76.3398 z"
       id="rect4191-6"
       inkscape:connector-curvature="0"
       sodipodi:nodetypes="cccccccccccc" />
    <path
       inkscape:connector-curvature="0"
       id="path3446"
       d="m 2783.3764,3192.9784 0.05,-123.1118 h -219.0416 v 51.414 h -10 v -15.6308 l -30.9824,26.9824 30.9824,26.9804 v -16.6171 h 10 v 49.9425 z"
       style="color:#000000;clip-rule:nonzero;display:inline;overflow:visible;visibility:visible;opacity:0.481;isolation:auto;mix-blend-mode:normal;color-interpolation:sRGB;color-interpolation-filters:linearRGB;solid-color:#000000;solid-opacity:1;fill:#ffe680;fill-opacity:1;fill-rule:nonzero;stroke:#565656;stroke-width:1.2;stroke-linecap:butt;stroke-linejoin:miter;stroke-miterlimit:4;stroke-dasharray:none;stroke-dashoffset:0;stroke-opacity:1;marker:none;color-rendering:auto;image-rendering:auto;shape-rendering:auto;text-rendering:auto;enable-background:accumulate"
       sodipodi:nodetypes="cccccccccccc" />
    <g
       id="hidden775"
       transform="translate(0.71529609,2.0802066)">
      <text
         xml:space="preserve"
         x="2673.2529"
         y="3104.3228"
         id="tspan500"
         inkscape:label="hidden775-1"
         style="font-style:normal;font-variant:normal;font-weight:normal;font-stretch:normal;font-size:25.3333px;font-family:Lavi;-inkscape-font-specification:Lavi;text-align:center;text-anchor:middle;fill:#000000;fill-opacity:0.48">The other one is</text>
      <text
         xml:space="preserve"
         x="2674.8276"
         y="3138.1768"
         id="tspan500-5"
         inkscape:label="hidden775-2"
         style="font-style:normal;font-variant:normal;font-weight:normal;font-stretch:normal;font-size:25.3333px;font-family:Lavi;-inkscape-font-specification:Lavi;text-align:center;text-anchor:middle;fill:#000000;fill-opacity:0.48">at the bottom of</text>
      <text
         xml:space="preserve"
         x="2678.3032"
         y="3171.2534"
         id="tspan500-1"
         inkscape:label="hidden775-3"
         style="font-style:normal;font-variant:normal;font-weight:normal;font-stretch:normal;font-size:25.3333px;font-family:Lavi;-inkscape-font-specification:Lavi;text-align:center;text-anchor:middle;fill:#000000;fill-opacity:0.48">the game board.</text>
    </g>
    <g
       id="hidden752">
      <text
         xml:space="preserve"
         x="2717.1084"
         y="2513.7415"
         id="text775"
         inkscape:label="hidden752-1"
         style="font-style:normal;font-variant:normal;font-weight:normal;font-stretch:normal;font-size:25.3333px;font-family:Lavi;-inkscape-font-specification:Lavi;text-align:center;text-anchor:middle;fill:#000000;fill-opacity:0.48">If you wish to translate</text>
      <text
         xml:space="preserve"
         x="2719.0498"
         y="2548.2856"
         id="text775-2"
         inkscape:label="hidden752-2"
         style="font-style:normal;font-variant:normal;font-weight:normal;font-stretch:normal;font-size:25.3333px;font-family:Lavi;-inkscape-font-specification:Lavi;text-align:center;text-anchor:middle;fill:#000000;fill-opacity:0.48">&quot;Citadels &amp; Phoenixes&quot;,</text>
      <text
         xml:space="preserve"
         x="2721.8564"
         y="2580.3147"
         id="text775-3"
         inkscape:label="hidden752-3"
         style="font-style:normal;font-variant:normal;font-weight:normal;font-stretch:normal;font-size:25.3333px;font-family:Lavi;-inkscape-font-specification:Lavi;text-align:center;text-anchor:middle;fill:#000000;fill-opacity:0.48">there are 2 text entries,</text>
      <text
         xml:space="preserve"
         x="2717.8718"
         y="2612.3584"
         id="text775-6"
         inkscape:label="hidden752-4"
         style="font-style:normal;font-variant:normal;font-weight:normal;font-stretch:normal;font-size:25.3333px;font-family:Lavi;-inkscape-font-specification:Lavi;text-align:center;text-anchor:middle;fill:#000000;fill-opacity:0.48">one of which is on the</text>
      <text
         xml:space="preserve"
         x="2720.1343"
         y="2642.4993"
         id="text775-0"
         inkscape:label="hidden752-5"
         style="font-style:normal;font-variant:normal;font-weight:normal;font-stretch:normal;font-size:25.3333px;font-family:Lavi;-inkscape-font-specification:Lavi;text-align:center;text-anchor:middle;fill:#000000;fill-opacity:0.48">book with the dice on it.</text>
    </g>
  </g>
</svg>
