<?xml version="1.0" encoding="UTF-8" standalone="no"?>
<!-- Created with Inkscape (http://www.inkscape.org/) -->

<svg
   xmlns:dc="http://purl.org/dc/elements/1.1/"
   xmlns:cc="http://creativecommons.org/ns#"
   xmlns:rdf="http://www.w3.org/1999/02/22-rdf-syntax-ns#"
   xmlns:svg="http://www.w3.org/2000/svg"
   xmlns="http://www.w3.org/2000/svg"
   xmlns:xlink="http://www.w3.org/1999/xlink"
   xmlns:sodipodi="http://sodipodi.sourceforge.net/DTD/sodipodi-0.dtd"
   xmlns:inkscape="http://www.inkscape.org/namespaces/inkscape"
   id="svg2"
   version="1.1"
   inkscape:version="0.92.2 2405546, 2018-03-11"
   width="2481"
   height="3503"
   sodipodi:docname="E13P01.svg">
  <metadata
     id="metadata8">
    <rdf:RDF>
      <cc:Work
         rdf:about="">
        <dc:format>image/svg+xml</dc:format>
        <dc:type
           rdf:resource="http://purl.org/dc/dcmitype/StillImage" />
        <dc:title></dc:title>
      </cc:Work>
    </rdf:RDF>
  </metadata>
  <defs
     id="defs6" />
  <sodipodi:namedview
     pagecolor="#ffffff"
     bordercolor="#666666"
     borderopacity="1"
     objecttolerance="10"
     gridtolerance="10"
     guidetolerance="10"
     inkscape:pageopacity="0"
     inkscape:pageshadow="2"
     inkscape:window-width="1920"
     inkscape:window-height="1033"
     id="namedview4"
     showgrid="false"
     inkscape:zoom="0.98380075"
     inkscape:cx="1960.219"
     inkscape:cy="266.05638"
     inkscape:window-x="0"
     inkscape:window-y="47"
     inkscape:window-maximized="0"
     inkscape:current-layer="layer1" />
  <g
     inkscape:groupmode="layer"
     id="layer2"
     inkscape:label="artwork"
     sodipodi:insensitive="true">
    <image
       sodipodi:absref="/home/midgard/git/peppercarrot/comics/ep13_The-Pyjama-Party/lang/ca/../gfx_Pepper-and-Carrot_by-David-Revoy_E13P01.png"
       xlink:href="../gfx_Pepper-and-Carrot_by-David-Revoy_E13P01.png"
       y="0"
       x="0"
       id="image10"
       height="3503"
       width="2481" />
  </g>
  <g
     inkscape:groupmode="layer"
     id="layer3"
     inkscape:label="speechbubbles" />
  <g
     inkscape:groupmode="layer"
     id="layer1"
     inkscape:label="txt">
    <path
       style="fill:#ffffff;fill-opacity:1;stroke:none"
       d="M 717.80334,774.26331 C 728.56619,715.8626 659.86577,714.5295 531.01621,710.7578 c -123.15479,-3.6049 -147.59936,9.0774 -164.20957,33.63651 -19.17918,28.3574 -25.58937,73.8614 72.62101,88.2487 78.08081,11.4386 216.48911,0.6814 234.20072,-11.7527 17.7116,-12.4341 38.78082,-15.271 44.17497,-46.627 z"
       id="path3238-1-6"
       inkscape:connector-curvature="0"
       sodipodi:nodetypes="cssssc" />
    <path
       style="fill:#ffffff;fill-opacity:1;stroke:none;stroke-width:1"
       d="m 718.4821,1112.0514 c 9.99697,-58.4007 -53.81477,-59.7338 -173.49548,-63.5055 -114.39117,-3.6049 -137.09629,9.0774 -152.52452,33.6365 -17.81441,28.3574 -23.76845,73.8614 67.45334,88.2487 72.52463,11.4386 201.08389,0.6814 217.53515,-11.7527 16.45126,-12.4341 36.0212,-15.271 41.03151,-46.627 z"
       id="path3238-1"
       inkscape:connector-curvature="0"
       sodipodi:nodetypes="cssssc" />
    <path
       style="fill:#ffffff;stroke:none"
       d="m 1939.3021,3342.7061 c -11.8428,-60.705 14.1447,-111.7226 31.4351,-124.7524 17.2904,-13.0298 47.3042,-29.2892 62.426,-32.5799 15.1219,-3.2908 255.5699,-18.1391 270.1452,-10.7639 14.5753,7.3751 80.0033,33.7889 95.2917,71.1652 15.2884,37.3762 36.5293,146.43 17.8469,168.2106 -18.6825,21.7805 -66.9939,9.5917 -176.3899,18.1921 -109.3959,8.6005 -240.7979,8.8568 -273.0597,-34.9815 -18.1875,-24.7135 -27.6953,-54.4902 -27.6953,-54.4902 z"
       id="path3286"
       inkscape:connector-curvature="0"
       sodipodi:nodetypes="csssssssc" />
    <path
       style="color:#000000;display:inline;overflow:visible;visibility:visible;fill:#ffffff;fill-opacity:1;fill-rule:nonzero;stroke:none;stroke-width:1px;marker:none;enable-background:accumulate"
       d="m 2065.3434,2908.9931 c 59.1369,57.7184 84.0546,81.7232 70.3501,131.5639 -13.7043,49.8409 29.5777,21.853 29.5777,21.853 0,0 27.6302,-106.7588 -99.9278,-153.4169 z"
       id="path3984"
       inkscape:connector-curvature="0"
       sodipodi:nodetypes="cscc" />
    <path
       style="color:#000000;display:inline;overflow:visible;visibility:visible;fill:#ffffff;fill-opacity:1;fill-rule:nonzero;stroke:none;stroke-width:1px;marker:none;enable-background:accumulate"
       d="m 2055.1585,3103.6103 c 1.3315,-46.32 32.0703,-75.9866 64.4897,-82.7192 33.2834,-6.9121 50.6197,-4.2443 59.862,-1.7237 9.2423,2.5207 80.9067,-3.4882 108.4887,0.7807 26.5543,4.11 66.2758,30.7279 63.7551,89.9638 -2.5207,59.236 -40.3304,84.4428 -78.9802,88.2237 -38.65,3.7811 -108.3798,2.5308 -128.6305,1.6589 -30.0275,-1.2926 -83.1032,0.8619 -88.9848,-96.1845 z"
       id="path5034"
       inkscape:connector-curvature="0"
       sodipodi:nodetypes="cscsssscc" />
    <path
       style="fill:#ffffff;fill-opacity:1;stroke:none;stroke-width:1"
       d="m 835.45755,1445.8788 c 12.79447,-62.3885 -68.87394,-63.8126 -222.04531,-67.8419 -146.40165,-3.851 -175.46041,9.6973 -195.20599,35.9334 -22.79946,30.2937 -30.41965,78.9049 86.32906,94.2746 92.81943,12.2197 257.35387,0.7279 278.40875,-12.5552 21.05486,-13.2831 46.10114,-16.3138 52.51349,-49.8109 z"
       id="path3238"
       inkscape:connector-curvature="0"
       sodipodi:nodetypes="cssssc" />
    <path
       style="color:#000000;display:inline;overflow:visible;visibility:visible;fill:#ffffff;fill-opacity:1;fill-rule:nonzero;stroke:none;stroke-width:1px;marker:none;enable-background:accumulate"
       d="M 537.20621,747.31481 C 497.18166,1119.9729 723.58268,1848.6244 747.8049,2074.1644 760.10221,1890.5729 526.40737,1185.705 565.75742,742.84162 c -24.19123,-4.10336 -28.55121,4.47319 -28.55121,4.47319 z"
       id="path4008"
       inkscape:connector-curvature="0"
       sodipodi:nodetypes="cccc" />
    <text
       xml:space="preserve"
       style="color:#000000;font-style:normal;font-variant:normal;font-weight:normal;font-stretch:normal;line-height:0%;font-family:Lavi;-inkscape-font-specification:Lavi;text-indent:0;text-align:center;text-decoration:none;text-decoration-line:none;letter-spacing:0px;word-spacing:0px;text-transform:none;writing-mode:lr-tb;direction:ltr;baseline-shift:baseline;text-anchor:middle;display:inline;overflow:visible;visibility:visible;fill:#000000;fill-opacity:1;fill-rule:nonzero;stroke:none;enable-background:accumulate"
       x="2203.332"
       y="3089.4229"
       id="text4159"><tspan
         sodipodi:role="line"
         x="2203.332"
         y="3089.4229"
         id="tspan4181"
         style="font-size:45px;line-height:1.25">És una</tspan><tspan
         sodipodi:role="line"
         x="2203.332"
         y="3145.6729"
         id="tspan3034"
         style="font-size:45px;line-height:1.25">passada!</tspan></text>
    <text
       xml:space="preserve"
       style="font-style:normal;font-variant:normal;font-weight:normal;font-stretch:normal;line-height:0%;font-family:Lavi;-inkscape-font-specification:'Lavi, Normal';text-align:center;letter-spacing:0px;word-spacing:0px;writing-mode:lr-tb;text-anchor:middle;fill:#000000;fill-opacity:1;stroke:none;stroke-width:1px;stroke-linecap:butt;stroke-linejoin:miter;stroke-opacity:1"
       x="2232.5"
       y="3110.5"
       id="text4169"><tspan
         sodipodi:role="line"
         id="tspan4171"
         x="2240.7625"
         y="3110.5"
         style="font-size:47.00374985px;line-height:1.25"> </tspan><tspan
         sodipodi:role="line"
         x="2240.7625"
         y="3169.2546"
         id="tspan4173"
         style="font-size:47.00374985px;line-height:1.25"> </tspan></text>
    <text
       xml:space="preserve"
       style="color:#000000;font-style:normal;font-variant:normal;font-weight:normal;font-stretch:normal;line-height:0%;font-family:Lavi;-inkscape-font-specification:Lavi;text-indent:0;text-align:center;text-decoration:none;text-decoration-line:none;letter-spacing:0px;word-spacing:0px;text-transform:none;writing-mode:lr-tb;direction:ltr;baseline-shift:baseline;text-anchor:middle;display:inline;overflow:visible;visibility:visible;fill:#000000;fill-opacity:1;fill-rule:nonzero;stroke:none;enable-background:accumulate"
       x="2163.6572"
       y="3256.2129"
       id="text4177"><tspan
         sodipodi:role="line"
         x="2163.6572"
         y="3256.2129"
         id="tspan4179"
         style="font-size:45px;line-height:1.25">Gràcies per</tspan><tspan
         sodipodi:role="line"
         x="2163.6572"
         y="3312.4629"
         id="tspan3022"
         style="font-size:45px;line-height:1.25">convidar-nos a casa</tspan><tspan
         sodipodi:role="line"
         x="2163.6572"
         y="3368.7129"
         id="tspan3024"
         style="font-size:45px;line-height:1.25">teva Coriandre!</tspan></text>
    <text
       xml:space="preserve"
       style="color:#000000;font-style:normal;font-variant:normal;font-weight:normal;font-stretch:normal;line-height:0%;font-family:Lavi;-inkscape-font-specification:Lavi;text-indent:0;text-align:center;text-decoration:none;text-decoration-line:none;letter-spacing:0px;word-spacing:0px;text-transform:none;writing-mode:lr-tb;direction:ltr;baseline-shift:baseline;text-anchor:middle;display:inline;overflow:visible;visibility:visible;fill:#000000;fill-opacity:1;fill-rule:nonzero;stroke:#000000;stroke-width:1.15539169;stroke-linecap:butt;stroke-linejoin:miter;stroke-miterlimit:4;stroke-dasharray:none;stroke-dashoffset:0;stroke-opacity:1;enable-background:accumulate"
       x="623.86108"
       y="1448.4253"
       id="text4201"
       transform="scale(0.99121654,1.0088613)"><tspan
         sodipodi:role="line"
         x="623.86108"
         y="1448.4253"
         id="tspan4183"
         style="font-size:47.26602173px;line-height:1.25;stroke-width:1.15539169">...de la Història!</tspan></text>
    <text
       xml:space="preserve"
       style="color:#000000;font-style:normal;font-variant:normal;font-weight:normal;font-stretch:normal;line-height:0%;font-family:Lavi;-inkscape-font-specification:Lavi;text-indent:0;text-align:center;text-decoration:none;text-decoration-line:none;letter-spacing:0px;word-spacing:0px;text-transform:none;writing-mode:lr-tb;direction:ltr;baseline-shift:baseline;text-anchor:middle;display:inline;overflow:visible;visibility:visible;fill:#000000;fill-opacity:1;fill-rule:nonzero;stroke:none;enable-background:accumulate"
       x="543.26776"
       y="787.91681"
       id="text4201-8"><tspan
         sodipodi:role="line"
         x="543.26776"
         y="787.91681"
         id="tspan4183-9"
         style="font-size:45px;line-height:1.25">Les millors...</tspan></text>
    <text
       xml:space="preserve"
       style="color:#000000;font-style:normal;font-variant:normal;font-weight:normal;font-stretch:normal;line-height:0%;font-family:Lavi;-inkscape-font-specification:Lavi;text-indent:0;text-align:center;text-decoration:none;text-decoration-line:none;letter-spacing:0px;word-spacing:0px;text-transform:none;writing-mode:lr-tb;direction:ltr;baseline-shift:baseline;text-anchor:middle;display:inline;overflow:visible;visibility:visible;fill:#000000;fill-opacity:1;fill-rule:nonzero;stroke:none;enable-background:accumulate"
       x="552.08148"
       y="1121.1799"
       id="text4201-2"><tspan
         sodipodi:role="line"
         x="552.08148"
         y="1121.1799"
         id="tspan4183-92"
         style="font-size:45px;line-height:1.25">vacances...</tspan></text>
  </g>
</svg>
