<?xml version="1.0" encoding="UTF-8" standalone="no"?>
<!-- Created with Inkscape (http://www.inkscape.org/) -->

<svg
   xmlns:dc="http://purl.org/dc/elements/1.1/"
   xmlns:cc="http://creativecommons.org/ns#"
   xmlns:rdf="http://www.w3.org/1999/02/22-rdf-syntax-ns#"
   xmlns:svg="http://www.w3.org/2000/svg"
   xmlns="http://www.w3.org/2000/svg"
   xmlns:xlink="http://www.w3.org/1999/xlink"
   xmlns:sodipodi="http://sodipodi.sourceforge.net/DTD/sodipodi-0.dtd"
   xmlns:inkscape="http://www.inkscape.org/namespaces/inkscape"
   id="svg2"
   version="1.1"
   inkscape:version="0.92.4 5da689c313, 2019-01-14"
   width="2481"
   height="3503"
   sodipodi:docname="E28P05.svg">
  <metadata
     id="metadata8">
    <rdf:RDF>
      <cc:Work
         rdf:about="">
        <dc:format>image/svg+xml</dc:format>
        <dc:type
           rdf:resource="http://purl.org/dc/dcmitype/StillImage" />
        <dc:title />
      </cc:Work>
    </rdf:RDF>
  </metadata>
  <defs
     id="defs6" />
  <sodipodi:namedview
     pagecolor="#ffffff"
     bordercolor="#666666"
     borderopacity="1"
     objecttolerance="10"
     gridtolerance="10"
     guidetolerance="10"
     inkscape:pageopacity="0"
     inkscape:pageshadow="2"
     inkscape:window-width="1366"
     inkscape:window-height="713"
     id="namedview4"
     showgrid="false"
     inkscape:zoom="0.36415091"
     inkscape:cx="1242.8808"
     inkscape:cy="2813.6924"
     inkscape:window-x="0"
     inkscape:window-y="27"
     inkscape:window-maximized="1"
     inkscape:current-layer="layer1" />
  <g
     inkscape:groupmode="layer"
     id="layer2"
     inkscape:label="artwork"
     sodipodi:insensitive="true">
    <image
       sodipodi:absref="/home/midgard/git/peppercarrot/comics/ep28_The-Festivities/lang/es/../gfx_Pepper-and-Carrot_by-David-Revoy_E28P05.png"
       xlink:href="../gfx_Pepper-and-Carrot_by-David-Revoy_E28P05.png"
       width="2481"
       height="3503"
       id="image10"
       x="0"
       y="0" />
  </g>
  <g
     inkscape:groupmode="layer"
     id="layer3"
     inkscape:label="speechbubbles">
    <path
       style="fill:#ffffff;fill-rule:evenodd;stroke:none;stroke-width:0.95205867px;stroke-linecap:butt;stroke-linejoin:miter;stroke-opacity:1"
       d="m 166.39553,200.08993 c 26.63807,-21.603 66.2558,-32.62491 104.90589,-39.64076 36.164,-6.68404 73.84519,-6.84364 110.94386,-5.39262 47.04515,1.91405 94.6962,4.27065 140.06617,13.73884 13.87138,2.76851 26.93256,7.82249 35.55766,16.07293 36.52445,27.93762 62.97963,64.315 62.08694,102.82315 -3.67453,56.59106 -5.51275,113.25349 -10.73775,169.79139 -1.58608,18.61698 -7.77925,38.24983 -27.27419,51.93404 -22.38747,16.4459 -52.07079,27.54467 -83.702,32.47194 -50.32678,8.32538 -102.35822,11.26361 -153.99932,10.62929 -20.18369,-1.5255 -40.35758,-3.56021 -60.48228,-5.58746 -43.12284,-5.17853 -89.43488,-13.14145 -120.36036,-36.3821 -24.55424,-18.53008 -38.15118,-43.53421 -40.67634,-68.51501 0.19104,-52.53355 5.24345,-104.99175 8.57867,-157.45881 1.18916,-14.1629 0.257,-28.63582 7.48803,-42.16992 6.58449,-14.81864 15.13299,-29.40403 27.60502,-42.3149 z"
       id="path1006"
       inkscape:connector-curvature="0" />
    <path
       style="fill:#ffffff;fill-rule:evenodd;stroke:none;stroke-width:1px;stroke-linecap:butt;stroke-linejoin:miter;stroke-opacity:1"
       d="M 333.27358,346.17986 C 395.90659,299.25879 684.65819,123.37673 1012.4941,266.75583 759.55842,143.42811 491.69794,181.66189 330.00219,300.24071 Z"
       id="path1008"
       inkscape:connector-curvature="0"
       sodipodi:nodetypes="cccc" />
    <path
       style="fill:#ffffff;fill-rule:evenodd;stroke:none;stroke-width:1px;stroke-linecap:butt;stroke-linejoin:miter;stroke-opacity:1"
       d="m 1819.6761,521.16397 c 116.7092,-13.15033 182.4608,-4.93138 226.8431,52.60129 44.3824,57.53267 34.5196,90.40848 23.0131,80.54574 -11.5065,-9.86274 -23.0131,-151.22873 -249.8562,-133.14703 z"
       id="path1011"
       inkscape:connector-curvature="0" />
    <path
       style="fill:#ffffff;fill-rule:evenodd;stroke:none;stroke-width:1.02994466px;stroke-linecap:butt;stroke-linejoin:miter;stroke-opacity:1"
       d="m 2118.4599,552.39599 c 92.4167,1.64379 141.2406,13.15032 160.4214,29.58823 19.1808,16.4379 45.3364,60.82025 36.6179,87.12089 -8.7186,26.30065 -41.849,69.03921 -137.7531,65.75163 -95.9041,-3.28759 -165.6525,-19.72549 -188.3207,-52.6013 -22.6682,-32.87581 8.7186,-101.91501 45.3365,-113.42155 36.6179,-11.50653 41.8491,-14.79411 83.698,-16.4379 z"
       id="path1013"
       inkscape:connector-curvature="0" />
    <path
       style="fill:#ffffff;fill-rule:evenodd;stroke:none;stroke-width:1.05934107px;stroke-linecap:butt;stroke-linejoin:miter;stroke-opacity:1"
       d="m 1949.6301,734.25711 c 69.5901,-49.31372 154.1037,-46.02614 176.7205,-42.73856 22.6167,3.28759 79.3284,8.29912 121.6778,11.50654 19.582,1.48309 91.3762,32.97559 96.5256,87.12089 3.1189,32.79479 0,65.75163 -48.7131,78.90195 -48.7131,13.15032 -120.3576,13.15032 -181.2491,11.50653 -60.8913,-1.64379 -130.1667,0 -166.7014,-29.58823 -36.5349,-29.58823 -46.9734,-70.68299 1.7397,-116.70912 z"
       id="path1015"
       inkscape:connector-curvature="0"
       sodipodi:nodetypes="cssssssc" />
    <path
       style="fill:#ffffff;fill-rule:evenodd;stroke:none;stroke-width:0.93487012px;stroke-linecap:butt;stroke-linejoin:miter;stroke-opacity:1"
       d="m 317.25674,1071.6194 c 78.70309,1.0757 141.16585,1.0757 158.65542,11.8329 17.48958,10.7572 51.21947,35.4987 52.46872,59.1644 1.24926,23.6658 -3.64815,110.457 -24.98509,128.7291 -21.33695,18.2722 -59.51886,32.8899 -97.70076,38.9806 -38.18191,6.0907 -138.4085,6.0907 -167.14137,0 -28.73287,-6.0907 -78.70308,-26.7991 -84.94936,-47.5076 -6.24628,-20.7085 -8.74479,-116.9749 -1.24925,-135.2621 7.49553,-18.2872 43.72393,-40.8772 79.95233,-47.3315 36.2284,-6.4543 84.94936,-8.6058 84.94936,-8.6058 z"
       id="path1017"
       inkscape:connector-curvature="0"
       sodipodi:nodetypes="ccscsssssc" />
    <path
       style="fill:#ffffff;fill-rule:evenodd;stroke:none;stroke-width:1px;stroke-linecap:butt;stroke-linejoin:miter;stroke-opacity:1"
       d="m 464.5495,1496.1462 c 57.17532,-75.7573 57.17532,-148.6559 4.28815,-244.4245 -52.88717,-95.7687 -80.04545,-97.1981 -80.04545,-97.1981 l -4.28815,52.8872 c 0,0 168.6672,128.6445 80.04545,288.7354 z"
       id="path1019"
       inkscape:connector-curvature="0" />
    <path
       style="fill:#ffffff;fill-rule:evenodd;stroke:none;stroke-width:0.89105588px;stroke-linecap:butt;stroke-linejoin:miter;stroke-opacity:1"
       d="m 1978.1599,1181.6164 c -2.6683,-54.1268 66.7264,-99.5753 157.8793,-99.9637 91.1528,-0.3882 162.6489,44.5795 162.1487,100.4827 0,26.7803 -8.3161,80.7539 -125.5238,81.0256 -117.2076,0.2718 -189.5846,-14.7742 -194.5042,-81.5446 z"
       id="path1021"
       inkscape:connector-curvature="0"
       sodipodi:nodetypes="cccsc" />
    <path
       style="fill:#ffffff;fill-rule:evenodd;stroke:none;stroke-width:1px;stroke-linecap:butt;stroke-linejoin:miter;stroke-opacity:1"
       d="m 2223.4008,1243.0202 c 9.6724,22.1135 -3.7615,81.471 -16.6581,91.9459 -8.9785,11.3235 4.9225,16.0942 9.6724,15.1304 4.2989,-2.9097 37.6151,-18.04 42.9887,-9.3111 5.3736,8.7291 -48.8996,51.2105 -42.9887,57.0298 5.911,5.8194 27.9427,-8.1471 30.6294,-3.4916 2.6868,4.6554 -4.2988,17.4581 -16.6581,25.6052 20.957,-6.9833 30.0921,-18.6219 25.7932,-26.769 -4.2988,-8.1471 -12.3592,-6.9833 -17.7328,-5.8194 10.2098,-8.7291 49.9875,-38.2659 39.7777,-53.9782 -10.2098,-15.7122 -36.0426,-12.0787 -41.9536,-9.169 14.5087,-12.8026 28.0737,-53.8649 21.6254,-85.8713 -6.4483,-32.0065 -34.4955,4.6983 -34.4955,4.6983 z"
       id="path1023"
       inkscape:connector-curvature="0"
       sodipodi:nodetypes="ccccsccccccsc" />
    <path
       style="fill:#ffffff;fill-rule:evenodd;stroke:none;stroke-width:1px;stroke-linecap:butt;stroke-linejoin:miter;stroke-opacity:1"
       d="m 826.50706,2344.762 c 9.78488,-40.2573 52.11355,-55.2416 84.72982,-52.849 32.61627,2.3928 81.25075,23.5682 76.17711,56.2586 -5.07364,32.6904 -43.85076,50.2768 -71.17595,51.6227 -27.32519,1.3458 -89.15114,-3.9181 -89.73098,-55.0323 z"
       id="path1025"
       inkscape:connector-curvature="0" />
    <path
       style="fill:#ffffff;fill-rule:evenodd;stroke:none;stroke-width:1px;stroke-linecap:butt;stroke-linejoin:miter;stroke-opacity:1"
       d="m 891.05439,2384.5928 c 8.97846,20.1058 2.08504,29.2013 -7.53169,42.2988 -9.61674,13.0974 -3.91478,26.6928 6.89341,31.8628 10.80819,5.1701 22.50997,25.1418 21.87169,42.5477 -2.42546,-50.8389 -20.08451,-46.2816 -21.10575,-59.2259 -1.02125,-12.9442 20.21215,-24.3759 22.42485,-32.7054 2.2127,-8.3295 0.51063,-29.1055 -5.14877,-40.9009 -5.65941,-11.7954 -17.40374,16.1229 -17.40374,16.1229 z"
       id="path1027"
       inkscape:connector-curvature="0"
       sodipodi:nodetypes="cccccssc" />
  </g>
  <g
     inkscape:groupmode="layer"
     id="layer1"
     inkscape:label="txt">
    <text
       xml:space="preserve"
       style="font-style:normal;font-variant:normal;font-weight:normal;font-stretch:normal;line-height:0%;font-family:Lavi;-inkscape-font-specification:Lavi;text-align:center;letter-spacing:0px;word-spacing:0px;text-anchor:middle;fill:#000000;fill-opacity:1;stroke:none"
       x="369.37637"
       y="239.86371"
       id="text4246"><tspan
         sodipodi:role="line"
         style="font-size:45px;line-height:1.20000005"
         x="369.37637"
         y="239.86371"
         id="tspan4252">Todas mis amigas</tspan><tspan
         sodipodi:role="line"
         style="font-size:45px;line-height:1.20000005"
         x="369.37637"
         y="293.86371"
         id="tspan43">tienen mucho éxito</tspan><tspan
         sodipodi:role="line"
         style="font-size:45px;line-height:1.20000005"
         x="369.37637"
         y="347.86371"
         id="tspan45">y a veces yo desearía</tspan><tspan
         sodipodi:role="line"
         style="font-size:45px;line-height:1.20000005"
         x="369.37637"
         y="401.86371"
         id="tspan47">tener solo una mínima</tspan><tspan
         sodipodi:role="line"
         style="font-size:45px;line-height:1.20000005"
         x="369.37637"
         y="455.86371"
         id="tspan49">parte de lo que ellas</tspan><tspan
         sodipodi:role="line"
         style="font-size:45px;line-height:1.20000005"
         x="369.37637"
         y="509.86371"
         id="tspan833">tienen.</tspan></text>
    <text
       xml:space="preserve"
       style="font-style:normal;font-variant:normal;font-weight:normal;font-stretch:normal;line-height:0%;font-family:Lavi;-inkscape-font-specification:Lavi;text-align:center;letter-spacing:0px;word-spacing:0px;text-anchor:middle;fill:#000000;fill-opacity:1;stroke:none"
       x="2151.5696"
       y="632.98071"
       id="text4246-3"><tspan
         sodipodi:role="line"
         style="font-size:45px;line-height:1.20000005"
         x="2151.5696"
         y="632.98071"
         id="tspan833-2">Celandria es</tspan><tspan
         sodipodi:role="line"
         style="font-size:45px;line-height:1.20000005"
         x="2151.5696"
         y="686.98071"
         id="tspan898">una reina.</tspan></text>
    <text
       xml:space="preserve"
       style="font-style:normal;font-variant:normal;font-weight:normal;font-stretch:normal;line-height:0%;font-family:Lavi;-inkscape-font-specification:Lavi;text-align:center;letter-spacing:0px;word-spacing:0px;text-anchor:middle;fill:#000000;fill-opacity:1;stroke:none"
       x="2140.9937"
       y="776.11542"
       id="text4246-3-9"><tspan
         sodipodi:role="line"
         style="font-size:45px;line-height:1.20000005"
         x="2140.9937"
         y="776.11542"
         id="tspan898-2">Azafrán es una</tspan><tspan
         sodipodi:role="line"
         style="font-size:45px;line-height:1.20000005"
         x="2140.9937"
         y="830.11542"
         id="tspan923">superestrella rica.</tspan></text>
    <text
       xml:space="preserve"
       style="font-style:normal;font-variant:normal;font-weight:normal;font-stretch:normal;line-height:0%;font-family:Lavi;-inkscape-font-specification:Lavi;text-align:center;letter-spacing:0px;word-spacing:0px;text-anchor:middle;fill:#000000;fill-opacity:1;stroke:none"
       x="333.07407"
       y="1153.8981"
       id="text4246-3-9-7"><tspan
         sodipodi:role="line"
         style="font-size:45px;line-height:1.20000005"
         x="333.07407"
         y="1153.8981"
         id="tspan923-9">Hasta Shichimi</tspan><tspan
         sodipodi:role="line"
         style="font-size:45px;line-height:1.20000005"
         x="333.07407"
         y="1207.8981"
         id="tspan71">se ve perfecta</tspan><tspan
         sodipodi:role="line"
         style="font-size:45px;line-height:1.20000005"
         x="333.07407"
         y="1261.8981"
         id="tspan950">con su escuela.</tspan></text>
    <text
       xml:space="preserve"
       style="font-style:normal;font-variant:normal;font-weight:normal;font-stretch:normal;line-height:0%;font-family:Lavi;-inkscape-font-specification:Lavi;text-align:center;letter-spacing:0px;word-spacing:0px;text-anchor:middle;fill:#000000;fill-opacity:1;stroke:none"
       x="2139.5559"
       y="1152.5095"
       id="text4246-3-9-7-3"><tspan
         sodipodi:role="line"
         style="font-size:45px;line-height:1.20000005"
         x="2139.5559"
         y="1152.5095"
         id="tspan950-6">¿Y yo?</tspan><tspan
         sodipodi:role="line"
         style="font-size:45px;line-height:1.20000005"
         x="2139.5559"
         y="1206.5095"
         id="tspan981">¿Qué tengo?</tspan></text>
    <text
       xml:space="preserve"
       style="font-style:normal;font-variant:normal;font-weight:normal;font-stretch:normal;line-height:0%;font-family:Lavi;-inkscape-font-specification:Lavi;text-align:center;letter-spacing:0px;word-spacing:0px;text-anchor:middle;fill:#000000;fill-opacity:1;stroke:none"
       x="910.00488"
       y="2360.6299"
       id="text4246-3-9-7-3-2"><tspan
         sodipodi:role="line"
         style="font-size:45px;line-height:1.20000005"
         x="910.00488"
         y="2360.6299"
         id="tspan981-1">Esto.</tspan></text>
  </g>
</svg>
