<?xml version="1.0" encoding="UTF-8" standalone="no"?>
<!-- Created with Inkscape (http://www.inkscape.org/) -->

<svg
   id="svg2"
   version="1.1"
   inkscape:version="1.3.2 (091e20ef0f, 2023-11-25, custom)"
   width="2481"
   height="2479"
   sodipodi:docname="E04P08.svg"
   xmlns:inkscape="http://www.inkscape.org/namespaces/inkscape"
   xmlns:sodipodi="http://sodipodi.sourceforge.net/DTD/sodipodi-0.dtd"
   xmlns:xlink="http://www.w3.org/1999/xlink"
   xmlns="http://www.w3.org/2000/svg"
   xmlns:svg="http://www.w3.org/2000/svg"
   xmlns:rdf="http://www.w3.org/1999/02/22-rdf-syntax-ns#"
   xmlns:cc="http://creativecommons.org/ns#"
   xmlns:dc="http://purl.org/dc/elements/1.1/">
  <metadata
     id="metadata8">
    <rdf:RDF>
      <cc:Work
         rdf:about="">
        <dc:format>image/svg+xml</dc:format>
        <dc:type
           rdf:resource="http://purl.org/dc/dcmitype/StillImage" />
        <dc:title />
      </cc:Work>
    </rdf:RDF>
  </metadata>
  <defs
     id="defs6" />
  <sodipodi:namedview
     pagecolor="#ffffff"
     bordercolor="#666666"
     borderopacity="1"
     objecttolerance="10"
     gridtolerance="10"
     guidetolerance="10"
     inkscape:pageopacity="0"
     inkscape:pageshadow="2"
     inkscape:window-width="1920"
     inkscape:window-height="1008"
     id="namedview4"
     showgrid="false"
     inkscape:zoom="0.40677062"
     inkscape:cx="1373.0097"
     inkscape:cy="1452.9073"
     inkscape:window-x="0"
     inkscape:window-y="0"
     inkscape:window-maximized="1"
     inkscape:current-layer="layer2"
     inkscape:object-nodes="true"
     inkscape:showpageshadow="2"
     inkscape:pagecheckerboard="0"
     inkscape:deskcolor="#d1d1d1" />
  <g
     inkscape:groupmode="layer"
     id="layer1"
     inkscape:label="artwork"
     style="display:inline"
     sodipodi:insensitive="true">
    <image
       xlink:href="../gfx_Pepper-and-Carrot_by-David-Revoy_E04P08.png"
       y="0"
       x="0"
       id="image10"
       height="2479"
       width="2481" />
  </g>
  <g
     inkscape:groupmode="layer"
     id="layer3"
     inkscape:label="speechbubbles"
     style="display:inline">
    <path
       style="fill:#ffffff;stroke:none"
       d="m -2021.8885,646.19917 c 1.0628,-51.0158 26.5707,-103.09442 170.0526,-112.65988 143.4819,-9.56546 203.0004,48.89014 207.2517,90.34047 4.2513,41.45033 -82.9007,96.71744 -162.6129,97.78027 -79.7121,1.06282 -214.6914,-11.69112 -214.6914,-75.46086 z"
       id="path4279"
       inkscape:connector-curvature="0" />
    <path
       style="fill:#ffffff;stroke:none"
       d="m -1788.0661,898.08964 c 70.1467,-44.63882 88.2148,-124.35099 45.7016,-190.24639 -42.5132,-65.8954 -82.9007,-54.20428 -82.9007,-54.20428 l 35.0734,41.45033 c 0,0 97.7803,97.78027 2.1257,203.00034 z"
       id="path4281"
       inkscape:connector-curvature="0"
       sodipodi:nodetypes="csccc" />
  </g>
  <g
     inkscape:groupmode="layer"
     id="layer2"
     inkscape:label="text"
     style="display:inline">
    <flowRoot
       xml:space="preserve"
       id="flowRoot2987"
       style="font-style:normal;font-variant:normal;font-weight:500;font-stretch:normal;line-height:1.4em;font-family:Mikhak;-inkscape-font-specification:'Mikhak Medium';letter-spacing:0px;word-spacing:0px;fill:#000000;fill-opacity:1;stroke:none"
       transform="matrix(0.79948741,0,0,0.91835098,240.10727,87.37664)"><flowRegion
         id="flowRegion2989"
         style="font-style:normal;font-variant:normal;font-weight:500;font-stretch:normal;font-family:Mikhak;-inkscape-font-specification:'Mikhak Medium';line-height:1.4em"><rect
           id="rect2991"
           width="2808.0764"
           height="1866.6244"
           x="-141.0901"
           y="266.68515"
           style="-inkscape-font-specification:'Mikhak Medium';font-family:Mikhak;font-weight:500;font-style:normal;font-stretch:normal;font-variant:normal;line-height:1.4em" /></flowRegion><flowPara
         id="flowPara3025"
         style="font-style:normal;font-variant:normal;font-weight:500;font-stretch:normal;font-size:38.9017px;font-family:Mikhak;-inkscape-font-specification:'Mikhak Medium';text-align:center;text-anchor:middle;line-height:1.4em">Алексей - 獨孤欣 - Adrian Lord - Alan Hardman - Albert Westra - Alejandro Flores Prieto - Alexander Sopicki - Alex Lusco</flowPara><flowPara
         style="font-style:normal;font-variant:normal;font-weight:500;font-stretch:normal;font-size:38.9017px;font-family:Mikhak;-inkscape-font-specification:'Mikhak Medium';text-align:center;text-anchor:middle;line-height:1.4em"
         id="flowPara3198">Alex Silver - Alex Vandiver - Alfredo - Alice Queenofcats - Ali Poulton (Aunty Pol) - Alison Harding - Allan Zieser</flowPara><flowPara
         style="font-style:normal;font-variant:normal;font-weight:500;font-stretch:normal;font-size:38.9017px;font-family:Mikhak;-inkscape-font-specification:'Mikhak Medium';text-align:center;text-anchor:middle;line-height:1.4em"
         id="flowPara3200">Andreas Rieger - Andrew - Andrew Godfrey - Andrey Alekseenko - Angela K - Anna Orlova - anonymous - Antan Karmola</flowPara><flowPara
         style="font-style:normal;font-variant:normal;font-weight:500;font-stretch:normal;font-size:38.9017px;font-family:Mikhak;-inkscape-font-specification:'Mikhak Medium';text-align:center;text-anchor:middle;line-height:1.4em"
         id="flowPara3202">Arco - Ardash Crowfoot - Arne Brix - Aslak Kjølås-Sæverud - Axel Bordelon - Axel Philipsenburg - barbix - Ben Evans</flowPara><flowPara
         style="font-style:normal;font-variant:normal;font-weight:500;font-stretch:normal;font-size:38.9017px;font-family:Mikhak;-inkscape-font-specification:'Mikhak Medium';text-align:center;text-anchor:middle;line-height:1.4em"
         id="flowPara3204">Bernd - Boonsak Watanavisit - Boudewijn Rempt - Brian Behnke - carlos levischi - Charlotte Lacombe-bar - Chris Radcliff</flowPara><flowPara
         style="font-style:normal;font-variant:normal;font-weight:500;font-stretch:normal;font-size:38.9017px;font-family:Mikhak;-inkscape-font-specification:'Mikhak Medium';text-align:center;text-anchor:middle;line-height:1.4em"
         id="flowPara3206">Chris Sakkas - Christophe Carré - Clara Dexter - Colby Driedger - Conway Scott Smith - Cyrille Largillier - Cyril Paciullo</flowPara><flowPara
         style="font-style:normal;font-variant:normal;font-weight:500;font-stretch:normal;font-size:38.9017px;font-family:Mikhak;-inkscape-font-specification:'Mikhak Medium';text-align:center;text-anchor:middle;line-height:1.4em"
         id="flowPara3208">Daniel - david - Damien de Lemeny - Dmitry - Donald Hayward - Dubema Ulo - Eitan Goldshtrom - Enrico Billich</flowPara><flowPara
         style="font-style:normal;font-variant:normal;font-weight:500;font-stretch:normal;font-size:38.9017px;font-family:Mikhak;-inkscape-font-specification:'Mikhak Medium';text-align:center;text-anchor:middle;line-height:1.4em"
         id="flowPara3210">-epsilon- - Eric Schulz - Garret Patterson - Guillaume - Gustav Strömbom - Guy Davis - Happy Mimic - Helmar Suschka</flowPara><flowPara
         style="font-style:normal;font-variant:normal;font-weight:500;font-stretch:normal;font-size:38.9017px;font-family:Mikhak;-inkscape-font-specification:'Mikhak Medium';text-align:center;text-anchor:middle;line-height:1.4em"
         id="flowPara3212">Ilyas Akhmedov - Inga Huang - Irene C. - Ivan Korotkov - Jared Tritsch - JDB - Jean-Baptiste Hebbrecht - Jessey Wright</flowPara><flowPara
         style="font-style:normal;font-variant:normal;font-weight:500;font-stretch:normal;font-size:38.9017px;font-family:Mikhak;-inkscape-font-specification:'Mikhak Medium';text-align:center;text-anchor:middle;line-height:1.4em"
         id="flowPara3214">John - Jónatan Nilsson - Jon Brake - Joseph Bowman - Jurgo van den Elzen - Justin Diehl - Kai-Ting (Danil) Ko - Kasper Hansen</flowPara><flowPara
         style="font-style:normal;font-variant:normal;font-weight:500;font-stretch:normal;font-size:38.9017px;font-family:Mikhak;-inkscape-font-specification:'Mikhak Medium';text-align:center;text-anchor:middle;line-height:1.4em"
         id="flowPara3216">Kathryn Wuerstl - Ken Mingyuan Xia - Liselle - Lorentz Grip - MacCoy - Magnus Kronnäs - Mandy - marcus - Martin Owens</flowPara><flowPara
         style="font-style:normal;font-variant:normal;font-weight:500;font-stretch:normal;font-size:38.9017px;font-family:Mikhak;-inkscape-font-specification:'Mikhak Medium';text-align:center;text-anchor:middle;line-height:1.4em"
         id="flowPara3218">Masked Admirer - Mathias Stærk - mattscribbles - Maurice-Marie Stromer - mefflin ross bullis-bates - Michael Gill</flowPara><flowPara
         style="font-style:normal;font-variant:normal;font-weight:500;font-stretch:normal;font-size:38.9017px;font-family:Mikhak;-inkscape-font-specification:'Mikhak Medium';text-align:center;text-anchor:middle;line-height:1.4em"
         id="flowPara3220">Michelle Pereira Garcia - Mike Mosher - Morten Hellesø Johansen - Muzyka Dmytro - Nazhif - Nicholas DeLateur</flowPara><flowPara
         style="font-style:normal;font-variant:normal;font-weight:500;font-stretch:normal;font-size:38.9017px;font-family:Mikhak;-inkscape-font-specification:'Mikhak Medium';text-align:center;text-anchor:middle;line-height:1.4em"
         id="flowPara3222">Nick Allott - Nicki Aya - Nicolae Berbece - Nicole Heersema - Noah Summers - Noble Hays - Nora Czaykowski</flowPara><flowPara
         style="font-style:normal;font-variant:normal;font-weight:500;font-stretch:normal;font-size:38.9017px;font-family:Mikhak;-inkscape-font-specification:'Mikhak Medium';text-align:center;text-anchor:middle;line-height:1.4em"
         id="flowPara3224">Nyx - Olivier Amrein - Olivier Brun - Omar Willey - Oscar Moreno - Öykü Su Gürler - Ozone S. - Paul - Paul</flowPara><flowPara
         style="font-style:normal;font-variant:normal;font-weight:500;font-stretch:normal;font-size:38.9017px;font-family:Mikhak;-inkscape-font-specification:'Mikhak Medium';text-align:center;text-anchor:middle;line-height:1.4em"
         id="flowPara3226">Pavel Semenov - Peter - Peter Moonen - Petr Vlašic - Pierre Geier - Pierre Vuillemin - Pranab Shenoy - Rajul Gupta</flowPara><flowPara
         style="font-style:normal;font-variant:normal;font-weight:500;font-stretch:normal;font-size:38.9017px;font-family:Mikhak;-inkscape-font-specification:'Mikhak Medium';text-align:center;text-anchor:middle;line-height:1.4em"
         id="flowPara3228">Ret Samys - rictic - RJ van der Weide - Roman - Rumiko Hoshino - Rustin Simons - Sami T - Samuel Mitson - Scott RussSean Adams - Shadefalcon - Shane Lopez - Shawn Meyer - Sigmundur Þórir Jónsson - Simon Forster - Simon IsenbergSonny W. - Stanislav Vodetskyi - Stephen Bates - Steven Bennett - Stuart Dickson - surt - Tadamichi Ohkubo - tar8156TheFaico - Thomas Schwery - Tracey Reuben - Travis Humble - Vespertinus - Victoria - Vlad Tomash - Westen CurryXavier Claude - Yalyn Vinkindo</flowPara><flowPara
         style="font-style:normal;font-variant:normal;font-weight:500;font-stretch:normal;font-size:38.9017px;font-family:Mikhak;-inkscape-font-specification:'Mikhak Medium';text-align:center;text-anchor:middle;line-height:1.4em"
         id="flowPara3238">and special thanks to Amireeti for helping me with english corrections !</flowPara><flowPara
         style="font-style:normal;font-variant:normal;font-weight:500;font-stretch:normal;font-size:38.9017px;font-family:Mikhak;-inkscape-font-specification:'Mikhak Medium';text-align:center;text-anchor:middle;line-height:1.4em"
         id="flowPara3230"> </flowPara><flowPara
         style="font-style:normal;font-variant:normal;font-weight:500;font-stretch:normal;font-size:58.3526px;font-family:Mikhak;-inkscape-font-specification:'Mikhak Medium';text-align:center;text-anchor:middle;line-height:1.4em"
         id="flowPara3232"> </flowPara><flowPara
         style="font-style:normal;font-variant:normal;font-weight:500;font-stretch:normal;font-size:58.3526px;font-family:Mikhak;-inkscape-font-specification:'Mikhak Medium';text-align:center;text-anchor:middle;line-height:1.4em"
         id="flowPara3234"> </flowPara><flowPara
         style="font-style:normal;font-variant:normal;font-weight:500;font-stretch:normal;font-size:58.3526px;font-family:Mikhak;-inkscape-font-specification:'Mikhak Medium';text-align:center;text-anchor:middle;line-height:1.4em"
         id="flowPara3236"> </flowPara></flowRoot>
    <flowRoot
       xml:space="preserve"
       id="flowRoot3027"
       style="font-style:normal;font-variant:normal;font-weight:500;font-stretch:normal;line-height:1.4em;font-family:Mikhak;-inkscape-font-specification:'Mikhak Medium';text-align:center;letter-spacing:0px;word-spacing:0px;text-anchor:middle;fill:#000000;fill-opacity:1;stroke:none"
       transform="matrix(1.2334095,0,0,1.2851851,-443.07981,-155.73396)"><flowRegion
         id="flowRegion3029"
         style="font-style:normal;font-variant:normal;font-weight:500;font-stretch:normal;font-family:Mikhak;-inkscape-font-specification:'Mikhak Medium';line-height:1.4em"><rect
           id="rect3031"
           width="2475.8752"
           height="241.27675"
           x="135.21135"
           y="219.33444"
           style="text-align:center;text-anchor:middle;-inkscape-font-specification:'Mikhak Medium';font-family:Mikhak;font-weight:500;font-style:normal;font-stretch:normal;font-variant:normal;line-height:1.4em" /></flowRegion><flowPara
         id="flowPara3033"
         style="font-style:normal;font-variant:normal;font-weight:500;font-stretch:normal;font-size:12px;font-family:Mikhak;-inkscape-font-specification:'Mikhak Medium';direction:rtl;line-height:1.4em"> </flowPara><flowPara
         style="font-style:normal;font-variant:normal;font-weight:500;font-stretch:normal;font-size:42.3606px;font-family:Mikhak;-inkscape-font-specification:'Mikhak Medium';text-align:center;direction:rtl;text-anchor:middle;line-height:1.4em"
         id="flowPara3044">فلفل و هویج کاملا آزاد و به صورت متن‌باز می‌باشد. </flowPara><flowPara
         style="font-style:normal;font-variant:normal;font-weight:500;font-stretch:normal;font-size:42.3606px;font-family:Mikhak;-inkscape-font-specification:'Mikhak Medium';text-align:center;direction:rtl;text-anchor:middle;line-height:1.4em"
         id="flowPara4206">این قسمت از کمیک توسط ۱۵۶ حامی تهیه شدہ است.</flowPara></flowRoot>
    <flowRoot
       xml:space="preserve"
       id="flowRoot3027-8-8"
       style="font-style:normal;font-variant:normal;font-weight:500;font-stretch:normal;line-height:1.4em;font-family:Mikhak;-inkscape-font-specification:'Mikhak Medium';text-align:center;letter-spacing:0px;word-spacing:0px;text-anchor:middle;fill:#a72f14;fill-opacity:1;stroke:none"
       transform="matrix(1.2234224,0,0,1.2506407,-277.16517,1328.9888)"><flowRegion
         id="flowRegion3029-9-3"
         style="font-style:normal;font-variant:normal;font-weight:500;font-stretch:normal;font-family:Mikhak;-inkscape-font-specification:'Mikhak Medium';line-height:1.4em"><rect
           id="rect3031-9-1"
           width="2230.314"
           height="376.21677"
           x="135.21135"
           y="219.33444"
           style="text-align:center;text-anchor:middle;fill:#a72f14;fill-opacity:1;-inkscape-font-specification:'Mikhak Medium';font-family:Mikhak;font-weight:500;font-style:normal;font-stretch:normal;font-variant:normal;line-height:1.4em" /></flowRegion><flowPara
         id="flowPara3033-3-0"
         style="font-style:normal;font-variant:normal;font-weight:500;font-stretch:normal;font-size:12px;font-family:Mikhak;-inkscape-font-specification:'Mikhak Medium';line-height:1.4em"> </flowPara><flowPara
         style="font-style:normal;font-variant:normal;font-weight:500;font-stretch:normal;font-size:64.6749px;font-family:Mikhak;-inkscape-font-specification:'Mikhak Medium';text-align:center;text-anchor:middle;fill:#a72f14;fill-opacity:1;line-height:1.4em"
         id="flowPara3067-4">https://www.patreon.com/davidrevoy</flowPara></flowRoot>
    <flowRoot
       xml:space="preserve"
       id="flowRoot3027-8-8-2"
       style="font-style:normal;font-variant:normal;font-weight:500;font-stretch:normal;line-height:1.4em;font-family:Mikhak;-inkscape-font-specification:'Mikhak Medium';text-align:center;letter-spacing:0px;word-spacing:0px;text-anchor:middle;fill:#000000;fill-opacity:1;stroke:none"
       transform="matrix(0.91226779,0,0,0.94129239,125.5335,1264.6898)"><flowRegion
         id="flowRegion3029-9-3-5"
         style="font-style:normal;font-variant:normal;font-weight:500;font-stretch:normal;font-family:Mikhak;-inkscape-font-specification:'Mikhak Medium';line-height:1.4em"><rect
           id="rect3031-9-1-6"
           width="2230.314"
           height="376.21677"
           x="135.21135"
           y="219.33444"
           style="text-align:center;text-anchor:middle;-inkscape-font-specification:'Mikhak Medium';font-family:Mikhak;font-weight:500;font-style:normal;font-stretch:normal;font-variant:normal;line-height:1.4em" /></flowRegion><flowPara
         style="font-style:normal;font-variant:normal;font-weight:500;font-stretch:normal;font-size:50.3597px;font-family:Mikhak;-inkscape-font-specification:'Mikhak Medium';text-align:center;direction:rtl;text-anchor:middle;line-height:1.4em"
         id="flowPara3340">از این پروژہ حمایت کنید!</flowPara><flowPara
         style="font-style:normal;font-variant:normal;font-weight:500;font-stretch:normal;font-size:50.3597px;font-family:Mikhak;-inkscape-font-specification:'Mikhak Medium';text-align:center;direction:rtl;text-anchor:middle;line-height:1.4em"
         id="flowPara4210">حتی یک دلار هم برای هر قسمت خیلی با ارزشه!</flowPara></flowRoot>
    <flowRoot
       xml:space="preserve"
       id="flowRoot3027-8-8-2-3"
       style="font-style:normal;font-variant:normal;font-weight:500;font-stretch:normal;line-height:1.4em;font-family:Mikhak;-inkscape-font-specification:'Mikhak Medium';text-align:center;letter-spacing:0px;word-spacing:0px;text-anchor:middle;display:inline;fill:#000000;fill-opacity:1;stroke:none"
       transform="matrix(0.91226779,0.30646053,0,0.94129239,1411.9959,1175.502)"><flowRegion
         id="flowRegion3029-9-3-5-4"
         style="font-style:normal;font-variant:normal;font-weight:500;font-stretch:normal;font-family:Mikhak;-inkscape-font-specification:'Mikhak Medium';line-height:1.4em"><rect
           id="rect3031-9-1-6-3"
           width="872.13"
           height="108.82221"
           x="135.21135"
           y="219.33444"
           style="font-size:75.53958893px;text-align:center;text-anchor:middle;-inkscape-font-specification:'Mikhak Medium';font-family:Mikhak;font-weight:500;font-style:normal;font-stretch:normal;font-variant:normal;line-height:1.4em" /></flowRegion><flowPara
         style="font-style:normal;font-variant:normal;font-weight:500;font-stretch:normal;font-size:50.3597px;font-family:Mikhak;-inkscape-font-specification:'Mikhak Medium';text-align:center;direction:rtl;text-anchor:middle;line-height:1.4em"
         id="flowPara3340-6">ممنون از همگی!</flowPara></flowRoot>
    <flowRoot
       xml:space="preserve"
       id="flowRoot4212"
       style="font-style:normal;font-variant:normal;font-weight:500;font-stretch:normal;font-size:40px;line-height:1.4em;font-family:Mikhak;-inkscape-font-specification:'Mikhak Medium';text-align:center;letter-spacing:0px;word-spacing:0px;writing-mode:lr-tb;text-anchor:middle;fill:#000000;fill-opacity:1;stroke:none;stroke-width:1px;stroke-linecap:butt;stroke-linejoin:miter;stroke-opacity:1"
       transform="translate(544.02687,627.63926)"><flowRegion
         id="flowRegion4214"
         style="font-style:normal;font-variant:normal;font-weight:500;font-stretch:normal;font-family:Mikhak;-inkscape-font-specification:'Mikhak Medium';line-height:1.4em"><rect
           id="rect4216"
           width="985.81354"
           height="152.42009"
           x="204.0462"
           y="1515.3119"
           style="-inkscape-font-specification:'Mikhak Medium';font-family:Mikhak;font-weight:500;font-style:normal;font-stretch:normal;font-variant:normal;line-height:1.4em" /></flowRegion><flowPara
         id="flowPara4218"
         style="font-style:normal;font-variant:normal;font-weight:500;font-stretch:normal;font-size:60px;font-family:Mikhak;-inkscape-font-specification:'Mikhak Medium';line-height:1.4em">ترجمه: اصلان زمانلو</flowPara></flowRoot>
    <flowRoot
       xml:space="preserve"
       id="flowRoot3027-8-8-2-8-6-3"
       style="font-style:normal;font-variant:normal;font-weight:500;font-stretch:normal;line-height:1.4em;font-family:Mikhak;-inkscape-font-specification:'Mikhak Medium';text-align:center;letter-spacing:0px;word-spacing:0px;text-anchor:middle;display:inline;fill:#000000;fill-opacity:1;stroke:none"
       transform="matrix(0.78840156,0,0,0.77665473,283.37465,1607.8968)"><flowRegion
         id="flowRegion3029-9-3-5-1-2-8"
         style="font-style:normal;font-variant:normal;font-weight:500;font-stretch:normal;font-family:Mikhak;-inkscape-font-specification:'Mikhak Medium';line-height:1.4em"><rect
           id="rect3031-9-1-6-8-7-4"
           width="2230.314"
           height="376.21677"
           x="135.21135"
           y="219.33444"
           style="text-align:center;text-anchor:middle;-inkscape-font-specification:'Mikhak Medium';font-family:Mikhak;font-weight:500;font-style:normal;font-stretch:normal;font-variant:normal;line-height:1.4em" /></flowRegion><flowPara
         id="flowPara3033-3-0-2-4-3-2"
         style="font-style:normal;font-variant:normal;font-weight:500;font-stretch:normal;font-size:12px;font-family:Mikhak;-inkscape-font-specification:'Mikhak Medium';direction:rtl;line-height:1.4em"> </flowPara><flowPara
         style="font-style:normal;font-variant:normal;font-weight:500;font-stretch:normal;font-size:51.1178px;font-family:Mikhak;-inkscape-font-specification:'Mikhak Medium';text-align:center;direction:rtl;text-anchor:middle;line-height:1.4em"
         id="flowPara3318">مجوز: 4.0 Creative Commons با ارجاع دادن به David Revoy</flowPara><flowPara
         style="font-style:normal;font-variant:normal;font-weight:500;font-stretch:normal;font-size:51.1178px;font-family:Mikhak;-inkscape-font-specification:'Mikhak Medium';text-align:center;direction:rtl;text-anchor:middle;line-height:1.4em"
         id="flowPara4220">شما می‌توانید در این کامیک تغییراتی ایجاد کنید، مطالب و طراحی‌ها را اخذ کنید، بفروشید و ... </flowPara><flowPara
         style="font-style:normal;font-variant:normal;font-weight:500;font-stretch:normal;font-size:76.6767px;font-family:Mikhak;-inkscape-font-specification:'Mikhak Medium';text-align:center;direction:rtl;text-anchor:middle;line-height:1.4em"
         id="flowPara3233-6-14-6"> </flowPara></flowRoot>
    <flowRoot
       xml:space="preserve"
       id="flowRoot3027-8-8-2-8-6"
       style="font-style:normal;font-variant:normal;font-weight:500;font-stretch:normal;line-height:1.4em;font-family:Mikhak;-inkscape-font-specification:'Mikhak Medium';text-align:center;letter-spacing:0px;word-spacing:0px;text-anchor:middle;display:inline;fill:#000000;fill-opacity:1;stroke:none"
       transform="matrix(0.78840156,0,0,0.75010368,316.84825,1745.7059)"><flowRegion
         id="flowRegion3029-9-3-5-1-2"
         style="font-style:normal;font-variant:normal;font-weight:500;font-stretch:normal;font-family:Mikhak;-inkscape-font-specification:'Mikhak Medium';line-height:1.4em"><rect
           id="rect3031-9-1-6-8-7"
           width="2230.314"
           height="376.21677"
           x="135.21135"
           y="219.33444"
           style="text-align:center;text-anchor:middle;-inkscape-font-specification:'Mikhak Medium';font-family:Mikhak;font-weight:500;font-style:normal;font-stretch:normal;font-variant:normal;line-height:1.4em" /></flowRegion><flowPara
         id="flowPara3033-3-0-2-4-3"
         style="font-style:normal;font-variant:normal;font-weight:500;font-stretch:normal;font-size:12px;font-family:Mikhak;-inkscape-font-specification:'Mikhak Medium';line-height:1.4em"> </flowPara><flowPara
         style="font-style:normal;font-variant:normal;font-weight:500;font-stretch:normal;font-size:52.0147px;font-family:Mikhak;-inkscape-font-specification:'Mikhak Medium';text-align:center;text-anchor:middle;line-height:1.4em"
         id="flowPara3278">متن‌باز: فایل‌های اصلی لایه‌باز با کیفیت بالا برای چاپ و همچنین فونت‌ها برای دانلود در دسترس هستن.</flowPara><flowPara
         style="font-style:normal;font-variant:normal;font-weight:500;font-stretch:normal;font-size:78.022px;font-family:Mikhak;-inkscape-font-specification:'Mikhak Medium';text-align:center;text-anchor:middle;line-height:1.4em"
         id="flowPara3233-6-14"> </flowPara></flowRoot>
    <flowRoot
       xml:space="preserve"
       id="flowRoot3027-8-8-2-8"
       style="font-style:normal;font-variant:normal;font-weight:500;font-stretch:normal;line-height:1.4em;font-family:Mikhak;-inkscape-font-specification:'Mikhak Medium';text-align:center;letter-spacing:0px;word-spacing:0px;text-anchor:middle;display:inline;fill:#000000;fill-opacity:1;stroke:none"
       transform="matrix(0.78840156,0,0,0.74225951,301.53528,1832.8599)"><flowRegion
         id="flowRegion3029-9-3-5-1"
         style="font-style:normal;font-variant:normal;font-weight:500;font-stretch:normal;font-family:Mikhak;-inkscape-font-specification:'Mikhak Medium';line-height:1.4em"><rect
           id="rect3031-9-1-6-8"
           width="2230.314"
           height="376.21677"
           x="135.21135"
           y="219.33444"
           style="text-align:center;text-anchor:middle;stroke-width:1;-inkscape-font-specification:'Mikhak Medium';font-family:Mikhak;font-weight:500;font-style:normal;font-stretch:normal;font-variant:normal;line-height:1.4em" /></flowRegion><flowPara
         style="font-style:normal;font-variant:normal;font-weight:500;font-stretch:normal;font-size:52.2887px;font-family:Mikhak;-inkscape-font-specification:'Mikhak Medium';text-align:center;direction:rtl;text-anchor:middle;line-height:1.4em"
         id="flowPara3279">ابزار: این قسمت با استفادہ از ابزارهای طراحی کاملا آزاد و متن‌باز مانند Krita, Gmic, Blender, </flowPara><flowPara
         style="font-style:normal;font-variant:normal;font-weight:500;font-stretch:normal;font-size:52.2887px;font-family:Mikhak;-inkscape-font-specification:'Mikhak Medium';text-align:center;direction:rtl;text-anchor:middle;line-height:1.4em"
         id="flowPara4230">GIMP on Ubunto Gnu / Linux تهیه شدہ است. </flowPara><flowPara
         style="font-style:normal;font-variant:normal;font-weight:500;font-stretch:normal;font-size:52.2887px;font-family:Mikhak;-inkscape-font-specification:'Mikhak Medium';text-align:center;direction:rtl;text-anchor:middle;line-height:1.4em"
         id="flowPara4228"> </flowPara><flowPara
         style="font-style:normal;font-variant:normal;font-weight:500;font-stretch:normal;font-size:78.4331px;font-family:Mikhak;-inkscape-font-specification:'Mikhak Medium';text-align:center;direction:rtl;text-anchor:middle;line-height:1.4em"
         id="flowPara3233-6"> </flowPara></flowRoot>
  </g>
</svg>
