<?xml version="1.0" encoding="UTF-8" standalone="no"?>
<!-- Created with Inkscape (http://www.inkscape.org/) -->

<svg
   id="svg2"
   version="1.1"
   inkscape:version="1.2.2 (b0a8486541, 2022-12-01)"
   width="3840"
   height="3840"
   sodipodi:docname="001.svg"
   xmlns:inkscape="http://www.inkscape.org/namespaces/inkscape"
   xmlns:sodipodi="http://sodipodi.sourceforge.net/DTD/sodipodi-0.dtd"
   xmlns:xlink="http://www.w3.org/1999/xlink"
   xmlns="http://www.w3.org/2000/svg"
   xmlns:svg="http://www.w3.org/2000/svg"
   xmlns:rdf="http://www.w3.org/1999/02/22-rdf-syntax-ns#"
   xmlns:cc="http://creativecommons.org/ns#"
   xmlns:dc="http://purl.org/dc/elements/1.1/"
   xmlns:krita="http://krita.org/namespaces/svg/krita">
  <metadata
     id="metadata8">
    <rdf:RDF>
      <cc:Work
         rdf:about="">
        <dc:format>image/svg+xml</dc:format>
        <dc:type
           rdf:resource="http://purl.org/dc/dcmitype/StillImage" />
        <dc:title />
      </cc:Work>
    </rdf:RDF>
  </metadata>
  <defs
     id="defs6">
    <rect
       x="3093.4999"
       y="721.62498"
       width="514.62499"
       height="129.375"
       id="rect2" />
    <rect
       x="3201.4418"
       y="2543.6634"
       width="372.61436"
       height="140.68093"
       id="rect1" />
    <rect
       x="3201.4419"
       y="2543.6633"
       width="372.61435"
       height="140.68092"
       id="rect1-3" />
    <rect
       x="3201.4419"
       y="2543.6633"
       width="372.61435"
       height="140.68092"
       id="rect1-3-7" />
    <rect
       x="3093.5"
       y="721.625"
       width="514.625"
       height="129.375"
       id="rect2-5" />
    <rect
       x="3093.5"
       y="721.625"
       width="514.625"
       height="129.375"
       id="rect2-5-1" />
    <rect
       x="3093.5"
       y="721.625"
       width="514.625"
       height="129.375"
       id="rect2-5-9" />
  </defs>
  <sodipodi:namedview
     pagecolor="#444444"
     bordercolor="#000000"
     borderopacity="1"
     objecttolerance="10"
     gridtolerance="10"
     guidetolerance="10"
     inkscape:pageopacity="0"
     inkscape:pageshadow="2"
     inkscape:window-width="1920"
     inkscape:window-height="1050"
     id="namedview4"
     showgrid="false"
     inkscape:zoom="0.3478261"
     inkscape:cx="2213.7499"
     inkscape:cy="1950.6874"
     inkscape:window-x="1920"
     inkscape:window-y="0"
     inkscape:window-maximized="1"
     inkscape:current-layer="layer1"
     inkscape:showpageshadow="0"
     inkscape:pagecheckerboard="0"
     inkscape:deskcolor="#d1d1d1" />
  <g
     inkscape:groupmode="layer"
     id="layer2"
     inkscape:label="artwork"
     sodipodi:insensitive="true">
    <image
       xlink:href="../001.jpg"
       y="0"
       x="0"
       id="2024-04-21_morning-routine"
       height="3840"
       width="3840" />
  </g>
  <g
     inkscape:groupmode="layer"
     id="layer3"
     inkscape:label="speechbubbles" />
  <g
     inkscape:groupmode="layer"
     id="layer1"
     inkscape:label="txt">
    <text
       xml:space="preserve"
       id="text1"
       style="color:#000000;font-weight:bold;font-size:91.9721px;line-height:1.55;font-family:DeevadHand;-inkscape-font-specification:'DeevadHand Bold';text-decoration:none;text-decoration-line:none;text-decoration-color:#000000;letter-spacing:0px;word-spacing:0px;white-space:pre;shape-inside:url(#rect1);display:inline;overflow:visible;fill:#ffffff;fill-opacity:1;stroke:#3d1905;stroke-width:12.3987;stroke-dasharray:none;stroke-opacity:1;paint-order:stroke fill markers"
       transform="matrix(1.0350588,-0.66812294,0.35678174,1.4127567,-942.81377,1088.7255)"><tspan
         x="3201.4414"
         y="2647.0967"
         id="tspan361">Bloop</tspan></text>
    <text
       xml:space="preserve"
       id="text1-6"
       style="color:#000000;font-weight:bold;font-size:91.9721px;line-height:1.55;font-family:DeevadHand;-inkscape-font-specification:'DeevadHand Bold';text-decoration:none;text-decoration-line:none;text-decoration-color:#000000;letter-spacing:0px;word-spacing:0px;white-space:pre;shape-inside:url(#rect1-3);display:inline;overflow:visible;fill:#ffffff;fill-opacity:1;stroke:#3d1905;stroke-width:13.7624;stroke-dasharray:none;stroke-opacity:1;paint-order:stroke fill markers"
       transform="matrix(0.96352055,-0.58253307,0.33212275,1.2317755,-666.69175,1450.2736)"
       inkscape:transform-center-x="-59.271276"
       inkscape:transform-center-y="-234.22044"><tspan
         x="3201.4414"
         y="2647.0967"
         id="tspan363">Bloop</tspan></text>
    <text
       xml:space="preserve"
       id="text1-6-5"
       style="color:#000000;font-weight:bold;font-size:91.9721px;line-height:1.55;font-family:DeevadHand;-inkscape-font-specification:'DeevadHand Bold';text-decoration:none;text-decoration-line:none;text-decoration-color:#000000;letter-spacing:0px;word-spacing:0px;white-space:pre;shape-inside:url(#rect1-3-7);display:inline;overflow:visible;fill:#ffffff;fill-opacity:1;stroke:#3d1905;stroke-width:16.5447;stroke-dasharray:none;stroke-opacity:1;paint-order:stroke fill markers"
       transform="matrix(0.81264042,-0.45113846,0.21699909,1.0548344,93.472439,1649.6146)"
       inkscape:transform-center-x="-58.617998"
       inkscape:transform-center-y="-195.39172"><tspan
         x="3201.4414"
         y="2647.0967"
         id="tspan365">Bloop</tspan></text>
    <text
       xml:space="preserve"
       id="text2-6"
       style="color:#000000;font-weight:bold;font-size:90px;line-height:1.55;font-family:DeevadHand;-inkscape-font-specification:'DeevadHand Bold';text-decoration:none;text-decoration-line:none;text-decoration-color:#000000;letter-spacing:0px;word-spacing:0px;white-space:pre;shape-inside:url(#rect2-5);display:inline;overflow:visible;fill:#ffffff;fill-opacity:1;stroke:#8b5618;stroke-width:13.4348;stroke-dasharray:none;stroke-opacity:1;paint-order:stroke fill markers"
       transform="matrix(1.1326707,-0.41194493,0.43314521,1.1212487,-3560.4908,1495.1863)"><tspan
         x="3093.5"
         y="822.83984"
         id="tspan369"><tspan
           style="font-size:70px"
           id="tspan367">Ring!</tspan></tspan></text>
    <text
       xml:space="preserve"
       id="text2-6-2"
       style="color:#000000;font-weight:bold;font-size:90px;line-height:1.55;font-family:DeevadHand;-inkscape-font-specification:'DeevadHand Bold';text-decoration:none;text-decoration-line:none;text-decoration-color:#000000;letter-spacing:0px;word-spacing:0px;white-space:pre;shape-inside:url(#rect2-5-1);display:inline;overflow:visible;fill:#ffffff;fill-opacity:1;stroke:#8b5618;stroke-width:11.0246;stroke-dasharray:none;stroke-opacity:1;paint-order:stroke fill markers"
       transform="matrix(1.3641497,-0.51767744,0.52213275,1.37865,-4420.2195,1525.7884)"><tspan
         x="3093.5"
         y="822.83984"
         id="tspan373"><tspan
           style="font-size:70px"
           id="tspan371">Ring!</tspan></tspan></text>
    <text
       xml:space="preserve"
       id="text2-6-3"
       style="color:#000000;font-weight:bold;font-size:90px;line-height:1.55;font-family:DeevadHand;-inkscape-font-specification:'DeevadHand Bold';text-decoration:none;text-decoration-line:none;text-decoration-color:#000000;letter-spacing:0px;word-spacing:0px;white-space:pre;shape-inside:url(#rect2-5-9);display:inline;overflow:visible;fill:#ffffff;fill-opacity:1;stroke:#8b5618;stroke-width:11.274;stroke-dasharray:none;stroke-opacity:1;paint-order:stroke fill markers"
       transform="matrix(1.3618924,-0.44760952,0.44691922,1.3634293,-4328.1828,1182.0934)"><tspan
         x="3093.5"
         y="822.83984"
         id="tspan377"><tspan
           style="font-size:70px"
           id="tspan375">Ring!</tspan></tspan></text>
    <text
       id="shape013"
       krita:useRichText="true"
       text-rendering="auto"
       krita:textVersion="3"
       fill="#000000"
       stroke-opacity="0"
       stroke="#000000"
       stroke-width="0"
       stroke-linecap="square"
       stroke-linejoin="bevel"
       letter-spacing="0"
       text-anchor="middle"
       word-spacing="0"
       style="font-size:123.063px;font-family:'Grand Hotel';text-align:start"
       x="175.27139"
       y="3776.3242"><tspan
         x="588.22894"
         id="tspan1"
         style="stroke-width:0">Mini Fantasy Theater</tspan></text>
    <text
       id="shape2"
       krita:useRichText="true"
       text-rendering="auto"
       krita:textVersion="3"
       fill="#000000"
       stroke-opacity="0"
       stroke="#000000"
       stroke-width="0"
       stroke-linecap="square"
       stroke-linejoin="bevel"
       letter-spacing="0"
       text-anchor="end"
       word-spacing="0"
       style="font-size:73.8377px;font-family:Pangolin;text-align:start"
       x="3040.1685"
       y="3736.7832"><tspan
         x="3680.696"
         id="tspan2"
         style="stroke-width:0">David Revoy</tspan><tspan
         x="3680.696"
         dy="73.837677"
         id="tspan3"
         style="stroke-width:0">www.davidrevoy.com</tspan></text>
    <text
       id="shape21"
       krita:useRichText="true"
       text-rendering="auto"
       krita:textVersion="3"
       fill="#8e8b88"
       stroke-opacity="0"
       stroke="#000000"
       stroke-width="0"
       stroke-linecap="square"
       stroke-linejoin="bevel"
       letter-spacing="0"
       text-anchor="end"
       word-spacing="0"
       style="font-size:49.2253px;font-family:Pangolin;text-align:start"
       x="1168.1881"
       y="3795.8257"><tspan
         x="2620.3533"
         id="tspan4"
         style="stroke-width:0">license: Creative Commons Attribution-ShareAlike 4.0 International</tspan></text>
    <text
       id="shape22"
       krita:useRichText="true"
       text-rendering="auto"
       krita:textVersion="3"
       fill="#828181"
       stroke-opacity="0"
       stroke="#000000"
       stroke-width="0"
       stroke-linecap="square"
       stroke-linejoin="bevel"
       kerning="none"
       letter-spacing="0"
       text-anchor="middle"
       word-spacing="0"
       style="font-size:73.8377px;font-family:'Patrick Hand SC';text-align:start"
       x="1698.8492"
       y="3741.009"><tspan
         x="1920.0739"
         id="tspan5"
         style="stroke-width:0">Episode 1</tspan></text>
  </g>
</svg>
