<?xml version="1.0" encoding="UTF-8" standalone="no"?>
<!-- Created with Inkscape (http://www.inkscape.org/) -->

<svg
   id="svg2"
   version="1.1"
   inkscape:version="1.2.2 (b0a8486541, 2022-12-01)"
   width="3840"
   height="3840"
   sodipodi:docname="007.svg"
   xmlns:inkscape="http://www.inkscape.org/namespaces/inkscape"
   xmlns:sodipodi="http://sodipodi.sourceforge.net/DTD/sodipodi-0.dtd"
   xmlns:xlink="http://www.w3.org/1999/xlink"
   xmlns="http://www.w3.org/2000/svg"
   xmlns:svg="http://www.w3.org/2000/svg"
   xmlns:rdf="http://www.w3.org/1999/02/22-rdf-syntax-ns#"
   xmlns:cc="http://creativecommons.org/ns#"
   xmlns:dc="http://purl.org/dc/elements/1.1/">
  <metadata
     id="metadata8">
    <rdf:RDF>
      <cc:Work
         rdf:about="">
        <dc:format>image/svg+xml</dc:format>
        <dc:type
           rdf:resource="http://purl.org/dc/dcmitype/StillImage" />
        <dc:title />
      </cc:Work>
    </rdf:RDF>
  </metadata>
  <defs
     id="defs6">
    <rect
       x="931.53589"
       y="836.4812"
       width="1437.2297"
       height="601.44039"
       id="rect3" />
    <rect
       x="931.53589"
       y="836.4812"
       width="1420.7215"
       height="597.83899"
       id="rect3-3" />
    <rect
       x="931.53589"
       y="836.4812"
       width="784.08292"
       height="282.79273"
       id="rect3-3-7" />
    <rect
       x="931.53589"
       y="836.4812"
       width="789.34588"
       height="211.25259"
       id="rect3-3-7-3" />
    <rect
       x="931.53589"
       y="836.4812"
       width="717.73633"
       height="228.05598"
       id="rect3-3-7-3-6" />
    <rect
       x="931.53589"
       y="836.4812"
       width="717.73633"
       height="228.05598"
       id="rect3-3-7-9" />
    <rect
       x="931.53589"
       y="836.4812"
       width="717.73633"
       height="228.05598"
       id="rect3-3-7-9-2" />
    <rect
       x="931.53589"
       y="836.4812"
       width="717.73633"
       height="228.05598"
       id="rect3-3-7-9-2-0" />
    <rect
       x="931.53589"
       y="836.4812"
       width="717.73633"
       height="228.05598"
       id="rect3-3-7-9-2-0-3" />
    <rect
       x="931.53589"
       y="836.4812"
       width="461.87559"
       height="464.3202"
       id="rect3-3-7-0" />
    <rect
       x="931.53589"
       y="836.4812"
       width="419.55443"
       height="467.60162"
       id="rect3-3-7-0-2" />
    <rect
       x="931.53589"
       y="836.4812"
       width="800.03971"
       height="960.4688"
       id="rect3-3-7-0-2-1" />
    <rect
       x="931.53589"
       y="836.4812"
       width="717.73633"
       height="228.05598"
       id="rect3-3-7-9-2-0-7" />
    <rect
       x="931.53589"
       y="836.4812"
       width="1659.5203"
       height="124.89061"
       id="rect3-3-7-0-2-2" />
    <rect
       x="931.53589"
       y="836.4812"
       width="2717.7"
       height="244.62711"
       id="rect3-3-7-0-2-1-3" />
    <rect
       x="931.53589"
       y="836.4812"
       width="866.0239"
       height="306.03118"
       id="rect3-3-7-36" />
    <rect
       x="931.53589"
       y="836.4812"
       width="617.62207"
       height="920.19649"
       id="rect3-3-7-0-2-1-36" />
    <rect
       x="931.53589"
       y="836.4812"
       width="419.55444"
       height="467.60162"
       id="rect3-3-7-0-2-3" />
  </defs>
  <sodipodi:namedview
     pagecolor="#444444"
     bordercolor="#000000"
     borderopacity="1"
     objecttolerance="10"
     gridtolerance="10"
     guidetolerance="10"
     inkscape:pageopacity="0"
     inkscape:pageshadow="2"
     inkscape:window-width="1920"
     inkscape:window-height="1050"
     id="namedview4"
     showgrid="false"
     inkscape:zoom="0.34782609"
     inkscape:cx="2127.5"
     inkscape:cy="1608.5625"
     inkscape:window-x="1920"
     inkscape:window-y="0"
     inkscape:window-maximized="1"
     inkscape:current-layer="layer1"
     inkscape:showpageshadow="0"
     inkscape:pagecheckerboard="0"
     inkscape:deskcolor="#d1d1d1" />
  <g
     inkscape:groupmode="layer"
     id="layer2"
     inkscape:label="artwork"
     sodipodi:insensitive="true">
    <image
       xlink:href="../007.jpg"
       y="0"
       x="0"
       id="007"
       height="3840"
       width="3840" />
  </g>
  <g
     inkscape:groupmode="layer"
     id="layer3"
     inkscape:label="speechbubbles"
     style="fill:#afeeee">
    <path
       style="fill:#ffffff;fill-rule:evenodd;stroke:none;stroke-width:1px;stroke-linecap:butt;stroke-linejoin:miter;stroke-opacity:1"
       d="m 229.77394,203.42456 c 135.57238,90.68296 175.58888,88.92407 111.27473,-13.76548 81.77474,61.33474 147.88525,105.58582 111.23565,37.76532 85.26899,49.22412 126.57441,55.813 129.37958,25.06491 333.55818,26.02726 664.8968,11.36208 995.8289,-10.75738 -7.9912,59.43131 60.3688,1.88864 119.4366,-41.41796 -44.9224,60.30506 -30.12,59.9935 54.1855,-10.85904 -105.0697,106.30009 -26.8541,57.17104 6.8133,45.81964 -3.7717,16.91438 -63.0616,58.50341 83.1966,8.73815 -79.2386,52.7067 -116.0883,97.47345 -40.6058,121.19907 -30.168,39.34875 -34.5841,61.4359 7.8822,52.09776 -34.7437,16.34824 -75.6359,30.65608 -10.0046,80.31435 -58.2846,50.09216 -89.7647,82.51189 14.3055,25.56262 -18.2781,18.45832 -57.3982,46.20722 -20.9646,40.27727 -20.9945,35.13734 -9.2326,49.13451 28.9017,46.11167 -34.4937,16.86879 -56.6181,36.52078 -55.134,61.48483 l 1.5381,189.27204 19.5696,20.89595 c -32.5973,14.64397 -6.5032,60.2353 33.5753,113.20042 -99.9055,-78.89949 -72.3473,-25.12214 -74.7237,-2.50379 -85.6266,-40.44822 20.8156,57.86879 41.6027,94.30209 -114.9347,-90.89364 -176.2626,-117.5172 -139.3025,-26.3013 -377.4043,-37.5851 -765.62388,-57.5621 -1192.79549,-14.1224 -7.07984,-14.9654 18.36789,-78.31233 -63.69435,18.2512 49.94536,-124.10961 -1.40915,-87.30438 -41.32962,-68.66209 51.36897,-134.79446 -19.46363,-114.63994 -96.46242,-86.66683 25.10386,-31.34367 50.51429,-62.05754 65.25713,-114.68582 13.05246,-56.48346 20.07233,-122.22719 17.16393,-203.21123 3.95977,-62.63095 -4.87314,-64.35168 -26.21974,-55.93361 80.2617,-71.10529 -41.46488,-2.69122 -73.63781,11.36647 95.42289,-92.53252 31.49556,-67.91676 -2.12941,-66.65335 50.3021,-20.06431 63.83531,-60.41905 14.5942,-135.41502 32.51865,6.80674 98.22916,37.84831 15.19706,-39.71359 66.61358,47.05989 10.10998,-33.45262 -33.93424,-101.05487 z"
       id="path1602"
       sodipodi:nodetypes="cccccccccccccccccccccccccccccccccc" />
    <path
       style="fill:#ffffff;fill-rule:evenodd;stroke:none;stroke-width:1px;stroke-linecap:butt;stroke-linejoin:miter;stroke-opacity:1"
       d="m 765.46648,1302.076 c 90.49411,-164.4787 194.7571,-336.40628 129.35637,-361.73599 l 163.05225,2.1583 C 925.96203,1041.0937 862.39603,1181.8834 765.46648,1302.076 Z"
       id="path1700"
       sodipodi:nodetypes="cccc" />
    <path
       style="fill:#ffffff;fill-rule:evenodd;stroke:none;stroke-width:1px;stroke-linecap:butt;stroke-linejoin:miter;stroke-opacity:1"
       d="m 2349.0188,1498.0063 c 18.281,-176.3808 47.6031,-387.2808 -14.9114,-418.7517 l 134.8094,-1.6823 c -60.3732,108.8079 -80.6319,279.8995 -119.898,420.434 z"
       id="path1700-5"
       sodipodi:nodetypes="cccc" />
    <path
       style="fill:#ffffff;fill-opacity:1;fill-rule:evenodd;stroke:none;stroke-width:1px;stroke-linecap:butt;stroke-linejoin:miter;stroke-opacity:1"
       d="m 2025.4363,193.31594 c 132.0166,105.85858 124.3483,72.19141 119.3358,41.1771 180.1672,40.92988 335.0504,1.25429 500.3173,-5.31797 -16.4413,54.90836 36.7274,13.94373 94.0251,-32.70763 -80.8389,84.85888 8.5535,75.05485 141.8545,40.83396 -62.4925,44.01761 -87.6887,76.44618 7.3939,71.50061 -78.6523,42.22875 -44.2005,65.62265 -26.8214,85.10756 -39.9177,8.18891 -22.6556,30.80105 0.8746,76.75841 -65.7737,-14.29986 -105.3612,30.02894 -81.5007,48.22536 -46.7988,36.56718 -11.0489,55.52291 88.9253,-6.7517 -17.8462,17.31406 -43.5933,39.77716 -19.8472,56.63084 -7.1463,24.30585 16.4013,33.57587 49.4868,38.17351 -59.9224,28.79147 -71.1408,51.97453 -25.2446,68.58074 -39.2684,5.44288 -73.9436,20.75632 -42.5322,51.47974 -43.3082,-18.22988 -35.6086,-6.7758 -31.4183,28.74647 -24.2025,-28.65202 -47.6859,-6.24733 -44.4636,15.36257 9.9252,26.14028 20.7832,43.92794 91.7091,3.86131 -60.9515,46.93827 -39.8315,89.61603 -11.5478,117.63025 -29.4481,-3.43061 -44.4979,19.43989 0.2146,63.41601 -37.6159,-21.65712 -83.4602,-25.56171 -31.4586,31.74437 -49.3661,-37.19253 -99.5183,-54.9986 -151.7527,-21.4463 -128.5352,-14.00251 -257.3012,-26.88611 -393.3544,-4.43814 -36.7061,-14.67828 -81.3471,36.54297 -124.7889,65.09839 48.1391,-86.78429 -6.6405,-49.95736 -66.2612,-29.21255 9.3746,-17.18491 74.4003,-53.25748 -86.6159,-7.34338 32.7006,-56.53138 45.6102,-119.68601 -8.9154,-131.90278 37.8617,-6.34733 33.6819,-52.67526 8.3781,-105.8863 56.6549,26.29832 81.7732,-12.7612 6.1218,-24.77726 62.7677,-17.28603 49.5698,-64.73805 -7.0248,-32.61292 53.1035,-45.29073 31.7148,-63.25687 4.9967,-79.2681 45.6037,-10.50182 27.867,-49.61611 13.1165,-87.3815 43.588,21.00152 27.4439,1.15811 25.1401,-29.41511 -10.0449,-29.15072 -15.2668,-19.32239 -49.9802,3.97085 45.7812,-46.33327 58.6564,-70.80636 20.4748,-63.20491 57.3484,-41.97741 16.2762,-48.98365 -9.5624,-44.66537 26.6479,-21.67398 30.9213,-56.55959 -1.8165,-113.29936 63.6806,55.31842 34.2949,-1.84692 15.4044,-46.3273 48.8768,38.31598 111.2551,94.74735 27.1374,-42.33947 z"
       id="path1869"
       sodipodi:nodetypes="cccccccccccccccccccccccccccccccccccccc" />
    <path
       style="fill:#ffffff;fill-opacity:1;fill-rule:evenodd;stroke:none;stroke-width:1px;stroke-linecap:butt;stroke-linejoin:miter;stroke-opacity:1"
       d="m 2043.5303,950.97442 c 14.1009,37.15189 28.3671,74.31878 -48.3019,103.29888 53.4729,3.9719 43.4642,43.4202 20.3597,90.187 34.5863,-16.5813 73.6126,-42.3877 57.108,47.1791 65.6196,-86.2211 111.276,-27.0824 106.3365,-16.0866 56.4163,-55.0262 423.7248,-45.5155 493.6238,-20.0266 -32.304,-13.9411 5.7931,-46.274 77.6603,-6.3907 -57.4689,-60.7976 -11.9199,-53.1787 52.4411,-37.2753 -61.6181,-36.5097 -65.8327,-53.8138 12.2487,-58.0144 -81.3791,-28.6646 -96.8699,-25.4737 -35.1339,-70.19717 -61.6619,-3.09718 -59.9489,-44.23614 -44.6878,-56.77787 -94.3148,6.56279 -143.862,-40.03491 -195.881,-60.35501 -132.8975,42.29356 -305.9082,1.77149 -452.9953,5.88087 28.2384,39.0969 3.4747,98.1451 -42.7782,78.5778 z"
       id="path2906"
       sodipodi:nodetypes="cccccccccccccc" />
    <path
       style="fill:#ffffff;fill-opacity:1;fill-rule:evenodd;stroke:none;stroke-width:1px;stroke-linecap:butt;stroke-linejoin:miter;stroke-opacity:1"
       d="m 220.65333,2962.9036 c 26.14883,1.2463 45.91084,-2.5715 13.27866,-47.9323 30.08186,24.369 50.22569,29.659 39.69483,-23.9398 19.24983,32.0145 35.91538,55.2837 37.45557,27.3683 38.89768,16.7381 80.3673,20.3886 127.57524,-5.1602 -5.6896,36.4436 17.1707,4.0068 42.2008,-33.6652 -20.1829,52.3975 -4.4504,73.5737 49.1379,61.8419 -25.8082,7.5794 -37.3795,16.8595 -33.1823,28.0232 l -1.2452,62.1854 c -15.3017,2.707 -15.1024,20.0299 14.036,36.5785 -49.282,-13.3663 -38.4131,5.0907 -28.6418,22.9668 -44.2312,-43.4928 -39.917,-16.9782 -45.2223,-4.3358 -68.86086,-21.6188 -112.46682,0.9098 -168.70021,1.3646 -8.54317,-20.6887 -24.70747,-14.7476 -51.90144,29.7337 30.28339,-53.1563 13.8892,-52.3937 -10.53093,-42.3601 24.67933,-22.8319 18.41283,-25.1983 -0.66611,-19.0914 30.46114,-14.4707 18.07214,-17.7561 18.69869,-24.4389 11.79542,-14.7302 1.85075,-29.4602 -3.7833,-44.1904 5.12074,-3.3322 19.27996,3.2969 1.7959,-24.9483 z"
       id="path3634"
       sodipodi:nodetypes="ccccccccccccccccccc" />
    <path
       style="fill:#ffffff;fill-opacity:1;fill-rule:evenodd;stroke:none;stroke-width:0.999999px;stroke-linecap:butt;stroke-linejoin:miter;stroke-opacity:1"
       d="m 629.08769,3155.4535 c -27.78945,-2.2037 -48.95877,1.1023 -15.81898,49.606 -31.16302,-26.4904 -52.41862,-32.7105 -43.09339,23.6353 -19.36462,-34.1022 -36.28571,-58.9812 -38.90641,-29.8775 -40.81505,-18.824 -84.8279,-24.0674 -135.97494,0.9893 7.33712,-37.868 -18.13599,-4.7773 -46.10284,33.7068 23.325,-54.0316 7.32339,-76.6924 -50.12941,-66.2872 27.73719,-7.0262 40.38005,-16.32 36.30492,-28.125 l 3.5114,-64.908 c 16.38259,-2.2996 16.77933,-20.3998 -13.65445,-38.6896 51.98686,15.6608 41.06659,-3.9919 31.29429,-23.0002 45.55167,46.9528 41.8916,19.1103 47.98309,6.0886 72.53684,24.9554 119.74379,2.9291 179.61571,4.3936 8.36628,21.9035 25.78066,16.2558 56.29008,-29.2658 -34.10274,54.4758 -16.62561,54.2448 9.72026,44.6073 -27.0717,22.9961 -20.48468,25.6839 0.0379,19.9634 -32.9321,14.0636 -19.86041,17.9225 -20.76231,24.8809 -13.07308,14.9785 -3.00556,30.7066 2.47366,46.2862 -5.5677,3.3039 -20.40608,-4.1085 -2.78859,25.9959 z"
       id="path3634-3"
       sodipodi:nodetypes="ccccccccccccccccccc" />
    <path
       style="fill:#ffffff;fill-opacity:1;fill-rule:evenodd;stroke:none;stroke-width:1px;stroke-linecap:butt;stroke-linejoin:miter;stroke-opacity:1"
       d="m 2404.7217,3371.1365 c -26.1488,1.2463 -45.9108,-2.5715 -13.2787,-47.9323 -30.0818,24.369 -50.2256,29.659 -39.6948,-23.9398 -19.2498,32.0145 -35.9154,55.2837 -37.4556,27.3683 -38.8976,16.7381 -80.3673,20.3886 -127.5752,-5.1602 5.6896,36.4436 -17.1707,4.0068 -42.2008,-33.6652 20.1829,52.3975 4.4504,73.5737 -49.1379,61.8419 25.8082,7.5794 37.3795,16.8595 33.1823,28.0232 l 1.2452,62.1854 c 15.3017,2.707 15.1024,20.0299 -14.036,36.5785 49.282,-13.3663 38.4131,5.0907 28.6418,22.9668 44.2312,-43.4928 39.917,-16.9782 45.2223,-4.3358 68.8609,-21.6188 112.4668,0.9098 168.7002,1.3646 8.5432,-20.6887 24.7075,-14.7476 51.9015,29.7337 -30.2834,-53.1563 -13.8892,-52.3937 10.5309,-42.3601 -24.6793,-22.8319 -18.4128,-25.1983 0.6661,-19.0914 -30.4611,-14.4707 -18.0721,-17.7561 -18.6987,-24.4389 -11.7954,-14.7302 -1.8507,-29.4602 3.7833,-44.1904 -5.1207,-3.3322 -19.28,3.2969 -1.7959,-24.9483 z"
       id="path3634-5"
       sodipodi:nodetypes="ccccccccccccccccccc" />
    <path
       style="fill:#ffffff;fill-opacity:1;fill-rule:evenodd;stroke:none;stroke-width:0.999999px;stroke-linecap:butt;stroke-linejoin:miter;stroke-opacity:1"
       d="m 2237.4323,3566.0081 c 27.7895,-2.2037 48.9588,1.1023 15.819,49.606 31.163,-26.4904 52.4186,-32.7105 43.0934,23.6353 19.3646,-34.1022 36.2857,-58.9812 38.9064,-29.8775 40.8151,-18.824 84.8279,-24.0674 135.975,0.9893 -7.3372,-37.868 18.136,-4.7773 46.1028,33.7068 -23.325,-54.0316 -7.3234,-76.6924 50.1294,-66.2872 -27.7372,-7.0262 -40.38,-16.32 -36.3049,-28.125 l -3.5114,-64.908 c -16.3826,-2.2996 -16.7793,-20.3998 13.6544,-38.6896 -51.9868,15.6608 -41.0665,-3.9919 -31.2942,-23.0002 -45.5517,46.9528 -41.8916,19.1103 -47.9831,6.0886 -72.5369,24.9554 -119.7438,2.9291 -179.6157,4.3936 -8.3663,21.9035 -25.7807,16.2558 -56.2901,-29.2658 34.1027,54.4758 16.6256,54.2448 -9.7203,44.6073 27.0717,22.9961 20.4847,25.6839 -0.038,19.9634 32.9321,14.0636 19.8604,17.9225 20.7623,24.8809 13.0731,14.9785 3.0056,30.7066 -2.4736,46.2862 5.5677,3.3039 20.406,-4.1085 2.7886,25.9959 z"
       id="path3634-3-6"
       sodipodi:nodetypes="ccccccccccccccccccc" />
    <path
       style="fill:#ffffff;fill-opacity:1;fill-rule:evenodd;stroke:none;stroke-width:1px;stroke-linecap:butt;stroke-linejoin:miter;stroke-opacity:1"
       d="m 477.97568,3155.4359 c 6.34296,108.0211 53.06272,211.7734 80.61502,317.5521 -19.31629,-107.0261 -53.69987,-197.7615 -56.87206,-322.2425 z"
       id="path4270"
       sodipodi:nodetypes="cccc" />
    <path
       style="fill:#ffffff;fill-opacity:1;fill-rule:evenodd;stroke:none;stroke-width:0.999995px;stroke-linecap:butt;stroke-linejoin:miter;stroke-opacity:1"
       d="m 1445.5597,2732.6572 c 68.141,-80.0815 290.7448,-96.5099 355.2934,18.4729 15.2137,29.1016 109.4982,208.5324 -41.9013,352.5591 -124.489,100.5721 -264.1407,39.8624 -314.5883,-8.6349 -130.1618,-109.7497 -36.2235,-335.9819 1.1962,-362.3971 z"
       id="path4548"
       sodipodi:nodetypes="ccccc" />
    <path
       style="fill:#ffffff;fill-opacity:1;fill-rule:evenodd;stroke:none;stroke-width:1px;stroke-linecap:butt;stroke-linejoin:miter;stroke-opacity:1"
       d="m 1615.5872,2976.8259 60.4026,15.4951 c -74.4848,208.6772 30.53,399.5828 129.2112,488.4948 -106.8131,-89.1983 -231.7253,-163.2629 -189.6138,-503.9899 z"
       id="path4550"
       sodipodi:nodetypes="cccc" />
    <path
       style="fill:#ffffff;fill-opacity:1;fill-rule:evenodd;stroke:none;stroke-width:1px;stroke-linecap:butt;stroke-linejoin:miter;stroke-opacity:1"
       d="m 2485.4924,3550.6932 c 49.5294,7.3991 120.0335,-17.1375 102.3082,92.6629 39.3839,-103.8885 -28.1706,-119.3711 -107.1018,-125.4486 z"
       id="path5466"
       sodipodi:nodetypes="cccc" />
    <path
       id="path6539"
       style="font-variation-settings:normal;opacity:1;vector-effect:none;fill:#ffffff;fill-opacity:1;fill-rule:evenodd;stroke:none;stroke-width:0.999995px;stroke-linecap:butt;stroke-linejoin:miter;stroke-miterlimit:4;stroke-dasharray:none;stroke-dashoffset:0;stroke-opacity:1;-inkscape-stroke:none;stop-color:#000000;stop-opacity:1"
       d="m 2360.4008,2221.3726 c -293.5787,0.4698 -383.2463,69.4542 -406.3774,194.9218 v 356.0489 c 48.6963,153.4797 583.7552,191.6917 841.4703,60.7624 82.5122,-51.3435 164.1586,-292.8812 8.4087,-498.0086 -75.8921,-86.1071 -110.3617,-114.2575 -443.5016,-113.7245 z"
       sodipodi:nodetypes="sccccs" />
    <path
       style="font-variation-settings:normal;vector-effect:none;fill:#ffffff;fill-opacity:1;fill-rule:evenodd;stroke:none;stroke-width:1px;stroke-linecap:butt;stroke-linejoin:miter;stroke-miterlimit:4;stroke-dasharray:none;stroke-dashoffset:0;stroke-opacity:1;-inkscape-stroke:none;stop-color:#000000"
       d="m 2100.5495,2799.4766 c 76.9904,-83.2112 555.4232,-113.2725 667.152,-1.2185 123.5456,141.9167 63.5271,301.113 -1.9238,338.1864 -218.4348,101.6638 -588.2645,50.4722 -655.2398,-4.4357 -71.0077,-55.7323 -78.8889,-269.0209 -9.9884,-332.5322 z"
       id="path6539-5"
       sodipodi:nodetypes="ccccc" />
    <path
       style="font-variation-settings:normal;opacity:1;vector-effect:none;fill:#ffffff;fill-opacity:1;fill-rule:evenodd;stroke:none;stroke-width:0.999997px;stroke-linecap:butt;stroke-linejoin:miter;stroke-miterlimit:4;stroke-dasharray:none;stroke-dashoffset:0;stroke-opacity:1;-inkscape-stroke:none;stop-color:#000000;stop-opacity:1"
       d="m 2617.0488,3106.7558 c -25.872,10.6294 -51.7372,21.2752 -77.5957,31.9375 38.2633,32.8895 76.9791,66.3363 122.3946,89.0801 38.5615,18.2177 82.6405,26.4877 124.9199,18.8496 35.0876,-7.8934 67.566,-26.626 92.1399,-52.8653 4.2411,-4.0332 8.4822,-8.0664 12.7234,-12.0996 -26.2739,21.3349 -59.4875,33.8078 -93.2871,35.2461 -38.9206,3.2293 -77.8808,-10.1767 -109.4629,-32.4785 -28.8994,-20.1544 -51.7069,-47.8371 -70.2481,-77.541 -0.5084,-0.1767 -1.0537,-0.2136 -1.584,-0.1289 z"
       id="path6735"
       sodipodi:nodetypes="cccc" />
    <path
       style="font-variation-settings:normal;vector-effect:none;fill:#ffffff;fill-opacity:1;fill-rule:evenodd;stroke:none;stroke-width:0.999997px;stroke-linecap:butt;stroke-linejoin:miter;stroke-miterlimit:4;stroke-dasharray:none;stroke-dashoffset:0;stroke-opacity:1;-inkscape-stroke:none;stop-color:#000000"
       d="M 2217.1055 1997.0137 C 2163.0199 1998.1635 2108.777 2009.3794 2059.8098 2032.7055 C 2035.7255 2044.7771 2013.8114 2063.0979 2001.762 2087.5952 C 1979.2067 2133.0773 1982.5026 2189.9122 2009.0652 2233.0095 C 2020.5556 2251.4404 2037.1391 2266.7908 2056.8796 2275.9968 C 2084.757 2289.7606 2115.8703 2294.4397 2146.3324 2298.7892 C 2199.3407 2306.1707 2253.8795 2309.4739 2306.5857 2298.1137 C 2326.759 2293.7364 2346.7943 2287.74 2365.0918 2278.0371 C 2386.1208 2266.093 2401.4558 2246.2154 2412.0156 2224.8051 C 2419.9617 2208.7641 2426.1971 2191.8446 2430.4861 2174.4639 C 2436.0347 2151.1607 2436.7374 2126.1638 2428.8795 2103.2904 C 2418.7084 2072.3442 2398.0946 2045.0728 2371.666 2026.1387 C 2352.646 2012.6055 2330.3256 2003.7834 2307.1686 2000.779 C 2278.1222 1996.3814 2248.6516 1997.0838 2219.3665 1996.9788 C 2218.6128 1996.9904 2217.8591 1997.002 2217.1055 1997.0137 z "
       id="path6503"
       sodipodi:nodetypes="ccccc" />
  </g>
  <g
     inkscape:groupmode="layer"
     id="layer1"
     inkscape:label="txt">
    <text
       id="shape013"
       text-rendering="auto"
       fill="#000000"
       stroke-opacity="0"
       stroke="#000000"
       stroke-width="0"
       stroke-linecap="square"
       stroke-linejoin="bevel"
       letter-spacing="0"
       text-anchor="middle"
       word-spacing="0"
       style="font-size:123.063px;font-family:'Grand Hotel';text-align:start;display:inline"
       x="175.27139"
       y="3776.3242"
       inkscape:label="Credit-Title"><tspan
         x="588.22894"
         id="tspan1"
         style="stroke-width:0">Mini Fantasy Theater</tspan></text>
    <text
       id="shape2"
       text-rendering="auto"
       fill="#000000"
       stroke-opacity="0"
       stroke="#000000"
       stroke-width="0"
       stroke-linecap="square"
       stroke-linejoin="bevel"
       letter-spacing="0"
       text-anchor="end"
       word-spacing="0"
       style="font-size:73.8377px;font-family:Pangolin;text-align:start;display:inline"
       x="3040.1685"
       y="3736.7832"
       inkscape:label="Credit-Name"><tspan
         x="3680.696"
         id="tspan2"
         style="stroke-width:0">David Revoy</tspan><tspan
         x="3680.696"
         dy="73.837677"
         id="tspan3"
         style="stroke-width:0">www.davidrevoy.com</tspan></text>
    <text
       id="shape21"
       text-rendering="auto"
       fill="#8e8b88"
       stroke-opacity="0"
       stroke="#000000"
       stroke-width="0"
       stroke-linecap="square"
       stroke-linejoin="bevel"
       letter-spacing="0"
       text-anchor="end"
       word-spacing="0"
       style="font-size:45px;line-height:100%;font-family:Pangolin;text-align:start;display:inline"
       x="1167.5646"
       y="3778.4343"
       inkscape:label="Credit-License"><tspan
         sodipodi:role="line"
         id="tspan10"
         x="1922.5271"
         y="3778.4343"
         style="font-size:45px;line-height:100%;text-align:center;text-anchor:middle"><tspan
           x="1922.5271"
           id="tspan4"
           style="font-size:45px;line-height:100%;text-align:center;text-anchor:middle;stroke-width:0">license: Creative Commons Attribution-ShareAlike 4.0 International</tspan></tspan><tspan
         sodipodi:role="line"
         x="1922.5271"
         y="3823.4343"
         style="font-size:45px;line-height:100%;text-align:center;text-anchor:middle"
         id="tspan1585">Proofreading: Kattni, Audreyeena, Viidahr, Tennoseremel, Cherryband, Foxlet.</tspan></text>
    <text
       id="shape22"
       text-rendering="auto"
       fill="#828181"
       stroke-opacity="0"
       stroke="#000000"
       stroke-width="0"
       stroke-linecap="square"
       stroke-linejoin="bevel"
       kerning="none"
       letter-spacing="0"
       text-anchor="middle"
       word-spacing="0"
       style="font-size:73.8377px;font-family:'Patrick Hand SC';text-align:start;display:inline"
       x="1701.0232"
       y="3732.3135"
       inkscape:label="Credit-ID"><tspan
         x="1922.2478"
         id="tspan5"
         style="stroke-width:0">Episode 7</tspan></text>
    <text
       xml:space="preserve"
       id="text1"
       style="color:#000000;font-weight:bold;font-size:120px;line-height:1.1;font-family:DeevadHand;-inkscape-font-specification:'DeevadHand Bold';text-align:center;text-decoration:none;text-decoration-line:none;text-decoration-color:#000000;letter-spacing:0px;word-spacing:0px;white-space:pre;shape-inside:url(#rect3);display:inline;overflow:visible;fill:#000000;stroke:none;stroke-width:14.7996;paint-order:stroke fill markers"
       x="902.68744"
       y="0"
       transform="matrix(1.0925274,0,0,1.0925274,-779.19213,-588.43327)"><tspan
         x="1084.7207"
         y="944.4336"
         id="tspan619">Master of Dragons!</tspan></text>
    <text
       xml:space="preserve"
       id="text1-6"
       style="color:#000000;font-weight:bold;font-size:93px;line-height:1;font-family:DeevadHand;-inkscape-font-specification:'DeevadHand Bold';text-align:center;text-decoration:none;text-decoration-line:none;text-decoration-color:#000000;letter-spacing:0px;word-spacing:0px;white-space:pre;shape-inside:url(#rect3-3);display:inline;overflow:visible;fill:#000000;stroke:none;stroke-width:16.169;paint-order:stroke fill markers"
       x="902.68744"
       y="0"
       transform="translate(-603.04733,-336.64819)"><tspan
         x="1060.8735"
         y="915.49414"
         id="tspan624"><tspan
           style="font-weight:normal;-inkscape-font-specification:DeevadHand"
           id="tspan621">I challenge you to a duel, </tspan></tspan><tspan
         x="1084.396"
         y="1008.4941"
         id="tspan632"><tspan
   style="font-weight:normal;-inkscape-font-specification:DeevadHand"
   id="tspan626">against </tspan>ME<tspan
   style="font-weight:normal;-inkscape-font-specification:DeevadHand"
   id="tspan628">, the </tspan>greatest<tspan
   style="font-weight:normal;-inkscape-font-specification:DeevadHand"
   id="tspan630"> </tspan></tspan><tspan
         x="1011.0132"
         y="1101.4941"
         id="tspan636"><tspan
           style="font-weight:normal;-inkscape-font-specification:DeevadHand"
           id="tspan634">knight the kingdom has ever </tspan></tspan><tspan
         x="1076.4492"
         y="1194.4941"
         id="tspan640"><tspan
           style="font-weight:normal;-inkscape-font-specification:DeevadHand"
           id="tspan638">known!!! My knowledge of </tspan></tspan><tspan
         x="1148.2881"
         y="1287.4941"
         id="tspan646"><tspan
   style="font-weight:normal;-inkscape-font-specification:DeevadHand"
   id="tspan642">fencing is </tspan>unrivaled<tspan
   style="font-weight:normal;-inkscape-font-specification:DeevadHand"
   id="tspan644">!!!</tspan></tspan></text>
    <text
       xml:space="preserve"
       id="text1-6-5"
       style="color:#000000;font-weight:bold;font-size:93px;line-height:1;font-family:DeevadHand;-inkscape-font-specification:'DeevadHand Bold';text-align:center;text-decoration:none;text-decoration-line:none;text-decoration-color:#000000;letter-spacing:0px;word-spacing:0px;white-space:pre;shape-inside:url(#rect3-3-7);display:inline;overflow:visible;fill:#000000;stroke:none;stroke-width:16.169;paint-order:stroke fill markers"
       x="902.68744"
       y="0"
       transform="translate(1106.9156,-522.59592)"><tspan
         x="949.5791"
         y="915.49414"
         id="tspan650"><tspan
           style="font-weight:normal;-inkscape-font-specification:DeevadHand"
           id="tspan648">You're terrified, </tspan></tspan><tspan
         x="1050.2988"
         y="1008.4941"
         id="tspan654"><tspan
           style="font-weight:normal;-inkscape-font-specification:DeevadHand"
           id="tspan652">aren't you?!</tspan></tspan></text>
    <text
       xml:space="preserve"
       id="text1-6-5-7"
       style="color:#000000;font-weight:bold;font-size:93px;line-height:1;font-family:DeevadHand;-inkscape-font-specification:'DeevadHand Bold';text-align:center;text-decoration:none;text-decoration-line:none;text-decoration-color:#000000;letter-spacing:0px;word-spacing:0px;white-space:pre;shape-inside:url(#rect3-3-7-36);display:inline;overflow:visible;fill:#000000;stroke:none;stroke-width:16.169;paint-order:stroke fill markers"
       x="902.68744"
       y="0"
       transform="translate(1042.0288,-314.51117)"><tspan
         x="1150.0303"
         y="915.49414"
         id="tspan658"><tspan
           style="font-weight:normal;-inkscape-font-specification:DeevadHand"
           id="tspan656">well, you 
</tspan></tspan><tspan
         x="1058.6196"
         y="1008.4941"
         id="tspan662"><tspan
   style="font-weight:normal;-inkscape-font-specification:DeevadHand"
   id="tspan660">should be! </tspan>I'm </tspan><tspan
         x="1114.6104"
         y="1101.4941"
         id="tspan664">terrifying!</tspan></text>
    <text
       xml:space="preserve"
       id="text1-6-5-6"
       style="color:#000000;font-weight:bold;font-size:93px;line-height:1;font-family:DeevadHand;-inkscape-font-specification:'DeevadHand Bold';text-align:center;text-decoration:none;text-decoration-line:none;text-decoration-color:#000000;letter-spacing:0px;word-spacing:0px;white-space:pre;shape-inside:url(#rect3-3-7-0);display:inline;overflow:visible;fill:#000000;stroke:none;stroke-width:16.169;paint-order:stroke fill markers"
       x="902.68744"
       y="0"
       transform="translate(449.55772,1947.7395)"><tspan
         x="1018.1602"
         y="915.49414"
         id="tspan668"><tspan
           style="font-weight:normal;-inkscape-font-specification:DeevadHand"
           id="tspan666">Honey, </tspan></tspan><tspan
         x="1028.5591"
         y="1008.4941"
         id="tspan672"><tspan
           style="font-weight:normal;-inkscape-font-specification:DeevadHand"
           id="tspan670">who is </tspan></tspan><tspan
         x="1034.6895"
         y="1101.4941"
         id="tspan676"><tspan
           style="font-weight:normal;-inkscape-font-specification:DeevadHand"
           id="tspan674">that?</tspan></tspan></text>
    <text
       xml:space="preserve"
       id="text1-6-5-6-6-8"
       style="color:#000000;font-style:normal;font-variant:normal;font-weight:normal;font-stretch:normal;font-size:93px;line-height:1;font-family:DeevadHand;-inkscape-font-specification:DeevadHand;text-align:center;text-decoration:none;text-decoration-line:none;text-decoration-color:#000000;letter-spacing:0px;word-spacing:0px;white-space:pre;shape-inside:url(#rect3-3-7-0-2-1);display:inline;overflow:visible;fill:#000000;stroke:none;stroke-width:16.169;paint-order:stroke fill markers"
       x="902.68744"
       y="0"
       transform="translate(1068.5385,1476.9725)"><tspan
         x="1059.6396"
         y="915.49414"
         id="tspan678">As usual: an </tspan><tspan
         x="999.01709"
         y="1008.4941"
         id="tspan680">overconfident </tspan><tspan
         x="961.87158"
         y="1101.4941"
         id="tspan682">newbie, victim of </tspan><tspan
         x="983.30518"
         y="1194.4941"
         id="tspan684">overestimating </tspan><tspan
         x="955.33252"
         y="1287.4941"
         id="tspan686">his own abilities.</tspan></text>
    <text
       xml:space="preserve"
       id="text1-6-5-6-6-8-7"
       style="color:#000000;font-style:normal;font-variant:normal;font-weight:normal;font-stretch:normal;font-size:93px;line-height:1;font-family:DeevadHand;-inkscape-font-specification:DeevadHand;text-align:center;text-decoration:none;text-decoration-line:none;text-decoration-color:#000000;letter-spacing:0px;word-spacing:0px;white-space:pre;shape-inside:url(#rect3-3-7-0-2-1-36);display:inline;overflow:visible;fill:#000000;stroke:none;stroke-width:16.169;paint-order:stroke fill markers"
       x="902.68744"
       y="0"
       transform="translate(1198.3314,2020.0143)"><tspan
         x="1034.5024"
         y="915.49414"
         id="tspan688">A classic </tspan><tspan
         x="942.81934"
         y="1008.4941"
         id="tspan690">bias in human </tspan><tspan
         x="1065.6084"
         y="1101.4941"
         id="tspan692">nature.</tspan></text>
    <text
       xml:space="preserve"
       id="text1-6-5-1"
       style="color:#000000;font-style:normal;font-variant:normal;font-weight:normal;font-stretch:normal;font-size:81.0336px;line-height:1.1;font-family:DeevadHand;-inkscape-font-specification:DeevadHand;text-align:center;text-decoration:none;text-decoration-line:none;text-decoration-color:#000000;letter-spacing:0px;word-spacing:0px;white-space:pre;shape-inside:url(#rect3-3-7-9);display:inline;overflow:visible;fill:#000000;stroke:none;stroke-width:19.5557;paint-order:stroke fill markers"
       x="902.68744"
       y="0"
       transform="matrix(0.82770365,0,0,0.82593205,-704.31637,2281.9766)"><tspan
         x="1186.4208"
         y="909.37906"
         id="tspan696"><tspan
           style="stroke-width:23.6518"
           id="tspan694">Hyah!</tspan></tspan></text>
    <text
       xml:space="preserve"
       id="text1-6-5-1-7"
       style="color:#000000;font-style:normal;font-variant:normal;font-weight:normal;font-stretch:normal;font-size:81.0336px;line-height:1.1;font-family:DeevadHand;-inkscape-font-specification:DeevadHand;text-align:center;text-decoration:none;text-decoration-line:none;text-decoration-color:#000000;letter-spacing:0px;word-spacing:0px;white-space:pre;shape-inside:url(#rect3-3-7-9-2);display:inline;overflow:visible;fill:#000000;stroke:none;stroke-width:19.5557;paint-order:stroke fill markers"
       x="902.68744"
       y="0"
       transform="matrix(0.82770365,0,0,0.82593205,-591.11278,2384.243)"><tspan
         x="1186.4208"
         y="909.37906"
         id="tspan700"><tspan
           style="stroke-width:23.6518"
           id="tspan698">Hyah!</tspan></tspan></text>
    <text
       xml:space="preserve"
       id="text1-6-5-1-7-9"
       style="color:#000000;font-style:normal;font-variant:normal;font-weight:normal;font-stretch:normal;font-size:79.2057px;line-height:1.1;font-family:DeevadHand;-inkscape-font-specification:DeevadHand;text-align:center;text-decoration:none;text-decoration-line:none;text-decoration-color:#000000;letter-spacing:0px;word-spacing:0px;white-space:pre;shape-inside:url(#rect3-3-7-9-2-0);display:inline;overflow:visible;fill:#000000;stroke:none;stroke-width:19.1146;paint-order:stroke fill markers"
       x="902.68744"
       y="0"
       transform="matrix(0.84589886,0,0,0.84589886,1169.4455,2671.5497)"><tspan
         x="1188.7663"
         y="907.73466"
         id="tspan702">Hyah!</tspan></text>
    <text
       xml:space="preserve"
       id="text1-6-5-1-7-9-9"
       style="color:#000000;font-style:normal;font-variant:normal;font-weight:normal;font-stretch:normal;font-size:79.2057px;line-height:1.1;font-family:DeevadHand;-inkscape-font-specification:DeevadHand;text-align:center;text-decoration:none;text-decoration-line:none;text-decoration-color:#000000;letter-spacing:0px;word-spacing:0px;white-space:pre;shape-inside:url(#rect3-3-7-9-2-0-7);display:inline;overflow:visible;fill:#000000;stroke:none;stroke-width:19.1146;paint-order:stroke fill markers"
       x="902.68744"
       y="0"
       transform="matrix(0.84589886,0,0,0.84589886,1296.6577,2783.1244)"><tspan
         x="1188.7663"
         y="907.73466"
         id="tspan704">Hyah!</tspan></text>
    <text
       xml:space="preserve"
       id="text1-6-5-5"
       style="color:#000000;font-weight:bold;font-size:93px;line-height:1;font-family:DeevadHand;-inkscape-font-specification:'DeevadHand Bold';text-align:center;text-decoration:none;text-decoration-line:none;text-decoration-color:#000000;letter-spacing:0px;word-spacing:0px;white-space:pre;shape-inside:url(#rect3-3-7-3);display:inline;overflow:visible;fill:#000000;stroke:none;stroke-width:16.169;paint-order:stroke fill markers"
       x="902.68744"
       y="0"
       transform="translate(1078.4533,-1.1012111)"><tspan
         x="961.97314"
         y="915.49414"
         id="tspan706">Show Yourself!!!</tspan></text>
    <text
       xml:space="preserve"
       id="text1-6-5-5-2"
       style="color:#000000;font-weight:bold;font-size:93px;line-height:1;font-family:DeevadHand;-inkscape-font-specification:'DeevadHand Bold';text-align:center;text-decoration:none;text-decoration-line:none;text-decoration-color:#000000;letter-spacing:0px;word-spacing:0px;white-space:pre;shape-inside:url(#rect3-3-7-3-6);display:inline;overflow:visible;fill:#000000;stroke:none;stroke-width:11.2488;paint-order:stroke fill markers"
       x="902.68744"
       y="0"
       transform="matrix(1.4373979,0,0,1.4373979,542.15163,-225.27632)"><tspan
         x="1078.6558"
         y="915.49414"
         id="tspan708">Coward!!!</tspan></text>
    <text
       xml:space="preserve"
       id="text1-6-5-6-6"
       style="color:#000000;font-weight:bold;font-size:93px;line-height:1;font-family:DeevadHand;-inkscape-font-specification:'DeevadHand Bold';text-align:center;text-decoration:none;text-decoration-line:none;text-decoration-color:#000000;letter-spacing:0px;word-spacing:0px;white-space:pre;shape-inside:url(#rect3-3-7-0-2-3);display:inline;overflow:visible;fill:#000000;stroke:none;stroke-width:16.169;paint-order:stroke fill markers"
       x="902.68744"
       y="0"
       transform="translate(1068.5745,1222.5234)"><tspan
         x="998.6792"
         y="915.49414"
         id="tspan714"><tspan
           style="font-weight:normal;-inkscape-font-specification:DeevadHand"
           id="tspan710">it's </tspan><tspan
           style="font-weight:normal;-inkscape-font-specification:DeevadHand"
           id="tspan712">no </tspan></tspan><tspan
         x="1048.9028"
         y="1008.4941"
         id="tspan718"><tspan
           style="font-weight:normal;-inkscape-font-specification:DeevadHand"
           id="tspan716">one.</tspan></tspan></text>
  </g>
</svg>
