<?xml version="1.0" encoding="UTF-8" standalone="no"?>
<!-- Created with Inkscape (http://www.inkscape.org/) -->

<svg
   id="svg2"
   version="1.1"
   inkscape:version="1.2.2 (b0a8486541, 2022-12-01)"
   width="3840"
   height="3840"
   sodipodi:docname="008.svg"
   xmlns:inkscape="http://www.inkscape.org/namespaces/inkscape"
   xmlns:sodipodi="http://sodipodi.sourceforge.net/DTD/sodipodi-0.dtd"
   xmlns:xlink="http://www.w3.org/1999/xlink"
   xmlns="http://www.w3.org/2000/svg"
   xmlns:svg="http://www.w3.org/2000/svg"
   xmlns:rdf="http://www.w3.org/1999/02/22-rdf-syntax-ns#"
   xmlns:cc="http://creativecommons.org/ns#"
   xmlns:dc="http://purl.org/dc/elements/1.1/">
  <metadata
     id="metadata8">
    <rdf:RDF>
      <cc:Work
         rdf:about="">
        <dc:format>image/svg+xml</dc:format>
        <dc:type
           rdf:resource="http://purl.org/dc/dcmitype/StillImage" />
        <dc:title />
      </cc:Work>
    </rdf:RDF>
  </metadata>
  <defs
     id="defs6" />
  <sodipodi:namedview
     pagecolor="#444444"
     bordercolor="#000000"
     borderopacity="1"
     objecttolerance="10"
     gridtolerance="10"
     guidetolerance="10"
     inkscape:pageopacity="0"
     inkscape:pageshadow="2"
     inkscape:window-width="1920"
     inkscape:window-height="1050"
     id="namedview4"
     showgrid="false"
     inkscape:zoom="0.69960252"
     inkscape:cx="1529.4399"
     inkscape:cy="3171.801"
     inkscape:window-x="1920"
     inkscape:window-y="0"
     inkscape:window-maximized="1"
     inkscape:current-layer="layer1"
     inkscape:showpageshadow="0"
     inkscape:pagecheckerboard="0"
     inkscape:deskcolor="#d1d1d1" />
  <g
     inkscape:groupmode="layer"
     id="layer2"
     inkscape:label="artwork"
     sodipodi:insensitive="true">
    <image
       xlink:href="../008.jpg"
       y="0"
       x="0"
       id="008"
       height="3840"
       width="3840" />
  </g>
  <g
     inkscape:groupmode="layer"
     id="layer3"
     inkscape:label="speechbubbles" />
  <g
     inkscape:groupmode="layer"
     id="layer1"
     inkscape:label="txt">
    <text
       id="shape013"
       text-rendering="auto"
       fill="#000000"
       stroke-opacity="0"
       stroke="#000000"
       stroke-width="0"
       stroke-linecap="square"
       stroke-linejoin="bevel"
       letter-spacing="0"
       text-anchor="middle"
       word-spacing="0"
       style="font-size:123.063px;font-family:'Grand Hotel';text-align:start;display:inline"
       x="175.27139"
       y="3776.3242"
       inkscape:label="Credit-Title"><tspan
         x="588.22894"
         id="tspan1"
         style="stroke-width:0">Mini Fantasy Theater</tspan></text>
    <text
       id="shape2"
       text-rendering="auto"
       fill="#000000"
       stroke-opacity="0"
       stroke="#000000"
       stroke-width="0"
       stroke-linecap="square"
       stroke-linejoin="bevel"
       letter-spacing="0"
       text-anchor="end"
       word-spacing="0"
       style="font-size:73.8377px;font-family:Pangolin;text-align:start;display:inline"
       x="3040.1685"
       y="3736.7832"
       inkscape:label="Credit-Name"><tspan
         x="3680.696"
         id="tspan2"
         style="stroke-width:0">David Revoy</tspan><tspan
         x="3680.696"
         dy="73.837677"
         id="tspan3"
         style="stroke-width:0">www.davidrevoy.com</tspan></text>
    <text
       id="shape21"
       text-rendering="auto"
       fill="#8e8b88"
       stroke-opacity="0"
       stroke="#000000"
       stroke-width="0"
       stroke-linecap="square"
       stroke-linejoin="bevel"
       letter-spacing="0"
       text-anchor="end"
       word-spacing="0"
       style="font-size:45px;line-height:100%;font-family:Pangolin;text-align:start;display:inline"
       x="1167.5646"
       y="3778.4343"
       inkscape:label="Credit-License"><tspan
         sodipodi:role="line"
         id="tspan10"
         x="1922.5271"
         y="3778.4343"
         style="font-size:45px;line-height:100%;text-align:center;text-anchor:middle"><tspan
           x="1922.5271"
           id="tspan4"
           style="font-size:45px;line-height:100%;text-align:center;text-anchor:middle;stroke-width:0">license: Creative Commons Attribution-ShareAlike 4.0 International</tspan></tspan></text>
    <text
       id="shape22"
       text-rendering="auto"
       fill="#828181"
       stroke-opacity="0"
       stroke="#000000"
       stroke-width="0"
       stroke-linecap="square"
       stroke-linejoin="bevel"
       kerning="none"
       letter-spacing="0"
       text-anchor="middle"
       word-spacing="0"
       style="font-size:73.8377px;font-family:'Patrick Hand SC';text-align:start;display:inline"
       x="1701.0232"
       y="3732.3135"
       inkscape:label="Credit-ID"><tspan
         x="1922.2478"
         id="tspan5"
         style="stroke-width:0">Episode 8</tspan></text>
  </g>
</svg>
