<?xml version="1.0" encoding="UTF-8" standalone="no"?>
<!-- Created with Inkscape (http://www.inkscape.org/) -->

<svg
   id="svg2"
   version="1.1"
   inkscape:version="1.2.2 (732a01da63, 2022-12-09)"
   width="2481"
   height="663"
   sodipodi:docname="E13P00.svg"
   xml:space="preserve"
   xmlns:inkscape="http://www.inkscape.org/namespaces/inkscape"
   xmlns:sodipodi="http://sodipodi.sourceforge.net/DTD/sodipodi-0.dtd"
   xmlns:xlink="http://www.w3.org/1999/xlink"
   xmlns="http://www.w3.org/2000/svg"
   xmlns:svg="http://www.w3.org/2000/svg"
   xmlns:rdf="http://www.w3.org/1999/02/22-rdf-syntax-ns#"
   xmlns:cc="http://creativecommons.org/ns#"
   xmlns:dc="http://purl.org/dc/elements/1.1/"><sodipodi:namedview
     pagecolor="#ffffff"
     bordercolor="#666666"
     inkscape:pageopacity="0"
     inkscape:pageshadow="2"
     inkscape:window-width="1920"
     inkscape:window-height="1017"
     id="namedview70"
     showgrid="false"
     inkscape:zoom="0.38493217"
     inkscape:cx="970.30082"
     inkscape:cy="-101.31655"
     inkscape:current-layer="layer1"
     borderopacity="0.25"
     inkscape:showpageshadow="2"
     inkscape:pagecheckerboard="0"
     inkscape:deskcolor="#d1d1d1"
     inkscape:window-x="-8"
     inkscape:window-y="-8"
     inkscape:window-maximized="1" /><metadata
     id="metadata8"><rdf:RDF><cc:Work
         rdf:about=""><dc:format>image/svg+xml</dc:format><dc:type
           rdf:resource="http://purl.org/dc/dcmitype/StillImage" /><dc:title /></cc:Work></rdf:RDF></metadata><defs
     id="defs6"><linearGradient
       inkscape:collect="always"
       id="linearGradient3269"><stop
         style="stop-color:#a05a2c;stop-opacity:1;"
         offset="0"
         id="stop3263" /><stop
         style="stop-color:#ffd42a;stop-opacity:1;"
         offset="1"
         id="stop3267" /></linearGradient><linearGradient
       inkscape:collect="always"
       id="linearGradient10549"><stop
         style="stop-color:#e80000;stop-opacity:1"
         offset="0"
         id="stop10543" /><stop
         id="stop10545"
         offset="0.5"
         style="stop-color:#e80000;stop-opacity:1;" /><stop
         style="stop-color:#2b0000;stop-opacity:1"
         offset="1"
         id="stop10547" /></linearGradient><linearGradient
       inkscape:collect="always"
       id="linearGradient10539"><stop
         style="stop-color:#e80000;stop-opacity:1;"
         offset="0"
         id="stop10535" /><stop
         style="stop-color:#e80000;stop-opacity:1;"
         offset="0.50080389"
         id="stop10551" /><stop
         style="stop-color:#2b0000;stop-opacity:1;"
         offset="1"
         id="stop10537" /></linearGradient><rect
       x="1046.25"
       y="355"
       width="147.5"
       height="150"
       id="rect321" /><linearGradient
       inkscape:collect="always"
       id="linearGradient4290"><stop
         style="stop-color:#e80000;stop-opacity:1"
         offset="0"
         id="stop4292" /><stop
         id="stop4298"
         offset="0.5"
         style="stop-color:#9e1900;stop-opacity:1;" /><stop
         style="stop-color:#2b0000;stop-opacity:1"
         offset="1"
         id="stop4294" /></linearGradient><filter
       inkscape:menu-tooltip="Transparent plastic with deep colors"
       inkscape:menu="Bevels"
       inkscape:label="Pepper-title-style"
       style="color-interpolation-filters:sRGB;"
       id="filter4268"
       x="-0.84906537"
       y="-1.173043"
       width="2.7046882"
       height="3.3447349"><feGaussianBlur
         in="SourceGraphic"
         result="result6"
         stdDeviation="0.20000000000000001"
         id="feGaussianBlur4270" /><feComposite
         in2="SourceGraphic"
         in="result6"
         operator="xor"
         id="feComposite4272" /><feGaussianBlur
         result="result2"
         stdDeviation="6.0001843317972341"
         id="feGaussianBlur4274" /><feComposite
         in2="SourceGraphic"
         operator="atop"
         result="result91"
         id="feComposite4276"
         stdDeviation="6" /><feComposite
         result="result4"
         in="result2"
         operator="xor"
         in2="result91"
         id="feComposite4278"
         stdDeviation="3.7000000000000002" /><feGaussianBlur
         in="result4"
         result="result3"
         stdDeviation="3.6962672811059902"
         id="feGaussianBlur4280" /><feSpecularLighting
         lighting-color="rgb(216,189,109)"
         in="result3"
         result="result5"
         specularExponent="35"
         specularConstant="3"
         surfaceScale="12"
         id="feSpecularLighting4282"><feDistantLight
           elevation="45"
           azimuth="235"
           id="feDistantLight4284" /></feSpecularLighting><feComposite
         in2="result5"
         in="SourceGraphic"
         k3="0.7"
         k2="0.8"
         operator="arithmetic"
         result="result7"
         id="feComposite4286"
         k1="0"
         k4="0" /><feComposite
         in="result7"
         operator="in"
         in2="SourceGraphic"
         id="feComposite4288" /></filter><linearGradient
       inkscape:collect="always"
       xlink:href="#linearGradient10549"
       id="linearGradient4327"
       gradientUnits="userSpaceOnUse"
       x1="1243.5789"
       y1="254.0174"
       x2="1240.9818"
       y2="421.95773"
       gradientTransform="translate(-309.23168,-10.255773)" /><linearGradient
       inkscape:collect="always"
       xlink:href="#linearGradient4290"
       id="linearGradient4327-3"
       gradientUnits="userSpaceOnUse"
       x1="1243.5789"
       y1="254.0174"
       x2="1240.9818"
       y2="421.95773"
       gradientTransform="translate(-300.09377,-152.28618)" /><filter
       inkscape:menu-tooltip="Transparent plastic with deep colors"
       inkscape:menu="Bevels"
       inkscape:label="Pepper-title-style"
       style="color-interpolation-filters:sRGB"
       id="filter4268-0"><feGaussianBlur
         in="SourceGraphic"
         result="result6"
         stdDeviation="0.20000000000000001"
         id="feGaussianBlur4270-9" /><feComposite
         in2="SourceGraphic"
         in="result6"
         operator="xor"
         id="feComposite4272-3" /><feGaussianBlur
         result="result2"
         stdDeviation="6.0001843317972341"
         id="feGaussianBlur4274-4" /><feComposite
         in2="SourceGraphic"
         operator="atop"
         result="result91"
         id="feComposite4276-3"
         stdDeviation="6" /><feComposite
         result="result4"
         in="result2"
         operator="xor"
         in2="result91"
         id="feComposite4278-2"
         stdDeviation="3.7000000000000002" /><feGaussianBlur
         in="result4"
         result="result3"
         stdDeviation="3.6962672811059902"
         id="feGaussianBlur4280-5" /><feSpecularLighting
         lighting-color="#d8bd6d"
         in="result3"
         result="result5"
         specularExponent="35"
         specularConstant="3"
         surfaceScale="12"
         id="feSpecularLighting4282-0"><feDistantLight
           elevation="45"
           azimuth="235"
           id="feDistantLight4284-6" /></feSpecularLighting><feComposite
         k4="0"
         k1="0"
         in2="result5"
         in="SourceGraphic"
         k3="0.7"
         k2="0.8"
         operator="arithmetic"
         result="result7"
         id="feComposite4286-6" /><feComposite
         in="result7"
         operator="in"
         in2="SourceGraphic"
         id="feComposite4288-4" /></filter><linearGradient
       inkscape:collect="always"
       xlink:href="#linearGradient10539"
       id="linearGradient10541"
       x1="1196.4883"
       y1="-63.799503"
       x2="1195.4698"
       y2="109.44165"
       gradientUnits="userSpaceOnUse"
       gradientTransform="translate(3.8967904,11.690371)" /><linearGradient
       inkscape:collect="always"
       xlink:href="#linearGradient3269"
       id="linearGradient3261"
       gradientUnits="userSpaceOnUse"
       gradientTransform="translate(1.380739,12.081812)"
       x1="1189.9937"
       y1="198.58438"
       x2="1183.7795"
       y2="21.114397" /></defs><sodipodi:namedview
     pagecolor="#ffffff"
     bordercolor="#666666"
     borderopacity="1"
     objecttolerance="10"
     gridtolerance="10"
     guidetolerance="10"
     inkscape:pageopacity="0"
     inkscape:pageshadow="2"
     inkscape:window-width="1920"
     inkscape:window-height="1025"
     id="namedview4"
     showgrid="false"
     inkscape:zoom="0.40071843"
     inkscape:cx="1098.9612"
     inkscape:cy="621.43555"
     inkscape:window-x="0"
     inkscape:window-y="26"
     inkscape:window-maximized="1"
     inkscape:current-layer="layer1" /><g
     inkscape:groupmode="layer"
     id="layer2"
     inkscape:label="artwork"
     sodipodi:insensitive="true"><image
       xlink:href="../gfx_Pepper-and-Carrot_by-David-Revoy_E13P00.png"
       y="0"
       x="0"
       id="image10"
       height="663"
       width="2481" /></g><g
     inkscape:groupmode="layer"
     id="layer1"
     inkscape:label="txt"
     style="display:inline"><path
       style="color:#000000;clip-rule:nonzero;display:inline;overflow:visible;visibility:visible;opacity:1;isolation:auto;mix-blend-mode:normal;color-interpolation:sRGB;color-interpolation-filters:linearRGB;solid-color:#000000;solid-opacity:1;fill:url(#linearGradient4327);fill-opacity:1;fill-rule:nonzero;stroke:#552200;stroke-width:5.4;stroke-linecap:butt;stroke-linejoin:miter;stroke-miterlimit:4;stroke-dasharray:none;stroke-dashoffset:0;stroke-opacity:1;filter:url(#filter4268);color-rendering:auto;image-rendering:auto;shape-rendering:auto;text-rendering:auto;enable-background:accumulate"
       d="m 1536.4213,351.35335 16.5232,-11.15831 16.9221,12.23719 -17.6612,10.81842 z"
       id="path4329"
       inkscape:connector-curvature="0"
       sodipodi:nodetypes="ccccc" /><text
       xml:space="preserve"
       style="font-style:normal;font-variant:normal;font-weight:normal;font-stretch:normal;line-height:0%;font-family:Arial;-inkscape-font-specification:Arial;letter-spacing:0px;word-spacing:0px;display:inline;fill:#2b1100;fill-opacity:1;stroke:#000000;stroke-width:2;stroke-miterlimit:4;stroke-dasharray:none;stroke-opacity:1"
       x="748.98328"
       y="582.47577"
       id="episode-title"><tspan
         sodipodi:role="line"
         id="tspan4180"
         style="font-style:normal;font-variant:normal;font-weight:normal;font-stretch:normal;font-size:72.5px;line-height:1.25;font-family:Lavi;-inkscape-font-specification:Lavi;fill:#2b1100;stroke:none"
         x="748.98328"
         y="582.47577">Epizodas 13: Pižamų vakarėlis</tspan></text><g
       id="g10072"
       transform="translate(-58.688365,324.53505)"><path
         id="path3211"
         style="mix-blend-mode:normal;fill:url(#linearGradient3261);fill-opacity:1;fill-rule:nonzero;stroke:#552200;stroke-width:5.4;stroke-dasharray:none;stroke-opacity:1;filter:url(#filter4268)"
         d="m 1173.2351,163.48711 c -2.8875,-2.5111 -5.25,-5.04425 -5.25,-5.62921 0,-0.58497 1.8472,-2.76888 4.1048,-4.85313 l 4.1048,-3.78955 0.4144,-10.30684 c 0.2278,-5.66876 0.8423,-22.73457 1.3654,-37.92401 0.7998,-23.222578 1.2278,-28.099158 2.6895,-30.646118 2.4409,-4.25297 0.6592,-6.23671 -5.6013,-6.23671 -2.5727,0 -5.2176,-0.54 -5.8776,-1.2 -2.0988,-2.09882 -1.3158,-5.52479 1.8767,-8.21111 2.4723,-2.08027 4.1294,-2.58889 8.4349,-2.58889 6.7395,0 9.2369,0.95402 13.8251,5.28125 2.9282,2.7616 3.6633,4.19337 3.6633,7.13487 v 3.67996 l 4.5342,-3.11962 c 3.1435,-2.16275 6.5551,-3.43424 11.1227,-4.14535 6.0285,-0.93855 6.8297,-0.84747 9.4253,1.07157 1.5603,1.15353 4.2037,2.09732 5.8744,2.09732 3.8608,0 10.014,5.39074 12.5354,10.98217 1.6028,3.55436 1.657,4.37091 0.4412,6.64259 -1.2631,2.3602 -1.1885,2.75007 0.8403,4.39294 5.2448,4.246918 0.623,14.571718 -8.8863,19.851608 l -4.6128,2.5612 -2.3872,-2.76357 c -2.4877,-2.87988 -4.8607,-3.51137 -8.5901,-2.28591 -1.8646,0.61267 -2.5174,0.1075 -4.25,-3.28875 -5.0686,-9.93514 0.096,-17.432178 6.9529,-10.09228 2.3093,2.47215 3.5928,3 7.2942,3 2.6731,0 4.6844,-0.50611 4.9674,-1.25 1.488,-3.910978 -5.8753,-10.978058 -13.2921,-12.757318 -6.5305,-1.56663 -11.6611,-0.0144 -17.4356,5.2751 l -4.6204,4.23222 -0.2067,30.688848 c -0.1435,21.29901 0.1309,31.02995 0.8968,31.80365 0.6071,0.61314 6.2321,2.02679 12.5,3.14146 6.268,1.11466 11.691,2.32802 12.051,2.69635 0.36,0.36833 -1.5453,2.61271 -4.2341,4.98752 -4.6607,4.11645 -4.9931,4.24471 -7.1271,2.75 -2.9941,-2.09715 -3.8833,-1.99605 -8.1983,0.93217 -3.3421,2.26805 -4.6308,2.49774 -13.8895,2.47561 l -10.2056,-0.0244 -5.25,-4.56565 z m -36.8915,0.18119 c -5.1825,-2.27486 -5.7614,-5.80776 -4.9946,-30.48129 0.6104,-19.63771 0.8362,-21.62324 2.6517,-23.31459 2.5184,-2.3463 2.4919,-3.22015 -0.173,-5.70291 -2.1069,-1.96288 -2.1431,-2.44956 -1.5472,-20.788948 0.3357,-10.32846 1.1303,-20.25519 1.7659,-22.0594 2.2362,-6.34824 11.9889,-8.12499 15.4664,-2.81768 2.2869,3.4902 2.6787,14.78613 1.7462,50.333978 -0.6023,22.95704 -1.1952,32.58538 -2.0598,33.45 -1.5206,1.52057 -1.583,5.46805 -0.101,6.384 1.8202,1.12492 0.5363,11.23698 -1.7003,13.39179 -2.6603,2.56302 -7.3279,3.24073 -11.0543,1.60505 z m 0.6836,-134.411918 c -4.4272,-4.21151 -5.0065,-6.91102 -2.6785,-12.48256 1.8151,-4.3442 5.6155,-6.67568 10.8512,-6.65697 5.6069,0.02 7.1597,1.12921 7.2285,5.16319 0.046,2.6621 0.5034,3.38494 2.3067,3.64105 1.8481,0.26248 2.25,0.95014 2.25,3.85 0,2.68169 -0.8174,4.34785 -3.4,6.93045 -2.8721,2.87206 -4.1077,3.4 -7.9579,3.4 -3.9195,0 -5.1241,-0.53859 -8.6,-3.84516 z" /><path
         id="path916"
         style="fill:url(#linearGradient10541);fill-opacity:1;fill-rule:nonzero;stroke:#552200;stroke-width:5.4;stroke-dasharray:none;stroke-opacity:1;filter:url(#filter4268)"
         d="m 616.71352,188.72018 c -6.16702,-2.79898 -7.1866,-5.88415 -6.16812,-18.66422 0.44507,-5.58477 0.917,-21.33477 1.04874,-35 l 0.23953,-24.84586 -6.91625,-0.55141 c -11.28976,-0.90009 -24.41625,-9.1578 -24.41625,-15.359938 0,-2.1879 0.24029,-2.24412 7.75,-1.8132 10.20819,0.58575 14.94956,-0.80986 20.47599,-6.02708 l 4.50016,-4.24837 0.64845,-46.5 c 0.35665,-25.575001 0.9347,-53.28254 1.28455,-61.57232 l 0.63609,-15.07232 -9.39762,-2.42768 c -9.13035,-2.35864 -9.40611,-2.51452 -9.6963,-5.48093 -0.19243,-1.967 0.4686,-4.0287 1.85803,-5.79507 1.94294,-2.47004 2.58327,-2.67786 6.45995,-2.09651 3.86425,0.57948 4.47409,0.38454 5.97815,-1.91096 0.92121,-1.40594 1.37876,-3.03548 1.01677,-3.62119 -0.83956,-1.35844 4.19249,-3.47094 12.21495,-5.12796 5.47599,-1.13104 6.64677,-1.08621 9.70388,0.37163 3.91231,1.86565 6.19815,5.57482 7.16614,11.62834 0.7178,4.48885 1.48245,4.80446 6.5302,2.69537 9.41117,-3.93224 28.32834,-2.55329 39.34698,2.86815 11.98496,5.8969 22.29744,18.78293 27.52955,34.39973 5.49908,16.41365935 5.27299,43.15103 -0.50864,60.14971 -4.68703,13.78045 -14.99401,30.99201 -18.55926,30.99201 -2.22636,0 -4.93802,3.64901 -4.93802,6.64496 0,2.77064 -8.31267,10.1859 -15.93827,14.21761 -3.05896,1.6173 -11.18674,4.599638 -18.06173,6.627428 -18.9606,5.59245 -17.00001,1.60979 -17.00001,34.53305 v 27.97695 h 7.96505 c 5.082,0 13.13153,-1.1016 22.23852,-3.04341 15.05438,-3.20991 19.11577,-3.40877 19.53701,-0.95659 0.30095,1.75194 -12.4959,10.67107 -20.74057,14.45576 -5.15781,2.36766 -5.57566,2.41647 -6.7159,0.78449 -2.40594,-3.44351 -3.3928,-4.24025 -5.2521,-4.24025 -2.6621,0 -5.032,2.68608 -5.032,5.70335 0,3.64936 -5.9772,8.91543 -12.22548,10.77097 -7.22786,2.14644 -17.26507,1.93991 -22.56217,-0.46424 z M 651.92304,72.694462 c 4.90703,-1.0848 10.85435,-2.90785 13.21626,-4.05123 9.02367,-4.36828 19.0092,-18.46007 24.6859,-34.83724 6.33464,-18.27531 2.93165,-41.8227805 -7.48474,-51.79175 -7.06095,-6.75765 -21.41241,-10.92025 -29.00767,-8.41359 -1.90091,0.62736 -5.06555,2.82113 -7.03254,4.87505 l -3.57636,3.7344 -1.12451,33.5 c -1.49888,44.65268 -1.46194,59.0063 0.15179,58.97836 0.6875,-0.0119 5.26484,-0.9092 10.17187,-1.994 z M 1907.0012,120.83092 c -7.6368,-3.50387 -16.7716,-15.25052 -32.7293,-42.087538 -4.2503,-7.14779 -6.5708,-12.04422 -6.161,-13 1.6501,-3.84889 -1.06,-9.03328 -4.7221,-9.03328 -2.0087,0 -4.3423,-2.78714 -12.0996,-14.45124 -2.9084,-4.37318 -5.7681,-8.09573 -6.355,-8.27233 -0.5868,-0.1766 -4.2993,3.67763 -8.25,8.56496 -6.7088,8.29939 -7.1837,9.20866 -7.194,13.77233 -0.02,8.98366 -1.0425,12.51129 -4.1353,14.27037 -3.5868,2.04004 -3.7007,5.22412 -0.3798,10.61591 4.6575,7.56184 2.9294,18.483908 -3.9769,25.135918 -6.1693,5.94215 -12.3809,7.80163 -26.1768,7.83613 -11.0217,0.0275 -11.2232,-0.0136 -14.25,-2.90914 -1.6886,-1.6154 -3.0702,-3.66463 -3.0702,-4.55383 0,-1.89277 4.2395,-6.04793 12.1613,-11.919388 7.9165,-5.86756 8.8368,-8.32576 9.89,-26.41793 0.4857,-8.34447 0.8979,-17.02146 0.9159,-19.28221 0.022,-2.69395 0.8943,-5.37999 2.5328,-7.79441 3.1103,-4.58329 3.1059,-5.12914 -0.065,-8.0683 l -2.5656,-2.37766 1.5662,-61.82459 c 0.8614,-34.00352 1.5659,-62.79307 1.5655,-63.97676 -4e-4,-1.477001 0.911,-2.469951 2.9051,-3.165101 5.2628,-1.83463 4.886,-8.443961 -0.5593,-9.810651 -4.7256,-1.18603 -18.9543,0.44683 -26.7771,3.07287 -4.1863,1.40528 -7.9496,2.55505 -8.3629,2.55505 -0.4134,0 -1.6145,-1.60235 -2.6692,-3.56078 l -1.9176,-3.56077 2.9402,-2.36009 c 6.2409,-5.00952 27.6537,-17.82663 34.6254,-20.72575 13.5795,-5.64693 24.1515,-3.90343 26.0656,4.29864 0.4375,1.87481 0.5042,33.221252 0.1483,69.658752 -0.356,36.4375 -0.3897,66.2499992 -0.075,66.2499992 1.0751,0 38.4684,-53.6937392 45.0043,-64.6225992 4.185,-6.99789 22.3465,-25.00673 26.192,-25.9719 4.2251,-1.06045 5.4802,0.99559 5.4736,8.96694 0,4.71299 -0.975,10.6846 -2.8667,17.62756 -3.3612,12.3368 -5.1348,16.77808 -9.2799,23.23772 -2.7723,4.32015 -3.411,4.76228 -6.8803,4.76228 -3.8909,0 -6.9672,1.99771 -6.9672,4.52438 0,0.75983 0.533,2.55138 1.1845,3.98122 1.3887,3.04795 0.8831,4.06878 -8.8693,17.9044593 l -6.2805,8.9100599 1.8689,3.0899398 c 6.7565,11.171331 27.377,47.178131 29.9981,52.381701 2.5935,5.1487 3.02,6.87461 2.3477,9.5 -0.4518,1.76453 -0.6635,4.20538 -0.4704,5.42411 0.4579,2.8893 5.7248,7.28413 8.7296,7.28413 1.8009,0 3.7599,1.9416 8.3242,8.25 7.2406,10.007528 9.4713,12.149918 17.4613,16.769748 5.6967,3.29383 6.2059,3.86857 6.2059,7.00472 0,5.07013 -2.5852,5.94744 -17.5,5.93883 -9.9953,-0.006 -13.3015,-0.37497 -16.5,-1.84248 z m -540.7973,-3.56314 c -15.0423,-5.36573 -31.7027,-27.522968 -31.7027,-42.162578 0,-4.22351 0.1522,-4.48593 2.25,-3.88008 3.8061,1.0992 7.1228,3.99497 9.8378,8.5892 l 2.5978,4.39578 6.588,-0.26651 c 3.6868,-0.14914 6.8646,0.18113 7.2162,0.75 0.879,1.42224 3.4881,1.26964 3.9922,-0.23349 0.2306,-0.6875 0.9038,-3.14385 1.496,-5.45856 0.7716,-3.01596 1.8483,-4.57649 3.7994,-5.50695 3.4227,-1.63226 4.2842,-6.954 1.6049,-9.91451 -1.6829,-1.85963 -1.6239,-2.59529 1.3762,-17.15646 7.1625,-34.763371 21.2303,-102.3755 21.7354,-104.46352 0.3176,-1.31314 1.3045,-2.25 2.3702,-2.25 1.0042,0 2.681,-0.94482 3.726,-2.0996 1.9998,-2.20969 2.1206,-4.67625 0.877,-17.9004 -0.4413,-4.69213 -0.028,-9.35887 1.4856,-16.778761 4.4872,-21.995781 10.992,-32.201251 17.0373,-26.730291 4.3808,3.96461 7.3306,14.58053 24.0379,86.509052 5.0462,21.725 9.3247,39.6579192 9.5078,39.8509392 0.511,0.53877 1.5955,-3.9246299 12.9633,-53.3509392 12.0464,-52.377142 15.5649,-65.417052 19.1062,-70.809372 2.1511,-3.27542 2.9498,-3.76601 5.6983,-3.5 2.8588,0.27669 3.5662,1.04745 6.6965,7.2962 3.1031,6.19452 3.5,7.87076 3.5,14.78172 0,5.308371 0.414,8.052312 1.2979,8.601832 2.2199,1.38007 2.3068,1.78781 25.0838,117.70259 0.7462,3.79756 0.6082,4.18322 -2.0407,5.70349 -2.1235,1.21873 -2.841,2.38501 -2.841,4.61801 0,3.29127 0.8799,4.12905 5.2826,5.0295 l 2.9572,0.60481 4.2099,20.98561 c 2.3155,11.54209 4.7524,21.99811 5.4153,23.23561 1.1242,2.09851 1.8659,2.25 11.0152,2.25 8.6011,0 10.0371,0.25113 11.6544,2.03822 1.7991,1.98798 1.7809,2.16791 -0.7363,7.30043 -3.5489,7.236058 -11.8225,15.996208 -18.0288,19.088918 -4.0926,2.03944 -6.6237,2.56938 -12.2158,2.55769 -8.1175,-0.017 -11.1298,-1.23248 -14.1459,-5.70812 -2.8167,-4.17962 -4.862,-17.186198 -3.2567,-20.709528 0.9214,-2.02222 0.7489,-3.37291 -0.9293,-7.27542 -2.3655,-5.50048 -5.2981,-22.73034 -15.1981,-89.2921905 -3.8857,-26.1249995 -7.2172,-47.9499995 -7.4033,-48.4999995 -0.5975,-1.76526 -2.4349,6.15263 -11.2543,48.4999995 -8.7555,42.0404205 -8.9288,42.6092905 -13.8725,45.5301405 -2.2158,1.3091 -2.2914,6.41333 -0.1186,8.00212 0.8938,0.65352 1.625,2.18365 1.625,3.40028 0,3.72332 -6.1168,30.3887 -7.6527,33.36081 -1.8831,3.64406 -5.3944,5.28699 -8.1489,3.81284 -2.7857,-1.49087 -4.3636,-7.10044 -24.2094,-86.0677208 -6.6628,-26.5114192 -12.4909,-49.1781492 -12.9514,-50.3705192 -1.2218,-3.1636 -1.4844,-2.04291 -5.5835,23.83205 -2.0041,12.65 -4.5293,27.0499992 -5.6116,31.9999992 -1.0823,4.9499998 -2.5874,14.4000008 -3.3446,21.0000008 -1.7255,15.03934 -7.9728,56.56774 -10.6056,70.499998 -2.8382,15.01885 -3.4545,16.56436 -7.3408,18.40854 -4.0867,1.93924 -13.619,2.01467 -18.8488,0.14914 z m 731.2973,0.0905 c -6.1673,-1.66764 -12.9062,-5.58499 -15.3945,-8.94895 -1.5427,-2.08548 -2.1678,-4.70315 -2.4479,-10.249998 -0.2069,-4.0971 -0.6142,-7.44927 -0.9051,-7.44927 -0.2908,0 -2.5251,1.8401 -4.965,4.08911 -7.1193,6.562328 -12.1367,8.335638 -23.2875,8.230578 -12.829,-0.12087 -19.1012,-2.51153 -27.0847,-10.323438 -6.3887,-6.25135 -10.6616,-14.04777 -13.4252,-24.49625 -3.0414,-11.49847 -4.341,-54.827201 -2.6397,-88.00868 0.5974,-11.65195 0.9007,-13.24245 2.9083,-15.25 2.6933,-2.69332 2.8028,-4.48227 0.5115,-8.361 -2.0467,-3.46487 -1.2913,-5.21667 3.7215,-8.63032 5.0817,-3.46057 12.9527,-3.165 17.2186,0.6466 l 3.2419,2.89659 0.6822,13.35341 c 0.3752,7.34437 0.7523,26.6283995 0.8379,42.8533992 0.2116,40.0675708 1.0195,51.1644008 4.1884,57.5281208 4.8228,9.68479 12.8902,12.0048 22.5265,6.47815 11.3194,-6.49196 15.8975,-17.18558 16.9794,-39.66126 l 0.6333,-13.15498 2.7956,-0.55914 c 5.7268,-1.14534 6.1791,-7.942001 0.6567,-9.8671108 l -3.0591,-1.0664 0.6251,-24.5986892 c 0.3438,-13.52928 1.101,-26.25727 1.6827,-28.28441 2.8883,-10.06552 18.201,-12.87484 24.4036,-4.47717 2.0295,2.74777 2.0874,3.75556 1.8397,32 -0.414,47.19317 -1.9327,81.5386 -3.7267,84.27646 -1.9117,2.91768 -1.9275,5.46211 -0.049,7.9453 0.9343,1.23532 1.4798,4.3243 1.5,8.49535 0.034,6.99667 1.8885,10.97337 9.5314,20.438298 6.6089,8.18445 7.0095,12.43714 1.3572,14.40755 -4.0987,1.42882 -15.1341,1.29557 -20.8568,-0.25185 z M 812.80884,108.9601 c -9.71152,-10.348828 -10.12198,-13.301558 -2.62607,-18.891248 4.99445,-3.72435 5.14528,-3.98243 5.75677,-9.85014 0.41878,-4.01855 3.62724,-106.38298 3.57553,-114.07577 -0.0117,-1.74303 -1.17263,-2.34032 -7.40396,-3.80936 -4.06453,-0.95822 -8.22703,-2.3908 -9.25,-3.18351 -1.78976,-1.38692 -1.76561,-1.52247 0.64006,-3.59252 3.83908,-3.30347 16.36619,-8.79783 22.76324,-9.98389 7.20189,-1.33528 15.85286,-0.67604 17.89239,1.36349 0.91732,0.91732 2.02329,5.04428 2.69923,10.0722 l 1.14514,8.51811 3,-2.50072 c 1.65,-1.37539 5.475,-3.68183 8.5,-5.1254 4.6758,-2.23137 6.87687,-2.62968 14.68807,-2.65797 8.26256,-0.0299 9.39969,0.19337 11.28896,2.21673 1.15548,1.2375 3.2228,2.25 4.59404,2.25 6.00263,0 13.86542,5.46514 18.59703,12.92612 3.57286,5.63382 3.94209,13.87765 0.8319,18.5738795 -1.09275,1.65 -1.98979,4.0348499 -1.99341,5.2996599 -0.0155,5.4013998 -6.67388,14.6911996 -12.3905,17.2872196 -6.18465,2.808571 -15.18692,2.568791 -19.74104,-0.52582 -3.97823,-2.70327 -7.2326,-8.4657198 -6.24077,-11.0503998 0.71367,-1.85978985 1.51613,-1.72232985 8.98199,1.5386 7.17465,3.13374 9.57505,2.30297 12.8833,-4.45884986 2.51624,-5.14301994 2.5686,-5.55790984 1.06765,-8.46042984 -2.47522,-4.7865395 -9.47666,-8.3189895 -17.64721,-8.9035895 -6.29509,-0.45041 -7.52083,-0.20516 -13.37253,2.67562 -3.82116,1.88115 -8.02668,4.971549 -10.33668,7.5958395 l -3.89447,4.4243599 -0.65483,15.7888996 c -0.36016,8.683891 -0.65634,29.144251 -0.65817,45.467461 -0.004,32.26925 0.0906,32.82143 5.60022,32.82143 1.35338,0 4.0911,0.68123 6.08383,1.51385 2.47332,1.03341 5.13358,1.31348 8.38256,0.88248 4.55982,-0.60488 14.07393,0.55839 22.30569,2.72727 l 3.87563,1.02114 -3.66883,2.493038 c -3.95453,2.68717 -5.42619,2.96212 -10.1198,1.89065 -3.932,-0.89761 -7.36492,1.75876 -8.32228,6.43972 -0.55379,2.70772 -1.31815,3.57454 -3.66991,4.16187 -3.92547,0.98034 -30.29897,2.86998 -40.05605,2.86998 h -7.71082 z m 862.32266,-0.5 c -8.2079,-12.883088 -8.2799,-14.990028 -0.6544,-19.140348 l 5.0241,-2.73447 v -6.48725 c 0,-3.86777 0.6179,-7.68221 1.5304,-9.44662 1.2224,-2.36398 1.2924,-3.40389 0.3478,-5.16881 -1.2821,-2.39578 -1.2923,-17.28471 -0.047,-68.2725006 0.3896,-15.9499994 0.5481,-31.5389094 0.3521,-34.6420294 l -0.3563,-5.64203 -6.8953,-0.38962 c -8.8484,-0.49998 -9.7565,-1.37903 -7.5078,-7.26727 2.9009,-7.59582 9.0964,-10.55905 22.077,-10.55905 6.8545,0 8.7526,0.37043 11.5468,2.2534 5.2556,3.54177 7.6977,8.94568 9.4838,20.98566 l 0.5546,3.73906 5.0034,-3.95493 c 6.3554,-5.02364 10.0359,-6.01072 22.4383,-6.01761 9.3807,-0.005 10.493,0.21715 17.2256,3.44365 13.663,6.54784 20.2994,15.73334 21.0345,29.11401 0.5411,9.8514293 -0.9733,13.3899294 -9.7051,22.675849 l -5.8873,6.260911 h -7.348 c -6.0397,0 -8.3726,-0.50319 -13.1036,-2.82632 -6.4103,-3.147801 -8.378,-5.6210211 -6.8073,-8.5560308 1.291,-2.41227 2.3142,-2.77118 10.3541,-3.63219 6.624,-0.7093598 6.6447,-0.7213498 8.7503,-5.0710298 2.2771,-4.7038599 2.0781,-6.6880399 -1.2167,-12.1316694 -1.5845,-2.61787 -2.5478,-3.19467 -5.1704,-3.09608 -1.7728,0.0666 -5.0491,-0.92968 -7.2807,-2.21406 l -4.0576,-2.33524 -4.6803,2.93131 c -10.1954,6.38548 -15.0809,10.0874795 -17.8362,13.5155295 l -2.8809,3.5842099 -0.961,45.2585606 c -0.5285,24.89221 -0.7452,45.6077 -0.4814,46.03443 0.2637,0.42673 2.1788,1.04762 4.2559,1.37974 2.077,0.33213 4.5931,1.55778 5.5914,2.72367 1.6702,1.95071 1.9554,1.99278 3.5745,0.52748 3.4566,-3.12822 17.8866,-1.39958 24.0664,2.88305 5.0747,3.516738 4.8488,3.828378 -8.4159,11.609998 l -10.0485,5.89489 -24.2624,0.01 -24.2624,0.01 -3.3449,-5.25 z m 489.3697,0.56341 c -5.232,-0.86688 -15.7307,-4.60601 -21.4222,-7.62954 -4.3198,-2.29483 -7.1312,-4.774648 -10.3904,-9.164978 -7.5362,-10.15153 -9.1864,-14.8149 -10.352,-29.25548 -1.2292,-15.22779 -0.1549,-20.55191 4.2502,-21.06397 3.2915,-0.38262 4.4217,1.07015 5.754,7.39656 1.4886,7.06808 4.7852,15.57206 7.7042,19.87336 1.3509,1.9907 2.4562,4.69233 2.4562,6.00362 0,3.69117 2.7421,5.83649 6.4113,5.01593 3.3195,-0.74236 4.5535,-0.75772 23.5887,-0.29365 13.8942,0.33873 16.4832,-0.41545 21.3723,-6.22585 3.7651,-4.47456 6.084,-13.05669 4.6786,-17.31509 -2.2844,-6.92191 -8.7466,-10.79772 -26.0509,-15.62446 -10.0746,-2.81013 -11.8795,-3.6487 -14.5617,-6.76542 -2.7608,-3.20815 -3.4108,-3.49219 -6.6155,-2.89098 -3.2549,0.61063 -3.8676,0.3193 -7.2855,-3.46382 -5.5526,-6.14605 -6.7471,-9.90134 -7.3034,-22.9598508 -0.3862,-9.0671498 -0.1227,-12.8292797 1.2258,-17.4999992 2.7323,-9.46392 7.4994,-17.39817 15.126,-25.17545 9.603,-9.79266 17.4058,-13.51455 29.5501,-14.09517 7.6594,-0.36621 9.3117,-0.12092 14.171,2.10374 3.0253,1.38506 6.6959,3.85982 8.1569,5.49947 1.7508,1.96499 4.0043,3.19675 6.6112,3.6136 2.7799,0.44453 5.0645,1.77703 7.69,4.48516 6.5515,6.75781 17.1913,27.1846295 15.9054,30.5357794 -0.5745,1.49702 -0.9676,1.4694 -4.4006,-0.3092299 -2.0733,-1.0742 -6.4697,-4.2742905 -9.7697,-7.1113095 -6.8076,-5.85257 -16.9734,-11.35928 -24.1429,-13.07805 -2.6714,-0.64043 -6.3453,-2.00905 -8.1643,-3.04137 -4.1321,-2.34519 -4.3587,-2.33829 -7.2898,0.22214 -1.3216,1.1545 -4.5447,3.18922 -7.1624,4.52159 -5.6184,2.85975 -10.162,8.6918 -12.2505,15.7244595 -2.502,8.42518984 -2.0772,10.4572399 3.2599,15.5957897 4.1289,3.9752898 6.1472,4.9986298 15.4359,7.8264608 8.1057,2.46769 10.8383,3.73363 11.3174,5.2429 0.3864,1.21743 1.5137,1.9897 2.9044,1.9897 4.1923,0 14.8026,6.23372 21.7245,12.76354 8.2604,7.79245 9.8678,11.98468 9.8678,25.73646 0,15.60924 -4.0448,24.84798 -15.3627,35.09009 -12.5977,11.400298 -29.9107,16.494738 -46.6373,13.723318 z M 553.69099,106.68447 c -4.38628,-2.67425 -6.28393,-7.58915 -6.50659,-16.852058 -0.29292,-12.18543 1.43862,-98.3457905 2.26536,-112.72328 0.6609,-11.49321 1.01708,-13.3647 2.90238,-15.25 2.43588,-2.43588 2.53585,-3.00142 1.16696,-6.60186 -0.78974,-2.07719 -0.60424,-2.96086 0.94726,-4.51236 2.65891,-2.65891 8.94027,-4.21805 12.58996,-3.12504 9.63013,2.88405 9.6586,2.98183 10.21789,35.09023 l 0.46159,26.4999989 -2.61732,2.4243101 c -3.13238,2.901411 -3.32122,5.371781 -0.61731,8.075691 1.89358,1.89358 1.99682,3.29035 1.94029,26.25 -0.0884,35.91017 -1.20335,53.273788 -3.63371,56.590528 -4.3324,5.91246 -13.09245,7.80675 -19.11676,4.13384 z m 202.65161,0.50156 c -4.42674,-2.40437 -7.15223,-7.82327 -6.41718,-12.758838 0.34543,-2.3194 0.54362,-5.34209 0.44043,-6.71709 -0.10319,-1.375 -0.0995,-21.625 0.008,-45 0.23434,-50.8474605 1.42527,-83.78679 3.15004,-87.12517 3.78417,-7.32445 10.45769,-10.10869 17.64777,-7.36277 7.23913,2.76465 7.77469,4.63371 8.16279,28.48794 0.32087,19.7221994 0.24775,20.6576494 -1.92724,24.6550294 -2.15202,3.9551798 -2.18009,4.2781598 -0.58353,6.7148198 1.47115,2.2452498 1.67136,5.9738908 1.62939,30.3449708 -0.0697,40.47209 -1.2349,60.834358 -3.67149,64.160428 -4.03086,5.50232 -12.76637,7.68188 -18.43923,4.60068 z m 840.4446,0.1272 c -12.6,-4.09894 -26.681,-18.162998 -34.2734,-34.232208 -5.8587,-12.40012 -7.4395,-20.98314 -7.4353,-40.37092 0,-20.566351 1.3608,-26.9132308 9.3049,-43.543391 6.3547,-13.303019 11.4125,-20.632049 19.3847,-28.089649 8.6106,-8.05484 14.0376,-10.59955 23.8116,-11.16536 26.2105,-1.5173 45.6803,13.98552 52.8702,42.0979095 4.6376,18.1325695 5.1164,45.4806405 1.1298,64.5215205 -2.0557,9.81847 -3.2275,12.17897 -6.046,12.17897 -2.1322,0 -5.0325,3.07887 -5.0325,5.34231 0,0.92666 0.5359,2.54301 1.191,3.59191 0.9993,1.60017 0.7177,2.59637 -1.75,6.19032 -7.8886,11.48896 -19.2923,19.977168 -30.441,22.658498 -8.0275,1.93066 -18.174,2.297 -22.714,0.82009 z m 22.3422,-29.411488 c 9.3435,-4.77115 17.2027,-18.42577 19.2898,-33.514 0.5951,-4.3023 1.0663,-13.3023 1.0471,-20 -0.085,-29.8026306 -7.8575,-45.78609 -23.0196,-47.33982 -11.7451,-1.20358 -19.8934,4.00667 -25.6355,16.3920195 -1.8436,3.9764199 -3.633,8.6351597 -3.9765,10.3527597 -0.4559,2.27957 -1.4147,3.39836 -3.5505,4.14288 -4.1447,1.4448697 -5.3284,5.1285498 -2.9339,9.1310208 1.5308,2.55872 2.0737,6.585 2.9185,21.6435 1.1762,20.96738 2.6692,26.64554 8.9292,33.95884 5.899,6.89166 8.7265,8.23654 16.3032,7.75443 3.916,-0.24918 8.1411,-1.25161 10.6282,-2.52163 z m 323.7368,28.889278 c -2.0314,-1.23869 -3.7571,-3.54079 -4.9024,-6.53973 -1.6125,-4.222198 -1.7184,-7.793258 -1.2069,-40.714768 0.5372,-34.58352 0.6477,-36.20449 2.6524,-38.91604 2.6415,-3.57277 2.6462,-6.24168 0.017,-9.797601 -2.0355,-2.7530698 -2.0555,-3.2700198 -1.0588,-27.292499 1.142,-27.52234 2.0474,-31.68525 7.5075,-34.5202 4.0667,-2.11152 10.2717,-2.06652 14.4548,0.10483 6.4086,3.32663 6.4879,4.02324 5.9298,52.0950894 -0.455,39.2005906 -0.6629,43.3383306 -2.3518,46.8290506 -1.7631,3.64399 -1.7693,3.97413 -0.1297,6.83104 1.3426,2.33944 1.7155,5.35667 1.6892,13.67095 -0.051,16.09719 -1.6053,30.749238 -3.6251,34.168458 -3.2627,5.5234 -13.1307,7.64581 -18.9762,4.08142 z m -959.96004,-1.21894 c -2.49128,-2.79602 -7.81767,-5.01118 -10.09909,-4.20005 -0.99325,0.35314 -2.59237,1.31748 -3.5536,2.14298 -1.55899,1.33884 -2.16195,1.31411 -5.58389,-0.22897 -5.02023,-2.26381 -17.63286,-13.263928 -25.31204,-22.075938 -3.70258,-4.24879 -7.85026,-10.58586 -10.55309,-16.12362 l -4.45298,-9.12363 0.0357,-19.87637 c 0.0334,-18.58583 0.22475,-20.62306 2.94702,-31.3763808 4.99998,-19.7505892 11.01654,-30.6381692 24.94713,-45.1443892 10.35409,-10.78194 15.32903,-13.30559 26.22978,-13.30564 6.54806,-3e-5 8.47806,0.45973 15.06866,3.58959 10.05304,4.77422 19.82024,13.8781 24.00184,22.37214 4.5907,9.32507 6.2693,22.0091594 5.5427,41.88394 -0.3196,8.74261 -0.7961,16.11066 -1.0589,16.37346 -0.4525,0.45256 -13.2616,3.59494 -53.81424,13.20195 l -17.75,4.20502 v 3.73383 c 0,10.35634 9.27006,22.95978 19.42814,26.4142 5.75239,1.9562 17.70676,2.17542 28.07186,0.51479 3.84994,-0.61682 9.31114,-1.06571 12.13594,-0.99754 4.9213,0.11878 5.1851,-0.011 6.3148,-3.10869 0.6484,-1.77796 1.7283,-4.35766 2.3998,-5.73266 1.5103,-3.09255 16.4111,-15.2654 17.7064,-14.46484 0.5187,0.32058 0.9431,3.85944 0.9431,7.86413 0,10.33644 -3.6776,17.38198 -14.9498,28.64061 -9.7722,9.760438 -16.0851,13.297818 -27.69644,15.519418 -9.39191,1.79697 -8.6863,1.84191 -10.94881,-0.69734 z m -3.40499,-90.454388 c 11.275,-1.429391 20.93513,-3.013571 21.46713,-3.520411 1.1644,-1.10947 -1.94056,-20.6613495 -4.11103,-25.887179 -1.9341,-4.65658 -7.6198,-10.36421 -12.52996,-12.5784 -3.52433,-1.58925 -4.45513,-1.64106 -8.15236,-0.45376 -2.29558,0.73718 -6.48109,1.28708 -9.30114,1.22199 -6.56726,-0.15157 -9.37858,2.30678 -7.70584,6.73837 0.89469,2.37031 0.60414,3.91405 -1.79526,9.5385095 -3.66909,8.6007498 -5.87154,17.1385397 -5.87154,22.7609695 0,5.369521 0.47896,5.941361 4.42849,5.287381 1.68933,-0.27973 12.29651,-1.67809 23.57151,-3.10747 z M 400.72989,98.9601 C 390.65511,86.106712 392.27358,77.044332 405.1383,74.275872 l 3.13713,-0.6751 0.72669,-17.91407 c 0.66223,-16.325 0.8941,-17.96721 2.61393,-18.51306 4.22631,-1.34138 4.74732,-7.39655 0.8174,-9.49979 -1.77225,-0.94847 -1.93049,-2.21136 -1.91064,-15.248931 l 0.0216,-14.2148197 3.16263,-1.4999999 c 5.379,-2.5512 5.53733,-3.9025199 1.46261,-12.4827294 l -3.66848,-7.72485 v -31.20004 -31.20005 l -3.33482,-3.23223 c -2.19885,-2.13121 -4.66847,-3.41233 -7.25,-3.76094 -2.15335,-0.2908 -4.92768,-0.73314 -6.16518,-0.98299 -3.71311,-0.74967 -2.7561,-4.296031 2.53577,-9.396712 8.42948,-8.12495 28.0461,-13.02483 52.09522,-13.01245 33.27931,0.0171 57.58844,12.30236 67.59577,34.161272 5.42944,11.85945 6.85981,19.8807 6.92459,38.83172 0.0509,14.90002 -0.26965,18.8036 -2.15779,26.27432 -5.51181,21.8083592 -16.95328,40.23772 -30.96621,49.87887 -9.86078,6.78439 -28.6183,12.92424 -44.27735,14.49318 -3.575,0.35819 -6.83061,1.14679 -7.23469,1.75245 -1.18185,1.77142 -0.87395,18.52627 0.38439,20.91692 1.55156,2.94772 2.79067,3.65088 6.46544,3.66895 1.71333,0.008 4.32108,0.9639 5.795,2.12329 2.03457,1.60039 3.3312,1.92 5.38486,1.32732 3.34559,-0.96552 17.64524,-0.70798 21.69196,0.39068 2.9303,0.79556 2.82578,0.8988 -5.5091,5.44215 -12.46377,6.79401 -17.83919,8.96955 -22.01976,8.91186 -2.71051,-0.0374 -4.36035,0.61929 -6.03543,2.40233 -3.02036,3.21502 -9.71175,5.118198 -24.37968,6.934118 -16.92795,2.09572 -16.89196,2.09974 -20.31427,-2.26644 z m 67.54877,-79.806698 c 1.22238,-0.85619 2.22251,-2.15634 2.22251,-2.88922 0,-2.846721 3.60788,-5.801531 7.45666,-6.106921 4.7101,-0.3737201 5.76387,-1.7912798 5.1488,-6.9263198 -0.35251,-2.94300985 0.26608,-5.6771498 2.37558,-10.4999997 5.29613,-12.1082695 6.43877,-18.1949095 6.48056,-34.5208395 0.0436,-17.02662 -1.87343,-25.62705 -7.41839,-33.28166 -3.35545,-4.63206 -11.68456,-9.89705 -17.04321,-10.77333 -5.32185,-0.87026 -7.76184,-2.11928 -8.46442,-4.3329 -1.35368,-4.26508 -8.75813,-3.28715 -10.53701,1.39166 -0.62273,1.63789 -1.9832,2.74316 -3.83159,3.11283 l -2.86602,0.57321 -0.65048,13.56321 c -0.35776,7.45976 -0.65048,30.7775 -0.65048,51.81719 v 38.25399 l 4.09298,0.69151 c 2.25114,0.38033 6.4314,0.39934 9.28948,0.0422 2.85807,-0.35709 6.30373,-0.20724 7.65702,0.33301 3.43951,1.37309 4.21177,1.32178 6.73801,-0.44766 z m 502.67989,-94.30622 c -10.36482,-6.32067 -12.33314,-19.77036 -4.12237,-28.168532 3.96189,-4.05232 6.43629,-4.96855 13.41821,-4.96855 7.05398,0 11.15438,2.58381 14.83988,9.351221 6.52383,11.979491 -2.0551,25.649621 -16.0931,25.643491 -3.10693,-0.001 -6.15198,-0.70468 -8.04262,-1.85763 z m -411.3371,-10.84758 c -4.15112,-2.04497 -8.67282,-8.0908 -9.55061,-12.769831 -1.57039,-8.370891 5.29709,-19.040041 13.18033,-20.476631 7.9486,-1.4485 17.61291,1.99405 14.45714,5.14982 -1.54869,1.54869 -1.55249,5.06179 -0.007,6.60714 0.66,0.66 2.685,1.2 4.5,1.2 3.17423,0 3.3,0.14996 3.3,3.9349 0,5.074251 -1.46305,8.854732 -4.81362,12.438262 -5.22245,5.58556 -14.26522,7.26667 -21.0661,3.91634 z m 202.08825,0.0427 c -4.90549,-2.41765 -7.20853,-5.90266 -7.20853,-10.908041 0,-2.36837 -0.45,-4.584241 -1,-4.924161 -3.17117,-1.95989 1.59231,-12.22109 7.45724,-16.06394 3.19727,-2.09493 13.21165,-2.17576 17.1514,-0.13844 8.53972,4.41606 11.96555,16.34992 7.15211,24.914282 -4.38267,7.7979 -15.41198,11.1323 -23.55222,7.12034 z m 1185.7194,-1.12441 c -2.6446,-1.69948 -5.2794,-4.42875 -6.25,-6.47409 -3.4021,-7.169542 -1.3969,-16.944982 4.6296,-22.568662 4.865,-4.53977 14.9375,-4.85549 21.3276,-0.6685 2.1202,1.38916 2.5067,2.27646 2.1136,4.85175 -0.6361,4.16693 -0.026,5.59565 2.8562,6.69154 4.8986,1.86245 1.8545,13.360632 -4.7897,18.091732 -2.2911,1.63137 -4.9868,2.40386 -9.2727,2.65717 -5.3147,0.31413 -6.5932,0.003 -10.6146,-2.58094 z" /></g><text
       xml:space="preserve"
       id="text319"
       style="font-style:italic;font-size:37.3333px;line-height:1.25;font-family:PepperCarrot;-inkscape-font-specification:'PepperCarrot Italic';white-space:pre;shape-inside:url(#rect321);display:inline;opacity:0.58;fill:#301b0b" /></g></svg>
