<?xml version="1.0" encoding="UTF-8" standalone="no"?>
<!-- Created with Inkscape (http://www.inkscape.org/) -->

<svg
   id="svg2"
   version="1.1"
   inkscape:version="1.3 (1:1.3+202307231459+0e150ed6c4)"
   width="2481"
   height="3503"
   sodipodi:docname="E32P05.svg"
   xmlns:inkscape="http://www.inkscape.org/namespaces/inkscape"
   xmlns:sodipodi="http://sodipodi.sourceforge.net/DTD/sodipodi-0.dtd"
   xmlns:xlink="http://www.w3.org/1999/xlink"
   xmlns="http://www.w3.org/2000/svg"
   xmlns:svg="http://www.w3.org/2000/svg"
   xmlns:rdf="http://www.w3.org/1999/02/22-rdf-syntax-ns#"
   xmlns:cc="http://creativecommons.org/ns#"
   xmlns:dc="http://purl.org/dc/elements/1.1/">
  <metadata
     id="metadata8">
    <rdf:RDF>
      <cc:Work
         rdf:about="">
        <dc:format>image/svg+xml</dc:format>
        <dc:type
           rdf:resource="http://purl.org/dc/dcmitype/StillImage" />
        <dc:title />
      </cc:Work>
    </rdf:RDF>
  </metadata>
  <defs
     id="defs6">
    <filter
       style="color-interpolation-filters:sRGB"
       id="filter4375-4-1-1-1-9-6-9-2-1-7-1"
       inkscape:label="deevad outline effect"
       x="-0.011195097"
       y="-0.082703287"
       width="1.0223902"
       height="1.1654066">
      <feFlood
         id="feFlood4377-7-9-0-8-1-0-2-2-06-3-9"
         flood-opacity="1"
         flood-color="rgb(0,0,0)"
         result="flood" />
      <feComposite
         id="feComposite4379-3-8-8-2-77-6-0-8-3-6-4"
         in2="SourceGraphic"
         in="flood"
         operator="in"
         result="composite1" />
      <feMorphology
         id="feMorphology4393-1-0-49-8-9-2-2-9-2-1-7"
         operator="dilate"
         radius="4"
         result="result3" />
      <feComposite
         id="feComposite4385-9-5-7-0-8-6-3-7-0-2-8"
         in2="result3"
         in="SourceGraphic"
         operator="over"
         result="composite2" />
    </filter>
    <filter
       style="color-interpolation-filters:sRGB"
       id="filter4375-4-1-1-1-9-6-9-2-1-7-1-2"
       inkscape:label="deevad outline effect">
      <feFlood
         id="feFlood4377-7-9-0-8-1-0-2-2-06-3-9-7"
         flood-opacity="1"
         flood-color="rgb(0,0,0)"
         result="flood" />
      <feComposite
         id="feComposite4379-3-8-8-2-77-6-0-8-3-6-4-0"
         in2="SourceGraphic"
         in="flood"
         operator="in"
         result="composite1" />
      <feMorphology
         id="feMorphology4393-1-0-49-8-9-2-2-9-2-1-7-9"
         operator="dilate"
         radius="4"
         result="result3" />
      <feComposite
         id="feComposite4385-9-5-7-0-8-6-3-7-0-2-8-3"
         in2="result3"
         in="SourceGraphic"
         operator="over"
         result="composite2" />
    </filter>
    <filter
       style="color-interpolation-filters:sRGB"
       id="filter4375-4-1-1-1-9"
       inkscape:label="deevad outline effect"
       x="-0.027110755"
       y="-0.060446163"
       width="1.0542215"
       height="1.1208923">
      <feFlood
         id="feFlood4377-7-9-0-8-1"
         flood-opacity="1"
         flood-color="rgb(0,0,0)"
         result="flood" />
      <feComposite
         id="feComposite4379-3-8-8-2-77"
         in2="SourceGraphic"
         in="flood"
         operator="in"
         result="composite1" />
      <feMorphology
         id="feMorphology4393-1-0-49-8-9"
         operator="dilate"
         radius="4"
         result="result3" />
      <feComposite
         id="feComposite4385-9-5-7-0-8"
         in2="result3"
         in="SourceGraphic"
         operator="over"
         result="composite2" />
    </filter>
    <filter
       inkscape:collect="always"
       style="color-interpolation-filters:sRGB"
       id="filter1101"
       x="-0.12972304"
       width="1.2594461"
       y="-0.36928496"
       height="1.7385699">
      <feGaussianBlur
         inkscape:collect="always"
         stdDeviation="22.559027"
         id="feGaussianBlur1103" />
    </filter>
  </defs>
  <sodipodi:namedview
     pagecolor="#ffffff"
     bordercolor="#666666"
     borderopacity="1"
     objecttolerance="10"
     gridtolerance="10"
     guidetolerance="10"
     inkscape:pageopacity="0"
     inkscape:pageshadow="2"
     inkscape:window-width="1920"
     inkscape:window-height="997"
     id="namedview4"
     showgrid="false"
     inkscape:zoom="0.32153204"
     inkscape:cx="1206.7227"
     inkscape:cy="2771.108"
     inkscape:window-x="0"
     inkscape:window-y="0"
     inkscape:window-maximized="1"
     inkscape:current-layer="layer3"
     inkscape:snap-global="false"
     inkscape:pagecheckerboard="0"
     inkscape:showpageshadow="0"
     inkscape:deskcolor="#d1d1d1" />
  <g
     inkscape:groupmode="layer"
     id="layer2"
     inkscape:label="artwork"
     sodipodi:insensitive="true">
    <image
       xlink:href="../gfx_Pepper-and-Carrot_by-David-Revoy_E32P05.png"
       width="2481"
       height="3503.4727"
       id="image10"
       x="0"
       y="0" />
  </g>
  <g
     inkscape:groupmode="layer"
     id="layer3"
     inkscape:label="speechbubbles"
     style="display:inline">
    <path
       style="display:inline;fill:#ffe4a0;fill-rule:evenodd;stroke:none;stroke-width:0.674719px;stroke-linecap:butt;stroke-linejoin:miter;stroke-opacity:1;fill-opacity:1"
       d="m 1241.75,1492.1722 c -0.5079,9.5508 -0.1667,19.7006 -2.9093,28.4419 -3.5884,9.5433 -10.3928,14.5084 -16.9618,14.9204 -6.1938,0.4732 -12.4297,-1.1679 -18.2673,-4.6422 -1.7069,1.6386 -1.2747,5.9733 0.151,7.6973 3.3335,8.089 6.6768,16.9667 6.8934,27.0883 0.3893,6.9975 -1.5962,14.8907 -5.6558,17.6764 -3.0721,2.2301 -6.4998,1.7609 -9.7578,1.4705 0.8669,2.8126 2.639,4.3526 3.7433,6.8618 2.3235,3.9659 4.632,9.1204 4.1942,14.9986 -0.638,8.0624 -4.7034,14.4696 -9.2855,16.4807 -1.7216,1.4803 -3.4431,2.9607 -5.1647,4.4412 8.5,-0.7119 17.2198,-2.3698 25.5479,1.5034 4.6764,2.9277 5.9174,14.798 2.1251,20.2226 -2.84,5.5455 -6.3861,9.8698 -9.6454,14.6738 12.205,-2.993 24.3946,-8.1683 36.8203,-6.7835 3.3647,0.3366 6.9506,1.2737 9.5651,5.1523 2.1767,2.8885 3.9008,6.69 5.0538,10.9115 3.883,2.2768 7.9293,-0.3087 11.6512,-2.24 8.574,-4.7459 16.8117,-11.3422 25.707,-14.3466 1.8718,0.6797 3.4358,3.0962 4.1148,6.0653 4.1805,1.9561 8.3369,-1.143 12.4107,-2.4063 3.2549,-1.1748 6.5367,-2.4175 9.8833,-2.4452 1.6166,3.1752 3.7799,6.5264 6.472,6.024 8.0477,0.7287 16.3533,-0.576 24.1139,3.8234 4.8267,3.5955 8.5889,10.3698 11.1336,18.0019 8.2458,-7.8472 15.3253,-19.2445 24.4283,-24.4468 6.2577,-3.7864 13.9213,-2.3547 18.8826,5.4569 1.3989,2.2048 2.6039,4.7227 3.7446,7.3026 3.6372,-4.5221 6.7552,-10.9092 11.3611,-12.6657 6.7049,-3.4879 13.8255,-1.4465 20.5357,0.8882 5.9364,1.886 11.8362,4.0846 17.7047,6.4913 -3.1899,-4.52 -5.8619,-10.9283 -5.8648,-18.1651 0.8561,-5.8697 4.4956,-10.173 8.0887,-9.5444 -1.028,-3.7313 -1.5095,-8.8671 0.4157,-12.0442 3.0563,-4.9106 7.4943,-5.7012 11.5125,-6.3618 1.0611,-0.2373 2.1219,-0.4746 3.1829,-0.7118 -7.1185,-6.6307 -9.0661,-24.6175 -3.7541,-34.9732 3.4931,-6.1816 7.8406,-10.7702 12.2911,-14.7727 -6.3877,-0.5912 -12.865,1.998 -19.1809,-0.5098 -3.5268,-3.7445 -4.9958,-10.6741 -7.6684,-15.7467 -1.4806,-5.0622 0.042,-11.3503 2.6884,-14.4259 5.7088,-9.6279 11.1704,-19.7609 15.6165,-31.1399 2.5808,-6.2725 4.9563,-12.774 7.2444,-19.3543 -7.5539,17.1781 -18.0977,31.2189 -30.4435,37.2442 -4.0949,2.1498 -8.3034,4.8486 -12.6736,3.9987 -2.1797,-1.7164 -4.035,-5.2298 -6.6217,-5.005 -4.6059,2.9292 -9.2114,5.8584 -13.8173,8.7876 -1.3579,-1.768 -2.373,-4.2629 -2.8474,-7.0318 -4.442,0.3587 -9.0473,-0.9591 -12.8768,-4.8992 -1.8965,-5.1911 -2.1589,-11.884 -0.7845,-17.4969 -6.1957,7.4126 -11.5553,16.5238 -17.345,24.7588 -5.9073,-1.9141 -10.7857,-9.4218 -16.954,-9.5938 -16.6413,-2.3354 -33.3811,-4.7497 -50.0788,-2.6776 -8.0687,2.1401 -16.1992,6.0586 -24.4308,4.0885 -8.0595,-1.3982 -16.3272,-3.8738 -24.3441,-0.6006 -4.0096,1.5676 -8.586,2.394 -12.252,-1.4289 -5.845,-5.6407 -9.5527,-15.3886 -13.8975,-23.6971 -1.1939,-2.4225 -2.4209,-4.7992 -3.6677,-7.1458 -0.042,0.6102 -0.085,1.2205 -0.1273,1.8307 z"
       id="path4508-9"
       inkscape:connector-curvature="0"
       sodipodi:nodetypes="cccccccccccccccccccccccccccccccccccccccccccccccccccc" />
    <path
       style="display:inline;fill:#ffe4a0;fill-rule:evenodd;stroke:none;stroke-width:0.854886px;stroke-linecap:butt;stroke-linejoin:miter;stroke-opacity:1;fill-opacity:1"
       d="m 1260.1257,1551.3406 c -0.4872,13.6777 -2.6138,27.8319 -9.3308,39.4532 -11.9106,9.0445 -29.0086,7.3461 -39.5594,-3.5925 -2.8218,0.9635 -2.2851,5.4449 -0.5259,7.3042 3.6533,12.5801 7.396,25.1505 10.1302,38.0425 -3.5924,3.908 -10.2836,2.6346 -12.5723,-2.3901 1.0939,7.9069 7.2816,13.7664 7.4287,21.967 -2.5949,6.2568 -7.243,7.7996 -16.1023,9.838 4.251,5.9029 9.3051,12.4315 8.959,20.592 -0.2906,9.453 -7.1805,16.9648 -14.6274,19.9443 -0.9787,0.3815 -0.5504,1.2206 0.3366,0.9867 13.0426,2.3658 26.8803,0.1168 39.2562,6.3632 8.8215,3.4995 16.3966,13.154 16.0278,24.2306 -0.1457,2.2076 -0.9925,4.2883 -1.0111,6.5107 7.9899,-3.3654 15.8625,-7.9586 24.5364,-8.3301 3.4469,2.0247 4.1875,8.1499 1.2894,11.1182 9.8998,-0.8001 16.8195,-11.5614 26.8944,-11.5631 3.255,-0.2017 6.3255,3.4047 5.6839,7.0933 1.5261,2.2629 4.5726,-3.1738 6.5875,-3.3547 5.7223,-1.5613 4.8259,-2.119 10.8002,-2.4319 2.1325,0.965 4.8361,1.7548 7.3625,6.1716 4.2288,-1.516 6.1618,-3.0106 8.8625,-2.979 8.7519,-1.7744 14.2778,-8.7384 26.5535,-3.6872 8.1733,2.4568 12.3139,10.4572 16.8904,15.1024 2.5711,-4.5577 5.6238,-7.6509 8.2726,-10.6751 4.7687,-8.2637 13.6482,-10.736 22.0938,-11.8913 7.2358,-2.2763 14.7179,1.0378 22.0383,4.4879 4.4755,2.591 8.4532,6.2757 13.2105,8.2278 3.7289,-2.734 7.7809,-6.9571 12.5714,-5.3691 4.954,1.1534 9.2921,4.3141 14.0829,6.029 -2.8186,-4.8175 -7.223,-9.076 -7.527,-15.2476 1.8408,-3.7833 5.6895,-5.2257 9.1259,-6.2931 -0.1582,-5.3323 3.6088,-9.797 7.7928,-11.5105 0.8809,-3.921 -3.1003,-5.8016 -4.3827,-8.8381 -3.1559,-5.6492 -1.8156,-14.9167 4.1461,-17.3411 3.4334,-1.5401 7.3186,-1.087 10.6723,-2.9247 -0.1441,-3.3002 -3.6958,-3.2504 -5.7562,-4.0688 -5.9814,-2.1485 -12.699,-5.3579 -15.2814,-12.4209 -1.0327,-4.1753 1.9806,-7.8522 2.0634,-11.85 -1.5161,-2.8862 -5.2151,-5.0401 -4.3169,-8.9645 2.209,-11.5524 10.0313,-19.9523 15.5391,-29.5075 8.2378,-12.9355 16.4753,-25.871 24.713,-38.8065 -13.4839,15.3219 -26.9163,30.9472 -42.6323,43.3382 -3.7773,-0.2509 -5.9145,-6.2819 -3.3524,-9.4593 -5.6548,1.6761 -9.5249,7.0929 -14.5806,10.0836 -2.0087,-2.9794 -1.7408,-7.478 0.3424,-10.3172 -2.6293,-2.6322 -6.2181,2.4267 -8.7118,-0.6404 -3.2992,-4.0948 -1.7159,-10.0097 -0.9763,-14.8517 0.8558,-4.7069 2.1186,-9.3025 3.0019,-14.0025 -8.7854,11.7305 -14.9464,26.2625 -26.0507,35.5533 -1.8799,1.6739 -4.7012,2.5457 -6.6573,0.5193 -1.8551,-1.4046 -3.1668,-3.7776 -3.3286,-6.3301 -6.7384,0.7349 -12.6919,6.6123 -19.6742,5.0284 -7.3606,-4.1057 -16.092,-2.3665 -23.2675,1.3896 -6.922,-0.013 -12.135,-7.5143 -19.2052,-6.5201 -4.4091,-0.8584 -7.2343,-5.3493 -9.6509,-9.1084 -4.3548,-0.5491 -6.6468,4.7409 -10.3142,6.3753 -8.9618,5.3236 -20.2477,2.4055 -27.8821,-4.5446 -1.774,-1.9568 -4.3725,-4.4272 -6.901,-2.5529 -2.8721,1.5967 -3.9936,6.051 -7.2641,6.763 -5.3217,0.7051 -9.8713,-4.7714 -10.5326,-10.4891 -5.7676,-13.7979 -10.2522,-28.2209 -15.2421,-42.3923 -0.015,0.9109 -0.032,1.8218 -0.049,2.7327 z"
       id="path4508-9-6"
       inkscape:connector-curvature="0"
       sodipodi:nodetypes="cccccccccccccccccccccccccccccccccccccccccccccccccccccccccccccccc" />
    <path
       style="color:#000000;display:inline;overflow:visible;visibility:visible;fill:#ffe4a0;fill-opacity:1;fill-rule:nonzero;stroke:none;stroke-width:1px;marker:none;enable-background:accumulate"
       d="m 1322.9488,1709.0197 c -11.0094,9.9702 -17.1146,23.8053 -25.197,35.9928 -5.7365,9.1028 -17.9114,24.8135 -26.046,32.2016 7.6812,0.2097 5.7344,0.8326 10.9478,2.0534 3.3706,1.3513 7.7807,2.3941 9.3038,6.0235 -1.4478,7.677 -8.2527,12.4101 -13.2117,17.8317 -21.2393,19.7738 -50.3466,30.4414 -79.2715,30.188 30.5673,5.5836 63.676,0.269 89.5548,-17.4158 15.5847,-11.4657 31.0045,-29.6098 44.4036,-43.4287 -3.8521,-0.6581 -8.7325,-0.5391 -12.6274,-0.7071 -7.2015,-0.9549 -9.1708,-6.0664 -6.2213,-10.4154 3.8653,-10.2383 12.9809,-16.9751 20.7567,-24.1405 4.6114,-3.9349 9.2499,-7.8384 13.8074,-11.8359 -7.5773,-6.8137 -16.4342,-11.9448 -25.0566,-17.289 -0.3809,0.3138 -0.7617,0.6276 -1.1426,0.9414 z"
       id="path5066-6"
       inkscape:connector-curvature="0"
       sodipodi:nodetypes="ccccccccccccccc" />
    <path
       style="color:#000000;display:inline;overflow:visible;visibility:visible;fill:#ffe4a0;fill-opacity:1;fill-rule:nonzero;stroke:none;stroke-width:0.858267px;marker:none;enable-background:accumulate"
       d="m 1474.8789,350.39 c -25.4092,1.83549 -51.0728,10.57751 -73.5856,30.92119 -9.0737,9.03749 -16.9202,23.36516 -19.0759,41.0351 -0.8105,17.39357 1.2981,38.44573 8.7083,50.36455 10.3663,16.67351 19.5739,19.53157 30.6637,22.87761 40.116,12.10393 68.112,10.05785 102.9554,10.05142 20.8279,1.31831 69.2446,3.11182 89.7879,-3.64622 13.5937,-6.22712 16.3319,-5.83352 26.4469,-20.16712 5.2039,-10.37291 6.4592,-21.88225 8.1037,-42.70275 1.864,-14.03032 0.2903,-29.00839 -3.5396,-41.75206 -3.5356,-10.599 -9.7894,-18.28077 -16.7572,-21.50392 -12.4827,-7.29501 -25.6818,-9.94832 -38.6322,-13.90705 -38.0609,-9.55902 -76.6467,-11.37236 -115.0754,-11.57075 z"
       id="path3365-74"
       inkscape:connector-curvature="0"
       sodipodi:nodetypes="csssssccccccc" />
    <path
       style="display:inline;fill:#ffe4a0;fill-rule:evenodd;stroke:none;stroke-width:1.11958px;stroke-linecap:butt;stroke-linejoin:miter;stroke-opacity:1;fill-opacity:1"
       d="m 1459.798,124.9505 c -36.4671,0.38599 -73.587,-1.22989 -109.2183,6.98826 -23.7838,5.52943 -45.978,19.43318 -56.4243,39.54702 -7.3384,15.81305 -1.2719,34.66567 11.8801,46.63739 7.2841,6.76206 15.3719,13.60859 25.6832,16.42522 9.5231,2.54143 19.5312,0.99986 29.2914,1.29424 17.9079,-0.14066 35.8125,0.44407 53.6757,1.51249 70.7688,2.41748 141.6132,1.62733 212.4045,0.57368 23.3521,-0.7183 47.4144,-1.89015 69.1326,-10.24833 13.8835,-5.74789 25.6082,-16.63156 28.9117,-30.14875 4.4601,-14.82251 1.1905,-32.22842 -11.6427,-43.13396 -12.001,-10.48285 -27.854,-16.54769 -43.5567,-21.35899 -20.7443,-5.79725 -42.7257,-6.40673 -64.3004,-6.02763 -28.4305,-0.37607 -56.8575,-0.89413 -85.2794,-1.61992 -20.1825,-0.44807 -40.3701,-0.48431 -60.5574,-0.44072 z"
       id="path1297"
       inkscape:connector-curvature="0" />
    <path
       style="display:inline;fill:#ffe4a0;fill-rule:evenodd;stroke:none;stroke-width:0.981299px;stroke-linecap:butt;stroke-linejoin:miter;stroke-opacity:1;fill-opacity:1"
       d="m 1583.9704,208.38604 c -49.7055,2.36382 -99.427,4.31977 -149.1079,7.3593 -12.7512,0.93053 -25.5727,1.35654 -38.1689,4.11747 -14.4503,3.01229 -28.8368,7.62554 -41.9562,15.60331 -11.6286,8.42151 -19.4284,22.23959 -26.7206,35.57617 -3.6513,6.6825 -6.1418,14.37755 -6.2498,22.43246 -0.5354,13.87734 2.8461,27.43167 6.4715,40.45484 3.3367,11.01406 8.9779,21.14699 16.833,28.26521 9.289,8.98912 19.7867,16.62526 31.3648,20.4878 7.9509,2.67817 16.2634,2.98826 24.4666,2.68808 20.06,-0.0612 40.1195,0.0476 60.1789,0.12782 55.7226,-0.009 111.5465,0.0867 167.1056,-5.67886 11.7556,-1.26073 23.4806,-4.26979 34.3722,-9.79302 8.9523,-4.42698 16.5113,-11.97797 23.2057,-20.20679 6.2198,-7.83016 11.0125,-17.65192 12.0828,-28.51841 2.0317,-15.53143 0.7877,-31.30416 1.4258,-46.93465 -0.5754,-12.50531 -6.6665,-23.83333 -14.7545,-31.44112 -12.0323,-13.0573 -26.5913,-23.27715 -42.6582,-27.05856 -12.6061,-3.31752 -25.4572,-5.09184 -38.2781,-6.72014 -6.5225,-0.63527 -13.0697,-0.87333 -19.6127,-0.76091 z"
       id="path1299"
       inkscape:connector-curvature="0" />
    <path
       style="display:inline;fill:#ffe4a0;fill-rule:evenodd;stroke:none;stroke-width:1px;stroke-linecap:butt;stroke-linejoin:miter;stroke-opacity:1;fill-opacity:1"
       d="m 1516.8322,467.18878 c -6.6131,0.47706 -14.4131,0.53134 -19.0606,6.05273 -9.2681,15.84095 -16.7496,33.90699 -15.1611,52.61768 2.1917,20.11622 13.9704,37.89228 28.3815,51.53834 8.5346,8.09616 15.6793,18.09456 18.3938,29.69937 4.3317,16.40289 0.7816,35.11834 -10.8279,47.78415 -2.1207,2.52133 -4.4197,4.88481 -6.7453,7.21593 17.3235,-9.37091 31.4532,-26.25408 34.2349,-46.13162 1.2634,-15.92483 -6.122,-31.08454 -15.4694,-43.50249 -9.5013,-13.2266 -21.135,-25.79068 -25.2403,-41.97989 -3.1205,-17.66298 3.3092,-35.58183 12.9847,-50.18689 1.9316,-3.08666 4.9581,-6.76026 3.4836,-10.5888 -1.0225,-1.66362 -3.0088,-2.74768 -4.9739,-2.51851 z"
       id="path1303"
       inkscape:connector-curvature="0"
       sodipodi:nodetypes="cccccccc" />
    <path
       style="color:#000000;display:inline;overflow:visible;visibility:visible;fill:#ffe4a0;fill-opacity:1;fill-rule:nonzero;stroke:none;stroke-width:1px;marker:none;filter:url(#filter1101);enable-background:accumulate"
       d="m 2064.5541,245.38398 c -39.6392,1.7245 -79.6747,9.93788 -114.7951,29.05136 -14.1553,8.49097 -26.3959,21.95224 -29.7587,38.55366 -1.2644,16.34177 6.3065,32.47141 17.7626,43.76686 11.5765,10.64183 27.1161,15.33349 42.2658,17.94208 53.0817,12.13776 107.6486,16.55384 162.005,16.5478 32.4919,1.23859 65.3456,1.67653 97.3937,-4.67284 21.8628,-3.05112 43.8441,-8.01871 63.3983,-18.65986 15.5501,-7.93618 28.7562,-21.93251 33.1784,-39.16111 2.9079,-13.18188 0.453,-27.25422 -5.5218,-39.22726 -5.5156,-9.95807 -15.2715,-17.17531 -26.1416,-20.20356 -19.4733,-6.85388 -40.064,-9.34673 -60.267,-13.06608 -59.3757,-8.98097 -119.5704,-10.68466 -179.5196,-10.87105 z"
       id="path3365-74-3"
       inkscape:connector-curvature="0"
       sodipodi:nodetypes="csssssc"
       transform="matrix(1.0118692,0,0,0.99688645,-37.274329,0.99225939)" />
  </g>
  <g
     inkscape:groupmode="layer"
     id="layer1"
     inkscape:label="txt"
     style="display:inline">
    <text
       xml:space="preserve"
       style="font-style:normal;font-variant:normal;font-weight:normal;font-stretch:normal;line-height:0%;font-family:Lavi;-inkscape-font-specification:Lavi;text-align:center;letter-spacing:0px;word-spacing:0px;text-anchor:middle;fill:#000000;fill-opacity:1;stroke:none"
       x="1509.0961"
       y="197.70142"
       id="text4246-86"><tspan
         sodipodi:role="line"
         style="font-size:45px;line-height:1.2"
         x="1509.0961"
         y="197.70142"
         id="tspan1167">Resno, Korenček?</tspan></text>
    <text
       xml:space="preserve"
       style="font-style:normal;font-variant:normal;font-weight:normal;font-stretch:normal;line-height:0%;font-family:Lavi;-inkscape-font-specification:Lavi;text-align:center;letter-spacing:0px;word-spacing:0px;text-anchor:middle;fill:#000000;fill-opacity:1;stroke:none"
       x="1513.4302"
       y="279.05362"
       id="text4246-86-3"><tspan
         sodipodi:role="line"
         style="font-size:45px;line-height:1.2"
         x="1513.4302"
         y="279.05362"
         id="tspan4432">Upam, da si</tspan><tspan
         sodipodi:role="line"
         style="font-size:45px;line-height:1.2"
         x="1513.4302"
         y="333.05362"
         id="tspan9552">zdaj zadovoljen.</tspan></text>
    <text
       xml:space="preserve"
       style="font-style:normal;font-variant:normal;font-weight:normal;font-stretch:normal;line-height:0%;font-family:Lavi;-inkscape-font-specification:Lavi;text-align:center;letter-spacing:0px;word-spacing:0px;text-anchor:middle;fill:#000000;fill-opacity:1;stroke:none"
       x="1517.7742"
       y="416.80472"
       id="text4246-86-3-7"><tspan
         sodipodi:role="line"
         style="font-size:45px;line-height:1.2"
         x="1517.7742"
         y="416.80472"
         id="tspan9556">Videti si</tspan><tspan
         sodipodi:role="line"
         style="font-size:45px;line-height:1.2"
         x="1517.7742"
         y="470.80472"
         id="tspan9560">obupno …</tspan></text>
    <text
       xml:space="preserve"
       style="font-style:normal;font-variant:normal;font-weight:normal;font-stretch:normal;line-height:0%;font-family:Lavi;-inkscape-font-specification:Lavi;letter-spacing:0px;word-spacing:0px;display:inline;fill:#ffe4a0;fill-opacity:1;stroke:#ffffff;stroke-width:1.14998;stroke-miterlimit:4;stroke-dasharray:none;stroke-opacity:1;filter:url(#filter4375-4-1-1-1-9-6-9-2-1-7-1)"
       x="787.65729"
       y="1584.5073"
       id="text4580-1-7-3-6-9-4"
       transform="matrix(0.8084187,0.00200213,-0.18183537,0.93491494,1588.0184,-1147.577)"><tspan
         sodipodi:role="line"
         id="tspan4582-8-5-6-1-3-5"
         x="787.65729"
         y="1584.5073"
         style="font-size:70px;line-height:1.25;letter-spacing:3.44995px;fill:#ffe4a0;fill-opacity:1;stroke:#ffffff;stroke-width:1.14998;stroke-miterlimit:4;stroke-dasharray:none;stroke-opacity:1">… videti si …</tspan></text>
    <text
       xml:space="preserve"
       style="font-style:normal;font-variant:normal;font-weight:normal;font-stretch:normal;font-size:58.6667px;line-height:0%;font-family:Lavi;-inkscape-font-specification:Lavi;text-align:center;letter-spacing:0px;word-spacing:0px;text-anchor:middle;display:inline;fill:#000000;fill-opacity:1;stroke:none;stroke-width:3.6;stroke-miterlimit:4;stroke-dasharray:none"
       x="1755.0721"
       y="1407.4846"
       id="text4246-2-3-1-3-9-0-5-3-3-6-9-3-7-3-9-4"
       transform="matrix(0.87552817,0,-0.14342897,1.1421677,0,0)"><tspan
         sodipodi:role="line"
         style="font-style:normal;font-variant:normal;font-weight:bold;font-stretch:normal;font-size:58.6667px;line-height:1.25;font-family:Lavi;-inkscape-font-specification:'Lavi Bold';stroke:none;stroke-width:3.6;stroke-miterlimit:4;stroke-dasharray:none;stroke-opacity:1"
         x="1755.0721"
         y="1407.4846"
         id="tspan4579-4">Seveda!</tspan></text>
    <text
       xml:space="preserve"
       style="font-style:normal;font-variant:normal;font-weight:normal;font-stretch:normal;font-size:64px;line-height:0%;font-family:Lavi;-inkscape-font-specification:Lavi;text-align:center;letter-spacing:0px;word-spacing:0px;text-anchor:middle;display:inline;fill:#000000;fill-opacity:1;stroke:none;stroke-width:3.6;stroke-miterlimit:4;stroke-dasharray:none"
       x="1614.561"
       y="1569.7036"
       id="text4246-2-3-1-3-9-0-5-3-3-6-9-3-7-3-9-4-6"
       transform="matrix(0.92759422,0,-0.09976132,1.0780576,0,0)"><tspan
         sodipodi:role="line"
         style="font-style:normal;font-variant:normal;font-weight:bold;font-stretch:normal;font-size:64px;line-height:1.25;font-family:Lavi;-inkscape-font-specification:'Lavi Bold';stroke:none;stroke-width:3.6;stroke-miterlimit:4;stroke-dasharray:none;stroke-opacity:1"
         x="1614.561"
         y="1569.7036"
         id="tspan4579-4-2">Videz!</tspan></text>
    <text
       xml:space="preserve"
       style="font-style:normal;font-variant:normal;font-weight:normal;font-stretch:normal;line-height:0%;font-family:Lavi;-inkscape-font-specification:Lavi;letter-spacing:0px;word-spacing:0px;fill:#000000;fill-opacity:1;stroke:#000000;stroke-width:1.19005;stroke-miterlimit:4;stroke-dasharray:none;stroke-opacity:1;filter:url(#filter4375-4-1-1-1-9)"
       x="787.65729"
       y="1584.5073"
       id="text4580"
       transform="matrix(0.81821305,-0.33688634,-0.15105419,1.1716012,481.86174,1568.9719)"><tspan
         sodipodi:role="line"
         id="tspan4582"
         x="787.65729"
         y="1584.5073"
         style="font-size:70px;line-height:1.25;fill:#ffffff;stroke-width:1.19005">Škrc<tspan
   style="font-size:80.4001px;stroke-width:1.19005"
   id="tspan4617">!</tspan></tspan></text>
  </g>
</svg>
