<?xml version="1.0" encoding="UTF-8" standalone="no"?>
<!-- Created With Inkscape (http://www.inkscape.org/) -->

<svg
   id="svg2"
   version="1.1"
   inkscape:version="1.3.2 (091e20ef0f, 2023-11-25, custom)"
   width="2481"
   height="663"
   sodipodi:docname="E12P00.svg"
   xmlns:inkscape="http://www.inkscape.org/namespaces/inkscape"
   xmlns:sodipodi="http://sodipodi.sourceforge.net/DTD/sodipodi-0.dtd"
   xmlns:xlink="http://www.w3.org/1999/xlink"
   xmlns="http://www.w3.org/2000/svg"
   xmlns:svg="http://www.w3.org/2000/svg"
   xmlns:rdf="http://www.w3.org/1999/02/22-rdf-syntax-ns#"
   xmlns:cc="http://creativecommons.org/ns#"
   xmlns:dc="http://purl.org/dc/elements/1.1/">
  <metadata
     id="metadata8">
    <rdf:RDF>
      <cc:Work
         rdf:about="">
        <dc:format>image/svg+xml</dc:format>
        <dc:type
           rdf:resource="http://purl.org/dc/dcmitype/StillImage" />
        <dc:title />
      </cc:Work>
    </rdf:RDF>
  </metadata>
  <defs
     id="defs6" />
  <sodipodi:namedview
     pagecolor="#ffffff"
     bordercolor="#666666"
     borderopacity="1"
     objecttolerance="10"
     gridtolerance="10"
     guidetolerance="10"
     inkscape:pageopacity="0"
     inkscape:pageshadow="2"
     inkscape:window-width="1888"
     inkscape:window-height="1144"
     id="namedview4"
     showgrid="false"
     inkscape:zoom="0.74946265"
     inkscape:cx="1525.0927"
     inkscape:cy="315.55942"
     inkscape:window-x="32"
     inkscape:window-y="0"
     inkscape:window-maximized="1"
     inkscape:current-layer="layer1"
     inkscape:showpageshadow="2"
     inkscape:pagecheckerboard="0"
     inkscape:deskcolor="#d1d1d1" />
  <g
     inkscape:groupmode="layer"
     id="layer2"
     inkscape:label="artwork"
     sodipodi:insensitive="true">
    <image
       xlink:href="../gfx_Pepper-and-Carrot_by-David-Revoy_E12P00.png"
       width="2481"
       height="663"
       id="image10"
       x="0"
       y="0" />
  </g>
  <g
     inkscape:groupmode="layer"
     id="layer1"
     inkscape:label="txt"
     style="display:inline">
    <flowRoot
       xml:space="preserve"
       id="flowRoot3371"
       style="font-style:normal;font-weight:normal;line-height:0.01%;font-family:sans-serif;letter-spacing:0px;word-spacing:0px;display:none;opacity:1;fill:#241c1c;fill-opacity:1;stroke:none;stroke-width:1px;stroke-linecap:butt;stroke-linejoin:miter;stroke-opacity:1"
       transform="translate(153.70313,44.468444)"><flowRegion
         id="flowRegion3373"><rect
           id="rect3375"
           width="1548.4232"
           height="424.68536"
           x="267.07019"
           y="-5.405139"
           style="font-size:437.5px;fill:#241c1c;fill-opacity:1" /></flowRegion><flowPara
         id="flowPara3377"
         style="font-style:normal;font-variant:normal;font-weight:normal;font-stretch:normal;font-size:291.667px;line-height:1.5625;font-family:Mikhak;-inkscape-font-specification:Mikhak;fill:#241c1c;fill-opacity:1">فلفل و هویج</flowPara></flowRoot>
    <flowRoot
       xml:space="preserve"
       id="episode-title"
       style="font-style:normal;font-variant:normal;font-weight:normal;font-stretch:normal;line-height:0.01%;font-family:Arial;-inkscape-font-specification:Arial;letter-spacing:0px;word-spacing:0px;display:inline;fill:#301b0b;fill-opacity:1;stroke:none"
       transform="translate(-475.54524,-187.50433)"><flowRegion
         id="flowRegion2989-9"><rect
           id="rect2991-6"
           width="1951.0403"
           height="143.40974"
           x="739.22333"
           y="644.36664"
           style="fill:#301b0b;fill-opacity:1" /></flowRegion><flowPara
         id="flowPara2993-4"
         style="font-style:normal;font-variant:normal;font-weight:bold;font-stretch:normal;font-size:106.667px;line-height:1.25;font-family:'XP Ziba';-inkscape-font-specification:'XP Ziba Bold';text-align:center;direction:rtl;text-anchor:middle;fill:#301b0b;fill-opacity:1">قسمت دوازدهم: خانه‌تکانی پاییزی</flowPara></flowRoot>
    <path
       id="path2086"
       style="font-weight:bold;font-size:325px;line-height:1.25;font-family:'XP Ziba';-inkscape-font-specification:'XP Ziba Bold';letter-spacing:0px;word-spacing:0px;direction:rtl;display:inline;fill:#3c0000;stroke:#ffffff;stroke-width:0;paint-order:stroke fill markers"
       d="m 1526.7399,101.99871 -8.2129,3.17383 c 2.0361,11.70933 2.5036,16.54073 3.0528,32.29492 l 5.7929,24.67578 4.0879,17.41601 3.6895,17.6543 3.2929,17.6543 2.8965,17.41601 2.6172,19.875 2.1426,19.63868 1.4277,18.48828 0.4766,16.74218 -13.8848,72.00586 -41.6562,24.00196 -7.7364,-0.83203 -7.0234,-2.5 -6.0703,-4.04688 -5.1973,-5.47461 -4.0859,-6.625 -3.0547,-7.8164 -1.9043,-8.84766 -0.6348,-9.71875 5.3555,-29.04102 3.2175,-20.25925 6.647,-8.71543 9.1207,2.69987 10.1627,12.20131 6.9787,-6.52227 -4.1479,-8.74465 -11.8611,-11.87985 -9.6873,-3.0021 -8.7955,2.11639 -20.0059,30.60598 -8.3066,34.59375 7.1719,9.4043 -2.793,11.28906 2.5234,13.45313 3.6836,17.25781 1.877,2.82617 2.0371,2.65625 8.1328,7.30078 9.7988,5.39453 11.5449,3.33204 13.0528,1.11132 16.4238,-1.42773 14.6777,-4.28516 12.8536,-6.98242 10.9511,-9.52148 8.9668,-11.74219 6.9024,-13.96484 4.7617,-16.0293 2.539,-17.93164 15.67,11.90234 19.7168,3.9668 h 2.539 2.5391 v 0.16016 0.1582 l 15.0137,-0.1582 15.0156,-0.15821 c 0.4376,-2.28319 0.06,-1.71875 0.498,-4.00195 l 9.918,3.17187 9.4434,-1.23828 c 6.7695,-1.02442 9.3679,-2.48121 18.4902,-5.65625 l 9.3809,-4.49609 10.3144,5.71289 10.3145,3.80859 10.5937,2.02344 11.1484,0.67383 h 12.6153 12.6152 2.5391 2.539 l 7.9747,-0.91211 8.0546,-2.73828 7.9746,-4.44336 7.418,-5.71289 6.9024,-6.98242 6.1093,-7.9336 5.1973,-8.60937 3.8496,-9.00586 0.039,-0.43555 0.1191,-0.35742 0.1582,-0.31641 0.1582,-0.31836 0.8731,2.26172 1.0312,2.33985 1.1504,2.41992 1.2305,2.5 h -0.08 -0.078 l 5.0371,9.32226 5.5937,7.97461 4.9922,5.4043 5.0469,4.59961 4.9824,-1.56445 4.9824,-1.5625 5.1973,6.8164 0.3063,4.70657 6.7328,2.41453 1.7207,0.13281 h 7.2988 7.3008 11.0293 11.0293 l 21.3047,-1.50781 18.5273,-4.52149 15.9082,-7.18164 13.1309,-9.48242 10.2754,-11.7832 7.3398,-13.76563 2.5195,-7.2168 1.834,-7.54101 -1.2129,-6.32617 -1.2129,-6.32617 1.9024,-4.53321 1.9043,-4.5332 -1.0781,-11.02734 -2.4336,-10.57618 -4.4043,-11.46484 -5.9121,-9.95898 -7.1797,-8.25196 -9.1055,-3.18359 -8.9453,-7.33008 -10.4746,-1.38867 -11.1485,1.1914 -10.2754,3.57032 -9.164,5.67187 -18.7656,27.49414 -2.9747,12.09961 -0.3183,24.2793 2.0234,10.27539 3.2539,9.32422 4.3633,8.29101 5.6348,7.02149 6.7441,5.83203 7.7363,4.32422 8.6094,2.81836 -6.4277,1.58594 -6.9024,1.26953 -7.2597,0.83398 -7.8164,0.27734 h -15.3145 -15.3125 l -8.8867,-1.90429 -8.252,-5.71289 -7.3789,-9.00586 -6.2695,-11.78321 -4.1269,-11.22656 -3.1739,-11.14844 -2.2226,-11.1875 -1.586,-11.34765 v 0.0801 0.0801 l -1.3086,-13.60937 -1.0703,-11.94141 -0.7148,-10.47265 -0.2383,-8.88672 -3.255,-4.56242 3.255,-5.51375 -3.6016,-4.16993 -3.6015,-4.17187 3.6015,-2.75391 3.6016,-2.7539 v -40.80083 -40.80274 l -2.8965,-8.45117 -7.9199,3.32227 -4.8945,-5.30665 -3.1739,2.5 -2.0625,3.41211 -0.7929,3.88868 0.4746,14.99609 0.4765,14.99609 0.4766,11.82227 0.1602,8.17187 0.1191,4.68164 0.039,1.66602 0.078,2.61914 0.08,2.61914 v 1.58594 1.58789 l 0.1172,1.38867 0.039,1.3086 0.1211,3.45117 0.039,3.05468 v 2.61915 2.61718 l 0.1582,13.17188 0.1582,13.17187 0.1191,13.05274 0.039,13.13086 -0.5156,14.0039 -1.5469,13.13282 -2.6582,12.3789 -3.8477,11.74219 -3.5312,8.25195 -4.2461,7.9336 -4.7207,7.14062 -5.2754,6.18945 -2.5,2.57813 -2.4199,2.3418 -2.5,1.94336 -2.7364,1.70703 -2.9765,1.38867 -3.2129,0.99219 -3.6094,0.5957 -4.166,0.19726 h -12.1406 -12.1387 l -6.3477,-0.39648 -6.3476,-1.19141 -6.0313,-1.86328 -5.7129,-2.41992 10.2754,-13.56836 7.0215,-14.67969 4.166,-15.83007 1.3887,-17.01954 -0.832,-12.0996 -2.5,-11.22657 -3.9278,-10.07812 -5.4355,-8.64844 -6.8633,-7.06055 -8.2129,-5.3164 -9.4804,-3.45313 -10.6719,-1.15039 -33.2071,11.38672 -11.0683,34.1582 1.8242,17.73438 5.4746,17.6543 8.8086,17.05859 11.8223,16.26562 1.3496,1.66602 1.1894,1.50781 1.2696,1.31055 1.2695,1.38867 -6.4668,2.2207 -7.3398,1.9043 -7.7364,1.30859 -7.6562,0.4375 h -14.5996 -14.5996 l -5.793,-0.35742 -4.9981,-1.07031 -4.3632,-1.74609 -3.8887,-2.38086 -3.332,-3.01367 -3.0157,-3.6504 -2.6582,-4.28515 -2.5781,-4.91992 h 0.078 0.08 l -5.0391,-12.49805 -4.3242,-14.63867 -3.4121,-17.01953 -2.6191,-19.32032 -3.7285,-24.83593 -4.5215,-25.94532 -2.0977,-10.74414 -2.2871,-11.01953 -5.6172,-13.37695 -5.6172,-13.37695 1.1719,-6.11524 1.1738,-6.11523 -1.5918,-6.49805 -1.6386,-6.54492 -2.0645,-8.8086 -2.0625,-8.64843 c -4.0608,-4.01492 -5.199,-5.82705 -10.4707,-8.56836 z m 152.502,63.31836 -6.8633,1.22851 -5.6738,3.68946 -3.8086,5.47461 -1.2696,6.90429 4.4043,13.0918 13.211,4.36328 3.6504,-0.31641 3.332,-0.95312 2.9746,-1.66602 2.5781,-2.14257 2.1035,-2.57813 1.5469,-2.97461 1.0723,-3.29297 0.3574,-3.53125 -1.2695,-7.10156 -3.8106,-5.43555 -5.5937,-3.57031 z m 267.3183,0.0137 -3.6328,2.32226 -3.6347,2.32032 -4.75,-0.0625 -4.7481,-0.0645 -2.9277,5.27149 -1.0196,7.17773 1.1914,6.74414 3.5704,5.63477 5.5937,3.68945 7.2598,1.23047 3.5312,-0.31836 3.293,-0.95117 2.9355,-1.62695 2.459,-2.02344 2.1035,-2.57813 1.5469,-2.97656 1.0703,-3.29297 0.3574,-3.53125 -0.3574,-3.52929 -1.0703,-3.29297 -1.5469,-2.97657 -2.1035,-2.57812 -2.459,-2.14258 -2.9355,-1.66601 -1.8281,-0.4961 z m -1240.25585,57.43164 2.2952,0.33428 -1.5022,3.31611 2.6191,6.18945 2.1426,6.50586 1.9824,7.02149 2.1426,7.73633 -0.078,-0.0781 -0.08,-0.0801 0.1602,0.63477 0.1582,0.63476 0.2773,0.51563 0.1973,0.5957 1.9843,10.07617 1.5079,9.60157 0.9531,9.2832 0.3164,9.125 -0.4375,9.87891 -1.3086,8.6875 -2.3399,7.45898 -3.5312,6.1875 -4.6816,4.76172 -6.1094,3.49023 -7.6973,2.14258 -9.4414,0.71484 h -3.7285 -3.7305 l -11.7031,-0.35742 -10.0371,-1.07031 -8.3711,-1.74609 -7.0215,-2.38086 -5.7539,-3.13477 -4.5625,-3.68945 -3.3711,-4.24414 -2.5,-4.80078 h 0.08 0.078 l -1.1504,-2.97461 -1.2285,-2.89649 -1.1113,-2.93554 -1.1113,-3.09571 7.498,-1.82422 7.5781,-1.66601 7.8145,-1.7461 8.2129,-1.74609 -2.6172,-10.55273 -2.6192,-10.55274 -15.6699,3.21289 -13.6875,1.07227 -13.4492,-0.99219 -13.3711,-2.97461 -13.0918,-5 -12.9336,-6.74414 -12.5762,-8.60937 -5.1601,-4.29688 -11.8283,-5.8784 -6.2928,-11.04347 -1.0781,-1.07813 -11.6231,-13.52734 -3.8886,-3.21289 -4.9981,-1.07227 -13.8395,2.48569 -4.9861,6.85725 5.7742,0.56651 2.9385,0.59327 1.6972,1.91562 1.2215,2.41197 1.0087,1.81296 16.1035,22.35673 19.4394,17.6543 20.3926,13.52734 21.1856,9.48242 -13.8067,6.34766 -12.5371,6.98242 -11.4258,7.45899 -10.4726,8.09179 -23.6856,27.85157 -5.8379,22.82226 6.6231,8.68555 -2.791,24.23047 5.5371,9.08593 8.0937,8.57032 9.8379,7.02148 11.4258,5.19727 12.6562,3.33203 13.5274,1.11133 18.25,-1.9043 18.5664,-5.71289 19.5195,-9.87891 20.7891,-14.71875 3.0937,-4.04687 1.0313,-4.83985 -2.4731,-10.9419 -4.5488,-7.7865 -7.8153,-2.50581 -0.1472,8.54021 -0.3404,3.37604 -1.5426,1.845 -6.331,4.01503 -26.6297,15.99504 -32.2149,6.82422 -8.9258,-0.67383 -8.3711,-2.02343 -7.4589,-3.25391 -6.5059,-4.36328 -5.2773,-5.23633 -4.086,-6.18945 -2.5,-6.98242 -0.832,-7.61719 2.8965,-15.47266 8.6875,-15.31445 12.0996,-12.57617 15.3535,-11.38672 18.8047,-10.23633 22.1387,-8.80664 7.1406,21.78125 14.4414,15.19531 21.6601,8.80664 28.8028,2.93555 h 2.539 2.5391 4.7617 4.7598 2.539 2.5391 l 39.2774,-16.30664 13.0917,-48.91602 -0.2382,-7.33789 -0.7149,-7.73633 -0.9511,-7.97461 -1.2696,-7.73632 -1.3496,-7.33985 -1.5078,-6.7832 -1.5469,-5.87109 -1.4668,-4.60352 -3.9668,-10.15625 -8.1044,-10.77322 -15.3747,-9.9536 -9.3523,10.50544 z m 131.4743,-27.47502 -7.7247,18.70046 -20.7594,2.1105 -9.3613,5.27539 -8.0937,6.94336 -1.2618,1.56836 -2.7636,23.99609 -10.1582,9.2636 -0.5352,16.50788 2.8164,11.0293 4.6426,10.51367 6.625,9.95703 10.791,11.26758 13.9708,6.64148 14.2753,12.00501 17.457,7.2207 1.3477,0.47656 1.3496,0.47461 0.9531,0.35742 0.9512,0.4375 1.1113,0.31836 1.1114,0.31641 -0.3165,0.51562 -0.3183,0.59375 -0.08,0.0801 -0.08,0.0801 -0.832,1.34766 -0.9122,1.50781 -0.7949,1.50781 -0.7929,1.34961 h 0.078 0.08 l -23.1289,28.12695 -17.4531,18.78145 -7.7114,9.33927 -8.8355,0.40468 -6.7148,-8.96048 -4.0692,-0.74673 -2.5769,2.44864 0.6149,3.69572 4.5767,10.06385 8.3851,3.44792 11.0518,1.79326 2.3809,-0.55468 2.3808,-0.55469 16.9004,-9.56055 6.1739,-4.98633 2.2031,-11.49414 15.2578,-4.78711 6.1992,-6.66211 13.25,-18.36914 0.2383,-0.55468 0.7148,-1.34961 1.0313,-1.70704 1.1894,-1.94335 1.1114,-1.82422 1.1113,-1.98438 1.0312,-1.86523 0.8731,-1.78516 9.2422,1.50781 9.0058,1.03125 8.8477,0.47657 8.7676,0.1582 h 7.2207 7.2207 2.539 2.5391 l 11.1484,-1.11133 14.4004,-3.33203 17.4551,-5.83203 19.9961,-8.29102 21.38285,8.09375 23.8438,2.69727 5.5937,-0.23828 5.3574,-0.39649 5.3164,-0.87304 5.1563,-1.34961 24.875,-12.53516 3.6016,-7.92773 -5.919,-10.09407 0.5401,-24.34148 -4.3321,-5.7207 -11.7832,-11.58399 1.7852,-6.54687 0.5957,-7.57813 -0.9121,-9.99805 -2.7383,-9.04492 -4.3633,-7.93359 -5.793,-6.66602 -7.1816,-5.3164 -8.5293,-3.88672 -9.5215,-2.5 -10.4726,-0.83203 -8.6485,0.47656 -7.8554,1.42773 -7.45905,2.22071 -7.7754,3.17383 -1.666,-0.79297 -1.5079,-0.79297 -1.2304,-0.71485 -1.1504,-0.55468 -3.4902,-1.78516 -3.1739,-1.54883 -2.5801,-1.23047 -2.0234,-0.83203 0.08,0.0801 0.08,0.0781 -2.8164,-1.18946 -2.7383,-0.39648 -1.3986,-16.73632 -6.6836,-3.44293 -1.9183,13.27575 -1.267,17.53631 1.2695,4.64063 3.8086,4.08593 1.9043,1.15039 1.9043,1.23047 1.9433,1.15039 2.0235,1.23047 -6.7442,8.44922 -4.998,9.48242 -3.0957,10.55274 -1.0313,11.98242 0.2383,6.98242 0.7149,6.66406 1.4277,6.22852 2.0625,5.99023 2.8965,5.63477 3.6113,5.47461 4.4043,5.19726 5.2754,5.11719 -1.627,0.71484 -1.3886,0.55469 -1.1114,0.47656 -1.1093,0.47657 -1.1895,0.35742 -1.3496,0.43555 -1.627,0.55468 -2.0234,0.71485 -0.9531,0.35742 -0.9512,0.43555 -0.9922,0.31836 -1.0703,0.3164 -5.9121,2.10352 -4.7207,1.54687 -3.7695,1.11133 -3.3711,0.79297 -3.2149,0.39648 -3.2929,0.23828 h -3.6485 -3.6504 -0.4765 -0.4766 -3.7285 -3.7285 l -16.6231,-0.7539 -15.9101,-2.26172 3.332,-10.75195 2.3809,-10.67188 1.5488,-10.5918 0.5156,-10.51367 -1.0312,-14.08398 -3.4121,-13.6875 -4.9293,-0.96338 -2.7209,-6.08913 2.4119,-6.03929 -6.5059,-11.98047 -9.5996,-11.66406 -11.0293,-8.64844 1.7183,-11.37823 -6.4409,-7.04316 z m 423.46905,16.84221 -23.3281,6.54687 -18.5664,19.63867 -2.7988,5.00391 -2.459,5.11523 2.2363,12.88868 -1.0263,12.88672 -2.7823,8.93945 -6.0429,8.93945 1.2929,10.55078 2.6934,10.10157 5.5937,11.98046 7.5782,11.1875 10.0761,10.19532 11.1875,7.41992 12.3789,4.52344 13.3301,1.50781 4.7207,-0.31641 5.2774,-0.95312 -11.3868,15.55273 -12.2578,13.01172 -13.0136,10.39453 -13.9649,7.69531 -4.4944,5.2322 -2.1697,4.76585 -8.363,2.40793 -3.279,4.26462 -0.3831,2.27942 6.8682,2.79654 16.8991,-0.32273 1.9043,-0.47656 1.9043,-0.47656 24.3594,-14.83789 21.0273,-20.39063 8.5684,-11.0293 7.6172,-11.50585 2.3965,-4.1836 2.291,-4.33008 9.9838,-24.85257 6.6432,-26.35533 1.6445,-9.17491 0.2344,-3.10937 0.1347,-3.05469 -1.0312,-14.08399 -3.4121,-13.6875 -5.1172,-13.09179 -6.4668,-11.98047 -9.5146,-4.54084 -1.1986,-8.55045 -8.5981,0.23723 0.2019,-6.14594 -1.6797,-1.3125 -12.2988,-5.47461 z m 682.2149,21.10742 5.6738,0.95312 5.2754,2.85547 4.7207,4.44336 4.0078,5.71289 3.3711,6.82422 2.5,7.77539 1.666,8.3711 0.5567,8.60742 -1.2696,6.07031 0.3008,8.45117 -4.7832,3.45117 -1.4707,4.91016 -5.75,4.65039 -4.8008,3.57031 -5.5937,2.26172 -6.625,0.75391 -6.3477,-0.71289 -5.7129,-2.14258 -5,-3.53125 -4.2051,-4.5625 -3.373,-5.55469 -5.7578,-4.39648 1.7129,-9.52735 -0.5156,-7.97461 0.5937,-8.88671 1.7852,-7.93555 2.8183,-7.06055 3.6895,-5.95117 4.6406,-4.88086 5.3555,-3.53125 6.166,-0.4375 z m -1112.10945,0.47461 7.8946,1.23047 7.498,3.68945 6.9824,5.75195 6.0313,7.41993 4.959,8.6875 3.7695,9.8789 2.5,10.63281 0.832,10.94922 -1.707,18.16992 -5.1172,18.64649 -13.6875,-5.27539 -12.4961,-5.67383 -11.3066,-6.42773 -10.1172,-7.22071 -8.4102,-8.44922 -6.1894,-8.84765 -3.6895,-9.28321 -1.2304,-9.4414 0.6347,-7.02344 1.9043,-6.4668 3.1348,-5.91015 4.0078,-5.03906 4.959,-4.20508 5.6719,-3.09375 6.3867,-2.02344 z m 850.26955,0 5.9512,0.71484 5.1563,2.14258 4.4824,3.25391 3.6113,4.36328 2.8965,5.39453 2.0234,6.34766 1.3086,6.98242 0.4356,7.61718 -3.9668,24.32032 -11.9024,20.58984 h -0.078 -0.08 l -1.3476,1.58789 -1.3496,1.58594 -4.1661,-4.20508 -3.6093,-4.04687 -3.1739,-4.04688 -2.8574,-3.88672 h 0.08 0.078 l -11.7812,-23.16992 -3.9278,-22.2168 5.5547,-17.49609 z m -420.375,0.31836 8.5703,1.23047 6.6582,0.23698 8.0196,9.68099 6.5859,9.16406 8.0938,18.44726 2.6972,19.79688 -1.3886,16.74219 -4.1661,16.90039 -13.4082,9.16406 -12.2988,3.05469 -16.584,-4.44336 -16.6946,-10.58548 -6.4323,-18.81101 -2.9766,-18.05078 0.6738,-10.23633 2.0235,-9.75976 3.1347,-8.92578 4.0059,-7.73633 4.959,-6.54492 5.6738,-5.03907 6.3086,-3.21289 z m -242.4804,4.44336 h 0.9531 0.9512 l 11.7832,1.46679 8.6894,4.4043 5.5137,6.86328 2.2617,9.16406 -7.4589,-5.4746 -7.7754,-5.31641 -8.1739,-5.43555 -8.6484,-5.51367 0.9512,-0.11914 z m -29.67385,10.63281 0.873,0.55469 1.0313,0.71484 1.1504,0.59375 0.9121,0.51563 13.68755,8.01367 12.1797,7.85547 11.1875,7.53906 10.3945,7.37891 -7.0235,7.5371 -9.0058,7.69727 -10.5918,7.53711 -11.7832,7.37891 0.3965,-0.15821 0.3965,-0.1582 -0.3184,0.1582 -0.3164,0.15821 -0.3184,0.16015 -0.3164,0.15821 -0.9121,0.55468 -0.83205,0.39649 -0.7539,0.39648 -0.9922,0.55664 -10.4336,-7.69726 -7.1816,-8.49024 -4.1661,-9.48047 -1.3886,-10.67187 0.9121,-8.41016 2.7383,-8.09375 4.5234,-7.14062 z m 67.91995,46.97266 5.3965,5.71289 4.125,5.39453 2.6172,4.80078 0.873,3.92773 -0.5547,2.85547 -1.666,2.53906 -2.4199,2.1836 -3.1348,1.78515 -3.7695,1.26954 -4.3242,0.95117 -4.5215,0.5957 -4.6817,0.19727 -10.1171,-0.79297 -11.625,-2.38086 5.3164,-3.57031 4.8398,-3.41211 4.6816,-3.60938 4.5235,-3.84765 h 0.08 0.078 l 3.9668,-3.6504 3.6504,-3.65039 3.4922,-3.64843 z m -473.85355,48.40039 -3.293,0.35742 -3.2129,1.07031 -2.8965,1.54688 -2.6582,2.10351 -2.1426,2.61914 -1.666,3.09375 -1.0703,3.29297 -0.3574,3.53125 4.3242,13.0918 12.9727,4.36328 2.9355,-0.27734 3.0957,-0.83399 3.0156,-1.38867 2.6973,-1.94336 2.4199,-2.37891 1.8633,-3.01562 1.3086,-3.49024 0.4375,-4.12695 -0.3574,-3.41211 -1.0703,-3.2539 -1.5469,-2.97657 -2.1035,-2.57812 -2.6192,-2.26172 -3.0937,-1.70508 -3.332,-1.07031 z m 129.1758,31.41992 -3.0957,0.31836 -2.9356,0.95117 -2.6973,1.46875 -2.3808,1.86523 -1.9824,2.38086 -1.5079,2.69727 -0.9511,2.97461 -0.3184,3.21289 0.3164,3.21289 0.9531,2.97656 1.625,2.77735 2.0235,2.30078 0.6269,0.51172 7.7557,3.53508 14.4826,-4.97063 1.2969,-1.53516 1.3887,-2.77734 0.9531,-2.97656 0.3164,-3.21289 -3.9668,-11.86329 z m -32.5332,0.16015 -3.0547,0.31836 -2.8164,0.95118 -2.6973,1.625 -2.3809,2.02343 -0.084,4.41525 -3.4065,0.66288 -0.9532,2.97656 -0.3164,3.21289 0.3574,3.21289 1.0704,2.97656 1.5078,2.65821 1.9824,2.26172 2.3809,1.94336 2.6972,1.38867 2.8184,0.95312 3.0547,0.31641 3.2129,-0.31641 2.9746,-0.95312 2.7773,-1.38867 2.3008,-1.94336 1.9453,-2.30078 1.3887,-2.77735 0.9511,-2.97656 0.3184,-3.21289 -4.0078,-12.02149 z"
       sodipodi:nodetypes="ccccccccccccccccccccccccccccccccccccccccccccccccccccccccccccccccccccccccccccccccccccccccccccccccccccccccccccccccccccccccccccccccccccccccccccccccccccccccccccccccccccccccccccccccccccccccccccccccccccccccccccccccccccccccccccccccccccccccccccccccccccccccccccccccccccccccccccccccccccccccccccccccccccccccccccccccccccccccccccccccccccccccccccccccccccccccccccccccccccccccccccccccccccccccccccccccccccccccccccccccccccccccccccccccccccccccccccccccccccccccccccccccccccccccccccccccccccccccccccccccccccccccccccccccccccccccccccccccccccccccccccccccccccccccccccccccccccccccccccccccccccccccccccccccccccccccccccccccccccccccccccccccccccccccccccccccccccccccccccccccccccccccccccccccccccccccccccccccccccccccccccccccccccccccccccccccccccccccccccccccccccccccccccccccccccccccccccccccccccccccccccccccccccccccccccccccccccccccccccccccccccccccccccccccccccccccccccccccccccccccccccccccccccccccccccccccccccccccccccccccccccccccccccccccccccccccccccccccccccccccccccccccccccccc" />
  </g>
</svg>
