<?xml version="1.0" encoding="UTF-8" standalone="no"?>
<!-- Created with Inkscape (http://www.inkscape.org/) -->

<svg
   xmlns:dc="http://purl.org/dc/elements/1.1/"
   xmlns:cc="http://creativecommons.org/ns#"
   xmlns:rdf="http://www.w3.org/1999/02/22-rdf-syntax-ns#"
   xmlns:svg="http://www.w3.org/2000/svg"
   xmlns="http://www.w3.org/2000/svg"
   xmlns:xlink="http://www.w3.org/1999/xlink"
   xmlns:sodipodi="http://sodipodi.sourceforge.net/DTD/sodipodi-0.dtd"
   xmlns:inkscape="http://www.inkscape.org/namespaces/inkscape"
   id="svg2"
   version="1.1"
   inkscape:version="0.92.4 (5da689c313, 2019-01-14)"
   width="2481"
   height="3503"
   sodipodi:docname="E27P05.svg">
  <metadata
     id="metadata8">
    <rdf:RDF>
      <cc:Work
         rdf:about="">
        <dc:format>image/svg+xml</dc:format>
        <dc:type
           rdf:resource="http://purl.org/dc/dcmitype/StillImage" />
        <dc:title />
      </cc:Work>
    </rdf:RDF>
  </metadata>
  <defs
     id="defs6">
    <filter
       style="color-interpolation-filters:sRGB"
       id="filter4375-4-1-1-1-9-7-7-0-3-7"
       inkscape:label="deevad outline effect">
      <feFlood
         id="feFlood4377-7-9-0-8-1-4-8-3-2-4"
         flood-opacity="1"
         flood-color="rgb(0,0,0)"
         result="flood" />
      <feComposite
         id="feComposite4379-3-8-8-2-77-7-8-1-2-6"
         in2="SourceGraphic"
         in="flood"
         operator="in"
         result="composite1" />
      <feMorphology
         id="feMorphology4393-1-0-49-8-9-3-9-0-1-4"
         operator="dilate"
         radius="4"
         result="result3" />
      <feComposite
         id="feComposite4385-9-5-7-0-8-0-0-3-5-9"
         in2="result3"
         in="SourceGraphic"
         operator="over"
         result="composite2" />
    </filter>
    <filter
       style="color-interpolation-filters:sRGB"
       id="filter4375-4-1-1-1-9-7-7-0-1"
       inkscape:label="deevad outline effect">
      <feFlood
         id="feFlood4377-7-9-0-8-1-4-8-3-23"
         flood-opacity="1"
         flood-color="rgb(0,0,0)"
         result="flood" />
      <feComposite
         id="feComposite4379-3-8-8-2-77-7-8-1-1"
         in2="SourceGraphic"
         in="flood"
         operator="in"
         result="composite1" />
      <feMorphology
         id="feMorphology4393-1-0-49-8-9-3-9-0-8"
         operator="dilate"
         radius="4"
         result="result3" />
      <feComposite
         id="feComposite4385-9-5-7-0-8-0-0-3-1"
         in2="result3"
         in="SourceGraphic"
         operator="over"
         result="composite2" />
    </filter>
    <filter
       style="color-interpolation-filters:sRGB"
       id="filter4375-4-1-1-1-9-7-7-3"
       inkscape:label="deevad outline effect">
      <feFlood
         id="feFlood4377-7-9-0-8-1-4-8-8"
         flood-opacity="1"
         flood-color="rgb(0,0,0)"
         result="flood" />
      <feComposite
         id="feComposite4379-3-8-8-2-77-7-8-9"
         in2="SourceGraphic"
         in="flood"
         operator="in"
         result="composite1" />
      <feMorphology
         id="feMorphology4393-1-0-49-8-9-3-9-2"
         operator="dilate"
         radius="4"
         result="result3" />
      <feComposite
         id="feComposite4385-9-5-7-0-8-0-0-4"
         in2="result3"
         in="SourceGraphic"
         operator="over"
         result="composite2" />
    </filter>
    <filter
       style="color-interpolation-filters:sRGB"
       id="filter4375-4-1-1-1-9-7-5"
       inkscape:label="deevad outline effect">
      <feFlood
         id="feFlood4377-7-9-0-8-1-4-1"
         flood-opacity="1"
         flood-color="rgb(0,0,0)"
         result="flood" />
      <feComposite
         id="feComposite4379-3-8-8-2-77-7-0"
         in2="SourceGraphic"
         in="flood"
         operator="in"
         result="composite1" />
      <feMorphology
         id="feMorphology4393-1-0-49-8-9-3-0"
         operator="dilate"
         radius="4"
         result="result3" />
      <feComposite
         id="feComposite4385-9-5-7-0-8-0-1"
         in2="result3"
         in="SourceGraphic"
         operator="over"
         result="composite2" />
    </filter>
    <filter
       style="color-interpolation-filters:sRGB"
       id="filter4375-4-1-1-1-9-3"
       inkscape:label="deevad outline effect">
      <feFlood
         id="feFlood4377-7-9-0-8-1-3"
         flood-opacity="1"
         flood-color="rgb(0,0,0)"
         result="flood" />
      <feComposite
         id="feComposite4379-3-8-8-2-77-0"
         in2="SourceGraphic"
         in="flood"
         operator="in"
         result="composite1" />
      <feMorphology
         id="feMorphology4393-1-0-49-8-9-0"
         operator="dilate"
         radius="3"
         result="result3" />
      <feComposite
         id="feComposite4385-9-5-7-0-8-02"
         in2="result3"
         in="SourceGraphic"
         operator="over"
         result="composite2" />
    </filter>
    <filter
       style="color-interpolation-filters:sRGB"
       id="filter4375-4-1-1-1-9-8"
       inkscape:label="Roughen">
      <feFlood
         id="feFlood4377-7-9-0-8-1-96"
         flood-opacity="1"
         flood-color="rgb(0,0,0)"
         result="flood" />
      <feComposite
         id="feComposite4379-3-8-8-2-77-4"
         in2="SourceGraphic"
         in="flood"
         operator="in"
         result="composite1" />
      <feMorphology
         id="feMorphology4393-1-0-49-8-9-33"
         operator="dilate"
         radius="4"
         result="result3" />
      <feComposite
         id="feComposite4385-9-5-7-0-8-38"
         in2="result3"
         in="SourceGraphic"
         operator="over"
         result="fbSourceGraphic" />
      <feColorMatrix
         result="fbSourceGraphicAlpha"
         in="fbSourceGraphic"
         values="0 0 0 -1 0 0 0 0 -1 0 0 0 0 -1 0 0 0 0 1 0"
         id="feColorMatrix333-6" />
      <feTurbulence
         id="feTurbulence335-0"
         type="fractalNoise"
         numOctaves="5"
         seed="1"
         baseFrequency="0.013 0.013"
         result="turbulence" />
      <feDisplacementMap
         in2="turbulence"
         id="feDisplacementMap337-48"
         in="fbSourceGraphic"
         scale="6.6"
         yChannelSelector="G"
         xChannelSelector="R"
         result="fbSourceGraphic" />
      <feColorMatrix
         result="fbSourceGraphicAlpha"
         in="fbSourceGraphic"
         values="0 0 0 -1 0 0 0 0 -1 0 0 0 0 -1 0 0 0 0 1 0"
         id="feColorMatrix435-8" />
      <feTurbulence
         id="feTurbulence437-8"
         type="fractalNoise"
         numOctaves="5"
         seed="27"
         baseFrequency="0.001 0.4414"
         result="turbulence" />
      <feDisplacementMap
         in2="turbulence"
         id="feDisplacementMap439-9"
         in="fbSourceGraphic"
         scale="4.27461"
         yChannelSelector="G"
         xChannelSelector="R" />
    </filter>
    <filter
       style="color-interpolation-filters:sRGB"
       id="filter4375-4-1-1-1-9-30-7"
       inkscape:label="Roughen">
      <feFlood
         id="feFlood4377-7-9-0-8-1-78-41"
         flood-opacity="1"
         flood-color="rgb(0,0,0)"
         result="flood" />
      <feComposite
         id="feComposite4379-3-8-8-2-77-68-8"
         in2="SourceGraphic"
         in="flood"
         operator="in"
         result="composite1" />
      <feMorphology
         id="feMorphology4393-1-0-49-8-9-8-59"
         operator="dilate"
         radius="4"
         result="result3" />
      <feComposite
         id="feComposite4385-9-5-7-0-8-4-7"
         in2="result3"
         in="SourceGraphic"
         operator="over"
         result="fbSourceGraphic" />
      <feColorMatrix
         result="fbSourceGraphicAlpha"
         in="fbSourceGraphic"
         values="0 0 0 -1 0 0 0 0 -1 0 0 0 0 -1 0 0 0 0 1 0"
         id="feColorMatrix333-3-5" />
      <feTurbulence
         id="feTurbulence335-1-3"
         type="fractalNoise"
         numOctaves="5"
         seed="1"
         baseFrequency="0.013 0.013"
         result="turbulence" />
      <feDisplacementMap
         in2="turbulence"
         id="feDisplacementMap337-4-8"
         in="fbSourceGraphic"
         scale="6.6"
         yChannelSelector="G"
         xChannelSelector="R"
         result="fbSourceGraphic" />
      <feColorMatrix
         result="fbSourceGraphicAlpha"
         in="fbSourceGraphic"
         values="0 0 0 -1 0 0 0 0 -1 0 0 0 0 -1 0 0 0 0 1 0"
         id="feColorMatrix435-92-8" />
      <feTurbulence
         id="feTurbulence437-06-3"
         type="fractalNoise"
         numOctaves="5"
         seed="27"
         baseFrequency="0.001 0.4414"
         result="turbulence" />
      <feDisplacementMap
         in2="turbulence"
         id="feDisplacementMap439-8-1"
         in="fbSourceGraphic"
         scale="4.27461"
         yChannelSelector="G"
         xChannelSelector="R" />
    </filter>
    <filter
       style="color-interpolation-filters:sRGB"
       id="filter4375-4-1-1-1-9-30-2-7-9"
       inkscape:label="Roughen">
      <feFlood
         id="feFlood4377-7-9-0-8-1-78-6-7-8"
         flood-opacity="1"
         flood-color="rgb(0,0,0)"
         result="flood" />
      <feComposite
         id="feComposite4379-3-8-8-2-77-68-1-1-4"
         in2="SourceGraphic"
         in="flood"
         operator="in"
         result="composite1" />
      <feMorphology
         id="feMorphology4393-1-0-49-8-9-8-0-1-8"
         operator="dilate"
         radius="4"
         result="result3" />
      <feComposite
         id="feComposite4385-9-5-7-0-8-4-6-5-1"
         in2="result3"
         in="SourceGraphic"
         operator="over"
         result="fbSourceGraphic" />
      <feColorMatrix
         result="fbSourceGraphicAlpha"
         in="fbSourceGraphic"
         values="0 0 0 -1 0 0 0 0 -1 0 0 0 0 -1 0 0 0 0 1 0"
         id="feColorMatrix333-3-1-9-0" />
      <feTurbulence
         id="feTurbulence335-1-5-7-3"
         type="fractalNoise"
         numOctaves="5"
         seed="1"
         baseFrequency="0.013 0.013"
         result="turbulence" />
      <feDisplacementMap
         in2="turbulence"
         id="feDisplacementMap337-4-9-7-0"
         in="fbSourceGraphic"
         scale="6.6"
         yChannelSelector="G"
         xChannelSelector="R"
         result="fbSourceGraphic" />
      <feColorMatrix
         result="fbSourceGraphicAlpha"
         in="fbSourceGraphic"
         values="0 0 0 -1 0 0 0 0 -1 0 0 0 0 -1 0 0 0 0 1 0"
         id="feColorMatrix435-92-4-6-4" />
      <feTurbulence
         id="feTurbulence437-06-9-7-4"
         type="fractalNoise"
         numOctaves="5"
         seed="27"
         baseFrequency="0.001 0.4414"
         result="turbulence" />
      <feDisplacementMap
         in2="turbulence"
         id="feDisplacementMap439-8-0-3-4"
         in="fbSourceGraphic"
         scale="4.27461"
         yChannelSelector="G"
         xChannelSelector="R" />
    </filter>
    <filter
       style="color-interpolation-filters:sRGB"
       id="filter4375-4-1-1-1-9-30-2-4"
       inkscape:label="Roughen">
      <feFlood
         id="feFlood4377-7-9-0-8-1-78-6-76"
         flood-opacity="1"
         flood-color="rgb(0,0,0)"
         result="flood" />
      <feComposite
         id="feComposite4379-3-8-8-2-77-68-1-3"
         in2="SourceGraphic"
         in="flood"
         operator="in"
         result="composite1" />
      <feMorphology
         id="feMorphology4393-1-0-49-8-9-8-0-17"
         operator="dilate"
         radius="4"
         result="result3" />
      <feComposite
         id="feComposite4385-9-5-7-0-8-4-6-59"
         in2="result3"
         in="SourceGraphic"
         operator="over"
         result="fbSourceGraphic" />
      <feColorMatrix
         result="fbSourceGraphicAlpha"
         in="fbSourceGraphic"
         values="0 0 0 -1 0 0 0 0 -1 0 0 0 0 -1 0 0 0 0 1 0"
         id="feColorMatrix333-3-1-6" />
      <feTurbulence
         id="feTurbulence335-1-5-2"
         type="fractalNoise"
         numOctaves="5"
         seed="1"
         baseFrequency="0.013 0.013"
         result="turbulence" />
      <feDisplacementMap
         in2="turbulence"
         id="feDisplacementMap337-4-9-1"
         in="fbSourceGraphic"
         scale="6.6"
         yChannelSelector="G"
         xChannelSelector="R"
         result="fbSourceGraphic" />
      <feColorMatrix
         result="fbSourceGraphicAlpha"
         in="fbSourceGraphic"
         values="0 0 0 -1 0 0 0 0 -1 0 0 0 0 -1 0 0 0 0 1 0"
         id="feColorMatrix435-92-4-7" />
      <feTurbulence
         id="feTurbulence437-06-9-8"
         type="fractalNoise"
         numOctaves="5"
         seed="27"
         baseFrequency="0.001 0.4414"
         result="turbulence" />
      <feDisplacementMap
         in2="turbulence"
         id="feDisplacementMap439-8-0-5"
         in="fbSourceGraphic"
         scale="4.27461"
         yChannelSelector="G"
         xChannelSelector="R" />
    </filter>
    <filter
       style="color-interpolation-filters:sRGB"
       id="filter4375-4-1-1-1-9-30-2-7-6-5"
       inkscape:label="Roughen">
      <feFlood
         id="feFlood4377-7-9-0-8-1-78-6-7-3-0"
         flood-opacity="1"
         flood-color="rgb(0,0,0)"
         result="flood" />
      <feComposite
         id="feComposite4379-3-8-8-2-77-68-1-1-9-9"
         in2="SourceGraphic"
         in="flood"
         operator="in"
         result="composite1" />
      <feMorphology
         id="feMorphology4393-1-0-49-8-9-8-0-1-4-6"
         operator="dilate"
         radius="4"
         result="result3" />
      <feComposite
         id="feComposite4385-9-5-7-0-8-4-6-5-8-3"
         in2="result3"
         in="SourceGraphic"
         operator="over"
         result="fbSourceGraphic" />
      <feColorMatrix
         result="fbSourceGraphicAlpha"
         in="fbSourceGraphic"
         values="0 0 0 -1 0 0 0 0 -1 0 0 0 0 -1 0 0 0 0 1 0"
         id="feColorMatrix333-3-1-9-1-8" />
      <feTurbulence
         id="feTurbulence335-1-5-7-2-5"
         type="fractalNoise"
         numOctaves="5"
         seed="1"
         baseFrequency="0.013 0.013"
         result="turbulence" />
      <feDisplacementMap
         in2="turbulence"
         id="feDisplacementMap337-4-9-7-9-6"
         in="fbSourceGraphic"
         scale="6.6"
         yChannelSelector="G"
         xChannelSelector="R"
         result="fbSourceGraphic" />
      <feColorMatrix
         result="fbSourceGraphicAlpha"
         in="fbSourceGraphic"
         values="0 0 0 -1 0 0 0 0 -1 0 0 0 0 -1 0 0 0 0 1 0"
         id="feColorMatrix435-92-4-6-3-1" />
      <feTurbulence
         id="feTurbulence437-06-9-7-9-1"
         type="fractalNoise"
         numOctaves="5"
         seed="27"
         baseFrequency="0.001 0.4414"
         result="turbulence" />
      <feDisplacementMap
         in2="turbulence"
         id="feDisplacementMap439-8-0-3-0-5"
         in="fbSourceGraphic"
         scale="4.27461"
         yChannelSelector="G"
         xChannelSelector="R" />
    </filter>
  </defs>
  <sodipodi:namedview
     pagecolor="#ffffff"
     bordercolor="#666666"
     borderopacity="1"
     objecttolerance="10"
     gridtolerance="10"
     guidetolerance="10"
     inkscape:pageopacity="0"
     inkscape:pageshadow="2"
     inkscape:window-width="1920"
     inkscape:window-height="1025"
     id="namedview4"
     showgrid="false"
     inkscape:zoom="0.69172417"
     inkscape:cx="1499.0002"
     inkscape:cy="2982.8368"
     inkscape:window-x="0"
     inkscape:window-y="26"
     inkscape:window-maximized="1"
     inkscape:current-layer="layer1" />
  <g
     inkscape:groupmode="layer"
     id="layer2"
     inkscape:label="artwork"
     sodipodi:insensitive="true">
    <image
       sodipodi:absref="/felles/omsetting/pepper-carrot/webcomics/ep27_Coriander-s-Invention/lang/nn/../gfx_Pepper-and-Carrot_by-David-Revoy_E27P05.png"
       xlink:href="../gfx_Pepper-and-Carrot_by-David-Revoy_E27P05.png"
       width="2481"
       height="3503"
       id="image10"
       x="0"
       y="0" />
  </g>
  <g
     inkscape:groupmode="layer"
     id="layer3"
     inkscape:label="speechbubbles"
     style="display:inline">
    <path
       style="fill:#ffffff;fill-rule:evenodd;stroke:none;stroke-width:0.99999994px;stroke-linecap:butt;stroke-linejoin:miter;stroke-opacity:1"
       d="m 688.2301,252.58289 c 0,-44.31088 25.57356,-86.5566 35.13652,-90.19766 66.37196,-25.27084 144.36062,-30.33186 215.84903,-25.5661 74.58425,5.70126 114.08355,9.89173 132.68905,24.18556 18.6052,14.29383 40.5299,50.12609 40.5299,81.57251 0,31.44643 -26.0476,70.03978 -52.0952,85.76299 -26.0478,15.72321 -109.77233,28.58766 -145.12269,27.15828 -35.35037,-1.42939 -115.35384,0 -146.98313,-20.01137 C 736.6043,315.47574 688.2301,294.035 688.2301,252.58289 Z"
       id="path1076"
       inkscape:connector-curvature="0"
       sodipodi:nodetypes="ssccscsss" />
    <path
       style="fill:#ffffff;fill-rule:evenodd;stroke:none;stroke-width:1px;stroke-linecap:butt;stroke-linejoin:miter;stroke-opacity:1"
       d="m 940.3125,313.50325 c 0,0 -8.64656,34.5862 -16.21229,50.79849 -7.56573,16.21228 -11.88901,24.85883 -5.40409,39.9903 6.48491,15.13146 23.77801,25.93965 23.77801,42.15194 0,16.21228 -12.96982,60.52586 -35.66702,85.3847 17.2931,-33.50539 22.6972,-67.01078 18.37392,-82.14224 -4.32328,-15.13147 -33.50539,-33.50539 -33.50539,-48.63686 0,-15.13146 28.1013,-89.70797 28.1013,-89.70797 z"
       id="path1078"
       inkscape:connector-curvature="0" />
    <path
       style="fill:#ffffff;fill-rule:evenodd;stroke:none;stroke-width:1.09115255px;stroke-linecap:butt;stroke-linejoin:miter;stroke-opacity:1"
       d="m 1107.7732,277.21856 c 8.2661,-64.06522 36.5855,-80.62282 66.3435,-85.55091 29.7579,-4.9281 132.1709,-11.96494 163.7986,-11.90465 42.9765,0.0819 150.0984,-3.57038 179.8565,42.0145 29.758,45.58486 29.6799,80.47457 3.2285,117.43526 -26.4515,36.96071 -93.3587,70.33023 -169.4069,70.33023 -76.0482,0 -131.4012,-4.19398 -174.385,-33.76255 -42.9838,-29.56856 -72.7419,-52.977 -69.4352,-98.56188 z"
       id="path1080"
       inkscape:connector-curvature="0"
       sodipodi:nodetypes="csscsssc" />
    <path
       style="fill:#ffffff;fill-rule:evenodd;stroke:none;stroke-width:1px;stroke-linecap:butt;stroke-linejoin:miter;stroke-opacity:1"
       d="m 1194.305,345.92782 c -9.7274,39.9903 -10.8082,52.96012 -21.6164,69.17241 -10.8082,16.21228 -29.1821,20.53556 -31.3438,29.18211 -2.1616,8.64655 1.0808,29.18211 20.5356,51.87931 -36.7479,-29.18211 -35.667,-43.23276 -32.4246,-60.52586 3.2425,-17.2931 25.9397,-18.37392 33.5054,-54.04095 7.5657,-35.66702 16.2123,-56.20258 16.2123,-56.20258 z"
       id="path1082"
       inkscape:connector-curvature="0" />
    <path
       style="fill:#ffffff;fill-rule:evenodd;stroke:none;stroke-width:1px;stroke-linecap:butt;stroke-linejoin:miter;stroke-opacity:1"
       d="m 381.64721,1130.1196 c 7.28263,-26.2943 40.05448,-39.0861 51.70668,-41.2181 11.65222,-2.1319 71.3698,3.5533 89.57638,13.5025 18.20658,9.9492 33.50011,19.8984 35.68491,30.5582 2.18479,10.6598 2.18479,24.873 -2.91306,33.4008 -5.09784,8.5279 -70.64153,18.4771 -86.66332,20.6091 -16.02179,2.1319 -48.79364,-0.7107 -67.00022,-9.2386 -18.20658,-8.5278 -24.03268,-24.8729 -20.39137,-47.6139 z"
       id="path1084"
       inkscape:connector-curvature="0" />
    <path
       style="fill:#ffffff;fill-rule:evenodd;stroke:none;stroke-width:0.99999994px;stroke-linecap:butt;stroke-linejoin:miter;stroke-opacity:1"
       d="m 441.38633,1197.6319 c 16.14731,-22.0303 56.51555,-29.8476 82.20443,-30.5582 25.68889,-0.7107 44.77205,-2.132 60.91936,5.6852 16.14729,7.8173 38.16633,17.0558 36.6984,35.5328 -1.46794,18.4771 0.73396,31.2689 -13.9454,41.9287 -14.67936,10.6599 -63.12126,17.0558 -74.13078,17.7664 -11.00952,0.7107 -28.62475,4.264 -50.64379,-5.6852 -22.01904,-9.9492 -40.36825,-24.1623 -42.57015,-36.9541 -2.20191,-12.7918 1.46793,-27.7156 1.46793,-27.7156 z"
       id="path1086"
       inkscape:connector-curvature="0" />
    <path
       style="fill:#ffffff;fill-rule:evenodd;stroke:none;stroke-width:0.99999994px;stroke-linecap:butt;stroke-linejoin:miter;stroke-opacity:1"
       d="m 510.92905,1275.8008 c 6.36795,-22.0303 23.64844,-32.6869 45.29947,-32.6869 21.65101,0 53.49073,-2.8426 68.77381,7.8172 15.28307,10.6598 22.9246,22.741 22.28781,35.5328 -0.63679,12.7918 -7.00474,27.7156 -20.37743,35.5328 -13.37269,7.8172 -47.1228,9.2385 -68.77381,7.1066 -21.65102,-2.132 -43.94028,-16.3484 -47.1228,-27.7156 -1.72617,-9.3357 -0.087,-25.5869 -0.087,-25.5869 z"
       id="path1088"
       inkscape:connector-curvature="0"
       sodipodi:nodetypes="cssssccc" />
    <path
       style="fill:#ffffff;fill-rule:evenodd;stroke:none;stroke-width:1px;stroke-linecap:butt;stroke-linejoin:miter;stroke-opacity:1"
       d="m 596.46743,1302.5188 c 0,0 8.06037,1.6121 6.98565,11.8219 -1.07471,10.2098 -10.74716,38.6898 -16.6581,45.6754 9.67245,-7.523 19.88225,-15.046 31.16677,-6.9856 11.28452,8.0603 19.88225,12.8966 6.4483,38.6898 0.53735,5.9109 1.61207,15.5833 9.67244,18.8075 -18.27017,-6.4483 -22.03168,-15.5834 -19.88225,-23.6438 2.14943,-8.0603 6.98566,-18.2701 0.53736,-22.0317 -6.4483,-3.7615 -26.8679,17.1955 -34.92827,7.5231 -8.06037,-9.6725 -8.06037,-16.6581 -6.4483,-19.8823 1.61208,-3.2241 10.74716,-13.9713 11.82188,-19.8822 1.07471,-5.911 1.61207,-18.2702 -2.14943,-24.7185 -3.76151,-6.4483 13.43395,-5.3736 13.43395,-5.3736 z"
       id="path1090"
       inkscape:connector-curvature="0" />
    <path
       style="fill:#ffffff;fill-rule:evenodd;stroke:none;stroke-width:1px;stroke-linecap:butt;stroke-linejoin:miter;stroke-opacity:1"
       d="m 118.58009,2125.5162 c 25.12131,10.0937 66.28778,43.6463 12.31999,74.8535 17.85989,11.3272 72.05398,5.0635 9.23998,66.2637 97.90165,-26.6546 84.13958,23.2895 55.43994,60.1282 102.37855,-67.5848 84.73415,-33.4127 66.52257,6.8749 76.79069,-56.6645 57.91745,0.4569 51.54396,18.8943 40.08812,-29.8749 63.4102,-27.305 65.70659,15.9524 40.50396,-69.0491 61.05805,-24.5792 76.99991,1.2272 -5.07426,-22.1526 12.66111,-84.8582 74.94657,-12.2711 -10.17603,-52.3683 18.80426,-49.3143 76.99992,-4.9085 -44.59212,-79.7412 31.96836,-43.2542 52.35994,-26.9963 -26.04166,-23.0475 -61.09051,-88.8109 36.95996,-42.9488 -39.40873,-26.3726 -55.64116,-49.5791 29.77329,-58.9011 -38.7333,-16.7813 -60.59574,-33.8592 21.55998,-52.7655 -25.00753,-5.7102 -84.85808,10.9448 -19.50665,-52.7656 -43.58748,2.0588 -60.62233,-3.6669 -9.23999,-29.4505 -69.03362,11.3301 -88.34679,1.2664 -22.58663,-45.403 -109.72956,49.6082 -53.41628,-3.6939 -39.0133,-20.8608 -49.74476,26.4182 -83.95283,40.8762 -28.74663,-13.4982 -96.21528,38.3986 -61.31369,-16.1936 -59.5466,-31.9048 -49.24454,69.7976 -53.64875,4.74 -59.5466,-11.0439 -4.59096,54.5788 -10.62841,19.0656 -21.55997,-2.4541 -15.4643,24.1011 -31.16784,46.2579 -55.43993,-1.2272 -15.49475,44.7632 -35.64348,24.6294 -56.4666,-4.9084 1.729,66.6711 -42.93282,5.1188 -66.73325,1.2271 18.50538,65.0372 -18.32864,33.2214 -48.25328,13.4981 56.0228,81.9316 -31.11596,45.4527 -59.5466,22.088 62.43538,62.1195 42.76196,76.8697 -10.26665,49.0842 65.78831,47.0113 -10.10174,68.1587 -48.25328,23.315 48.43212,56.2133 22.4305,64.6487 -25.66664,58.9012 z"
       id="path1092"
       inkscape:connector-curvature="0"
       sodipodi:nodetypes="cccccccccccccccccccccccccccccc" />
    <path
       style="fill:#ffffff;fill-rule:evenodd;stroke:none;stroke-width:1px;stroke-linecap:butt;stroke-linejoin:miter;stroke-opacity:1"
       d="m 357.21198,2209.9917 c -73.33356,55.9324 -104.40711,93.2206 -116.83653,150.3959 -12.42942,57.1754 -21.13001,118.0795 47.23179,190.1701 -79.54827,-68.3618 -74.57651,-141.6953 -72.09062,-162.8253 2.48588,-21.1301 16.15824,-95.7066 60.90414,-147.9101 44.74591,-52.2036 93.22064,-87.0059 93.22064,-87.0059 l 6.21471,34.8023 z"
       id="path1094"
       inkscape:connector-curvature="0" />
    <path
       style="fill:#ffffff;fill-rule:evenodd;stroke:none;stroke-width:1.03585076px;stroke-linecap:butt;stroke-linejoin:miter;stroke-opacity:1"
       d="m 850.54423,1977.1332 c 51.6555,41.5525 42.14444,59.6926 -30.67417,53.6005 116.09538,63.8062 68.16996,73.3563 -5.33465,74.4453 49.34331,23.3053 103.94099,46.1113 -9.33562,84.8677 65.64494,6.2835 122.84257,15.1556 10.66928,75.9341 58.19811,-2.4963 116.86991,-5.307 46.67811,77.4231 95.26526,-37.1586 161.34292,-48.0902 112.02745,44.6671 47.88397,-27.3171 126.60657,-96.547 98.69087,-20.8447 21.9384,-24.1767 49.859,-33.3268 100.0245,13.4002 -9.7822,-33.6993 -39.2553,-87.1073 49.3454,-22.3336 -26.7845,-50.6831 -32.1174,-78.1433 57.3474,-2.9778 -13.3275,-38.2153 -70.7813,-76.4304 38.6762,-114.6457 -75.3968,-3.8114 -52.0099,-29.6795 -4.001,-61.0451 -89.7782,-17.3349 -45.3582,-38.3238 8.002,-59.5562 -55.6088,-8.0931 -98.5101,-21.7224 -10.6694,-92.3122 -96.6879,29.3052 -68.707,-20.2589 -64.0157,-55.0894 -44.6197,27.6573 -95.0786,71.0684 -98.6909,-11.9113 -59.8557,102.9511 -82.5189,24.2429 -116.0284,-1.4889 -34.85312,122.5025 -113.86176,9.601 -136.03326,1.4889 45.21464,50.14 53.10901,72.8423 -46.67811,16.378 z"
       id="path1096"
       inkscape:connector-curvature="0"
       sodipodi:nodetypes="cccccccccccccccccccc" />
    <path
       style="fill:#ffffff;fill-rule:evenodd;stroke:none;stroke-width:1px;stroke-linecap:butt;stroke-linejoin:miter;stroke-opacity:1"
       d="m 1077.6025,2308.5063 c -27.3447,36.0454 -98.19243,124.2942 -99.43533,131.7519 -1.24299,7.4576 39.77413,-2.4859 39.77413,-2.4859 l -60.90419,89.4918 c 0,0 103.16419,-99.4353 109.37889,-104.4071 6.2147,-4.9718 -23.6159,-11.1865 -41.0171,-6.2147 19.8871,-19.8871 99.4354,-99.4354 99.4354,-99.4354 z"
       id="path1098"
       inkscape:connector-curvature="0" />
    <path
       style="fill:#ffffff;fill-rule:evenodd;stroke:none;stroke-width:0.99999994px;stroke-linecap:butt;stroke-linejoin:miter;stroke-opacity:1"
       d="m 1344.6207,2045.122 c 48.2601,25.8606 64.5226,-19.2377 75.6992,-75.6144 -2.0754,137.8642 66.0424,79.1036 142.5958,-3.2875 -22.7767,100.9579 37.93,107.6272 113.4998,51.1627 -8.5471,48.7044 21.5822,68.0509 102.1014,24.8367 -24.3269,54.9811 -70.9892,105.8558 103.7358,39.8106 -51.1573,36.851 -131.6911,83.4177 -20.0613,116.0465 -100.5243,14.3838 -126.2255,81.7414 -100.0042,113.658 -47.8912,-64.5955 -89.4233,-53.9715 -70.759,49.0773 -48.1726,-48.926 -87.65,-81.9737 -96.8245,-26.3007 -86.8387,-144.4324 -68.3423,45.1846 -66.8968,164.3791 -24.5535,-139.5228 -53.189,-277.2814 -128.5124,-126.5719 -0.5322,-53.3867 -19.0155,-91.517 -54.5738,-64.1078 z"
       id="path1100"
       inkscape:connector-curvature="0"
       sodipodi:nodetypes="cccccccccccccc" />
  </g>
  <g
     inkscape:groupmode="layer"
     id="layer1"
     inkscape:label="txt">
    <text
       xml:space="preserve"
       style="font-style:normal;font-variant:normal;font-weight:normal;font-stretch:normal;line-height:0%;font-family:Lavi;-inkscape-font-specification:Lavi;text-align:center;letter-spacing:0px;word-spacing:0px;text-anchor:middle;fill:#000000;fill-opacity:1;stroke:none"
       x="893.35028"
       y="207.70879"
       id="text4246"><tspan
         sodipodi:role="line"
         style="font-size:45px;line-height:1.20000005"
         x="893.35028"
         y="207.70879"
         id="tspan960">Morosamt? Nei,</tspan><tspan
         sodipodi:role="line"
         style="font-size:45px;line-height:1.20000005"
         x="893.35028"
         y="261.7088"
         id="tspan967">sjølvsagt ikkje!</tspan><tspan
         sodipodi:role="line"
         style="font-size:45px;line-height:1.20000005"
         x="893.35028"
         y="315.7088"
         id="tspan962">Orsak.</tspan></text>
    <text
       xml:space="preserve"
       style="font-style:normal;font-variant:normal;font-weight:normal;font-stretch:normal;line-height:0%;font-family:Lavi;-inkscape-font-specification:Lavi;text-align:center;letter-spacing:0px;word-spacing:0px;text-anchor:middle;fill:#000000;fill-opacity:1;stroke:none"
       x="1323.3918"
       y="254.66162"
       id="text4246-3"><tspan
         sodipodi:role="line"
         style="font-size:45px;line-height:1.20000005"
         x="1323.3918"
         y="254.66162"
         id="tspan858">He-he! Heilt sant!</tspan><tspan
         sodipodi:role="line"
         style="font-size:45px;line-height:1.20000005"
         x="1323.3918"
         y="308.66162"
         id="tspan969">Slett ikkje</tspan><tspan
         sodipodi:role="line"
         style="font-size:45px;line-height:1.20000005"
         x="1323.3918"
         y="362.66162"
         id="tspan971">morosamt!</tspan></text>
    <text
       xml:space="preserve"
       style="font-style:normal;font-variant:normal;font-weight:normal;font-stretch:normal;line-height:0%;font-family:Lavi;-inkscape-font-specification:Lavi;text-align:center;letter-spacing:0px;word-spacing:0px;text-anchor:middle;fill:#000000;fill-opacity:1;stroke:none"
       x="475.27716"
       y="1156.4937"
       id="text4246-0"><tspan
         sodipodi:role="line"
         style="font-size:45px;line-height:1.20000005"
         x="475.27716"
         y="1156.4937"
         id="tspan4252-9">Ha ...</tspan></text>
    <text
       xml:space="preserve"
       style="font-style:normal;font-variant:normal;font-weight:normal;font-stretch:normal;line-height:0%;font-family:Lavi;-inkscape-font-specification:Lavi;text-align:center;letter-spacing:0px;word-spacing:0px;text-anchor:middle;fill:#000000;fill-opacity:1;stroke:none"
       x="535.16223"
       y="1232.2852"
       id="text4246-0-3"><tspan
         sodipodi:role="line"
         style="font-size:45px;line-height:1.20000005"
         x="535.16223"
         y="1232.2852"
         id="tspan4252-9-6">Ha ...</tspan></text>
    <text
       xml:space="preserve"
       style="font-style:normal;font-variant:normal;font-weight:normal;font-stretch:normal;line-height:0%;font-family:Lavi;-inkscape-font-specification:Lavi;text-align:center;letter-spacing:0px;word-spacing:0px;text-anchor:middle;fill:#000000;fill-opacity:1;stroke:none"
       x="581.47876"
       y="1302.325"
       id="text4246-0-0"><tspan
         sodipodi:role="line"
         style="font-size:45px;line-height:1.20000005"
         x="581.47876"
         y="1302.325"
         id="tspan4252-9-62">Ha.</tspan></text>
    <flowRoot
       xml:space="preserve"
       id="flowRoot1004"
       style="font-style:normal;font-variant:normal;font-weight:normal;font-stretch:normal;font-size:0.66666669px;line-height:0%;font-family:Lavi;-inkscape-font-specification:Lavi;text-align:center;letter-spacing:4.28999996px;word-spacing:-79.63999939px;writing-mode:lr-tb;text-anchor:middle;fill:#000000;fill-opacity:1;stroke:none;stroke-width:1px;stroke-linecap:butt;stroke-linejoin:miter;stroke-opacity:1"><flowRegion
         id="flowRegion1006"><rect
           id="rect1008"
           width="15.723214"
           height="1.429383"
           x="606.05841"
           y="1290.3149" /></flowRegion><flowPara
         id="flowPara1010" /></flowRoot>    <flowRoot
       xml:space="preserve"
       id="flowRoot1012"
       style="font-style:normal;font-variant:normal;font-weight:normal;font-stretch:normal;font-size:0.66666669px;line-height:0%;font-family:Lavi;-inkscape-font-specification:Lavi;text-align:center;letter-spacing:4.28999996px;word-spacing:-79.63999939px;writing-mode:lr-tb;text-anchor:middle;fill:#000000;fill-opacity:1;stroke:none;stroke-width:1px;stroke-linecap:butt;stroke-linejoin:miter;stroke-opacity:1"><flowRegion
         id="flowRegion1014"><rect
           id="rect1016"
           width="10.005682"
           height="2.8587661"
           x="608.91718"
           y="1290.3149" /></flowRegion><flowPara
         id="flowPara1018" /></flowRoot>    <text
       xml:space="preserve"
       style="font-style:normal;font-variant:normal;font-weight:normal;font-stretch:normal;font-size:19.50984192px;line-height:0%;font-family:Lavi;-inkscape-font-specification:Lavi;text-align:center;letter-spacing:0px;word-spacing:0px;text-anchor:middle;fill:#000000;fill-opacity:1;stroke:none;stroke-width:1.95098436;stroke-miterlimit:4;stroke-dasharray:none"
       x="453.75021"
       y="1983.9794"
       id="text4246-6"
       transform="scale(0.9428475,1.0606169)"><tspan
         sodipodi:role="line"
         style="font-style:normal;font-variant:normal;font-weight:bold;font-stretch:normal;font-size:73.16191101px;line-height:1.20000005;font-family:Lavi;-inkscape-font-specification:'Lavi Bold';stroke:#000000;stroke-width:1.95098436;stroke-miterlimit:4;stroke-dasharray:none;stroke-opacity:1"
         x="453.75021"
         y="1983.9794"
         id="tspan4252-1">Å, NEI!</tspan></text>
    <text
       xml:space="preserve"
       style="font-style:normal;font-variant:normal;font-weight:normal;font-stretch:normal;line-height:0%;font-family:Lavi;-inkscape-font-specification:Lavi;text-align:center;letter-spacing:0px;word-spacing:0px;text-anchor:middle;fill:#000000;fill-opacity:1;stroke:none"
       x="434.18442"
       y="2171.4138"
       id="text4246-8"><tspan
         sodipodi:role="line"
         style="font-size:45px;line-height:1.20000005"
         x="434.18442"
         y="2171.4138"
         id="tspan1038">Kroningsdrakta er</tspan><tspan
         sodipodi:role="line"
         style="font-size:45px;line-height:1.20000005"
         x="434.18442"
         y="2225.4138"
         id="tspan978">øydelagd! Skreddaren</tspan><tspan
         sodipodi:role="line"
         style="font-size:45px;line-height:1.20000005"
         x="434.18442"
         y="2279.4138"
         id="tspan974">vert rasande!</tspan></text>
    <text
       xml:space="preserve"
       style="font-style:normal;font-variant:normal;font-weight:normal;font-stretch:normal;font-size:15.58635426px;line-height:0%;font-family:Lavi;-inkscape-font-specification:Lavi;text-align:center;letter-spacing:0px;word-spacing:0px;text-anchor:middle;fill:#000000;fill-opacity:1;stroke:none;stroke-width:1.29886293"
       x="1351.3076"
       y="1927.4419"
       id="text4246-9"
       transform="matrix(0.92146908,0,-0.09009126,1.0852236,0,0)"><tspan
         sodipodi:role="line"
         style="font-style:normal;font-variant:normal;font-weight:bold;font-stretch:normal;font-size:58.44882965px;line-height:1.20000005;font-family:Lavi;-inkscape-font-specification:'Lavi Bold';stroke-width:1.29886293"
         x="1351.3076"
         y="1927.4419"
         id="tspan4252-2">Slem robot!</tspan></text>
    <text
       xml:space="preserve"
       style="font-style:normal;font-variant:normal;font-weight:normal;font-stretch:normal;font-size:13.84969044px;line-height:0%;font-family:Lavi;-inkscape-font-specification:Lavi;text-align:center;letter-spacing:0px;word-spacing:0px;text-anchor:middle;fill:#000000;fill-opacity:1;stroke:none;stroke-width:1.15414095"
       x="1069.759"
       y="2174.3855"
       id="text4246-02"
       transform="scale(1.0048528,0.99517063)"><tspan
         sodipodi:role="line"
         style="font-size:51.93634033px;line-height:1.20000005;stroke-width:1.15414095"
         x="1069.759"
         y="2174.3855"
         id="tspan766">Eg skal retta</tspan><tspan
         sodipodi:role="line"
         style="font-size:51.93634033px;line-height:1.20000005;stroke-width:1.15414095"
         x="1069.759"
         y="2236.7092"
         id="tspan982">feilen din, ein</tspan><tspan
         sodipodi:role="line"
         style="font-size:51.93634033px;line-height:1.20000005;stroke-width:1.15414095"
         x="1069.759"
         y="2299.0327"
         id="tspan981">gong for alle!</tspan></text>
    <text
       xml:space="preserve"
       style="font-style:normal;font-variant:normal;font-weight:normal;font-stretch:normal;font-size:26.56264687px;line-height:0%;font-family:Lavi;-inkscape-font-specification:Lavi;text-align:center;letter-spacing:26.91141891px;word-spacing:0px;text-anchor:middle;fill:#000000;fill-opacity:1;stroke:none;stroke-width:0.92450589"
       x="2162.7668"
       y="2039.5682"
       id="text4246-6-6-3"
       transform="matrix(0.91674667,0,-0.2119342,1.0908139,0,0)"><tspan
         sodipodi:role="line"
         style="font-style:normal;font-variant:normal;font-weight:bold;font-stretch:normal;font-size:99.60993195px;line-height:1.20000005;font-family:Lavi;-inkscape-font-specification:'Lavi Bold';letter-spacing:3.69802356px;stroke-width:0.92450589"
         x="2164.616"
         y="2039.5682"
         id="tspan4252-00-4-7">VENT!!!</tspan></text>
    <text
       xml:space="preserve"
       style="font-style:normal;font-variant:normal;font-weight:normal;font-stretch:normal;font-size:40px;line-height:125%;font-family:'Cabin Sketch';-inkscape-font-specification:'Cabin Sketch';letter-spacing:0px;word-spacing:0px;fill:#000000;fill-opacity:1;stroke:none;stroke-width:1px;stroke-linecap:butt;stroke-linejoin:miter;stroke-opacity:1"
       x="1263.3837"
       y="254.65823"
       id="text770"><tspan
         sodipodi:role="line"
         id="tspan768"
         x="1263.3837"
         y="290.68842" /></text>
    <text
       xml:space="preserve"
       style="font-style:normal;font-variant:normal;font-weight:normal;font-stretch:normal;line-height:0%;font-family:Lavi;-inkscape-font-specification:Lavi;letter-spacing:0px;word-spacing:0px;fill:#000000;fill-opacity:1;stroke:#000000;stroke-width:0;stroke-linecap:square;stroke-miterlimit:4;stroke-dasharray:none;stroke-opacity:1;filter:url(#filter4375-4-1-1-1-9-8)"
       x="787.65729"
       y="1584.5073"
       id="text4580-7"
       transform="matrix(2.7819933,-0.1626793,-0.94551619,2.9284614,887.83592,-4228.9016)"><tspan
         sodipodi:role="line"
         id="tspan4582-7"
         x="787.65729"
         y="1584.5073"
         style="font-style:normal;font-variant:normal;font-weight:normal;font-stretch:normal;font-size:70px;line-height:1.25;font-family:ComicSpice;-inkscape-font-specification:ComicSpice;fill:#ffffff;stroke-width:0;stroke-linecap:square;stroke-miterlimit:4;stroke-dasharray:none">B</tspan></text>
    <text
       xml:space="preserve"
       style="font-style:normal;font-variant:normal;font-weight:normal;font-stretch:normal;line-height:0%;font-family:Lavi;-inkscape-font-specification:Lavi;letter-spacing:0px;word-spacing:0px;fill:#000000;fill-opacity:1;stroke:#000000;stroke-width:0;stroke-linecap:square;stroke-miterlimit:4;stroke-dasharray:none;stroke-opacity:1;filter:url(#filter4375-4-1-1-1-9-30-7)"
       x="787.65729"
       y="1584.5073"
       id="text4580-9-6"
       transform="matrix(2.0062568,-0.28085132,-1.1064232,2.8181271,1827.0399,-3899.3548)"><tspan
         sodipodi:role="line"
         id="tspan4582-26-4"
         x="787.65729"
         y="1584.5073"
         style="font-style:normal;font-variant:normal;font-weight:normal;font-stretch:normal;font-size:70px;line-height:1.25;font-family:ComicSpice;-inkscape-font-specification:ComicSpice;fill:#ffffff;stroke-width:0;stroke-linecap:square;stroke-miterlimit:4;stroke-dasharray:none">Z</tspan></text>
    <text
       xml:space="preserve"
       style="font-style:normal;font-variant:normal;font-weight:normal;font-stretch:normal;line-height:0%;font-family:Lavi;-inkscape-font-specification:Lavi;letter-spacing:0px;word-spacing:0px;fill:#000000;fill-opacity:1;stroke:#000000;stroke-width:0;stroke-linecap:square;stroke-miterlimit:4;stroke-dasharray:none;stroke-opacity:1;filter:url(#filter4375-4-1-1-1-9-30-2-4)"
       x="787.65729"
       y="1584.5073"
       id="text4580-9-9-3"
       transform="matrix(1.6478956,-0.12375314,-0.87637078,2.5734869,1811.3927,-3600.7784)"><tspan
         sodipodi:role="line"
         id="tspan4582-26-1-0"
         x="787.65729"
         y="1584.5073"
         style="font-style:normal;font-variant:normal;font-weight:normal;font-stretch:normal;font-size:70px;line-height:1.25;font-family:ComicSpice;-inkscape-font-specification:ComicSpice;fill:#ffffff;stroke-width:0;stroke-linecap:square;stroke-miterlimit:4;stroke-dasharray:none">Z</tspan></text>
    <text
       xml:space="preserve"
       style="font-style:normal;font-variant:normal;font-weight:normal;font-stretch:normal;line-height:0%;font-family:Lavi;-inkscape-font-specification:Lavi;letter-spacing:0px;word-spacing:0px;fill:#000000;fill-opacity:1;stroke:#000000;stroke-width:0;stroke-linecap:square;stroke-miterlimit:4;stroke-dasharray:none;stroke-opacity:1;filter:url(#filter4375-4-1-1-1-9-30-2-7-9)"
       x="787.65729"
       y="1584.5073"
       id="text4580-9-9-6-3"
       transform="matrix(1.7863953,-0.07100102,-0.69940041,2.1802978,1477.4386,-2984.9193)"><tspan
         sodipodi:role="line"
         id="tspan4582-26-1-5-0"
         x="787.65729"
         y="1584.5073"
         style="font-style:normal;font-variant:normal;font-weight:normal;font-stretch:normal;font-size:70px;line-height:1.25;font-family:ComicSpice;-inkscape-font-specification:ComicSpice;fill:#ffffff;stroke-width:0;stroke-linecap:square;stroke-miterlimit:4;stroke-dasharray:none">Z</tspan></text>
    <text
       xml:space="preserve"
       style="font-style:normal;font-variant:normal;font-weight:normal;font-stretch:normal;line-height:0%;font-family:Lavi;-inkscape-font-specification:Lavi;letter-spacing:0px;word-spacing:0px;fill:#000000;fill-opacity:1;stroke:#000000;stroke-width:0;stroke-linecap:square;stroke-miterlimit:4;stroke-dasharray:none;stroke-opacity:1;filter:url(#filter4375-4-1-1-1-9-30-2-7-6-5)"
       x="787.65729"
       y="1584.5073"
       id="text4580-9-9-6-8-9"
       transform="matrix(2.0241923,0.10781681,-1.2082941,2.536771,2181.4743,-3672.0484)"><tspan
         sodipodi:role="line"
         id="tspan4582-26-1-5-8-2"
         x="787.65729"
         y="1584.5073"
         style="font-style:normal;font-variant:normal;font-weight:normal;font-stretch:normal;font-size:70px;line-height:1.25;font-family:ComicSpice;-inkscape-font-specification:ComicSpice;fill:#ffffff;stroke-width:0;stroke-linecap:square;stroke-miterlimit:4;stroke-dasharray:none">!</tspan></text>
    <text
       xml:space="preserve"
       style="font-style:normal;font-variant:normal;font-weight:normal;font-stretch:normal;font-size:36px;line-height:125%;font-family:'Droid Sans';-inkscape-font-specification:'Droid Sans';text-align:start;letter-spacing:0px;word-spacing:0px;text-anchor:start;fill:#000000;fill-opacity:1;stroke:none;stroke-width:1px;stroke-linecap:butt;stroke-linejoin:miter;stroke-opacity:1"
       x="990.27911"
       y="297.96524"
       id="text963"><tspan
         sodipodi:role="line"
         id="tspan961"
         x="990.27911"
         y="297.96524"> </tspan></text>
  </g>
</svg>
