<?xml version="1.0" encoding="UTF-8" standalone="no"?>
<svg
   xmlns:dc="http://purl.org/dc/elements/1.1/"
   xmlns:cc="http://creativecommons.org/ns#"
   xmlns:rdf="http://www.w3.org/1999/02/22-rdf-syntax-ns#"
   xmlns:svg="http://www.w3.org/2000/svg"
   xmlns="http://www.w3.org/2000/svg"
   xmlns:xlink="http://www.w3.org/1999/xlink"
   xmlns:sodipodi="http://sodipodi.sourceforge.net/DTD/sodipodi-0.dtd"
   xmlns:inkscape="http://www.inkscape.org/namespaces/inkscape"
   inkscape:export-ydpi="90"
   inkscape:export-xdpi="90"
   inkscape:export-filename="credit.png"
   sodipodi:docname="E37P09.svg"
   height="6200"
   width="2481"
   inkscape:version="0.92.2 (5c3e80d, 2017-08-06)"
   version="1.1"
   id="svg2">
  <metadata
     id="metadata8">
    <rdf:RDF>
      <cc:Work
         rdf:about="">
        <dc:format>image/svg+xml</dc:format>
        <dc:type
           rdf:resource="http://purl.org/dc/dcmitype/StillImage" />
        <dc:title />
      </cc:Work>
    </rdf:RDF>
  </metadata>
  <defs
     id="defs6">
    <rect
       id="rect6361"
       height="164.79263"
       width="296.41278"
       y="940.34177"
       x="359.14022" />
  </defs>
  <sodipodi:namedview
     inkscape:pagecheckerboard="0"
     inkscape:document-rotation="0"
     inkscape:snap-global="false"
     inkscape:guide-bbox="true"
     showguides="true"
     inkscape:object-nodes="true"
     inkscape:current-layer="layer3"
     inkscape:window-maximized="0"
     inkscape:window-y="-2"
     inkscape:window-x="719"
     inkscape:cy="2374.921"
     inkscape:cx="1165.5131"
     inkscape:zoom="0.37533254"
     showgrid="false"
     id="namedview4"
     inkscape:window-height="1048"
     inkscape:window-width="1198"
     inkscape:pageshadow="2"
     inkscape:pageopacity="0"
     guidetolerance="10"
     gridtolerance="10"
     objecttolerance="10"
     borderopacity="1"
     bordercolor="#666666"
     pagecolor="#ffffff"
     inkscape:showpageshadow="0"
     inkscape:deskcolor="#d1d1d1">
    <sodipodi:guide
       inkscape:locked="false"
       id="guide171"
       orientation="0,1"
       position="1570,6115" />
  </sodipodi:namedview>
  <g
     sodipodi:insensitive="true"
     transform="translate(0,2224)"
     style="display:inline"
     inkscape:label="artwork"
     id="layer1"
     inkscape:groupmode="layer">
    <image
       sodipodi:absref="C:\Users\Kari\Documents\Pepper and Carrot\Episode 37\fi\../lang/en/./../gfx_Pepper-and-Carrot_by-David-Revoy_E37P09.png"
       xlink:href="../gfx_Pepper-and-Carrot_by-David-Revoy_E37P09.png"
       width="2481"
       height="6200"
       preserveAspectRatio="none"
       style="image-rendering:optimizeQuality"
       id="image4223"
       x="0"
       y="-2224.0303" />
  </g>
  <g
     transform="translate(0,2224)"
     style="display:inline"
     inkscape:label="speechbubbles"
     id="layer3"
     inkscape:groupmode="layer">
    <path
       sodipodi:nodetypes="cssssc"
       inkscape:connector-curvature="0"
       id="path4546-6"
       d="m 1199.4271,-865.19683 c 7.5381,-101.70673 34.4601,-118.04753 271.8042,-120.75813 130.003,-1.4847 301.1253,-7.5259 300.8733,154.45746 -0.2661,171.15897 -192.7552,134.08212 -303.8141,132.95914 -129.2141,-1.30655 -217.5008,-5.45605 -245.4305,-37.7503 -25.558,-29.55202 -24.169,-97.40666 -23.4329,-128.90817 z"
       style="color:#000000;display:inline;overflow:visible;visibility:visible;opacity:1;fill:#ffffff;fill-opacity:1;fill-rule:nonzero;stroke:none;stroke-width:0.96107721px;marker:none;enable-background:accumulate" />
    <path
       sodipodi:nodetypes="cscccc"
       inkscape:connector-curvature="0"
       id="path3365"
       d="m 1733.6624,-737.46995 c -10.0292,-67.32478 -31.6392,-157.54449 267.03,-147.14606 229.9376,8.00549 281.081,37.0348 280.621,153.47161 -1.8769,42.16977 -10.0141,87.98919 -91.9583,118.07558 -53.6125,19.66298 -146.0672,8.48277 -234.9495,15.68418 -95.5904,0.93995 -217.2461,-41.30786 -220.7432,-140.08531 z"
       style="color:#000000;display:inline;overflow:visible;visibility:visible;fill:#ffffff;fill-opacity:1;fill-rule:nonzero;stroke:none;stroke-width:1.09302592px;marker:none;enable-background:accumulate" />
    <path
       sodipodi:nodetypes="cscccc"
       inkscape:connector-curvature="0"
       id="path3063"
       d="m 872.55605,-963.13496 c 50.81358,-32.3879 129.46405,-43.64824 168.21135,0.1997 23.4771,26.56752 33.1071,45.02242 33.1071,45.02242 l 23.8879,-32.88042 -23.9282,-31.3954 c 0,0 -88.73129,-64.76174 -201.27815,19.0537 z"
       style="fill:#ffffff;stroke:none;stroke-width:1" />
    <path
       sodipodi:nodetypes="zssssz"
       inkscape:connector-curvature="0"
       id="path4040"
       d="m 346.62254,3319.0552 c 40.93802,-42.7379 357.83823,-82.5052 459.70015,10.095 101.86189,92.6004 29.16284,247.1188 -36.95642,279.9227 -66.11916,32.8042 -295.31985,45.234 -377.3628,13.7447 -82.04305,-31.4895 -107.37505,-104.6427 -103.63648,-194.8297 1.52586,-36.8087 17.31735,-66.1946 58.25555,-108.9327 z"
       style="color:#000000;display:inline;overflow:visible;visibility:visible;fill:#ffffff;fill-opacity:1;fill-rule:nonzero;stroke:none;stroke-width:1.05546224px;marker:none;enable-background:accumulate" />
    <path
       sodipodi:nodetypes="cccsscc"
       inkscape:connector-curvature="0"
       id="path3517"
       d="m 794.81027,3508.8979 c -3.17177,-87.0982 16.84208,-128.7839 90.24998,-166.0991 69.94832,-27.1974 256.50535,-17.1681 286.17335,19.9102 29.6681,37.0782 53.2608,74.8976 49.8374,108.0731 -3.4232,33.1752 2.4981,68.6338 -55.5273,110.7898 -40.0376,29.0878 -160.4481,24.6284 -221.84431,21.1205 -53.02307,-3.5075 -153.45348,-17.6864 -148.88912,-93.7945 z"
       style="color:#000000;display:inline;overflow:visible;visibility:visible;fill:#ffffff;fill-opacity:1;fill-rule:nonzero;stroke:none;stroke-width:1.01384127px;marker:none;enable-background:accumulate" />
    <path
       sodipodi:nodetypes="csccc"
       inkscape:connector-curvature="0"
       id="path4974"
       d="m 1162.1167,3498.0477 c -6.6318,-67.1076 141.0078,-77.5467 248.4192,-76.8664 107.4116,0.6801 247.2917,23.8114 253.1483,73.1021 10.6122,83.615 -161.9823,94.9436 -256.8696,95.8713 -44.4313,0.057 -257.6378,-7.4184 -244.6979,-92.107 z"
       style="color:#000000;display:inline;overflow:visible;visibility:visible;fill:#ffffff;fill-opacity:1;fill-rule:nonzero;stroke:none;stroke-width:0.94970262px;marker:none;enable-background:accumulate" />
    <path
       sodipodi:nodetypes="cssssc"
       inkscape:connector-curvature="0"
       id="path3659-8"
       d="m 2095.1618,3703.7812 c -2.4947,-24.9075 14.0519,-37.2977 29.1177,-43.1671 19.0937,-7.4386 143.8638,-5.1704 166.97,11.8391 20.3954,15.0141 32.6685,47.784 -13.0403,65.2222 -45.7087,17.4382 -121.9934,7.8865 -134.9788,4.716 -12.9855,-3.1707 -45.4716,-11.6604 -48.0686,-38.6102 z"
       style="fill:#ffffff;fill-opacity:1;stroke:none;stroke-width:0.942393" />
    <path
       sodipodi:nodetypes="csccc"
       inkscape:connector-curvature="0"
       id="path3072"
       d="m 1800.3088,3454.0878 c -145.0577,-17.8084 -151.3521,38.1867 -173.8389,41.2954 -47.8722,6.6181 -34.2474,16.1578 -34.2474,16.1578 l 14.6011,-30.4558 c 0,0 76.6292,-84.3387 193.4852,-26.9974 z"
       style="color:#000000;display:inline;overflow:visible;visibility:visible;fill:#ffffff;fill-opacity:1;fill-rule:nonzero;stroke:none;stroke-width:1px;marker:none;enable-background:accumulate" />
    <path
       inkscape:connector-curvature="0"
       id="path5010"
       d="m 2144.8841,3684.561 c -34.7278,-9.2362 -63.5331,-24.713 -62.0215,-60.0508 -13.1987,53.9008 44.5176,88.9089 63.4118,97.7471 18.8944,8.8383 -1.3903,-37.6963 -1.3903,-37.6963 z"
       style="color:#000000;display:inline;overflow:visible;visibility:visible;fill:#ffffff;fill-opacity:1;fill-rule:nonzero;stroke:none;stroke-width:1px;marker:none;enable-background:accumulate" />
    <path
       sodipodi:nodetypes="cssssc"
       inkscape:connector-curvature="0"
       id="path4546-6-4"
       d="m 1252.7013,-942.45223 c -4.15,32.59671 -15.9257,37.69512 -118.5005,37.28402 -56.1844,-0.22519 -130.1754,0.78991 -128.6445,-51.18875 1.6175,-54.92304 84.4622,-41.98627 132.4383,-41.02655 55.8189,1.11667 93.9292,2.92468 105.7136,13.43854 10.7836,9.6211 9.5877,31.38796 8.9931,41.49274 z"
       style="color:#000000;display:inline;overflow:visible;visibility:visible;opacity:1;fill:#ffffff;fill-opacity:1;fill-rule:nonzero;stroke:none;stroke-width:0.76255262px;marker:none;enable-background:accumulate" />
    <g
       style="display:inline;opacity:0.607;stroke-width:0.453865"
       transform="matrix(2.2032985,0,0,2.2032985,1108.3021,-1130.2321)"
       inkscape:label="Layer 1"
       id="layer1-8">
      <g
         style="stroke-width:0.453865"
         transform="matrix(0.9937728,0,0,0.9936696,-177.69267,6.25128e-7)"
         id="g260"
         inkscape:export-filename="/mnt/hgfs/Bov/Documents/Work/2007/cc/identity/srr buttons/big/by.png"
         inkscape:export-xdpi="300.23013"
         inkscape:export-ydpi="300.23013">
        <path
           inkscape:connector-curvature="0"
           id="path3817_1_"
           nodetypes="ccccccc"
           d="m 181.96579,0.51074 114.06396,0.20264 c 1.59375,0 3.01758,-0.23633 3.01758,3.18066 l -0.13965,37.56689 H 179.08737 V 3.75439 c 0,-1.68505 0.16309,-3.24365 2.87842,-3.24365 z"
           style="fill:#aab2ab;stroke-width:0.453865" />
        <path
           style="stroke-width:0.453865"
           inkscape:connector-curvature="0"
           d="m 297.29636,0 h -116.229 c -1.24658,0 -2.26123,1.01416 -2.26123,2.26074 v 39.49658 c 0,0.28174 0.229,0.51025 0.51074,0.51025 h 119.73047 c 0.28174,0 0.51074,-0.22852 0.51074,-0.51025 V 2.26074 C 299.55807,1.01416 298.54343,0 297.29636,0 Z M 181.06735,1.02148 h 116.229 c 0.68408,0 1.24023,0.55566 1.24023,1.23926 0,0 0,15.94824 0,27.44971 h -83.34424 c -3.04492,5.50586 -8.91113,9.24414 -15.64355,9.24414 -6.73535,0 -12.6001,-3.73486 -15.64355,-9.24414 h -4.07764 c 0,-11.50146 0,-27.44971 0,-27.44971 1e-5,-0.68359 0.55616,-1.23926 1.23975,-1.23926 z"
           id="path263" />
        <g
           style="stroke-width:0.453865"
           enable-background="new    "
           id="g265">
          <path
             inkscape:connector-curvature="0"
             d="m 253.07761,32.95605 c 0.31738,0 0.60742,0.02832 0.87012,0.08398 0.26172,0.05566 0.48535,0.14746 0.67285,0.27539 0.18652,0.12695 0.33203,0.29688 0.43457,0.50781 0.10254,0.21191 0.1543,0.47266 0.1543,0.78418 0,0.33594 -0.0762,0.61523 -0.22949,0.83887 -0.15234,0.22461 -0.37891,0.40723 -0.67773,0.55078 0.41211,0.11816 0.71973,0.3252 0.92285,0.62109 0.20312,0.29589 0.30469,0.65234 0.30469,1.06934 0,0.33594 -0.0654,0.62695 -0.19629,0.87305 -0.13086,0.24512 -0.30762,0.44629 -0.52832,0.60156 -0.22168,0.15625 -0.47461,0.27148 -0.75781,0.3457 -0.28418,0.0752 -0.5752,0.1123 -0.875,0.1123 H 249.936 v -6.66406 h 3.14161 z m -0.1875,2.69532 c 0.26172,0 0.47656,-0.0625 0.64551,-0.18652 0.16797,-0.12402 0.25195,-0.3252 0.25195,-0.60449 0,-0.15527 -0.0283,-0.2832 -0.084,-0.38184 -0.0566,-0.09961 -0.13086,-0.17676 -0.22461,-0.2334 -0.0937,-0.05566 -0.20117,-0.09473 -0.32227,-0.11621 -0.1211,-0.02148 -0.24805,-0.03223 -0.37793,-0.03223 h -1.37402 v 1.55469 z m 0.0859,2.82812 c 0.14355,0 0.28027,-0.01367 0.41113,-0.04199 0.13086,-0.02832 0.24609,-0.0752 0.34668,-0.13965 0.0996,-0.06543 0.17871,-0.1543 0.23828,-0.2666 0.0596,-0.11133 0.0889,-0.25488 0.0889,-0.42871 0,-0.3418 -0.0967,-0.58594 -0.29004,-0.73242 -0.19336,-0.14551 -0.44922,-0.21875 -0.7666,-0.21875 h -1.59961 v 1.82812 z"
             id="path267"
             style="fill:#ffffff;stroke-width:0.453865" />
          <path
             inkscape:connector-curvature="0"
             d="m 255.78854,32.95605 h 1.64355 l 1.56055,2.63184 1.55078,-2.63184 h 1.63379 l -2.47363,4.10645 v 2.55762 h -1.46875 v -2.59473 z"
             id="path269"
             style="fill:#ffffff;stroke-width:0.453865" />
        </g>
        <g
           style="stroke-width:0.453865"
           id="g5908_1_"
           transform="matrix(0.872921,0,0,0.872921,50.12536,143.2144)">
          <path
             inkscape:connector-curvature="0"
             id="path5906_1_"
             cx="296.35416"
             ry="22.939548"
             cy="264.3577"
             type="arc"
             rx="22.939548"
             d="m 186.90065,-141.46002 c 0.006,8.68079 -7.02786,15.7215 -15.70808,15.72711 -8.68022,0.006 -15.72206,-7.02734 -15.7271,-15.70807 0,-0.006 0,-0.0123 0,-0.019 -0.005,-8.68079 7.02786,-15.7215 15.70808,-15.72656 8.68135,-0.006 15.72206,7.02734 15.7271,15.70813 0,0.006 0,0.0123 0,0.0184 z"
             style="fill:#ffffff;stroke-width:0.453865" />
          <g
             style="stroke-width:0.453865"
             id="g5706_1_"
             transform="translate(-289.6157,99.0653)">
            <path
               style="stroke-width:0.453865"
               inkscape:connector-curvature="0"
               id="path5708_1_"
               d="m 473.57574,-253.32751 c 3.48541,3.48541 5.22839,7.75391 5.22839,12.80219 0,5.04938 -1.71277,9.27203 -5.13831,12.66791 -3.63531,3.5766 -7.93182,5.36432 -12.88947,5.36432 -4.89777,0 -9.11987,-1.77319 -12.66513,-5.31952 -3.54581,-3.54584 -5.31845,-7.78302 -5.31845,-12.71271 0,-4.92859 1.77264,-9.19598 5.31845,-12.80219 3.4552,-3.48651 7.67728,-5.22949 12.66513,-5.22949 5.0483,-10e-6 9.31404,1.74297 12.79939,5.22949 z m -23.11798,2.34484 c -2.94672,2.97638 -4.41953,6.46289 -4.41953,10.46234 0,3.99835 1.45828,7.45526 4.37424,10.37067 2.9165,2.9165 6.38849,4.37421 10.41705,4.37421 4.02856,0 7.53015,-1.47223 10.50653,-4.4184 2.82593,-2.73645 4.23944,-6.17706 4.23944,-10.32648 0,-4.11804 -1.43646,-7.61346 -4.30768,-10.48468 -2.87067,-2.87067 -6.34991,-4.30658 -10.43829,-4.30658 -4.0884,1e-5 -7.54638,1.44318 -10.37176,4.32892 z m 7.75449,8.70319 c -0.45029,-0.98169 -1.1243,-1.47284 -2.02322,-1.47284 -1.58917,0 -2.38345,1.07007 -2.38345,3.20911 0,2.13953 0.79428,3.2085 2.38345,3.2085 1.04938,0 1.79892,-0.52075 2.24866,-1.56451 l 2.20276,1.17297 c -1.04993,1.86548 -2.62509,2.79846 -4.72549,2.79846 -1.6199,0 -2.91763,-0.4967 -3.89206,-1.48901 -0.9761,-0.99341 -1.46274,-2.36273 -1.46274,-4.10852 0,-1.71503 0.50229,-3.07654 1.50748,-4.08502 1.00519,-1.00854 2.25702,-1.51257 3.75781,-1.51257 2.22012,0 3.80981,0.87488 4.77081,2.62286 z m 10.36337,0 c -0.45087,-0.98169 -1.11145,-1.47284 -1.98242,-1.47284 -1.62103,0 -2.43213,1.07007 -2.43213,3.20911 0,2.13953 0.8111,3.2085 2.43213,3.2085 1.05109,0 1.78717,-0.52075 2.20728,-1.56451 l 2.25201,1.17297 c -1.04828,1.86548 -2.62122,2.79846 -4.71771,2.79846 -1.61768,0 -2.9126,-0.4967 -3.88647,-1.48901 -0.97217,-0.99341 -1.45935,-2.36273 -1.45935,-4.10852 0,-1.71503 0.49445,-3.07654 1.48285,-4.08502 0.98785,-1.00854 2.2453,-1.51257 3.7735,-1.51257 2.21619,0 3.80365,0.87488 4.76129,2.62286 z" />
          </g>
        </g>
        <g
           style="stroke-width:0.453865"
           id="g275">
          <circle
             cx="255.55124"
             cy="15.31348"
             r="10.80664"
             id="circle277"
             style="fill:#ffffff;stroke-width:0.453865" />
          <g
             style="stroke-width:0.453865"
             id="g279">
            <path
               style="stroke-width:0.453865"
               inkscape:connector-curvature="0"
               d="m 258.67819,12.18701 c 0,-0.4165 -0.33789,-0.75391 -0.75293,-0.75391 h -4.77344 c -0.41504,0 -0.75293,0.3374 -0.75293,0.75391 v 4.77295 h 1.33105 v 5.65186 h 3.61719 v -5.65186 h 1.33105 v -4.77295 z"
               id="path281" />
            <circle
               style="stroke-width:0.453865"
               cx="255.53854"
               cy="9.1723604"
               r="1.63281"
               id="circle283" />
          </g>
          <path
             inkscape:connector-curvature="0"
             d="m 255.5239,3.40723 c -3.23242,0 -5.96875,1.12793 -8.20801,3.38379 -2.29785,2.3335 -3.44629,5.0957 -3.44629,8.28467 0,3.18897 1.14844,5.93164 3.44629,8.22656 2.29785,2.29443 5.03418,3.44189 8.20801,3.44189 3.21289,0 5.99805,-1.15625 8.35352,-3.47119 2.21973,-2.19727 3.33008,-4.92969 3.33008,-8.19727 0,-3.26758 -1.12988,-6.02881 -3.3877,-8.28467 -2.25977,-2.25585 -5.02442,-3.38378 -8.2959,-3.38378 z m 0.0293,2.09961 c 2.64844,0 4.89746,0.93408 6.74707,2.80127 1.86914,1.84717 2.80371,4.10303 2.80371,6.76758 0,2.68359 -0.91504,4.91064 -2.74512,6.68018 -1.92871,1.90625 -4.19629,2.85889 -6.80566,2.85889 -2.61035,0 -4.85938,-0.94287 -6.74707,-2.82959 -1.88965,-1.88672 -2.83301,-4.12305 -2.83301,-6.70947 0,-2.58691 0.9541,-4.84229 2.8623,-6.76758 1.83009,-1.8672 4.06934,-2.80128 6.71778,-2.80128 z"
             id="path285"
             style="clip-rule:evenodd;fill-rule:evenodd;stroke-width:0.453865" />
        </g>
      </g>
    </g>
  </g>
  <g
     transform="translate(0,2224)"
     style="display:inline;opacity:1"
     inkscape:label="text"
     id="layer2"
     inkscape:groupmode="layer">
    <text
       transform="scale(1.0202966,0.98010715)"
       xml:space="preserve"
       style="color:#000000;font-style:normal;font-variant:normal;font-weight:normal;font-stretch:normal;font-size:12.05049992px;line-height:0%;font-family:Lavi;-inkscape-font-specification:Lavi;text-indent:0;text-align:center;text-decoration:none;text-decoration-line:none;letter-spacing:0px;word-spacing:0px;text-transform:none;writing-mode:lr-tb;direction:ltr;baseline-shift:baseline;text-anchor:middle;display:inline;overflow:visible;visibility:visible;opacity:0.85500004;fill:#000000;fill-opacity:1;fill-rule:nonzero;stroke:none;stroke-width:1.11319005;enable-background:accumulate"
       x="1220.702"
       y="-2130.9331"
       id="text4151"><tspan
         id="tspan4170"
         sodipodi:role="line"
         style="color:#000000;font-style:normal;font-variant:normal;font-weight:bold;font-stretch:normal;font-size:35.18439865px;line-height:125%;font-family:Lavi;-inkscape-font-specification:Lavi;text-indent:0;text-align:center;text-decoration:none;text-decoration-line:none;letter-spacing:0px;word-spacing:0px;text-transform:none;writing-mode:lr-tb;direction:ltr;baseline-shift:baseline;text-anchor:middle;display:inline;overflow:visible;visibility:visible;fill:#000000;fill-opacity:1;fill-rule:nonzero;stroke:none;stroke-width:1.11319005;enable-background:accumulate"
         x="1220.702"
         y="-2130.9331">3. elokuuta 2022</tspan><tspan
         id="tspan4150"
         sodipodi:role="line"
         style="color:#000000;font-style:normal;font-variant:normal;font-weight:normal;font-stretch:normal;font-size:40.21080017px;line-height:125%;font-family:Lavi;-inkscape-font-specification:Lavi;text-indent:0;text-align:center;text-decoration:none;text-decoration-line:none;letter-spacing:0px;word-spacing:0px;text-transform:none;writing-mode:lr-tb;direction:ltr;baseline-shift:baseline;text-anchor:middle;display:inline;overflow:visible;visibility:visible;fill:#000000;fill-opacity:1;fill-rule:nonzero;stroke:none;stroke-width:1.11319005;enable-background:accumulate"
         x="1220.702"
         y="-2115.6667" /><tspan
         id="tspan1101"
         sodipodi:role="line"
         style="color:#000000;font-style:normal;font-variant:normal;font-weight:normal;font-stretch:normal;font-size:40.21080017px;line-height:125%;font-family:Lavi;-inkscape-font-specification:Lavi;text-indent:0;text-align:center;text-decoration:none;text-decoration-line:none;letter-spacing:0px;word-spacing:0px;text-transform:none;writing-mode:lr-tb;direction:ltr;baseline-shift:baseline;text-anchor:middle;display:inline;overflow:visible;visibility:visible;fill:#000000;fill-opacity:1;fill-rule:nonzero;stroke:none;stroke-width:1.11319005;enable-background:accumulate"
         x="1220.702"
         y="-2082.3501"><tspan
   style="font-weight:bold"
   id="tspan39">Tarina ja kuvitus: </tspan>David Revoy.</tspan><tspan
         id="tspan943"
         sodipodi:role="line"
         x="1220.702"
         y="-2065.4033"
         style="stroke-width:1.11319005" /><tspan
         sodipodi:role="line"
         style="color:#000000;font-style:normal;font-variant:normal;font-weight:bold;font-stretch:normal;font-size:35.18439865px;line-height:125%;font-family:Lavi;-inkscape-font-specification:'Lavi Bold';text-indent:0;text-align:center;text-decoration:none;text-decoration-line:none;letter-spacing:0px;word-spacing:0px;text-transform:none;writing-mode:lr-tb;direction:ltr;baseline-shift:baseline;text-anchor:middle;display:inline;overflow:visible;visibility:visible;fill:#000000;fill-opacity:1;fill-rule:nonzero;stroke:none;stroke-width:1.11319005;enable-background:accumulate"
         x="1220.702"
         y="-2036.6891"
         id="tspan1217">Tarinan viimeistelyssä avustivat: <tspan
   style="font-weight:normal;fill:#000000;fill-opacity:1;stroke-width:1.11319005"
   id="tspan80970">Arlo James Barnes, Benjamin Loubet, Bobby Hiltz, Chloé,</tspan></tspan><tspan
         sodipodi:role="line"
         style="color:#000000;font-style:normal;font-variant:normal;font-weight:normal;font-stretch:normal;font-size:35.18439865px;line-height:125%;font-family:Lavi;-inkscape-font-specification:'Lavi Bold';text-indent:0;text-align:center;text-decoration:none;text-decoration-line:none;letter-spacing:0px;word-spacing:0px;text-transform:none;writing-mode:lr-tb;direction:ltr;baseline-shift:baseline;text-anchor:middle;display:inline;overflow:visible;visibility:visible;fill:#000000;fill-opacity:1;fill-rule:nonzero;stroke:none;stroke-width:1.11319005;enable-background:accumulate"
         x="1220.702"
         y="-1992.7086"
         id="tspan40710">Craig Maloney, Estefania de Vasconcellos Guimaraes, GunChleoc,</tspan><tspan
         sodipodi:role="line"
         style="color:#000000;font-style:normal;font-variant:normal;font-weight:normal;font-stretch:normal;font-size:35.18439865px;line-height:125%;font-family:Lavi;-inkscape-font-specification:'Lavi Bold';text-indent:0;text-align:center;text-decoration:none;text-decoration-line:none;letter-spacing:0px;word-spacing:0px;text-transform:none;writing-mode:lr-tb;direction:ltr;baseline-shift:baseline;text-anchor:middle;display:inline;overflow:visible;visibility:visible;fill:#000000;fill-opacity:1;fill-rule:nonzero;stroke:none;stroke-width:1.11319005;enable-background:accumulate"
         x="1220.702"
         y="-1948.7281"
         id="tspan1077">Nicolas Artance, Olivier Jolly, Rhombihexahedron, Valvin.</tspan><tspan
         id="tspan988"
         sodipodi:role="line"
         style="color:#000000;font-style:normal;font-variant:normal;font-weight:bold;font-stretch:normal;font-size:35.18439865px;line-height:125%;font-family:Lavi;-inkscape-font-specification:'Lavi Bold';text-indent:0;text-align:center;text-decoration:none;text-decoration-line:none;letter-spacing:0px;word-spacing:0px;text-transform:none;writing-mode:lr-tb;direction:ltr;baseline-shift:baseline;text-anchor:middle;display:inline;overflow:visible;visibility:visible;fill:#000000;fill-opacity:1;fill-rule:nonzero;stroke:none;stroke-width:1.11319005;enable-background:accumulate"
         x="1220.702"
         y="-1933.4618" /><tspan
         sodipodi:role="line"
         style="color:#000000;font-style:normal;font-variant:normal;font-weight:bold;font-stretch:normal;font-size:35.18439865px;line-height:125%;font-family:Lavi;-inkscape-font-specification:'Lavi Bold';text-indent:0;text-align:center;text-decoration:none;text-decoration-line:none;letter-spacing:0px;word-spacing:0px;text-transform:none;writing-mode:lr-tb;direction:ltr;baseline-shift:baseline;text-anchor:middle;display:inline;overflow:visible;visibility:visible;fill:#000000;fill-opacity:1;fill-rule:nonzero;stroke:none;stroke-width:1.11319005;enable-background:accumulate"
         x="1220.702"
         y="-1904.7476"
         id="tspan1772">Suomenkielinen käännös: Kari Lehto</tspan><tspan
         sodipodi:role="line"
         style="color:#000000;font-style:normal;font-variant:normal;font-weight:bold;font-stretch:normal;font-size:35.18439865px;line-height:125%;font-family:Lavi;-inkscape-font-specification:'Lavi Bold';text-indent:0;text-align:center;text-decoration:none;text-decoration-line:none;letter-spacing:0px;word-spacing:0px;text-transform:none;writing-mode:lr-tb;direction:ltr;baseline-shift:baseline;text-anchor:middle;display:inline;overflow:visible;visibility:visible;fill:#000000;fill-opacity:1;fill-rule:nonzero;stroke:none;stroke-width:1.11319005;enable-background:accumulate"
         x="1220.702"
         y="-1860.7671"
         id="tspan164">*</tspan><tspan
         sodipodi:role="line"
         style="color:#000000;font-style:normal;font-variant:normal;font-weight:bold;font-stretch:normal;font-size:35.18439865px;line-height:125%;font-family:Lavi;-inkscape-font-specification:'Lavi Bold';text-indent:0;text-align:center;text-decoration:none;text-decoration-line:none;letter-spacing:0px;word-spacing:0px;text-transform:none;writing-mode:lr-tb;direction:ltr;baseline-shift:baseline;text-anchor:middle;display:inline;overflow:visible;visibility:visible;fill:#000000;fill-opacity:1;fill-rule:nonzero;stroke:none;stroke-width:1.11319005;enable-background:accumulate"
         x="1220.702"
         y="-1816.7866"
         id="tspan1774">Based on the universe of Hereva</tspan><tspan
         sodipodi:role="line"
         style="color:#000000;font-style:normal;font-variant:normal;font-weight:bold;font-stretch:normal;font-size:35.18439865px;line-height:125%;font-family:Lavi;-inkscape-font-specification:'Lavi Bold';text-indent:0;text-align:center;text-decoration:none;text-decoration-line:none;letter-spacing:0px;word-spacing:0px;text-transform:none;writing-mode:lr-tb;direction:ltr;baseline-shift:baseline;text-anchor:middle;display:inline;overflow:visible;visibility:visible;fill:#000000;fill-opacity:1;fill-rule:nonzero;stroke:none;stroke-width:1.11319005;enable-background:accumulate"
         x="1220.702"
         y="-1772.8062"
         id="tspan1776">Creator: <tspan
   style="font-weight:normal;stroke-width:1.11319005"
   id="tspan1794">David Revoy.</tspan></tspan><tspan
         sodipodi:role="line"
         style="color:#000000;font-style:normal;font-variant:normal;font-weight:bold;font-stretch:normal;font-size:35.18439865px;line-height:125%;font-family:Lavi;-inkscape-font-specification:'Lavi Bold';text-indent:0;text-align:center;text-decoration:none;text-decoration-line:none;letter-spacing:0px;word-spacing:0px;text-transform:none;writing-mode:lr-tb;direction:ltr;baseline-shift:baseline;text-anchor:middle;display:inline;overflow:visible;visibility:visible;fill:#000000;fill-opacity:1;fill-rule:nonzero;stroke:none;stroke-width:1.11319005;enable-background:accumulate"
         x="1220.702"
         y="-1728.8256"
         id="tspan1778">Lead maintainer: <tspan
   style="font-weight:normal;stroke-width:1.11319005"
   id="tspan1796">Craig Maloney.</tspan></tspan><tspan
         sodipodi:role="line"
         style="color:#000000;font-style:normal;font-variant:normal;font-weight:bold;font-stretch:normal;font-size:35.18439865px;line-height:125%;font-family:Lavi;-inkscape-font-specification:'Lavi Bold';text-indent:0;text-align:center;text-decoration:none;text-decoration-line:none;letter-spacing:0px;word-spacing:0px;text-transform:none;writing-mode:lr-tb;direction:ltr;baseline-shift:baseline;text-anchor:middle;display:inline;overflow:visible;visibility:visible;fill:#000000;fill-opacity:1;fill-rule:nonzero;stroke:none;stroke-width:1.11319005;enable-background:accumulate"
         x="1220.702"
         y="-1684.8451"
         id="tspan1780">Writers: <tspan
   style="font-weight:normal;stroke-width:1.11319005"
   id="tspan1798">Craig Maloney, Nicolas Artance, Scribblemaniac, Valvin.</tspan></tspan><tspan
         sodipodi:role="line"
         style="color:#000000;font-style:normal;font-variant:normal;font-weight:normal;font-stretch:normal;font-size:35.18439865px;line-height:125%;font-family:Lavi;-inkscape-font-specification:'Lavi Bold';text-indent:0;text-align:center;text-decoration:none;text-decoration-line:none;letter-spacing:0px;word-spacing:0px;text-transform:none;writing-mode:lr-tb;direction:ltr;baseline-shift:baseline;text-anchor:middle;display:inline;overflow:visible;visibility:visible;fill:#000000;fill-opacity:1;fill-rule:nonzero;stroke:none;stroke-width:1.11319005;enable-background:accumulate"
         x="1220.702"
         y="-1640.8646"
         id="tspan1782"><tspan
   style="font-weight:bold"
   id="tspan62">Correctors: </tspan> Willem Sonke, Moini, Hali, CGand, Alex Gryson.</tspan><tspan
         sodipodi:role="line"
         style="color:#000000;font-style:normal;font-variant:normal;font-weight:normal;font-stretch:normal;font-size:35.18439865px;line-height:125%;font-family:Lavi;-inkscape-font-specification:'Lavi Bold';text-indent:0;text-align:center;text-decoration:none;text-decoration-line:none;letter-spacing:0px;word-spacing:0px;text-transform:none;writing-mode:lr-tb;direction:ltr;baseline-shift:baseline;text-anchor:middle;display:inline;overflow:visible;visibility:visible;fill:#000000;fill-opacity:1;fill-rule:nonzero;stroke:none;stroke-width:1.11319005;enable-background:accumulate"
         x="1220.702"
         y="-1625.5983"
         id="tspan1784" /><tspan
         sodipodi:role="line"
         style="color:#000000;font-style:normal;font-variant:normal;font-weight:bold;font-stretch:normal;font-size:35.18439865px;line-height:125%;font-family:Lavi;-inkscape-font-specification:'Lavi Bold';text-indent:0;text-align:center;text-decoration:none;text-decoration-line:none;letter-spacing:0px;word-spacing:0px;text-transform:none;writing-mode:lr-tb;direction:ltr;baseline-shift:baseline;text-anchor:middle;display:inline;overflow:visible;visibility:visible;fill:#000000;fill-opacity:1;fill-rule:nonzero;stroke:none;stroke-width:1.11319005;enable-background:accumulate"
         x="1220.702"
         y="-1625.5983"
         id="tspan1786" /><tspan
         sodipodi:role="line"
         style="color:#000000;font-style:normal;font-variant:normal;font-weight:normal;font-stretch:normal;font-size:35.18439865px;line-height:125%;font-family:Lavi;-inkscape-font-specification:'Lavi Bold';text-indent:0;text-align:center;text-decoration:none;text-decoration-line:none;letter-spacing:0px;word-spacing:0px;text-transform:none;writing-mode:lr-tb;direction:ltr;baseline-shift:baseline;text-anchor:middle;display:inline;overflow:visible;visibility:visible;fill:#000000;fill-opacity:1;fill-rule:nonzero;stroke:none;stroke-width:1.11319005;enable-background:accumulate"
         x="1220.702"
         y="-1596.8842"
         id="tspan1788"><tspan
   style="font-weight:bold"
   id="tspan67">Software: </tspan>Krita 5.0.5, Inkscape 1.2 on Fedora 36 KDE Spin.</tspan><tspan
         sodipodi:role="line"
         style="color:#000000;font-style:normal;font-variant:normal;font-weight:normal;font-stretch:normal;font-size:35.18439865px;line-height:125%;font-family:Lavi;-inkscape-font-specification:'Lavi Bold';text-indent:0;text-align:center;text-decoration:none;text-decoration-line:none;letter-spacing:0px;word-spacing:0px;text-transform:none;writing-mode:lr-tb;direction:ltr;baseline-shift:baseline;text-anchor:middle;display:inline;overflow:visible;visibility:visible;fill:#000000;fill-opacity:1;fill-rule:nonzero;stroke:none;stroke-width:1.11319005;enable-background:accumulate"
         x="1220.702"
         y="-1552.9036"
         id="tspan1790"><tspan
   style="font-weight:bold"
   id="tspan70">License: </tspan>Creative Commons Attribution 4.0.</tspan><tspan
         id="tspan842"
         sodipodi:role="line"
         style="color:#000000;font-style:normal;font-variant:normal;font-weight:bold;font-stretch:normal;font-size:40.21080017px;line-height:125%;font-family:Lavi;-inkscape-font-specification:Lavi;text-indent:0;text-align:center;text-decoration:none;text-decoration-line:none;letter-spacing:0px;word-spacing:0px;text-transform:none;writing-mode:lr-tb;direction:ltr;baseline-shift:baseline;text-anchor:middle;display:inline;overflow:visible;visibility:visible;fill:#000000;fill-opacity:1;fill-rule:nonzero;stroke:none;stroke-width:1.11319005;enable-background:accumulate"
         x="1220.702"
         y="-1504.3207">www.peppercarrot.com</tspan></text>
    <text
       id="text4246-3-2-2-3-3"
       y="-935.92126"
       x="1130.334"
       style="font-style:normal;font-variant:normal;font-weight:normal;font-stretch:normal;font-size:45px;line-height:1.25;font-family:Lavi;-inkscape-font-specification:Lavi;text-align:center;letter-spacing:0px;word-spacing:0px;text-anchor:middle;fill:#000000;fill-opacity:1;stroke:none"
       xml:space="preserve"><tspan
         y="-935.92126"
         x="1130.334"
         sodipodi:role="line"
         style="font-size:45px;fill:#000000"
         id="tspan1939">Tiesitkö?</tspan></text>
    <text
       id="text4246-3-2-2-3-3-3"
       y="-904.1275"
       x="1482.3475"
       style="font-style:normal;font-variant:normal;font-weight:normal;font-stretch:normal;font-size:39.60509872px;line-height:1.25;font-family:Lavi;-inkscape-font-specification:Lavi;text-align:center;letter-spacing:0px;word-spacing:0px;text-anchor:middle;display:inline;opacity:0.85500004;fill:#000000;fill-opacity:1;stroke:none;stroke-width:0.88011402"
       xml:space="preserve"><tspan
         y="-904.1275"
         x="1482.3475"
         sodipodi:role="line"
         style="font-size:39.60509872px;stroke-width:0.88011402"
         id="tspan1964">Pepper&amp;Carrot on</tspan><tspan
         y="-854.62115"
         x="1482.3475"
         sodipodi:role="line"
         style="font-size:39.60509872px;stroke-width:0.88011402"
         id="tspan177">ilmainen open source</tspan><tspan
         y="-805.11475"
         x="1482.3475"
         sodipodi:role="line"
         style="font-size:39.60509872px;stroke-width:0.88011402"
         id="tspan179">-tuote, jota lukijat ovat</tspan><tspan
         y="-755.6084"
         x="1482.3475"
         sodipodi:role="line"
         style="font-size:39.60509872px;stroke-width:0.88011402"
         id="tspan181">ystävällisesti tukeneet.</tspan></text>
    <text
       id="text4246-3-2-2-3-3-3-5"
       y="-797.43909"
       x="1998.5164"
       style="font-style:normal;font-variant:normal;font-weight:normal;font-stretch:normal;font-size:51.57899857px;line-height:1.25;font-family:Lavi;-inkscape-font-specification:Lavi;text-align:center;letter-spacing:0px;word-spacing:0px;text-anchor:middle;display:inline;opacity:0.85500004;fill:#000000;fill-opacity:1;stroke:none;stroke-width:1.14619994"
       xml:space="preserve"><tspan
         y="-797.43909"
         x="1998.5164"
         sodipodi:role="line"
         style="font-size:51.57899857px;fill:#000000;stroke-width:1.14619994"
         id="tspan1973">Kiitokset tätä epi-</tspan><tspan
         y="-732.96533"
         x="1998.5164"
         sodipodi:role="line"
         style="font-size:51.57899857px;fill:#000000;stroke-width:1.14619994"
         id="tspan188">sodia sponsoroineille</tspan><tspan
         y="-668.49158"
         x="1998.5164"
         sodipodi:role="line"
         style="font-size:51.57899857px;fill:#000000;stroke-width:1.14619994"
         id="tspan190">1058 tukijalle!</tspan></text>
    <text
       id="text4246-3-2-2-3-3-3-5-9"
       y="3375.8315"
       x="583.60785"
       style="font-style:normal;font-variant:normal;font-weight:normal;font-stretch:normal;font-size:47.91719818px;line-height:1.25;font-family:Lavi;-inkscape-font-specification:Lavi;text-align:center;letter-spacing:0px;word-spacing:0px;text-anchor:middle;display:inline;opacity:0.85500004;fill:#000000;fill-opacity:1;stroke:none;stroke-width:1.06482995"
       xml:space="preserve"><tspan
         y="3375.8315"
         x="583.60785"
         sodipodi:role="line"
         style="font-style:normal;font-variant:normal;font-weight:bold;font-stretch:normal;font-size:47.91719818px;font-family:Lavi;-inkscape-font-specification:'Lavi Bold';fill:#000000;stroke-width:1.06482995"
         id="tspan2132">Sinäkin voit</tspan><tspan
         y="3435.728"
         x="583.60785"
         sodipodi:role="line"
         style="font-style:normal;font-variant:normal;font-weight:bold;font-stretch:normal;font-size:47.91719818px;font-family:Lavi;-inkscape-font-specification:'Lavi Bold';fill:#000000;stroke-width:1.06482995"
         id="tspan202">ryhtyä Pepper&amp;Carrot</tspan><tspan
         y="3495.6245"
         x="583.60785"
         sodipodi:role="line"
         style="font-style:normal;font-variant:normal;font-weight:bold;font-stretch:normal;font-size:47.91719818px;font-family:Lavi;-inkscape-font-specification:'Lavi Bold';fill:#000000;stroke-width:1.06482995"
         id="tspan204">-tukijaksi ja saada</tspan><tspan
         y="3555.521"
         x="583.60785"
         sodipodi:role="line"
         style="font-style:normal;font-variant:normal;font-weight:bold;font-stretch:normal;font-size:47.91719818px;font-family:Lavi;-inkscape-font-specification:'Lavi Bold';fill:#000000;stroke-width:1.06482995"
         id="tspan206">nimesi tänne!</tspan></text>
    <text
       id="text4246-3-2-2-3-3-3-5-9-0"
       y="3414.3584"
       x="1020.7149"
       style="font-style:normal;font-variant:normal;font-weight:normal;font-stretch:normal;font-size:38.15100098px;line-height:1.25;font-family:Lavi;-inkscape-font-specification:Lavi;text-align:center;letter-spacing:0px;word-spacing:0px;text-anchor:middle;display:inline;opacity:0.85500004;fill:#000000;fill-opacity:1;stroke:none;stroke-width:0.84780002"
       xml:space="preserve"><tspan
         y="3414.3584"
         x="1020.7149"
         sodipodi:role="line"
         style="font-style:normal;font-variant:normal;font-weight:normal;font-stretch:normal;font-size:38.15100098px;font-family:Lavi;-inkscape-font-specification:Lavi;fill:#000000;stroke-width:0.84780002"
         id="tspan2149">Meidät löydät</tspan><tspan
         y="3462.0471"
         x="1020.7149"
         sodipodi:role="line"
         style="font-style:normal;font-variant:normal;font-weight:normal;font-stretch:normal;font-size:38.15100098px;font-family:Lavi;-inkscape-font-specification:Lavi;fill:#000000;stroke-width:0.84780002"
         id="tspan217">mm. palveluista</tspan><tspan
         y="3509.7358"
         x="1020.7149"
         sodipodi:role="line"
         style="font-style:normal;font-variant:normal;font-weight:normal;font-stretch:normal;font-size:38.15100098px;font-family:Lavi;-inkscape-font-specification:Lavi;fill:#000000;stroke-width:0.84780002"
         id="tspan219">Patreon, Tipeee,</tspan><tspan
         y="3557.4246"
         x="1020.7149"
         sodipodi:role="line"
         style="font-style:normal;font-variant:normal;font-weight:normal;font-stretch:normal;font-size:38.15100098px;font-family:Lavi;-inkscape-font-specification:Lavi;fill:#000000;stroke-width:0.84780002"
         id="tspan221">PayPal, Liberapay.</tspan></text>
    <text
       id="text4246-3-2-2-3-3-3-5-9-0-6"
       y="3480.9834"
       x="1410.6763"
       style="font-style:normal;font-variant:normal;font-weight:normal;font-stretch:normal;font-size:38.15100098px;line-height:1.25;font-family:Lavi;-inkscape-font-specification:Lavi;text-align:center;letter-spacing:0px;word-spacing:0px;text-anchor:middle;display:inline;opacity:0.85500004;fill:#000000;fill-opacity:1;stroke:none;stroke-width:0.84780002"
       xml:space="preserve"><tspan
         y="3480.9834"
         x="1410.6763"
         sodipodi:role="line"
         style="font-style:normal;font-variant:normal;font-weight:normal;font-stretch:normal;font-size:38.15100098px;font-family:Lavi;-inkscape-font-specification:Lavi;fill:#000000;stroke-width:0.84780002"
         id="tspan2158">Katso lisätietoja:</tspan><tspan
         y="3528.6721"
         x="1410.6763"
         sodipodi:role="line"
         style="font-style:normal;font-variant:normal;font-weight:normal;font-stretch:normal;font-size:38.15100098px;font-family:Lavi;-inkscape-font-specification:Lavi;fill:#000000;stroke-width:0.84780002"
         id="tspan228">www.peppercarrot.com</tspan></text>
    <text
       id="text4246-3-2-2-3-3-3-5-9-0-6-2"
       y="3710.5657"
       x="2203.0203"
       style="font-style:normal;font-variant:normal;font-weight:normal;font-stretch:normal;font-size:35.15639877px;line-height:1.25;font-family:Lavi;-inkscape-font-specification:Lavi;text-align:center;letter-spacing:0px;word-spacing:0px;text-anchor:middle;display:inline;opacity:0.85500004;fill:#000000;fill-opacity:1;stroke:none;stroke-width:0.78125399"
       xml:space="preserve"><tspan
         id="tspan1117"
         y="3710.5657"
         x="2203.0203"
         sodipodi:role="line"
         style="font-style:normal;font-variant:normal;font-weight:normal;font-stretch:normal;font-size:35.15639877px;font-family:Lavi;-inkscape-font-specification:Lavi;fill:#000000;stroke-width:0.78125399">Kiitos!</tspan></text>
    <text
       xml:space="preserve"
       style="color:#000000;font-style:italic;font-size:40px;line-height:1.27;font-family:Lavi;-inkscape-font-specification:'Lavi Italic';text-align:center;text-decoration:none;text-decoration-line:none;text-decoration-color:#000000;letter-spacing:-4.40394px;word-spacing:0px;text-anchor:middle;overflow:visible;fill:#7cfc00;stroke-width:1.02803;stop-color:#000000"
       x="1460.031"
       y="-886.05347"
       id="text1943"><tspan
         sodipodi:role="line"
         id="tspan1941" /></text>
  </g>
  <g
     sodipodi:insensitive="true"
     transform="translate(0,850)"
     style="opacity:0.557"
     inkscape:label="notes"
     id="layer4"
     inkscape:groupmode="layer">
    <flowRoot
       transform="translate(0,-850)"
       style="font-style:normal;font-variant:normal;font-weight:normal;font-stretch:normal;font-size:13.3333px;line-height:140%;font-family:sans-serif;-inkscape-font-specification:'sans-serif, Normal';font-variant-ligatures:normal;font-variant-caps:normal;font-variant-numeric:normal;font-feature-settings:normal;text-align:center;letter-spacing:0px;word-spacing:0px;writing-mode:lr-tb;text-anchor:middle;fill:#000000;fill-opacity:1;stroke:none;stroke-width:1px;stroke-linecap:butt;stroke-linejoin:miter;stroke-opacity:1"
       id="flowRoot147"
       xml:space="preserve"><flowRegion
         id="flowRegion149"><rect
           y="445.68756"
           x="-209.875"
           height="74.75"
           width="127.9375"
           id="rect151" /></flowRegion><flowPara
         id="flowPara153" /></flowRoot>    <path
       sodipodi:nodetypes="cccccccc"
       inkscape:connector-curvature="0"
       id="rect4191-6"
       d="m -687.60986,-494.48155 v 348.52795 h 504.87202 v -295.00919 l 17.16539,-15.34704 -17.16539,-11.92212 v -26.2496 z"
       style="color:#000000;clip-rule:nonzero;display:inline;overflow:visible;visibility:visible;isolation:auto;mix-blend-mode:normal;color-interpolation:sRGB;color-interpolation-filters:linearRGB;solid-color:#000000;solid-opacity:1;fill:#fff3c0;fill-opacity:1;fill-rule:nonzero;stroke:#565656;stroke-width:1.31302;stroke-linecap:butt;stroke-linejoin:miter;stroke-miterlimit:4;stroke-dasharray:none;stroke-dashoffset:0;stroke-opacity:1;marker:none;color-rendering:auto;image-rendering:auto;shape-rendering:auto;text-rendering:auto;enable-background:accumulate" />
    <path
       style="color:#000000;clip-rule:nonzero;display:inline;overflow:visible;visibility:visible;isolation:auto;mix-blend-mode:normal;color-interpolation:sRGB;color-interpolation-filters:linearRGB;solid-color:#000000;solid-opacity:1;fill:#fff3c0;fill-opacity:1;fill-rule:nonzero;stroke:#565656;stroke-width:1.2;stroke-linecap:butt;stroke-linejoin:miter;stroke-miterlimit:4;stroke-dasharray:none;stroke-dashoffset:0;stroke-opacity:1;marker:none;color-rendering:auto;image-rendering:auto;shape-rendering:auto;text-rendering:auto;enable-background:accumulate"
       d="M -687.66637,-902.27584 V -790.127 h 504.98504 v -112.14884 z"
       id="path1126"
       inkscape:connector-curvature="0"
       sodipodi:nodetypes="ccccc" />
    <flowRoot
       xml:space="preserve"
       id="flowRoot1089"
       style="font-style:normal;font-variant:normal;font-weight:normal;font-stretch:normal;font-size:32.5133px;line-height:0.01%;font-family:Lavi;-inkscape-font-specification:'Lavi, Normal';font-variant-ligatures:normal;font-variant-caps:normal;font-variant-numeric:normal;font-feature-settings:normal;text-align:start;letter-spacing:0px;word-spacing:0px;writing-mode:lr-tb;text-anchor:start;display:inline;opacity:0.86;fill:#000000;fill-opacity:1;stroke:none;stroke-width:0.903147px;stroke-linecap:butt;stroke-linejoin:miter;stroke-opacity:1"
       transform="matrix(1.1072392,0,0,1.1072392,-265.119,-2064.5414)"><flowRegion
         id="flowRegion1067"
         style="font-style:normal;font-variant:normal;font-weight:normal;font-stretch:normal;font-size:32.5133px;font-family:Lavi;-inkscape-font-specification:'Lavi, Normal';font-variant-ligatures:normal;font-variant-caps:normal;font-variant-numeric:normal;font-feature-settings:normal;text-align:start;writing-mode:lr-tb;text-anchor:start;stroke-width:0.903147px"><rect
           id="rect1065"
           width="328.94995"
           height="150.45786"
           x="-275.14545"
           y="1061.6674"
           style="font-style:normal;font-variant:normal;font-weight:normal;font-stretch:normal;font-size:32.51329803px;font-family:Lavi;-inkscape-font-specification:'Lavi, Normal';font-variant-ligatures:normal;font-variant-caps:normal;font-variant-numeric:normal;font-feature-settings:normal;text-align:start;writing-mode:lr-tb;text-anchor:start;stroke-width:0.90314716px" /></flowRegion><flowPara
         style="font-style:normal;font-variant:normal;font-weight:normal;font-stretch:normal;font-size:32.5133px;line-height:1.25;font-family:Lavi;-inkscape-font-specification:'Lavi, Normal';font-variant-ligatures:normal;font-variant-caps:normal;font-variant-numeric:normal;font-feature-settings:normal;text-align:start;writing-mode:lr-tb;text-anchor:start;stroke-width:0.903147px"
         id="flowPara1087">You can also translate</flowPara><flowPara
         id="flowPara1115"
         style="font-style:normal;font-variant:normal;font-weight:normal;font-stretch:normal;font-size:32.5133px;line-height:1.25;font-family:Lavi;-inkscape-font-specification:'Lavi, Normal';font-variant-ligatures:normal;font-variant-caps:normal;font-variant-numeric:normal;font-feature-settings:normal;text-align:start;writing-mode:lr-tb;text-anchor:start;stroke-width:0.903147px">this page if you want.</flowPara></flowRoot>    <rect
       style="vector-effect:none;fill:#ffffff;fill-opacity:1;fill-rule:nonzero;stroke:#565656;stroke-width:2;stroke-linecap:butt;stroke-linejoin:miter;stroke-miterlimit:4;stroke-dasharray:none;stroke-dashoffset:0;stroke-opacity:1;paint-order:fill markers stroke"
       id="rect1119"
       width="40.609375"
       height="40.609375"
       x="-663.32471"
       y="-878.03601"
       rx="6.828125"
       ry="6.828125" />
    <flowRoot
       transform="matrix(1.1072392,0,0,1.1072392,-367.244,-1647.6186)"
       style="font-style:normal;font-variant:normal;font-weight:normal;font-stretch:normal;font-size:32.5133px;line-height:0.01%;font-family:Lavi;-inkscape-font-specification:'Lavi, Normal';font-variant-ligatures:normal;font-variant-caps:normal;font-variant-numeric:normal;font-feature-settings:normal;text-align:center;letter-spacing:0px;word-spacing:0px;writing-mode:lr-tb;text-anchor:middle;display:inline;opacity:0.86;fill:#000000;fill-opacity:1;stroke:none;stroke-width:0.903147px;stroke-linecap:butt;stroke-linejoin:miter;stroke-opacity:1"
       id="flowRoot4212-7"
       xml:space="preserve"><flowRegion
         style="font-style:normal;font-variant:normal;font-weight:normal;font-stretch:normal;font-size:32.5133px;font-family:Lavi;-inkscape-font-specification:'Lavi, Normal';font-variant-ligatures:normal;font-variant-caps:normal;font-variant-numeric:normal;font-feature-settings:normal;text-align:center;writing-mode:lr-tb;text-anchor:middle;stroke-width:0.903147px"
         id="flowRegion4214-5"><rect
           style="font-style:normal;font-variant:normal;font-weight:normal;font-stretch:normal;font-size:32.51329803px;font-family:Lavi;-inkscape-font-specification:'Lavi, Normal';font-variant-ligatures:normal;font-variant-caps:normal;font-variant-numeric:normal;font-feature-settings:normal;text-align:center;writing-mode:lr-tb;text-anchor:middle;stroke-width:0.90314716px"
           y="1061.6674"
           x="-275.14545"
           height="405.5687"
           width="426.3205"
           id="rect4216-3" /></flowRegion><flowPara
         id="flowPara885"
         style="font-style:normal;font-variant:normal;font-weight:bold;font-stretch:normal;font-size:24.0839px;line-height:1.25;font-family:Lavi;-inkscape-font-specification:'Lavi, Normal';font-variant-ligatures:normal;font-variant-caps:normal;font-variant-numeric:normal;font-feature-settings:normal;text-align:center;writing-mode:lr-tb;text-anchor:middle;stroke-width:0.903147px">NOTE FOR TRANSLATORS</flowPara><flowPara
         id="flowPara145"
         style="font-style:normal;font-variant:normal;font-weight:normal;font-stretch:normal;font-size:12.042px;line-height:1.25;font-family:Lavi;-inkscape-font-specification:'Lavi, Normal';font-variant-ligatures:normal;font-variant-caps:normal;font-variant-numeric:normal;font-feature-settings:normal;text-align:center;writing-mode:lr-tb;text-anchor:middle;stroke-width:0.903147px" /><flowPara
         id="flowPara877"
         style="font-style:normal;font-variant:normal;font-weight:normal;font-stretch:normal;font-size:32.5133px;line-height:1.25;font-family:Lavi;-inkscape-font-specification:'Lavi, Normal';font-variant-ligatures:normal;font-variant-caps:normal;font-variant-numeric:normal;font-feature-settings:normal;text-align:center;writing-mode:lr-tb;text-anchor:middle;stroke-width:0.903147px" /><flowPara
         id="flowPara542"
         style="font-style:normal;font-variant:normal;font-weight:normal;font-stretch:normal;font-size:32.5133px;line-height:1.25;font-family:Lavi;-inkscape-font-specification:'Lavi, Normal';font-variant-ligatures:normal;font-variant-caps:normal;font-variant-numeric:normal;font-feature-settings:normal;text-align:center;writing-mode:lr-tb;text-anchor:middle;stroke-width:0.903147px">Replace this section, e.g.:</flowPara><flowPara
         id="flowPara552"
         style="font-style:normal;font-variant:normal;font-weight:normal;font-stretch:normal;font-size:12.042px;line-height:1.25;font-family:Lavi;-inkscape-font-specification:'Lavi, Normal';font-variant-ligatures:normal;font-variant-caps:normal;font-variant-numeric:normal;font-feature-settings:normal;text-align:center;writing-mode:lr-tb;text-anchor:middle;stroke-width:0.903147px" /><flowPara
         id="flowPara544"
         style="font-style:normal;font-variant:normal;font-weight:bold;font-stretch:normal;font-size:32.5133px;line-height:1.25;font-family:Lavi;-inkscape-font-specification:'Lavi, Normal';font-variant-ligatures:normal;font-variant-caps:normal;font-variant-numeric:normal;font-feature-settings:normal;text-align:center;writing-mode:lr-tb;text-anchor:middle;stroke-width:0.903147px">French version</flowPara><flowPara
         id="flowPara554"
         style="font-style:normal;font-variant:normal;font-weight:normal;font-stretch:normal;font-size:32.5133px;line-height:1.25;font-family:Lavi;-inkscape-font-specification:'Lavi, Normal';font-variant-ligatures:normal;font-variant-caps:normal;font-variant-numeric:normal;font-feature-settings:normal;text-align:center;writing-mode:lr-tb;text-anchor:middle;stroke-width:0.903147px"><flowSpan
   id="flowSpan155"
   style="font-weight:bold">Translation:</flowSpan> My Name.</flowPara><flowPara
         id="flowPara1038"
         style="font-style:normal;font-variant:normal;font-weight:normal;font-stretch:normal;font-size:32.5133px;line-height:1.25;font-family:Lavi;-inkscape-font-specification:'Lavi, Normal';font-variant-ligatures:normal;font-variant-caps:normal;font-variant-numeric:normal;font-feature-settings:normal;text-align:center;writing-mode:lr-tb;text-anchor:middle;stroke-width:0.903147px"><flowSpan
   id="flowSpan157"
   style="font-weight:bold">Proofreading:</flowSpan> Other Name.</flowPara></flowRoot>    <rect
       ry="6.828125"
       rx="6.828125"
       y="-853.05945"
       x="-629.36377"
       height="40.609375"
       width="40.609375"
       id="rect1053"
       style="vector-effect:none;fill:#ffffff;fill-opacity:1;fill-rule:nonzero;stroke:#565656;stroke-width:2;stroke-linecap:butt;stroke-linejoin:miter;stroke-miterlimit:4;stroke-dasharray:none;stroke-dashoffset:0;stroke-opacity:1;paint-order:fill markers stroke" />
    <g
       transform="matrix(0.59407669,0,0,0.59407669,-276.24278,-728.01149)"
       id="text1042"
       style="font-style:normal;font-variant:normal;font-weight:500;font-stretch:normal;font-size:53.3333px;line-height:140%;font-family:Beteckna;-inkscape-font-specification:'Beteckna, Medium';font-variant-ligatures:normal;font-variant-caps:normal;font-variant-numeric:normal;font-feature-settings:normal;text-align:center;letter-spacing:0px;word-spacing:0px;writing-mode:lr-tb;text-anchor:middle;opacity:0.557;fill:#000000;fill-opacity:1;stroke:#000000;stroke-width:1px;stroke-linecap:butt;stroke-linejoin:miter;stroke-opacity:1"
       aria-label="文">
      <path
         style="stroke:#000000;stroke-opacity:1"
         inkscape:connector-curvature="0"
         id="path1044"
         d="m -579.73479,-186.8389 q -1.06667,0 -1.81333,-0.74666 -0.74667,-0.74667 -0.74667,-1.81334 0,-1.01333 0.74667,-1.76 0.74666,-0.74666 1.81333,-0.74666 h 17.49333 q 0.48,0 0.48,-0.48 v -4.21334 q 0,-1.22666 0.85334,-2.08 0.90666,-0.85333 2.08,-0.85333 1.17333,0 2.02666,0.85333 0.90667,0.85334 0.90667,2.08 v 4.21334 q 0,0.48 0.48,0.48 h 17.54666 q 1.01334,0 1.76,0.74666 0.74667,0.69334 0.74667,1.76 0,1.06667 -0.74667,1.81334 -0.74666,0.74666 -1.76,0.74666 h -4.26666 q -0.42667,0 -0.58667,0.42667 -4.58667,13.92 -11.57333,21.12 -0.32,0.32 0.0533,0.58667 6.02667,4.16 16.48,7.46666 1.01333,0.32 1.49333,1.28 0.48,0.96 0.16,1.97334 -0.37333,1.06666 -1.33333,1.54666 -0.96,0.48 -1.97333,0.16 -11.89334,-3.68 -19.04,-8.8 -0.37333,-0.26666 -0.74667,0 -7.14666,5.17334 -19.04,8.8 -1.01333,0.32 -1.97333,-0.16 -0.96,-0.48 -1.33333,-1.54666 -0.32,-1.01334 0.16,-1.97334 0.48,-0.96 1.49333,-1.28 10.50667,-3.36 16.48,-7.52 0.37333,-0.21333 0.0533,-0.53333 -5.81333,-5.97333 -9.76,-15.68 -0.42666,-1.01333 0.10667,-2.02667 0.53333,-1.06666 1.65333,-1.33333 1.17334,-0.32 2.18667,0.26667 1.06667,0.53333 1.49333,1.65333 3.36,8.42667 8.48,13.6 0.26667,0.26667 0.58667,-0.0533 5.76,-6.08 9.70666,-17.54667 0.10667,-0.42667 -0.32,-0.42667 z" />
    </g>
    <path
       sodipodi:nodetypes="cccccccc"
       inkscape:connector-curvature="0"
       id="path158"
       d="m -690.5407,-734.42235 v 205.24103 h 504.56236 v -49.61042 l 15.46636,-18.00777 -15.46636,-15.8247 v -121.79814 z"
       style="color:#000000;clip-rule:nonzero;display:inline;overflow:visible;visibility:visible;isolation:auto;mix-blend-mode:normal;color-interpolation:sRGB;color-interpolation-filters:linearRGB;solid-color:#000000;solid-opacity:1;fill:#fff3c0;fill-opacity:1;fill-rule:nonzero;stroke:#565656;stroke-width:1.62268;stroke-linecap:butt;stroke-linejoin:miter;stroke-miterlimit:4;stroke-dasharray:none;stroke-dashoffset:0;stroke-opacity:1;marker:none;color-rendering:auto;image-rendering:auto;shape-rendering:auto;text-rendering:auto;enable-background:accumulate" />
    <flowRoot
       transform="matrix(1.1072392,0,0,1.1072392,-283.45166,-1896.8992)"
       style="font-style:normal;font-variant:normal;font-weight:normal;font-stretch:normal;font-size:32.5133px;line-height:0.01%;font-family:Lavi;-inkscape-font-specification:'Lavi, Normal';font-variant-ligatures:normal;font-variant-caps:normal;font-variant-numeric:normal;font-feature-settings:normal;text-align:start;letter-spacing:0px;word-spacing:0px;writing-mode:lr-tb;text-anchor:start;display:inline;opacity:0.86;fill:#000000;fill-opacity:1;stroke:none;stroke-width:0.903147px;stroke-linecap:butt;stroke-linejoin:miter;stroke-opacity:1"
       id="flowRoot180"
       xml:space="preserve"><flowRegion
         style="font-style:normal;font-variant:normal;font-weight:normal;font-stretch:normal;font-size:32.5133px;font-family:Lavi;-inkscape-font-specification:'Lavi, Normal';font-variant-ligatures:normal;font-variant-caps:normal;font-variant-numeric:normal;font-feature-settings:normal;text-align:start;writing-mode:lr-tb;text-anchor:start;stroke-width:0.903147px"
         id="flowRegion174"><rect
           style="font-style:normal;font-variant:normal;font-weight:normal;font-stretch:normal;font-size:32.51329803px;font-family:Lavi;-inkscape-font-specification:'Lavi, Normal';font-variant-ligatures:normal;font-variant-caps:normal;font-variant-numeric:normal;font-feature-settings:normal;text-align:start;writing-mode:lr-tb;text-anchor:start;stroke-width:0.90314716px"
           y="1061.6674"
           x="-275.14545"
           height="212.88319"
           width="353.73645"
           id="rect172" /></flowRegion><flowPara
         style="font-style:normal;font-variant:normal;font-weight:normal;font-stretch:normal;font-size:32.5133px;line-height:1.25;font-family:Lavi;-inkscape-font-specification:'Lavi, Normal';font-variant-ligatures:normal;font-variant-caps:normal;font-variant-numeric:normal;font-feature-settings:normal;text-align:start;writing-mode:lr-tb;text-anchor:start;stroke-width:0.903147px"
         id="flowPara178"><flowSpan
   id="flowSpan1014"
   style="font-weight:bold">Beta readers</flowSpan> help with the story, <flowSpan
   id="flowSpan1016"
   style="font-weight:bold">proofreaders</flowSpan> give feedback about the text.</flowPara></flowRoot>    <g
       style="opacity:0.557"
       transform="translate(-124.19757,52.142761)"
       id="g1043">
      <path
         style="opacity:1;vector-effect:none;fill:#cccccc;fill-opacity:1;fill-rule:nonzero;stroke:#787878;stroke-width:2;stroke-linecap:butt;stroke-linejoin:miter;stroke-miterlimit:4;stroke-dasharray:none;stroke-dashoffset:0;stroke-opacity:1;paint-order:fill markers stroke"
         d="m -518.53699,-666.84645 c -0.61422,0 -1.11032,0.44692 -1.11032,1.00248 v 12.91861 c 0,0.55556 0.4961,1.00249 1.11032,1.00249 h 1.73686 v 0.60907 c 0,0.76558 0.61574,1.38132 1.38132,1.38132 h 6.37043 c 0.76558,0 1.38133,-0.61574 1.38133,-1.38132 v -0.60907 h 1.73685 c 0.61423,0 1.11031,-0.44693 1.11031,-1.00249 v -12.91861 c 0,-0.55556 -0.49608,-1.00248 -1.11031,-1.00248 z"
         id="rect192"
         inkscape:connector-curvature="0" />
      <path
         style="opacity:1;vector-effect:none;fill:#ffff98;fill-opacity:1;fill-rule:nonzero;stroke:#787878;stroke-width:2;stroke-linecap:butt;stroke-linejoin:miter;stroke-miterlimit:4;stroke-dasharray:none;stroke-dashoffset:0;stroke-opacity:1;paint-order:fill markers stroke"
         d="m -512.23359,-731.76886 c -20.17859,0 -27.20983,14.91405 -27.20983,25.74398 0,18.52719 18.63045,25.28436 18.63045,37.26089 v 2.29638 c 0,0.73518 0.59075,1.32595 1.32595,1.32595 h 14.50685 c 0.7352,0 1.32597,-0.59077 1.32597,-1.32595 v -2.29638 c 0,-11.97653 18.63043,-18.7337 18.63043,-37.26089 0,-10.82993 -7.03125,-25.74398 -27.20982,-25.74398 z"
         id="path184"
         inkscape:connector-curvature="0"
         sodipodi:nodetypes="ssscsscsss" />
      <path
         id="path1016"
         style="fill:none;fill-rule:evenodd;stroke:#787878;stroke-width:1px;stroke-linecap:butt;stroke-linejoin:miter;stroke-opacity:1"
         d="m -507.44236,-664.67965 c -2.02309,-12.0089 -0.93024,-25.69888 3.20539,-31.87898 l 2e-5,-1.4e-4 c -0.69465,2.89489 -6.40555,2.16513 -6.6718,-0.75503 -1.0292,0.75759 -2.788,0.37964 -3.26183,0.2394 -0.0566,5.19286 -5.00817,-2.69192 -6.34424,0.51563 3.22578,4.01626 4.8117,19.84006 3.01482,31.87912"
         inkscape:connector-curvature="0"
         sodipodi:nodetypes="ccccccc" />
    </g>
  </g>
</svg>
